{
   "n_download_no_trigger" : 1,
   "start_activity" : "download_0",
   "name" : "original.testbed.localhost_www.newrepublic.com",
   "load_activity" : -1,
   "objs" : [
      {
         "when_comp_start" : 1,
         "url" : "http://original.testbed.localhost/www.newrepublic.com",
         "id" : "r1",
         "comps" : [
            {
               "s_time" : 54.7300000034738,
               "time" : 0.720999989425799,
               "type" : "evalhtml",
               "id" : "r1_c1",
               "e_time" : 55.4509999928996
            }
         ],
         "download" : {
            "receiveFirst" : 6,
            "len" : 309,
            "dns" : 0,
            "dnsEnd" : -1,
            "receiveHeadersEnd" : 12,
            "sslEnd" : -1,
            "connectEnd" : 5,
            "connectStart" : 0,
            "id" : "download_0",
            "receivedTime" : "14.1419999999925",
            "sslStart" : -1,
            "dnsStart" : -1,
            "receiveLast" : 2.14199999999255,
            "s_time" : 0,
            "sendEnd" : 6,
            "sendStart" : 5,
            "type" : "text/html"
         }
      }
   ],
   "deps" : []
}
