{
   "start_activity" : "download_0",
   "name" : "original.testbed.localhost_www.onclickads.net_",
   "objs" : [
      {
         "id" : "r1",
         "url" : "http://original.testbed.localhost/www.onclickads.net/",
         "when_comp_start" : 1,
         "download" : {
            "receivedTime" : "51.7150000086986",
            "receiveLast" : 0.715000008698553,
            "s_time" : 0,
            "sslEnd" : -1,
            "receiveHeadersEnd" : 51,
            "sendStart" : 0,
            "len" : 3324,
            "sslStart" : -1,
            "type" : "text/html",
            "connectEnd" : 0,
            "receiveFirst" : 51,
            "sendEnd" : 0,
            "dns" : 0,
            "dnsEnd" : -1,
            "id" : "download_0",
            "dnsStart" : -1,
            "connectStart" : 0
         },
         "comps" : [
            {
               "id" : "r1_c1",
               "type" : "evalhtml",
               "e_time" : 65.4799999902025,
               "time" : 0.591999967582495,
               "s_time" : 64.88800002262
            },
            {
               "type" : "evalhtml",
               "e_time" : 169.22700003488,
               "id" : "r1_c2",
               "s_time" : 168.561000027694,
               "time" : 0.666000007186
            },
            {
               "time" : -359597120.91,
               "s_time" : 2867.00500000734,
               "id" : "r1_c3",
               "e_time" : -359594253.905,
               "type" : "evalhtml"
            },
            {
               "type" : "evalhtml",
               "e_time" : 2909.09899998223,
               "id" : "r1_c4",
               "s_time" : 2868.40500001563,
               "time" : 40.6939999666001
            }
         ]
      },
      {
         "id" : "r2",
         "url" : "http://original.testbed.localhost/fonts.googleapis.com/css%3Ffamily=PT+Sans&subset=latin,cyrillic-ext.css",
         "when_comp_start" : -1,
         "download" : {
            "sendStart" : 1,
            "len" : 218,
            "sslStart" : -1,
            "receiveLast" : 66.3140000319108,
            "receivedTime" : "117.314000031911",
            "sslEnd" : -1,
            "receiveHeadersEnd" : 51,
            "s_time" : 65.1700000162236,
            "receiveFirst" : 50,
            "type" : "text/css",
            "connectEnd" : 1,
            "sendEnd" : 1,
            "dns" : 0,
            "connectStart" : 0,
            "id" : "download_1",
            "dnsEnd" : -1,
            "dnsStart" : -1
         },
         "comps" : [
            {
               "id" : "comp_0",
               "type" : 4,
               "e_time" : 117.418000008911,
               "time" : 0.0739999813959997,
               "s_time" : 117.344000027515
            }
         ]
      },
      {
         "url" : "http://original.testbed.localhost/www.onclickads.net/style/style.css",
         "id" : "r3",
         "download" : {
            "connectStart" : 0,
            "dnsStart" : -1,
            "id" : "download_2",
            "dnsEnd" : -1,
            "sendEnd" : 0,
            "dns" : 0,
            "receiveFirst" : 51,
            "connectEnd" : 0,
            "type" : "text/css",
            "sslStart" : -1,
            "len" : 1731,
            "sendStart" : 0,
            "receiveHeadersEnd" : 51,
            "sslEnd" : -1,
            "s_time" : 65.2700000209734,
            "receiveLast" : 66.4630000023171,
            "receivedTime" : "117.463000002317"
         },
         "when_comp_start" : -1,
         "comps" : [
            {
               "e_time" : 117.838000005577,
               "type" : 4,
               "id" : "comp_1",
               "s_time" : 117.497000028379,
               "time" : 0.340999977197995
            }
         ]
      },
      {
         "comps" : [
            {
               "time" : 0.959000026342011,
               "s_time" : 167.602000001352,
               "id" : "comp_2",
               "e_time" : 168.561000027694,
               "type" : 1
            }
         ],
         "url" : "http://original.testbed.localhost/www.google.com/recaptcha/api.js",
         "id" : "r4",
         "download" : {
            "dns" : 0,
            "sendEnd" : 50,
            "connectStart" : 0,
            "id" : "download_3",
            "dnsEnd" : 0,
            "dnsStart" : 0,
            "sendStart" : 50,
            "len" : 532,
            "sslStart" : -1,
            "receiveLast" : 66.4849999835715,
            "receivedTime" : "167.484999983571",
            "sslEnd" : -1,
            "receiveHeadersEnd" : 101,
            "s_time" : 65.3790000360459,
            "receiveFirst" : 51,
            "type" : "application/javascript",
            "connectEnd" : 50
         },
         "when_comp_start" : -1
      },
      {
         "download" : {
            "connectStart" : 0,
            "dnsEnd" : 0,
            "id" : "download_4",
            "dnsStart" : 0,
            "dns" : 0,
            "sendEnd" : 50,
            "receiveFirst" : 52,
            "type" : "application/javascript",
            "connectEnd" : 50,
            "len" : 11781,
            "sendStart" : 50,
            "sslStart" : -1,
            "receivedTime" : "179.315000015777",
            "receiveLast" : 77.3150000157766,
            "s_time" : 65.4799999902025,
            "sslEnd" : -1,
            "receiveHeadersEnd" : 102
         },
         "when_comp_start" : -1,
         "url" : "http://original.testbed.localhost/www.googleadservices.com/pagead/conversion.js",
         "id" : "r5",
         "comps" : [
            {
               "id" : "comp_5",
               "e_time" : 2867.00500000734,
               "type" : 1,
               "time" : 2687.65400000848,
               "s_time" : 179.35099999886
            },
            {
               "s_time" : 2867.1430000104,
               "time" : 1.26200000522977,
               "type" : 1,
               "e_time" : 2868.40500001563,
               "id" : "comp_9"
            }
         ]
      },
      {
         "comps" : [],
         "when_comp_start" : -1,
         "download" : {
            "connectStart" : 0,
            "dnsStart" : -1,
            "id" : "download_5",
            "dnsEnd" : -1,
            "sendEnd" : 0,
            "dns" : 0,
            "receiveFirst" : 50,
            "connectEnd" : 0,
            "type" : "image/png",
            "sslStart" : -1,
            "len" : 22346,
            "sendStart" : 0,
            "receiveHeadersEnd" : 50,
            "sslEnd" : -1,
            "s_time" : 169.22700003488,
            "receiveLast" : 2837.65600003535,
            "receivedTime" : "2887.65600003535"
         },
         "id" : "r8",
         "url" : "http://original.testbed.localhost/www.onclickads.net/images/main.png"
      },
      {
         "when_comp_start" : -1,
         "download" : {
            "s_time" : 2909.09899998223,
            "sslEnd" : -1,
            "receiveHeadersEnd" : 51,
            "receivedTime" : "2961.71499998309",
            "receiveLast" : 2910.71499998309,
            "sslStart" : -1,
            "len" : 214068,
            "sendStart" : 0,
            "connectEnd" : 0,
            "type" : "application/octet-stream",
            "receiveFirst" : 51,
            "dns" : 0,
            "sendEnd" : 0,
            "dnsStart" : -1,
            "dnsEnd" : -1,
            "id" : "download_6",
            "connectStart" : 0
         },
         "id" : "r6",
         "url" : "http://original.testbed.localhost/fonts.gstatic.com/s/ptsans/v8/msNrBgwx3ln3jjNy5b_Syw.ttf",
         "comps" : []
      }
   ],
   "load_activity" : -1,
   "deps" : [
      {
         "id" : "dep1",
         "time" : -1,
         "a1" : "comp_2",
         "a2" : "r1_c2"
      },
      {
         "a2" : "r1_c3",
         "a1" : "comp_5",
         "time" : -1,
         "id" : "dep2"
      },
      {
         "a2" : "r1_c4",
         "time" : -1,
         "a1" : "comp_9",
         "id" : "dep3"
      },
      {
         "id" : "dep4",
         "time" : -1,
         "a1" : "comp_0",
         "a2" : "comp_2"
      },
      {
         "a2" : "comp_2",
         "time" : -1,
         "a1" : "comp_1",
         "id" : "dep5"
      },
      {
         "id" : "dep6",
         "time" : -1,
         "a1" : "r1_c4",
         "a2" : "download_6"
      },
      {
         "id" : "dep7",
         "a1" : "r1_c2",
         "time" : -1,
         "a2" : "download_5"
      },
      {
         "a2" : "download_4",
         "id" : "dep8",
         "a1" : "r1_c1",
         "time" : -1
      },
      {
         "a1" : "r1_c1",
         "time" : 0.591999967582495,
         "id" : "dep9",
         "a2" : "download_4"
      },
      {
         "id" : "dep10",
         "time" : 0.491000013425889,
         "a1" : "r1_c1",
         "a2" : "download_3"
      },
      {
         "a2" : "download_2",
         "id" : "dep11",
         "a1" : "r1_c1",
         "time" : 0.381999998353393
      },
      {
         "time" : 0.281999993603591,
         "a1" : "r1_c1",
         "id" : "dep12",
         "a2" : "download_1"
      }
   ],
   "n_download_no_trigger" : 1
}
