{
   "load_activity" : -1,
   "objs" : [
      {
         "id" : "r1",
         "url" : "http://original.testbed.localhost/www.imdb.com/",
         "download" : {
            "sslStart" : -1,
            "type" : "text/html",
            "sslEnd" : -1,
            "receiveLast" : 50.7050000051968,
            "receiveHeadersEnd" : 54,
            "len" : 155804,
            "connectStart" : 0,
            "sendStart" : 0,
            "dnsEnd" : -1,
            "id" : "download_0",
            "dnsStart" : -1,
            "s_time" : 0,
            "connectEnd" : 0,
            "receiveFirst" : 54,
            "dns" : 0,
            "receivedTime" : "104.705000005197",
            "sendEnd" : 0
         },
         "comps" : [
            {
               "id" : "r1_c1",
               "e_time" : 618.906999996398,
               "time" : 553.194999985863,
               "type" : "evalhtml",
               "s_time" : 65.7120000105351
            },
            {
               "time" : 0.90099999215397,
               "type" : "evalhtml",
               "s_time" : 646.483000018634,
               "id" : "r1_c2",
               "e_time" : 647.384000010788
            },
            {
               "e_time" : 649.061999982223,
               "id" : "r1_c3",
               "s_time" : 648.701999976765,
               "type" : "evalhtml",
               "time" : 0.360000005458005
            },
            {
               "e_time" : -352283708.331,
               "id" : "r1_c4",
               "type" : "evalhtml",
               "s_time" : 655.513999983668,
               "time" : -352284363.845
            },
            {
               "time" : 58.9129999862059,
               "s_time" : 660.411000018939,
               "type" : "evalhtml",
               "id" : "r1_c5",
               "e_time" : 719.324000005145
            }
         ],
         "when_comp_start" : 1
      },
      {
         "url" : "http://original.testbed.localhost/ia.media-imdb.com/images/G/01/imdb/css/collections/pagelayout-flat-903233829._CB298432192_.css",
         "id" : "r3",
         "comps" : [
            {
               "id" : "comp_14",
               "e_time" : 186.362000007648,
               "time" : 11.784999980591,
               "type" : 4,
               "s_time" : 174.577000027057
            }
         ],
         "when_comp_start" : -1,
         "download" : {
            "receiveHeadersEnd" : 55,
            "receiveLast" : 119.532999983057,
            "sslStart" : -1,
            "type" : "text/css",
            "sslEnd" : -1,
            "sendStart" : 1,
            "dnsEnd" : -1,
            "id" : "download_1",
            "len" : 144004,
            "connectStart" : 0,
            "dnsStart" : -1,
            "connectEnd" : 1,
            "s_time" : 68.1110000004992,
            "receiveFirst" : 54,
            "sendEnd" : 1,
            "dns" : 0,
            "receivedTime" : "174.532999983057"
         }
      },
      {
         "id" : "r4",
         "url" : "http://original.testbed.localhost/ia.media-imdb.com/images/G/01/imdb/css/site/consumer-navbar-mega-3796876714._CB298540748_.css",
         "download" : {
            "s_time" : 68.2159999851137,
            "connectEnd" : 36,
            "dnsStart" : -1,
            "receiveFirst" : 51,
            "sendEnd" : 36,
            "dns" : 0,
            "receivedTime" : "156.287999998312",
            "receiveLast" : 69.2879999983124,
            "receiveHeadersEnd" : 87,
            "sslStart" : -1,
            "type" : "text/css",
            "sslEnd" : -1,
            "sendStart" : 36,
            "id" : "download_2",
            "dnsEnd" : -1,
            "len" : 10006,
            "connectStart" : 0
         },
         "comps" : [
            {
               "id" : "comp_10",
               "e_time" : 157.059999997728,
               "time" : 0.748999998904992,
               "type" : 4,
               "s_time" : 156.310999998823
            }
         ],
         "when_comp_start" : -1
      },
      {
         "id" : "r8",
         "url" : "http://original.testbed.localhost/ia.media-imdb.com/images/G/01/imdb/images/navbar/imdbpro_logo_nb-720143162._CB306318304_.png",
         "download" : {
            "receiveLast" : 69.5150000052527,
            "receiveHeadersEnd" : 101,
            "sslEnd" : -1,
            "sslStart" : -1,
            "type" : "image/png",
            "id" : "download_3",
            "dnsEnd" : 0,
            "sendStart" : 50,
            "connectStart" : 0,
            "len" : 1340,
            "receiveFirst" : 51,
            "connectEnd" : 50,
            "s_time" : 68.5669999802485,
            "dnsStart" : 0,
            "sendEnd" : 50,
            "receivedTime" : "170.515000005253",
            "dns" : 0
         },
         "comps" : [],
         "when_comp_start" : -1
      },
      {
         "id" : "r5",
         "url" : "http://original.testbed.localhost/ia.media-imdb.com/images/G/01/imdb/css/collections/starbarwidget-2454701167._CB293329573_.css",
         "download" : {
            "connectEnd" : 51,
            "s_time" : 68.2810000143945,
            "dnsStart" : 0,
            "receiveFirst" : 51,
            "sendEnd" : 51,
            "dns" : 0,
            "receivedTime" : "170.891000016127",
            "receiveHeadersEnd" : 102,
            "receiveLast" : 68.8910000161268,
            "sslStart" : -1,
            "type" : "text/css",
            "sslEnd" : -1,
            "sendStart" : 51,
            "id" : "download_4",
            "dnsEnd" : 0,
            "len" : 3602,
            "connectStart" : 0
         },
         "when_comp_start" : -1,
         "comps" : [
            {
               "id" : "comp_11",
               "e_time" : 171.258000016678,
               "time" : 0.284000008833004,
               "type" : 4,
               "s_time" : 170.974000007845
            }
         ]
      },
      {
         "url" : "http://original.testbed.localhost/ia.media-imdb.com/images/G/01/imdb/css/collections/watchlistButton-2508181169._CB288096406_.css",
         "id" : "r6",
         "when_comp_start" : -1,
         "comps" : [
            {
               "e_time" : 171.777000010479,
               "id" : "comp_12",
               "type" : 4,
               "s_time" : 171.374000026844,
               "time" : 0.402999983635027
            }
         ],
         "download" : {
            "connectStart" : 0,
            "len" : 7470,
            "id" : "download_5",
            "dnsEnd" : 0,
            "sendStart" : 51,
            "sslEnd" : -1,
            "sslStart" : -1,
            "type" : "text/css",
            "receiveLast" : 69.3469999958761,
            "receiveHeadersEnd" : 102,
            "receivedTime" : "171.346999995876",
            "dns" : 0,
            "sendEnd" : 51,
            "receiveFirst" : 51,
            "connectEnd" : 51,
            "s_time" : 68.3560000034049,
            "dnsStart" : 0
         }
      },
      {
         "comps" : [
            {
               "time" : 0.40999997872899,
               "s_time" : 171.848000027239,
               "type" : 4,
               "id" : "comp_13",
               "e_time" : 172.258000005968
            }
         ],
         "when_comp_start" : -1,
         "download" : {
            "receivedTime" : "171.805999998469",
            "dns" : 0,
            "sendEnd" : 51,
            "receiveFirst" : 51,
            "connectEnd" : 50,
            "s_time" : 68.4459999902174,
            "dnsStart" : 0,
            "connectStart" : 0,
            "len" : 7361,
            "id" : "download_6",
            "dnsEnd" : 0,
            "sendStart" : 50,
            "sslEnd" : -1,
            "type" : "text/css",
            "sslStart" : -1,
            "receiveHeadersEnd" : 102,
            "receiveLast" : 69.8059999984689
         },
         "url" : "http://original.testbed.localhost/ia.media-imdb.com/images/G/01/imdb/css/collections/recommendations-3988610918._CB289934424_.css",
         "id" : "r7"
      },
      {
         "download" : {
            "len" : 41408,
            "connectStart" : 0,
            "sendStart" : 0,
            "id" : "download_7",
            "dnsEnd" : -1,
            "sslStart" : -1,
            "type" : "image/png",
            "sslEnd" : -1,
            "receiveLast" : 200.166999980342,
            "receiveHeadersEnd" : 51,
            "dns" : 0,
            "receivedTime" : "251.166999980342",
            "sendEnd" : 0,
            "connectEnd" : 0,
            "s_time" : 188.44800000079,
            "dnsStart" : -1,
            "receiveFirst" : 51
         },
         "comps" : [],
         "when_comp_start" : -1,
         "id" : "r9",
         "url" : "http://original.testbed.localhost/ia.media-imdb.com/images/G/01/imdb/images/navbar/navbar_sprite-580289297._V_.png"
      },
      {
         "when_comp_start" : -1,
         "comps" : [],
         "download" : {
            "receiveFirst" : 51,
            "connectEnd" : 0,
            "s_time" : 205.703000014182,
            "dnsStart" : -1,
            "receivedTime" : "262.47900002636",
            "dns" : 0,
            "sendEnd" : 0,
            "sslEnd" : -1,
            "type" : "image/png",
            "sslStart" : -1,
            "receiveLast" : 211.47900002636,
            "receiveHeadersEnd" : 51,
            "connectStart" : 0,
            "len" : 1024,
            "id" : "download_8",
            "dnsEnd" : -1,
            "sendStart" : 0
         },
         "url" : "http://original.testbed.localhost/ia.media-imdb.com/images/G/01/imdb/images/navbar/imdbpro_logo_menu-2185879182._CB306318245_.png",
         "id" : "r10"
      },
      {
         "url" : "http://original.testbed.localhost/ia.media-imdb.com/images/M/MV5BMTcyMDQ1OTE3MF5BMl5BanBnXkFtZTgwNjE3Nzk0ODE@._V1_SY298_CR4,0,201,298_AL_.jpg",
         "id" : "r11",
         "comps" : [],
         "when_comp_start" : -1,
         "download" : {
            "receiveLast" : 211.682000000495,
            "receiveHeadersEnd" : 51,
            "sslStart" : -1,
            "type" : "image/jpeg",
            "sslEnd" : -1,
            "sendStart" : 1,
            "dnsEnd" : -1,
            "id" : "download_9",
            "len" : 24014,
            "connectStart" : 0,
            "dnsStart" : -1,
            "connectEnd" : 1,
            "s_time" : 206.311999994796,
            "receiveFirst" : 50,
            "sendEnd" : 1,
            "dns" : 0,
            "receivedTime" : "262.682000000495"
         }
      },
      {
         "url" : "http://original.testbed.localhost/ia.media-imdb.com/images/M/MV5BMTQ3NzYwNjIxOF5BMl5BanBnXkFtZTgwODU1NzE4ODE@._V1_SX201_CR0,0,201,298_AL_.jpg",
         "id" : "r14",
         "when_comp_start" : -1,
         "comps" : [],
         "download" : {
            "dnsStart" : -1,
            "connectEnd" : 1,
            "s_time" : 206.597000011243,
            "receiveFirst" : 51,
            "dns" : 0,
            "receivedTime" : "265.860999992583",
            "sendEnd" : 1,
            "sslStart" : -1,
            "type" : "image/jpeg",
            "sslEnd" : -1,
            "receiveLast" : 213.860999992583,
            "receiveHeadersEnd" : 52,
            "len" : 11615,
            "connectStart" : 0,
            "sendStart" : 1,
            "dnsEnd" : -1,
            "id" : "download_10"
         }
      },
      {
         "download" : {
            "dnsEnd" : -1,
            "id" : "download_11",
            "sendStart" : 1,
            "connectStart" : 0,
            "len" : 1902,
            "receiveLast" : 213.989999985322,
            "receiveHeadersEnd" : 52,
            "sslEnd" : -1,
            "sslStart" : -1,
            "type" : "image/png",
            "sendEnd" : 1,
            "receivedTime" : "265.989999985322",
            "dns" : 0,
            "receiveFirst" : 51,
            "dnsStart" : -1,
            "connectEnd" : 1,
            "s_time" : 206.467000010889
         },
         "comps" : [],
         "when_comp_start" : -1,
         "id" : "r13",
         "url" : "http://original.testbed.localhost/ia.media-imdb.com/images/G/01/IMDb/icon/play-button-hover._CB318667374_.png"
      },
      {
         "id" : "r12",
         "url" : "http://original.testbed.localhost/ia.media-imdb.com/images/G/01/IMDb/icon/play-button._CB318667375_.png",
         "download" : {
            "id" : "download_12",
            "dnsEnd" : -1,
            "sendStart" : 1,
            "connectStart" : 0,
            "len" : 1872,
            "receiveLast" : 214.089999990072,
            "receiveHeadersEnd" : 52,
            "sslEnd" : -1,
            "sslStart" : -1,
            "type" : "image/png",
            "sendEnd" : 1,
            "receivedTime" : "266.089999990072",
            "dns" : 0,
            "receiveFirst" : 51,
            "s_time" : 206.388999999035,
            "connectEnd" : 1,
            "dnsStart" : -1
         },
         "when_comp_start" : -1,
         "comps" : []
      },
      {
         "comps" : [],
         "when_comp_start" : -1,
         "download" : {
            "connectEnd" : 33,
            "s_time" : 206.728000019211,
            "dnsStart" : -1,
            "receiveFirst" : 50,
            "sendEnd" : 33,
            "dns" : 0,
            "receivedTime" : "395.506999979261",
            "receiveHeadersEnd" : 83,
            "receiveLast" : 312.506999979261,
            "sslStart" : -1,
            "type" : "image/jpeg",
            "sslEnd" : -1,
            "sendStart" : 33,
            "id" : "download_13",
            "dnsEnd" : -1,
            "len" : 15771,
            "connectStart" : 0
         },
         "url" : "http://original.testbed.localhost/ia.media-imdb.com/images/M/MV5BMjA1MTA4MzU4Ml5BMl5BanBnXkFtZTgwNjUxNjczODE@._V1_SY298_CR0,0,201,298_AL_.jpg",
         "id" : "r15"
      },
      {
         "url" : "http://original.testbed.localhost/ia.media-imdb.com/images/M/MV5BZjgzZTFkMmQtM2JjZS00MmIyLWFmNWItZmNiODBiNTFhNzlhXkEyXkFqcGdeQXVyNjUwNzk3NDc@._UY460_CR190,0,614,460_SY230_SX307_AL_.jpg",
         "id" : "r16",
         "when_comp_start" : -1,
         "comps" : [],
         "download" : {
            "receiveLast" : 295.704000024125,
            "receiveHeadersEnd" : 100,
            "sslEnd" : -1,
            "sslStart" : -1,
            "type" : "image/jpeg",
            "dnsEnd" : -1,
            "id" : "download_14",
            "sendStart" : 50,
            "connectStart" : 0,
            "len" : 12603,
            "receiveFirst" : 50,
            "dnsStart" : -1,
            "connectEnd" : 50,
            "s_time" : 207.072000019252,
            "sendEnd" : 50,
            "receivedTime" : "395.704000024125",
            "dns" : 0
         }
      },
      {
         "id" : "r17",
         "url" : "http://original.testbed.localhost/ia.media-imdb.com/images/M/MV5BMTA0OTQwMDc1NTReQTJeQWpwZ15BbWU3MDg4MzA5NzI@._UX614_CR0,84,614,460_SY230_SX307_AL_.jpg",
         "download" : {
            "sendEnd" : 51,
            "receivedTime" : "395.820999983698",
            "dns" : 0,
            "receiveFirst" : 50,
            "connectEnd" : 51,
            "s_time" : 207.277000008617,
            "dnsStart" : -1,
            "id" : "download_15",
            "dnsEnd" : -1,
            "sendStart" : 51,
            "connectStart" : 0,
            "len" : 14399,
            "receiveHeadersEnd" : 101,
            "receiveLast" : 294.820999983698,
            "sslEnd" : -1,
            "sslStart" : -1,
            "type" : "image/jpeg"
         },
         "comps" : [],
         "when_comp_start" : -1
      },
      {
         "comps" : [],
         "when_comp_start" : -1,
         "download" : {
            "sslEnd" : -1,
            "sslStart" : -1,
            "type" : "image/jpeg",
            "receiveHeadersEnd" : 102,
            "receiveLast" : 293.91299998574,
            "connectStart" : 0,
            "len" : 9998,
            "dnsEnd" : -1,
            "id" : "download_16",
            "sendStart" : 51,
            "receiveFirst" : 51,
            "dnsStart" : -1,
            "s_time" : 207.562999974471,
            "connectEnd" : 51,
            "receivedTime" : "395.91299998574",
            "dns" : 0,
            "sendEnd" : 51
         },
         "url" : "http://original.testbed.localhost/ia.media-imdb.com/images/M/MV5BMjExMzQxNTMxMl5BMl5BanBnXkFtZTgwMDY1NzE4ODE@._UX1500_CR540,60,402,402_SY201_SX201_AL_.jpg",
         "id" : "r18"
      },
      {
         "download" : {
            "receiveFirst" : 51,
            "dnsStart" : -1,
            "s_time" : 240.225000015926,
            "connectEnd" : 19,
            "receivedTime" : "395.988999982364",
            "dns" : 0,
            "sendEnd" : 19,
            "sslEnd" : -1,
            "sslStart" : -1,
            "type" : "image/jpeg",
            "receiveLast" : 325.988999982364,
            "receiveHeadersEnd" : 70,
            "connectStart" : 0,
            "len" : 8485,
            "dnsEnd" : -1,
            "id" : "download_17",
            "sendStart" : 19
         },
         "when_comp_start" : -1,
         "comps" : [],
         "id" : "r19",
         "url" : "http://original.testbed.localhost/ia.media-imdb.com/images/M/MV5BMTk3NTA2MjE0N15BMl5BanBnXkFtZTgwNzU1NzE4ODE@._UX500_CR70,60,402,402_SY201_SX201_AL_.jpg"
      },
      {
         "comps" : [],
         "when_comp_start" : -1,
         "download" : {
            "dnsStart" : -1,
            "connectEnd" : 2,
            "s_time" : 257.250999973621,
            "receiveFirst" : 51,
            "sendEnd" : 2,
            "dns" : 0,
            "receivedTime" : "396.084000007249",
            "receiveHeadersEnd" : 53,
            "receiveLast" : 343.084000007249,
            "type" : "image/jpeg",
            "sslStart" : -1,
            "sslEnd" : -1,
            "sendStart" : 2,
            "dnsEnd" : -1,
            "id" : "download_18",
            "len" : 9366,
            "connectStart" : 0
         },
         "url" : "http://original.testbed.localhost/ia.media-imdb.com/images/M/MV5BMTg5NzI0NTI0OF5BMl5BanBnXkFtZTgwNjU1NzE4ODE@._UY402_CR70,0,402,402_SY201_SX201_AL_.jpg",
         "id" : "r20"
      },
      {
         "when_comp_start" : 1,
         "comps" : [
            {
               "id" : "r51_c1",
               "e_time" : 753.166000009514,
               "time" : 346.389000013005,
               "s_time" : 406.776999996509,
               "type" : "evalhtml"
            }
         ],
         "download" : {
            "sslEnd" : -1,
            "sslStart" : -1,
            "type" : "text/html",
            "receiveHeadersEnd" : 76,
            "receiveLast" : 320.170999971218,
            "connectStart" : 0,
            "len" : 1996,
            "dnsEnd" : -1,
            "id" : "download_19",
            "sendStart" : 26,
            "receiveFirst" : 50,
            "dnsStart" : -1,
            "connectEnd" : 26,
            "s_time" : 263.258000020869,
            "receivedTime" : "396.170999971218",
            "dns" : 0,
            "sendEnd" : 26
         },
         "url" : "http://original.testbed.localhost/ia.media-imdb.com/images/G/01/imdb/html/twitter-3626940295._CB298540565_.html%3Fconfig=%257B%2522width%2522%253A%2522300px%2522%252C%2522height%2522%253A%2522500px%2522%252C%2522href%2522%253A%2522https%253A%252F%252Ftwitter.com%252FIMDb%2522%252C%2522heading%2522%2",
         "id" : "r51"
      },
      {
         "download" : {
            "sslStart" : -1,
            "type" : "text/html",
            "sslEnd" : -1,
            "receiveHeadersEnd" : 93,
            "receiveLast" : 306.343999975827,
            "len" : 840,
            "connectStart" : 0,
            "sendStart" : 43,
            "id" : "download_20",
            "dnsEnd" : -1,
            "connectEnd" : 43,
            "s_time" : 263.632000016514,
            "dnsStart" : -1,
            "receiveFirst" : 50,
            "dns" : 0,
            "receivedTime" : "399.343999975827",
            "sendEnd" : 43
         },
         "when_comp_start" : 1,
         "comps" : [
            {
               "time" : 1.10599998151901,
               "type" : "evalhtml",
               "s_time" : 416.931000014301,
               "id" : "r52_c1",
               "e_time" : 418.03699999582
            }
         ],
         "id" : "r52",
         "url" : "http://original.testbed.localhost/ia.media-imdb.com/images/G/01/imdb/html/facebook-869486875._CB313935095_.html"
      },
      {
         "download" : {
            "sslStart" : -1,
            "type" : "application/javascript",
            "sslEnd" : -1,
            "receiveHeadersEnd" : 93,
            "receiveLast" : 312.261999985669,
            "len" : 5726,
            "connectStart" : 0,
            "sendStart" : 42,
            "id" : "download_21",
            "dnsEnd" : -1,
            "connectEnd" : 42,
            "s_time" : 267.8709999891,
            "dnsStart" : -1,
            "receiveFirst" : 51,
            "dns" : 0,
            "receivedTime" : "405.261999985669",
            "sendEnd" : 42
         },
         "when_comp_start" : -1,
         "comps" : [
            {
               "time" : 2.11199995828804,
               "type" : 1,
               "s_time" : 646.590000018477,
               "id" : "comp_101",
               "e_time" : 648.701999976765
            }
         ],
         "id" : "r56",
         "url" : "http://original.testbed.localhost/ia.media-imdb.com/images/G/01/imdb/js/collections/starbarwidget-335260898._CB289148898_.js"
      },
      {
         "url" : "http://original.testbed.localhost/ia.media-imdb.com/images/G/01/imdb/js/collections/watchlistButton-194820129._CB286493173_.js",
         "id" : "r57",
         "when_comp_start" : -1,
         "comps" : [
            {
               "id" : "comp_104",
               "e_time" : 655.513999983668,
               "time" : 6.71099999453804,
               "type" : 1,
               "s_time" : 648.80299998913
            }
         ],
         "download" : {
            "receiveLast" : 312.387000006158,
            "receiveHeadersEnd" : 93,
            "sslStart" : -1,
            "type" : "application/javascript",
            "sslEnd" : -1,
            "sendStart" : 42,
            "id" : "download_22",
            "dnsEnd" : -1,
            "len" : 23976,
            "connectStart" : 0,
            "connectEnd" : 42,
            "s_time" : 267.982000019401,
            "dnsStart" : -1,
            "receiveFirst" : 51,
            "sendEnd" : 42,
            "dns" : 0,
            "receivedTime" : "405.387000006158"
         }
      },
      {
         "url" : "http://original.testbed.localhost/ia.media-imdb.com/images/G/01/imdb/js/collections/pagelayout-1236922041._CB274690342_.js",
         "id" : "r55",
         "when_comp_start" : -1,
         "comps" : [
            {
               "time" : 36.5900000324471,
               "type" : 1,
               "s_time" : 609.892999986187,
               "id" : "comp_94",
               "e_time" : 646.483000018634
            }
         ],
         "download" : {
            "id" : "download_23",
            "dnsEnd" : -1,
            "sendStart" : 42,
            "connectStart" : 0,
            "len" : 88198,
            "receiveHeadersEnd" : 95,
            "receiveLast" : 310.527999973856,
            "sslEnd" : -1,
            "sslStart" : -1,
            "type" : "application/javascript",
            "sendEnd" : 42,
            "receivedTime" : "405.527999973856",
            "dns" : 0,
            "receiveFirst" : 53,
            "s_time" : 267.766000004485,
            "connectEnd" : 42,
            "dnsStart" : -1
         }
      },
      {
         "id" : "r54",
         "url" : "http://original.testbed.localhost/ia.media-imdb.com/images/G/01/imdb/js/collections/common-1944661907._CB274936654_.js",
         "download" : {
            "sslStart" : -1,
            "type" : "application/javascript",
            "sslEnd" : -1,
            "receiveHeadersEnd" : 98,
            "receiveLast" : 418.954999999143,
            "len" : 366484,
            "connectStart" : 0,
            "sendStart" : 41,
            "id" : "download_24",
            "dnsEnd" : -1,
            "connectEnd" : 41,
            "s_time" : 267.611999996006,
            "dnsStart" : -1,
            "receiveFirst" : 57,
            "dns" : 0,
            "receivedTime" : "516.954999999143",
            "sendEnd" : 41
         },
         "when_comp_start" : -1,
         "comps" : [
            {
               "s_time" : 517.081999976654,
               "type" : null,
               "time" : 92.737000028137,
               "e_time" : 609.819000004791,
               "id" : "comp_92"
            }
         ]
      },
      {
         "when_comp_start" : -1,
         "comps" : [],
         "download" : {
            "receiveFirst" : 51,
            "dnsStart" : -1,
            "s_time" : 258.600000001024,
            "connectEnd" : 133,
            "receivedTime" : "443.381000019144",
            "dns" : 0,
            "sendEnd" : 133,
            "sslEnd" : -1,
            "sslStart" : -1,
            "type" : "image/jpeg",
            "receiveLast" : 259.381000019144,
            "receiveHeadersEnd" : 184,
            "connectStart" : 0,
            "len" : 6963,
            "dnsEnd" : -1,
            "id" : "download_25",
            "sendStart" : 133
         },
         "url" : "http://original.testbed.localhost/ia.media-imdb.com/images/M/MV5BMjQ0MTgyNjAxMV5BMl5BanBnXkFtZTgwNjUzMDkyODE@._V1_SY150_CR0,0,101,150_AL_.jpg",
         "id" : "r21"
      },
      {
         "url" : "http://original.testbed.localhost/ia.media-imdb.com/images/M/MV5BNzQxMzA3NzQzM15BMl5BanBnXkFtZTcwMTQxMDc3MQ@@._V1_SY150_CR2,0,101,150_AL_.jpg",
         "id" : "r22",
         "comps" : [],
         "when_comp_start" : -1,
         "download" : {
            "sendEnd" : 133,
            "receivedTime" : "443.910999980289",
            "dns" : 0,
            "receiveFirst" : 50,
            "dnsStart" : -1,
            "connectEnd" : 133,
            "s_time" : 259.250000002794,
            "dnsEnd" : -1,
            "id" : "download_26",
            "sendStart" : 133,
            "connectStart" : 0,
            "len" : 4392,
            "receiveLast" : 260.910999980289,
            "receiveHeadersEnd" : 183,
            "sslEnd" : -1,
            "type" : "image/jpeg",
            "sslStart" : -1
         }
      },
      {
         "when_comp_start" : -1,
         "comps" : [],
         "download" : {
            "len" : 4642,
            "connectStart" : 0,
            "sendStart" : 133,
            "dnsEnd" : -1,
            "id" : "download_27",
            "sslStart" : -1,
            "type" : "image/jpeg",
            "sslEnd" : -1,
            "receiveHeadersEnd" : 184,
            "receiveLast" : 260.347999989986,
            "dns" : 0,
            "receivedTime" : "444.347999989986",
            "sendEnd" : 133,
            "dnsStart" : -1,
            "connectEnd" : 133,
            "s_time" : 259.41800000146,
            "receiveFirst" : 51
         },
         "url" : "http://original.testbed.localhost/ia.media-imdb.com/images/M/MV5BOTMxMjEwNDk2NF5BMl5BanBnXkFtZTcwMDY1MjE2Mw@@._V1_SX101_AL_.jpg",
         "id" : "r23"
      },
      {
         "id" : "r24",
         "url" : "http://original.testbed.localhost/ia.media-imdb.com/images/M/MV5BMjIwMjUyODExOV5BMl5BanBnXkFtZTgwMjE0NDM4ODE@._UX402_CR0,150,402,402_SY201_SX201_AL_.jpg",
         "download" : {
            "sendStart" : 133,
            "id" : "download_28",
            "dnsEnd" : -1,
            "len" : 12147,
            "connectStart" : 0,
            "receiveLast" : 260.620999973267,
            "receiveHeadersEnd" : 184,
            "sslStart" : -1,
            "type" : "image/jpeg",
            "sslEnd" : -1,
            "sendEnd" : 133,
            "dns" : 0,
            "receivedTime" : "444.620999973267",
            "s_time" : 259.622999990825,
            "connectEnd" : 133,
            "dnsStart" : -1,
            "receiveFirst" : 51
         },
         "comps" : [],
         "when_comp_start" : -1
      },
      {
         "comps" : [
            {
               "e_time" : 660.411000018939,
               "id" : "comp_107",
               "type" : 1,
               "s_time" : 655.627999978606,
               "time" : 4.78300004033304
            }
         ],
         "when_comp_start" : -1,
         "download" : {
            "s_time" : 268.090999976266,
            "connectEnd" : 123,
            "dnsStart" : -1,
            "receiveFirst" : 53,
            "dns" : 0,
            "receivedTime" : "450.065999990329",
            "sendEnd" : 123,
            "sslStart" : -1,
            "type" : "application/javascript",
            "sslEnd" : -1,
            "receiveHeadersEnd" : 176,
            "receiveLast" : 274.065999990329,
            "len" : 18979,
            "connectStart" : 0,
            "sendStart" : 123,
            "id" : "download_29",
            "dnsEnd" : -1
         },
         "url" : "http://original.testbed.localhost/ia.media-imdb.com/images/G/01/imdb/js/collections/recommendations-2126106747._CB289323193_.js",
         "id" : "r58"
      },
      {
         "when_comp_start" : -1,
         "comps" : [],
         "download" : {
            "receiveLast" : 405.542000003625,
            "receiveHeadersEnd" : 105,
            "sslStart" : -1,
            "type" : "image/jpeg",
            "sslEnd" : -1,
            "sendStart" : 54,
            "id" : "download_30",
            "dnsEnd" : -1,
            "len" : 11577,
            "connectStart" : 0,
            "connectEnd" : 54,
            "s_time" : 389.476999989711,
            "dnsStart" : -1,
            "receiveFirst" : 51,
            "sendEnd" : 54,
            "dns" : 0,
            "receivedTime" : "510.542000003625"
         },
         "url" : "http://original.testbed.localhost/ia.media-imdb.com/images/M/MV5BOTk1MjQ2OTI5M15BMl5BanBnXkFtZTgwMzU3NDM4ODE@._V1_SY201_CR54,0,201,201_AL_.jpg",
         "id" : "r25"
      },
      {
         "url" : "http://original.testbed.localhost/ia.media-imdb.com/images/M/MV5BMTcyMjcxNTc3M15BMl5BanBnXkFtZTgwMTcxNTM4ODE@._UX404_CR2,10,402,402_SY201_SX201_AL_.jpg",
         "id" : "r26",
         "when_comp_start" : -1,
         "comps" : [],
         "download" : {
            "dnsStart" : -1,
            "connectEnd" : 54,
            "s_time" : 389.819999982137,
            "receiveFirst" : 51,
            "sendEnd" : 54,
            "dns" : 0,
            "receivedTime" : "510.670999996364",
            "receiveHeadersEnd" : 105,
            "receiveLast" : 405.670999996364,
            "sslStart" : -1,
            "type" : "image/jpeg",
            "sslEnd" : -1,
            "sendStart" : 54,
            "dnsEnd" : -1,
            "id" : "download_31",
            "len" : 10315,
            "connectStart" : 0
         }
      },
      {
         "id" : "r27",
         "url" : "http://original.testbed.localhost/ia.media-imdb.com/images/M/MV5BMjI1ODUyMDg2Nl5BMl5BanBnXkFtZTgwNTcwNTU1NTE@._V1_SY172_CR28,0,116,172_AL_.jpg",
         "download" : {
            "len" : 5525,
            "connectStart" : 0,
            "sendStart" : 54,
            "dnsEnd" : -1,
            "id" : "download_32",
            "sslStart" : -1,
            "type" : "image/jpeg",
            "sslEnd" : -1,
            "receiveLast" : 405.835999972187,
            "receiveHeadersEnd" : 105,
            "dns" : 0,
            "receivedTime" : "510.835999972187",
            "sendEnd" : 54,
            "dnsStart" : -1,
            "connectEnd" : 54,
            "s_time" : 390.090000000782,
            "receiveFirst" : 51
         },
         "comps" : [],
         "when_comp_start" : -1
      },
      {
         "id" : "r59",
         "url" : "http://original.testbed.localhost/platform.twitter.com/widgets.js",
         "download" : {
            "receiveFirst" : 54,
            "s_time" : 409.171000006609,
            "connectEnd" : 34,
            "dnsStart" : -1,
            "sendEnd" : 34,
            "receivedTime" : "725.60499998508",
            "dns" : 0,
            "receiveHeadersEnd" : 88,
            "receiveLast" : 637.60499998508,
            "sslEnd" : -1,
            "sslStart" : -1,
            "type" : "application/javascript",
            "id" : "download_33",
            "dnsEnd" : -1,
            "sendStart" : 34,
            "connectStart" : 0,
            "len" : 95204
         },
         "comps" : [
            {
               "e_time" : 753.122000023723,
               "id" : "comp_185",
               "s_time" : 725.643999991007,
               "type" : null,
               "time" : 27.478000032716
            }
         ],
         "when_comp_start" : -1
      },
      {
         "download" : {
            "sslEnd" : -1,
            "type" : "image/jpeg",
            "sslStart" : -1,
            "receiveLast" : 403.141999973916,
            "receiveHeadersEnd" : 108,
            "connectStart" : 0,
            "len" : 4981,
            "id" : "download_34",
            "dnsEnd" : -1,
            "sendStart" : 55,
            "receiveFirst" : 53,
            "connectEnd" : 55,
            "s_time" : 390.280999999959,
            "dnsStart" : -1,
            "receivedTime" : "511.141999973916",
            "dns" : 0,
            "sendEnd" : 55
         },
         "when_comp_start" : -1,
         "comps" : [],
         "id" : "r28",
         "url" : "http://original.testbed.localhost/ia.media-imdb.com/images/M/MV5BMTI4OTY5Nzg5NV5BMl5BanBnXkFtZTcwMzM0ODEyMw@@._V1_SY172_CR71,0,116,172_AL_.jpg"
      },
      {
         "download" : {
            "receivedTime" : "725.078999996185",
            "dns" : 0,
            "sendEnd" : 104,
            "receiveFirst" : 50,
            "dnsStart" : -1,
            "connectEnd" : 104,
            "s_time" : 390.458000008948,
            "connectStart" : 0,
            "len" : 5793,
            "dnsEnd" : -1,
            "id" : "download_35",
            "sendStart" : 104,
            "sslEnd" : -1,
            "type" : "image/jpeg",
            "sslStart" : -1,
            "receiveHeadersEnd" : 154,
            "receiveLast" : 571.078999996185
         },
         "comps" : [],
         "when_comp_start" : -1,
         "id" : "r29",
         "url" : "http://original.testbed.localhost/ia.media-imdb.com/images/M/MV5BNzU4MzE3NTc4M15BMl5BanBnXkFtZTgwNjcxODY3NzE@._V1_SY172_CR6,0,116,172_AL_.jpg"
      },
      {
         "comps" : [],
         "when_comp_start" : -1,
         "download" : {
            "id" : "download_36",
            "dnsEnd" : -1,
            "sendStart" : 104,
            "connectStart" : 0,
            "len" : 4480,
            "receiveHeadersEnd" : 155,
            "receiveLast" : 570.373999972362,
            "sslEnd" : -1,
            "type" : "image/jpeg",
            "sslStart" : -1,
            "sendEnd" : 104,
            "receivedTime" : "725.373999972362",
            "dns" : 0,
            "receiveFirst" : 51,
            "connectEnd" : 104,
            "s_time" : 390.636000025552,
            "dnsStart" : -1
         },
         "url" : "http://original.testbed.localhost/ia.media-imdb.com/images/M/MV5BNjg3OTc2MTA3NV5BMl5BanBnXkFtZTcwODc0MTU0NQ@@._V1_SY172_CR6,0,116,172_AL_.jpg",
         "id" : "r30"
      },
      {
         "url" : "http://original.testbed.localhost/ia.media-imdb.com/images/M/MV5BMTUyMjI1MDEyN15BMl5BanBnXkFtZTYwNzkwNjI2._V1_SY172_CR1,0,116,172_AL_.jpg",
         "id" : "r31",
         "comps" : [],
         "when_comp_start" : -1,
         "download" : {
            "s_time" : 443.391999986488,
            "connectEnd" : 52,
            "dnsStart" : -1,
            "receiveFirst" : 50,
            "sendEnd" : 52,
            "dns" : 0,
            "receivedTime" : "725.457999971695",
            "receiveLast" : 623.457999971695,
            "receiveHeadersEnd" : 102,
            "sslStart" : -1,
            "type" : "image/jpeg",
            "sslEnd" : -1,
            "sendStart" : 52,
            "id" : "download_37",
            "dnsEnd" : -1,
            "len" : 4895,
            "connectStart" : 0
         }
      },
      {
         "download" : {
            "receiveFirst" : 51,
            "dnsStart" : -1,
            "s_time" : 443.920999998227,
            "connectEnd" : 54,
            "receivedTime" : "758.218000002671",
            "dns" : 0,
            "sendEnd" : 54,
            "sslEnd" : -1,
            "sslStart" : -1,
            "type" : "image/jpeg",
            "receiveLast" : 653.218000002671,
            "receiveHeadersEnd" : 105,
            "connectStart" : 0,
            "len" : 12741,
            "dnsEnd" : -1,
            "id" : "download_38",
            "sendStart" : 54
         },
         "when_comp_start" : -1,
         "comps" : [],
         "id" : "r32",
         "url" : "http://original.testbed.localhost/ia.media-imdb.com/images/M/MV5BMTc1ODQ0MTg5N15BMl5BanBnXkFtZTgwOTg1Mzg2ODE@._V1_SY230_CR52,0,307,230_AL_.jpg"
      },
      {
         "download" : {
            "receivedTime" : "758.558999979869",
            "dns" : 0,
            "sendEnd" : 72,
            "receiveFirst" : 51,
            "s_time" : 444.350000005215,
            "connectEnd" : 72,
            "dnsStart" : -1,
            "connectStart" : 0,
            "len" : 10773,
            "id" : "download_39",
            "dnsEnd" : -1,
            "sendStart" : 72,
            "sslEnd" : -1,
            "sslStart" : -1,
            "type" : "image/jpeg",
            "receiveHeadersEnd" : 123,
            "receiveLast" : 635.558999979869
         },
         "comps" : [],
         "when_comp_start" : -1,
         "id" : "r33",
         "url" : "http://original.testbed.localhost/ia.media-imdb.com/images/M/MV5BNjE4MjcyMDAxN15BMl5BanBnXkFtZTgwNzA2NTA1NDE@._V1_SX307_CR0,0,307,230_AL_.jpg"
      },
      {
         "id" : "r34",
         "url" : "http://original.testbed.localhost/ia.media-imdb.com/images/M/MV5BMjIzMDIwOTA1OF5BMl5BanBnXkFtZTcwMjk0NjM5NA@@._V1_SX201_CR0,0,201,201_AL_.jpg",
         "download" : {
            "sslEnd" : -1,
            "sslStart" : -1,
            "type" : "image/jpeg",
            "receiveHeadersEnd" : 151,
            "receiveLast" : 607.738000004087,
            "connectStart" : 0,
            "len" : 9363,
            "id" : "download_40",
            "dnsEnd" : -1,
            "sendStart" : 101,
            "receiveFirst" : 50,
            "connectEnd" : 101,
            "s_time" : 444.635999971069,
            "dnsStart" : -1,
            "receivedTime" : "758.738000004087",
            "dns" : 0,
            "sendEnd" : 101
         },
         "comps" : [],
         "when_comp_start" : -1
      },
      {
         "id" : "r35",
         "url" : "http://original.testbed.localhost/ia.media-imdb.com/images/M/MV5BMjA0ODIzMTcxN15BMl5BanBnXkFtZTgwNjU5MDE1MTE@._UY450_CR40,47,402,402_SY201_SX201_AL_.jpg",
         "download" : {
            "receiveFirst" : 50,
            "dnsStart" : -1,
            "s_time" : 495.123000000603,
            "connectEnd" : 51,
            "sendEnd" : 51,
            "receivedTime" : "758.96800000919",
            "dns" : 0,
            "receiveHeadersEnd" : 101,
            "receiveLast" : 657.96800000919,
            "sslEnd" : -1,
            "sslStart" : -1,
            "type" : "image/jpeg",
            "dnsEnd" : -1,
            "id" : "download_41",
            "sendStart" : 51,
            "connectStart" : 0,
            "len" : 11107
         },
         "when_comp_start" : -1,
         "comps" : []
      },
      {
         "download" : {
            "sendStart" : 51,
            "dnsEnd" : -1,
            "id" : "download_42",
            "len" : 11127,
            "connectStart" : 0,
            "receiveLast" : 658.052000008523,
            "receiveHeadersEnd" : 101,
            "type" : "image/jpeg",
            "sslStart" : -1,
            "sslEnd" : -1,
            "sendEnd" : 51,
            "dns" : 0,
            "receivedTime" : "759.052000008523",
            "dnsStart" : -1,
            "connectEnd" : 51,
            "s_time" : 495.392000011634,
            "receiveFirst" : 50
         },
         "comps" : [],
         "when_comp_start" : -1,
         "id" : "r36",
         "url" : "http://original.testbed.localhost/ia.media-imdb.com/images/M/MV5BMjE0NjY4OTEwNl5BMl5BanBnXkFtZTgwMTE0OTIwMjE@._V1_SY201_CR55,0,201,201_AL_.jpg"
      },
      {
         "comps" : [],
         "when_comp_start" : -1,
         "download" : {
            "sendStart" : 52,
            "dnsEnd" : -1,
            "id" : "download_43",
            "len" : 7391,
            "connectStart" : 0,
            "receiveHeadersEnd" : 102,
            "receiveLast" : 657.201999986544,
            "sslStart" : -1,
            "type" : "image/jpeg",
            "sslEnd" : -1,
            "sendEnd" : 52,
            "dns" : 0,
            "receivedTime" : "759.201999986544",
            "dnsStart" : -1,
            "s_time" : 495.932999998331,
            "connectEnd" : 52,
            "receiveFirst" : 50
         },
         "url" : "http://original.testbed.localhost/ia.media-imdb.com/images/M/MV5BNDE0NTQwODM5M15BMl5BanBnXkFtZTYwNzQ2Nzk5._V1_SX116_CR0,0,116,172_AL_.jpg",
         "id" : "r37"
      },
      {
         "download" : {
            "receivedTime" : "759.342000004835",
            "dns" : 0,
            "sendEnd" : 50,
            "receiveFirst" : 50,
            "dnsStart" : -1,
            "connectEnd" : 50,
            "s_time" : 498.781999980565,
            "connectStart" : 0,
            "len" : 637,
            "dnsEnd" : -1,
            "id" : "download_44",
            "sendStart" : 50,
            "sslEnd" : -1,
            "type" : "image/png",
            "sslStart" : -1,
            "receiveLast" : 659.342000004835,
            "receiveHeadersEnd" : 100
         },
         "comps" : [],
         "when_comp_start" : -1,
         "id" : "r38",
         "url" : "http://original.testbed.localhost/ia.media-imdb.com/images/G/01/IMDb/icon/external-button._CB304896345_.png"
      },
      {
         "comps" : [],
         "when_comp_start" : -1,
         "download" : {
            "dnsEnd" : -1,
            "id" : "download_45",
            "sendStart" : 22,
            "connectStart" : 0,
            "len" : 631,
            "receiveLast" : 687.528999973554,
            "receiveHeadersEnd" : 72,
            "sslEnd" : -1,
            "type" : "image/png",
            "sslStart" : -1,
            "sendEnd" : 22,
            "receivedTime" : "759.528999973554",
            "dns" : 0,
            "receiveFirst" : 50,
            "dnsStart" : -1,
            "s_time" : 545.892999973148,
            "connectEnd" : 22
         },
         "url" : "http://original.testbed.localhost/ia.media-imdb.com/images/G/01/IMDb/icon/external-button-hover._CB304896345_.png",
         "id" : "r39"
      },
      {
         "id" : "r40",
         "url" : "http://original.testbed.localhost/ia.media-imdb.com/images/M/MV5BMTI4ODIzMDYxN15BMl5BanBnXkFtZTcwOTY2NzMyMQ@@._V1_SY172_CR2,0,116,172_AL_.jpg",
         "download" : {
            "receivedTime" : "759.743999980856",
            "dns" : 0,
            "sendEnd" : 49,
            "receiveFirst" : 51,
            "connectEnd" : 49,
            "s_time" : 546.513999986928,
            "dnsStart" : -1,
            "connectStart" : 0,
            "len" : 7902,
            "id" : "download_46",
            "dnsEnd" : -1,
            "sendStart" : 49,
            "sslEnd" : -1,
            "sslStart" : -1,
            "type" : "image/jpeg",
            "receiveHeadersEnd" : 100,
            "receiveLast" : 659.743999980856
         },
         "comps" : [],
         "when_comp_start" : -1
      },
      {
         "download" : {
            "receiveFirst" : 50,
            "s_time" : 546.980999992229,
            "connectEnd" : 50,
            "dnsStart" : -1,
            "sendEnd" : 50,
            "receivedTime" : "759.955000015907",
            "dns" : 0,
            "receiveHeadersEnd" : 100,
            "receiveLast" : 659.955000015907,
            "sslEnd" : -1,
            "sslStart" : -1,
            "type" : "image/jpeg",
            "id" : "download_47",
            "dnsEnd" : -1,
            "sendStart" : 50,
            "connectStart" : 0,
            "len" : 7022
         },
         "comps" : [],
         "when_comp_start" : -1,
         "id" : "r41",
         "url" : "http://original.testbed.localhost/ia.media-imdb.com/images/M/MV5BMjEzOTE3ODM3OF5BMl5BanBnXkFtZTcwMzYyODI4Mg@@._V1_SX116_CR0,0,116,172_AL_.jpg"
      },
      {
         "download" : {
            "sendStart" : 48,
            "dnsEnd" : -1,
            "id" : "download_48",
            "len" : 8138,
            "connectStart" : 0,
            "receiveLast" : 661.026999982074,
            "receiveHeadersEnd" : 99,
            "sslStart" : -1,
            "type" : "image/jpeg",
            "sslEnd" : -1,
            "sendEnd" : 48,
            "dns" : 0,
            "receivedTime" : "760.026999982074",
            "dnsStart" : -1,
            "s_time" : 549.256999976933,
            "connectEnd" : 48,
            "receiveFirst" : 51
         },
         "when_comp_start" : -1,
         "comps" : [],
         "id" : "r42",
         "url" : "http://original.testbed.localhost/ia.media-imdb.com/images/M/MV5BMTI3OTM0MzY3M15BMl5BanBnXkFtZTcwNzY3NzQyMw@@._V1._CR28,1,298,465_SX116_CR0,0,116,172_AL_.jpg"
      },
      {
         "download" : {
            "receiveHeadersEnd" : 81,
            "receiveLast" : 679.170999972615,
            "sslEnd" : -1,
            "sslStart" : -1,
            "type" : "image/jpeg",
            "id" : "download_49",
            "dnsEnd" : -1,
            "sendStart" : 30,
            "connectStart" : 0,
            "len" : 7162,
            "receiveFirst" : 51,
            "s_time" : 568.130999978166,
            "connectEnd" : 30,
            "dnsStart" : -1,
            "sendEnd" : 30,
            "receivedTime" : "760.170999972615",
            "dns" : 0
         },
         "comps" : [],
         "when_comp_start" : -1,
         "id" : "r43",
         "url" : "http://original.testbed.localhost/ia.media-imdb.com/images/M/MV5BMTI2OTk4MDk3OF5BMl5BanBnXkFtZTcwMTY3NTc3Mg@@._V1_SX116_CR0,0,116,172_AL_.jpg"
      },
      {
         "comps" : [],
         "when_comp_start" : -1,
         "download" : {
            "connectEnd" : 2,
            "s_time" : 596.447999996599,
            "dnsStart" : -1,
            "receiveFirst" : 51,
            "sendEnd" : 2,
            "dns" : 0,
            "receivedTime" : "760.308999975678",
            "receiveHeadersEnd" : 53,
            "receiveLast" : 707.308999975678,
            "sslStart" : -1,
            "type" : "image/jpeg",
            "sslEnd" : -1,
            "sendStart" : 2,
            "id" : "download_50",
            "dnsEnd" : -1,
            "len" : 5096,
            "connectStart" : 0
         },
         "url" : "http://original.testbed.localhost/ia.media-imdb.com/images/M/MV5BODYzMjc5NDEzNF5BMl5BanBnXkFtZTgwMzI3ODcyODE@._V1_SY132_CR0,0,89,132_AL_.jpg",
         "id" : "r44"
      },
      {
         "id" : "r45",
         "url" : "http://original.testbed.localhost/ia.media-imdb.com/images/M/MV5BMTkyODMxNDUyNl5BMl5BanBnXkFtZTcwMjcxOTcxNA@@._V1_SY207_CR85,0,140,207_AL_.jpg",
         "download" : {
            "receiveFirst" : 50,
            "connectEnd" : 21,
            "s_time" : 597.486999991816,
            "dnsStart" : -1,
            "sendEnd" : 21,
            "receivedTime" : "760.454999981448",
            "dns" : 0,
            "receiveLast" : 689.454999981448,
            "receiveHeadersEnd" : 71,
            "sslEnd" : -1,
            "sslStart" : -1,
            "type" : "image/jpeg",
            "id" : "download_51",
            "dnsEnd" : -1,
            "sendStart" : 21,
            "connectStart" : 0,
            "len" : 5035
         },
         "comps" : [],
         "when_comp_start" : -1
      },
      {
         "download" : {
            "connectStart" : 0,
            "len" : 7808,
            "dnsEnd" : -1,
            "id" : "download_52",
            "sendStart" : 49,
            "sslEnd" : -1,
            "sslStart" : -1,
            "type" : "image/jpeg",
            "receiveLast" : 660.591999976896,
            "receiveHeadersEnd" : 100,
            "receivedTime" : "760.591999976896",
            "dns" : 0,
            "sendEnd" : 49,
            "receiveFirst" : 51,
            "dnsStart" : -1,
            "s_time" : 597.705999971367,
            "connectEnd" : 49
         },
         "comps" : [],
         "when_comp_start" : -1,
         "id" : "r46",
         "url" : "http://original.testbed.localhost/ia.media-imdb.com/images/M/MV5BNzA4NjU3ODA0OV5BMl5BanBnXkFtZTcwMTY3NDc4MQ@@._V1_SX140_CR0,0,140,207_AL_.jpg"
      },
      {
         "download" : {
            "sslStart" : -1,
            "type" : "image/jpeg",
            "sslEnd" : -1,
            "receiveLast" : 660.795000009239,
            "receiveHeadersEnd" : 100,
            "len" : 4721,
            "connectStart" : 0,
            "sendStart" : 50,
            "id" : "download_53",
            "dnsEnd" : -1,
            "s_time" : 598.867000022437,
            "connectEnd" : 50,
            "dnsStart" : -1,
            "receiveFirst" : 50,
            "dns" : 0,
            "receivedTime" : "760.795000009239",
            "sendEnd" : 50
         },
         "when_comp_start" : -1,
         "comps" : [],
         "id" : "r47",
         "url" : "http://original.testbed.localhost/ia.media-imdb.com/images/M/MV5BZjI0YzgxY2UtMjc1OS00ZTJiLTg2NWMtN2E5OWQ3NGRlN2RlXkEyXkFqcGdeQXVyNjUwNzk3NDc@._V1_SY207_CR173,0,140,207_AL_.jpg"
      },
      {
         "id" : "r48",
         "url" : "http://original.testbed.localhost/ia.media-imdb.com/images/M/MV5BMTEwNTAyNjgxNjheQTJeQWpwZ15BbWU3MDAzMzU1Mjc@._V1_SY207_CR114,0,140,207_AL_.jpg",
         "download" : {
            "receiveFirst" : 51,
            "connectEnd" : 49,
            "s_time" : 599.539000017103,
            "dnsStart" : -1,
            "sendEnd" : 49,
            "receivedTime" : "760.932000004686",
            "dns" : 0,
            "receiveHeadersEnd" : 100,
            "receiveLast" : 660.932000004686,
            "sslEnd" : -1,
            "sslStart" : -1,
            "type" : "image/jpeg",
            "id" : "download_54",
            "dnsEnd" : -1,
            "sendStart" : 49,
            "connectStart" : 0,
            "len" : 5423
         },
         "comps" : [],
         "when_comp_start" : -1
      },
      {
         "id" : "r49",
         "url" : "http://original.testbed.localhost/ia.media-imdb.com/images/M/MV5BMTAzNzg4MDcyMDFeQTJeQWpwZ15BbWU3MDExNDQ1NzU@._V1_SY207_CR6,0,140,207_AL_.jpg",
         "download" : {
            "receivedTime" : "761.003000021446",
            "dns" : 0,
            "sendEnd" : 30,
            "receiveFirst" : 51,
            "connectEnd" : 30,
            "s_time" : 618.906999996398,
            "dnsStart" : -1,
            "connectStart" : 0,
            "len" : 6730,
            "id" : "download_55",
            "dnsEnd" : -1,
            "sendStart" : 30,
            "sslEnd" : -1,
            "sslStart" : -1,
            "type" : "image/jpeg",
            "receiveLast" : 680.003000021446,
            "receiveHeadersEnd" : 81
         },
         "comps" : [],
         "when_comp_start" : -1
      },
      {
         "when_comp_start" : -1,
         "comps" : [],
         "download" : {
            "dnsStart" : -1,
            "connectEnd" : 2,
            "s_time" : 647.384000010788,
            "receiveFirst" : 51,
            "dns" : 0,
            "receivedTime" : "761.180999979842",
            "sendEnd" : 2,
            "sslStart" : -1,
            "type" : "image/jpeg",
            "sslEnd" : -1,
            "receiveLast" : 708.180999979842,
            "receiveHeadersEnd" : 53,
            "len" : 39923,
            "connectStart" : 0,
            "sendStart" : 2,
            "dnsEnd" : -1,
            "id" : "download_56"
         },
         "url" : "http://original.testbed.localhost/ia.media-imdb.com/images/M/MV5BMTExNTA2MDQ2MTdeQTJeQWpwZ15BbWU4MDU0MzAyODMx._V1_CR0,47,500,281_AL_.jpg",
         "id" : "r50"
      },
      {
         "comps" : [],
         "when_comp_start" : -1,
         "download" : {
            "sendEnd" : 20,
            "dns" : 0,
            "receivedTime" : "761.312999995425",
            "dnsStart" : -1,
            "s_time" : 649.061999982223,
            "connectEnd" : 20,
            "receiveFirst" : 51,
            "sendStart" : 20,
            "dnsEnd" : -1,
            "id" : "download_57",
            "len" : 11257,
            "connectStart" : 0,
            "receiveLast" : 690.312999995425,
            "receiveHeadersEnd" : 71,
            "sslStart" : -1,
            "type" : "image/jpeg",
            "sslEnd" : -1
         },
         "url" : "http://original.testbed.localhost/ia.media-imdb.com/images/M/MV5BMTQ3NTA1NTIyMF5BMl5BanBnXkFtZTgwOTc4MDM1ODE@._V1_SY230_CR19,0,307,230_AL_.jpg",
         "id" : "r53"
      },
      {
         "download" : {
            "dns" : 0,
            "receivedTime" : "764.434000011533",
            "sendEnd" : 12,
            "dnsStart" : -1,
            "s_time" : 685.939999995753,
            "connectEnd" : 12,
            "receiveFirst" : 50,
            "len" : 316,
            "connectStart" : 0,
            "sendStart" : 12,
            "dnsEnd" : -1,
            "id" : "download_58",
            "sslStart" : -1,
            "type" : "text/html",
            "sslEnd" : -1,
            "receiveLast" : 702.434000011533,
            "receiveHeadersEnd" : 62
         },
         "comps" : [],
         "when_comp_start" : 1,
         "id" : "r62",
         "url" : "http://original.testbed.localhost/widget/recommendations/recs"
      },
      {
         "comps" : [],
         "when_comp_start" : -1,
         "download" : {
            "receivedTime" : "767.800999979954",
            "dns" : 0,
            "sendEnd" : 21,
            "receiveFirst" : 50,
            "dnsStart" : -1,
            "s_time" : 678.478999994695,
            "connectEnd" : 21,
            "connectStart" : 0,
            "len" : 47963,
            "dnsEnd" : -1,
            "id" : "download_59",
            "sendStart" : 21,
            "sslEnd" : -1,
            "sslStart" : -1,
            "type" : "image/png",
            "receiveLast" : 696.800999979954,
            "receiveHeadersEnd" : 71
         },
         "url" : "http://original.testbed.localhost/ia.media-imdb.com/images/G/01/imdb/images/lb/overlay-1511558127._V_.png",
         "id" : "r61"
      },
      {
         "download" : {
            "receiveLast" : 713.613000003621,
            "receiveHeadersEnd" : 54,
            "sslEnd" : -1,
            "sslStart" : -1,
            "type" : "image/png",
            "id" : "download_60",
            "dnsEnd" : -1,
            "sendStart" : 4,
            "connectStart" : 0,
            "len" : 932,
            "receiveFirst" : 50,
            "s_time" : 696.058999979869,
            "connectEnd" : 4,
            "dnsStart" : -1,
            "sendEnd" : 4,
            "receivedTime" : "767.613000003621",
            "dns" : 0
         },
         "comps" : [],
         "when_comp_start" : -1,
         "id" : "r63",
         "url" : "http://original.testbed.localhost/ia.media-imdb.com/images/G/01/imdb/images/jquery/plugins/watchlist-ribbon-sprite-sm-771043870._V_.png"
      }
   ],
   "start_activity" : "download_0",
   "deps" : [
      {
         "a2" : "r1_c2",
         "time" : -1,
         "id" : "dep1",
         "a1" : "comp_94"
      },
      {
         "id" : "dep2",
         "a1" : "comp_101",
         "time" : -1,
         "a2" : "r1_c3"
      },
      {
         "time" : -1,
         "a2" : "r1_c4",
         "a1" : "comp_104",
         "id" : "dep3"
      },
      {
         "id" : "dep4",
         "a1" : "comp_107",
         "a2" : "r1_c5",
         "time" : -1
      },
      {
         "a2" : "comp_101",
         "time" : -1,
         "a1" : "comp_94",
         "id" : "dep5"
      },
      {
         "time" : -1,
         "a2" : "comp_104",
         "a1" : "comp_101",
         "id" : "dep6"
      },
      {
         "id" : "dep7",
         "a1" : "comp_104",
         "time" : -1,
         "a2" : "comp_107"
      },
      {
         "a2" : "download_60",
         "time" : 289.28199998336,
         "id" : "dep8",
         "a1" : "r51_c1"
      },
      {
         "a2" : "download_60",
         "time" : 35.64799996093,
         "id" : "dep9",
         "a1" : "r1_c5"
      },
      {
         "a2" : "download_59",
         "time" : 271.701999998186,
         "id" : "dep10",
         "a1" : "r51_c1"
      },
      {
         "a1" : "r1_c5",
         "id" : "dep11",
         "time" : 18.0679999757559,
         "a2" : "download_59"
      },
      {
         "a2" : "download_58",
         "time" : 279.162999999244,
         "id" : "dep12",
         "a1" : "r51_c1"
      },
      {
         "time" : 25.528999976814,
         "a2" : "download_58",
         "id" : "dep13",
         "a1" : "r1_c5"
      },
      {
         "time" : 242.284999985714,
         "a2" : "download_57",
         "a1" : "r51_c1",
         "id" : "dep14"
      },
      {
         "id" : "dep15",
         "a1" : "r1_c3",
         "time" : -1,
         "a2" : "download_57"
      },
      {
         "a1" : "r51_c1",
         "id" : "dep16",
         "time" : 240.607000014279,
         "a2" : "download_56"
      },
      {
         "id" : "dep17",
         "a1" : "r1_c2",
         "a2" : "download_56",
         "time" : -1
      },
      {
         "time" : 212.129999999889,
         "a2" : "download_55",
         "id" : "dep18",
         "a1" : "r51_c1"
      },
      {
         "a1" : "r1_c1",
         "id" : "dep19",
         "a2" : "download_55",
         "time" : -1
      },
      {
         "a2" : "download_54",
         "time" : 82.4570000404491,
         "a1" : "comp_92",
         "id" : "dep20"
      },
      {
         "a1" : "comp_92",
         "id" : "dep21",
         "a2" : "download_53",
         "time" : 81.785000045783
      },
      {
         "a1" : "comp_92",
         "id" : "dep22",
         "time" : 80.623999994713,
         "a2" : "download_52"
      },
      {
         "a2" : "download_51",
         "time" : 80.405000015162,
         "id" : "dep23",
         "a1" : "comp_92"
      },
      {
         "a2" : "download_50",
         "time" : 79.3660000199451,
         "a1" : "comp_92",
         "id" : "dep24"
      },
      {
         "time" : 51.049000001512,
         "a2" : "download_49",
         "id" : "dep25",
         "a1" : "comp_92"
      },
      {
         "a1" : "comp_92",
         "id" : "dep26",
         "time" : 32.1750000002791,
         "a2" : "download_48"
      },
      {
         "a2" : "download_47",
         "time" : 29.8990000155751,
         "id" : "dep27",
         "a1" : "comp_92"
      },
      {
         "a2" : "download_46",
         "time" : 29.432000010274,
         "id" : "dep28",
         "a1" : "comp_92"
      },
      {
         "time" : 28.810999996494,
         "a2" : "download_45",
         "a1" : "comp_92",
         "id" : "dep29"
      },
      {
         "a1" : "r51_c1",
         "id" : "dep30",
         "time" : 92.004999984056,
         "a2" : "download_44"
      },
      {
         "a2" : "download_44",
         "time" : 433.06999997003,
         "a1" : "r1_c1",
         "id" : "dep31"
      },
      {
         "a1" : "r51_c1",
         "id" : "dep32",
         "time" : 89.156000001822,
         "a2" : "download_43"
      },
      {
         "a2" : "download_43",
         "time" : 430.220999987796,
         "a1" : "r1_c1",
         "id" : "dep33"
      },
      {
         "a1" : "r51_c1",
         "id" : "dep34",
         "time" : 88.615000015125,
         "a2" : "download_42"
      },
      {
         "id" : "dep35",
         "a1" : "r1_c1",
         "a2" : "download_42",
         "time" : 429.680000001099
      },
      {
         "time" : 88.346000004094,
         "a2" : "download_41",
         "a1" : "r51_c1",
         "id" : "dep36"
      },
      {
         "a1" : "r1_c1",
         "id" : "dep37",
         "a2" : "download_41",
         "time" : 429.410999990068
      },
      {
         "a2" : "download_40",
         "time" : 37.85899997456,
         "id" : "dep38",
         "a1" : "r51_c1"
      },
      {
         "a2" : "download_40",
         "time" : 378.923999960534,
         "id" : "dep39",
         "a1" : "r1_c1"
      },
      {
         "a2" : "download_39",
         "time" : 37.573000008706,
         "a1" : "r51_c1",
         "id" : "dep40"
      },
      {
         "time" : 378.63799999468,
         "a2" : "download_39",
         "id" : "dep41",
         "a1" : "r1_c1"
      },
      {
         "a1" : "r51_c1",
         "id" : "dep42",
         "a2" : "download_38",
         "time" : 37.144000001718
      },
      {
         "id" : "dep43",
         "a1" : "r1_c1",
         "a2" : "download_38",
         "time" : 378.208999987692
      },
      {
         "time" : 36.614999989979,
         "a2" : "download_37",
         "a1" : "r51_c1",
         "id" : "dep44"
      },
      {
         "a1" : "r1_c1",
         "id" : "dep45",
         "a2" : "download_37",
         "time" : 377.679999975953
      },
      {
         "a1" : "r1_c1",
         "id" : "dep46",
         "a2" : "download_36",
         "time" : 324.924000015017
      },
      {
         "a1" : "r1_c1",
         "id" : "dep47",
         "time" : 324.745999998413,
         "a2" : "download_35"
      },
      {
         "id" : "dep48",
         "a1" : "r1_c1",
         "a2" : "download_34",
         "time" : 324.568999989424
      },
      {
         "a2" : "download_33",
         "time" : 2.3940000101,
         "id" : "dep49",
         "a1" : "r51_c1"
      },
      {
         "a1" : "r1_c1",
         "id" : "dep50",
         "time" : 343.458999996074,
         "a2" : "download_33"
      },
      {
         "a1" : "r1_c1",
         "id" : "dep51",
         "time" : 324.377999990247,
         "a2" : "download_32"
      },
      {
         "time" : 324.107999971602,
         "a2" : "download_31",
         "id" : "dep52",
         "a1" : "r1_c1"
      },
      {
         "time" : 323.764999979176,
         "a2" : "download_30",
         "a1" : "r1_c1",
         "id" : "dep53"
      },
      {
         "a2" : "download_29",
         "time" : 202.378999965731,
         "a1" : "r1_c1",
         "id" : "dep54"
      },
      {
         "id" : "dep55",
         "a1" : "r1_c1",
         "time" : 202.378999965731,
         "a2" : "download_29"
      },
      {
         "time" : 193.91099998029,
         "a2" : "download_28",
         "id" : "dep56",
         "a1" : "r1_c1"
      },
      {
         "time" : 193.705999990925,
         "a2" : "download_27",
         "a1" : "r1_c1",
         "id" : "dep57"
      },
      {
         "a2" : "download_26",
         "time" : 193.537999992259,
         "id" : "dep58",
         "a1" : "r1_c1"
      },
      {
         "id" : "dep59",
         "a1" : "r1_c1",
         "time" : 192.887999990489,
         "a2" : "download_25"
      },
      {
         "a2" : "download_24",
         "time" : 201.899999985471,
         "a1" : "r1_c1",
         "id" : "dep60"
      },
      {
         "a1" : "r1_c1",
         "id" : "dep61",
         "time" : 202.05399999395,
         "a2" : "download_23"
      },
      {
         "a2" : "download_23",
         "time" : 202.05399999395,
         "a1" : "r1_c1",
         "id" : "dep62"
      },
      {
         "a1" : "r1_c1",
         "id" : "dep63",
         "a2" : "download_22",
         "time" : 202.270000008866
      },
      {
         "time" : 202.270000008866,
         "a2" : "download_22",
         "id" : "dep64",
         "a1" : "r1_c1"
      },
      {
         "a2" : "download_21",
         "time" : 202.158999978565,
         "a1" : "r1_c1",
         "id" : "dep65"
      },
      {
         "time" : 202.158999978565,
         "a2" : "download_21",
         "a1" : "r1_c1",
         "id" : "dep66"
      },
      {
         "time" : 197.920000005979,
         "a2" : "download_20",
         "a1" : "r1_c1",
         "id" : "dep67"
      },
      {
         "a1" : "r1_c1",
         "id" : "dep68",
         "time" : 197.546000010334,
         "a2" : "download_19"
      },
      {
         "time" : 191.538999963086,
         "a2" : "download_18",
         "id" : "dep69",
         "a1" : "r1_c1"
      },
      {
         "time" : 174.513000005391,
         "a2" : "download_17",
         "a1" : "r1_c1",
         "id" : "dep70"
      },
      {
         "time" : 141.850999963936,
         "a2" : "download_16",
         "a1" : "r1_c1",
         "id" : "dep71"
      },
      {
         "a1" : "r1_c1",
         "id" : "dep72",
         "a2" : "download_15",
         "time" : 141.564999998082
      },
      {
         "a2" : "download_14",
         "time" : 141.360000008717,
         "a1" : "r1_c1",
         "id" : "dep73"
      },
      {
         "a2" : "download_13",
         "time" : 141.016000008676,
         "a1" : "r1_c1",
         "id" : "dep74"
      },
      {
         "a2" : "download_12",
         "time" : 140.6769999885,
         "id" : "dep75",
         "a1" : "r1_c1"
      },
      {
         "time" : 140.755000000354,
         "a2" : "download_11",
         "a1" : "r1_c1",
         "id" : "dep76"
      },
      {
         "a2" : "download_10",
         "time" : 140.885000000708,
         "a1" : "r1_c1",
         "id" : "dep77"
      },
      {
         "id" : "dep78",
         "a1" : "r1_c1",
         "time" : 140.599999984261,
         "a2" : "download_9"
      },
      {
         "time" : 139.991000003647,
         "a2" : "download_8",
         "id" : "dep79",
         "a1" : "r1_c1"
      },
      {
         "time" : 122.735999990255,
         "a2" : "download_7",
         "a1" : "r1_c1",
         "id" : "dep80"
      },
      {
         "time" : 2.7339999796823,
         "a2" : "download_6",
         "id" : "dep81",
         "a1" : "r1_c1"
      },
      {
         "id" : "dep82",
         "a1" : "r1_c1",
         "a2" : "download_5",
         "time" : 2.64399999286979
      },
      {
         "id" : "dep83",
         "a1" : "r1_c1",
         "a2" : "download_4",
         "time" : 2.56900000385939
      },
      {
         "a1" : "r1_c1",
         "id" : "dep84",
         "a2" : "download_3",
         "time" : 2.85499996971339
      },
      {
         "id" : "dep85",
         "a1" : "r1_c1",
         "time" : 2.85499996971339,
         "a2" : "download_3"
      },
      {
         "a2" : "download_2",
         "time" : 2.50399997457859,
         "id" : "dep86",
         "a1" : "r1_c1"
      },
      {
         "time" : 2.3989999899641,
         "a2" : "download_1",
         "a1" : "r1_c1",
         "id" : "dep87"
      }
   ],
   "name" : "original.testbed.localhost_www.imdb.com_",
   "n_download_no_trigger" : 1
}
