{
   "n_download_no_trigger" : 4,
   "start_activity" : "download_0",
   "name" : "3951336.fls.doubleclick.net_activityi;src=3951336;type=digit0;cat=tier300;ord=5750346989370.883",
   "load_activity" : -1,
   "objs" : [
      {
         "when_comp_start" : 1,
         "url" : "https://3951336.fls.doubleclick.net/activityi;src=3951336;type=digit0;cat=tier300;ord=5750346989370.883",
         "id" : "r448",
         "comps" : [
            {
               "s_time" : 1232.98700002488,
               "time" : 0.822999980299983,
               "type" : "evalhtml",
               "id" : "r448_c1",
               "e_time" : 1233.81000000518
            }
         ],
         "download" : {
            "receiveFirst" : 60,
            "len" : 194,
            "dns" : 0,
            "dnsEnd" : -1,
            "receiveHeadersEnd" : 89,
            "sslEnd" : -1,
            "connectEnd" : 29,
            "connectStart" : 0,
            "id" : "download_0",
            "receivedTime" : "914.74899998866",
            "sslStart" : -1,
            "dnsStart" : -1,
            "receiveLast" : 825.74899998866,
            "s_time" : 0,
            "sendEnd" : 29,
            "sendStart" : 29,
            "type" : "text/html"
         }
      },
      {
         "when_comp_start" : -1,
         "url" : "https://analytics.twitter.com/i/adsctp_user_id=KBUQCzux&p_id=10623",
         "id" : "r439",
         "comps" : [],
         "download" : {
            "receiveFirst" : 46,
            "len" : 43,
            "dns" : 408,
            "dnsEnd" : 454,
            "receiveHeadersEnd" : 656,
            "sslEnd" : 606,
            "connectEnd" : 609,
            "connectStart" : 0,
            "id" : "download_1",
            "receivedTime" : "940.689000068232",
            "sslStart" : 495,
            "dnsStart" : 46,
            "receiveLast" : 284.689000068232,
            "s_time" : -402.374999946915,
            "sendEnd" : 610,
            "sendStart" : 609,
            "type" : "image/gif"
         }
      },
      {
         "when_comp_start" : -1,
         "url" : "https://m.xp1.ru4.com/cx_o=197240&look=xid&xid=.hbbPpMYEUX.k5USVz5cM4wM",
         "id" : "r436",
         "comps" : [],
         "download" : {
            "receiveFirst" : 27,
            "len" : 43,
            "dns" : 459,
            "dnsEnd" : 459,
            "receiveHeadersEnd" : 641,
            "sslEnd" : 613,
            "connectEnd" : 614,
            "connectStart" : 0,
            "id" : "download_2",
            "receivedTime" : "1180.49599998631",
            "sslStart" : 473,
            "dnsStart" : 0,
            "receiveLast" : 539.495999986306,
            "s_time" : -4.56299993675202,
            "sendEnd" : 614,
            "sendStart" : 614,
            "type" : "image/gif"
         }
      },
      {
         "when_comp_start" : -1,
         "url" : "https://rtb-csync.smartadserver.com/redir/partnerid=31&partneruserid=0843b314-c9fd-42a5-8dbb-af79d094e5c0",
         "id" : "r429",
         "comps" : [],
         "download" : {
            "receiveFirst" : 84,
            "len" : 43,
            "dns" : 353,
            "dnsEnd" : 361,
            "receiveHeadersEnd" : 745,
            "sslEnd" : 660,
            "connectEnd" : 661,
            "connectStart" : 0,
            "id" : "download_3",
            "receivedTime" : "1212.56999997422",
            "sslStart" : 440,
            "dnsStart" : 8,
            "receiveLast" : 467.569999974221,
            "s_time" : -74.0049999440089,
            "sendEnd" : 661,
            "sendStart" : 661,
            "type" : "image/gif"
         }
      },
      {
         "comps" : [
            {
               "s_time" : -2984.93999999482,
               "time" : 0.762999989090076,
               "type" : "evalhtml",
               "id" : "_c1",
               "e_time" : -2984.17700000573
            }
         ]
      },
      {
         "comps" : [
            {
               "s_time" : -2975.63200001605,
               "time" : 0.915999989959801,
               "type" : "evalhtml",
               "id" : "_c1",
               "e_time" : -2974.71600002609
            }
         ]
      },
      {
         "comps" : [
            {
               "s_time" : -2969.37599999364,
               "time" : 0.854999991130171,
               "type" : "evalhtml",
               "id" : "_c1",
               "e_time" : -2968.52100000251
            }
         ]
      },
      {
         "comps" : [
            {
               "s_time" : -2958.11499992851,
               "time" : 1323.91399994958,
               "type" : "evalhtml",
               "id" : "_c1",
               "e_time" : -1634.20099997893
            }
         ]
      },
      {
         "comps" : [
            {
               "s_time" : -1397.93400000781,
               "time" : 12.63400004246,
               "type" : "evalhtml",
               "id" : "_c1",
               "e_time" : -1385.29999996535
            }
         ]
      },
      {
         "comps" : [
            {
               "s_time" : -535.476999939419,
               "time" : 20.629999926313,
               "type" : "evalhtml",
               "id" : "_c1",
               "e_time" : -514.847000013106
            }
         ]
      },
      {
         "comps" : [
            {
               "s_time" : 1217.4530000193,
               "time" : 0.640999991450144,
               "type" : "evalhtml",
               "id" : "_c1",
               "e_time" : 1218.09400001075
            }
         ]
      },
      {
         "comps" : [
            {
               "s_time" : 1221.69500007294,
               "time" : 3.57099995017006,
               "type" : "evalhtml",
               "id" : "_c1",
               "e_time" : 1225.26600002311
            }
         ]
      }
   ],
   "deps" : []
}
