{
   "n_download_no_trigger" : 1,
   "start_activity" : "download_0",
   "name" : "original.testbed.localhost_www.hays.hu_",
   "load_activity" : -1,
   "objs" : [
      {
         "when_comp_start" : 1,
         "url" : "http://original.testbed.localhost/www.hays.hu/",
         "id" : "r39",
         "comps" : [
            {
               "s_time" : 67.3209999222308,
               "time" : 231.934000039473,
               "id" : "r39_c1",
               "type" : "evalhtml",
               "e_time" : 299.254999961704
            },
            {
               "s_time" : 312.346999999136,
               "time" : -980885867.848,
               "id" : "r39_c2",
               "type" : "evalhtml",
               "e_time" : -980885555.501
            },
            {
               "s_time" : 319.335000007413,
               "time" : 45.120000024326,
               "id" : "r39_c3",
               "type" : "evalhtml",
               "e_time" : 364.455000031739
            },
            {
               "s_time" : 1053.74100001063,
               "time" : 12.0079999324,
               "id" : "r39_c4",
               "type" : "evalhtml",
               "e_time" : 1065.74899994303
            },
            {
               "s_time" : 1082.12199993432,
               "time" : 146.94200002122,
               "type" : "evalhtml",
               "id" : "r39_c5",
               "e_time" : 1229.06399995554
            }
         ],
         "download" : {
            "receiveFirst" : 9,
            "len" : 68963,
            "dns" : 0,
            "dnsEnd" : -1,
            "receiveHeadersEnd" : 13,
            "sslEnd" : -1,
            "connectEnd" : 4,
            "connectStart" : 0,
            "id" : "download_0",
            "receivedTime" : "63.3839999791235",
            "sslStart" : -1,
            "dnsStart" : -1,
            "receiveLast" : 50.3839999791235,
            "s_time" : 0,
            "sendEnd" : 4,
            "sendStart" : 4,
            "type" : "text/html"
         }
      },
      {
         "when_comp_start" : -1,
         "url" : "http://571910047.log.optimizely.com/eventa=571910047&d=582891733&y=false&src=js&s573472987=direct&s580510101=gc&s588260069=true&s596990067=none&s1002216945=true&s1015699824=true&s1740970683=true&tsent=1441003091.3&n=http%3A%2F%2Foriginal.testbed.localhost%2Fwww.hays.hu%2F&u=oeu1441003089185r0.80548",
         "id" : "r45",
         "comps" : [],
         "download" : {
            "receiveFirst" : 29,
            "len" : 2,
            "dns" : 0,
            "dnsEnd" : -1,
            "receiveHeadersEnd" : 33,
            "sslEnd" : -1,
            "connectEnd" : 4,
            "connectStart" : 0,
            "id" : "download_1",
            "receivedTime" : "667.784999939613",
            "sslStart" : -1,
            "dnsStart" : -1,
            "receiveLast" : 634.784999939613,
            "s_time" : 299.254999961704,
            "sendEnd" : 4,
            "sendStart" : 4,
            "type" : "application/json"
         }
      },
      {
         "when_comp_start" : -1,
         "url" : "http://571910047.log.optimizely.com/eventa=571910047&d=582891733&y=false&src=js&s573472987=direct&s580510101=gc&s588260069=true&s596990067=none&s1002216945=true&s1015699824=true&s1740970683=true&tsent=1441003091.364&n=http%3A%2F%2Foriginal.testbed.localhost%2Fwww.hays.hu%2F&u=oeu1441003089185r0.805",
         "id" : "r47",
         "comps" : [],
         "download" : {
            "receiveFirst" : 15,
            "len" : 2,
            "dns" : 0,
            "dnsEnd" : -1,
            "receiveHeadersEnd" : 21,
            "sslEnd" : -1,
            "connectEnd" : 6,
            "connectStart" : 0,
            "id" : "download_2",
            "receivedTime" : "677.795000025071",
            "sslStart" : -1,
            "dnsStart" : -1,
            "receiveLast" : 656.795000025071,
            "s_time" : 364.455000031739,
            "sendEnd" : 6,
            "sendStart" : 6,
            "type" : "application/json"
         }
      },
      {
         "when_comp_start" : -1,
         "url" : "http://www.google-analytics.com/collectv=1&_v=j38&a=1361845883&t=pageview&_s=1&dl=http%3A%2F%2Foriginal.testbed.localhost%2Fwww.hays.hu%2F&ul=en-us&de=UTF-8&dt=Hays%20%C3%A1ll%C3%A1sok%20%C3%A9s%20toborz%C3%A1s%20%7C%20Hays%20-%20Legyen%20piacvezet%C5%91%20szak%C3%A9rtelm%C3%BCnkkel&sd=32-bit&sr=36",
         "id" : "r74",
         "comps" : [],
         "download" : {
            "receiveFirst" : 17,
            "len" : 35,
            "dns" : 0,
            "dnsEnd" : -1,
            "receiveHeadersEnd" : 44,
            "sslEnd" : -1,
            "connectEnd" : 27,
            "connectStart" : 0,
            "id" : "download_3",
            "receivedTime" : "1309.29499992635",
            "sslStart" : -1,
            "dnsStart" : -1,
            "receiveLast" : 1265.29499992635,
            "s_time" : 1065.74899994303,
            "sendEnd" : 27,
            "sendStart" : 27,
            "type" : "image/gif"
         }
      }
   ],
   "deps" : [
      {
         "a2" : "r39_c2",
         "time" : -1,
         "id" : "dep1",
         "a1" : "comp_1"
      },
      {
         "a2" : "r39_c3",
         "time" : -1,
         "id" : "dep2",
         "a1" : "comp_8"
      },
      {
         "a2" : "r39_c4",
         "time" : -1,
         "id" : "dep3",
         "a1" : "comp_78"
      },
      {
         "a2" : "r39_c5",
         "time" : -1,
         "id" : "dep4",
         "a1" : "comp_82"
      },
      {
         "a2" : "download_3",
         "time" : -1,
         "id" : "dep5",
         "a1" : "r39_c4"
      },
      {
         "a2" : "download_2",
         "time" : -1,
         "id" : "dep6",
         "a1" : "r39_c3"
      },
      {
         "a2" : "download_1",
         "time" : -1,
         "id" : "dep7",
         "a1" : "r39_c1"
      }
   ]
}
