{
   "n_download_no_trigger" : 1,
   "start_activity" : "download_0",
   "name" : "original.testbed.localhost_www.wnd.com_",
   "load_activity" : -1,
   "objs" : [
      {
         "when_comp_start" : 1,
         "url" : "http://original.testbed.localhost/www.wnd.com/",
         "id" : "r84",
         "comps" : [],
         "download" : {
            "receiveFirst" : 7,
            "len" : 32768,
            "dns" : 0,
            "dnsEnd" : -1,
            "receiveHeadersEnd" : 11,
            "sslEnd" : -1,
            "connectEnd" : 3,
            "connectStart" : 0,
            "id" : "download_0",
            "receivedTime" : "217.454000026919",
            "sslStart" : -1,
            "dnsStart" : -1,
            "receiveLast" : 206.454000026919,
            "s_time" : 0,
            "sendEnd" : 4,
            "sendStart" : 3,
            "type" : "text/html"
         }
      }
   ],
   "deps" : []
}
