{
   "n_download_no_trigger" : 1,
   "start_activity" : "download_0",
   "name" : "original.testbed.localhost_www.oc.gs_",
   "load_activity" : -1,
   "objs" : [
      {
         "when_comp_start" : 1,
         "url" : "http://original.testbed.localhost/www.oc.gs/",
         "id" : "r5",
         "comps" : [
            {
               "s_time" : 60.3640000335872,
               "time" : 6.6219998989254,
               "type" : "evalhtml",
               "id" : "r5_c1",
               "e_time" : 66.9859999325126
            }
         ],
         "download" : {
            "receiveFirst" : 11,
            "len" : 4491,
            "dns" : 0,
            "dnsEnd" : -1,
            "receiveHeadersEnd" : 20,
            "sslEnd" : -1,
            "connectEnd" : 8,
            "connectStart" : 0,
            "id" : "download_0",
            "receivedTime" : "25.2379999728873",
            "sslStart" : -1,
            "dnsStart" : -1,
            "receiveLast" : 5.23799997288734,
            "s_time" : 0,
            "sendEnd" : 9,
            "sendStart" : 8,
            "type" : "text/html"
         }
      }
   ],
   "deps" : []
}
