{
   "n_download_no_trigger" : 1,
   "start_activity" : "download_0",
   "name" : "original.testbed.localhost_www.janekoenig.dk_",
   "load_activity" : -1,
   "objs" : [
      {
         "when_comp_start" : 1,
         "url" : "http://original.testbed.localhost/www.janekoenig.dk/",
         "id" : "r90",
         "comps" : [
            {
               "s_time" : 224.090000032447,
               "time" : -1002007110.554,
               "id" : "r90_c1",
               "type" : "evalhtml",
               "e_time" : -1002006886.464
            },
            {
               "s_time" : 460.661999997683,
               "time" : -1002007347.126,
               "id" : "r90_c2",
               "type" : "evalhtml",
               "e_time" : -1002006886.464
            },
            {
               "s_time" : 513.061000034213,
               "time" : -1002007399.525,
               "id" : "r90_c3",
               "type" : "evalhtml",
               "e_time" : -1002006886.464
            },
            {
               "s_time" : 520.538000040688,
               "time" : -1002007407.002,
               "id" : "r90_c4",
               "type" : "evalhtml",
               "e_time" : -1002006886.464
            },
            {
               "s_time" : 537.414000020362,
               "time" : -1002007423.878,
               "id" : "r90_c5",
               "type" : "evalhtml",
               "e_time" : -1002006886.464
            },
            {
               "s_time" : 542.907000053674,
               "time" : -1002007429.371,
               "id" : "r90_c6",
               "type" : "evalhtml",
               "e_time" : -1002006886.464
            },
            {
               "s_time" : 545.318000018597,
               "time" : -1002007431.782,
               "id" : "r90_c7",
               "type" : "evalhtml",
               "e_time" : -1002006886.464
            },
            {
               "s_time" : 632.628999999724,
               "time" : -1002007519.093,
               "id" : "r90_c8",
               "type" : "evalhtml",
               "e_time" : -1002006886.464
            },
            {
               "s_time" : 639.984000008553,
               "time" : -1002007526.448,
               "id" : "r90_c9",
               "type" : "evalhtml",
               "e_time" : -1002006886.464
            },
            {
               "s_time" : 642.302999971434,
               "time" : -1002007528.767,
               "id" : "r90_c10",
               "type" : "evalhtml",
               "e_time" : -1002006886.464
            },
            {
               "s_time" : 650.420999969356,
               "time" : -1002007536.885,
               "id" : "r90_c11",
               "type" : "evalhtml",
               "e_time" : -1002006886.464
            },
            {
               "s_time" : 662.597000016831,
               "time" : -1002007549.061,
               "id" : "r90_c12",
               "type" : "evalhtml",
               "e_time" : -1002006886.464
            },
            {
               "s_time" : 744.75099996198,
               "time" : -1002007631.215,
               "id" : "r90_c13",
               "type" : "evalhtml",
               "e_time" : -1002006886.464
            },
            {
               "s_time" : 749.603000003844,
               "time" : -1002007636.067,
               "id" : "r90_c14",
               "type" : "evalhtml",
               "e_time" : -1002006886.464
            },
            {
               "s_time" : 759.947999962606,
               "time" : -1002007646.412,
               "id" : "r90_c15",
               "type" : "evalhtml",
               "e_time" : -1002006886.464
            },
            {
               "s_time" : 770.538000040688,
               "time" : -1002007657.002,
               "id" : "r90_c16",
               "type" : "evalhtml",
               "e_time" : -1002006886.464
            },
            {
               "s_time" : 774.291999987327,
               "time" : -1002007660.756,
               "id" : "r90_c17",
               "type" : "evalhtml",
               "e_time" : -1002006886.464
            },
            {
               "s_time" : 777.862000046298,
               "time" : -1002007664.326,
               "id" : "r90_c18",
               "type" : "evalhtml",
               "e_time" : -1002006886.464
            },
            {
               "s_time" : 781.737999990582,
               "time" : -1002007668.202,
               "id" : "r90_c19",
               "type" : "evalhtml",
               "e_time" : -1002006886.464
            },
            {
               "s_time" : 785.583000048064,
               "time" : -1002007672.047,
               "id" : "r90_c20",
               "type" : "evalhtml",
               "e_time" : -1002006886.464
            },
            {
               "s_time" : 787.658000015654,
               "time" : -1002007674.122,
               "id" : "r90_c21",
               "type" : "evalhtml",
               "e_time" : -1002006886.464
            },
            {
               "s_time" : 789.763999986462,
               "time" : -1002007676.228,
               "id" : "r90_c22",
               "type" : "evalhtml",
               "e_time" : -1002006886.464
            },
            {
               "s_time" : 837.24899997469,
               "time" : 366.36300000828,
               "id" : "r90_c23",
               "type" : "evalhtml",
               "e_time" : 1203.61199998297
            },
            {
               "s_time" : 1391.9669999741,
               "time" : 399.87200009637,
               "type" : "evalhtml",
               "id" : "r90_c24",
               "e_time" : 1791.83900007047
            }
         ],
         "download" : {
            "receiveFirst" : 32,
            "len" : 73666,
            "dns" : 0,
            "dnsEnd" : -1,
            "receiveHeadersEnd" : 37,
            "sslEnd" : -1,
            "connectEnd" : 5,
            "connectStart" : 0,
            "id" : "download_0",
            "receivedTime" : "222.900000051595",
            "sslStart" : -1,
            "dnsStart" : -1,
            "receiveLast" : 185.900000051595,
            "s_time" : 0,
            "sendEnd" : 5,
            "sendStart" : 5,
            "type" : "text/html"
         }
      },
      {
         "when_comp_start" : -1,
         "url" : "http://original.testbed.localhost/www.janekoenig.dk/magnetic/magnetic-earrings-front.jpg",
         "id" : "r149",
         "comps" : [],
         "download" : {
            "receiveFirst" : 26,
            "len" : 253015,
            "dns" : 0,
            "dnsEnd" : -1,
            "receiveHeadersEnd" : 64,
            "sslEnd" : -1,
            "connectEnd" : 38,
            "connectStart" : 0,
            "id" : "download_1",
            "receivedTime" : "1597.74700005073",
            "sslStart" : -1,
            "dnsStart" : -1,
            "receiveLast" : 1533.74700005073,
            "s_time" : 981.307000038214,
            "sendEnd" : 38,
            "sendStart" : 38,
            "type" : "image/jpeg"
         }
      },
      {
         "when_comp_start" : -1,
         "url" : "http://original.testbed.localhost/www.janekoenig.dk/media/catalog/product/cache/3/small_image/200x200/040ec09b1e35df139433887a97daa66f/j/k/jk0222e-s.jpg",
         "id" : "r155",
         "comps" : [],
         "download" : {
            "receiveFirst" : 21,
            "len" : 4785,
            "dns" : 0,
            "dnsEnd" : -1,
            "receiveHeadersEnd" : 54,
            "sslEnd" : -1,
            "connectEnd" : 32,
            "connectStart" : 0,
            "id" : "download_2",
            "receivedTime" : "1586.54699998442",
            "sslStart" : -1,
            "dnsStart" : -1,
            "receiveLast" : 1532.54699998442,
            "s_time" : 1017.14999997057,
            "sendEnd" : 33,
            "sendStart" : 32,
            "type" : "image/jpeg"
         }
      },
      {
         "when_comp_start" : -1,
         "url" : "http://original.testbed.localhost/www.janekoenig.dk/media/catalog/product/cache/3/small_image/200x200/040ec09b1e35df139433887a97daa66f/j/k/jk0222e-r.jpg",
         "id" : "r156",
         "comps" : [],
         "download" : {
            "receiveFirst" : 23,
            "len" : 5445,
            "dns" : 0,
            "dnsEnd" : -1,
            "receiveHeadersEnd" : 59,
            "sslEnd" : -1,
            "connectEnd" : 36,
            "connectStart" : 0,
            "id" : "download_3",
            "receivedTime" : "1587.24899997469",
            "sslStart" : -1,
            "dnsStart" : -1,
            "receiveLast" : 1528.24899997469,
            "s_time" : 1021.60600002389,
            "sendEnd" : 36,
            "sendStart" : 36,
            "type" : "image/jpeg"
         }
      },
      {
         "when_comp_start" : -1,
         "url" : "http://original.testbed.localhost/www.janekoenig.dk/media/catalog/product/cache/3/small_image/200x200/040ec09b1e35df139433887a97daa66f/j/k/jk0221e-o_1.jpg",
         "id" : "r157",
         "comps" : [],
         "download" : {
            "receiveFirst" : 21,
            "len" : 5809,
            "dns" : 0,
            "dnsEnd" : -1,
            "receiveHeadersEnd" : 49,
            "sslEnd" : -1,
            "connectEnd" : 28,
            "connectStart" : 0,
            "id" : "download_4",
            "receivedTime" : "1588.98900006898",
            "sslStart" : -1,
            "dnsStart" : -1,
            "receiveLast" : 1539.98900006898,
            "s_time" : 1037.55100001581,
            "sendEnd" : 28,
            "sendStart" : 28,
            "type" : "image/jpeg"
         }
      },
      {
         "when_comp_start" : -1,
         "url" : "http://original.testbed.localhost/www.janekoenig.dk/media/catalog/product/cache/3/small_image/200x200/040ec09b1e35df139433887a97daa66f/j/k/jk0221e-g.jpg",
         "id" : "r158",
         "comps" : [],
         "download" : {
            "receiveFirst" : 17,
            "len" : 6131,
            "dns" : 0,
            "dnsEnd" : -1,
            "receiveHeadersEnd" : 51,
            "sslEnd" : -1,
            "connectEnd" : 33,
            "connectStart" : 0,
            "id" : "download_5",
            "receivedTime" : "1590.33200005069",
            "sslStart" : -1,
            "dnsStart" : -1,
            "receiveLast" : 1539.33200005069,
            "s_time" : 1042.09800006356,
            "sendEnd" : 34,
            "sendStart" : 33,
            "type" : "image/jpeg"
         }
      },
      {
         "when_comp_start" : -1,
         "url" : "http://original.testbed.localhost/www.janekoenig.dk/media/catalog/product/cache/3/small_image/200x200/040ec09b1e35df139433887a97daa66f/j/k/jk0221e-s.jpg",
         "id" : "r159",
         "comps" : [],
         "download" : {
            "receiveFirst" : 17,
            "len" : 5514,
            "dns" : 0,
            "dnsEnd" : -1,
            "receiveHeadersEnd" : 53,
            "sslEnd" : -1,
            "connectEnd" : 36,
            "connectStart" : 0,
            "id" : "download_6",
            "receivedTime" : "1592.22400002182",
            "sslStart" : -1,
            "dnsStart" : -1,
            "receiveLast" : 1539.22400002182,
            "s_time" : 1048.29299997073,
            "sendEnd" : 36,
            "sendStart" : 36,
            "type" : "image/jpeg"
         }
      },
      {
         "when_comp_start" : -1,
         "url" : "http://original.testbed.localhost/www.janekoenig.dk/media/catalog/product/cache/3/small_image/200x200/040ec09b1e35df139433887a97daa66f/j/k/jk0221e-r.jpg",
         "id" : "r160",
         "comps" : [],
         "download" : {
            "receiveFirst" : 16,
            "len" : 6132,
            "dns" : 0,
            "dnsEnd" : -1,
            "receiveHeadersEnd" : 53,
            "sslEnd" : -1,
            "connectEnd" : 37,
            "connectStart" : 0,
            "id" : "download_7",
            "receivedTime" : "1593.41400000267",
            "sslStart" : -1,
            "dnsStart" : -1,
            "receiveLast" : 1540.41400000267,
            "s_time" : 1052.01700003818,
            "sendEnd" : 37,
            "sendStart" : 37,
            "type" : "image/jpeg"
         }
      },
      {
         "when_comp_start" : -1,
         "url" : "http://original.testbed.localhost/www.janekoenig.dk/media/catalog/product/cache/3/small_image/200x200/040ec09b1e35df139433887a97daa66f/j/k/jk0223e-o.jpg",
         "id" : "r161",
         "comps" : [],
         "download" : {
            "receiveFirst" : 18,
            "len" : 5988,
            "dns" : 0,
            "dnsEnd" : -1,
            "receiveHeadersEnd" : 52,
            "sslEnd" : -1,
            "connectEnd" : 34,
            "connectStart" : 0,
            "id" : "download_8",
            "receivedTime" : "1594.17699999176",
            "sslStart" : -1,
            "dnsStart" : -1,
            "receiveLast" : 1542.17699999176,
            "s_time" : 1056.21299997438,
            "sendEnd" : 34,
            "sendStart" : 34,
            "type" : "image/jpeg"
         }
      },
      {
         "when_comp_start" : -1,
         "url" : "http://original.testbed.localhost/www.janekoenig.dk/media/catalog/product/cache/3/small_image/200x200/040ec09b1e35df139433887a97daa66f/j/k/jk0223e-g.jpg",
         "id" : "r162",
         "comps" : [],
         "download" : {
            "receiveFirst" : 20,
            "len" : 6297,
            "dns" : 0,
            "dnsEnd" : -1,
            "receiveHeadersEnd" : 58,
            "sslEnd" : -1,
            "connectEnd" : 37,
            "connectStart" : 0,
            "id" : "download_9",
            "receivedTime" : "1594.84799997881",
            "sslStart" : -1,
            "dnsStart" : -1,
            "receiveLast" : 1536.84799997881,
            "s_time" : 1063.03299998399,
            "sendEnd" : 38,
            "sendStart" : 37,
            "type" : "image/jpeg"
         }
      },
      {
         "when_comp_start" : -1,
         "url" : "http://original.testbed.localhost/www.janekoenig.dk/media/catalog/product/cache/3/small_image/200x200/040ec09b1e35df139433887a97daa66f/j/k/jk0223e-s.jpg",
         "id" : "r163",
         "comps" : [],
         "download" : {
            "receiveFirst" : 21,
            "len" : 5538,
            "dns" : 0,
            "dnsEnd" : -1,
            "receiveHeadersEnd" : 54,
            "sslEnd" : -1,
            "connectEnd" : 32,
            "connectStart" : 0,
            "id" : "download_10",
            "receivedTime" : "1595.48899997026",
            "sslStart" : -1,
            "dnsStart" : -1,
            "receiveLast" : 1541.48899997026,
            "s_time" : 1069.65499999933,
            "sendEnd" : 33,
            "sendStart" : 32,
            "type" : "image/jpeg"
         }
      },
      {
         "when_comp_start" : -1,
         "url" : "http://original.testbed.localhost/www.janekoenig.dk/media/catalog/product/cache/3/small_image/200x200/040ec09b1e35df139433887a97daa66f/j/k/jk0223e-r.jpg",
         "id" : "r164",
         "comps" : [],
         "download" : {
            "receiveFirst" : 12,
            "len" : 6273,
            "dns" : 0,
            "dnsEnd" : -1,
            "receiveHeadersEnd" : 49,
            "sslEnd" : -1,
            "connectEnd" : 37,
            "connectStart" : 0,
            "id" : "download_11",
            "receivedTime" : "1599.15100003127",
            "sslStart" : -1,
            "dnsStart" : -1,
            "receiveLast" : 1550.15100003127,
            "s_time" : 1094.92399997544,
            "sendEnd" : 37,
            "sendStart" : 37,
            "type" : "image/jpeg"
         }
      },
      {
         "when_comp_start" : -1,
         "url" : "http://original.testbed.localhost/www.janekoenig.dk/skin/frontend/janekoenig/default/images/slider-right.png",
         "id" : "r165",
         "comps" : [],
         "download" : {
            "receiveFirst" : 12,
            "len" : 867,
            "dns" : 0,
            "dnsEnd" : -1,
            "receiveHeadersEnd" : 50,
            "sslEnd" : -1,
            "connectEnd" : 38,
            "connectStart" : 0,
            "id" : "download_12",
            "receivedTime" : "1600.61600001063",
            "sslStart" : -1,
            "dnsStart" : -1,
            "receiveLast" : 1550.61600001063,
            "s_time" : 1098.40300003998,
            "sendEnd" : 38,
            "sendStart" : 38,
            "type" : "image/png"
         }
      },
      {
         "when_comp_start" : -1,
         "url" : "http://original.testbed.localhost/www.janekoenig.dk/skin/frontend/janekoenig/default/images/betaling.png",
         "id" : "r166",
         "comps" : [],
         "download" : {
            "receiveFirst" : 14,
            "len" : 25090,
            "dns" : 0,
            "dnsEnd" : -1,
            "receiveHeadersEnd" : 47,
            "sslEnd" : -1,
            "connectEnd" : 33,
            "connectStart" : 0,
            "id" : "download_13",
            "receivedTime" : "1601.25700000208",
            "sslStart" : -1,
            "dnsStart" : -1,
            "receiveLast" : 1554.25700000208,
            "s_time" : 1103.6820000736,
            "sendEnd" : 33,
            "sendStart" : 33,
            "type" : "image/png"
         }
      },
      {
         "when_comp_start" : -1,
         "url" : "http://original.testbed.localhost/www.janekoenig.dk/front/loading.gif",
         "id" : "r173",
         "comps" : [],
         "download" : {
            "receiveFirst" : 9,
            "len" : 653,
            "dns" : 0,
            "dnsEnd" : -1,
            "receiveHeadersEnd" : 21,
            "sslEnd" : -1,
            "connectEnd" : 11,
            "connectStart" : 0,
            "id" : "download_14",
            "receivedTime" : "1648.01000000443",
            "sslStart" : -1,
            "dnsStart" : -1,
            "receiveLast" : 1627.01000000443,
            "s_time" : 1203.61199998297,
            "sendEnd" : 12,
            "sendStart" : 11,
            "type" : "image/gif"
         }
      },
      {
         "when_comp_start" : -1,
         "url" : "http://original.testbed.localhost/www.janekoenig.dk/skin/frontend/janekoenig/default/images/news.jpg",
         "id" : "r175",
         "comps" : [],
         "download" : {
            "receiveFirst" : 11,
            "len" : 2160,
            "dns" : 0,
            "dnsEnd" : -1,
            "receiveHeadersEnd" : 20,
            "sslEnd" : -1,
            "connectEnd" : 9,
            "connectStart" : 0,
            "id" : "download_15",
            "receivedTime" : "1787.62800002005",
            "sslStart" : -1,
            "dnsStart" : -1,
            "receiveLast" : 1767.62800002005,
            "s_time" : 1397.7040000027,
            "sendEnd" : 9,
            "sendStart" : 9,
            "type" : "image/jpeg"
         }
      },
      {
         "when_comp_start" : -1,
         "url" : "http://www.google-analytics.com/__utm.gifutmwv=5.6.6&utms=2&utmn=1983750133&utmhn=original.testbed.localhost&utmcs=UTF-8&utmsr=360x640&utmvp=980x1568&utmsc=32-bit&utmul=en-us&utmje=1&utmfl=-&utmdt=Jane%20K%C3%B8nig%20Smykker&utmhid=522273832&utmr=-&utmp=%2Fwww.janekoenig.dk%2F&utmht=1441024214050&u",
         "id" : "r176",
         "comps" : [],
         "download" : {
            "receiveFirst" : 7,
            "len" : 35,
            "dns" : 0,
            "dnsEnd" : -1,
            "receiveHeadersEnd" : 12,
            "sslEnd" : -1,
            "connectEnd" : 4,
            "connectStart" : 0,
            "id" : "download_16",
            "receivedTime" : "1790.34399997909",
            "sslStart" : -1,
            "dnsStart" : -1,
            "receiveLast" : 1778.34399997909,
            "s_time" : 1703.65799998399,
            "sendEnd" : 5,
            "sendStart" : 4,
            "type" : "image/gif"
         }
      },
      {
         "when_comp_start" : 1,
         "url" : "https://www.google.com/ads/user-lists/1042367571/fmt=1&num=1&cv=8&frm=0&url=http%3A//original.testbed.localhost/www.janekoenig.dk/&random=2379199483",
         "id" : "r174",
         "comps" : [
            {
               "s_time" : 1952.33100000769,
               "time" : 1.03799998760019,
               "type" : "evalhtml",
               "id" : "r174_c1",
               "e_time" : 1953.36899999529
            }
         ],
         "download" : {
            "receiveFirst" : 28,
            "len" : 63,
            "dns" : 0,
            "dnsEnd" : 0,
            "receiveHeadersEnd" : 119,
            "sslEnd" : 88,
            "connectEnd" : 90,
            "connectStart" : 0,
            "id" : "download_17",
            "receivedTime" : "1916.6869999608",
            "sslStart" : 17,
            "dnsStart" : 0,
            "receiveLast" : 1797.6869999608,
            "s_time" : 1791.83900007047,
            "sendEnd" : 91,
            "sendStart" : 90,
            "type" : "text/html"
         }
      }
   ],
   "deps" : [
      {
         "a2" : "r90_c2",
         "time" : -1,
         "id" : "dep1",
         "a1" : "comp_8"
      },
      {
         "a2" : "r90_c3",
         "time" : -1,
         "id" : "dep2",
         "a1" : "comp_10"
      },
      {
         "a2" : "r90_c4",
         "time" : -1,
         "id" : "dep3",
         "a1" : "comp_13"
      },
      {
         "a2" : "r90_c5",
         "time" : -1,
         "id" : "dep4",
         "a1" : "comp_28"
      },
      {
         "a2" : "r90_c6",
         "time" : -1,
         "id" : "dep5",
         "a1" : "comp_30"
      },
      {
         "a2" : "r90_c7",
         "time" : -1,
         "id" : "dep6",
         "a1" : "comp_32"
      },
      {
         "a2" : "r90_c8",
         "time" : -1,
         "id" : "dep7",
         "a1" : "comp_35"
      },
      {
         "a2" : "r90_c9",
         "time" : -1,
         "id" : "dep8",
         "a1" : "comp_38"
      },
      {
         "a2" : "r90_c10",
         "time" : -1,
         "id" : "dep9",
         "a1" : "comp_40"
      },
      {
         "a2" : "r90_c11",
         "time" : -1,
         "id" : "dep10",
         "a1" : "comp_42"
      },
      {
         "a2" : "r90_c12",
         "time" : -1,
         "id" : "dep11",
         "a1" : "comp_52"
      },
      {
         "a2" : "r90_c13",
         "time" : -1,
         "id" : "dep12",
         "a1" : "comp_56"
      },
      {
         "a2" : "r90_c14",
         "time" : -1,
         "id" : "dep13",
         "a1" : "comp_58"
      },
      {
         "a2" : "r90_c15",
         "time" : -1,
         "id" : "dep14",
         "a1" : "comp_60"
      },
      {
         "a2" : "r90_c16",
         "time" : -1,
         "id" : "dep15",
         "a1" : "comp_62"
      },
      {
         "a2" : "r90_c17",
         "time" : -1,
         "id" : "dep16",
         "a1" : "comp_64"
      },
      {
         "a2" : "r90_c18",
         "time" : -1,
         "id" : "dep17",
         "a1" : "comp_66"
      },
      {
         "a2" : "r90_c19",
         "time" : -1,
         "id" : "dep18",
         "a1" : "comp_68"
      },
      {
         "a2" : "r90_c20",
         "time" : -1,
         "id" : "dep19",
         "a1" : "comp_70"
      },
      {
         "a2" : "r90_c21",
         "time" : -1,
         "id" : "dep20",
         "a1" : "comp_71"
      },
      {
         "a2" : "r90_c22",
         "time" : -1,
         "id" : "dep21",
         "a1" : "comp_73"
      },
      {
         "a2" : "r90_c23",
         "time" : -1,
         "id" : "dep22",
         "a1" : "comp_77"
      },
      {
         "a2" : "r90_c24",
         "time" : -1,
         "id" : "dep23",
         "a1" : "comp_125"
      },
      {
         "a2" : "download_17",
         "time" : -1,
         "id" : "dep24",
         "a1" : "r90_c24"
      },
      {
         "a2" : "download_16",
         "time" : 311.69100000989,
         "id" : "dep25",
         "a1" : "r90_c24"
      },
      {
         "a2" : "download_15",
         "time" : 5.73700002860005,
         "id" : "dep26",
         "a1" : "r90_c24"
      },
      {
         "a2" : "download_14",
         "time" : -1,
         "id" : "dep27",
         "a1" : "r90_c23"
      },
      {
         "a2" : "download_13",
         "time" : 266.43300009891,
         "id" : "dep28",
         "a1" : "r90_c23"
      },
      {
         "a2" : "download_12",
         "time" : 261.15400006529,
         "id" : "dep29",
         "a1" : "r90_c23"
      },
      {
         "a2" : "download_11",
         "time" : 257.67500000075,
         "id" : "dep30",
         "a1" : "r90_c23"
      },
      {
         "a2" : "download_10",
         "time" : 232.40600002464,
         "id" : "dep31",
         "a1" : "r90_c23"
      },
      {
         "a2" : "download_9",
         "time" : 225.7840000093,
         "id" : "dep32",
         "a1" : "r90_c23"
      },
      {
         "a2" : "download_8",
         "time" : 218.96399999969,
         "id" : "dep33",
         "a1" : "r90_c23"
      },
      {
         "a2" : "download_7",
         "time" : 214.76800006349,
         "id" : "dep34",
         "a1" : "r90_c23"
      },
      {
         "a2" : "download_6",
         "time" : 211.04399999604,
         "id" : "dep35",
         "a1" : "r90_c23"
      },
      {
         "a2" : "download_5",
         "time" : 204.84900008887,
         "id" : "dep36",
         "a1" : "r90_c23"
      },
      {
         "a2" : "download_4",
         "time" : 200.30200004112,
         "id" : "dep37",
         "a1" : "r90_c23"
      },
      {
         "a2" : "download_3",
         "time" : 184.3570000492,
         "id" : "dep38",
         "a1" : "r90_c23"
      },
      {
         "a2" : "download_2",
         "time" : 179.90099999588,
         "id" : "dep39",
         "a1" : "r90_c23"
      },
      {
         "a2" : "download_1",
         "time" : 144.058000063524,
         "id" : "dep40",
         "a1" : "r90_c23"
      }
   ]
}
