{
   "n_download_no_trigger" : 1,
   "start_activity" : "download_0",
   "name" : "original.testbed.localhost_www.huffingtonpost.com_",
   "load_activity" : -1,
   "objs" : [
      {
         "when_comp_start" : 1,
         "url" : "http://original.testbed.localhost/www.huffingtonpost.com/",
         "id" : "r1",
         "comps" : [
            {
               "s_time" : 130.371000000196,
               "time" : 32.68399999979,
               "id" : "r1_c1",
               "type" : "evalhtml",
               "e_time" : 163.054999999986
            },
            {
               "s_time" : 495.483000000604,
               "time" : -4816038.284,
               "id" : "r1_c2",
               "type" : "evalhtml",
               "e_time" : -4815542.801
            },
            {
               "s_time" : 502.472000000125,
               "time" : -4816045.273,
               "id" : "r1_c3",
               "type" : "evalhtml",
               "e_time" : -4815542.801
            },
            {
               "s_time" : 545.348999999987,
               "time" : 2195.52600000042,
               "id" : "r1_c4",
               "type" : "evalhtml",
               "e_time" : 2740.87500000041
            },
            {
               "s_time" : 2742.09599999995,
               "time" : -4818284.897,
               "id" : "r1_c5",
               "type" : "evalhtml",
               "e_time" : -4815542.801
            },
            {
               "s_time" : 2749.8170000008,
               "time" : 261.93199999944,
               "type" : "evalhtml",
               "id" : "r1_c6",
               "e_time" : 3011.74900000024
            }
         ],
         "download" : {
            "receiveFirst" : 15,
            "len" : 324141,
            "dns" : 0,
            "dnsEnd" : -1,
            "receiveHeadersEnd" : 20,
            "sslEnd" : -1,
            "connectEnd" : 5,
            "connectStart" : 0,
            "id" : "download_0",
            "receivedTime" : "129.272000000128",
            "sslStart" : -1,
            "dnsStart" : -1,
            "receiveLast" : 109.272000000128,
            "s_time" : 0,
            "sendEnd" : 5,
            "sendStart" : 5,
            "type" : "text/html"
         }
      },
      {
         "when_comp_start" : -1,
         "url" : "http://original.testbed.localhost/s.huffpost.com/assets/css.php%3Fv=1442332451&f=twitter_splash.css,bing.css,grouping.css,modal_window.css,hp_modules%252Fmodule.bubble.css,email_share.css",
         "id" : "r4",
         "comps" : [
            {
               "s_time" : 235.2290000008,
               "time" : 21.057999999357,
               "type" : 4,
               "id" : "comp_2",
               "e_time" : 256.287000000157
            }
         ],
         "download" : {
            "receiveFirst" : 58,
            "len" : 26757,
            "dns" : 0,
            "dnsEnd" : -1,
            "receiveHeadersEnd" : 70,
            "sslEnd" : -1,
            "connectEnd" : 12,
            "connectStart" : 0,
            "id" : "download_1",
            "receivedTime" : "234.436000000642",
            "sslStart" : -1,
            "dnsStart" : -1,
            "receiveLast" : 164.436000000642,
            "s_time" : 136.505000000398,
            "sendEnd" : 12,
            "sendStart" : 12,
            "type" : "text/css"
         }
      },
      {
         "when_comp_start" : -1,
         "url" : "http://original.testbed.localhost/s.huffpost.com/assets/css.php%3Fv=1442332451&f=social-navbar.css,hp_modules%252Fmodule.bubble-tags.css,hp_modules%252Fmodule.fb_like_button.css,search_autocomplete.css,ap_wires_scroll.css,mod-follow.css,logos.css",
         "id" : "r5",
         "comps" : [
            {
               "s_time" : 258.148000000801,
               "time" : 66.344999999274,
               "type" : 4,
               "id" : "comp_3",
               "e_time" : 324.493000000075
            }
         ],
         "download" : {
            "receiveFirst" : 49,
            "len" : 19019,
            "dns" : 0,
            "dnsEnd" : -1,
            "receiveHeadersEnd" : 75,
            "sslEnd" : -1,
            "connectEnd" : 26,
            "connectStart" : 0,
            "id" : "download_2",
            "receivedTime" : "257.720999999947",
            "sslStart" : -1,
            "dnsStart" : -1,
            "receiveLast" : 182.720999999947,
            "s_time" : 139.252000000852,
            "sendEnd" : 26,
            "sendStart" : 26,
            "type" : "text/css"
         }
      },
      {
         "when_comp_start" : -1,
         "url" : "http://original.testbed.localhost/s.huffpost.com/assets/js.php%3Fv=1442332451&f=jquery%252Fjquery.I18N.js,locale%252Fdefault.js,sprintf-0.7.js",
         "id" : "r7",
         "comps" : [
            {
               "s_time" : 496.277000000191,
               "time" : 6.194999999934,
               "type" : 1,
               "id" : "comp_13",
               "e_time" : 502.472000000125
            }
         ],
         "download" : {
            "receiveFirst" : 37,
            "len" : 6119,
            "dns" : 1,
            "dnsEnd" : 33,
            "receiveHeadersEnd" : 76,
            "sslEnd" : -1,
            "connectEnd" : 38,
            "connectStart" : 0,
            "id" : "download_3",
            "receivedTime" : "325.226000000839",
            "sslStart" : -1,
            "dnsStart" : 32,
            "receiveLast" : 249.226000000839,
            "s_time" : 156.464000000597,
            "sendEnd" : 39,
            "sendStart" : 38,
            "type" : "application/javascript"
         }
      },
      {
         "when_comp_start" : -1,
         "url" : "http://original.testbed.localhost/s.huffpost.com/assets/js.php%3Fv=1442332451&f=yui_sub.js,jquery.js",
         "id" : "r6",
         "comps" : [
            {
               "s_time" : 330.566000000545,
               "time" : 164.917000000059,
               "type" : 1,
               "id" : "comp_8",
               "e_time" : 495.483000000604
            }
         ],
         "download" : {
            "receiveFirst" : 44,
            "len" : 95521,
            "dns" : 0,
            "dnsEnd" : 31,
            "receiveHeadersEnd" : 82,
            "sslEnd" : -1,
            "connectEnd" : 37,
            "connectStart" : 0,
            "id" : "download_4",
            "receivedTime" : "330.077999999958",
            "sslStart" : -1,
            "dnsStart" : 31,
            "receiveLast" : 248.077999999958,
            "s_time" : 155.548000000636,
            "sendEnd" : 38,
            "sendStart" : 37,
            "type" : "application/javascript"
         }
      },
      {
         "when_comp_start" : -1,
         "url" : "http://original.testbed.localhost/o.aolcdn.com/ads/adsWrapper.js",
         "id" : "r9",
         "comps" : [
            {
               "s_time" : 528.839000000517,
               "time" : 16.50999999947,
               "type" : 1,
               "id" : "comp_21",
               "e_time" : 545.348999999987
            }
         ],
         "download" : {
            "receiveFirst" : 36,
            "len" : 40429,
            "dns" : 0,
            "dnsEnd" : 39,
            "receiveHeadersEnd" : 84,
            "sslEnd" : -1,
            "connectEnd" : 48,
            "connectStart" : 0,
            "id" : "download_5",
            "receivedTime" : "329.407000000174",
            "sslStart" : -1,
            "dnsStart" : 39,
            "receiveLast" : 245.407000000174,
            "s_time" : 163.054999999986,
            "sendEnd" : 48,
            "sendStart" : 48,
            "type" : "application/javascript"
         }
      },
      {
         "when_comp_start" : -1,
         "url" : "http://original.testbed.localhost/www.huffingtonpost.com/images/mail_icon.png",
         "id" : "r13",
         "comps" : [],
         "download" : {
            "receiveFirst" : 16,
            "len" : 1216,
            "dns" : 0,
            "dnsEnd" : -1,
            "receiveHeadersEnd" : 24,
            "sslEnd" : -1,
            "connectEnd" : 7,
            "connectStart" : 0,
            "id" : "download_6",
            "receivedTime" : "740.936000000147",
            "sslStart" : -1,
            "dnsStart" : -1,
            "receiveLast" : 716.936000000147,
            "s_time" : 595.962000000327,
            "sendEnd" : 8,
            "sendStart" : 7,
            "type" : "image/png"
         }
      },
      {
         "when_comp_start" : -1,
         "url" : "http://original.testbed.localhost/www.huffingtonpost.com/images/mobile/view-mobile-icon.png",
         "id" : "r14",
         "comps" : [],
         "download" : {
            "receiveFirst" : 23,
            "len" : 1178,
            "dns" : 0,
            "dnsEnd" : -1,
            "receiveHeadersEnd" : 28,
            "sslEnd" : -1,
            "connectEnd" : 5,
            "connectStart" : 0,
            "id" : "download_7",
            "receivedTime" : "774.231000000327",
            "sslStart" : -1,
            "dnsStart" : -1,
            "receiveLast" : 746.231000000327,
            "s_time" : 605.33100000066,
            "sendEnd" : 5,
            "sendStart" : 5,
            "type" : "image/png"
         }
      },
      {
         "when_comp_start" : -1,
         "url" : "http://original.testbed.localhost/www.huffingtonpost.com/images/mobile/view-mobile-bkg.png",
         "id" : "r15",
         "comps" : [],
         "download" : {
            "receiveFirst" : 23,
            "len" : 47905,
            "dns" : 0,
            "dnsEnd" : -1,
            "receiveHeadersEnd" : 30,
            "sslEnd" : -1,
            "connectEnd" : 7,
            "connectStart" : 0,
            "id" : "download_8",
            "receivedTime" : "810.303000000204",
            "sslStart" : -1,
            "dnsStart" : -1,
            "receiveLast" : 780.303000000204,
            "s_time" : 611.298000000716,
            "sendEnd" : 7,
            "sendStart" : 7,
            "type" : "image/png"
         }
      },
      {
         "when_comp_start" : -1,
         "url" : "http://original.testbed.localhost/s.huffpost.com/images/v/logos/v4/homepage.gif%3Fv9",
         "id" : "r16",
         "comps" : [],
         "download" : {
            "receiveFirst" : 7,
            "len" : 6304,
            "dns" : 0,
            "dnsEnd" : -1,
            "receiveHeadersEnd" : 12,
            "sslEnd" : -1,
            "connectEnd" : 5,
            "connectStart" : 0,
            "id" : "download_9",
            "receivedTime" : "930.664000000434",
            "sslStart" : -1,
            "dnsStart" : -1,
            "receiveLast" : 918.664000000434,
            "s_time" : 702.392000000145,
            "sendEnd" : 5,
            "sendStart" : 5,
            "type" : "image/png"
         }
      },
      {
         "when_comp_start" : -1,
         "url" : "http://original.testbed.localhost/s.huffpost.com/images/front-page-sprite.png%3Fv4",
         "id" : "r18",
         "comps" : [],
         "download" : {
            "receiveFirst" : 6,
            "len" : 25667,
            "dns" : 0,
            "dnsEnd" : -1,
            "receiveHeadersEnd" : 11,
            "sslEnd" : -1,
            "connectEnd" : 4,
            "connectStart" : 0,
            "id" : "download_10",
            "receivedTime" : "1665.37500000049",
            "sslStart" : -1,
            "dnsStart" : -1,
            "receiveLast" : 1654.37500000049,
            "s_time" : 853.942000000643,
            "sendEnd" : 5,
            "sendStart" : 4,
            "type" : "image/png"
         }
      },
      {
         "when_comp_start" : -1,
         "url" : "http://original.testbed.localhost/i.huffpost.com/gen/3422736/images/r-JEB-huge.jpg",
         "id" : "r19",
         "comps" : [],
         "download" : {
            "receiveFirst" : 35,
            "len" : 201745,
            "dns" : 0,
            "dnsEnd" : -1,
            "receiveHeadersEnd" : 48,
            "sslEnd" : -1,
            "connectEnd" : 13,
            "connectStart" : 0,
            "id" : "download_11",
            "receivedTime" : "1979.58400000061",
            "sslStart" : -1,
            "dnsStart" : -1,
            "receiveLast" : 1931.58400000061,
            "s_time" : 921.844000000419,
            "sendEnd" : 13,
            "sendStart" : 13,
            "type" : "image/jpeg"
         }
      },
      {
         "when_comp_start" : -1,
         "url" : "http://original.testbed.localhost/s.huffpost.com/images/webslice12x12.png",
         "id" : "r20",
         "comps" : [],
         "download" : {
            "receiveFirst" : 40,
            "len" : 575,
            "dns" : 0,
            "dnsEnd" : -1,
            "receiveHeadersEnd" : 65,
            "sslEnd" : -1,
            "connectEnd" : 25,
            "connectStart" : 0,
            "id" : "download_12",
            "receivedTime" : "1859.22200000005",
            "sslStart" : -1,
            "dnsStart" : -1,
            "receiveLast" : 1794.22200000005,
            "s_time" : 925.583000000188,
            "sendEnd" : 25,
            "sendStart" : 25,
            "type" : "image/png"
         }
      },
      {
         "when_comp_start" : -1,
         "url" : "http://original.testbed.localhost/i.huffpost.com/gen/3422568/images/n-SIOMA-KIDS-medium.jpg",
         "id" : "r21",
         "comps" : [],
         "download" : {
            "receiveFirst" : 81,
            "len" : 24566,
            "dns" : 0,
            "dnsEnd" : -1,
            "receiveHeadersEnd" : 103,
            "sslEnd" : -1,
            "connectEnd" : 22,
            "connectStart" : 0,
            "id" : "download_13",
            "receivedTime" : "1970.82500000033",
            "sslStart" : -1,
            "dnsStart" : -1,
            "receiveLast" : 1867.82500000033,
            "s_time" : 963.83700000024,
            "sendEnd" : 22,
            "sendStart" : 22,
            "type" : "image/jpeg"
         }
      },
      {
         "when_comp_start" : -1,
         "url" : "http://original.testbed.localhost/i.huffpost.com/gen/3370994/images/n-OBAMA-medium.jpg",
         "id" : "r22",
         "comps" : [],
         "download" : {
            "receiveFirst" : 74,
            "len" : 15450,
            "dns" : 0,
            "dnsEnd" : -1,
            "receiveHeadersEnd" : 103,
            "sslEnd" : -1,
            "connectEnd" : 28,
            "connectStart" : 0,
            "id" : "download_14",
            "receivedTime" : "1972.99199999998",
            "sslStart" : -1,
            "dnsStart" : -1,
            "receiveLast" : 1869.99199999998,
            "s_time" : 971.420000000762,
            "sendEnd" : 29,
            "sendStart" : 28,
            "type" : "image/jpeg"
         }
      },
      {
         "when_comp_start" : -1,
         "url" : "http://original.testbed.localhost/i.huffpost.com/gen/3256350/images/n-BASHAR-ALASSAD-medium.jpg",
         "id" : "r23",
         "comps" : [],
         "download" : {
            "receiveFirst" : 76,
            "len" : 12010,
            "dns" : 0,
            "dnsEnd" : -1,
            "receiveHeadersEnd" : 106,
            "sslEnd" : -1,
            "connectEnd" : 29,
            "connectStart" : 0,
            "id" : "download_15",
            "receivedTime" : "1975.25000000041",
            "sslStart" : -1,
            "dnsStart" : -1,
            "receiveLast" : 1869.25000000041,
            "s_time" : 975.128000000041,
            "sendEnd" : 30,
            "sendStart" : 29,
            "type" : "image/jpeg"
         }
      },
      {
         "when_comp_start" : -1,
         "url" : "http://original.testbed.localhost/i.huffpost.com/gen/3422674/images/n-CONNELL-medium.jpg",
         "id" : "r24",
         "comps" : [],
         "download" : {
            "receiveFirst" : 72,
            "len" : 11436,
            "dns" : 0,
            "dnsEnd" : -1,
            "receiveHeadersEnd" : 110,
            "sslEnd" : -1,
            "connectEnd" : 38,
            "connectStart" : 0,
            "id" : "download_16",
            "receivedTime" : "1976.44000000037",
            "sslStart" : -1,
            "dnsStart" : -1,
            "receiveLast" : 1866.44000000037,
            "s_time" : 978.775000000496,
            "sendEnd" : 38,
            "sendStart" : 38,
            "type" : "image/jpeg"
         }
      },
      {
         "when_comp_start" : -1,
         "url" : "http://original.testbed.localhost/i.huffpost.com/gen/3422064/images/n-POPE-FRANCIS-medium.jpg",
         "id" : "r25",
         "comps" : [],
         "download" : {
            "receiveFirst" : 67,
            "len" : 10508,
            "dns" : 0,
            "dnsEnd" : -1,
            "receiveHeadersEnd" : 109,
            "sslEnd" : -1,
            "connectEnd" : 41,
            "connectStart" : 0,
            "id" : "download_17",
            "receivedTime" : "1977.41700000006",
            "sslStart" : -1,
            "dnsStart" : -1,
            "receiveLast" : 1868.41700000006,
            "s_time" : 984.93900000085,
            "sendEnd" : 42,
            "sendStart" : 41,
            "type" : "image/jpeg"
         }
      },
      {
         "when_comp_start" : -1,
         "url" : "http://original.testbed.localhost/i.huffpost.com/gen/3422984/images/n-NEW-YORK-MINIMUM-WAGE-medium.jpg",
         "id" : "r26",
         "comps" : [],
         "download" : {
            "receiveFirst" : 59,
            "len" : 29562,
            "dns" : 0,
            "dnsEnd" : -1,
            "receiveHeadersEnd" : 172,
            "sslEnd" : -1,
            "connectEnd" : 113,
            "connectStart" : 0,
            "id" : "download_18",
            "receivedTime" : "1988.31200000041",
            "sslStart" : -1,
            "dnsStart" : -1,
            "receiveLast" : 1816.31200000041,
            "s_time" : 989.074000000073,
            "sendEnd" : 113,
            "sendStart" : 113,
            "type" : "image/jpeg"
         }
      },
      {
         "when_comp_start" : -1,
         "url" : "http://original.testbed.localhost/i.huffpost.com/gen/3379016/images/n-HILLARY-CLINTON-medium.jpg",
         "id" : "r27",
         "comps" : [],
         "download" : {
            "receiveFirst" : 56,
            "len" : 14120,
            "dns" : 0,
            "dnsEnd" : -1,
            "receiveHeadersEnd" : 181,
            "sslEnd" : -1,
            "connectEnd" : 125,
            "connectStart" : 0,
            "id" : "download_19",
            "receivedTime" : "1992.21800000032",
            "sslStart" : -1,
            "dnsStart" : -1,
            "receiveLast" : 1811.21800000032,
            "s_time" : 993.515000000116,
            "sendEnd" : 125,
            "sendStart" : 125,
            "type" : "image/jpeg"
         }
      },
      {
         "when_comp_start" : -1,
         "url" : "http://original.testbed.localhost/i.huffpost.com/gen/3421706/images/n-16TH-STREET-BAPTIST-CHURCH-BOMBING-medium.jpg",
         "id" : "r28",
         "comps" : [],
         "download" : {
            "receiveFirst" : 56,
            "len" : 15670,
            "dns" : 0,
            "dnsEnd" : -1,
            "receiveHeadersEnd" : 184,
            "sslEnd" : -1,
            "connectEnd" : 128,
            "connectStart" : 0,
            "id" : "download_20",
            "receivedTime" : "1996.42900000072",
            "sslStart" : -1,
            "dnsStart" : -1,
            "receiveLast" : 1812.42900000072,
            "s_time" : 998.123000000305,
            "sendEnd" : 128,
            "sendStart" : 128,
            "type" : "image/jpeg"
         }
      },
      {
         "when_comp_start" : -1,
         "url" : "http://original.testbed.localhost/i.huffpost.com/gen/3421902/images/n-DONALD-TRUMP-medium.jpg",
         "id" : "r29",
         "comps" : [],
         "download" : {
            "receiveFirst" : 58,
            "len" : 4572,
            "dns" : 0,
            "dnsEnd" : -1,
            "receiveHeadersEnd" : 177,
            "sslEnd" : -1,
            "connectEnd" : 119,
            "connectStart" : 0,
            "id" : "download_21",
            "receivedTime" : "1998.13800000084",
            "sslStart" : -1,
            "dnsStart" : -1,
            "receiveLast" : 1821.13800000084,
            "s_time" : 1014.34300000074,
            "sendEnd" : 119,
            "sendStart" : 119,
            "type" : "image/jpeg"
         }
      },
      {
         "when_comp_start" : -1,
         "url" : "http://original.testbed.localhost/i.huffpost.com/gen/3421130/images/n-OBAMA-SMILE-medium.jpg",
         "id" : "r30",
         "comps" : [],
         "download" : {
            "receiveFirst" : 58,
            "len" : 8546,
            "dns" : 0,
            "dnsEnd" : -1,
            "receiveHeadersEnd" : 93,
            "sslEnd" : -1,
            "connectEnd" : 35,
            "connectStart" : 0,
            "id" : "download_22",
            "receivedTime" : "1998.68800000058",
            "sslStart" : -1,
            "dnsStart" : -1,
            "receiveLast" : 1905.68800000058,
            "s_time" : 1101.01200000008,
            "sendEnd" : 35,
            "sendStart" : 35,
            "type" : "image/jpeg"
         }
      },
      {
         "when_comp_start" : -1,
         "url" : "http://original.testbed.localhost/i.huffpost.com/gen/3417248/images/n-HAYLEY-ORRANTIA-medium.jpg",
         "id" : "r31",
         "comps" : [],
         "download" : {
            "receiveFirst" : 64,
            "len" : 19471,
            "dns" : 0,
            "dnsEnd" : -1,
            "receiveHeadersEnd" : 127,
            "sslEnd" : -1,
            "connectEnd" : 63,
            "connectStart" : 0,
            "id" : "download_23",
            "receivedTime" : "2003.26500000028",
            "sslStart" : -1,
            "dnsStart" : -1,
            "receiveLast" : 1876.26500000028,
            "s_time" : 1109.40500000015,
            "sendEnd" : 63,
            "sendStart" : 63,
            "type" : "image/jpeg"
         }
      },
      {
         "when_comp_start" : -1,
         "url" : "http://original.testbed.localhost/i.huffpost.com/gen/3418126/images/n-DEE-SNIDER-medium.jpg",
         "id" : "r32",
         "comps" : [],
         "download" : {
            "receiveFirst" : 68,
            "len" : 12595,
            "dns" : 0,
            "dnsEnd" : -1,
            "receiveHeadersEnd" : 139,
            "sslEnd" : -1,
            "connectEnd" : 71,
            "connectStart" : 0,
            "id" : "download_24",
            "receivedTime" : "2005.00499999998",
            "sslStart" : -1,
            "dnsStart" : -1,
            "receiveLast" : 1866.00499999998,
            "s_time" : 1115.02000000019,
            "sendEnd" : 71,
            "sendStart" : 71,
            "type" : "image/jpeg"
         }
      },
      {
         "when_comp_start" : -1,
         "url" : "http://original.testbed.localhost/i.huffpost.com/gen/3414984/images/n-FLUECHTLINGE-medium.jpg",
         "id" : "r33",
         "comps" : [],
         "download" : {
            "receiveFirst" : 71,
            "len" : 12821,
            "dns" : 0,
            "dnsEnd" : -1,
            "receiveHeadersEnd" : 163,
            "sslEnd" : -1,
            "connectEnd" : 91,
            "connectStart" : 0,
            "id" : "download_25",
            "receivedTime" : "2010.22300000022",
            "sslStart" : -1,
            "dnsStart" : -1,
            "receiveLast" : 1847.22300000022,
            "s_time" : 1122.39100000079,
            "sendEnd" : 92,
            "sendStart" : 91,
            "type" : "image/jpeg"
         }
      },
      {
         "when_comp_start" : -1,
         "url" : "http://original.testbed.localhost/i.huffpost.com/gen/3420340/images/n-BERNIE-SANDERS-medium.jpg",
         "id" : "r34",
         "comps" : [],
         "download" : {
            "receiveFirst" : 67,
            "len" : 14106,
            "dns" : 0,
            "dnsEnd" : -1,
            "receiveHeadersEnd" : 160,
            "sslEnd" : -1,
            "connectEnd" : 92,
            "connectStart" : 0,
            "id" : "download_26",
            "receivedTime" : "2011.44400000067",
            "sslStart" : -1,
            "dnsStart" : -1,
            "receiveLast" : 1851.44400000067,
            "s_time" : 1129.89700000071,
            "sendEnd" : 93,
            "sendStart" : 92,
            "type" : "image/jpeg"
         }
      },
      {
         "when_comp_start" : -1,
         "url" : "http://original.testbed.localhost/i.huffpost.com/gen/3418490/images/n-REPUBLICAN-DEBATE-medium.jpg",
         "id" : "r35",
         "comps" : [],
         "download" : {
            "receiveFirst" : 69,
            "len" : 19095,
            "dns" : 0,
            "dnsEnd" : -1,
            "receiveHeadersEnd" : 131,
            "sslEnd" : -1,
            "connectEnd" : 62,
            "connectStart" : 0,
            "id" : "download_27",
            "receivedTime" : "2012.36000000063",
            "sslStart" : -1,
            "dnsStart" : -1,
            "receiveLast" : 1881.36000000063,
            "s_time" : 1170.47100000036,
            "sendEnd" : 62,
            "sendStart" : 62,
            "type" : "image/jpeg"
         }
      },
      {
         "when_comp_start" : -1,
         "url" : "http://original.testbed.localhost/i.huffpost.com/gen/3422450/images/n-GREEK-ELECTIONS-medium.jpg",
         "id" : "r36",
         "comps" : [],
         "download" : {
            "receiveFirst" : 70,
            "len" : 23562,
            "dns" : 0,
            "dnsEnd" : -1,
            "receiveHeadersEnd" : 123,
            "sslEnd" : -1,
            "connectEnd" : 52,
            "connectStart" : 0,
            "id" : "download_28",
            "receivedTime" : "2014.00700000067",
            "sslStart" : -1,
            "dnsStart" : -1,
            "receiveLast" : 1891.00700000067,
            "s_time" : 1185.60700000035,
            "sendEnd" : 53,
            "sendStart" : 52,
            "type" : "image/jpeg"
         }
      },
      {
         "when_comp_start" : -1,
         "url" : "http://original.testbed.localhost/i.huffpost.com/gen/3409950/images/n-KIM-DAVIS-medium.jpg",
         "id" : "r37",
         "comps" : [],
         "download" : {
            "receiveFirst" : 71,
            "len" : 14556,
            "dns" : 0,
            "dnsEnd" : -1,
            "receiveHeadersEnd" : 142,
            "sslEnd" : -1,
            "connectEnd" : 71,
            "connectStart" : 0,
            "id" : "download_29",
            "receivedTime" : "2016.4790000008",
            "sslStart" : -1,
            "dnsStart" : -1,
            "receiveLast" : 1874.4790000008,
            "s_time" : 1210.96800000032,
            "sendEnd" : 71,
            "sendStart" : 71,
            "type" : "image/jpeg"
         }
      },
      {
         "when_comp_start" : -1,
         "url" : "http://original.testbed.localhost/i.huffpost.com/gen/2514868/images/n-GUNS-medium.jpg",
         "id" : "r38",
         "comps" : [],
         "download" : {
            "receiveFirst" : 73,
            "len" : 13793,
            "dns" : 0,
            "dnsEnd" : -1,
            "receiveHeadersEnd" : 149,
            "sslEnd" : -1,
            "connectEnd" : 76,
            "connectStart" : 0,
            "id" : "download_30",
            "receivedTime" : "2017.94400000017",
            "sslStart" : -1,
            "dnsStart" : -1,
            "receiveLast" : 1868.94400000017,
            "s_time" : 1219.63400000004,
            "sendEnd" : 76,
            "sendStart" : 76,
            "type" : "image/jpeg"
         }
      },
      {
         "when_comp_start" : -1,
         "url" : "http://original.testbed.localhost/i.huffpost.com/gen/3421708/images/n-MOHAMMED-ALLAN-medium.jpg",
         "id" : "r39",
         "comps" : [],
         "download" : {
            "receiveFirst" : 70,
            "len" : 15110,
            "dns" : 0,
            "dnsEnd" : -1,
            "receiveHeadersEnd" : 174,
            "sslEnd" : -1,
            "connectEnd" : 104,
            "connectStart" : 0,
            "id" : "download_31",
            "receivedTime" : "2021.5760000001",
            "sslStart" : -1,
            "dnsStart" : -1,
            "receiveLast" : 1847.5760000001,
            "s_time" : 1229.6750000005,
            "sendEnd" : 104,
            "sendStart" : 104,
            "type" : "image/jpeg"
         }
      },
      {
         "when_comp_start" : -1,
         "url" : "http://original.testbed.localhost/i.huffpost.com/gen/3373036/images/n-BIBLE-medium.jpg",
         "id" : "r40",
         "comps" : [],
         "download" : {
            "receiveFirst" : 65,
            "len" : 14880,
            "dns" : 0,
            "dnsEnd" : -1,
            "receiveHeadersEnd" : 173,
            "sslEnd" : -1,
            "connectEnd" : 108,
            "connectStart" : 0,
            "id" : "download_32",
            "receivedTime" : "2022.85800000027",
            "sslStart" : -1,
            "dnsStart" : -1,
            "receiveLast" : 1849.85800000027,
            "s_time" : 1235.00100000001,
            "sendEnd" : 108,
            "sendStart" : 108,
            "type" : "image/jpeg"
         }
      },
      {
         "when_comp_start" : -1,
         "url" : "http://original.testbed.localhost/i.huffpost.com/gen/3417838/images/n-MIGRANT-medium.jpg",
         "id" : "r41",
         "comps" : [],
         "download" : {
            "receiveFirst" : 65,
            "len" : 14060,
            "dns" : 0,
            "dnsEnd" : -1,
            "receiveHeadersEnd" : 136,
            "sslEnd" : -1,
            "connectEnd" : 71,
            "connectStart" : 0,
            "id" : "download_33",
            "receivedTime" : "2023.52900000005",
            "sslStart" : -1,
            "dnsStart" : -1,
            "receiveLast" : 1887.52900000005,
            "s_time" : 1280.47200000037,
            "sendEnd" : 71,
            "sendStart" : 71,
            "type" : "image/jpeg"
         }
      },
      {
         "when_comp_start" : -1,
         "url" : "http://original.testbed.localhost/i.huffpost.com/gen/3418944/images/n-REVOLVING-DOOR-medium.jpg",
         "id" : "r42",
         "comps" : [],
         "download" : {
            "receiveFirst" : 63,
            "len" : 17208,
            "dns" : 0,
            "dnsEnd" : -1,
            "receiveHeadersEnd" : 128,
            "sslEnd" : -1,
            "connectEnd" : 64,
            "connectStart" : 0,
            "id" : "download_34",
            "receivedTime" : "2024.56700000039",
            "sslStart" : -1,
            "dnsStart" : -1,
            "receiveLast" : 1896.56700000039,
            "s_time" : 1294.72400000031,
            "sendEnd" : 65,
            "sendStart" : 64,
            "type" : "image/jpeg"
         }
      },
      {
         "when_comp_start" : -1,
         "url" : "http://original.testbed.localhost/i.huffpost.com/gen/2097494/images/n-THOUGHTS-medium.jpg",
         "id" : "r43",
         "comps" : [],
         "download" : {
            "receiveFirst" : 55,
            "len" : 9960,
            "dns" : 0,
            "dnsEnd" : -1,
            "receiveHeadersEnd" : 121,
            "sslEnd" : -1,
            "connectEnd" : 66,
            "connectStart" : 0,
            "id" : "download_35",
            "receivedTime" : "2030.57900000022",
            "sslStart" : -1,
            "dnsStart" : -1,
            "receiveLast" : 1909.57900000022,
            "s_time" : 1332.5190000005,
            "sendEnd" : 66,
            "sendStart" : 66,
            "type" : "image/jpeg"
         }
      },
      {
         "when_comp_start" : -1,
         "url" : "http://original.testbed.localhost/i.huffpost.com/gen/3422150/images/n-SYRIA-medium.jpg",
         "id" : "r44",
         "comps" : [],
         "download" : {
            "receiveFirst" : 48,
            "len" : 21769,
            "dns" : 0,
            "dnsEnd" : -1,
            "receiveHeadersEnd" : 121,
            "sslEnd" : -1,
            "connectEnd" : 73,
            "connectStart" : 0,
            "id" : "download_36",
            "receivedTime" : "2031.67700000085",
            "sslStart" : -1,
            "dnsStart" : -1,
            "receiveLast" : 1910.67700000085,
            "s_time" : 1340.86600000046,
            "sendEnd" : 73,
            "sendStart" : 73,
            "type" : "image/jpeg"
         }
      },
      {
         "when_comp_start" : -1,
         "url" : "http://original.testbed.localhost/i.huffpost.com/gen/3421836/images/n-EBOLA-SIERRA-LEONE-medium.jpg",
         "id" : "r45",
         "comps" : [],
         "download" : {
            "receiveFirst" : 45,
            "len" : 25791,
            "dns" : 0,
            "dnsEnd" : -1,
            "receiveHeadersEnd" : 137,
            "sslEnd" : -1,
            "connectEnd" : 92,
            "connectStart" : 0,
            "id" : "download_37",
            "receivedTime" : "2533.93500000038",
            "sslStart" : -1,
            "dnsStart" : -1,
            "receiveLast" : 2396.93500000038,
            "s_time" : 1348.8610000004,
            "sendEnd" : 92,
            "sendStart" : 92,
            "type" : "image/jpeg"
         }
      },
      {
         "when_comp_start" : -1,
         "url" : "http://original.testbed.localhost/s.huffpost.com/contributors/dean-baker/headshot.jpg",
         "id" : "r46",
         "comps" : [],
         "download" : {
            "receiveFirst" : 61,
            "len" : 1405,
            "dns" : 0,
            "dnsEnd" : -1,
            "receiveHeadersEnd" : 157,
            "sslEnd" : -1,
            "connectEnd" : 96,
            "connectStart" : 0,
            "id" : "download_38",
            "receivedTime" : "2046.93600000064",
            "sslStart" : -1,
            "dnsStart" : -1,
            "receiveLast" : 1889.93600000064,
            "s_time" : 1357.04000000078,
            "sendEnd" : 96,
            "sendStart" : 96,
            "type" : "image/jpeg"
         }
      },
      {
         "when_comp_start" : -1,
         "url" : "http://original.testbed.localhost/s.huffpost.com/contributors/lucinda-franks/headshot.jpg",
         "id" : "r47",
         "comps" : [],
         "download" : {
            "receiveFirst" : 61,
            "len" : 22020,
            "dns" : 0,
            "dnsEnd" : -1,
            "receiveHeadersEnd" : 124,
            "sslEnd" : -1,
            "connectEnd" : 63,
            "connectStart" : 0,
            "id" : "download_39",
            "receivedTime" : "2052.15399999997",
            "sslStart" : -1,
            "dnsStart" : -1,
            "receiveLast" : 1928.15399999997,
            "s_time" : 1396.16300000034,
            "sendEnd" : 63,
            "sendStart" : 63,
            "type" : "image/jpeg"
         }
      },
      {
         "when_comp_start" : -1,
         "url" : "http://original.testbed.localhost/s.huffpost.com/contributors/mark-ruffalo/headshot.jpg",
         "id" : "r48",
         "comps" : [],
         "download" : {
            "receiveFirst" : 61,
            "len" : 891,
            "dns" : 0,
            "dnsEnd" : -1,
            "receiveHeadersEnd" : 111,
            "sslEnd" : -1,
            "connectEnd" : 50,
            "connectStart" : 0,
            "id" : "download_40",
            "receivedTime" : "2050.29300000024",
            "sslStart" : -1,
            "dnsStart" : -1,
            "receiveLast" : 1939.29300000024,
            "s_time" : 1411.52899999997,
            "sendEnd" : 50,
            "sendStart" : 50,
            "type" : "image/jpeg"
         }
      },
      {
         "when_comp_start" : -1,
         "url" : "http://original.testbed.localhost/s.huffpost.com/contributors/bianca-jagger/headshot.jpg",
         "id" : "r49",
         "comps" : [],
         "download" : {
            "receiveFirst" : 65,
            "len" : 948,
            "dns" : 0,
            "dnsEnd" : -1,
            "receiveHeadersEnd" : 107,
            "sslEnd" : -1,
            "connectEnd" : 42,
            "connectStart" : 0,
            "id" : "download_41",
            "receivedTime" : "2052.88700000074",
            "sslStart" : -1,
            "dnsStart" : -1,
            "receiveLast" : 1945.88700000074,
            "s_time" : 1437.0570000001,
            "sendEnd" : 42,
            "sendStart" : 42,
            "type" : "image/jpeg"
         }
      },
      {
         "when_comp_start" : -1,
         "url" : "http://original.testbed.localhost/s.huffpost.com/contributors/amitai-etzioni/headshot.jpg",
         "id" : "r50",
         "comps" : [],
         "download" : {
            "receiveFirst" : 50,
            "len" : 763,
            "dns" : 0,
            "dnsEnd" : -1,
            "receiveHeadersEnd" : 102,
            "sslEnd" : -1,
            "connectEnd" : 52,
            "connectStart" : 0,
            "id" : "download_42",
            "receivedTime" : "2053.46700000064",
            "sslStart" : -1,
            "dnsStart" : -1,
            "receiveLast" : 1951.46700000064,
            "s_time" : 1443.74000000062,
            "sendEnd" : 52,
            "sendStart" : 52,
            "type" : "image/jpeg"
         }
      },
      {
         "when_comp_start" : -1,
         "url" : "http://original.testbed.localhost/s.huffpost.com/contributors/scott-ritter/headshot.jpg",
         "id" : "r51",
         "comps" : [],
         "download" : {
            "receiveFirst" : 35,
            "len" : 14653,
            "dns" : 0,
            "dnsEnd" : -1,
            "receiveHeadersEnd" : 122,
            "sslEnd" : -1,
            "connectEnd" : 87,
            "connectStart" : 0,
            "id" : "download_43",
            "receivedTime" : "2061.49300000016",
            "sslStart" : -1,
            "dnsStart" : -1,
            "receiveLast" : 1939.49300000016,
            "s_time" : 1449.06600000013,
            "sendEnd" : 87,
            "sendStart" : 87,
            "type" : "image/jpeg"
         }
      },
      {
         "when_comp_start" : -1,
         "url" : "http://original.testbed.localhost/s.huffpost.com/contributors/mary-pflum-peterson/headshot.jpg",
         "id" : "r52",
         "comps" : [],
         "download" : {
            "receiveFirst" : 42,
            "len" : 118201,
            "dns" : 0,
            "dnsEnd" : -1,
            "receiveHeadersEnd" : 132,
            "sslEnd" : -1,
            "connectEnd" : 90,
            "connectStart" : 0,
            "id" : "download_44",
            "receivedTime" : "2530.85300000021",
            "sslStart" : -1,
            "dnsStart" : -1,
            "receiveLast" : 2398.85300000021,
            "s_time" : 1457.22900000055,
            "sendEnd" : 90,
            "sendStart" : 90,
            "type" : "image/jpeg"
         }
      },
      {
         "when_comp_start" : -1,
         "url" : "http://original.testbed.localhost/s.huffpost.com/contributors/alvin-major/headshot.jpg",
         "id" : "r53",
         "comps" : [],
         "download" : {
            "receiveFirst" : 49,
            "len" : 4051,
            "dns" : 0,
            "dnsEnd" : -1,
            "receiveHeadersEnd" : 134,
            "sslEnd" : -1,
            "connectEnd" : 85,
            "connectStart" : 0,
            "id" : "download_45",
            "receivedTime" : "2076.44600000003",
            "sslStart" : -1,
            "dnsStart" : -1,
            "receiveLast" : 1942.44600000003,
            "s_time" : 1478.08800000075,
            "sendEnd" : 85,
            "sendStart" : 85,
            "type" : "image/jpeg"
         }
      },
      {
         "when_comp_start" : -1,
         "url" : "http://original.testbed.localhost/s.huffpost.com/contributors/david-brock/headshot.jpg",
         "id" : "r54",
         "comps" : [],
         "download" : {
            "receiveFirst" : 47,
            "len" : 1355,
            "dns" : 0,
            "dnsEnd" : -1,
            "receiveHeadersEnd" : 120,
            "sslEnd" : -1,
            "connectEnd" : 72,
            "connectStart" : 0,
            "id" : "download_46",
            "receivedTime" : "2076.9650000002",
            "sslStart" : -1,
            "dnsStart" : -1,
            "receiveLast" : 1956.9650000002,
            "s_time" : 1494.69000000045,
            "sendEnd" : 73,
            "sendStart" : 72,
            "type" : "image/jpeg"
         }
      },
      {
         "when_comp_start" : -1,
         "url" : "http://original.testbed.localhost/s.huffpost.com/contributors/ruth-hawleylowry/headshot.jpg",
         "id" : "r55",
         "comps" : [],
         "download" : {
            "receiveFirst" : 52,
            "len" : 818,
            "dns" : 0,
            "dnsEnd" : -1,
            "receiveHeadersEnd" : 86,
            "sslEnd" : -1,
            "connectEnd" : 34,
            "connectStart" : 0,
            "id" : "download_47",
            "receivedTime" : "2075.13400000062",
            "sslStart" : -1,
            "dnsStart" : -1,
            "receiveLast" : 1989.13400000062,
            "s_time" : 1533.0040000008,
            "sendEnd" : 34,
            "sendStart" : 34,
            "type" : "image/jpeg"
         }
      },
      {
         "when_comp_start" : -1,
         "url" : "http://original.testbed.localhost/s.huffpost.com/contributors/brian-hanley/headshot.jpg",
         "id" : "r56",
         "comps" : [],
         "download" : {
            "receiveFirst" : 59,
            "len" : 15678,
            "dns" : 0,
            "dnsEnd" : -1,
            "receiveHeadersEnd" : 112,
            "sslEnd" : -1,
            "connectEnd" : 53,
            "connectStart" : 0,
            "id" : "download_48",
            "receivedTime" : "2080.10900000045",
            "sslStart" : -1,
            "dnsStart" : -1,
            "receiveLast" : 1968.10900000045,
            "s_time" : 1540.25300000012,
            "sendEnd" : 53,
            "sendStart" : 53,
            "type" : "image/jpeg"
         }
      },
      {
         "when_comp_start" : -1,
         "url" : "http://original.testbed.localhost/s.huffpost.com/contributors/alfred-w-mccoy/headshot.jpg",
         "id" : "r57",
         "comps" : [],
         "download" : {
            "receiveFirst" : 75,
            "len" : 855,
            "dns" : 0,
            "dnsEnd" : -1,
            "receiveHeadersEnd" : 163,
            "sslEnd" : -1,
            "connectEnd" : 88,
            "connectStart" : 0,
            "id" : "download_49",
            "receivedTime" : "2528.62500000083",
            "sslStart" : -1,
            "dnsStart" : -1,
            "receiveLast" : 2365.62500000083,
            "s_time" : 1551.22400000073,
            "sendEnd" : 88,
            "sendStart" : 88,
            "type" : "image/jpeg"
         }
      },
      {
         "when_comp_start" : -1,
         "url" : "http://original.testbed.localhost/s.huffpost.com/contributors/hayley-orrantia/headshot.jpg",
         "id" : "r58",
         "comps" : [],
         "download" : {
            "receiveFirst" : 75,
            "len" : 5298,
            "dns" : 0,
            "dnsEnd" : -1,
            "receiveHeadersEnd" : 165,
            "sslEnd" : -1,
            "connectEnd" : 90,
            "connectStart" : 0,
            "id" : "download_50",
            "receivedTime" : "2532.07400000065",
            "sslStart" : -1,
            "dnsStart" : -1,
            "receiveLast" : 2367.07400000065,
            "s_time" : 1556.41100000048,
            "sendEnd" : 90,
            "sendStart" : 90,
            "type" : "image/jpeg"
         }
      },
      {
         "when_comp_start" : -1,
         "url" : "http://original.testbed.localhost/s.huffpost.com/contributors/dee-snider/headshot.jpg",
         "id" : "r59",
         "comps" : [],
         "download" : {
            "receiveFirst" : 74,
            "len" : 101610,
            "dns" : 0,
            "dnsEnd" : -1,
            "receiveHeadersEnd" : 160,
            "sslEnd" : -1,
            "connectEnd" : 86,
            "connectStart" : 0,
            "id" : "download_51",
            "receivedTime" : "2561.3400000002",
            "sslStart" : -1,
            "dnsStart" : -1,
            "receiveLast" : 2401.3400000002,
            "s_time" : 1565.15500000023,
            "sendEnd" : 86,
            "sendStart" : 86,
            "type" : "image/jpeg"
         }
      },
      {
         "when_comp_start" : -1,
         "url" : "http://original.testbed.localhost/s.huffpost.com/contributors/rami-/headshot.jpg",
         "id" : "r60",
         "comps" : [],
         "download" : {
            "receiveFirst" : 81,
            "len" : 30751,
            "dns" : 0,
            "dnsEnd" : -1,
            "receiveHeadersEnd" : 190,
            "sslEnd" : -1,
            "connectEnd" : 109,
            "connectStart" : 0,
            "id" : "download_52",
            "receivedTime" : "2556.88499999997",
            "sslStart" : -1,
            "dnsStart" : -1,
            "receiveLast" : 2366.88499999997,
            "s_time" : 1590.63700000024,
            "sendEnd" : 109,
            "sendStart" : 109,
            "type" : "image/jpeg"
         }
      },
      {
         "when_comp_start" : -1,
         "url" : "http://original.testbed.localhost/s.huffpost.com/contributors/michelangelo-signorile/headshot.jpg",
         "id" : "r61",
         "comps" : [],
         "download" : {
            "receiveFirst" : 78,
            "len" : 64684,
            "dns" : 0,
            "dnsEnd" : -1,
            "receiveHeadersEnd" : 179,
            "sslEnd" : -1,
            "connectEnd" : 101,
            "connectStart" : 0,
            "id" : "download_53",
            "receivedTime" : "2579.31499999995",
            "sslStart" : -1,
            "dnsStart" : -1,
            "receiveLast" : 2400.31499999995,
            "s_time" : 1636.67299999997,
            "sendEnd" : 101,
            "sendStart" : 101,
            "type" : "image/jpeg"
         }
      },
      {
         "when_comp_start" : -1,
         "url" : "http://original.testbed.localhost/s.huffpost.com/contributors/chris-weigant/headshot.jpg",
         "id" : "r62",
         "comps" : [],
         "download" : {
            "receiveFirst" : 92,
            "len" : 1116,
            "dns" : 0,
            "dnsEnd" : -1,
            "receiveHeadersEnd" : 204,
            "sslEnd" : -1,
            "connectEnd" : 112,
            "connectStart" : 0,
            "id" : "download_54",
            "receivedTime" : "2573.91300000018",
            "sslStart" : -1,
            "dnsStart" : -1,
            "receiveLast" : 2369.91300000018,
            "s_time" : 1645.31000000079,
            "sendEnd" : 112,
            "sendStart" : 112,
            "type" : "image/jpeg"
         }
      },
      {
         "when_comp_start" : -1,
         "url" : "http://original.testbed.localhost/s.huffpost.com/contributors/giannipittella/headshot.jpg",
         "id" : "r63",
         "comps" : [],
         "download" : {
            "receiveFirst" : 80,
            "len" : 6422,
            "dns" : 0,
            "dnsEnd" : -1,
            "receiveHeadersEnd" : 207,
            "sslEnd" : -1,
            "connectEnd" : 127,
            "connectStart" : 0,
            "id" : "download_55",
            "receivedTime" : "2577.08700000057",
            "sslStart" : -1,
            "dnsStart" : -1,
            "receiveLast" : 2370.08700000057,
            "s_time" : 1650.10100000018,
            "sendEnd" : 127,
            "sendStart" : 127,
            "type" : "image/jpeg"
         }
      },
      {
         "when_comp_start" : -1,
         "url" : "http://original.testbed.localhost/s.huffpost.com/contributors/stanley-fish/headshot.jpg",
         "id" : "r64",
         "comps" : [],
         "download" : {
            "receiveFirst" : 76,
            "len" : 9885,
            "dns" : 0,
            "dnsEnd" : -1,
            "receiveHeadersEnd" : 161,
            "sslEnd" : -1,
            "connectEnd" : 85,
            "connectStart" : 0,
            "id" : "download_56",
            "receivedTime" : "2578.00300000054",
            "sslStart" : -1,
            "dnsStart" : -1,
            "receiveLast" : 2417.00300000054,
            "s_time" : 1700.3620000005,
            "sendEnd" : 85,
            "sendStart" : 85,
            "type" : "image/jpeg"
         }
      },
      {
         "when_comp_start" : -1,
         "url" : "http://original.testbed.localhost/s.huffpost.com/contributors/shawn-justin-vandiver/headshot.jpg",
         "id" : "r65",
         "comps" : [],
         "download" : {
            "receiveFirst" : 69,
            "len" : 11829,
            "dns" : 0,
            "dnsEnd" : -1,
            "receiveHeadersEnd" : 178,
            "sslEnd" : -1,
            "connectEnd" : 109,
            "connectStart" : 0,
            "id" : "download_57",
            "receivedTime" : "2608.39800000031",
            "sslStart" : -1,
            "dnsStart" : -1,
            "receiveLast" : 2430.39800000031,
            "s_time" : 1736.13000000023,
            "sendEnd" : 109,
            "sendStart" : 109,
            "type" : "image/jpeg"
         }
      },
      {
         "when_comp_start" : -1,
         "url" : "http://original.testbed.localhost/s.huffpost.com/contributors/alon-benmeir/headshot.jpg",
         "id" : "r66",
         "comps" : [],
         "download" : {
            "receiveFirst" : 69,
            "len" : 1359,
            "dns" : 0,
            "dnsEnd" : -1,
            "receiveHeadersEnd" : 166,
            "sslEnd" : -1,
            "connectEnd" : 97,
            "connectStart" : 0,
            "id" : "download_58",
            "receivedTime" : "2583.40399999997",
            "sslStart" : -1,
            "dnsStart" : -1,
            "receiveLast" : 2417.40399999997,
            "s_time" : 1755.52300000072,
            "sendEnd" : 97,
            "sendStart" : 97,
            "type" : "image/jpeg"
         }
      },
      {
         "when_comp_start" : -1,
         "url" : "http://original.testbed.localhost/s.huffpost.com/contributors/michael-brune/headshot.jpg",
         "id" : "r67",
         "comps" : [],
         "download" : {
            "receiveFirst" : 64,
            "len" : 87638,
            "dns" : 0,
            "dnsEnd" : -1,
            "receiveHeadersEnd" : 163,
            "sslEnd" : -1,
            "connectEnd" : 99,
            "connectStart" : 0,
            "id" : "download_59",
            "receivedTime" : "2640.41100000031",
            "sslStart" : -1,
            "dnsStart" : -1,
            "receiveLast" : 2477.41100000031,
            "s_time" : 1767.85300000029,
            "sendEnd" : 99,
            "sendStart" : 99,
            "type" : "image/jpeg"
         }
      },
      {
         "when_comp_start" : -1,
         "url" : "http://original.testbed.localhost/s.huffpost.com/contributors/kelly-ladd-bishop/headshot.jpg",
         "id" : "r68",
         "comps" : [],
         "download" : {
            "receiveFirst" : 60,
            "len" : 17817,
            "dns" : 0,
            "dnsEnd" : -1,
            "receiveHeadersEnd" : 177,
            "sslEnd" : -1,
            "connectEnd" : 117,
            "connectStart" : 0,
            "id" : "download_60",
            "receivedTime" : "2630.15700000051",
            "sslStart" : -1,
            "dnsStart" : -1,
            "receiveLast" : 2453.15700000051,
            "s_time" : 1781.82900000047,
            "sendEnd" : 117,
            "sendStart" : 117,
            "type" : "image/jpeg"
         }
      },
      {
         "when_comp_start" : -1,
         "url" : "http://original.testbed.localhost/s.huffpost.com/contributors/avelist/headshot.jpg",
         "id" : "r69",
         "comps" : [],
         "download" : {
            "receiveFirst" : 62,
            "len" : 12284,
            "dns" : 0,
            "dnsEnd" : -1,
            "receiveHeadersEnd" : 127,
            "sslEnd" : -1,
            "connectEnd" : 65,
            "connectStart" : 0,
            "id" : "download_61",
            "receivedTime" : "2633.63600000048",
            "sslStart" : -1,
            "dnsStart" : -1,
            "receiveLast" : 2506.63600000048,
            "s_time" : 1844.22200000063,
            "sendEnd" : 65,
            "sendStart" : 65,
            "type" : "image/jpeg"
         }
      },
      {
         "when_comp_start" : -1,
         "url" : "http://original.testbed.localhost/s.huffpost.com/contributors/pierre-guerlain/headshot.jpg",
         "id" : "r70",
         "comps" : [],
         "download" : {
            "receiveFirst" : 62,
            "len" : 736,
            "dns" : 0,
            "dnsEnd" : -1,
            "receiveHeadersEnd" : 137,
            "sslEnd" : -1,
            "connectEnd" : 75,
            "connectStart" : 0,
            "id" : "download_62",
            "receivedTime" : "2632.44600000053",
            "sslStart" : -1,
            "dnsStart" : -1,
            "receiveLast" : 2495.44600000053,
            "s_time" : 1851.65300000062,
            "sendEnd" : 75,
            "sendStart" : 75,
            "type" : "image/jpeg"
         }
      },
      {
         "when_comp_start" : -1,
         "url" : "http://original.testbed.localhost/s.huffpost.com/contributors/tory-maguire/headshot.jpg",
         "id" : "r71",
         "comps" : [],
         "download" : {
            "receiveFirst" : 61,
            "len" : 146908,
            "dns" : 0,
            "dnsEnd" : -1,
            "receiveHeadersEnd" : 136,
            "sslEnd" : -1,
            "connectEnd" : 74,
            "connectStart" : 0,
            "id" : "download_63",
            "receivedTime" : "2653.65600000041",
            "sslStart" : -1,
            "dnsStart" : -1,
            "receiveLast" : 2517.65600000041,
            "s_time" : 1863.96800000057,
            "sendEnd" : 75,
            "sendStart" : 74,
            "type" : "image/jpeg"
         }
      },
      {
         "when_comp_start" : -1,
         "url" : "http://original.testbed.localhost/s.huffpost.com/contributors/kerry-kennedy/headshot.jpg",
         "id" : "r72",
         "comps" : [],
         "download" : {
            "receiveFirst" : 74,
            "len" : 687,
            "dns" : 0,
            "dnsEnd" : -1,
            "receiveHeadersEnd" : 127,
            "sslEnd" : -1,
            "connectEnd" : 53,
            "connectStart" : 0,
            "id" : "download_64",
            "receivedTime" : "2638.91600000079",
            "sslStart" : -1,
            "dnsStart" : -1,
            "receiveLast" : 2511.91600000079,
            "s_time" : 1898.0100000008,
            "sendEnd" : 53,
            "sendStart" : 53,
            "type" : "image/jpeg"
         }
      },
      {
         "when_comp_start" : -1,
         "url" : "http://original.testbed.localhost/s.huffpost.com/contributors/susan-pearse/headshot.jpg",
         "id" : "r73",
         "comps" : [],
         "download" : {
            "receiveFirst" : 70,
            "len" : 24743,
            "dns" : 0,
            "dnsEnd" : -1,
            "receiveHeadersEnd" : 159,
            "sslEnd" : -1,
            "connectEnd" : 89,
            "connectStart" : 0,
            "id" : "download_65",
            "receivedTime" : "2648.98700000049",
            "sslStart" : -1,
            "dnsStart" : -1,
            "receiveLast" : 2489.98700000049,
            "s_time" : 1908.05,
            "sendEnd" : 89,
            "sendStart" : 89,
            "type" : "image/jpeg"
         }
      },
      {
         "when_comp_start" : -1,
         "url" : "http://original.testbed.localhost/s.huffpost.com/contributors/good-men-project/headshot.jpg",
         "id" : "r74",
         "comps" : [],
         "download" : {
            "receiveFirst" : 81,
            "len" : 1153,
            "dns" : 0,
            "dnsEnd" : -1,
            "receiveHeadersEnd" : 171,
            "sslEnd" : -1,
            "connectEnd" : 90,
            "connectStart" : 0,
            "id" : "download_66",
            "receivedTime" : "2650.94000000045",
            "sslStart" : -1,
            "dnsStart" : -1,
            "receiveLast" : 2479.94000000045,
            "s_time" : 1924.65200000061,
            "sendEnd" : 90,
            "sendStart" : 90,
            "type" : "image/jpeg"
         }
      },
      {
         "when_comp_start" : -1,
         "url" : "http://original.testbed.localhost/s.huffpost.com/contributors/nicholas-noe/headshot.jpg",
         "id" : "r75",
         "comps" : [],
         "download" : {
            "receiveFirst" : 85,
            "len" : 14446,
            "dns" : 0,
            "dnsEnd" : -1,
            "receiveHeadersEnd" : 167,
            "sslEnd" : -1,
            "connectEnd" : 81,
            "connectStart" : 0,
            "id" : "download_67",
            "receivedTime" : "2656.40200000053",
            "sslStart" : -1,
            "dnsStart" : -1,
            "receiveLast" : 2489.40200000053,
            "s_time" : 1937.57600000026,
            "sendEnd" : 82,
            "sendStart" : 81,
            "type" : "image/jpeg"
         }
      },
      {
         "when_comp_start" : -1,
         "url" : "http://original.testbed.localhost/s.huffpost.com/contributors/michael-solis/headshot.jpg",
         "id" : "r76",
         "comps" : [],
         "download" : {
            "receiveFirst" : 75,
            "len" : 15723,
            "dns" : 0,
            "dnsEnd" : -1,
            "receiveHeadersEnd" : 173,
            "sslEnd" : -1,
            "connectEnd" : 98,
            "connectStart" : 0,
            "id" : "download_68",
            "receivedTime" : "2661.28500000013",
            "sslStart" : -1,
            "dnsStart" : -1,
            "receiveLast" : 2488.28500000013,
            "s_time" : 1948.80700000067,
            "sendEnd" : 98,
            "sendStart" : 98,
            "type" : "image/jpeg"
         }
      },
      {
         "when_comp_start" : -1,
         "url" : "http://original.testbed.localhost/www.huffingtonpost.com/images/trans.gif",
         "id" : "r77",
         "comps" : [],
         "download" : {
            "receiveFirst" : 70,
            "len" : 43,
            "dns" : 0,
            "dnsEnd" : -1,
            "receiveHeadersEnd" : 128,
            "sslEnd" : -1,
            "connectEnd" : 58,
            "connectStart" : 0,
            "id" : "download_69",
            "receivedTime" : "2658.29500000018",
            "sslStart" : -1,
            "dnsStart" : -1,
            "receiveLast" : 2530.29500000018,
            "s_time" : 1995.68200000067,
            "sendEnd" : 58,
            "sendStart" : 58,
            "type" : "image/gif"
         }
      },
      {
         "when_comp_start" : -1,
         "url" : "http://original.testbed.localhost/img.huffingtonpost.com/asset/300_125/55f2e4682c00003600aaf819.jpg",
         "id" : "r78",
         "comps" : [],
         "download" : {
            "receiveFirst" : 81,
            "len" : 8547,
            "dns" : 0,
            "dnsEnd" : -1,
            "receiveHeadersEnd" : 190,
            "sslEnd" : -1,
            "connectEnd" : 109,
            "connectStart" : 0,
            "id" : "download_70",
            "receivedTime" : "2665.58800000075",
            "sslStart" : -1,
            "dnsStart" : -1,
            "receiveLast" : 2475.58800000075,
            "s_time" : 2012.61900000009,
            "sendEnd" : 109,
            "sendStart" : 109,
            "type" : "image/jpeg"
         }
      },
      {
         "when_comp_start" : -1,
         "url" : "http://original.testbed.localhost/i.huffpost.com/gen/3417054/images/n-PUMP-AND-DUMP-medium.jpg",
         "id" : "r79",
         "comps" : [],
         "download" : {
            "receiveFirst" : 82,
            "len" : 15020,
            "dns" : 0,
            "dnsEnd" : -1,
            "receiveHeadersEnd" : 188,
            "sslEnd" : -1,
            "connectEnd" : 106,
            "connectStart" : 0,
            "id" : "download_71",
            "receivedTime" : "2666.29000000012",
            "sslStart" : -1,
            "dnsStart" : -1,
            "receiveLast" : 2478.29000000012,
            "s_time" : 2015.85300000079,
            "sendEnd" : 106,
            "sendStart" : 106,
            "type" : "image/jpeg"
         }
      },
      {
         "when_comp_start" : -1,
         "url" : "http://original.testbed.localhost/img.huffingtonpost.com/asset/300_125/55f70a17180000270061d015.jpg",
         "id" : "r80",
         "comps" : [],
         "download" : {
            "receiveFirst" : 78,
            "len" : 13682,
            "dns" : 0,
            "dnsEnd" : -1,
            "receiveHeadersEnd" : 161,
            "sslEnd" : -1,
            "connectEnd" : 83,
            "connectStart" : 0,
            "id" : "download_72",
            "receivedTime" : "2666.80900000028",
            "sslStart" : -1,
            "dnsStart" : -1,
            "receiveLast" : 2505.80900000028,
            "s_time" : 2045.38000000048,
            "sendEnd" : 83,
            "sendStart" : 83,
            "type" : "image/jpeg"
         }
      },
      {
         "when_comp_start" : -1,
         "url" : "http://original.testbed.localhost/img.huffingtonpost.com/asset/300_125/55f6cb35140000d8012e5899.jpg",
         "id" : "r81",
         "comps" : [],
         "download" : {
            "receiveFirst" : 54,
            "len" : 12802,
            "dns" : 0,
            "dnsEnd" : -1,
            "receiveHeadersEnd" : 159,
            "sslEnd" : -1,
            "connectEnd" : 105,
            "connectStart" : 0,
            "id" : "download_73",
            "receivedTime" : "2667.9380000005",
            "sslStart" : -1,
            "dnsStart" : -1,
            "receiveLast" : 2508.9380000005,
            "s_time" : 2052.20000000008,
            "sendEnd" : 105,
            "sendStart" : 105,
            "type" : "image/jpeg"
         }
      },
      {
         "when_comp_start" : -1,
         "url" : "http://original.testbed.localhost/img.huffingtonpost.com/asset/300_125/55f34761180000260061ce77.jpg",
         "id" : "r82",
         "comps" : [],
         "download" : {
            "receiveFirst" : 47,
            "len" : 13248,
            "dns" : 0,
            "dnsEnd" : -1,
            "receiveHeadersEnd" : 99,
            "sslEnd" : -1,
            "connectEnd" : 52,
            "connectStart" : 0,
            "id" : "download_74",
            "receivedTime" : "2668.64000000078",
            "sslStart" : -1,
            "dnsStart" : -1,
            "receiveLast" : 2569.64000000078,
            "s_time" : 2118.62199999996,
            "sendEnd" : 52,
            "sendStart" : 52,
            "type" : "image/jpeg"
         }
      },
      {
         "when_comp_start" : -1,
         "url" : "http://original.testbed.localhost/img.huffingtonpost.com/asset/300_125/55f6e0642c0000a200aafa3f.jpg",
         "id" : "r83",
         "comps" : [],
         "download" : {
            "receiveFirst" : 40,
            "len" : 20494,
            "dns" : 0,
            "dnsEnd" : -1,
            "receiveHeadersEnd" : 100,
            "sslEnd" : -1,
            "connectEnd" : 59,
            "connectStart" : 0,
            "id" : "download_75",
            "receivedTime" : "2669.6780000002",
            "sslStart" : -1,
            "dnsStart" : -1,
            "receiveLast" : 2569.6780000002,
            "s_time" : 2120.69700000029,
            "sendEnd" : 60,
            "sendStart" : 59,
            "type" : "image/jpeg"
         }
      },
      {
         "when_comp_start" : -1,
         "url" : "http://original.testbed.localhost/s.huffpost.com/images/layouts/rail-sprite.png",
         "id" : "r84",
         "comps" : [],
         "download" : {
            "receiveFirst" : 29,
            "len" : 31207,
            "dns" : 0,
            "dnsEnd" : -1,
            "receiveHeadersEnd" : 128,
            "sslEnd" : -1,
            "connectEnd" : 99,
            "connectStart" : 0,
            "id" : "download_76",
            "receivedTime" : "2674.28600000039",
            "sslStart" : -1,
            "dnsStart" : -1,
            "receiveLast" : 2546.28600000039,
            "s_time" : 2124.03800000084,
            "sendEnd" : 99,
            "sendStart" : 99,
            "type" : "image/png"
         }
      },
      {
         "when_comp_start" : -1,
         "url" : "http://original.testbed.localhost/pixel.quantserve.com/seg/p-6fTutip1SMLM2.js",
         "id" : "r86",
         "comps" : [
            {
               "s_time" : 2747.95500000073,
               "time" : 1.86200000007011,
               "type" : 1,
               "id" : "comp_276",
               "e_time" : 2749.8170000008
            }
         ],
         "download" : {
            "receiveFirst" : 8,
            "len" : 419,
            "dns" : 0,
            "dnsEnd" : -1,
            "receiveHeadersEnd" : 16,
            "sslEnd" : -1,
            "connectEnd" : 8,
            "connectStart" : 0,
            "id" : "download_77",
            "receivedTime" : "2747.58900000052",
            "sslStart" : -1,
            "dnsStart" : -1,
            "receiveLast" : 2731.58900000052,
            "s_time" : 2573.36400000077,
            "sendEnd" : 8,
            "sendStart" : 8,
            "type" : "application/javascript"
         }
      },
      {
         "when_comp_start" : -1,
         "url" : "http://original.testbed.localhost/plugin.mediavoice.com/mediaconductor/mc.js",
         "id" : "r87",
         "comps" : [
            {
               "s_time" : 2882.56799999999,
               "time" : 167.32800000045,
               "type" : 3,
               "id" : "comp_290",
               "e_time" : 3049.89600000044
            }
         ],
         "download" : {
            "receiveFirst" : 14,
            "len" : 62796,
            "dns" : 0,
            "dnsEnd" : -1,
            "receiveHeadersEnd" : 19,
            "sslEnd" : -1,
            "connectEnd" : 5,
            "connectStart" : 0,
            "id" : "download_78",
            "receivedTime" : "2879.42500000008",
            "sslStart" : -1,
            "dnsStart" : -1,
            "receiveLast" : 2860.42500000008,
            "s_time" : 2740.87500000041,
            "sendEnd" : 5,
            "sendStart" : 5,
            "type" : "application/javascript"
         }
      }
   ],
   "deps" : [
      {
         "a2" : "r1_c2",
         "time" : -1,
         "id" : "dep1",
         "a1" : "comp_8"
      },
      {
         "a2" : "r1_c3",
         "time" : -1,
         "id" : "dep2",
         "a1" : "comp_13"
      },
      {
         "a2" : "r1_c4",
         "time" : -1,
         "id" : "dep3",
         "a1" : "comp_21"
      },
      {
         "a2" : "r1_c5",
         "time" : -1,
         "id" : "dep4",
         "a1" : "comp_273"
      },
      {
         "a2" : "r1_c6",
         "time" : -1,
         "id" : "dep5",
         "a1" : "comp_276"
      },
      {
         "a2" : "comp_13",
         "time" : -1,
         "id" : "dep6",
         "a1" : "comp_8"
      },
      {
         "a2" : "download_78",
         "time" : -1,
         "id" : "dep7",
         "a1" : "r1_c4"
      },
      {
         "a2" : "download_78",
         "time" : 2195.52600000042,
         "id" : "dep8",
         "a1" : "r1_c4"
      },
      {
         "a2" : "download_77",
         "time" : 2028.01500000078,
         "id" : "dep9",
         "a1" : "r1_c4"
      },
      {
         "a2" : "download_76",
         "time" : 1578.68900000085,
         "id" : "dep10",
         "a1" : "r1_c4"
      },
      {
         "a2" : "download_75",
         "time" : 1575.3480000003,
         "id" : "dep11",
         "a1" : "r1_c4"
      },
      {
         "a2" : "download_74",
         "time" : 1573.27299999997,
         "id" : "dep12",
         "a1" : "r1_c4"
      },
      {
         "a2" : "download_73",
         "time" : 1506.85100000009,
         "id" : "dep13",
         "a1" : "r1_c4"
      },
      {
         "a2" : "download_72",
         "time" : 1500.03100000049,
         "id" : "dep14",
         "a1" : "r1_c4"
      },
      {
         "a2" : "download_71",
         "time" : 1470.5040000008,
         "id" : "dep15",
         "a1" : "r1_c4"
      },
      {
         "a2" : "download_70",
         "time" : 1467.2700000001,
         "id" : "dep16",
         "a1" : "r1_c4"
      },
      {
         "a2" : "download_69",
         "time" : 1450.33300000068,
         "id" : "dep17",
         "a1" : "r1_c4"
      },
      {
         "a2" : "download_68",
         "time" : 1403.45800000068,
         "id" : "dep18",
         "a1" : "r1_c4"
      },
      {
         "a2" : "download_67",
         "time" : 1392.22700000027,
         "id" : "dep19",
         "a1" : "r1_c4"
      },
      {
         "a2" : "download_66",
         "time" : 1379.30300000062,
         "id" : "dep20",
         "a1" : "r1_c4"
      },
      {
         "a2" : "download_65",
         "time" : 1362.70100000001,
         "id" : "dep21",
         "a1" : "r1_c4"
      },
      {
         "a2" : "download_64",
         "time" : 1352.66100000081,
         "id" : "dep22",
         "a1" : "r1_c4"
      },
      {
         "a2" : "download_63",
         "time" : 1318.61900000058,
         "id" : "dep23",
         "a1" : "r1_c4"
      },
      {
         "a2" : "download_62",
         "time" : 1306.30400000063,
         "id" : "dep24",
         "a1" : "r1_c4"
      },
      {
         "a2" : "download_61",
         "time" : 1298.87300000064,
         "id" : "dep25",
         "a1" : "r1_c4"
      },
      {
         "a2" : "download_60",
         "time" : 1236.48000000048,
         "id" : "dep26",
         "a1" : "r1_c4"
      },
      {
         "a2" : "download_59",
         "time" : 1222.5040000003,
         "id" : "dep27",
         "a1" : "r1_c4"
      },
      {
         "a2" : "download_58",
         "time" : 1210.17400000073,
         "id" : "dep28",
         "a1" : "r1_c4"
      },
      {
         "a2" : "download_57",
         "time" : 1190.78100000024,
         "id" : "dep29",
         "a1" : "r1_c4"
      },
      {
         "a2" : "download_56",
         "time" : 1155.01300000051,
         "id" : "dep30",
         "a1" : "r1_c4"
      },
      {
         "a2" : "download_55",
         "time" : 1104.75200000019,
         "id" : "dep31",
         "a1" : "r1_c4"
      },
      {
         "a2" : "download_54",
         "time" : 1099.9610000008,
         "id" : "dep32",
         "a1" : "r1_c4"
      },
      {
         "a2" : "download_53",
         "time" : 1091.32399999998,
         "id" : "dep33",
         "a1" : "r1_c4"
      },
      {
         "a2" : "download_52",
         "time" : 1045.28800000025,
         "id" : "dep34",
         "a1" : "r1_c4"
      },
      {
         "a2" : "download_51",
         "time" : 1019.80600000024,
         "id" : "dep35",
         "a1" : "r1_c4"
      },
      {
         "a2" : "download_50",
         "time" : 1011.06200000049,
         "id" : "dep36",
         "a1" : "r1_c4"
      },
      {
         "a2" : "download_49",
         "time" : 1005.87500000074,
         "id" : "dep37",
         "a1" : "r1_c4"
      },
      {
         "a2" : "download_48",
         "time" : 994.904000000133,
         "id" : "dep38",
         "a1" : "r1_c4"
      },
      {
         "a2" : "download_47",
         "time" : 987.655000000813,
         "id" : "dep39",
         "a1" : "r1_c4"
      },
      {
         "a2" : "download_46",
         "time" : 949.341000000463,
         "id" : "dep40",
         "a1" : "r1_c4"
      },
      {
         "a2" : "download_45",
         "time" : 932.739000000763,
         "id" : "dep41",
         "a1" : "r1_c4"
      },
      {
         "a2" : "download_44",
         "time" : 911.880000000563,
         "id" : "dep42",
         "a1" : "r1_c4"
      },
      {
         "a2" : "download_43",
         "time" : 903.717000000143,
         "id" : "dep43",
         "a1" : "r1_c4"
      },
      {
         "a2" : "download_42",
         "time" : 898.391000000633,
         "id" : "dep44",
         "a1" : "r1_c4"
      },
      {
         "a2" : "download_41",
         "time" : 891.708000000113,
         "id" : "dep45",
         "a1" : "r1_c4"
      },
      {
         "a2" : "download_40",
         "time" : 866.179999999983,
         "id" : "dep46",
         "a1" : "r1_c4"
      },
      {
         "a2" : "download_39",
         "time" : 850.814000000353,
         "id" : "dep47",
         "a1" : "r1_c4"
      },
      {
         "a2" : "download_38",
         "time" : 811.691000000793,
         "id" : "dep48",
         "a1" : "r1_c4"
      },
      {
         "a2" : "download_37",
         "time" : 803.512000000413,
         "id" : "dep49",
         "a1" : "r1_c4"
      },
      {
         "a2" : "download_36",
         "time" : 795.517000000473,
         "id" : "dep50",
         "a1" : "r1_c4"
      },
      {
         "a2" : "download_35",
         "time" : 787.170000000513,
         "id" : "dep51",
         "a1" : "r1_c4"
      },
      {
         "a2" : "download_34",
         "time" : 749.375000000323,
         "id" : "dep52",
         "a1" : "r1_c4"
      },
      {
         "a2" : "download_33",
         "time" : 735.123000000383,
         "id" : "dep53",
         "a1" : "r1_c4"
      },
      {
         "a2" : "download_32",
         "time" : 689.652000000023,
         "id" : "dep54",
         "a1" : "r1_c4"
      },
      {
         "a2" : "download_31",
         "time" : 684.326000000513,
         "id" : "dep55",
         "a1" : "r1_c4"
      },
      {
         "a2" : "download_30",
         "time" : 674.285000000053,
         "id" : "dep56",
         "a1" : "r1_c4"
      },
      {
         "a2" : "download_29",
         "time" : 665.619000000333,
         "id" : "dep57",
         "a1" : "r1_c4"
      },
      {
         "a2" : "download_28",
         "time" : 640.258000000363,
         "id" : "dep58",
         "a1" : "r1_c4"
      },
      {
         "a2" : "download_27",
         "time" : 625.122000000373,
         "id" : "dep59",
         "a1" : "r1_c4"
      },
      {
         "a2" : "download_26",
         "time" : 584.548000000723,
         "id" : "dep60",
         "a1" : "r1_c4"
      },
      {
         "a2" : "download_25",
         "time" : 577.042000000803,
         "id" : "dep61",
         "a1" : "r1_c4"
      },
      {
         "a2" : "download_24",
         "time" : 569.671000000203,
         "id" : "dep62",
         "a1" : "r1_c4"
      },
      {
         "a2" : "download_23",
         "time" : 564.056000000163,
         "id" : "dep63",
         "a1" : "r1_c4"
      },
      {
         "a2" : "download_22",
         "time" : 555.663000000093,
         "id" : "dep64",
         "a1" : "r1_c4"
      },
      {
         "a2" : "download_21",
         "time" : 468.994000000753,
         "id" : "dep65",
         "a1" : "r1_c4"
      },
      {
         "a2" : "download_20",
         "time" : 452.774000000318,
         "id" : "dep66",
         "a1" : "r1_c4"
      },
      {
         "a2" : "download_19",
         "time" : 448.166000000129,
         "id" : "dep67",
         "a1" : "r1_c4"
      },
      {
         "a2" : "download_18",
         "time" : 443.725000000086,
         "id" : "dep68",
         "a1" : "r1_c4"
      },
      {
         "a2" : "download_17",
         "time" : 439.590000000863,
         "id" : "dep69",
         "a1" : "r1_c4"
      },
      {
         "a2" : "download_16",
         "time" : 433.426000000509,
         "id" : "dep70",
         "a1" : "r1_c4"
      },
      {
         "a2" : "download_15",
         "time" : 429.779000000054,
         "id" : "dep71",
         "a1" : "r1_c4"
      },
      {
         "a2" : "download_14",
         "time" : 426.071000000775,
         "id" : "dep72",
         "a1" : "r1_c4"
      },
      {
         "a2" : "download_13",
         "time" : 418.488000000253,
         "id" : "dep73",
         "a1" : "r1_c4"
      },
      {
         "a2" : "download_12",
         "time" : 380.234000000201,
         "id" : "dep74",
         "a1" : "r1_c4"
      },
      {
         "a2" : "download_11",
         "time" : 376.495000000432,
         "id" : "dep75",
         "a1" : "r1_c4"
      },
      {
         "a2" : "download_10",
         "time" : 308.593000000656,
         "id" : "dep76",
         "a1" : "r1_c4"
      },
      {
         "a2" : "download_9",
         "time" : 157.043000000158,
         "id" : "dep77",
         "a1" : "r1_c4"
      },
      {
         "a2" : "download_8",
         "time" : 65.949000000729,
         "id" : "dep78",
         "a1" : "r1_c4"
      },
      {
         "a2" : "download_7",
         "time" : 59.982000000673,
         "id" : "dep79",
         "a1" : "r1_c4"
      },
      {
         "a2" : "download_6",
         "time" : 50.61300000034,
         "id" : "dep80",
         "a1" : "r1_c4"
      },
      {
         "a2" : "download_5",
         "time" : -1,
         "id" : "dep81",
         "a1" : "r1_c1"
      },
      {
         "a2" : "download_5",
         "time" : 32.68399999979,
         "id" : "dep82",
         "a1" : "r1_c1"
      },
      {
         "a2" : "download_4",
         "time" : 25.17700000044,
         "id" : "dep83",
         "a1" : "r1_c1"
      },
      {
         "a2" : "download_4",
         "time" : 25.17700000044,
         "id" : "dep84",
         "a1" : "r1_c1"
      },
      {
         "a2" : "download_3",
         "time" : 26.093000000401,
         "id" : "dep85",
         "a1" : "r1_c1"
      },
      {
         "a2" : "download_3",
         "time" : 26.093000000401,
         "id" : "dep86",
         "a1" : "r1_c1"
      },
      {
         "a2" : "download_2",
         "time" : 8.881000000656,
         "id" : "dep87",
         "a1" : "r1_c1"
      },
      {
         "a2" : "download_1",
         "time" : 6.13400000020201,
         "id" : "dep88",
         "a1" : "r1_c1"
      }
   ]
}
