{
   "n_download_no_trigger" : 1,
   "start_activity" : "download_0",
   "name" : "original.testbed.localhost_www.miniwiz.com_",
   "load_activity" : -1,
   "objs" : [
      {
         "when_comp_start" : 1,
         "url" : "http://original.testbed.localhost/www.miniwiz.com/",
         "id" : "r1",
         "comps" : [
            {
               "s_time" : 161.406999919564,
               "time" : 4.43400000222002,
               "id" : "r1_c1",
               "type" : "evalhtml",
               "e_time" : 165.840999921784
            },
            {
               "s_time" : 292.612999910489,
               "time" : -1108967112.405,
               "id" : "r1_c2",
               "type" : "evalhtml",
               "e_time" : -1108966819.792
            },
            {
               "s_time" : 293.840999947861,
               "time" : 1.15499994717499,
               "id" : "r1_c3",
               "type" : "evalhtml",
               "e_time" : 294.995999895036
            },
            {
               "s_time" : 328.169999876991,
               "time" : -1108967147.962,
               "id" : "r1_c4",
               "type" : "evalhtml",
               "e_time" : -1108966819.792
            },
            {
               "s_time" : 329.404999967664,
               "time" : -1108967149.197,
               "id" : "r1_c5",
               "type" : "evalhtml",
               "e_time" : -1108966819.792
            },
            {
               "s_time" : 332.270999904722,
               "time" : 0.698999967426005,
               "id" : "r1_c6",
               "type" : "evalhtml",
               "e_time" : 332.969999872148
            },
            {
               "s_time" : 335.562999825925,
               "time" : -1108967155.355,
               "id" : "r1_c7",
               "type" : "evalhtml",
               "e_time" : -1108966819.792
            },
            {
               "s_time" : 377.482999814674,
               "time" : -1108967197.275,
               "id" : "r1_c8",
               "type" : "evalhtml",
               "e_time" : -1108966819.792
            },
            {
               "s_time" : 378.246999811381,
               "time" : 2.12200009264103,
               "id" : "r1_c9",
               "type" : "evalhtml",
               "e_time" : 380.368999904022
            },
            {
               "s_time" : 388.590999878943,
               "time" : -1108967208.383,
               "id" : "r1_c10",
               "type" : "evalhtml",
               "e_time" : -1108966819.792
            },
            {
               "s_time" : 397.48499984853,
               "time" : -1108967217.277,
               "id" : "r1_c11",
               "type" : "evalhtml",
               "e_time" : -1108966819.792
            },
            {
               "s_time" : 399.145999923348,
               "time" : 60.6410000473271,
               "id" : "r1_c12",
               "type" : "evalhtml",
               "e_time" : 459.786999970675
            },
            {
               "s_time" : 459.962999913841,
               "time" : 1310.09000004269,
               "type" : "evalhtml",
               "id" : "r1_c13",
               "e_time" : 1770.05299995653
            }
         ],
         "download" : {
            "receiveFirst" : 52,
            "len" : 33230,
            "dns" : 0,
            "dnsEnd" : -1,
            "receiveHeadersEnd" : 52,
            "sslEnd" : -1,
            "connectEnd" : 0,
            "connectStart" : 0,
            "id" : "download_0",
            "receivedTime" : "161.030999850482",
            "sslStart" : -1,
            "dnsStart" : -1,
            "receiveLast" : 109.030999850482,
            "s_time" : 0,
            "sendEnd" : 0,
            "sendStart" : 0,
            "type" : "text/html"
         }
      },
      {
         "when_comp_start" : -1,
         "url" : "http://original.testbed.localhost/www.miniwiz.com/miniwiz/media/system/css/modal.css",
         "id" : "r2",
         "comps" : [
            {
               "s_time" : 220.371999777853,
               "time" : 0.172000145539982,
               "type" : 4,
               "id" : "comp_0",
               "e_time" : 220.543999923393
            }
         ],
         "download" : {
            "receiveFirst" : 51,
            "len" : 1159,
            "dns" : 0,
            "dnsEnd" : -1,
            "receiveHeadersEnd" : 57,
            "sslEnd" : -1,
            "connectEnd" : 6,
            "connectStart" : 0,
            "id" : "download_1",
            "receivedTime" : "220.330999931321",
            "sslStart" : -1,
            "dnsStart" : -1,
            "receiveLast" : 163.330999931321,
            "s_time" : 161.988999927416,
            "sendEnd" : 6,
            "sendStart" : 6,
            "type" : "text/css"
         }
      },
      {
         "when_comp_start" : -1,
         "url" : "http://original.testbed.localhost/www.miniwiz.com/miniwiz/modules/mod_djimageslider/assets/style.css",
         "id" : "r4",
         "comps" : [
            {
               "s_time" : 221.0999999661,
               "time" : 0.0999998301269898,
               "type" : 4,
               "id" : "comp_1",
               "e_time" : 221.199999796227
            }
         ],
         "download" : {
            "receiveFirst" : 52,
            "len" : 821,
            "dns" : 0,
            "dnsEnd" : -1,
            "receiveHeadersEnd" : 58,
            "sslEnd" : -1,
            "connectEnd" : 6,
            "connectStart" : 0,
            "id" : "download_2",
            "receivedTime" : "221.028999891132",
            "sslStart" : -1,
            "dnsStart" : -1,
            "receiveLast" : 163.028999891132,
            "s_time" : 162.29399992153,
            "sendEnd" : 6,
            "sendStart" : 6,
            "type" : "text/css"
         }
      },
      {
         "when_comp_start" : -1,
         "url" : "http://original.testbed.localhost/www.miniwiz.com/miniwiz/modules/mod_jflanguageselection/tmpl/mod_jflanguageselection.css",
         "id" : "r5",
         "comps" : [
            {
               "s_time" : 222.156999865547,
               "time" : 0.179999973625002,
               "type" : 4,
               "id" : "comp_2",
               "e_time" : 222.336999839172
            }
         ],
         "download" : {
            "receiveFirst" : 52,
            "len" : 3361,
            "dns" : 0,
            "dnsEnd" : -1,
            "receiveHeadersEnd" : 56,
            "sslEnd" : -1,
            "connectEnd" : 4,
            "connectStart" : 0,
            "id" : "download_3",
            "receivedTime" : "222.10399992764",
            "sslStart" : -1,
            "dnsStart" : -1,
            "receiveLast" : 166.10399992764,
            "s_time" : 163.450999883935,
            "sendEnd" : 4,
            "sendStart" : 4,
            "type" : "text/css"
         }
      },
      {
         "when_comp_start" : -1,
         "url" : "http://original.testbed.localhost/www.miniwiz.com/miniwiz/components/com_k2/css/k2.css",
         "id" : "r3",
         "comps" : [
            {
               "s_time" : 241.622000001371,
               "time" : 3.70899983681701,
               "type" : 4,
               "id" : "comp_3",
               "e_time" : 245.330999838188
            }
         ],
         "download" : {
            "receiveFirst" : 53,
            "len" : 41803,
            "dns" : 0,
            "dnsEnd" : -1,
            "receiveHeadersEnd" : 59,
            "sslEnd" : -1,
            "connectEnd" : 6,
            "connectStart" : 0,
            "id" : "download_4",
            "receivedTime" : "241.542999865487",
            "sslStart" : -1,
            "dnsStart" : -1,
            "receiveLast" : 182.542999865487,
            "s_time" : 162.223999854177,
            "sendEnd" : 6,
            "sendStart" : 6,
            "type" : "text/css"
         }
      },
      {
         "when_comp_start" : -1,
         "url" : "http://original.testbed.localhost/www.miniwiz.com/miniwiz/media/system/js/modal.js",
         "id" : "r7",
         "comps" : [
            {
               "s_time" : 292.739999946207,
               "time" : 1.10100000165403,
               "type" : 1,
               "id" : "comp_11",
               "e_time" : 293.840999947861
            }
         ],
         "download" : {
            "receiveFirst" : 55,
            "len" : 10588,
            "dns" : 0,
            "dnsEnd" : -1,
            "receiveHeadersEnd" : 59,
            "sslEnd" : -1,
            "connectEnd" : 4,
            "connectStart" : 0,
            "id" : "download_5",
            "receivedTime" : "245.680999942124",
            "sslStart" : -1,
            "dnsStart" : -1,
            "receiveLast" : 186.680999942124,
            "s_time" : 164.143999805674,
            "sendEnd" : 4,
            "sendStart" : 4,
            "type" : "application/javascript"
         }
      },
      {
         "when_comp_start" : -1,
         "url" : "http://original.testbed.localhost/www.miniwiz.com/miniwiz/media/system/js/mootools.js",
         "id" : "r6",
         "comps" : [
            {
               "s_time" : 279.526999918744,
               "time" : 13.085999991745,
               "type" : 1,
               "id" : "comp_10",
               "e_time" : 292.612999910489
            }
         ],
         "download" : {
            "receiveFirst" : 56,
            "len" : 74434,
            "dns" : 0,
            "dnsEnd" : -1,
            "receiveHeadersEnd" : 60,
            "sslEnd" : -1,
            "connectEnd" : 4,
            "connectStart" : 0,
            "id" : "download_6",
            "receivedTime" : "279.386999784037",
            "sslStart" : -1,
            "dnsStart" : -1,
            "receiveLast" : 219.386999784037,
            "s_time" : 163.997999858111,
            "sendEnd" : 4,
            "sendStart" : 4,
            "type" : "application/javascript"
         }
      },
      {
         "when_comp_start" : -1,
         "url" : "http://original.testbed.localhost/www.miniwiz.com/miniwiz/templates/system/css/system.css",
         "id" : "r15",
         "comps" : [
            {
               "s_time" : 272.31499995105,
               "time" : 0.00600004568696022,
               "type" : 4,
               "id" : "comp_6",
               "e_time" : 272.320999996737
            }
         ],
         "download" : {
            "receiveFirst" : 51,
            "len" : 1393,
            "dns" : 0,
            "dnsEnd" : -1,
            "receiveHeadersEnd" : 104,
            "sslEnd" : -1,
            "connectEnd" : 53,
            "connectStart" : 0,
            "id" : "download_7",
            "receivedTime" : "272.167999995872",
            "sslStart" : -1,
            "dnsStart" : -1,
            "receiveLast" : 168.167999995872,
            "s_time" : 165.288999909535,
            "sendEnd" : 53,
            "sendStart" : 53,
            "type" : "text/css"
         }
      },
      {
         "when_comp_start" : -1,
         "url" : "http://original.testbed.localhost/www.miniwiz.com/miniwiz/templates/system/css/general.css",
         "id" : "r16",
         "comps" : [
            {
               "s_time" : 273.501999909058,
               "time" : 0.0030000228439917,
               "type" : 4,
               "id" : "comp_7",
               "e_time" : 273.504999931902
            }
         ],
         "download" : {
            "receiveFirst" : 52,
            "len" : 2822,
            "dns" : 0,
            "dnsEnd" : -1,
            "receiveHeadersEnd" : 105,
            "sslEnd" : -1,
            "connectEnd" : 53,
            "connectStart" : 0,
            "id" : "download_8",
            "receivedTime" : "273.389999987558",
            "sslStart" : -1,
            "dnsStart" : -1,
            "receiveLast" : 168.389999987558,
            "s_time" : 165.428999811411,
            "sendEnd" : 53,
            "sendStart" : 53,
            "type" : "text/css"
         }
      },
      {
         "when_comp_start" : -1,
         "url" : "http://original.testbed.localhost/www.miniwiz.com/miniwiz/templates/jamesolite/css/template.css",
         "id" : "r17",
         "comps" : [
            {
               "s_time" : 275.200999807566,
               "time" : 0.0530001707380165,
               "type" : 4,
               "id" : "comp_8",
               "e_time" : 275.253999978304
            }
         ],
         "download" : {
            "receiveFirst" : 52,
            "len" : 20626,
            "dns" : 0,
            "dnsEnd" : -1,
            "receiveHeadersEnd" : 106,
            "sslEnd" : -1,
            "connectEnd" : 54,
            "connectStart" : 0,
            "id" : "download_9",
            "receivedTime" : "275.075999787077",
            "sslStart" : -1,
            "dnsStart" : -1,
            "receiveLast" : 169.075999787077,
            "s_time" : 165.561999892816,
            "sendEnd" : 54,
            "sendStart" : 54,
            "type" : "text/css"
         }
      },
      {
         "when_comp_start" : -1,
         "url" : "http://original.testbed.localhost/www.miniwiz.com/miniwiz/templates/jamesolite/css/typo.css",
         "id" : "r18",
         "comps" : [
            {
               "s_time" : 278.516999911517,
               "time" : 0.00700005330099884,
               "type" : 4,
               "id" : "comp_9",
               "e_time" : 278.523999964818
            }
         ],
         "download" : {
            "receiveFirst" : 53,
            "len" : 7104,
            "dns" : 0,
            "dnsEnd" : -1,
            "receiveHeadersEnd" : 110,
            "sslEnd" : -1,
            "connectEnd" : 57,
            "connectStart" : 0,
            "id" : "download_10",
            "receivedTime" : "278.392999898642",
            "sslStart" : -1,
            "dnsStart" : -1,
            "receiveLast" : 168.392999898642,
            "s_time" : 165.713999886066,
            "sendEnd" : 57,
            "sendStart" : 57,
            "type" : "text/css"
         }
      },
      {
         "when_comp_start" : -1,
         "url" : "http://original.testbed.localhost/www.miniwiz.com/miniwiz/templates/jamesolite/css/ja.vm.css",
         "id" : "r19",
         "comps" : [
            {
               "s_time" : 294.138999888673,
               "time" : 0.015000114217969,
               "type" : 4,
               "id" : "comp_12",
               "e_time" : 294.154000002891
            }
         ],
         "download" : {
            "receiveFirst" : 53,
            "len" : 4431,
            "dns" : 0,
            "dnsEnd" : -1,
            "receiveHeadersEnd" : 111,
            "sslEnd" : -1,
            "connectEnd" : 58,
            "connectStart" : 0,
            "id" : "download_11",
            "receivedTime" : "294.062999775633",
            "sslStart" : -1,
            "dnsStart" : -1,
            "receiveLast" : 183.062999775633,
            "s_time" : 165.840999921784,
            "sendEnd" : 58,
            "sendStart" : 58,
            "type" : "text/css"
         }
      },
      {
         "when_comp_start" : -1,
         "url" : "http://original.testbed.localhost/www.miniwiz.com/miniwiz/components/com_k2/js/k2.js",
         "id" : "r8",
         "comps" : [
            {
               "s_time" : 324.474999913946,
               "time" : 3.69499996304501,
               "type" : 1,
               "id" : "comp_13",
               "e_time" : 328.169999876991
            }
         ],
         "download" : {
            "receiveFirst" : 51,
            "len" : 3077,
            "dns" : 0,
            "dnsEnd" : -1,
            "receiveHeadersEnd" : 158,
            "sslEnd" : -1,
            "connectEnd" : 107,
            "connectStart" : 0,
            "id" : "download_12",
            "receivedTime" : "324.291999917477",
            "sslStart" : -1,
            "dnsStart" : -1,
            "receiveLast" : 166.291999917477,
            "s_time" : 164.298999821767,
            "sendEnd" : 107,
            "sendStart" : 107,
            "type" : "application/javascript"
         }
      },
      {
         "when_comp_start" : -1,
         "url" : "http://original.testbed.localhost/www.miniwiz.com/miniwiz/media/system/js/caption.js",
         "id" : "r9",
         "comps" : [
            {
               "s_time" : 328.764999983832,
               "time" : 0.639999983832013,
               "type" : 1,
               "id" : "comp_14",
               "e_time" : 329.404999967664
            }
         ],
         "download" : {
            "receiveFirst" : 51,
            "len" : 1963,
            "dns" : 0,
            "dnsEnd" : -1,
            "receiveHeadersEnd" : 158,
            "sslEnd" : -1,
            "connectEnd" : 107,
            "connectStart" : 0,
            "id" : "download_13",
            "receivedTime" : "328.668999951333",
            "sslStart" : -1,
            "dnsStart" : -1,
            "receiveLast" : 170.668999951333,
            "s_time" : 164.391999831423,
            "sendEnd" : 107,
            "sendStart" : 107,
            "type" : "application/javascript"
         }
      },
      {
         "when_comp_start" : -1,
         "url" : "http://original.testbed.localhost/www.miniwiz.com/miniwiz/plugins/content/avreloaded/silverlight.js",
         "id" : "r10",
         "comps" : [
            {
               "s_time" : 330.172999994829,
               "time" : 2.09799990989296,
               "type" : 1,
               "id" : "comp_15",
               "e_time" : 332.270999904722
            }
         ],
         "download" : {
            "receiveFirst" : 51,
            "len" : 8093,
            "dns" : 0,
            "dnsEnd" : -1,
            "receiveHeadersEnd" : 160,
            "sslEnd" : -1,
            "connectEnd" : 109,
            "connectStart" : 0,
            "id" : "download_14",
            "receivedTime" : "329.860999947414",
            "sslStart" : -1,
            "dnsStart" : -1,
            "receiveLast" : 169.860999947414,
            "s_time" : 164.518999867141,
            "sendEnd" : 109,
            "sendStart" : 109,
            "type" : "application/javascript"
         }
      },
      {
         "when_comp_start" : -1,
         "url" : "http://original.testbed.localhost/www.miniwiz.com/miniwiz/plugins/content/avreloaded/wmvplayer.js",
         "id" : "r11",
         "comps" : [
            {
               "s_time" : 333.418999798596,
               "time" : 2.14400002732896,
               "type" : 1,
               "id" : "comp_16",
               "e_time" : 335.562999825925
            }
         ],
         "download" : {
            "receiveFirst" : 51,
            "len" : 16476,
            "dns" : 0,
            "dnsEnd" : -1,
            "receiveHeadersEnd" : 163,
            "sslEnd" : -1,
            "connectEnd" : 112,
            "connectStart" : 0,
            "id" : "download_15",
            "receivedTime" : "333.256999962032",
            "sslStart" : -1,
            "dnsStart" : -1,
            "receiveLast" : 170.256999962032,
            "s_time" : 164.669999852777,
            "sendEnd" : 112,
            "sendStart" : 112,
            "type" : "application/javascript"
         }
      },
      {
         "when_comp_start" : -1,
         "url" : "http://original.testbed.localhost/www.miniwiz.com/miniwiz/plugins/content/avreloaded/avreloaded.js",
         "id" : "r13",
         "comps" : [
            {
               "s_time" : 377.64299986884,
               "time" : 0.603999942541009,
               "type" : 1,
               "id" : "comp_19",
               "e_time" : 378.246999811381
            }
         ],
         "download" : {
            "receiveFirst" : 51,
            "len" : 2359,
            "dns" : 0,
            "dnsEnd" : -1,
            "receiveHeadersEnd" : 164,
            "sslEnd" : -1,
            "connectEnd" : 113,
            "connectStart" : 0,
            "id" : "download_16",
            "receivedTime" : "335.984999779612",
            "sslStart" : -1,
            "dnsStart" : -1,
            "receiveLast" : 171.984999779612,
            "s_time" : 165.000999812037,
            "sendEnd" : 113,
            "sendStart" : 113,
            "type" : "application/javascript"
         }
      },
      {
         "when_comp_start" : -1,
         "url" : "http://original.testbed.localhost/www.miniwiz.com/miniwiz/plugins/content/avreloaded/swfobject.js",
         "id" : "r12",
         "comps" : [
            {
               "s_time" : 336.588999954984,
               "time" : 40.89399985969,
               "type" : 1,
               "id" : "comp_17",
               "e_time" : 377.482999814674
            }
         ],
         "download" : {
            "receiveFirst" : 52,
            "len" : 12254,
            "dns" : 0,
            "dnsEnd" : -1,
            "receiveHeadersEnd" : 165,
            "sslEnd" : -1,
            "connectEnd" : 113,
            "connectStart" : 0,
            "id" : "download_17",
            "receivedTime" : "336.488999892026",
            "sslStart" : -1,
            "dnsStart" : -1,
            "receiveLast" : 171.488999892026,
            "s_time" : 164.858999894932,
            "sendEnd" : 113,
            "sendStart" : 113,
            "type" : "application/javascript"
         }
      },
      {
         "when_comp_start" : -1,
         "url" : "http://original.testbed.localhost/www.miniwiz.com/miniwiz/templates/jamesolite/ja_menus/ja_moomenu/ja.moomenu.css",
         "id" : "r21",
         "comps" : [
            {
               "s_time" : 384.801999898627,
               "time" : 0.00900006853100876,
               "type" : 4,
               "id" : "comp_21",
               "e_time" : 384.810999967158
            }
         ],
         "download" : {
            "receiveFirst" : 59,
            "len" : 4607,
            "dns" : 0,
            "dnsEnd" : -1,
            "receiveHeadersEnd" : 88,
            "sslEnd" : -1,
            "connectEnd" : 29,
            "connectStart" : 0,
            "id" : "download_18",
            "receivedTime" : "384.703999850899",
            "sslStart" : -1,
            "dnsStart" : -1,
            "receiveLast" : 296.703999850899,
            "s_time" : 294.791999971494,
            "sendEnd" : 29,
            "sendStart" : 29,
            "type" : "text/css"
         }
      },
      {
         "when_comp_start" : -1,
         "url" : "http://original.testbed.localhost/www.miniwiz.com/miniwiz/modules/mod_djimageslider/assets/slider.js",
         "id" : "r14",
         "comps" : [
            {
               "s_time" : 387.394999852404,
               "time" : 1.19600002653902,
               "type" : 1,
               "id" : "comp_22",
               "e_time" : 388.590999878943
            }
         ],
         "download" : {
            "receiveFirst" : 60,
            "len" : 11881,
            "dns" : 0,
            "dnsEnd" : -1,
            "receiveHeadersEnd" : 218,
            "sslEnd" : -1,
            "connectEnd" : 158,
            "connectStart" : 0,
            "id" : "download_19",
            "receivedTime" : "387.255999958143",
            "sslStart" : -1,
            "dnsStart" : -1,
            "receiveLast" : 169.255999958143,
            "s_time" : 165.14699999243,
            "sendEnd" : 158,
            "sendStart" : 158,
            "type" : "application/javascript"
         }
      },
      {
         "when_comp_start" : -1,
         "url" : "http://original.testbed.localhost/www.miniwiz.com/miniwiz/templates/jamesolite/js/ja.script.js",
         "id" : "r20",
         "comps" : [
            {
               "s_time" : 396.765999961644,
               "time" : 0.718999886885967,
               "type" : 1,
               "id" : "comp_31",
               "e_time" : 397.48499984853
            }
         ],
         "download" : {
            "receiveFirst" : 57,
            "len" : 7212,
            "dns" : 0,
            "dnsEnd" : -1,
            "receiveHeadersEnd" : 90,
            "sslEnd" : -1,
            "connectEnd" : 33,
            "connectStart" : 0,
            "id" : "download_20",
            "receivedTime" : "396.46999980323",
            "sslStart" : -1,
            "dnsStart" : -1,
            "receiveLast" : 306.46999980323,
            "s_time" : 294.537999900058,
            "sendEnd" : 33,
            "sendStart" : 33,
            "type" : "application/javascript"
         }
      },
      {
         "when_comp_start" : -1,
         "url" : "http://original.testbed.localhost/www.miniwiz.com/miniwiz/templates/jamesolite/ja_menus/ja_moomenu/ja.moomenu.js",
         "id" : "r22",
         "comps" : [
            {
               "s_time" : 398.427999811247,
               "time" : 0.718000112100981,
               "type" : 1,
               "id" : "comp_33",
               "e_time" : 399.145999923348
            }
         ],
         "download" : {
            "receiveFirst" : 55,
            "len" : 5301,
            "dns" : 0,
            "dnsEnd" : -1,
            "receiveHeadersEnd" : 90,
            "sslEnd" : -1,
            "connectEnd" : 35,
            "connectStart" : 0,
            "id" : "download_21",
            "receivedTime" : "386.983999982476",
            "sslStart" : -1,
            "dnsStart" : -1,
            "receiveLast" : 296.983999982476,
            "s_time" : 294.995999895036,
            "sendEnd" : 35,
            "sendStart" : 35,
            "type" : "application/javascript"
         }
      },
      {
         "when_comp_start" : -1,
         "url" : "http://original.testbed.localhost/www.miniwiz.com/miniwiz/templates/jamesolite/css/colors/green.css",
         "id" : "r23",
         "comps" : [
            {
               "s_time" : 399.684999836609,
               "time" : 1.04300002567402,
               "type" : 4,
               "id" : "comp_35",
               "e_time" : 400.727999862283
            }
         ],
         "download" : {
            "receiveFirst" : 53,
            "len" : 2749,
            "dns" : 0,
            "dnsEnd" : -1,
            "receiveHeadersEnd" : 54,
            "sslEnd" : -1,
            "connectEnd" : 1,
            "connectStart" : 0,
            "id" : "download_22",
            "receivedTime" : "399.622999830171",
            "sslStart" : -1,
            "dnsStart" : -1,
            "receiveLast" : 345.622999830171,
            "s_time" : 332.969999872148,
            "sendEnd" : 1,
            "sendStart" : 1,
            "type" : "text/css"
         }
      },
      {
         "when_comp_start" : -1,
         "url" : "http://original.testbed.localhost/www.miniwiz.com/miniwiz/images/stories/slider/lbdslider.jpg",
         "id" : "r25",
         "comps" : [],
         "download" : {
            "receiveFirst" : 51,
            "len" : 398036,
            "dns" : 0,
            "dnsEnd" : -1,
            "receiveHeadersEnd" : 56,
            "sslEnd" : -1,
            "connectEnd" : 5,
            "connectStart" : 0,
            "id" : "download_23",
            "receivedTime" : "1563.47499997355",
            "sslStart" : -1,
            "dnsStart" : -1,
            "receiveLast" : 1507.47499997355,
            "s_time" : 380.368999904022,
            "sendEnd" : 5,
            "sendStart" : 5,
            "type" : "image/jpeg"
         }
      },
      {
         "when_comp_start" : -1,
         "url" : "http://original.testbed.localhost/www.miniwiz.com/miniwiz/images/stories/sdti_web_v2.jpg",
         "id" : "r26",
         "comps" : [],
         "download" : {
            "receiveFirst" : 51,
            "len" : 672212,
            "dns" : 0,
            "dnsEnd" : -1,
            "receiveHeadersEnd" : 53,
            "sslEnd" : -1,
            "connectEnd" : 2,
            "connectStart" : 0,
            "id" : "download_24",
            "receivedTime" : "1639.02899995446",
            "sslStart" : -1,
            "dnsStart" : -1,
            "receiveLast" : 1586.02899995446,
            "s_time" : 459.546999773011,
            "sendEnd" : 2,
            "sendStart" : 2,
            "type" : "image/jpeg"
         }
      },
      {
         "when_comp_start" : -1,
         "url" : "http://original.testbed.localhost/www.miniwiz.com/miniwiz/images/stories/nikelab%20slider%20for%20webpage.jpg",
         "id" : "r27",
         "comps" : [],
         "download" : {
            "receiveFirst" : 60,
            "len" : 130610,
            "dns" : 0,
            "dnsEnd" : -1,
            "receiveHeadersEnd" : 62,
            "sslEnd" : -1,
            "connectEnd" : 2,
            "connectStart" : 0,
            "id" : "download_25",
            "receivedTime" : "1084.22099985182",
            "sslStart" : -1,
            "dnsStart" : -1,
            "receiveLast" : 1022.22099985182,
            "s_time" : 459.693999961019,
            "sendEnd" : 2,
            "sendStart" : 2,
            "type" : "image/jpeg"
         }
      },
      {
         "when_comp_start" : -1,
         "url" : "http://original.testbed.localhost/www.miniwiz.com/miniwiz/images/stories/slider/miniwizfrontpage.jpg",
         "id" : "r28",
         "comps" : [],
         "download" : {
            "receiveFirst" : 64,
            "len" : 433239,
            "dns" : 0,
            "dnsEnd" : -1,
            "receiveHeadersEnd" : 66,
            "sslEnd" : -1,
            "connectEnd" : 2,
            "connectStart" : 0,
            "id" : "download_26",
            "receivedTime" : "1484.54099986702",
            "sslStart" : -1,
            "dnsStart" : -1,
            "receiveLast" : 1418.54099986702,
            "s_time" : 459.786999970675,
            "sendEnd" : 2,
            "sendStart" : 2,
            "type" : "image/jpeg"
         }
      },
      {
         "when_comp_start" : -1,
         "url" : "http://original.testbed.localhost/www.miniwiz.com/miniwiz/images/stories/slider/foodwaste.jpg",
         "id" : "r29",
         "comps" : [],
         "download" : {
            "receiveFirst" : 70,
            "len" : 445940,
            "dns" : 0,
            "dnsEnd" : -1,
            "receiveHeadersEnd" : 72,
            "sslEnd" : -1,
            "connectEnd" : 2,
            "connectStart" : 0,
            "id" : "download_27",
            "receivedTime" : "1335.52999980748",
            "sslStart" : -1,
            "dnsStart" : -1,
            "receiveLast" : 1263.52999980748,
            "s_time" : 460.001999977976,
            "sendEnd" : 2,
            "sendStart" : 2,
            "type" : "image/jpeg"
         }
      },
      {
         "when_comp_start" : -1,
         "url" : "http://original.testbed.localhost/www.miniwiz.com/miniwiz/images/stories/projects/Nike_X158/nike%20banner.jpg",
         "id" : "r30",
         "comps" : [],
         "download" : {
            "receiveFirst" : 75,
            "len" : 332704,
            "dns" : 0,
            "dnsEnd" : -1,
            "receiveHeadersEnd" : 77,
            "sslEnd" : -1,
            "connectEnd" : 2,
            "connectStart" : 0,
            "id" : "download_28",
            "receivedTime" : "1672.54499997944",
            "sslStart" : -1,
            "dnsStart" : -1,
            "receiveLast" : 1595.54499997944,
            "s_time" : 460.138999857008,
            "sendEnd" : 2,
            "sendStart" : 2,
            "type" : "image/jpeg"
         }
      },
      {
         "when_comp_start" : -1,
         "url" : "http://www.google-analytics.com/ga.js",
         "id" : "r44",
         "comps" : [],
         "download" : {
            "receiveFirst" : 81,
            "len" : 43082,
            "dns" : 0,
            "dnsEnd" : -1,
            "receiveHeadersEnd" : 82,
            "sslEnd" : -1,
            "connectEnd" : 1,
            "connectStart" : 0,
            "id" : "download_29",
            "receivedTime" : "625.195999862626",
            "sslStart" : -1,
            "dnsStart" : -1,
            "receiveLast" : 543.195999862626,
            "s_time" : 462.117999792099,
            "sendEnd" : 1,
            "sendStart" : 1,
            "type" : "text/javascript"
         }
      },
      {
         "when_comp_start" : -1,
         "url" : "http://edge.quantserve.com/quant.js",
         "id" : "r45",
         "comps" : [],
         "download" : {
            "receiveFirst" : 88,
            "len" : 7874,
            "dns" : 0,
            "dnsEnd" : -1,
            "receiveHeadersEnd" : 88,
            "sslEnd" : -1,
            "connectEnd" : 0,
            "connectStart" : 0,
            "id" : "download_30",
            "receivedTime" : "556.29300000146",
            "sslStart" : -1,
            "dnsStart" : -1,
            "receiveLast" : 468.29300000146,
            "s_time" : 462.6279999502,
            "sendEnd" : 0,
            "sendStart" : 0,
            "type" : "application/x-javascript"
         }
      },
      {
         "when_comp_start" : -1,
         "url" : "http://original.testbed.localhost/www.miniwiz.com/miniwiz/modules/mod_djimageslider/assets/prev.png",
         "id" : "r31",
         "comps" : [],
         "download" : {
            "receiveFirst" : 62,
            "len" : 759,
            "dns" : 0,
            "dnsEnd" : -1,
            "receiveHeadersEnd" : 686,
            "sslEnd" : -1,
            "connectEnd" : 624,
            "connectStart" : 0,
            "id" : "download_31",
            "receivedTime" : "1147.4669999443",
            "sslStart" : -1,
            "dnsStart" : -1,
            "receiveLast" : 461.466999944299,
            "s_time" : 460.288999835029,
            "sendEnd" : 624,
            "sendStart" : 624,
            "type" : "image/png"
         }
      },
      {
         "when_comp_start" : -1,
         "url" : "http://original.testbed.localhost/www.miniwiz.com/miniwiz/images/stories/icons/facebook.png",
         "id" : "r35",
         "comps" : [],
         "download" : {
            "receiveFirst" : 60,
            "len" : 1082,
            "dns" : 0,
            "dnsEnd" : -1,
            "receiveHeadersEnd" : 123,
            "sslEnd" : -1,
            "connectEnd" : 63,
            "connectStart" : 0,
            "id" : "download_32",
            "receivedTime" : "1208.37299991399",
            "sslStart" : -1,
            "dnsStart" : -1,
            "receiveLast" : 1085.37299991399,
            "s_time" : 1083.87199998833,
            "sendEnd" : 63,
            "sendStart" : 63,
            "type" : "image/png"
         }
      },
      {
         "when_comp_start" : -1,
         "url" : "http://original.testbed.localhost/www.miniwiz.com/miniwiz/images/stories/icons/flickr.png",
         "id" : "r36",
         "comps" : [],
         "download" : {
            "receiveFirst" : 59,
            "len" : 776,
            "dns" : 0,
            "dnsEnd" : -1,
            "receiveHeadersEnd" : 120,
            "sslEnd" : -1,
            "connectEnd" : 61,
            "connectStart" : 0,
            "id" : "download_33",
            "receivedTime" : "1269.76799988188",
            "sslStart" : -1,
            "dnsStart" : -1,
            "receiveLast" : 1149.76799988188,
            "s_time" : 1146.97999996133,
            "sendEnd" : 61,
            "sendStart" : 61,
            "type" : "image/png"
         }
      },
      {
         "when_comp_start" : -1,
         "url" : "http://original.testbed.localhost/www.miniwiz.com/miniwiz/images/stories/icons/youtube.png",
         "id" : "r37",
         "comps" : [],
         "download" : {
            "receiveFirst" : 57,
            "len" : 1407,
            "dns" : 0,
            "dnsEnd" : -1,
            "receiveHeadersEnd" : 117,
            "sslEnd" : -1,
            "connectEnd" : 60,
            "connectStart" : 0,
            "id" : "download_34",
            "receivedTime" : "1327.38799997605",
            "sslStart" : -1,
            "dnsStart" : -1,
            "receiveLast" : 1210.38799997605,
            "s_time" : 1207.96099980362,
            "sendEnd" : 60,
            "sendStart" : 60,
            "type" : "image/png"
         }
      },
      {
         "when_comp_start" : -1,
         "url" : "http://original.testbed.localhost/www.miniwiz.com/miniwiz/images/recyclingjp-popup.jpg",
         "id" : "r38",
         "comps" : [],
         "download" : {
            "receiveFirst" : 50,
            "len" : 70858,
            "dns" : 0,
            "dnsEnd" : -1,
            "receiveHeadersEnd" : 108,
            "sslEnd" : -1,
            "connectEnd" : 58,
            "connectStart" : 0,
            "id" : "download_35",
            "receivedTime" : "1601.0149999056",
            "sslStart" : -1,
            "dnsStart" : -1,
            "receiveLast" : 1493.0149999056,
            "s_time" : 1268.35699984804,
            "sendEnd" : 58,
            "sendStart" : 58,
            "type" : "image/jpeg"
         }
      },
      {
         "when_comp_start" : -1,
         "url" : "http://original.testbed.localhost/www.miniwiz.com/miniwiz/images/stories/frontpage/fp-recycling-popup-nyt.jpg",
         "id" : "r39",
         "comps" : [],
         "download" : {
            "receiveFirst" : 53,
            "len" : 91870,
            "dns" : 0,
            "dnsEnd" : -1,
            "receiveHeadersEnd" : 62,
            "sslEnd" : -1,
            "connectEnd" : 8,
            "connectStart" : 0,
            "id" : "download_36",
            "receivedTime" : "1556.40899995342",
            "sslStart" : -1,
            "dnsStart" : -1,
            "receiveLast" : 1494.40899995342,
            "s_time" : 1326.03999995627,
            "sendEnd" : 9,
            "sendStart" : 8,
            "type" : "image/jpeg"
         }
      },
      {
         "when_comp_start" : -1,
         "url" : "http://original.testbed.localhost/www.miniwiz.com/miniwiz/images/screen%20shot%202014-07-02%20at%206.26.21%20pm.png",
         "id" : "r40",
         "comps" : [],
         "download" : {
            "receiveFirst" : 50,
            "len" : 178005,
            "dns" : 0,
            "dnsEnd" : -1,
            "receiveHeadersEnd" : 200,
            "sslEnd" : -1,
            "connectEnd" : 150,
            "connectStart" : 0,
            "id" : "download_37",
            "receivedTime" : "1889.60799993947",
            "sslStart" : -1,
            "dnsStart" : -1,
            "receiveLast" : 1689.60799993947,
            "s_time" : 1334.64999985881,
            "sendEnd" : 150,
            "sendStart" : 150,
            "type" : "image/png"
         }
      },
      {
         "when_comp_start" : -1,
         "url" : "http://original.testbed.localhost/www.miniwiz.com/miniwiz/images/screen%20shot%202014-07-02%20at%207.03.34.png",
         "id" : "r41",
         "comps" : [],
         "download" : {
            "receiveFirst" : 50,
            "len" : 282659,
            "dns" : 0,
            "dnsEnd" : -1,
            "receiveHeadersEnd" : 122,
            "sslEnd" : -1,
            "connectEnd" : 72,
            "connectStart" : 0,
            "id" : "download_38",
            "receivedTime" : "2259.50799998827",
            "sslStart" : -1,
            "dnsStart" : -1,
            "receiveLast" : 2137.50799998827,
            "s_time" : 1484.53399981372,
            "sendEnd" : 72,
            "sendStart" : 72,
            "type" : "image/png"
         }
      },
      {
         "when_comp_start" : -1,
         "url" : "http://original.testbed.localhost/www.miniwiz.com/miniwiz/images/stories/media/press/icons/IDEA_LOGO.jpg",
         "id" : "r42",
         "comps" : [],
         "download" : {
            "receiveFirst" : 58,
            "len" : 36385,
            "dns" : 0,
            "dnsEnd" : -1,
            "receiveHeadersEnd" : 65,
            "sslEnd" : -1,
            "connectEnd" : 7,
            "connectStart" : 0,
            "id" : "download_39",
            "receivedTime" : "1718.51499984041",
            "sslStart" : -1,
            "dnsStart" : -1,
            "receiveLast" : 1653.51499984041,
            "s_time" : 1556.14699982107,
            "sendEnd" : 7,
            "sendStart" : 7,
            "type" : "image/jpeg"
         }
      },
      {
         "when_comp_start" : -1,
         "url" : "http://original.testbed.localhost/www.miniwiz.com/miniwiz/images/stories/media/press/icons/IDEA_GoldAward.jpg",
         "id" : "r43",
         "comps" : [],
         "download" : {
            "receiveFirst" : 50,
            "len" : 42170,
            "dns" : 0,
            "dnsEnd" : -1,
            "receiveHeadersEnd" : 87,
            "sslEnd" : -1,
            "connectEnd" : 37,
            "connectStart" : 0,
            "id" : "download_40",
            "receivedTime" : "1804.58799982443",
            "sslStart" : -1,
            "dnsStart" : -1,
            "receiveLast" : 1717.58799982443,
            "s_time" : 1563.19899996743,
            "sendEnd" : 37,
            "sendStart" : 37,
            "type" : "image/jpeg"
         }
      },
      {
         "when_comp_start" : -1,
         "url" : "http://original.testbed.localhost/www.miniwiz.com/miniwiz/templates/jamesolite/images/bullet.gif",
         "id" : "r46",
         "comps" : [],
         "download" : {
            "receiveFirst" : 50,
            "len" : 51,
            "dns" : 0,
            "dnsEnd" : -1,
            "receiveHeadersEnd" : 89,
            "sslEnd" : -1,
            "connectEnd" : 38,
            "connectStart" : 0,
            "id" : "download_41",
            "receivedTime" : "1690.34199998714",
            "sslStart" : -1,
            "dnsStart" : -1,
            "receiveLast" : 1601.34199998714,
            "s_time" : 1600.52399989218,
            "sendEnd" : 39,
            "sendStart" : 38,
            "type" : "image/gif"
         }
      },
      {
         "when_comp_start" : -1,
         "url" : "http://original.testbed.localhost/www.miniwiz.com/miniwiz/templates/jamesolite/images/green/logo.png",
         "id" : "r47",
         "comps" : [],
         "download" : {
            "receiveFirst" : 50,
            "len" : 5756,
            "dns" : 0,
            "dnsEnd" : -1,
            "receiveHeadersEnd" : 84,
            "sslEnd" : -1,
            "connectEnd" : 34,
            "connectStart" : 0,
            "id" : "download_42",
            "receivedTime" : "1725.25599994697",
            "sslStart" : -1,
            "dnsStart" : -1,
            "receiveLast" : 1641.25599994697,
            "s_time" : 1639.03299998492,
            "sendEnd" : 34,
            "sendStart" : 34,
            "type" : "image/png"
         }
      },
      {
         "when_comp_start" : -1,
         "url" : "http://original.testbed.localhost/www.miniwiz.com/miniwiz/templates/jamesolite/ja_menus/ja_moomenu/img/arrow-1.gif",
         "id" : "r48",
         "comps" : [],
         "download" : {
            "receiveFirst" : 50,
            "len" : 51,
            "dns" : 0,
            "dnsEnd" : -1,
            "receiveHeadersEnd" : 68,
            "sslEnd" : -1,
            "connectEnd" : 18,
            "connectStart" : 0,
            "id" : "download_43",
            "receivedTime" : "1741.59699981101",
            "sslStart" : -1,
            "dnsStart" : -1,
            "receiveLast" : 1673.59699981101,
            "s_time" : 1672.58499981835,
            "sendEnd" : 18,
            "sendStart" : 18,
            "type" : "image/gif"
         }
      },
      {
         "when_comp_start" : -1,
         "url" : "http://original.testbed.localhost/www.miniwiz.com/miniwiz/modules/mod_djimageslider/assets/loader.gif",
         "id" : "r49",
         "comps" : [],
         "download" : {
            "receiveFirst" : 51,
            "len" : 2608,
            "dns" : 0,
            "dnsEnd" : -1,
            "receiveHeadersEnd" : 79,
            "sslEnd" : -1,
            "connectEnd" : 28,
            "connectStart" : 0,
            "id" : "download_44",
            "receivedTime" : "1770.251999842",
            "sslStart" : -1,
            "dnsStart" : -1,
            "receiveLast" : 1691.251999842,
            "s_time" : 1690.35999989137,
            "sendEnd" : 28,
            "sendStart" : 28,
            "type" : "image/gif"
         }
      },
      {
         "when_comp_start" : -1,
         "url" : "http://original.testbed.localhost/www.miniwiz.com/miniwiz/templates/jamesolite/images/dot.gif",
         "id" : "r50",
         "comps" : [],
         "download" : {
            "receiveFirst" : 50,
            "len" : 43,
            "dns" : 0,
            "dnsEnd" : -1,
            "receiveHeadersEnd" : 57,
            "sslEnd" : -1,
            "connectEnd" : 7,
            "connectStart" : 0,
            "id" : "download_45",
            "receivedTime" : "1776.52799990028",
            "sslStart" : -1,
            "dnsStart" : -1,
            "receiveLast" : 1719.52799990028,
            "s_time" : 1718.58899993822,
            "sendEnd" : 7,
            "sendStart" : 7,
            "type" : "image/gif"
         }
      },
      {
         "when_comp_start" : -1,
         "url" : "http://pixel.quantserve.com/pixel;r=239896083;a=p-5aOYO9SMCTp8o;fpan=1;fpa=P0-1164473261-1442543761641;ns=0;ce=1;cm=;je=1;sr=1024x768x24;enc=n;dst=1;et=1442543761639;tzo=240;ref=;url=http%3A%2F%2Foriginal.testbed.localhost%2Fwww.miniwiz.com%2F;ogl=",
         "id" : "r52",
         "comps" : [],
         "download" : {
            "receiveFirst" : 55,
            "len" : 35,
            "dns" : 0,
            "dnsEnd" : -1,
            "receiveHeadersEnd" : 55,
            "sslEnd" : -1,
            "connectEnd" : 0,
            "connectStart" : 0,
            "id" : "download_46",
            "receivedTime" : "1781.40599979088",
            "sslStart" : -1,
            "dnsStart" : -1,
            "receiveLast" : 1726.40599979088,
            "s_time" : 1725.2879999578,
            "sendEnd" : 0,
            "sendStart" : 0,
            "type" : "image/gif"
         }
      },
      {
         "when_comp_start" : -1,
         "url" : "http://original.testbed.localhost/www.miniwiz.com/miniwiz/modules/mod_djimageslider/assets/next.png",
         "id" : "r32",
         "comps" : [],
         "download" : {
            "receiveFirst" : 50,
            "len" : 771,
            "dns" : 0,
            "dnsEnd" : -1,
            "receiveHeadersEnd" : 1331,
            "sslEnd" : -1,
            "connectEnd" : 1281,
            "connectStart" : 0,
            "id" : "download_47",
            "receivedTime" : "1792.90499980561",
            "sslStart" : -1,
            "dnsStart" : -1,
            "receiveLast" : 461.904999805614,
            "s_time" : 460.415999870747,
            "sendEnd" : 1281,
            "sendStart" : 1281,
            "type" : "image/png"
         }
      },
      {
         "when_comp_start" : -1,
         "url" : "http://www.google-analytics.com/r/__utm.gif?utmwv=5.6.7&utms=1&utmn=1679013304&utmhn=original.testbed.localhost&utmcs=UTF-8&utmsr=1024x768&utmvp=1009x621&utmsc=24-bit&utmul=en-us&utmje=1&utmfl=-&utmdt=MINIWIZ&utmhid=1334799104&utmr=-&utmp=%2Fwww.miniwiz.com%2F&utmht=1442543761729&utmac=UA-18532525-1",
         "id" : "r53",
         "comps" : [],
         "download" : {
            "receiveFirst" : 69,
            "len" : 35,
            "dns" : 0,
            "dnsEnd" : -1,
            "receiveHeadersEnd" : 69,
            "sslEnd" : -1,
            "connectEnd" : 0,
            "connectStart" : 0,
            "id" : "download_48",
            "receivedTime" : "1811.71399983577",
            "sslStart" : -1,
            "dnsStart" : -1,
            "receiveLast" : 1742.71399983577,
            "s_time" : 1741.72299983911,
            "sendEnd" : 0,
            "sendStart" : 0,
            "type" : "image/gif"
         }
      },
      {
         "when_comp_start" : -1,
         "url" : "http://original.testbed.localhost/www.miniwiz.com/miniwiz/modules/mod_djimageslider/assets/play.png",
         "id" : "r33",
         "comps" : [],
         "download" : {
            "receiveFirst" : 50,
            "len" : 883,
            "dns" : 0,
            "dnsEnd" : -1,
            "receiveHeadersEnd" : 1359,
            "sslEnd" : -1,
            "connectEnd" : 1309,
            "connectStart" : 0,
            "id" : "download_49",
            "receivedTime" : "1821.22699986212",
            "sslStart" : -1,
            "dnsStart" : -1,
            "receiveLast" : 462.22699986212,
            "s_time" : 460.544999921694,
            "sendEnd" : 1309,
            "sendStart" : 1309,
            "type" : "image/png"
         }
      },
      {
         "when_comp_start" : -1,
         "url" : "http://www.google-analytics.com/__utm.gif?utmwv=5.6.7&utms=2&utmn=346834022&utmhn=original.testbed.localhost&utmcs=UTF-8&utmsr=1024x768&utmvp=1009x621&utmsc=24-bit&utmul=en-us&utmje=1&utmfl=-&utmdt=MINIWIZ&utmhid=1334799104&utmr=-&utmp=%2Fwww.miniwiz.com%2F&utmht=1442543761736&utmac=UA-18532525-1&ut",
         "id" : "r54",
         "comps" : [],
         "download" : {
            "receiveFirst" : 55,
            "len" : 35,
            "dns" : 0,
            "dnsEnd" : -1,
            "receiveHeadersEnd" : 55,
            "sslEnd" : -1,
            "connectEnd" : 0,
            "connectStart" : 0,
            "id" : "download_50",
            "receivedTime" : "1826.09999994747",
            "sslStart" : -1,
            "dnsStart" : -1,
            "receiveLast" : 1771.09999994747,
            "s_time" : 1770.05299995653,
            "sendEnd" : 0,
            "sendStart" : 0,
            "type" : "image/gif"
         }
      },
      {
         "when_comp_start" : -1,
         "url" : "http://original.testbed.localhost/www.miniwiz.com/miniwiz/modules/mod_djimageslider/assets/pause.png",
         "id" : "r34",
         "comps" : [],
         "download" : {
            "receiveFirst" : 50,
            "len" : 613,
            "dns" : 0,
            "dnsEnd" : -1,
            "receiveHeadersEnd" : 1365,
            "sslEnd" : -1,
            "connectEnd" : 1315,
            "connectStart" : 0,
            "id" : "download_51",
            "receivedTime" : "1827.49099982902",
            "sslStart" : -1,
            "dnsStart" : -1,
            "receiveLast" : 462.490999829024,
            "s_time" : 460.654999827966,
            "sendEnd" : 1315,
            "sendStart" : 1315,
            "type" : "image/png"
         }
      }
   ],
   "deps" : [
      {
         "a2" : "r1_c2",
         "time" : -1,
         "id" : "dep1",
         "a1" : "comp_10"
      },
      {
         "a2" : "r1_c3",
         "time" : -1,
         "id" : "dep2",
         "a1" : "comp_11"
      },
      {
         "a2" : "r1_c4",
         "time" : -1,
         "id" : "dep3",
         "a1" : "comp_13"
      },
      {
         "a2" : "r1_c5",
         "time" : -1,
         "id" : "dep4",
         "a1" : "comp_14"
      },
      {
         "a2" : "r1_c6",
         "time" : -1,
         "id" : "dep5",
         "a1" : "comp_15"
      },
      {
         "a2" : "r1_c7",
         "time" : -1,
         "id" : "dep6",
         "a1" : "comp_16"
      },
      {
         "a2" : "r1_c8",
         "time" : -1,
         "id" : "dep7",
         "a1" : "comp_17"
      },
      {
         "a2" : "r1_c9",
         "time" : -1,
         "id" : "dep8",
         "a1" : "comp_19"
      },
      {
         "a2" : "r1_c10",
         "time" : -1,
         "id" : "dep9",
         "a1" : "comp_22"
      },
      {
         "a2" : "r1_c11",
         "time" : -1,
         "id" : "dep10",
         "a1" : "comp_31"
      },
      {
         "a2" : "r1_c12",
         "time" : -1,
         "id" : "dep11",
         "a1" : "comp_33"
      },
      {
         "a2" : "r1_c13",
         "time" : -1,
         "id" : "dep12",
         "a1" : "comp_40"
      },
      {
         "a2" : "comp_10",
         "time" : -1,
         "id" : "dep13",
         "a1" : "comp_0"
      },
      {
         "a2" : "comp_10",
         "time" : -1,
         "id" : "dep14",
         "a1" : "comp_3"
      },
      {
         "a2" : "comp_10",
         "time" : -1,
         "id" : "dep15",
         "a1" : "comp_1"
      },
      {
         "a2" : "comp_10",
         "time" : -1,
         "id" : "dep16",
         "a1" : "comp_2"
      },
      {
         "a2" : "comp_11",
         "time" : -1,
         "id" : "dep17",
         "a1" : "comp_10"
      },
      {
         "a2" : "comp_13",
         "time" : -1,
         "id" : "dep18",
         "a1" : "comp_11"
      },
      {
         "a2" : "comp_14",
         "time" : -1,
         "id" : "dep19",
         "a1" : "comp_13"
      },
      {
         "a2" : "comp_15",
         "time" : -1,
         "id" : "dep20",
         "a1" : "comp_14"
      },
      {
         "a2" : "comp_16",
         "time" : -1,
         "id" : "dep21",
         "a1" : "comp_15"
      },
      {
         "a2" : "comp_17",
         "time" : -1,
         "id" : "dep22",
         "a1" : "comp_16"
      },
      {
         "a2" : "comp_19",
         "time" : -1,
         "id" : "dep23",
         "a1" : "comp_17"
      },
      {
         "a2" : "comp_22",
         "time" : -1,
         "id" : "dep24",
         "a1" : "comp_19"
      },
      {
         "a2" : "comp_33",
         "time" : -1,
         "id" : "dep25",
         "a1" : "comp_31"
      },
      {
         "a2" : "comp_33",
         "time" : -1,
         "id" : "dep26",
         "a1" : "comp_21"
      },
      {
         "a2" : "download_51",
         "time" : 0.691999914125006,
         "id" : "dep27",
         "a1" : "r1_c13"
      },
      {
         "a2" : "download_50",
         "time" : -1,
         "id" : "dep28",
         "a1" : "r1_c13"
      },
      {
         "a2" : "download_49",
         "time" : 0.582000007853026,
         "id" : "dep29",
         "a1" : "r1_c13"
      },
      {
         "a2" : "download_48",
         "time" : 1281.75999992527,
         "id" : "dep30",
         "a1" : "r1_c13"
      },
      {
         "a2" : "download_47",
         "time" : 0.452999956906012,
         "id" : "dep31",
         "a1" : "r1_c13"
      },
      {
         "a2" : "download_46",
         "time" : 1265.32500004396,
         "id" : "dep32",
         "a1" : "r1_c13"
      },
      {
         "a2" : "download_45",
         "time" : 1258.62600002438,
         "id" : "dep33",
         "a1" : "r1_c13"
      },
      {
         "a2" : "download_44",
         "time" : 1230.39699997753,
         "id" : "dep34",
         "a1" : "r1_c13"
      },
      {
         "a2" : "download_43",
         "time" : 1212.62199990451,
         "id" : "dep35",
         "a1" : "r1_c13"
      },
      {
         "a2" : "download_42",
         "time" : 1179.07000007108,
         "id" : "dep36",
         "a1" : "r1_c13"
      },
      {
         "a2" : "download_41",
         "time" : 1140.56099997834,
         "id" : "dep37",
         "a1" : "r1_c13"
      },
      {
         "a2" : "download_40",
         "time" : 1103.23600005359,
         "id" : "dep38",
         "a1" : "r1_c13"
      },
      {
         "a2" : "download_39",
         "time" : 1096.18399990723,
         "id" : "dep39",
         "a1" : "r1_c13"
      },
      {
         "a2" : "download_38",
         "time" : 1024.57099989988,
         "id" : "dep40",
         "a1" : "r1_c13"
      },
      {
         "a2" : "download_37",
         "time" : 874.686999944969,
         "id" : "dep41",
         "a1" : "r1_c13"
      },
      {
         "a2" : "download_36",
         "time" : 866.077000042429,
         "id" : "dep42",
         "a1" : "r1_c13"
      },
      {
         "a2" : "download_35",
         "time" : 808.393999934199,
         "id" : "dep43",
         "a1" : "r1_c13"
      },
      {
         "a2" : "download_34",
         "time" : 747.997999889779,
         "id" : "dep44",
         "a1" : "r1_c13"
      },
      {
         "a2" : "download_33",
         "time" : 687.017000047489,
         "id" : "dep45",
         "a1" : "r1_c13"
      },
      {
         "a2" : "download_32",
         "time" : 623.909000074489,
         "id" : "dep46",
         "a1" : "r1_c13"
      },
      {
         "a2" : "download_31",
         "time" : 0.325999921188043,
         "id" : "dep47",
         "a1" : "r1_c13"
      },
      {
         "a2" : "download_30",
         "time" : 2.665000036359,
         "id" : "dep48",
         "a1" : "r1_c13"
      },
      {
         "a2" : "download_29",
         "time" : 2.15499987825802,
         "id" : "dep49",
         "a1" : "r1_c13"
      },
      {
         "a2" : "download_28",
         "time" : 0.175999943167028,
         "id" : "dep50",
         "a1" : "r1_c13"
      },
      {
         "a2" : "download_27",
         "time" : 0.0390000641350525,
         "id" : "dep51",
         "a1" : "r1_c13"
      },
      {
         "a2" : "download_26",
         "time" : -1,
         "id" : "dep52",
         "a1" : "r1_c12"
      },
      {
         "a2" : "download_25",
         "time" : 60.548000037671,
         "id" : "dep53",
         "a1" : "r1_c12"
      },
      {
         "a2" : "download_24",
         "time" : 60.400999849663,
         "id" : "dep54",
         "a1" : "r1_c12"
      },
      {
         "a2" : "download_23",
         "time" : -1,
         "id" : "dep55",
         "a1" : "r1_c9"
      },
      {
         "a2" : "download_23",
         "time" : 2.12200009264103,
         "id" : "dep56",
         "a1" : "r1_c9"
      },
      {
         "a2" : "download_22",
         "time" : -1,
         "id" : "dep57",
         "a1" : "r1_c6"
      },
      {
         "a2" : "download_22",
         "time" : 0.698999967426005,
         "id" : "dep58",
         "a1" : "r1_c6"
      },
      {
         "a2" : "download_21",
         "time" : -1,
         "id" : "dep59",
         "a1" : "r1_c3"
      },
      {
         "a2" : "download_21",
         "time" : 1.15499994717499,
         "id" : "dep60",
         "a1" : "r1_c3"
      },
      {
         "a2" : "download_20",
         "time" : 0.696999952197018,
         "id" : "dep61",
         "a1" : "r1_c3"
      },
      {
         "a2" : "download_20",
         "time" : 0.696999952197018,
         "id" : "dep62",
         "a1" : "r1_c3"
      },
      {
         "a2" : "download_19",
         "time" : -1,
         "id" : "dep63",
         "a1" : "r1_c1"
      },
      {
         "a2" : "download_18",
         "time" : 0.951000023633014,
         "id" : "dep64",
         "a1" : "r1_c3"
      },
      {
         "a2" : "download_18",
         "time" : 0.951000023633014,
         "id" : "dep65",
         "a1" : "r1_c3"
      },
      {
         "a2" : "download_17",
         "time" : 3.45199997536801,
         "id" : "dep66",
         "a1" : "r1_c1"
      },
      {
         "a2" : "download_16",
         "time" : 3.59399989247302,
         "id" : "dep67",
         "a1" : "r1_c1"
      },
      {
         "a2" : "download_15",
         "time" : 3.26299993321302,
         "id" : "dep68",
         "a1" : "r1_c1"
      },
      {
         "a2" : "download_14",
         "time" : 3.111999947577,
         "id" : "dep69",
         "a1" : "r1_c1"
      },
      {
         "a2" : "download_13",
         "time" : 2.98499991185901,
         "id" : "dep70",
         "a1" : "r1_c1"
      },
      {
         "a2" : "download_12",
         "time" : 2.89199990220303,
         "id" : "dep71",
         "a1" : "r1_c1"
      },
      {
         "a2" : "download_11",
         "time" : -1,
         "id" : "dep72",
         "a1" : "r1_c1"
      },
      {
         "a2" : "download_10",
         "time" : 4.30699996650202,
         "id" : "dep73",
         "a1" : "r1_c1"
      },
      {
         "a2" : "download_9",
         "time" : 4.15499997325202,
         "id" : "dep74",
         "a1" : "r1_c1"
      },
      {
         "a2" : "download_8",
         "time" : 4.021999891847,
         "id" : "dep75",
         "a1" : "r1_c1"
      },
      {
         "a2" : "download_7",
         "time" : 3.88199998997101,
         "id" : "dep76",
         "a1" : "r1_c1"
      },
      {
         "a2" : "download_6",
         "time" : 2.59099993854701,
         "id" : "dep77",
         "a1" : "r1_c1"
      },
      {
         "a2" : "download_5",
         "time" : 2.73699988611003,
         "id" : "dep78",
         "a1" : "r1_c1"
      },
      {
         "a2" : "download_4",
         "time" : 0.816999934613023,
         "id" : "dep79",
         "a1" : "r1_c1"
      },
      {
         "a2" : "download_3",
         "time" : 2.04399996437101,
         "id" : "dep80",
         "a1" : "r1_c1"
      },
      {
         "a2" : "download_2",
         "time" : 0.887000001966015,
         "id" : "dep81",
         "a1" : "r1_c1"
      },
      {
         "a2" : "download_1",
         "time" : 0.582000007852002,
         "id" : "dep82",
         "a1" : "r1_c1"
      }
   ]
}
