{
   "n_download_no_trigger" : 1,
   "deps" : [
      {
         "time" : -1,
         "a1" : "comp_4",
         "a2" : "r1_c2",
         "id" : "dep1"
      },
      {
         "id" : "dep2",
         "a2" : "r1_c3",
         "a1" : "comp_9",
         "time" : -1
      },
      {
         "a2" : "r1_c4",
         "id" : "dep3",
         "time" : -1,
         "a1" : "comp_11"
      },
      {
         "id" : "dep4",
         "a2" : "r1_c5",
         "a1" : "comp_13",
         "time" : -1
      },
      {
         "a1" : "comp_9",
         "time" : -1,
         "id" : "dep5",
         "a2" : "comp_11"
      },
      {
         "a1" : "comp_11",
         "time" : -1,
         "id" : "dep6",
         "a2" : "comp_13"
      },
      {
         "time" : -1,
         "a1" : "r1_c5",
         "a2" : "download_22",
         "id" : "dep7"
      },
      {
         "a1" : "r1_c5",
         "time" : 15.71500004502,
         "id" : "dep8",
         "a2" : "download_21"
      },
      {
         "a2" : "download_20",
         "id" : "dep9",
         "time" : 15.903000021353,
         "a1" : "r1_c5"
      },
      {
         "a1" : "r1_c5",
         "time" : 11.896000010893,
         "id" : "dep10",
         "a2" : "download_19"
      },
      {
         "id" : "dep11",
         "a2" : "download_18",
         "a1" : "r1_c1",
         "time" : -1
      },
      {
         "id" : "dep12",
         "a2" : "download_17",
         "a1" : "r1_c1",
         "time" : 48.6900000250898
      },
      {
         "id" : "dep13",
         "a2" : "download_16",
         "a1" : "r1_c1",
         "time" : 48.6159999854863
      },
      {
         "a1" : "r1_c1",
         "time" : 48.5239999834448,
         "id" : "dep14",
         "a2" : "download_15"
      },
      {
         "a1" : "r1_c1",
         "time" : 48.430000024382,
         "id" : "dep15",
         "a2" : "download_14"
      },
      {
         "time" : 48.3550000353716,
         "a1" : "r1_c1",
         "a2" : "download_13",
         "id" : "dep16"
      },
      {
         "a2" : "download_12",
         "id" : "dep17",
         "time" : 48.2760000159033,
         "a1" : "r1_c1"
      },
      {
         "a1" : "r1_c1",
         "time" : 48.2060000067577,
         "id" : "dep18",
         "a2" : "download_11"
      },
      {
         "a1" : "r1_c1",
         "time" : 48.0330000282265,
         "id" : "dep19",
         "a2" : "download_10"
      },
      {
         "a1" : "r1_c1",
         "time" : 48.1400000280701,
         "id" : "dep20",
         "a2" : "download_9"
      },
      {
         "time" : 44.9220000300556,
         "a1" : "r1_c1",
         "a2" : "download_8",
         "id" : "dep21"
      },
      {
         "a2" : "download_7",
         "id" : "dep22",
         "time" : 0.555000035092199,
         "a1" : "r1_c1"
      },
      {
         "id" : "dep23",
         "a2" : "download_7",
         "a1" : "r1_c1",
         "time" : 0.555000035092199
      },
      {
         "time" : 0.899999984540102,
         "a1" : "r1_c1",
         "a2" : "download_6",
         "id" : "dep24"
      },
      {
         "a2" : "download_6",
         "id" : "dep25",
         "time" : 0.899999984540102,
         "a1" : "r1_c1"
      },
      {
         "time" : 0.807000033091803,
         "a1" : "r1_c1",
         "a2" : "download_5",
         "id" : "dep26"
      },
      {
         "id" : "dep27",
         "a2" : "download_5",
         "a1" : "r1_c1",
         "time" : 0.807000033091803
      },
      {
         "a2" : "download_4",
         "id" : "dep28",
         "time" : 0.639999983832205,
         "a1" : "r1_c1"
      },
      {
         "a1" : "r1_c1",
         "time" : 0.639999983832205,
         "id" : "dep29",
         "a2" : "download_4"
      },
      {
         "id" : "dep30",
         "a2" : "download_3",
         "a1" : "r1_c1",
         "time" : 0.723000033758602
      },
      {
         "a1" : "r1_c1",
         "time" : 0.723000033758602,
         "id" : "dep31",
         "a2" : "download_3"
      },
      {
         "a1" : "r1_c1",
         "time" : 0.3520000027493,
         "id" : "dep32",
         "a2" : "download_2"
      },
      {
         "a2" : "download_1",
         "id" : "dep33",
         "time" : 0.502999988384602,
         "a1" : "r1_c1"
      },
      {
         "id" : "dep34",
         "a2" : "download_1",
         "a1" : "r1_c1",
         "time" : 0.502999988384602
      }
   ],
   "name" : "original.testbed.localhost_www.readytoforex.com_",
   "start_activity" : "download_0",
   "load_activity" : -1,
   "objs" : [
      {
         "when_comp_start" : 1,
         "comps" : [
            {
               "type" : "evalhtml",
               "id" : "r1_c1",
               "s_time" : 31.6579999634996,
               "e_time" : 98.0299999937415,
               "time" : 66.3720000302419
            },
            {
               "time" : -299992937.152,
               "e_time" : -299992835.406,
               "s_time" : 101.746000000276,
               "id" : "r1_c2",
               "type" : "evalhtml"
            },
            {
               "e_time" : -299992835.406,
               "time" : -299992939.735,
               "s_time" : 104.328999994323,
               "id" : "r1_c3",
               "type" : "evalhtml"
            },
            {
               "type" : "evalhtml",
               "id" : "r1_c4",
               "s_time" : 104.427999991458,
               "e_time" : -299992835.406,
               "time" : -299992939.834
            },
            {
               "type" : "evalhtml",
               "id" : "r1_c5",
               "time" : 78.286000003572,
               "e_time" : 182.837999949697,
               "s_time" : 104.551999946125
            }
         ],
         "download" : {
            "len" : 12415,
            "receiveLast" : 10.5529999788851,
            "receiveHeadersEnd" : 21,
            "connectEnd" : 0,
            "sendEnd" : 0,
            "dnsStart" : -1,
            "dnsEnd" : -1,
            "receiveFirst" : 21,
            "sendStart" : 0,
            "dns" : 0,
            "type" : "text/html",
            "sslStart" : -1,
            "s_time" : 0,
            "connectStart" : 0,
            "sslEnd" : -1,
            "receivedTime" : "31.5529999788851",
            "id" : "download_0"
         },
         "id" : "r1",
         "url" : "http://original.testbed.localhost/www.readytoforex.com/"
      },
      {
         "url" : "http://original.testbed.localhost/fonts.googleapis.com/css%3Ffamily=Open+Sans+Condensed:300.css",
         "comps" : [
            {
               "type" : 4,
               "id" : "comp_0",
               "s_time" : 56.1119999620132,
               "time" : 0.00699999509379978,
               "e_time" : 56.118999957107
            }
         ],
         "when_comp_start" : -1,
         "download" : {
            "connectEnd" : 2,
            "receiveHeadersEnd" : 23,
            "dnsStart" : -1,
            "sendEnd" : 2,
            "len" : 285,
            "receiveLast" : 33.0659999609925,
            "sslEnd" : -1,
            "connectStart" : 0,
            "id" : "download_1",
            "receivedTime" : "56.0659999609925",
            "sendStart" : 2,
            "type" : "text/css",
            "dns" : 0,
            "receiveFirst" : 21,
            "dnsEnd" : -1,
            "sslStart" : -1,
            "s_time" : 32.1609999518842
         },
         "id" : "r3"
      },
      {
         "when_comp_start" : -1,
         "comps" : [
            {
               "time" : 21.7180000036027,
               "e_time" : 101.746000000276,
               "s_time" : 80.0279999966733,
               "id" : "comp_4",
               "type" : 1
            }
         ],
         "download" : {
            "s_time" : 32.0099999662489,
            "sslStart" : -1,
            "type" : "application/javascript",
            "dns" : 0,
            "sendStart" : 2,
            "receiveFirst" : 23,
            "dnsEnd" : -1,
            "receivedTime" : "79.9750000005588",
            "id" : "download_2",
            "sslEnd" : -1,
            "connectStart" : 0,
            "receiveLast" : 53.9750000005588,
            "len" : 95786,
            "dnsStart" : -1,
            "sendEnd" : 3,
            "receiveHeadersEnd" : 26,
            "connectEnd" : 2
         },
         "id" : "r2",
         "url" : "http://original.testbed.localhost/ajax.googleapis.com/ajax/libs/jquery/1.11.1/jquery.min.js"
      },
      {
         "comps" : [
            {
               "id" : "comp_11",
               "s_time" : 104.363999969792,
               "e_time" : 104.427999991458,
               "time" : 0.0640000216659899,
               "type" : 1
            }
         ],
         "when_comp_start" : -1,
         "id" : "r6",
         "download" : {
            "receiveHeadersEnd" : 43,
            "connectEnd" : 22,
            "dnsStart" : 2,
            "sendEnd" : 22,
            "len" : 740,
            "receiveLast" : 33.1799999745563,
            "connectStart" : 0,
            "sslEnd" : -1,
            "receivedTime" : "76.1799999745563",
            "id" : "download_3",
            "sendStart" : 22,
            "type" : "application/javascript",
            "dns" : 0,
            "dnsEnd" : 2,
            "receiveFirst" : 21,
            "sslStart" : -1,
            "s_time" : 32.3809999972582
         },
         "url" : "http://original.testbed.localhost/www.readytoforex.com/cms_function/login/functions.js"
      },
      {
         "url" : "http://original.testbed.localhost/www.readytoforex.com/cms_function/javascript/hidden_box.js",
         "id" : "r5",
         "download" : {
            "sendEnd" : 22,
            "dnsStart" : 2,
            "receiveHeadersEnd" : 43,
            "connectEnd" : 22,
            "receiveLast" : 33.3059999444522,
            "len" : 493,
            "id" : "download_4",
            "receivedTime" : "76.3059999444522",
            "connectStart" : 0,
            "sslEnd" : -1,
            "sslStart" : -1,
            "s_time" : 32.2979999473318,
            "dnsEnd" : 2,
            "receiveFirst" : 21,
            "sendStart" : 22,
            "dns" : 0,
            "type" : "application/javascript"
         },
         "comps" : [
            {
               "type" : 1,
               "id" : "comp_9",
               "s_time" : 104.270999960136,
               "e_time" : 104.328999994323,
               "time" : 0.0580000341870033
            }
         ],
         "when_comp_start" : -1
      },
      {
         "comps" : [
            {
               "s_time" : 104.464999982156,
               "e_time" : 104.551999946125,
               "time" : 0.0869999639689922,
               "id" : "comp_13",
               "type" : 1
            }
         ],
         "when_comp_start" : -1,
         "id" : "r7",
         "download" : {
            "dnsStart" : 2,
            "sendEnd" : 22,
            "receiveHeadersEnd" : 43,
            "connectEnd" : 22,
            "receiveLast" : 33.4829999534413,
            "len" : 1734,
            "id" : "download_5",
            "receivedTime" : "76.4829999534413",
            "connectStart" : 0,
            "sslEnd" : -1,
            "s_time" : 32.4649999965914,
            "sslStart" : -1,
            "type" : "application/javascript",
            "dns" : 0,
            "sendStart" : 22,
            "receiveFirst" : 21,
            "dnsEnd" : 2
         },
         "url" : "http://original.testbed.localhost/www.readytoforex.com/cms_function/info/functions.js"
      },
      {
         "url" : "http://original.testbed.localhost/www.readytoforex.com/cms_images/logo.png",
         "when_comp_start" : -1,
         "comps" : [],
         "id" : "r8",
         "download" : {
            "sslEnd" : -1,
            "connectStart" : 0,
            "receivedTime" : "76.8589999643154",
            "id" : "download_6",
            "sendStart" : 23,
            "type" : "image/png",
            "dns" : 0,
            "receiveFirst" : 20,
            "dnsEnd" : -1,
            "sslStart" : -1,
            "s_time" : 32.5579999480397,
            "receiveHeadersEnd" : 43,
            "connectEnd" : 23,
            "dnsStart" : -1,
            "sendEnd" : 23,
            "len" : 1951,
            "receiveLast" : 33.8589999643154
         }
      },
      {
         "comps" : [
            {
               "type" : 4,
               "s_time" : 77.2349999751896,
               "e_time" : 77.2789999609813,
               "time" : 0.0439999857917002,
               "id" : "comp_3"
            }
         ],
         "when_comp_start" : -1,
         "id" : "r4",
         "download" : {
            "id" : "download_7",
            "receivedTime" : "77.2009999491274",
            "connectStart" : 0,
            "sslEnd" : -1,
            "s_time" : 32.2129999985918,
            "sslStart" : -1,
            "receiveFirst" : 22,
            "dnsEnd" : 2,
            "type" : "text/css",
            "dns" : 0,
            "sendStart" : 22,
            "sendEnd" : 22,
            "dnsStart" : 2,
            "receiveHeadersEnd" : 44,
            "connectEnd" : 22,
            "receiveLast" : 33.2009999491274,
            "len" : 25699
         },
         "url" : "http://original.testbed.localhost/www.readytoforex.com/cms_css/page_default_210316.css"
      },
      {
         "url" : "http://original.testbed.localhost/www.readytoforex.com/cms_images/cover_e_book_home_2.png",
         "when_comp_start" : -1,
         "comps" : [],
         "download" : {
            "receiveLast" : 101.214999991935,
            "len" : 144388,
            "dnsStart" : -1,
            "sendEnd" : 0,
            "receiveHeadersEnd" : 20,
            "connectEnd" : 0,
            "s_time" : 76.5799999935552,
            "sslStart" : -1,
            "dns" : 0,
            "type" : "image/png",
            "sendStart" : 0,
            "receiveFirst" : 20,
            "dnsEnd" : -1,
            "id" : "download_8",
            "receivedTime" : "121.214999991935",
            "sslEnd" : -1,
            "connectStart" : 0
         },
         "id" : "r9"
      },
      {
         "id" : "r11",
         "download" : {
            "connectStart" : 0,
            "sslEnd" : -1,
            "id" : "download_9",
            "receivedTime" : "182.214999978896",
            "receiveFirst" : 21,
            "dnsEnd" : -1,
            "dns" : 0,
            "type" : "image/jpeg",
            "sendStart" : 1,
            "s_time" : 79.7979999915697,
            "sslStart" : -1,
            "receiveHeadersEnd" : 22,
            "connectEnd" : 1,
            "sendEnd" : 1,
            "dnsStart" : -1,
            "len" : 7432,
            "receiveLast" : 160.214999978896
         },
         "comps" : [],
         "when_comp_start" : -1,
         "url" : "http://original.testbed.localhost/www.readytoforex.com/cms_images/italia_oggi.jpg"
      },
      {
         "url" : "http://original.testbed.localhost/www.readytoforex.com/cms_images/WN.jpg",
         "download" : {
            "dnsEnd" : -1,
            "receiveFirst" : 21,
            "sendStart" : 1,
            "type" : "image/jpeg",
            "dns" : 0,
            "sslStart" : -1,
            "s_time" : 79.6909999917261,
            "connectStart" : 0,
            "sslEnd" : -1,
            "receivedTime" : "182.316999998875",
            "id" : "download_10",
            "len" : 4043,
            "receiveLast" : 160.316999998875,
            "receiveHeadersEnd" : 22,
            "connectEnd" : 1,
            "sendEnd" : 1,
            "dnsStart" : -1
         },
         "id" : "r10",
         "comps" : [],
         "when_comp_start" : -1
      },
      {
         "url" : "http://original.testbed.localhost/www.readytoforex.com/cms_images/startupper.jpg",
         "when_comp_start" : -1,
         "comps" : [],
         "download" : {
            "receiveLast" : 160.368999987375,
            "len" : 6077,
            "sendEnd" : 1,
            "dnsStart" : -1,
            "receiveHeadersEnd" : 22,
            "connectEnd" : 1,
            "sslStart" : -1,
            "s_time" : 79.8639999702573,
            "receiveFirst" : 21,
            "dnsEnd" : -1,
            "sendStart" : 1,
            "dns" : 0,
            "type" : "image/jpeg",
            "receivedTime" : "182.368999987375",
            "id" : "download_11",
            "sslEnd" : -1,
            "connectStart" : 0
         },
         "id" : "r12"
      },
      {
         "url" : "http://original.testbed.localhost/www.readytoforex.com/cms_images/corriere.jpg",
         "when_comp_start" : -1,
         "comps" : [],
         "id" : "r13",
         "download" : {
            "sslStart" : -1,
            "s_time" : 79.9339999794029,
            "dnsEnd" : -1,
            "receiveFirst" : 21,
            "sendStart" : 1,
            "type" : "image/jpeg",
            "dns" : 0,
            "receivedTime" : "182.422999991104",
            "id" : "download_12",
            "sslEnd" : -1,
            "connectStart" : 0,
            "receiveLast" : 160.422999991104,
            "len" : 5650,
            "sendEnd" : 1,
            "dnsStart" : -1,
            "connectEnd" : 1,
            "receiveHeadersEnd" : 22
         }
      },
      {
         "comps" : [],
         "when_comp_start" : -1,
         "id" : "r14",
         "download" : {
            "sendEnd" : 1,
            "dnsStart" : -1,
            "connectEnd" : 1,
            "receiveHeadersEnd" : 22,
            "receiveLast" : 160.472999964375,
            "len" : 4311,
            "receivedTime" : "182.472999964375",
            "id" : "download_13",
            "sslEnd" : -1,
            "connectStart" : 0,
            "s_time" : 80.0129999988712,
            "sslStart" : -1,
            "dnsEnd" : -1,
            "receiveFirst" : 21,
            "dns" : 0,
            "type" : "image/jpeg",
            "sendStart" : 1
         },
         "url" : "http://original.testbed.localhost/www.readytoforex.com/cms_images/msn.jpg"
      },
      {
         "url" : "http://original.testbed.localhost/www.readytoforex.com/cms_images/milano_finanza.jpg",
         "comps" : [],
         "when_comp_start" : -1,
         "id" : "r15",
         "download" : {
            "receiveLast" : 145.640999963041,
            "len" : 6361,
            "dnsStart" : -1,
            "sendEnd" : 17,
            "receiveHeadersEnd" : 37,
            "connectEnd" : 17,
            "sslStart" : -1,
            "s_time" : 80.0879999878816,
            "sendStart" : 17,
            "dns" : 0,
            "type" : "image/jpeg",
            "receiveFirst" : 20,
            "dnsEnd" : -1,
            "id" : "download_14",
            "receivedTime" : "182.640999963041",
            "connectStart" : 0,
            "sslEnd" : -1
         }
      },
      {
         "url" : "http://original.testbed.localhost/www.readytoforex.com/cms_images/cnbc_class.jpg",
         "when_comp_start" : -1,
         "comps" : [],
         "download" : {
            "connectStart" : 0,
            "sslEnd" : -1,
            "id" : "download_15",
            "receivedTime" : "182.89899994852",
            "sendStart" : 22,
            "type" : "image/jpeg",
            "dns" : 0,
            "receiveFirst" : 20,
            "dnsEnd" : -1,
            "sslStart" : -1,
            "s_time" : 80.1819999469444,
            "receiveHeadersEnd" : 42,
            "connectEnd" : 22,
            "dnsStart" : -1,
            "sendEnd" : 22,
            "len" : 2441,
            "receiveLast" : 140.89899994852
         },
         "id" : "r16"
      },
      {
         "url" : "http://original.testbed.localhost/www.readytoforex.com/cms_images/trandonline.jpg",
         "id" : "r17",
         "download" : {
            "receiveLast" : 139.993999973405,
            "len" : 13451,
            "sendEnd" : 22,
            "dnsStart" : -1,
            "connectEnd" : 22,
            "receiveHeadersEnd" : 43,
            "s_time" : 80.2739999489859,
            "sslStart" : -1,
            "receiveFirst" : 21,
            "dnsEnd" : -1,
            "type" : "image/jpeg",
            "dns" : 0,
            "sendStart" : 22,
            "id" : "download_16",
            "receivedTime" : "182.993999973405",
            "sslEnd" : -1,
            "connectStart" : 0
         },
         "when_comp_start" : -1,
         "comps" : []
      },
      {
         "url" : "http://original.testbed.localhost/www.readytoforex.com/cms_images/wallstreet_italia.jpg",
         "when_comp_start" : -1,
         "comps" : [],
         "id" : "r18",
         "download" : {
            "dnsStart" : -1,
            "sendEnd" : 22,
            "receiveHeadersEnd" : 43,
            "connectEnd" : 22,
            "receiveLast" : 140.952999999747,
            "len" : 3396,
            "id" : "download_17",
            "receivedTime" : "183.952999999747",
            "sslEnd" : -1,
            "connectStart" : 0,
            "s_time" : 80.3479999885894,
            "sslStart" : -1,
            "dns" : 0,
            "type" : "image/jpeg",
            "sendStart" : 22,
            "dnsEnd" : -1,
            "receiveFirst" : 21
         }
      },
      {
         "id" : "r19",
         "download" : {
            "len" : 7292,
            "receiveLast" : 159.007999952883,
            "receiveHeadersEnd" : 25,
            "connectEnd" : 4,
            "dnsStart" : -1,
            "sendEnd" : 5,
            "dns" : 0,
            "type" : "image/jpeg",
            "sendStart" : 4,
            "receiveFirst" : 20,
            "dnsEnd" : -1,
            "s_time" : 98.0299999937415,
            "sslStart" : -1,
            "connectStart" : 0,
            "sslEnd" : -1,
            "id" : "download_18",
            "receivedTime" : "184.007999952883"
         },
         "comps" : [],
         "when_comp_start" : -1,
         "url" : "http://original.testbed.localhost/www.readytoforex.com/cms_images/logo_millionaire.jpg"
      },
      {
         "when_comp_start" : -1,
         "comps" : [],
         "download" : {
            "receiveHeadersEnd" : 20,
            "connectEnd" : 0,
            "dnsStart" : -1,
            "sendEnd" : 0,
            "len" : 1338,
            "receiveLast" : 164.089999995194,
            "connectStart" : 0,
            "sslEnd" : -1,
            "receivedTime" : "184.089999995194",
            "id" : "download_19",
            "type" : "image/jpeg",
            "dns" : 0,
            "sendStart" : 0,
            "receiveFirst" : 20,
            "dnsEnd" : -1,
            "s_time" : 116.447999957018,
            "sslStart" : -1
         },
         "id" : "r24",
         "url" : "http://original.testbed.localhost/www.readytoforex.com/cms_images/bg.jpg"
      },
      {
         "url" : "http://original.testbed.localhost/www.readytoforex.com/cms_images/bg_bottone.png",
         "comps" : [],
         "when_comp_start" : -1,
         "id" : "r26",
         "download" : {
            "receiveLast" : 164.176999959163,
            "len" : 1219,
            "sendEnd" : 0,
            "dnsStart" : -1,
            "connectEnd" : 0,
            "receiveHeadersEnd" : 20,
            "s_time" : 120.454999967478,
            "sslStart" : -1,
            "receiveFirst" : 20,
            "dnsEnd" : -1,
            "type" : "image/png",
            "dns" : 0,
            "sendStart" : 0,
            "id" : "download_20",
            "receivedTime" : "184.176999959163",
            "connectStart" : 0,
            "sslEnd" : -1
         }
      },
      {
         "url" : "http://original.testbed.localhost/www.readytoforex.com/cms_images/box_home.png",
         "when_comp_start" : -1,
         "comps" : [],
         "id" : "r25",
         "download" : {
            "id" : "download_21",
            "receivedTime" : "184.283999959007",
            "sslEnd" : -1,
            "connectStart" : 0,
            "s_time" : 120.266999991145,
            "sslStart" : -1,
            "receiveFirst" : 21,
            "dnsEnd" : -1,
            "dns" : 0,
            "type" : "image/png",
            "sendStart" : 3,
            "sendEnd" : 3,
            "dnsStart" : -1,
            "connectEnd" : 3,
            "receiveHeadersEnd" : 24,
            "receiveLast" : 160.283999959007,
            "len" : 1225
         }
      },
      {
         "url" : "http://original.testbed.localhost/fonts.gstatic.com/s/opensanscondensed/v10/gk5FxslNkTTHtojXrkp-xD1GzwQ5qF9DNzkQQVRhJ4g.ttf",
         "id" : "r20",
         "download" : {
            "sslStart" : -1,
            "s_time" : 182.837999949697,
            "receiveFirst" : 20,
            "dnsEnd" : -1,
            "sendStart" : 0,
            "type" : "application/octet-stream",
            "dns" : 0,
            "id" : "download_22",
            "receivedTime" : "204.388999962248",
            "sslEnd" : -1,
            "connectStart" : 0,
            "receiveLast" : 184.388999962248,
            "len" : 35172,
            "sendEnd" : 0,
            "dnsStart" : -1,
            "connectEnd" : 0,
            "receiveHeadersEnd" : 20
         },
         "comps" : [],
         "when_comp_start" : -1
      }
   ]
}
