{
   "load_activity" : -1,
   "deps" : [
      {
         "time" : -1,
         "id" : "dep1",
         "a2" : "r1_c2",
         "a1" : "comp_5"
      },
      {
         "id" : "dep2",
         "time" : -1,
         "a1" : "comp_23",
         "a2" : "r1_c3"
      },
      {
         "a1" : "comp_29",
         "a2" : "r1_c4",
         "id" : "dep3",
         "time" : -1
      },
      {
         "id" : "dep4",
         "time" : -1,
         "a1" : "comp_31",
         "a2" : "r1_c5"
      },
      {
         "id" : "dep5",
         "time" : -1,
         "a1" : "comp_5",
         "a2" : "comp_23"
      },
      {
         "a2" : "comp_31",
         "a1" : "comp_29",
         "time" : -1,
         "id" : "dep6"
      },
      {
         "id" : "dep7",
         "time" : -1,
         "a1" : "r1_c1",
         "a2" : "download_5"
      },
      {
         "id" : "dep8",
         "time" : 3.231999988202,
         "a1" : "r1_c1",
         "a2" : "download_5"
      },
      {
         "time" : -1,
         "id" : "dep9",
         "a2" : "download_4",
         "a1" : "r1_c1"
      },
      {
         "time" : 3.3720000064932,
         "id" : "dep10",
         "a2" : "download_4",
         "a1" : "r1_c1"
      },
      {
         "a1" : "r1_c1",
         "a2" : "download_3",
         "id" : "dep11",
         "time" : 3.1139999628067
      },
      {
         "id" : "dep12",
         "time" : 3.1139999628067,
         "a1" : "r1_c1",
         "a2" : "download_3"
      },
      {
         "a1" : "r1_c1",
         "a2" : "download_2",
         "id" : "dep13",
         "time" : 2.9629999771714
      },
      {
         "id" : "dep14",
         "time" : 0.754999986384099,
         "a1" : "r1_c1",
         "a2" : "download_1"
      }
   ],
   "objs" : [
      {
         "comps" : [
            {
               "time" : 3.3720000064932,
               "id" : "r1_c1",
               "s_time" : 31.8890000344254,
               "e_time" : 35.2610000409186,
               "type" : "evalhtml"
            },
            {
               "e_time" : -302668583.436,
               "type" : "evalhtml",
               "time" : -302668645.565,
               "s_time" : 62.1290000271983,
               "id" : "r1_c2"
            },
            {
               "time" : -302668689.823,
               "s_time" : 106.387000007089,
               "id" : "r1_c3",
               "type" : "evalhtml",
               "e_time" : -302668583.436
            },
            {
               "time" : -302668723.826,
               "id" : "r1_c4",
               "s_time" : 140.390000015032,
               "e_time" : -302668583.436,
               "type" : "evalhtml"
            },
            {
               "s_time" : 299.7880000039,
               "id" : "r1_c5",
               "time" : 7.70100002409902,
               "e_time" : 307.489000027999,
               "type" : "evalhtml"
            }
         ],
         "download" : {
            "len" : 14959,
            "connectEnd" : 0,
            "dns" : 0,
            "receiveLast" : 10.753999995999,
            "id" : "download_0",
            "connectStart" : 0,
            "sslEnd" : -1,
            "sslStart" : -1,
            "dnsStart" : -1,
            "sendEnd" : 0,
            "receiveHeadersEnd" : 21,
            "receivedTime" : "31.753999995999",
            "type" : "text/html",
            "receiveFirst" : 21,
            "s_time" : 0,
            "sendStart" : 0,
            "dnsEnd" : -1
         },
         "url" : "http://original.testbed.localhost/www.instagram.com/",
         "id" : "r1",
         "when_comp_start" : 1
      },
      {
         "download" : {
            "connectEnd" : 0,
            "dns" : 0,
            "len" : 11628,
            "sslEnd" : -1,
            "sslStart" : -1,
            "receiveLast" : 37.7750000413507,
            "connectStart" : 0,
            "id" : "download_1",
            "receivedTime" : "58.7750000413507",
            "type" : "application/javascript",
            "dnsStart" : -1,
            "sendEnd" : 0,
            "receiveHeadersEnd" : 21,
            "dnsEnd" : -1,
            "sendStart" : 0,
            "receiveFirst" : 21,
            "s_time" : 32.6440000208095
         },
         "comps" : [
            {
               "e_time" : 66.9670000206679,
               "type" : 3,
               "time" : 4.69600001815709,
               "s_time" : 62.2710000025108,
               "id" : "comp_6"
            }
         ],
         "url" : "http://original.testbed.localhost/instagramstatic-a.akamaihd.net/h1/scripts/webfont.js/c0456c81549b.js",
         "id" : "r2",
         "when_comp_start" : -1
      },
      {
         "when_comp_start" : -1,
         "id" : "r21",
         "url" : "http://original.testbed.localhost/instagramstatic-a.akamaihd.net/h1/scripts/polyfills/es5-shim.min.js/6514c5e08593.js",
         "comps" : [
            {
               "e_time" : 62.1290000271983,
               "type" : 1,
               "time" : 3.1810000073164,
               "id" : "comp_5",
               "s_time" : 58.9480000198819
            }
         ],
         "download" : {
            "dns" : 0,
            "connectEnd" : 1,
            "len" : 16324,
            "sslStart" : -1,
            "sslEnd" : -1,
            "connectStart" : 0,
            "id" : "download_2",
            "receiveLast" : 36.924000011757,
            "type" : "application/javascript",
            "receivedTime" : "58.924000011757",
            "receiveHeadersEnd" : 22,
            "dnsStart" : -1,
            "sendEnd" : 1,
            "sendStart" : 1,
            "dnsEnd" : -1,
            "s_time" : 34.8520000115968,
            "receiveFirst" : 21
         }
      },
      {
         "url" : "http://original.testbed.localhost/instagramstatic-a.akamaihd.net/h1/scripts/polyfills/es5-sham.min.js/fc3c22cf2d67.js",
         "download" : {
            "sslStart" : -1,
            "sslEnd" : -1,
            "receiveLast" : 61.7179999877699,
            "id" : "download_3",
            "connectStart" : 0,
            "connectEnd" : 19,
            "dns" : 0,
            "len" : 6758,
            "dnsEnd" : -1,
            "sendStart" : 19,
            "receiveFirst" : 24,
            "s_time" : 35.0029999972321,
            "type" : "application/javascript",
            "receivedTime" : "104.71799998777",
            "dnsStart" : -1,
            "sendEnd" : 19,
            "receiveHeadersEnd" : 43
         },
         "comps" : [
            {
               "id" : "comp_23",
               "s_time" : 104.776000021957,
               "time" : 1.610999985132,
               "e_time" : 106.387000007089,
               "type" : 1
            }
         ],
         "when_comp_start" : -1,
         "id" : "r22"
      },
      {
         "when_comp_start" : -1,
         "id" : "r24",
         "url" : "http://original.testbed.localhost/instagramstatic-a.akamaihd.net/h1/bundles/en_US_LandingPage.js/5e561f41ffd3.js",
         "download" : {
            "len" : 446323,
            "connectEnd" : 20,
            "dns" : 0,
            "receiveLast" : 100.875000002794,
            "connectStart" : 0,
            "id" : "download_4",
            "sslStart" : -1,
            "sslEnd" : -1,
            "sendEnd" : 20,
            "dnsStart" : 0,
            "receiveHeadersEnd" : 49,
            "type" : "application/javascript",
            "receivedTime" : "149.875000002794",
            "receiveFirst" : 29,
            "s_time" : 35.2610000409186,
            "sendStart" : 20,
            "dnsEnd" : 0
         },
         "comps" : [
            {
               "time" : 149.8239999637,
               "s_time" : 149.9640000402,
               "id" : "comp_31",
               "e_time" : 299.7880000039,
               "type" : 1
            }
         ]
      },
      {
         "id" : "r23",
         "when_comp_start" : -1,
         "comps" : [
            {
               "id" : "comp_29",
               "s_time" : 133.878000022378,
               "time" : 6.51199999265401,
               "e_time" : 140.390000015032,
               "type" : 1
            }
         ],
         "download" : {
            "sslStart" : -1,
            "sslEnd" : -1,
            "connectStart" : 0,
            "id" : "download_5",
            "receiveLast" : 80.9059999873862,
            "dns" : 0,
            "connectEnd" : 20,
            "len" : 244441,
            "dnsEnd" : 0,
            "sendStart" : 20,
            "s_time" : 35.1210000226274,
            "receiveFirst" : 29,
            "type" : "application/javascript",
            "receivedTime" : "129.905999987386",
            "receiveHeadersEnd" : 49,
            "dnsStart" : 0,
            "sendEnd" : 20
         },
         "url" : "http://original.testbed.localhost/instagramstatic-a.akamaihd.net/h1/bundles/en_US_Commons.js/4c3d7837950f.js"
      }
   ],
   "name" : "original.testbed.localhost_www.instagram.com_",
   "n_download_no_trigger" : 1,
   "start_activity" : "download_0"
}
