{
   "deps" : [
      {
         "id" : "dep1",
         "a1" : "comp_12",
         "time" : -1,
         "a2" : "r1_c2"
      },
      {
         "a2" : "r1_c3",
         "time" : -1,
         "id" : "dep2",
         "a1" : "comp_50"
      },
      {
         "id" : "dep3",
         "a1" : "comp_132",
         "a2" : "r1_c4",
         "time" : -1
      },
      {
         "id" : "dep4",
         "a1" : "comp_5",
         "time" : -1,
         "a2" : "comp_12"
      },
      {
         "id" : "dep5",
         "a1" : "comp_12",
         "a2" : "comp_50",
         "time" : -1
      },
      {
         "time" : -1,
         "a2" : "download_21",
         "a1" : "r1_c4",
         "id" : "dep6"
      },
      {
         "a2" : "download_20",
         "time" : 46.76500000642,
         "id" : "dep7",
         "a1" : "r1_c4"
      },
      {
         "time" : 505.33300000825,
         "a2" : "download_19",
         "id" : "dep8",
         "a1" : "r1_c4"
      },
      {
         "a1" : "r1_c4",
         "id" : "dep9",
         "a2" : "download_18",
         "time" : 10.1319999958
      },
      {
         "time" : 26.8420000065898,
         "a2" : "download_17",
         "a1" : "r1_c4",
         "id" : "dep10"
      },
      {
         "a2" : "download_16",
         "time" : -1,
         "id" : "dep11",
         "a1" : "r1_c3"
      },
      {
         "a1" : "r1_c3",
         "id" : "dep12",
         "time" : 87.723999997252,
         "a2" : "download_15"
      },
      {
         "time" : 91.268999996828,
         "a2" : "download_14",
         "a1" : "r1_c3",
         "id" : "dep13"
      },
      {
         "a1" : "r1_c3",
         "id" : "dep14",
         "a2" : "download_14",
         "time" : 91.268999996828
      },
      {
         "time" : -1,
         "a2" : "download_13",
         "a1" : "r1_c2",
         "id" : "dep15"
      },
      {
         "time" : 41.765999994823,
         "a2" : "download_13",
         "a1" : "r1_c2",
         "id" : "dep16"
      },
      {
         "time" : -1,
         "a2" : "download_12",
         "id" : "dep17",
         "a1" : "r1_c1"
      },
      {
         "a1" : "r1_c1",
         "id" : "dep18",
         "a2" : "download_11",
         "time" : 153.297999990173
      },
      {
         "a1" : "r1_c1",
         "id" : "dep19",
         "time" : 152.433999988716,
         "a2" : "download_10"
      },
      {
         "a2" : "download_9",
         "time" : 148.872999998276,
         "a1" : "r1_c1",
         "id" : "dep20"
      },
      {
         "a2" : "download_8",
         "time" : 140.963999991073,
         "id" : "dep21",
         "a1" : "r1_c1"
      },
      {
         "time" : 137.424999993528,
         "a2" : "download_7",
         "id" : "dep22",
         "a1" : "r1_c1"
      },
      {
         "a2" : "download_6",
         "time" : 136.661999989883,
         "id" : "dep23",
         "a1" : "r1_c1"
      },
      {
         "id" : "dep24",
         "a1" : "r1_c1",
         "a2" : "download_5",
         "time" : 12.2489999921527
      },
      {
         "time" : 12.2489999921527,
         "a2" : "download_5",
         "a1" : "r1_c1",
         "id" : "dep25"
      },
      {
         "a2" : "download_4",
         "time" : 9.3049999995856,
         "id" : "dep26",
         "a1" : "r1_c1"
      },
      {
         "a2" : "download_3",
         "time" : 9.12399998924229,
         "a1" : "r1_c1",
         "id" : "dep27"
      },
      {
         "a2" : "download_2",
         "time" : 13.000999999349,
         "a1" : "r1_c1",
         "id" : "dep28"
      },
      {
         "time" : 7.0899999991525,
         "a2" : "download_1",
         "id" : "dep29",
         "a1" : "r1_c1"
      }
   ],
   "objs" : [
      {
         "url" : "http://original.testbed.localhost/www.yandex.ru/",
         "download" : {
            "receiveFirst" : 52,
            "sslStart" : -1,
            "connectEnd" : 0,
            "receiveHeadersEnd" : 52,
            "s_time" : 0,
            "dnsEnd" : -1,
            "dns" : 0,
            "id" : "download_0",
            "dnsStart" : -1,
            "receiveLast" : 51.1199999997625,
            "sendStart" : 0,
            "connectStart" : 0,
            "sendEnd" : 0,
            "receivedTime" : "103.119999999763",
            "type" : "text/html",
            "len" : 58160,
            "sslEnd" : -1
         },
         "id" : "r1",
         "when_comp_start" : 1,
         "comps" : [
            {
               "time" : 153.676999994787,
               "e_time" : 223.066000005929,
               "type" : "evalhtml",
               "s_time" : 69.3890000111423,
               "id" : "r1_c1"
            },
            {
               "type" : "evalhtml",
               "e_time" : 294.143000006443,
               "time" : 41.765999994823,
               "id" : "r1_c2",
               "s_time" : 252.37700001162
            },
            {
               "s_time" : 437.819000013405,
               "id" : "r1_c3",
               "time" : 186.263999989024,
               "type" : "evalhtml",
               "e_time" : 624.083000002429
            },
            {
               "s_time" : 2932.01000000408,
               "id" : "r1_c4",
               "time" : 593.64300000016,
               "e_time" : 3525.65300000424,
               "type" : "evalhtml"
            }
         ]
      },
      {
         "url" : "http://original.testbed.localhost/yastatic.net/www/_/W/h/JpUEsoew7n29f5ZIJTrVoDt8o.css",
         "download" : {
            "sslEnd" : -1,
            "len" : 174556,
            "type" : "text/css",
            "sendEnd" : 0,
            "receivedTime" : "185.388000012608",
            "connectStart" : 0,
            "dnsStart" : -1,
            "receiveLast" : 128.388000012608,
            "sendStart" : 0,
            "id" : "download_1",
            "dnsEnd" : -1,
            "dns" : 0,
            "s_time" : 76.4790000102948,
            "connectEnd" : 0,
            "receiveHeadersEnd" : 57,
            "sslStart" : -1,
            "receiveFirst" : 57
         },
         "comps" : [
            {
               "time" : 37.976999999955,
               "e_time" : 223.450000004959,
               "type" : 4,
               "s_time" : 185.473000005004,
               "id" : "comp_5"
            }
         ],
         "when_comp_start" : -1,
         "id" : "r2"
      },
      {
         "comps" : [
            {
               "time" : 28.344999998808,
               "e_time" : 252.37700001162,
               "type" : 1,
               "s_time" : 224.032000012812,
               "id" : "comp_12"
            }
         ],
         "id" : "r5",
         "when_comp_start" : -1,
         "download" : {
            "dnsStart" : -1,
            "sendStart" : 21,
            "receiveLast" : 146.966000005021,
            "dns" : 0,
            "dnsEnd" : -1,
            "id" : "download_2",
            "s_time" : 82.3900000104913,
            "connectEnd" : 21,
            "receiveHeadersEnd" : 77,
            "sslStart" : -1,
            "receiveFirst" : 56,
            "sslEnd" : -1,
            "len" : 93637,
            "type" : "application/javascript",
            "sendEnd" : 21,
            "receivedTime" : "223.966000005021",
            "connectStart" : 0
         },
         "url" : "http://original.testbed.localhost/yastatic.net/jquery/1.8.3/jquery.min.js"
      },
      {
         "download" : {
            "len" : 43,
            "sslEnd" : -1,
            "connectStart" : 0,
            "receivedTime" : "180.772000006982",
            "sendEnd" : 50,
            "type" : "image/gif",
            "s_time" : 78.5130000003846,
            "dnsEnd" : -1,
            "dns" : 0,
            "id" : "download_3",
            "receiveLast" : 79.7720000069821,
            "sendStart" : 50,
            "dnsStart" : -1,
            "receiveFirst" : 51,
            "sslStart" : -1,
            "receiveHeadersEnd" : 101,
            "connectEnd" : 50
         },
         "comps" : [],
         "when_comp_start" : -1,
         "id" : "r3",
         "url" : "http://original.testbed.localhost/yastatic.net/lego/_/La6qi18Z8LwgnZdsAr1qy1GwCwo.gif"
      },
      {
         "download" : {
            "sslEnd" : -1,
            "len" : 2006,
            "receivedTime" : "183.622000011383",
            "sendEnd" : 53,
            "connectStart" : 0,
            "type" : "image/png",
            "id" : "download_4",
            "dnsEnd" : -1,
            "dns" : 0,
            "s_time" : 78.6940000107279,
            "sendStart" : 53,
            "receiveLast" : 79.6220000113826,
            "dnsStart" : -1,
            "sslStart" : -1,
            "receiveFirst" : 51,
            "receiveHeadersEnd" : 104,
            "connectEnd" : 53
         },
         "id" : "r4",
         "when_comp_start" : -1,
         "comps" : [],
         "url" : "http://original.testbed.localhost/yabs.yandex.ru/count/BJ0AtbmI5h040000gPA088wwS-jo1L6L0fi6QLg8k0Rn2WUcXGcAfOGlQwe2fPOOPDq1tf0az96yq4ba1fELAWT1hlBh02vY8_ea0h41ig0000Ax-hDDyD-ZgkC5mV__________3yMF3zB__________m_J__________yFs_hpfcFdewhZ1T-LAWTu4000"
      },
      {
         "comps" : [
            {
               "s_time" : 342.071000006399,
               "id" : "comp_50",
               "time" : 95.748000007006,
               "e_time" : 437.819000013405,
               "type" : 1
            }
         ],
         "id" : "r6",
         "when_comp_start" : -1,
         "download" : {
            "connectStart" : 0,
            "sendEnd" : 47,
            "receivedTime" : "341.978000011295",
            "type" : "application/javascript",
            "len" : 524175,
            "sslEnd" : -1,
            "receiveFirst" : 58,
            "sslStart" : -1,
            "connectEnd" : 47,
            "receiveHeadersEnd" : 105,
            "s_time" : 81.638000003295,
            "dnsEnd" : -1,
            "id" : "download_5",
            "dns" : 0,
            "dnsStart" : -1,
            "sendStart" : 47,
            "receiveLast" : 236.978000011295
         },
         "url" : "http://original.testbed.localhost/yastatic.net/www/2.773/white/pages/bender/_bender.ru.js"
      },
      {
         "url" : "http://original.testbed.localhost/yastatic.net/www/_/B/8/eOwa4HB-JnzSOAZiWnu0hWGAk.svg",
         "download" : {
            "s_time" : 206.051000001025,
            "dnsEnd" : -1,
            "id" : "download_6",
            "dns" : 0,
            "sendStart" : 0,
            "receiveLast" : 243.204000005266,
            "dnsStart" : -1,
            "receiveFirst" : 51,
            "sslStart" : -1,
            "receiveHeadersEnd" : 51,
            "connectEnd" : 0,
            "len" : 165,
            "sslEnd" : -1,
            "connectStart" : 0,
            "receivedTime" : "294.204000005266",
            "sendEnd" : 0,
            "type" : "image/svg+xml"
         },
         "comps" : [],
         "id" : "r8",
         "when_comp_start" : -1
      },
      {
         "url" : "http://original.testbed.localhost/yastatic.net/www/_/p/k/Ukz467obo_3uDombR0JDzV0ao.svg",
         "id" : "r9",
         "when_comp_start" : -1,
         "comps" : [],
         "download" : {
            "type" : "image/svg+xml",
            "connectStart" : 0,
            "sendEnd" : 0,
            "receivedTime" : "298.378999999841",
            "len" : 150,
            "sslEnd" : -1,
            "connectEnd" : 0,
            "receiveHeadersEnd" : 51,
            "receiveFirst" : 51,
            "sslStart" : -1,
            "dnsStart" : -1,
            "sendStart" : 0,
            "receiveLast" : 247.378999999841,
            "s_time" : 206.81400000467,
            "dnsEnd" : -1,
            "dns" : 0,
            "id" : "download_7"
         }
      },
      {
         "url" : "http://original.testbed.localhost/yastatic.net/morda-logo/i/bender/logo.svg",
         "when_comp_start" : -1,
         "id" : "r10",
         "comps" : [],
         "download" : {
            "type" : "image/svg+xml",
            "connectStart" : 0,
            "receivedTime" : "301.464000003762",
            "sendEnd" : 0,
            "len" : 1667,
            "sslEnd" : -1,
            "receiveHeadersEnd" : 51,
            "connectEnd" : 0,
            "receiveFirst" : 51,
            "sslStart" : -1,
            "sendStart" : 0,
            "receiveLast" : 250.464000003762,
            "dnsStart" : -1,
            "s_time" : 210.353000002215,
            "dnsEnd" : -1,
            "id" : "download_8",
            "dns" : 0
         }
      },
      {
         "url" : "http://original.testbed.localhost/yastatic.net/www/_/e/S/-nxtWWJ1LfBWLfd096swuFjH4.svg",
         "download" : {
            "connectEnd" : 0,
            "receiveHeadersEnd" : 52,
            "sslStart" : -1,
            "receiveFirst" : 52,
            "dnsStart" : -1,
            "sendStart" : 0,
            "receiveLast" : 252.693000012776,
            "dnsEnd" : -1,
            "id" : "download_9",
            "dns" : 0,
            "s_time" : 218.262000009418,
            "type" : "image/svg+xml",
            "sendEnd" : 0,
            "receivedTime" : "304.693000012776",
            "connectStart" : 0,
            "sslEnd" : -1,
            "len" : 169
         },
         "id" : "r11",
         "when_comp_start" : -1,
         "comps" : []
      },
      {
         "comps" : [],
         "when_comp_start" : -1,
         "id" : "r12",
         "download" : {
            "len" : 438,
            "sslEnd" : -1,
            "connectStart" : 0,
            "sendEnd" : 0,
            "receivedTime" : "308.715000006487",
            "type" : "image/svg+xml",
            "s_time" : 221.822999999858,
            "dnsEnd" : -1,
            "dns" : 0,
            "id" : "download_10",
            "dnsStart" : -1,
            "sendStart" : 0,
            "receiveLast" : 256.715000006487,
            "receiveFirst" : 52,
            "sslStart" : -1,
            "connectEnd" : 0,
            "receiveHeadersEnd" : 52
         },
         "url" : "http://original.testbed.localhost/yastatic.net/www/_/f/E/N0Wcq_xMyOcvQaeQ2yi3uUJtM.svg"
      },
      {
         "url" : "http://original.testbed.localhost/yastatic.net/www/_/w/I/BX8CA8KM38KQeLwNhKogm-YvY.png",
         "when_comp_start" : -1,
         "id" : "r13",
         "comps" : [],
         "download" : {
            "sslEnd" : -1,
            "len" : 20136,
            "type" : "image/png",
            "sendEnd" : 35,
            "receivedTime" : "315.830000006827",
            "connectStart" : 0,
            "dnsStart" : -1,
            "sendStart" : 35,
            "receiveLast" : 229.830000006827,
            "dnsEnd" : -1,
            "dns" : 0,
            "id" : "download_11",
            "s_time" : 222.687000001315,
            "connectEnd" : 35,
            "receiveHeadersEnd" : 86,
            "sslStart" : -1,
            "receiveFirst" : 51
         }
      },
      {
         "url" : "http://original.testbed.localhost/yastatic.net/morda-logo/i/disaster/hockey2016_flags_white.png",
         "comps" : [],
         "when_comp_start" : -1,
         "id" : "r14",
         "download" : {
            "len" : 15788,
            "sslEnd" : -1,
            "connectStart" : 0,
            "sendEnd" : 35,
            "receivedTime" : "525.703000006615",
            "type" : "image/png",
            "s_time" : 223.066000005929,
            "dns" : 0,
            "dnsEnd" : -1,
            "id" : "download_12",
            "dnsStart" : -1,
            "sendStart" : 35,
            "receiveLast" : 439.703000006615,
            "receiveFirst" : 51,
            "sslStart" : -1,
            "connectEnd" : 35,
            "receiveHeadersEnd" : 86
         }
      },
      {
         "id" : "r15",
         "when_comp_start" : -1,
         "comps" : [
            {
               "time" : 13.1169999949602,
               "e_time" : 2932.01000000408,
               "type" : 1,
               "s_time" : 2918.89300000912,
               "id" : "comp_132"
            }
         ],
         "download" : {
            "dnsStart" : -1,
            "sendStart" : 0,
            "receiveLast" : 471.94200000749,
            "dns" : 0,
            "dnsEnd" : -1,
            "id" : "download_13",
            "s_time" : 294.143000006443,
            "connectEnd" : 0,
            "receiveHeadersEnd" : 54,
            "sslStart" : -1,
            "receiveFirst" : 54,
            "sslEnd" : -1,
            "len" : 67566,
            "type" : "application/javascript",
            "sendEnd" : 0,
            "receivedTime" : "525.94200000749",
            "connectStart" : 0
         },
         "url" : "http://original.testbed.localhost/mc.yandex.ru/metrika/watch.js"
      },
      {
         "comps" : [],
         "id" : "r17",
         "when_comp_start" : -1,
         "download" : {
            "len" : 43,
            "sslEnd" : -1,
            "connectStart" : 0,
            "receivedTime" : "581.084000004921",
            "sendEnd" : 0,
            "type" : "image/gif",
            "s_time" : 529.088000010233,
            "dnsEnd" : -1,
            "id" : "download_14",
            "dns" : 0,
            "sendStart" : 0,
            "receiveLast" : 530.084000004921,
            "dnsStart" : -1,
            "receiveFirst" : 51,
            "sslStart" : -1,
            "receiveHeadersEnd" : 51,
            "connectEnd" : 0
         },
         "url" : "http://original.testbed.localhost/yabs.yandex.ru/count/BJ0AtlHKoKG40000gOA0Zhfpwt85KP6yq4ba1fELAWUkyki0Bc8Z-YG2k_gpJV3VewhZ1S7__________m_R-lEcO-UZgkC5V0S0=Uj74OvK2cmPfMegbX2zhfPOOP8Yu1l4A1wQ52Tq1tf0azB41ig0000B5Zm_I__________yFq___________3y80tvKg1te8%3Fwmode=0"
      },
      {
         "url" : "http://yastatic.net/www/_/k/R/OtuR2mFNiQ9SrxJ3DL3-R4WNA.css",
         "when_comp_start" : -1,
         "id" : "r16",
         "comps" : [
            {
               "time" : 124.06499999634,
               "e_time" : 2976.13000001002,
               "type" : 2,
               "s_time" : 2852.06500001368,
               "id" : "comp_65"
            }
         ],
         "download" : {
            "receiveLast" : 2725.02000000572,
            "sendStart" : 50,
            "dnsStart" : -1,
            "dnsEnd" : -1,
            "dns" : 0,
            "id" : "download_15",
            "s_time" : 525.543000010657,
            "receiveHeadersEnd" : 127,
            "connectEnd" : 50,
            "sslStart" : -1,
            "receiveFirst" : 77,
            "sslEnd" : -1,
            "len" : 37347,
            "type" : "text/css",
            "receivedTime" : "2852.02000000572",
            "sendEnd" : 50,
            "connectStart" : 0
         }
      },
      {
         "when_comp_start" : -1,
         "id" : "r19",
         "comps" : [],
         "download" : {
            "len" : 43,
            "sslEnd" : 632,
            "connectStart" : 0,
            "sendEnd" : 632,
            "receivedTime" : "2976.65400001279",
            "type" : "image/gif",
            "s_time" : 624.083000002429,
            "dns" : 0,
            "dnsEnd" : -1,
            "id" : "download_16",
            "dnsStart" : -1,
            "receiveLast" : 2156.65400001279,
            "sendStart" : 632,
            "receiveFirst" : 188,
            "sslStart" : 433,
            "connectEnd" : 632,
            "receiveHeadersEnd" : 820
         },
         "url" : "https://awaps.yandex.net/99/c1/tx21lszVAoU5vGvVMTT5HdZERv2r9iSDrNklH+KEivNHhTuBiTO3tKarderqf_tPQRryjJ16-yO4jiU3q3iSp9Tymqf7OiMZlOzRSK97IllSSjSI51pU6MEUN+j_t4dfzKEgGq6zHgOX+3sxsjDMPXCKWTAQI9Ut3giiz5URK0KocyjCxL3WIaEa4_tnDxIKSQn0yyCjl6DK7y5Z+NrhIv4EZv0b2Hy-aCKBvWfo0Ey-smjAMfWHyJL_tzfoKOk83ORlf7atJYHWZ"
      },
      {
         "download" : {
            "id" : "download_17",
            "dnsEnd" : -1,
            "dns" : 0,
            "s_time" : 2958.85200001067,
            "receiveLast" : 2960.21300000523,
            "sendStart" : 0,
            "dnsStart" : -1,
            "sslStart" : -1,
            "receiveFirst" : 51,
            "receiveHeadersEnd" : 51,
            "connectEnd" : 0,
            "sslEnd" : -1,
            "len" : 43,
            "receivedTime" : "3011.21300000523",
            "sendEnd" : 0,
            "connectStart" : 0,
            "type" : "image/gif"
         },
         "id" : "r22",
         "when_comp_start" : -1,
         "comps" : [],
         "url" : "http://original.testbed.localhost/www.tns-counter.ru/V13a**ee5909af320772dd40b91c9721c358ab**yandex_ru/ru/CP1251/tmsec=yandex_main/0"
      },
      {
         "url" : "https://mc.yandex.ru/metrika/advert.gif",
         "id" : "r20",
         "when_comp_start" : -1,
         "comps" : [],
         "download" : {
            "dnsEnd" : -1,
            "id" : "download_18",
            "dns" : 0,
            "s_time" : 2942.14199999988,
            "dnsStart" : -1,
            "sendStart" : 350,
            "receiveLast" : 2943.53000001318,
            "sslStart" : 199,
            "receiveFirst" : 141,
            "connectEnd" : 350,
            "receiveHeadersEnd" : 491,
            "sslEnd" : 350,
            "len" : 43,
            "sendEnd" : 350,
            "receivedTime" : "3434.53000001318",
            "connectStart" : 0,
            "type" : "image/gif"
         }
      },
      {
         "download" : {
            "len" : 92,
            "sslEnd" : -1,
            "connectStart" : 0,
            "receivedTime" : "3582.22700000624",
            "sendEnd" : 0,
            "type" : "application/javascript",
            "s_time" : 3437.34300001233,
            "dns" : 0,
            "dnsEnd" : -1,
            "id" : "download_19",
            "receiveLast" : 3438.22700000624,
            "sendStart" : 0,
            "dnsStart" : -1,
            "receiveFirst" : 144,
            "sslStart" : -1,
            "receiveHeadersEnd" : 144,
            "connectEnd" : 0
         },
         "comps" : [],
         "id" : "r21",
         "when_comp_start" : -1,
         "url" : "https://mc.yandex.ru/watch/722545/1?wmode=5&callback=_ymjsp709587768&page-url=http%3A%2F%2Foriginal.testbed.localhost%2Fwww.yandex.ru%2F&browser-info=j%3A1%3As%3A1920x1080x24%3Ask%3A1%3Afpr%3A380312001101%3Acn%3A1%3Aw%3A904x868%3Az%3A-240%3Ai%3A20160514234042%3Aet%3A1463283642%3Aen%3Autf-8%3Av%3A685"
      },
      {
         "url" : "https://yandex.ru/clck/click/dtype=stred/pid=1/cid=72202/reqid=1462679354.78321.22900.6898/path=690.1033/vars=143=28.15.899,287=103518,1036=86,1037=0,1038=0,1039=53,1040=50,1041=40,1042=Mozilla%2F5.0%20(X11%3B%20Linux%20x86_64)%20AppleWebKit%2F537.36%20(KHTML%2C%20like%20Gecko)%20Chrome%2F31.0.1626.",
         "comps" : [],
         "when_comp_start" : -1,
         "id" : "r25",
         "download" : {
            "len" : 43,
            "sslEnd" : 477,
            "type" : "image/gif",
            "connectStart" : 0,
            "receivedTime" : "3621.18700001156",
            "sendEnd" : 477,
            "receiveLast" : 2980.18700001156,
            "sendStart" : 477,
            "dnsStart" : -1,
            "s_time" : 2978.7750000105,
            "dns" : 0,
            "dnsEnd" : -1,
            "id" : "download_20",
            "receiveHeadersEnd" : 641,
            "connectEnd" : 477,
            "receiveFirst" : 164,
            "sslStart" : 308
         }
      },
      {
         "id" : "r23",
         "when_comp_start" : -1,
         "comps" : [],
         "download" : {
            "sslEnd" : -1,
            "len" : 1654,
            "type" : "application/x-shockwave-flash",
            "receivedTime" : "3715.14100000786",
            "sendEnd" : 0,
            "connectStart" : 0,
            "receiveLast" : 3527.14100000786,
            "sendStart" : 0,
            "dnsStart" : -1,
            "dnsEnd" : -1,
            "dns" : 0,
            "id" : "download_21",
            "s_time" : 3525.65300000424,
            "receiveHeadersEnd" : 188,
            "connectEnd" : 0,
            "sslStart" : -1,
            "receiveFirst" : 188
         },
         "url" : "http://kiks.yandex.ru/system/fc07.swf"
      }
   ],
   "load_activity" : -1,
   "start_activity" : "download_0",
   "name" : "original.testbed.localhost_www.yandex.ru_",
   "n_download_no_trigger" : 1
}
