{
   "name" : "original.testbed.localhost_www.youtube.com_",
   "load_activity" : -1,
   "n_download_no_trigger" : 1,
   "start_activity" : "download_0",
   "objs" : [
      {
         "comps" : [
            {
               "id" : "r1_c1",
               "e_time" : 75.7100000046194,
               "s_time" : 70.6500000087544,
               "type" : "evalhtml",
               "time" : 5.059999995865
            },
            {
               "type" : "evalhtml",
               "time" : 403.232000011485,
               "id" : "r1_c2",
               "e_time" : 560.80400000792,
               "s_time" : 157.571999996435
            },
            {
               "time" : -80476079.427,
               "type" : "evalhtml",
               "s_time" : 693.387000006624,
               "id" : "r1_c3",
               "e_time" : -80475386.04
            },
            {
               "type" : "evalhtml",
               "time" : 2.28000000061002,
               "e_time" : 752.646000008099,
               "s_time" : 750.366000007489,
               "id" : "r1_c4"
            }
         ],
         "id" : "r1",
         "url" : "http://original.testbed.localhost/www.youtube.com/",
         "download" : {
            "dnsStart" : -1,
            "len" : 413820,
            "dns" : 0,
            "s_time" : 0,
            "receiveFirst" : 57,
            "sslStart" : -1,
            "sendEnd" : 0,
            "type" : "text/html",
            "receivedTime" : "161.351000002469",
            "connectEnd" : 0,
            "connectStart" : 0,
            "id" : "download_0",
            "receiveLast" : 104.351000002469,
            "receiveHeadersEnd" : 57,
            "sslEnd" : -1,
            "sendStart" : 0,
            "dnsEnd" : -1
         },
         "when_comp_start" : 1
      },
      {
         "url" : "http://original.testbed.localhost/s.ytimg.com/yts/jsbin/scheduler-vfl2Ljsz3/scheduler.js",
         "id" : "r6",
         "comps" : [
            {
               "time" : 3.059999988182,
               "type" : 1,
               "id" : "comp_12",
               "e_time" : 157.571999996435,
               "s_time" : 154.512000008253
            }
         ],
         "when_comp_start" : -1,
         "download" : {
            "receivedTime" : "154.454999996233",
            "id" : "download_1",
            "connectStart" : 0,
            "connectEnd" : 1,
            "receiveLast" : 102.454999996233,
            "receiveHeadersEnd" : 52,
            "sslEnd" : -1,
            "sendStart" : 1,
            "dnsEnd" : -1,
            "dnsStart" : -1,
            "len" : 3912,
            "dns" : 0,
            "receiveFirst" : 51,
            "s_time" : 75.1520000048913,
            "sendEnd" : 1,
            "sslStart" : -1,
            "type" : "application/javascript"
         }
      },
      {
         "id" : "r11",
         "comps" : [],
         "url" : "http://original.testbed.localhost/s.ytimg.com/yts/img/pixel-vfl3z5WfW.gif",
         "download" : {
            "receiveLast" : 77.2170000009937,
            "receiveHeadersEnd" : 103,
            "receivedTime" : "180.217000000994",
            "id" : "download_2",
            "connectStart" : 0,
            "connectEnd" : 52,
            "sendStart" : 52,
            "dnsEnd" : -1,
            "sslEnd" : -1,
            "len" : 43,
            "dnsStart" : -1,
            "sendEnd" : 52,
            "sslStart" : -1,
            "type" : "image/gif",
            "dns" : 0,
            "receiveFirst" : 51,
            "s_time" : 75.7100000046194
         },
         "when_comp_start" : -1
      },
      {
         "when_comp_start" : -1,
         "download" : {
            "receivedTime" : "181.584999998449",
            "id" : "download_3",
            "connectStart" : 0,
            "connectEnd" : 51,
            "receiveHeadersEnd" : 105,
            "receiveLast" : 76.5849999984493,
            "sslEnd" : -1,
            "sendStart" : 51,
            "dnsEnd" : -1,
            "dnsStart" : -1,
            "len" : 16923,
            "dns" : 0,
            "receiveFirst" : 54,
            "s_time" : 75.6229999969946,
            "sslStart" : -1,
            "sendEnd" : 51,
            "type" : "text/css"
         },
         "url" : "http://original.testbed.localhost/s.ytimg.com/yts/cssbin/www-guide-vflmYVKfq.css",
         "id" : "r10",
         "comps" : [
            {
               "id" : "comp_24",
               "e_time" : 183.260999998311,
               "s_time" : 181.649999998626,
               "type" : 4,
               "time" : 1.61099999968502
            }
         ]
      },
      {
         "download" : {
            "dns" : 0,
            "s_time" : 75.5280000012135,
            "receiveFirst" : 55,
            "sslStart" : -1,
            "sendEnd" : 51,
            "type" : "text/css",
            "dnsStart" : -1,
            "len" : 51075,
            "sslEnd" : -1,
            "sendStart" : 51,
            "dnsEnd" : -1,
            "receivedTime" : "183.744000009028",
            "id" : "download_4",
            "connectStart" : 0,
            "connectEnd" : 51,
            "receiveLast" : 77.7440000090282,
            "receiveHeadersEnd" : 106
         },
         "when_comp_start" : -1,
         "comps" : [
            {
               "id" : "comp_25",
               "e_time" : 187.566000007791,
               "s_time" : 183.788000009372,
               "time" : 3.77799999841898,
               "type" : 4
            }
         ],
         "id" : "r9",
         "url" : "http://original.testbed.localhost/s.ytimg.com/yts/cssbin/www-pageframe-vflNP8pTX.css"
      },
      {
         "when_comp_start" : -1,
         "download" : {
            "type" : "text/css",
            "sslStart" : -1,
            "sendEnd" : 51,
            "s_time" : 75.433999998495,
            "receiveFirst" : 56,
            "dns" : 0,
            "len" : 130037,
            "dnsStart" : -1,
            "dnsEnd" : -1,
            "sendStart" : 51,
            "sslEnd" : -1,
            "receiveHeadersEnd" : 107,
            "receiveLast" : 127.175999998115,
            "connectStart" : 0,
            "connectEnd" : 51,
            "id" : "download_5",
            "receivedTime" : "234.175999998115"
         },
         "url" : "http://original.testbed.localhost/s.ytimg.com/yts/cssbin/www-home-c4-vflW6eIpi.css",
         "comps" : [
            {
               "time" : 6.46400000550798,
               "type" : 4,
               "id" : "comp_28",
               "e_time" : 240.7680000033,
               "s_time" : 234.303999997792
            }
         ],
         "id" : "r8"
      },
      {
         "url" : "http://original.testbed.localhost/s.ytimg.com/yts/cssbin/www-core-vfltm8NQD.css",
         "id" : "r7",
         "comps" : [
            {
               "id" : "comp_29",
               "e_time" : 410.713000004762,
               "s_time" : 241.517000002204,
               "time" : 169.196000002558,
               "type" : 4
            }
         ],
         "when_comp_start" : -1,
         "download" : {
            "sslEnd" : -1,
            "dnsEnd" : -1,
            "sendStart" : 51,
            "connectStart" : 0,
            "connectEnd" : 51,
            "id" : "download_6",
            "receivedTime" : "241.451000008965",
            "receiveLast" : 129.451000008965,
            "receiveHeadersEnd" : 112,
            "s_time" : 75.3289999993285,
            "receiveFirst" : 61,
            "dns" : 0,
            "type" : "text/css",
            "sslStart" : -1,
            "sendEnd" : 51,
            "dnsStart" : -1,
            "len" : 230587
         }
      },
      {
         "download" : {
            "sendEnd" : 1,
            "sslStart" : -1,
            "type" : "image/jpeg",
            "dns" : 0,
            "s_time" : 157.877000005101,
            "receiveFirst" : 51,
            "len" : 35012,
            "dnsStart" : -1,
            "sendStart" : 1,
            "dnsEnd" : -1,
            "sslEnd" : -1,
            "receiveHeadersEnd" : 52,
            "receiveLast" : 457.816999998293,
            "receivedTime" : "509.816999998293",
            "id" : "download_7",
            "connectStart" : 0,
            "connectEnd" : 1
         },
         "when_comp_start" : -1,
         "id" : "r12",
         "comps" : [],
         "url" : "http://original.testbed.localhost/i.ytimg.com/vi/c7nRTF2SowQ/hqdefault.jpg"
      },
      {
         "url" : "http://original.testbed.localhost/i.ytimg.com/vi/WB4sGX0R5ak/hqdefault.jpg%3Fcustom=true&w=196&h=110&stc=true&jpg444=true&jpgq=90&sp=68&sigh=5SdaWj2QQHG2j7a3Si7SksjMlc4",
         "comps" : [],
         "id" : "r13",
         "when_comp_start" : -1,
         "download" : {
            "receiveLast" : 158.958999997005,
            "receiveHeadersEnd" : 73,
            "receivedTime" : "231.958999997005",
            "connectEnd" : 22,
            "connectStart" : 0,
            "id" : "download_8",
            "sendStart" : 22,
            "dnsEnd" : -1,
            "sslEnd" : -1,
            "len" : 9298,
            "dnsStart" : -1,
            "sendEnd" : 22,
            "sslStart" : -1,
            "type" : "image/jpeg",
            "dns" : 0,
            "receiveFirst" : 51,
            "s_time" : 158.189000008861
         }
      },
      {
         "url" : "http://original.testbed.localhost/i.ytimg.com/vi/Pgmx7z49OEk/hqdefault.jpg%3Fcustom=true&w=196&h=110&stc=true&jpg444=true&jpgq=90&sp=68&sigh=lMtlhOREHjDkUY3T6WoiUEQKhgc",
         "id" : "r14",
         "comps" : [],
         "when_comp_start" : -1,
         "download" : {
            "receivedTime" : "232.938000001013",
            "id" : "download_9",
            "connectEnd" : 23,
            "connectStart" : 0,
            "receiveHeadersEnd" : 74,
            "receiveLast" : 158.938000001013,
            "sslEnd" : -1,
            "sendStart" : 23,
            "dnsEnd" : -1,
            "dnsStart" : -1,
            "len" : 7974,
            "dns" : 0,
            "s_time" : 158.249000000069,
            "receiveFirst" : 51,
            "sendEnd" : 23,
            "sslStart" : -1,
            "type" : "image/jpeg"
         }
      },
      {
         "when_comp_start" : -1,
         "download" : {
            "dnsEnd" : -1,
            "sendStart" : 24,
            "sslEnd" : -1,
            "receiveHeadersEnd" : 76,
            "receiveLast" : 165.130000009434,
            "connectEnd" : 24,
            "connectStart" : 0,
            "id" : "download_10",
            "receivedTime" : "241.130000009434",
            "type" : "image/jpeg",
            "sslStart" : -1,
            "sendEnd" : 24,
            "receiveFirst" : 52,
            "s_time" : 158.340000009048,
            "dns" : 0,
            "len" : 13550,
            "dnsStart" : -1
         },
         "url" : "http://original.testbed.localhost/i.ytimg.com/vi/XHplocNJIk8/hqdefault.jpg%3Fcustom=true&w=196&h=110&stc=true&jpg444=true&jpgq=90&sp=68&sigh=mjrx6UeVEv_pMhpZbP6EOAtxTFA",
         "comps" : [],
         "id" : "r15"
      },
      {
         "when_comp_start" : -1,
         "download" : {
            "receivedTime" : "510.170000008657",
            "id" : "download_11",
            "connectEnd" : 73,
            "connectStart" : 0,
            "receiveLast" : 386.170000008657,
            "receiveHeadersEnd" : 124,
            "sslEnd" : -1,
            "sendStart" : 73,
            "dnsEnd" : -1,
            "dnsStart" : -1,
            "len" : 3933,
            "dns" : 0,
            "receiveFirst" : 51,
            "s_time" : 158.449000009568,
            "sendEnd" : 73,
            "sslStart" : -1,
            "type" : "image/jpeg"
         },
         "url" : "http://original.testbed.localhost/yt3.ggpht.com/-x3CU1CXklQI/AAAAAAAAAAI/AAAAAAAAAAA/jPQ9GJeU53g/s88-c-k-no-rj-c0xffffff/photo.jpg",
         "id" : "r16",
         "comps" : []
      },
      {
         "url" : "http://original.testbed.localhost/i.ytimg.com/vi/sU7LmmyQHRc/hqdefault.jpg%3Fcustom=true&w=196&h=110&stc=true&jpg444=true&jpgq=90&sp=68&sigh=aUgforGki0KGhS2Gwzik0vwuxAg",
         "id" : "r17",
         "comps" : [],
         "when_comp_start" : -1,
         "download" : {
            "sslStart" : -1,
            "sendEnd" : 74,
            "type" : "image/jpeg",
            "dns" : 0,
            "receiveFirst" : 53,
            "s_time" : 158.540000003995,
            "len" : 13400,
            "dnsStart" : -1,
            "sendStart" : 74,
            "dnsEnd" : -1,
            "sslEnd" : -1,
            "receiveHeadersEnd" : 127,
            "receiveLast" : 383.345999995479,
            "receivedTime" : "510.345999995479",
            "id" : "download_12",
            "connectStart" : 0,
            "connectEnd" : 74
         }
      },
      {
         "download" : {
            "dnsStart" : -1,
            "len" : 15168,
            "s_time" : 158.611999999266,
            "receiveFirst" : 52,
            "dns" : 0,
            "type" : "image/jpeg",
            "sendEnd" : 75,
            "sslStart" : -1,
            "connectEnd" : 75,
            "connectStart" : 0,
            "id" : "download_13",
            "receivedTime" : "510.521000003791",
            "receiveLast" : 383.521000003791,
            "receiveHeadersEnd" : 127,
            "sslEnd" : -1,
            "dnsEnd" : -1,
            "sendStart" : 75
         },
         "when_comp_start" : -1,
         "id" : "r18",
         "comps" : [],
         "url" : "http://original.testbed.localhost/i.ytimg.com/vi/HnMUrxzzjlY/hqdefault.jpg%3Fcustom=true&w=196&h=110&stc=true&jpg444=true&jpgq=90&sp=68&sigh=EOBNvblEDzk1NHFr8mLncNcXd_I"
      },
      {
         "when_comp_start" : -1,
         "download" : {
            "sslEnd" : -1,
            "sendStart" : 76,
            "dnsEnd" : -1,
            "receivedTime" : "510.688000009395",
            "id" : "download_14",
            "connectEnd" : 76,
            "connectStart" : 0,
            "receiveHeadersEnd" : 129,
            "receiveLast" : 381.688000009395,
            "dns" : 0,
            "receiveFirst" : 53,
            "s_time" : 158.710000003339,
            "sendEnd" : 76,
            "sslStart" : -1,
            "type" : "image/jpeg",
            "dnsStart" : -1,
            "len" : 13252
         },
         "url" : "http://original.testbed.localhost/i.ytimg.com/vi/o9iVXxFt1Wg/hqdefault.jpg%3Fcustom=true&w=196&h=110&stc=true&jpg444=true&jpgq=90&sp=68&sigh=1m6nQAPYL_aNFSB5wtAy3VDojyc",
         "comps" : [],
         "id" : "r19"
      },
      {
         "url" : "http://original.testbed.localhost/i.ytimg.com/vi/1Ty8BH3ArKY/hqdefault.jpg%3Fcustom=true&w=196&h=110&stc=true&jpg444=true&jpgq=90&sp=68&sigh=noeiiCx7PfN930ngDeZ7ffhjcxE",
         "comps" : [],
         "id" : "r20",
         "when_comp_start" : -1,
         "download" : {
            "dnsEnd" : -1,
            "sendStart" : 80,
            "sslEnd" : -1,
            "receiveLast" : 378.886000003666,
            "receiveHeadersEnd" : 132,
            "id" : "download_15",
            "connectEnd" : 80,
            "connectStart" : 0,
            "receivedTime" : "510.886000003666",
            "type" : "image/jpeg",
            "sslStart" : -1,
            "sendEnd" : 80,
            "receiveFirst" : 52,
            "s_time" : 158.787000007578,
            "dns" : 0,
            "len" : 14963,
            "dnsStart" : -1
         }
      },
      {
         "url" : "http://original.testbed.localhost/i.ytimg.com/vi/wcUU7Ka_esI/hqdefault.jpg%3Fcustom=true&w=196&h=110&stc=true&jpg444=true&jpgq=90&sp=68&sigh=IgVMwViBIzPvfpjtsaVY-spULfc",
         "comps" : [],
         "id" : "r21",
         "when_comp_start" : -1,
         "download" : {
            "receivedTime" : "511.056000003009",
            "id" : "download_16",
            "connectEnd" : 82,
            "connectStart" : 0,
            "receiveLast" : 378.056000003009,
            "receiveHeadersEnd" : 133,
            "sslEnd" : -1,
            "sendStart" : 82,
            "dnsEnd" : -1,
            "dnsStart" : -1,
            "len" : 12307,
            "dns" : 0,
            "s_time" : 180.0099999964,
            "receiveFirst" : 51,
            "sendEnd" : 82,
            "sslStart" : -1,
            "type" : "image/jpeg"
         }
      },
      {
         "download" : {
            "receiveLast" : 407.249999995925,
            "receiveHeadersEnd" : 104,
            "receivedTime" : "511.249999995925",
            "connectEnd" : 53,
            "connectStart" : 0,
            "id" : "download_17",
            "sendStart" : 53,
            "dnsEnd" : -1,
            "sslEnd" : -1,
            "len" : 11840,
            "dnsStart" : -1,
            "sslStart" : -1,
            "sendEnd" : 53,
            "type" : "image/jpeg",
            "dns" : 0,
            "receiveFirst" : 51,
            "s_time" : 231.867000009515
         },
         "when_comp_start" : -1,
         "comps" : [],
         "id" : "r22",
         "url" : "http://original.testbed.localhost/i.ytimg.com/vi/dnzA9bYc7I8/hqdefault.jpg%3Fcustom=true&w=196&h=110&stc=true&jpg444=true&jpgq=90&sp=68&sigh=y-usJDtwGNpfED04Xp-ZbF8eF0Y"
      },
      {
         "download" : {
            "dnsStart" : -1,
            "len" : 4409,
            "dns" : 0,
            "s_time" : 233.057999997982,
            "receiveFirst" : 51,
            "sslStart" : -1,
            "sendEnd" : 54,
            "type" : "image/jpeg",
            "receivedTime" : "511.417000001529",
            "connectEnd" : 54,
            "connectStart" : 0,
            "id" : "download_18",
            "receiveHeadersEnd" : 105,
            "receiveLast" : 406.417000001529,
            "sslEnd" : -1,
            "sendStart" : 54,
            "dnsEnd" : -1
         },
         "when_comp_start" : -1,
         "comps" : [],
         "id" : "r23",
         "url" : "http://original.testbed.localhost/yt3.ggpht.com/-k_GkTGK0POM/AAAAAAAAAAI/AAAAAAAAAAA/0GrhY5eKm4I/s88-c-k-no-rj-c0xffffff/photo.jpg"
      },
      {
         "url" : "http://original.testbed.localhost/i.ytimg.com/vi/OIoj5W9yFaE/hqdefault.jpg%3Fcustom=true&w=196&h=110&stc=true&jpg444=true&jpgq=90&sp=68&sigh=mKiKx7RR0C01RyRgbIzfIvd9Mwk",
         "id" : "r24",
         "comps" : [],
         "when_comp_start" : -1,
         "download" : {
            "sslEnd" : -1,
            "dnsEnd" : -1,
            "sendStart" : 53,
            "id" : "download_19",
            "connectEnd" : 53,
            "connectStart" : 0,
            "receivedTime" : "511.725999996997",
            "receiveLast" : 407.725999996997,
            "receiveHeadersEnd" : 104,
            "s_time" : 234.961000009207,
            "receiveFirst" : 51,
            "dns" : 0,
            "type" : "image/jpeg",
            "sendEnd" : 53,
            "sslStart" : -1,
            "dnsStart" : -1,
            "len" : 10188
         }
      },
      {
         "comps" : [],
         "id" : "r25",
         "url" : "http://original.testbed.localhost/i.ytimg.com/vi/owZFQuats1k/hqdefault.jpg%3Fcustom=true&w=196&h=110&stc=true&jpg444=true&jpgq=90&sp=68&sigh=UHvaYmyT1BJw62L-KSyrGtTrN84",
         "download" : {
            "type" : "image/jpeg",
            "sslStart" : -1,
            "sendEnd" : 26,
            "receiveFirst" : 51,
            "s_time" : 261.922999998205,
            "dns" : 0,
            "len" : 12704,
            "dnsStart" : -1,
            "dnsEnd" : -1,
            "sendStart" : 26,
            "sslEnd" : -1,
            "receiveHeadersEnd" : 77,
            "receiveLast" : 434.819000006653,
            "id" : "download_20",
            "connectEnd" : 26,
            "connectStart" : 0,
            "receivedTime" : "511.819000006653"
         },
         "when_comp_start" : -1
      },
      {
         "when_comp_start" : -1,
         "download" : {
            "dnsStart" : -1,
            "len" : 11382,
            "dns" : 0,
            "s_time" : 284.18899999815,
            "receiveFirst" : 51,
            "sendEnd" : 7,
            "sslStart" : -1,
            "type" : "image/jpeg",
            "receivedTime" : "512.004000003799",
            "connectStart" : 0,
            "connectEnd" : 7,
            "id" : "download_21",
            "receiveHeadersEnd" : 58,
            "receiveLast" : 454.004000003799,
            "sslEnd" : -1,
            "sendStart" : 7,
            "dnsEnd" : -1
         },
         "url" : "http://original.testbed.localhost/i.ytimg.com/vi/kdf1gSHWMKE/hqdefault.jpg%3Fcustom=true&w=196&h=110&stc=true&jpg444=true&jpgq=90&sp=68&sigh=hyNItltJnDvGWvskfdzuY-VfwSM",
         "comps" : [],
         "id" : "r26"
      },
      {
         "when_comp_start" : -1,
         "download" : {
            "len" : 11300,
            "dnsStart" : -1,
            "type" : "image/jpeg",
            "sslStart" : -1,
            "sendEnd" : 28,
            "receiveFirst" : 51,
            "s_time" : 287.122000008821,
            "dns" : 0,
            "receiveLast" : 444.981999998796,
            "receiveHeadersEnd" : 79,
            "connectStart" : 0,
            "connectEnd" : 28,
            "id" : "download_22",
            "receivedTime" : "523.981999998796",
            "dnsEnd" : -1,
            "sendStart" : 28,
            "sslEnd" : -1
         },
         "url" : "http://original.testbed.localhost/i.ytimg.com/vi/rBg9gL0fs9U/hqdefault.jpg%3Fcustom=true&w=196&h=110&stc=true&jpg444=true&jpgq=90&sp=68&sigh=JTZpVRPLre9zyQvNwh5epDRgJws",
         "comps" : [],
         "id" : "r27"
      },
      {
         "url" : "http://original.testbed.localhost/i.ytimg.com/vi/oPALbYj1ylY/hqdefault.jpg%3Fcustom=true&w=196&h=110&stc=true&jpg444=true&jpgq=90&sp=68&sigh=jw4lXjgaaTL6dfje5QMnUmpi6Wc",
         "id" : "r28",
         "comps" : [],
         "when_comp_start" : -1,
         "download" : {
            "len" : 7816,
            "dnsStart" : -1,
            "sslStart" : -1,
            "sendEnd" : 49,
            "type" : "image/jpeg",
            "dns" : 0,
            "s_time" : 287.800999998581,
            "receiveFirst" : 51,
            "receiveHeadersEnd" : 100,
            "receiveLast" : 424.252999995952,
            "receivedTime" : "524.252999995952",
            "connectEnd" : 49,
            "connectStart" : 0,
            "id" : "download_23",
            "sendStart" : 49,
            "dnsEnd" : -1,
            "sslEnd" : -1
         }
      },
      {
         "id" : "r29",
         "comps" : [],
         "url" : "http://original.testbed.localhost/i.ytimg.com/vi/Lra44ZeUFe8/hqdefault.jpg%3Fcustom=true&w=196&h=110&stc=true&jpg444=true&jpgq=90&sp=68&sigh=N07h4hn7iAAnmNXdGfqbhpqEoDw",
         "download" : {
            "len" : 11545,
            "dnsStart" : -1,
            "sslStart" : -1,
            "sendEnd" : 50,
            "type" : "image/jpeg",
            "dns" : 0,
            "receiveFirst" : 51,
            "s_time" : 288.446000005933,
            "receiveLast" : 423.510999995982,
            "receiveHeadersEnd" : 101,
            "receivedTime" : "524.510999995982",
            "id" : "download_24",
            "connectStart" : 0,
            "connectEnd" : 50,
            "sendStart" : 50,
            "dnsEnd" : -1,
            "sslEnd" : -1
         },
         "when_comp_start" : -1
      },
      {
         "when_comp_start" : -1,
         "download" : {
            "receivedTime" : "524.686999997357",
            "id" : "download_25",
            "connectEnd" : 48,
            "connectStart" : 0,
            "receiveLast" : 425.686999997357,
            "receiveHeadersEnd" : 99,
            "sslEnd" : -1,
            "sendStart" : 48,
            "dnsEnd" : -1,
            "dnsStart" : -1,
            "len" : 2776,
            "dns" : 0,
            "s_time" : 291.781000007177,
            "receiveFirst" : 51,
            "sendEnd" : 48,
            "sslStart" : -1,
            "type" : "image/jpeg"
         },
         "url" : "http://original.testbed.localhost/yt3.ggpht.com/qgAMspKekhapIIu6oDpA1L9jTVqOdGsfRAV0UnNunasrAK7vmHAnF3roDJmcUUxWX0Asbzh1HTuGJIQ1Lw=s88-nd-c-c0xffffffff-rj-k-no",
         "comps" : [],
         "id" : "r30"
      },
      {
         "when_comp_start" : -1,
         "download" : {
            "id" : "download_26",
            "connectStart" : 0,
            "connectEnd" : 26,
            "receivedTime" : "524.984999996377",
            "receiveLast" : 447.984999996377,
            "receiveHeadersEnd" : 77,
            "sslEnd" : -1,
            "dnsEnd" : -1,
            "sendStart" : 26,
            "dnsStart" : -1,
            "len" : 10601,
            "s_time" : 315.073000005214,
            "receiveFirst" : 51,
            "dns" : 0,
            "type" : "image/jpeg",
            "sslStart" : -1,
            "sendEnd" : 26
         },
         "url" : "http://original.testbed.localhost/i.ytimg.com/vi/EeF3UTkCoxY/hqdefault.jpg%3Fcustom=true&w=196&h=110&stc=true&jpg444=true&jpgq=90&sp=68&sigh=x4Pyko1rqMW_Qor1oDMl1ga5K1c",
         "comps" : [],
         "id" : "r31"
      },
      {
         "download" : {
            "dnsStart" : -1,
            "len" : 13029,
            "receiveFirst" : 50,
            "s_time" : 335.516000006464,
            "dns" : 0,
            "type" : "image/jpeg",
            "sendEnd" : 7,
            "sslStart" : -1,
            "id" : "download_27",
            "connectStart" : 0,
            "connectEnd" : 7,
            "receivedTime" : "525.302000009106",
            "receiveLast" : 468.302000009106,
            "receiveHeadersEnd" : 57,
            "sslEnd" : -1,
            "dnsEnd" : -1,
            "sendStart" : 7
         },
         "when_comp_start" : -1,
         "id" : "r32",
         "comps" : [],
         "url" : "http://original.testbed.localhost/i.ytimg.com/vi/y685gVGRQ98/hqdefault.jpg%3Fcustom=true&w=196&h=110&stc=true&jpg444=true&jpgq=90&sp=68&sigh=GYArbjIRlCz10eZhj8oghViPAv4"
      },
      {
         "comps" : [],
         "id" : "r33",
         "url" : "http://original.testbed.localhost/i.ytimg.com/vi/gUa_R9HRARc/hqdefault.jpg%3Fcustom=true&w=196&h=110&stc=true&jpg444=true&jpgq=90&sp=68&sigh=-yJN6pk2KUnBiseiwwX32ghBddA",
         "download" : {
            "sendStart" : 28,
            "dnsEnd" : -1,
            "sslEnd" : -1,
            "receiveLast" : 459.98999999708,
            "receiveHeadersEnd" : 78,
            "receivedTime" : "537.98999999708",
            "connectEnd" : 28,
            "connectStart" : 0,
            "id" : "download_28",
            "sendEnd" : 28,
            "sslStart" : -1,
            "type" : "image/jpeg",
            "dns" : 0,
            "s_time" : 337.847999995574,
            "receiveFirst" : 50,
            "len" : 14332,
            "dnsStart" : -1
         },
         "when_comp_start" : -1
      },
      {
         "url" : "http://original.testbed.localhost/s.ytimg.com/yts/imgbin/www-hitchhiker-vflvB63an.png",
         "comps" : [],
         "id" : "r52",
         "when_comp_start" : -1,
         "download" : {
            "len" : 28391,
            "dnsStart" : -1,
            "type" : "image/png",
            "sendEnd" : 21,
            "sslStart" : -1,
            "receiveFirst" : 51,
            "s_time" : 367.033000002266,
            "dns" : 0,
            "receiveLast" : 481.281000000425,
            "receiveHeadersEnd" : 72,
            "id" : "download_29",
            "connectEnd" : 21,
            "connectStart" : 0,
            "receivedTime" : "553.281000000425",
            "dnsEnd" : -1,
            "sendStart" : 21,
            "sslEnd" : -1
         }
      },
      {
         "when_comp_start" : -1,
         "download" : {
            "sendStart" : 50,
            "dnsEnd" : -1,
            "sslEnd" : -1,
            "receiveLast" : 439.09500000393,
            "receiveHeadersEnd" : 101,
            "receivedTime" : "540.09500000393",
            "connectStart" : 0,
            "connectEnd" : 50,
            "id" : "download_30",
            "sendEnd" : 50,
            "sslStart" : -1,
            "type" : "image/jpeg",
            "dns" : 0,
            "receiveFirst" : 51,
            "s_time" : 339.200999995228,
            "len" : 12587,
            "dnsStart" : -1
         },
         "url" : "http://original.testbed.localhost/i.ytimg.com/vi/iKCw-kqo3cs/hqdefault.jpg%3Fcustom=true&w=196&h=110&stc=true&jpg444=true&jpgq=90&sp=68&sigh=B-qIBOjSlVO2YFCX98n12V0maRI",
         "id" : "r34",
         "comps" : []
      },
      {
         "download" : {
            "receiveLast" : 439.317000006326,
            "receiveHeadersEnd" : 101,
            "connectStart" : 0,
            "connectEnd" : 50,
            "id" : "download_31",
            "receivedTime" : "540.317000006326",
            "dnsEnd" : -1,
            "sendStart" : 50,
            "sslEnd" : -1,
            "len" : 8461,
            "dnsStart" : -1,
            "type" : "image/jpeg",
            "sendEnd" : 50,
            "sslStart" : -1,
            "s_time" : 340.20099999907,
            "receiveFirst" : 51,
            "dns" : 0
         },
         "when_comp_start" : -1,
         "id" : "r35",
         "comps" : [],
         "url" : "http://original.testbed.localhost/i.ytimg.com/vi/KPDqb45P2Mg/hqdefault.jpg%3Fcustom=true&w=196&h=110&stc=true&jpg444=true&jpgq=90&sp=68&sigh=StK7hk6Yr_nHMa8N9XjcCAD1HOE"
      },
      {
         "id" : "r36",
         "comps" : [],
         "url" : "http://original.testbed.localhost/i.ytimg.com/vi/9mdJV5-eias/hqdefault.jpg%3Fcustom=true&w=196&h=110&stc=true&jpg444=true&jpgq=90&sp=68&sigh=48qkYy0c4RwG1z1lyIGYyIhi77k",
         "download" : {
            "len" : 10794,
            "dnsStart" : -1,
            "type" : "image/jpeg",
            "sendEnd" : 49,
            "sslStart" : -1,
            "s_time" : 343.819000001531,
            "receiveFirst" : 50,
            "dns" : 0,
            "receiveHeadersEnd" : 99,
            "receiveLast" : 441.690000008908,
            "id" : "download_32",
            "connectEnd" : 49,
            "connectStart" : 0,
            "receivedTime" : "540.690000008908",
            "dnsEnd" : -1,
            "sendStart" : 49,
            "sslEnd" : -1
         },
         "when_comp_start" : -1
      },
      {
         "url" : "http://original.testbed.localhost/yt3.ggpht.com/-QIVF0Bs4QQo/AAAAAAAAAAI/AAAAAAAAAAA/5jwZ65D3bUU/s88-c-k-no-rj-c0xffffff/photo.jpg",
         "id" : "r37",
         "comps" : [],
         "when_comp_start" : -1,
         "download" : {
            "sslEnd" : -1,
            "sendStart" : 7,
            "dnsEnd" : -1,
            "receivedTime" : "540.999999997439",
            "connectEnd" : 7,
            "connectStart" : 0,
            "id" : "download_33",
            "receiveHeadersEnd" : 59,
            "receiveLast" : 481.999999997439,
            "dns" : 0,
            "s_time" : 388.21900000039,
            "receiveFirst" : 52,
            "sendEnd" : 7,
            "sslStart" : -1,
            "type" : "image/jpeg",
            "dnsStart" : -1,
            "len" : 7262
         }
      },
      {
         "when_comp_start" : -1,
         "download" : {
            "dnsEnd" : -1,
            "sendStart" : 8,
            "sslEnd" : -1,
            "receiveLast" : 495.847000006703,
            "receiveHeadersEnd" : 59,
            "id" : "download_34",
            "connectStart" : 0,
            "connectEnd" : 8,
            "receivedTime" : "554.847000006703",
            "type" : "application/octet-stream",
            "sendEnd" : 8,
            "sslStart" : -1,
            "s_time" : 410.914000007324,
            "receiveFirst" : 51,
            "dns" : 0,
            "len" : 32652,
            "dnsStart" : -1
         },
         "url" : "http://original.testbed.localhost/fonts.gstatic.com/s/roboto/v15/zN7GBFwfMP4uA6AR0HCoLQ.ttf",
         "comps" : [],
         "id" : "r2"
      },
      {
         "download" : {
            "receiveHeadersEnd" : 61,
            "receiveLast" : 493.654000006849,
            "receivedTime" : "554.654000006849",
            "id" : "download_35",
            "connectStart" : 0,
            "connectEnd" : 5,
            "sendStart" : 5,
            "dnsEnd" : -1,
            "sslEnd" : -1,
            "len" : 2204,
            "dnsStart" : -1,
            "sendEnd" : 5,
            "sslStart" : -1,
            "type" : "image/jpeg",
            "dns" : 0,
            "receiveFirst" : 56,
            "s_time" : 443.746000004467
         },
         "when_comp_start" : -1,
         "comps" : [],
         "id" : "r44",
         "url" : "http://original.testbed.localhost/yt3.ggpht.com/-dDZUkj9sY4g/AAAAAAAAAAI/AAAAAAAAAAA/oy6dm2Uy8dc/s88-c-k-no-rj-c0xffffff/photo.jpg"
      },
      {
         "id" : "r5",
         "comps" : [],
         "url" : "http://original.testbed.localhost/fonts.gstatic.com/s/roboto/v15/RxZJdnzeo3R5zSexge8UUaCWcynf_cDxXwCLxiixG1c.ttf",
         "download" : {
            "dnsStart" : -1,
            "len" : 32580,
            "dns" : 0,
            "receiveFirst" : 60,
            "s_time" : 411.376999996719,
            "sendEnd" : 31,
            "sslStart" : -1,
            "type" : "application/octet-stream",
            "receivedTime" : "645.336000001407",
            "connectStart" : 0,
            "connectEnd" : 31,
            "id" : "download_36",
            "receiveLast" : 554.336000001407,
            "receiveHeadersEnd" : 91,
            "sslEnd" : -1,
            "sendStart" : 31,
            "dnsEnd" : -1
         },
         "when_comp_start" : -1
      },
      {
         "when_comp_start" : -1,
         "download" : {
            "sslEnd" : -1,
            "sendStart" : 24,
            "dnsEnd" : -1,
            "receivedTime" : "554.738999999245",
            "connectStart" : 0,
            "connectEnd" : 24,
            "id" : "download_37",
            "receiveHeadersEnd" : 84,
            "receiveLast" : 470.738999999245,
            "dns" : 0,
            "s_time" : 419.198999996297,
            "receiveFirst" : 60,
            "sendEnd" : 24,
            "sslStart" : -1,
            "type" : "image/jpeg",
            "dnsStart" : -1,
            "len" : 11113
         },
         "url" : "http://original.testbed.localhost/i.ytimg.com/vi/oin0djnH0OM/hqdefault.jpg%3Fcustom=true&w=196&h=110&stc=true&jpg444=true&jpgq=90&sp=68&sigh=L49KH8-48qvot4DRo78wxw45w-U",
         "comps" : [],
         "id" : "r42"
      },
      {
         "comps" : [],
         "id" : "r43",
         "url" : "http://original.testbed.localhost/i.ytimg.com/vi/dK_FiuyVU2Y/hqdefault.jpg%3Fcustom=true&w=196&h=110&stc=true&jpg444=true&jpgq=90&sp=68&sigh=ovXWF5BVzn2jXjHo8jdUMUS4Gws",
         "download" : {
            "len" : 21025,
            "dnsStart" : -1,
            "type" : "image/jpeg",
            "sendEnd" : 1,
            "sslStart" : -1,
            "receiveFirst" : 59,
            "s_time" : 442.890999998781,
            "dns" : 0,
            "receiveLast" : 494.516000003787,
            "receiveHeadersEnd" : 60,
            "connectStart" : 0,
            "connectEnd" : 1,
            "id" : "download_38",
            "receivedTime" : "554.516000003787",
            "dnsEnd" : -1,
            "sendStart" : 1,
            "sslEnd" : -1
         },
         "when_comp_start" : -1
      },
      {
         "url" : "http://original.testbed.localhost/i.ytimg.com/vi/TvAMdsIc_Ow/hqdefault.jpg%3Fcustom=true&w=196&h=110&stc=true&jpg444=true&jpgq=90&sp=68&sigh=EEUI7m9UC56DTeA8pyslc0h3bVg",
         "comps" : [],
         "id" : "r45",
         "when_comp_start" : -1,
         "download" : {
            "receiveHeadersEnd" : 97,
            "receiveLast" : 548.195000004605,
            "receivedTime" : "645.195000004605",
            "connectEnd" : 45,
            "connectStart" : 0,
            "id" : "download_39",
            "sendStart" : 45,
            "dnsEnd" : -1,
            "sslEnd" : -1,
            "len" : 11019,
            "dnsStart" : -1,
            "sslStart" : -1,
            "sendEnd" : 45,
            "type" : "image/jpeg",
            "dns" : 0,
            "s_time" : 444.900999995298,
            "receiveFirst" : 52
         }
      },
      {
         "download" : {
            "dns" : 0,
            "s_time" : 448.707999996259,
            "receiveFirst" : 51,
            "sendEnd" : 58,
            "sslStart" : -1,
            "type" : "image/jpeg",
            "dnsStart" : -1,
            "len" : 12964,
            "sslEnd" : -1,
            "sendStart" : 58,
            "dnsEnd" : -1,
            "receivedTime" : "685.616000002483",
            "connectStart" : 0,
            "connectEnd" : 58,
            "id" : "download_40",
            "receiveHeadersEnd" : 109,
            "receiveLast" : 576.616000002483
         },
         "when_comp_start" : -1,
         "comps" : [],
         "id" : "r46",
         "url" : "http://original.testbed.localhost/i.ytimg.com/vi/NxgD40qFjVs/hqdefault.jpg%3Fcustom=true&w=196&h=110&stc=true&jpg444=true&jpgq=90&sp=68&sigh=rl75-pyiseMG1E5pfufPq1YYIrA"
      },
      {
         "url" : "http://original.testbed.localhost/i.ytimg.com/vi/g3Rf5qDuq7M/hqdefault.jpg%3Fcustom=true&w=196&h=110&stc=true&jpg444=true&jpgq=90&sp=68&sigh=DAQln3PHCbi3nb5i1PKjgTLCHEk",
         "comps" : [],
         "id" : "r38",
         "when_comp_start" : -1,
         "download" : {
            "connectStart" : 0,
            "connectEnd" : 116,
            "id" : "download_41",
            "receivedTime" : "685.771000004024",
            "receiveHeadersEnd" : 168,
            "receiveLast" : 517.771000004024,
            "sslEnd" : -1,
            "dnsEnd" : -1,
            "sendStart" : 116,
            "dnsStart" : -1,
            "len" : 12093,
            "receiveFirst" : 52,
            "s_time" : 390.782000002218,
            "dns" : 0,
            "type" : "image/jpeg",
            "sslStart" : -1,
            "sendEnd" : 116
         }
      },
      {
         "download" : {
            "receiveLast" : 616.844000006909,
            "receiveHeadersEnd" : 69,
            "receivedTime" : "685.844000006909",
            "id" : "download_42",
            "connectStart" : 0,
            "connectEnd" : 17,
            "sendStart" : 17,
            "dnsEnd" : -1,
            "sslEnd" : -1,
            "len" : 12777,
            "dnsStart" : -1,
            "sendEnd" : 17,
            "sslStart" : -1,
            "type" : "image/jpeg",
            "dns" : 0,
            "s_time" : 489.63399999775,
            "receiveFirst" : 52
         },
         "when_comp_start" : -1,
         "id" : "r47",
         "comps" : [],
         "url" : "http://original.testbed.localhost/i.ytimg.com/vi/3Ugj7nq-mlg/hqdefault.jpg%3Fcustom=true&w=196&h=110&stc=true&jpg444=true&jpgq=90&sp=68&sigh=IiihMar2OIubgdcXLIn17Hwp7C0"
      },
      {
         "comps" : [],
         "id" : "r48",
         "url" : "http://original.testbed.localhost/i.ytimg.com/vi/mAxvK2aGtQU/hqdefault.jpg%3Fcustom=true&w=196&h=110&stc=true&jpg444=true&jpgq=90&sp=68&sigh=KjFgA0nyjfUbFHtRxkPJ47dtXjM",
         "download" : {
            "dnsStart" : -1,
            "len" : 14732,
            "receiveFirst" : 54,
            "s_time" : 505.715000006603,
            "dns" : 0,
            "type" : "image/jpeg",
            "sslStart" : -1,
            "sendEnd" : 16,
            "connectStart" : 0,
            "connectEnd" : 16,
            "id" : "download_43",
            "receivedTime" : "686.123999999836",
            "receiveHeadersEnd" : 70,
            "receiveLast" : 616.123999999836,
            "sslEnd" : -1,
            "dnsEnd" : -1,
            "sendStart" : 16
         },
         "when_comp_start" : -1
      },
      {
         "when_comp_start" : -1,
         "download" : {
            "receiveLast" : 627.390999995638,
            "receiveHeadersEnd" : 59,
            "receivedTime" : "686.390999995638",
            "id" : "download_44",
            "connectStart" : 0,
            "connectEnd" : 6,
            "sendStart" : 6,
            "dnsEnd" : -1,
            "sslEnd" : -1,
            "len" : 34173,
            "dnsStart" : -1,
            "sendEnd" : 6,
            "sslStart" : -1,
            "type" : "application/javascript",
            "dns" : 0,
            "s_time" : 537.639000001946,
            "receiveFirst" : 53
         },
         "url" : "http://original.testbed.localhost/s.ytimg.com/yts/jsbin/spf-vfldNIm25/spf.js",
         "comps" : [
            {
               "type" : 1,
               "time" : 6.96199999947601,
               "e_time" : 693.387000006624,
               "s_time" : 686.425000007148,
               "id" : "comp_138"
            }
         ],
         "id" : "r54"
      },
      {
         "comps" : [
            {
               "type" : 1,
               "time" : 32.20900001179,
               "id" : "comp_141",
               "e_time" : 750.366000007489,
               "s_time" : 718.156999995699
            }
         ],
         "id" : "r55",
         "url" : "http://original.testbed.localhost/s.ytimg.com/yts/jsbin/www-en_US-vflBAUmx0/base.js",
         "download" : {
            "s_time" : 537.82900000806,
            "receiveFirst" : 56,
            "dns" : 0,
            "type" : "application/javascript",
            "sendEnd" : 6,
            "sslStart" : -1,
            "dnsStart" : -1,
            "len" : 87480,
            "sslEnd" : -1,
            "dnsEnd" : -1,
            "sendStart" : 6,
            "connectStart" : 0,
            "connectEnd" : 6,
            "id" : "download_45",
            "receivedTime" : "718.093000003137",
            "receiveLast" : 656.093000003137,
            "receiveHeadersEnd" : 62
         },
         "when_comp_start" : -1
      },
      {
         "comps" : [],
         "id" : "r49",
         "url" : "http://original.testbed.localhost/i.ytimg.com/vi/H-q0zh-XGVc/hqdefault.jpg%3Fcustom=true&w=196&h=110&stc=true&jpg444=true&jpgq=90&sp=68&sigh=Rp0Bkj4OToLoq1o34dUJWXqDNVs",
         "download" : {
            "receiveLast" : 588.333000006736,
            "receiveHeadersEnd" : 106,
            "receivedTime" : "694.333000006736",
            "connectEnd" : 55,
            "connectStart" : 0,
            "id" : "download_46",
            "sendStart" : 55,
            "dnsEnd" : -1,
            "sslEnd" : -1,
            "len" : 14289,
            "dnsStart" : -1,
            "sslStart" : -1,
            "sendEnd" : 55,
            "type" : "image/jpeg",
            "dns" : 0,
            "receiveFirst" : 51,
            "s_time" : 506.175999995321
         },
         "when_comp_start" : -1
      },
      {
         "download" : {
            "dnsStart" : -1,
            "len" : 9958,
            "receiveFirst" : 51,
            "s_time" : 506.517000001622,
            "dns" : 0,
            "type" : "image/jpeg",
            "sendEnd" : 55,
            "sslStart" : -1,
            "connectStart" : 0,
            "connectEnd" : 55,
            "id" : "download_47",
            "receivedTime" : "694.889000005787",
            "receiveLast" : 588.889000005787,
            "receiveHeadersEnd" : 106,
            "sslEnd" : -1,
            "dnsEnd" : -1,
            "sendStart" : 55
         },
         "when_comp_start" : -1,
         "comps" : [],
         "id" : "r50",
         "url" : "http://original.testbed.localhost/i.ytimg.com/vi/na5yOfZJmPQ/hqdefault.jpg%3Fcustom=true&w=196&h=110&stc=true&jpg444=true&jpgq=90&sp=68&sigh=QHC8LH15o2YR2DwIUqcOtkgLZVM"
      },
      {
         "when_comp_start" : -1,
         "download" : {
            "receiveLast" : 625.788000007975,
            "receiveHeadersEnd" : 69,
            "receivedTime" : "694.788000007975",
            "id" : "download_48",
            "connectStart" : 0,
            "connectEnd" : 17,
            "sendStart" : 17,
            "dnsEnd" : -1,
            "sslEnd" : -1,
            "len" : 3116,
            "dnsStart" : -1,
            "sslStart" : -1,
            "sendEnd" : 17,
            "type" : "image/jpeg",
            "dns" : 0,
            "receiveFirst" : 52,
            "s_time" : 544.12200000661
         },
         "url" : "http://original.testbed.localhost/yt3.ggpht.com/-x-pKW1yb6y8/AAAAAAAAAAI/AAAAAAAAAAA/jPbMU4ZW0sA/s88-c-k-no-rj-c0xffffff/photo.jpg",
         "comps" : [],
         "id" : "r51"
      },
      {
         "url" : "http://original.testbed.localhost/yt3.ggpht.com/dtJRjCV0a2FCiwqvzY7u5JoMSnOGSe4vEr8YJqY2jJ_sLL-GpugyxWgseh_ITDZHdVatISs2pqQA_AZgYw=s88-nd-c-c0xffffffff-rj-k-no",
         "comps" : [],
         "id" : "r53",
         "when_comp_start" : -1,
         "download" : {
            "receivedTime" : "695.084000006318",
            "connectStart" : 0,
            "connectEnd" : 16,
            "id" : "download_49",
            "receiveLast" : 628.084000006318,
            "receiveHeadersEnd" : 67,
            "sslEnd" : -1,
            "sendStart" : 16,
            "dnsEnd" : -1,
            "dnsStart" : -1,
            "len" : 2461,
            "dns" : 0,
            "receiveFirst" : 51,
            "s_time" : 560.80400000792,
            "sendEnd" : 16,
            "sslStart" : -1,
            "type" : "image/jpeg"
         }
      },
      {
         "url" : "http://original.testbed.localhost/i.ytimg.com/vi/gO_KyTtJg10/hqdefault.jpg%3Fcustom=true&w=196&h=110&stc=true&jpg444=true&jpgq=90&sp=68&sigh=aG_HXqjumjvQ8oPUeJu-40gZce8",
         "comps" : [],
         "id" : "r39",
         "when_comp_start" : -1,
         "download" : {
            "dnsStart" : -1,
            "len" : 11299,
            "dns" : 0,
            "s_time" : 391.552000000956,
            "receiveFirst" : 52,
            "sendEnd" : 206,
            "sslStart" : -1,
            "type" : "image/jpeg",
            "receivedTime" : "717.978000000585",
            "id" : "download_50",
            "connectEnd" : 206,
            "connectStart" : 0,
            "receiveLast" : 459.978000000585,
            "receiveHeadersEnd" : 258,
            "sslEnd" : -1,
            "sendStart" : 206,
            "dnsEnd" : -1
         }
      },
      {
         "when_comp_start" : -1,
         "download" : {
            "receiveHeadersEnd" : 271,
            "receiveLast" : 482.739000007045,
            "connectEnd" : 220,
            "connectStart" : 0,
            "id" : "download_51",
            "receivedTime" : "753.739000007045",
            "dnsEnd" : -1,
            "sendStart" : 220,
            "sslEnd" : -1,
            "len" : 13259,
            "dnsStart" : -1,
            "type" : "image/jpeg",
            "sslStart" : -1,
            "sendEnd" : 220,
            "receiveFirst" : 51,
            "s_time" : 392.969000007724,
            "dns" : 0
         },
         "url" : "http://original.testbed.localhost/i.ytimg.com/vi/aEjGQB9BKWA/hqdefault.jpg%3Fcustom=true&w=196&h=110&stc=true&jpg444=true&jpgq=90&sp=68&sigh=e4rkN0JWj_epQbJPK1-9RaC0Elw",
         "id" : "r40",
         "comps" : []
      },
      {
         "comps" : [],
         "id" : "r41",
         "url" : "http://original.testbed.localhost/i.ytimg.com/vi/NVUEOXZEuT4/hqdefault.jpg%3Fcustom=true&w=196&h=110&stc=true&jpg444=true&jpgq=90&sp=68&sigh=pgyrzGO46S7WSvc8uJwVOend9rk",
         "download" : {
            "dns" : 0,
            "receiveFirst" : 51,
            "s_time" : 395.506000000751,
            "sendEnd" : 219,
            "sslStart" : -1,
            "type" : "image/jpeg",
            "dnsStart" : -1,
            "len" : 13460,
            "sslEnd" : -1,
            "sendStart" : 219,
            "dnsEnd" : -1,
            "receivedTime" : "754.016000006231",
            "connectEnd" : 219,
            "connectStart" : 0,
            "id" : "download_52",
            "receiveLast" : 484.016000006231,
            "receiveHeadersEnd" : 270
         },
         "when_comp_start" : -1
      }
   ],
   "deps" : [
      {
         "a1" : "comp_12",
         "time" : -1,
         "id" : "dep1",
         "a2" : "r1_c2"
      },
      {
         "a2" : "r1_c3",
         "id" : "dep2",
         "time" : -1,
         "a1" : "comp_138"
      },
      {
         "time" : -1,
         "a1" : "comp_141",
         "a2" : "r1_c4",
         "id" : "dep3"
      },
      {
         "id" : "dep4",
         "a2" : "comp_141",
         "a1" : "comp_138",
         "time" : -1
      },
      {
         "time" : -1,
         "a1" : "r1_c2",
         "a2" : "download_52",
         "id" : "dep5"
      },
      {
         "a2" : "download_51",
         "id" : "dep6",
         "time" : 235.397000011289,
         "a1" : "r1_c2"
      },
      {
         "a2" : "download_50",
         "id" : "dep7",
         "time" : 233.980000004521,
         "a1" : "r1_c2"
      },
      {
         "id" : "dep8",
         "a2" : "download_49",
         "a1" : "r1_c2",
         "time" : -1
      },
      {
         "a1" : "r1_c2",
         "time" : 386.550000010175,
         "id" : "dep9",
         "a2" : "download_48"
      },
      {
         "time" : 348.945000005187,
         "a1" : "r1_c2",
         "a2" : "download_47",
         "id" : "dep10"
      },
      {
         "id" : "dep11",
         "a2" : "download_46",
         "a1" : "r1_c2",
         "time" : 348.603999998886
      },
      {
         "a2" : "download_45",
         "id" : "dep12",
         "time" : 380.257000011625,
         "a1" : "r1_c2"
      },
      {
         "id" : "dep13",
         "a2" : "download_45",
         "a1" : "r1_c2",
         "time" : 380.257000011625
      },
      {
         "time" : 380.067000005511,
         "a1" : "r1_c2",
         "a2" : "download_44",
         "id" : "dep14"
      },
      {
         "a1" : "r1_c2",
         "time" : 348.143000010168,
         "id" : "dep15",
         "a2" : "download_43"
      },
      {
         "a1" : "r1_c2",
         "time" : 332.062000001315,
         "id" : "dep16",
         "a2" : "download_42"
      },
      {
         "time" : 233.210000005783,
         "a1" : "r1_c2",
         "a2" : "download_41",
         "id" : "dep17"
      },
      {
         "a1" : "r1_c2",
         "time" : 291.135999999824,
         "id" : "dep18",
         "a2" : "download_40"
      },
      {
         "id" : "dep19",
         "a2" : "download_39",
         "a1" : "r1_c2",
         "time" : 287.328999998863
      },
      {
         "id" : "dep20",
         "a2" : "download_38",
         "a1" : "r1_c2",
         "time" : 285.319000002346
      },
      {
         "a2" : "download_37",
         "id" : "dep21",
         "time" : 261.626999999862,
         "a1" : "r1_c2"
      },
      {
         "time" : 253.805000000284,
         "a1" : "r1_c2",
         "a2" : "download_36",
         "id" : "dep22"
      },
      {
         "time" : 286.174000008032,
         "a1" : "r1_c2",
         "a2" : "download_35",
         "id" : "dep23"
      },
      {
         "time" : 253.342000010889,
         "a1" : "r1_c2",
         "a2" : "download_34",
         "id" : "dep24"
      },
      {
         "a2" : "download_33",
         "id" : "dep25",
         "time" : 230.647000003955,
         "a1" : "r1_c2"
      },
      {
         "a2" : "download_32",
         "id" : "dep26",
         "time" : 186.247000005096,
         "a1" : "r1_c2"
      },
      {
         "id" : "dep27",
         "a2" : "download_31",
         "a1" : "r1_c2",
         "time" : 182.629000002635
      },
      {
         "time" : 181.628999998793,
         "a1" : "r1_c2",
         "a2" : "download_30",
         "id" : "dep28"
      },
      {
         "a1" : "r1_c2",
         "time" : 209.461000005831,
         "id" : "dep29",
         "a2" : "download_29"
      },
      {
         "id" : "dep30",
         "a2" : "download_28",
         "a1" : "r1_c2",
         "time" : 180.275999999139
      },
      {
         "time" : 177.944000010029,
         "a1" : "r1_c2",
         "a2" : "download_27",
         "id" : "dep31"
      },
      {
         "a1" : "r1_c2",
         "time" : 157.501000008779,
         "id" : "dep32",
         "a2" : "download_26"
      },
      {
         "a2" : "download_25",
         "id" : "dep33",
         "time" : 134.209000010742,
         "a1" : "r1_c2"
      },
      {
         "id" : "dep34",
         "a2" : "download_24",
         "a1" : "r1_c2",
         "time" : 130.874000009498
      },
      {
         "a1" : "r1_c2",
         "time" : 130.229000002146,
         "id" : "dep35",
         "a2" : "download_23"
      },
      {
         "a1" : "r1_c2",
         "time" : 129.550000012386,
         "id" : "dep36",
         "a2" : "download_22"
      },
      {
         "id" : "dep37",
         "a2" : "download_21",
         "a1" : "r1_c2",
         "time" : 126.617000001715
      },
      {
         "a2" : "download_20",
         "id" : "dep38",
         "time" : 104.35100000177,
         "a1" : "r1_c2"
      },
      {
         "id" : "dep39",
         "a2" : "download_19",
         "a1" : "r1_c2",
         "time" : 77.389000012772
      },
      {
         "time" : 75.486000001547,
         "a1" : "r1_c2",
         "a2" : "download_18",
         "id" : "dep40"
      },
      {
         "a1" : "r1_c2",
         "time" : 74.29500001308,
         "id" : "dep41",
         "a2" : "download_17"
      },
      {
         "a2" : "download_16",
         "id" : "dep42",
         "time" : 22.437999999965,
         "a1" : "r1_c2"
      },
      {
         "a2" : "download_15",
         "id" : "dep43",
         "time" : 1.21500001114299,
         "a1" : "r1_c2"
      },
      {
         "a1" : "r1_c2",
         "time" : 1.13800000690398,
         "id" : "dep44",
         "a2" : "download_14"
      },
      {
         "id" : "dep45",
         "a2" : "download_13",
         "a1" : "r1_c2",
         "time" : 1.04000000283099
      },
      {
         "a2" : "download_12",
         "id" : "dep46",
         "time" : 0.968000007559993,
         "a1" : "r1_c2"
      },
      {
         "a1" : "r1_c2",
         "time" : 0.877000013132999,
         "id" : "dep47",
         "a2" : "download_11"
      },
      {
         "a1" : "r1_c2",
         "time" : 0.768000012612987,
         "id" : "dep48",
         "a2" : "download_10"
      },
      {
         "id" : "dep49",
         "a2" : "download_9",
         "a1" : "r1_c2",
         "time" : 0.677000003633992
      },
      {
         "a1" : "r1_c2",
         "time" : 0.61700001242599,
         "id" : "dep50",
         "a2" : "download_8"
      },
      {
         "time" : 0.305000008665985,
         "a1" : "r1_c2",
         "a2" : "download_7",
         "id" : "dep51"
      },
      {
         "id" : "dep52",
         "a2" : "download_6",
         "a1" : "r1_c1",
         "time" : -1
      },
      {
         "id" : "dep53",
         "a2" : "download_6",
         "a1" : "r1_c1",
         "time" : 4.6789999905741
      },
      {
         "id" : "dep54",
         "a2" : "download_5",
         "a1" : "r1_c1",
         "time" : -1
      },
      {
         "a1" : "r1_c1",
         "time" : 4.78399998974059,
         "id" : "dep55",
         "a2" : "download_5"
      },
      {
         "id" : "dep56",
         "a2" : "download_4",
         "a1" : "r1_c1",
         "time" : -1
      },
      {
         "time" : 4.8779999924591,
         "a1" : "r1_c1",
         "a2" : "download_4",
         "id" : "dep57"
      },
      {
         "a1" : "r1_c1",
         "time" : -1,
         "id" : "dep58",
         "a2" : "download_3"
      },
      {
         "id" : "dep59",
         "a2" : "download_3",
         "a1" : "r1_c1",
         "time" : 4.97299998824019
      },
      {
         "a1" : "r1_c1",
         "time" : -1,
         "id" : "dep60",
         "a2" : "download_2"
      },
      {
         "a2" : "download_2",
         "id" : "dep61",
         "time" : 5.059999995865,
         "a1" : "r1_c1"
      },
      {
         "a2" : "download_1",
         "id" : "dep62",
         "time" : 4.5019999961369,
         "a1" : "r1_c1"
      }
   ]
}
