{
   "n_download_no_trigger" : 2,
   "start_activity" : "download_0",
   "name" : "original.testbed.localhost_mic.com_",
   "objs" : [
      {
         "id" : "r1",
         "comps" : [
            {
               "s_time" : 67.2629999899073,
               "type" : "evalhtml",
               "id" : "r1_c1",
               "e_time" : 263.808000003337,
               "time" : 196.54500001343
            },
            {
               "type" : "evalhtml",
               "s_time" : 264.045999996597,
               "id" : "r1_c2",
               "time" : 3394.5570000069,
               "e_time" : 3658.6030000035
            }
         ],
         "download" : {
            "sendEnd" : 0,
            "id" : "download_0",
            "len" : 31795,
            "receiveLast" : 14.8999999907101,
            "dnsStart" : -1,
            "connectStart" : 0,
            "connectEnd" : 0,
            "type" : "text/html",
            "receiveFirst" : 52,
            "sslStart" : -1,
            "receiveHeadersEnd" : 52,
            "dns" : 0,
            "sslEnd" : -1,
            "sendStart" : 0,
            "s_time" : 0,
            "dnsEnd" : -1,
            "receivedTime" : "66.8999999907101"
         },
         "when_comp_start" : 1,
         "url" : "http://original.testbed.localhost/mic.com/"
      },
      {
         "url" : "http://original.testbed.localhost/mic.com/component_assets/images/mic-logo-white.png",
         "download" : {
            "id" : "download_1",
            "sendEnd" : 3,
            "sslStart" : -1,
            "receiveFirst" : 51,
            "type" : "image/png",
            "connectEnd" : 3,
            "connectStart" : 0,
            "receiveLast" : 68.6360000000568,
            "dnsStart" : -1,
            "len" : 2504,
            "sslEnd" : -1,
            "dns" : 0,
            "receiveHeadersEnd" : 54,
            "receivedTime" : "122.636000000057",
            "dnsEnd" : -1,
            "s_time" : 67.8320000006352,
            "sendStart" : 3
         },
         "id" : "r3",
         "comps" : [],
         "when_comp_start" : -1
      },
      {
         "url" : "http://original.testbed.localhost/site-assets.mic.com/homepage_assets/css/index.css%3Fb=1462561834829945.css",
         "download" : {
            "s_time" : 67.5869999977294,
            "dnsEnd" : -1,
            "receivedTime" : "230.45099999581",
            "sendStart" : 3,
            "dns" : 0,
            "sslEnd" : -1,
            "receiveHeadersEnd" : 57,
            "connectEnd" : 3,
            "type" : "text/css",
            "receiveFirst" : 54,
            "sslStart" : -1,
            "len" : 293869,
            "connectStart" : 0,
            "dnsStart" : -1,
            "receiveLast" : 173.45099999581,
            "id" : "download_2",
            "sendEnd" : 3
         },
         "comps" : [
            {
               "time" : 164.940999995451,
               "e_time" : 395.487999994657,
               "type" : 4,
               "s_time" : 230.546999999206,
               "id" : "comp_0"
            }
         ],
         "id" : "r2",
         "when_comp_start" : -1
      },
      {
         "url" : "http://original.testbed.localhost/ads.mic.com/host.js",
         "when_comp_start" : -1,
         "download" : {
            "connectEnd" : 50,
            "type" : "application/javascript",
            "receiveFirst" : 51,
            "sslStart" : -1,
            "len" : 20138,
            "receiveLast" : 71.3519999941345,
            "dnsStart" : -1,
            "connectStart" : 0,
            "id" : "download_3",
            "sendEnd" : 50,
            "s_time" : 69.9659999954747,
            "dnsEnd" : -1,
            "receivedTime" : "172.351999994135",
            "sendStart" : 50,
            "dns" : 0,
            "sslEnd" : -1,
            "receiveHeadersEnd" : 101
         },
         "comps" : [
            {
               "id" : "comp_23",
               "type" : 3,
               "s_time" : 409.539000000223,
               "e_time" : 411.70699999202,
               "time" : 2.16799999179699
            }
         ],
         "id" : "r11"
      },
      {
         "url" : "http://original.testbed.localhost/www.googletagservices.com/tag/js/gpt.js",
         "id" : "r12",
         "comps" : [
            {
               "time" : 1.63699999393401,
               "e_time" : 413.359999991371,
               "s_time" : 411.722999997437,
               "type" : 3,
               "id" : "comp_24"
            }
         ],
         "download" : {
            "dnsEnd" : -1,
            "s_time" : 70.0939999951515,
            "receivedTime" : "173.150000002352",
            "sendStart" : 51,
            "dns" : 0,
            "sslEnd" : -1,
            "receiveHeadersEnd" : 102,
            "type" : "application/javascript",
            "connectEnd" : 51,
            "sslStart" : -1,
            "receiveFirst" : 51,
            "len" : 3177,
            "dnsStart" : -1,
            "receiveLast" : 71.1500000023516,
            "connectStart" : 0,
            "id" : "download_4",
            "sendEnd" : 51
         },
         "when_comp_start" : -1
      },
      {
         "when_comp_start" : -1,
         "comps" : [
            {
               "s_time" : 263.472999999067,
               "type" : 1,
               "id" : "comp_15",
               "e_time" : 264.045999996597,
               "time" : 0.572999997530019
            }
         ],
         "id" : "r14",
         "download" : {
            "sslEnd" : -1,
            "dns" : 0,
            "receiveHeadersEnd" : 102,
            "receivedTime" : "173.408999995445",
            "s_time" : 70.3189999912865,
            "dnsEnd" : -1,
            "sendStart" : 51,
            "id" : "download_5",
            "sendEnd" : 51,
            "receiveFirst" : 51,
            "sslStart" : -1,
            "connectEnd" : 51,
            "type" : "application/javascript",
            "dnsStart" : -1,
            "receiveLast" : 71.4089999954449,
            "connectStart" : 0,
            "len" : 1988
         },
         "url" : "http://original.testbed.localhost/platform.twitter.com/oct.js"
      },
      {
         "id" : "r15",
         "comps" : [],
         "download" : {
            "receiveHeadersEnd" : 103,
            "dns" : 0,
            "sslEnd" : -1,
            "sendStart" : 51,
            "dnsEnd" : -1,
            "s_time" : 70.4289999994216,
            "receivedTime" : "174.075999995694",
            "sendEnd" : 51,
            "id" : "download_6",
            "len" : 744,
            "connectStart" : 0,
            "receiveLast" : 71.0759999956936,
            "dnsStart" : -1,
            "type" : "text/plain",
            "connectEnd" : 51,
            "sslStart" : -1,
            "receiveFirst" : 52
         },
         "when_comp_start" : -1,
         "url" : "http://original.testbed.localhost/www.youtube.com/iframe_api"
      },
      {
         "when_comp_start" : -1,
         "id" : "r13",
         "comps" : [],
         "download" : {
            "dns" : 0,
            "sslEnd" : -1,
            "receiveHeadersEnd" : 104,
            "dnsEnd" : -1,
            "s_time" : 70.2099999907659,
            "receivedTime" : "225.968999991892",
            "sendStart" : 51,
            "id" : "download_7",
            "sendEnd" : 51,
            "type" : "application/javascript",
            "connectEnd" : 51,
            "sslStart" : -1,
            "receiveFirst" : 53,
            "len" : 39562,
            "receiveLast" : 121.968999991892,
            "dnsStart" : -1,
            "connectStart" : 0
         },
         "url" : "http://original.testbed.localhost/apis.google.com/js/platform.js"
      },
      {
         "when_comp_start" : -1,
         "download" : {
            "id" : "download_8",
            "sendEnd" : 101,
            "type" : "text/plain",
            "connectEnd" : 101,
            "sslStart" : -1,
            "receiveFirst" : 51,
            "len" : 431249,
            "receiveLast" : 360.3339999991,
            "dnsStart" : -1,
            "connectStart" : 0,
            "dns" : 0,
            "sslEnd" : -1,
            "receiveHeadersEnd" : 152,
            "dnsEnd" : -1,
            "s_time" : 70.5619999935152,
            "receivedTime" : "512.3339999991",
            "sendStart" : 101
         },
         "comps" : [],
         "id" : "r16",
         "url" : "http://original.testbed.localhost/site-assets.mic.com/homepage_assets/js/bundle.js%3Fb=1462561834829945"
      },
      {
         "url" : "http://original.testbed.localhost/mic.com/component_assets/images/mic-logo-black.png",
         "download" : {
            "receiveHeadersEnd" : 156,
            "dns" : 0,
            "sslEnd" : -1,
            "sendStart" : 105,
            "s_time" : 67.9369999998016,
            "dnsEnd" : -1,
            "receivedTime" : "224.697999990894",
            "sendEnd" : 105,
            "id" : "download_9",
            "len" : 3332,
            "receiveLast" : 68.6979999908945,
            "dnsStart" : -1,
            "connectStart" : 0,
            "connectEnd" : 105,
            "type" : "image/png",
            "receiveFirst" : 51,
            "sslStart" : -1
         },
         "id" : "r4",
         "comps" : [],
         "when_comp_start" : -1
      },
      {
         "comps" : [],
         "id" : "r5",
         "download" : {
            "len" : 65625,
            "dnsStart" : -1,
            "connectStart" : 0,
            "receiveLast" : 262.627999999444,
            "connectEnd" : 105,
            "type" : "image/jpeg",
            "receiveFirst" : 51,
            "sslStart" : -1,
            "sendEnd" : 105,
            "id" : "download_10",
            "sendStart" : 105,
            "s_time" : 68.3920000010403,
            "dnsEnd" : -1,
            "receivedTime" : "418.627999999444",
            "receiveHeadersEnd" : 156,
            "dns" : 0,
            "sslEnd" : -1
         },
         "when_comp_start" : -1,
         "url" : "http://original.testbed.localhost/thumbs.mic.com/ZDk5NThkNjBmNiMvVDdRaEk4VlhXX2NUcFNzT25lOGxod20yV2hVPS84MDB4ODAwL2ZpbHRlcnM6Zm9ybWF0KGpwZWcpOnF1YWxpdHkoODApL2h0dHBzOi8vczMuYW1hem9uYXdzLmNvbS9wb2xpY3ltaWMtaW1hZ2VzL2xycm9nZXl4MnZzMGl3cmVqejdtc2NqNHBmdXJ0c2hzY3dlcXlpeWRlbnBueXh1bGZpbHBr"
      },
      {
         "url" : "http://original.testbed.localhost/thumbs.mic.com/NTVmM2Q5YzI1MSMvNFN0eWpqaUtnbktKM3NFbEUtN0lrMXhuYlpnPS80MDB4NDAwL2ZpbHRlcnM6Zm9ybWF0KGpwZWcpOnF1YWxpdHkoODApL2h0dHBzOi8vczMuYW1hem9uYXdzLmNvbS9wb2xpY3ltaWMtaW1hZ2VzL3MzcGF3YW05bHJyMzJubzQ4dnN4NmlpbXd1bjdwNHV2eWJuamNja2dibXEyaXFmNmNsNmc1",
         "when_comp_start" : -1,
         "comps" : [],
         "id" : "r6",
         "download" : {
            "receiveFirst" : 52,
            "sslStart" : -1,
            "connectEnd" : 105,
            "type" : "image/jpeg",
            "connectStart" : 0,
            "receiveLast" : 260.325999995228,
            "dnsStart" : -1,
            "len" : 24406,
            "id" : "download_11",
            "sendEnd" : 105,
            "receivedTime" : "417.325999995228",
            "s_time" : 68.6449999921024,
            "dnsEnd" : -1,
            "sendStart" : 105,
            "sslEnd" : -1,
            "dns" : 0,
            "receiveHeadersEnd" : 157
         }
      },
      {
         "when_comp_start" : -1,
         "comps" : [],
         "id" : "r7",
         "download" : {
            "sendStart" : 156,
            "receivedTime" : "418.850999994902",
            "dnsEnd" : -1,
            "s_time" : 68.807999996352,
            "receiveHeadersEnd" : 209,
            "sslEnd" : -1,
            "dns" : 0,
            "connectStart" : 0,
            "dnsStart" : -1,
            "receiveLast" : 209.850999994902,
            "len" : 35381,
            "sslStart" : -1,
            "receiveFirst" : 53,
            "type" : "image/jpeg",
            "connectEnd" : 156,
            "sendEnd" : 156,
            "id" : "download_12"
         },
         "url" : "http://original.testbed.localhost/thumbs.mic.com/YTAwNDM3YmJiYiMvcXJvVzFTa205Z2V0QnUyamhjZGxzREI0S1kwPS80MDB4NDAwL2ZpbHRlcnM6Zm9ybWF0KGpwZWcpOnF1YWxpdHkoODApL2h0dHBzOi8vczMuYW1hem9uYXdzLmNvbS9wb2xpY3ltaWMtaW1hZ2VzL3VhY3llZ2VqazFicDZqNnBiZHN1azNhZGZ3bnB4aGRiYmgzcmhlZ3FubWd2MXFpczZveHFn"
      },
      {
         "url" : "http://original.testbed.localhost/thumbs.mic.com/NGVhNzAyYWNkZCMvUGVIWXo5UjhXX3ZKdlZ0SDhVR0JyNndmZTBnPS80MDB4MjI1L2ZpbHRlcnM6Zm9ybWF0KGpwZWcpOnF1YWxpdHkoODApL2h0dHBzOi8vczMuYW1hem9uYXdzLmNvbS9wb2xpY3ltaWMtaW1hZ2VzLzZ4ejJ3MmVwczd3c2hucjM0eGRwZHZlY3ZvZHM2YjhqemthZ3hneGVmZGRvaTllNno1b2h5",
         "when_comp_start" : -1,
         "download" : {
            "connectEnd" : 157,
            "type" : "image/jpeg",
            "receiveFirst" : 54,
            "sslStart" : -1,
            "len" : 20625,
            "connectStart" : 0,
            "receiveLast" : 206.772999993758,
            "dnsStart" : -1,
            "id" : "download_13",
            "sendEnd" : 157,
            "s_time" : 68.9609999972163,
            "dnsEnd" : -1,
            "receivedTime" : "417.772999993758",
            "sendStart" : 157,
            "dns" : 0,
            "sslEnd" : -1,
            "receiveHeadersEnd" : 211
         },
         "comps" : [],
         "id" : "r8"
      },
      {
         "url" : "http://original.testbed.localhost/thumbs.mic.com/NzAyYzA2ZjI0YiMvRDNpeGpMR0Y4dVNKUXAwOGg1Y293cXFHSXNnPS80MDB4MjI1L2ZpbHRlcnM6Zm9ybWF0KGpwZWcpOnF1YWxpdHkoODApL2h0dHBzOi8vczMuYW1hem9uYXdzLmNvbS9wb2xpY3ltaWMtaW1hZ2VzL3llZnpnb2RsZGFkZ3J5enB4eWx0cmQ0bTZrdGxzenppcjI2cHppbnZrZ2NuY3Z5anhoNW5y",
         "download" : {
            "dnsEnd" : -1,
            "s_time" : 69.1189999924973,
            "receivedTime" : "418.093000000226",
            "sendStart" : 161,
            "dns" : 0,
            "sslEnd" : -1,
            "receiveHeadersEnd" : 212,
            "type" : "image/jpeg",
            "connectEnd" : 161,
            "sslStart" : -1,
            "receiveFirst" : 51,
            "len" : 21061,
            "receiveLast" : 206.093000000226,
            "connectStart" : 0,
            "dnsStart" : -1,
            "id" : "download_14",
            "sendEnd" : 161
         },
         "id" : "r9",
         "comps" : [],
         "when_comp_start" : -1
      },
      {
         "download" : {
            "id" : "download_15",
            "sendEnd" : 210,
            "connectEnd" : 210,
            "type" : "image/jpeg",
            "receiveFirst" : 52,
            "sslStart" : -1,
            "len" : 22746,
            "connectStart" : 0,
            "receiveLast" : 157.402999992599,
            "dnsStart" : -1,
            "dns" : 0,
            "sslEnd" : -1,
            "receiveHeadersEnd" : 262,
            "s_time" : 69.3739999987883,
            "dnsEnd" : -1,
            "receivedTime" : "419.402999992599",
            "sendStart" : 210
         },
         "comps" : [],
         "id" : "r10",
         "when_comp_start" : -1,
         "url" : "http://original.testbed.localhost/thumbs.mic.com/YmM3NDI4OGYxMCMva2U4VHJDbXpaVnZwMmRnNk5iWVg0SkZhaEtZPS80MDB4MjI1L2ZpbHRlcnM6Zm9ybWF0KGpwZWcpOnF1YWxpdHkoODApL2h0dHBzOi8vczMuYW1hem9uYXdzLmNvbS9wb2xpY3ltaWMtaW1hZ2VzLzV6Y25jOXZjb3ppZGhqcGFidzJua21mNm5vc3ZjdGtrb2hkcjN4YWdsYmF2b2dodm1na3Vr"
      },
      {
         "when_comp_start" : -1,
         "download" : {
            "sendStart" : 34,
            "receivedTime" : "423.460999998497",
            "dnsEnd" : -1,
            "s_time" : 246.784000002663,
            "receiveHeadersEnd" : 87,
            "sslEnd" : -1,
            "dns" : 0,
            "dnsStart" : -1,
            "receiveLast" : 336.460999998497,
            "connectStart" : 0,
            "len" : 77017,
            "sslStart" : -1,
            "receiveFirst" : 52,
            "type" : "image/jpeg",
            "connectEnd" : 34,
            "sendEnd" : 35,
            "id" : "download_16"
         },
         "comps" : [],
         "id" : "r22",
         "url" : "http://original.testbed.localhost/thumbs.mic.com/OGRkZmYwZmQ5MiMvaHRTZnZKMThiNEYwZ2FTRUFRTDhoQkxySGFjPS8xNjAweDkwMC9maWx0ZXJzOmZvcm1hdChqcGVnKTpxdWFsaXR5KDgwKS9odHRwczovL3MzLmFtYXpvbmF3cy5jb20vcG9saWN5bWljLWltYWdlcy93aWpyZGFicW1lY3R3Y3FqdHB1aWdvMnV4N29sZ3Vmd3hwMHZ2aGdhZm05ZXZycnVzN3Jh"
      },
      {
         "url" : "http://original.testbed.localhost/thumbs.mic.com/M2I1ZDE3MzQyOSMvVFNia25TdS1wSVJqbElPcmdFVjktN3B0WDZrPS8xNjAweDkwMC9maWx0ZXJzOmZvcm1hdChqcGVnKTpxdWFsaXR5KDgwKS9odHRwOi8vczMuYW1hem9uYXdzLmNvbS9wb2xpY3ltaWMtaW1hZ2VzL3Zud2Z5bXphc2xrdWZuY3RodmpxNXhpNjNnbW05NmpkZHNpeW1oYnl1cm9qdnByY3V2a3c2",
         "when_comp_start" : -1,
         "download" : {
            "sendEnd" : 32,
            "id" : "download_17",
            "len" : 87652,
            "receiveLast" : 335.128000001772,
            "dnsStart" : -1,
            "connectStart" : 0,
            "type" : "image/jpeg",
            "connectEnd" : 32,
            "sslStart" : -1,
            "receiveFirst" : 54,
            "receiveHeadersEnd" : 86,
            "dns" : 0,
            "sslEnd" : -1,
            "sendStart" : 32,
            "dnsEnd" : -1,
            "s_time" : 250.759999995353,
            "receivedTime" : "421.128000001772"
         },
         "id" : "r23",
         "comps" : []
      },
      {
         "download" : {
            "receiveLast" : 328.724999994505,
            "dnsStart" : -1,
            "connectStart" : 0,
            "len" : 104306,
            "receiveFirst" : 51,
            "sslStart" : -1,
            "connectEnd" : 50,
            "type" : "application/javascript",
            "sendEnd" : 50,
            "id" : "download_18",
            "sendStart" : 50,
            "receivedTime" : "429.724999994505",
            "s_time" : 263.185000003432,
            "dnsEnd" : -1,
            "receiveHeadersEnd" : 101,
            "sslEnd" : -1,
            "dns" : 0
         },
         "comps" : [
            {
               "id" : "comp_27",
               "type" : 2,
               "s_time" : 461.654999991879,
               "time" : 48.282000003382,
               "e_time" : 509.936999995261
            }
         ],
         "id" : "r24",
         "when_comp_start" : -1,
         "url" : "http://platform.twitter.com/widgets.js"
      },
      {
         "url" : "http://www.googletagmanager.com/gtm.js?id=GTM-T6KCC3",
         "when_comp_start" : -1,
         "download" : {
            "connectEnd" : 52,
            "type" : "application/javascript",
            "receiveFirst" : 76,
            "sslStart" : -1,
            "len" : 42170,
            "receiveLast" : 382.20599999174,
            "dnsStart" : -1,
            "connectStart" : 0,
            "id" : "download_19",
            "sendEnd" : 52,
            "s_time" : 264.662000001408,
            "dnsEnd" : -1,
            "receivedTime" : "510.20599999174",
            "sendStart" : 52,
            "dns" : 0,
            "sslEnd" : -1,
            "receiveHeadersEnd" : 128
         },
         "id" : "r26",
         "comps" : [
            {
               "time" : 24.695999993128,
               "e_time" : 624.236999996356,
               "id" : "comp_34",
               "s_time" : 599.541000003228,
               "type" : 2
            }
         ]
      },
      {
         "comps" : [],
         "id" : "r17",
         "download" : {
            "receiveHeadersEnd" : 54,
            "sslEnd" : -1,
            "dns" : 0,
            "sendStart" : 1,
            "receivedTime" : "624.89999999525",
            "dnsEnd" : -1,
            "s_time" : 413.824000002933,
            "sendEnd" : 1,
            "id" : "download_21",
            "receiveLast" : 570.89999999525,
            "dnsStart" : -1,
            "connectStart" : 0,
            "len" : 57046,
            "sslStart" : -1,
            "receiveFirst" : 53,
            "type" : "application/x-font-woff",
            "connectEnd" : 1
         },
         "when_comp_start" : -1,
         "url" : "http://original.testbed.localhost/site-assets.mic.com/homepage_assets/fonts/stag/Stag-Light-Web.woff"
      },
      {
         "id" : "r18",
         "comps" : [],
         "download" : {
            "receivedTime" : "510.920999993687",
            "s_time" : 413.969000001089,
            "dnsEnd" : -1,
            "sendStart" : 1,
            "sslEnd" : -1,
            "dns" : 0,
            "receiveHeadersEnd" : 57,
            "receiveFirst" : 54,
            "sslStart" : -1,
            "connectEnd" : 1,
            "type" : "application/x-font-woff",
            "dnsStart" : -1,
            "connectStart" : 0,
            "receiveLast" : 453.920999993687,
            "len" : 51589,
            "id" : "download_22",
            "sendEnd" : 3
         },
         "when_comp_start" : -1,
         "url" : "http://original.testbed.localhost/site-assets.mic.com/homepage_assets/fonts/stag/Stag-Bold-Web.woff"
      },
      {
         "url" : "http://s.ytimg.com/yts/jsbin/www-widgetapi-vflWykQrU/www-widgetapi.js",
         "when_comp_start" : -1,
         "comps" : [
            {
               "type" : 2,
               "s_time" : 648.97199999541,
               "id" : "comp_38",
               "time" : 7.44899999699601,
               "e_time" : 656.420999992406
            }
         ],
         "id" : "r30",
         "download" : {
            "sendEnd" : 50,
            "id" : "download_23",
            "dnsStart" : -1,
            "receiveLast" : 511.325999997789,
            "connectStart" : 0,
            "len" : 24168,
            "sslStart" : -1,
            "receiveFirst" : 65,
            "type" : "text/javascript",
            "connectEnd" : 50,
            "receiveHeadersEnd" : 115,
            "sslEnd" : -1,
            "dns" : 0,
            "sendStart" : 50,
            "receivedTime" : "626.325999997789",
            "dnsEnd" : -1,
            "s_time" : 395.543999999063
         }
      },
      {
         "download" : {
            "type" : "text/javascript",
            "connectEnd" : 52,
            "sslStart" : -1,
            "receiveFirst" : 50,
            "len" : 152557,
            "dnsStart" : -1,
            "receiveLast" : 531.261999992304,
            "connectStart" : 0,
            "id" : "download_24",
            "sendEnd" : 53,
            "dnsEnd" : -1,
            "s_time" : 413.493999993079,
            "receivedTime" : "634.261999992304",
            "sendStart" : 52,
            "dns" : 0,
            "sslEnd" : -1,
            "receiveHeadersEnd" : 103
         },
         "id" : "r31",
         "comps" : [
            {
               "id" : "comp_40",
               "type" : 2,
               "s_time" : 656.451000002562,
               "e_time" : 2894.00800000294,
               "time" : 2237.55700000038
            }
         ],
         "when_comp_start" : -1,
         "url" : "http://partner.googleadservices.com/gpt/pubads_impl_86.js"
      },
      {
         "comps" : [
            {
               "time" : 53.1389999960102,
               "e_time" : 3043.92299999017,
               "id" : "comp_58",
               "s_time" : 2990.78399999416,
               "type" : 2
            }
         ],
         "id" : "r27",
         "download" : {
            "sendStart" : 169,
            "s_time" : 387.33699999284,
            "dnsEnd" : -1,
            "receivedTime" : "2911.2460000033",
            "receiveHeadersEnd" : 237,
            "dns" : 0,
            "sslEnd" : 168,
            "len" : 94687,
            "connectStart" : 0,
            "dnsStart" : -1,
            "receiveLast" : 2674.2460000033,
            "connectEnd" : 169,
            "type" : "text/javascript",
            "receiveFirst" : 56,
            "sslStart" : 106,
            "sendEnd" : 181,
            "id" : "download_25"
         },
         "when_comp_start" : -1,
         "url" : "https://apis.google.com/_/scs/apps-static/_/js/k=oz.gapi.en_US.LA5PVEire2I.O/m=ytsubscribe/rt=j/sv=1/d=1/ed=1/am=AQ/rs=AGLTcCNWjxqU7_hxvpq5s59LXnetzBl1pQ/cb=gapi.loaded_0"
      },
      {
         "id" : "r33",
         "comps" : [
            {
               "time" : 25.9619999997099,
               "e_time" : 2987.36400000053,
               "type" : 2,
               "s_time" : 2961.40200000082,
               "id" : "comp_53"
            }
         ],
         "download" : {
            "s_time" : 540.687000000617,
            "dnsEnd" : -1,
            "receivedTime" : "2910.10399999504",
            "sendStart" : 51,
            "dns" : 0,
            "sslEnd" : -1,
            "receiveHeadersEnd" : 102,
            "connectEnd" : 51,
            "type" : "text/javascript",
            "receiveFirst" : 51,
            "sslStart" : -1,
            "len" : 42873,
            "dnsStart" : -1,
            "connectStart" : 0,
            "receiveLast" : 2808.10399999504,
            "id" : "download_26",
            "sendEnd" : 51
         },
         "when_comp_start" : -1,
         "url" : "http://stats.g.doubleclick.net/dc.js"
      },
      {
         "comps" : [
            {
               "s_time" : 2952.32699999178,
               "type" : 2,
               "id" : "comp_47",
               "time" : 2.3500000097597,
               "e_time" : 2954.67700000154
            }
         ],
         "id" : "r36",
         "download" : {
            "receiveHeadersEnd" : 102,
            "dns" : 0,
            "sslEnd" : -1,
            "sendStart" : 51,
            "s_time" : 541.622000004281,
            "dnsEnd" : -1,
            "receivedTime" : "2895.07199999935",
            "sendEnd" : 51,
            "id" : "download_27",
            "len" : 8401,
            "receiveLast" : 2793.07199999935,
            "dnsStart" : -1,
            "connectStart" : 0,
            "connectEnd" : 51,
            "type" : "application/x-javascript",
            "receiveFirst" : 51,
            "sslStart" : -1
         },
         "when_comp_start" : -1,
         "url" : "http://connect.facebook.net/en_US/fbevents.js"
      },
      {
         "url" : "http://connect.facebook.net/en_US/sdk.js",
         "download" : {
            "dnsStart" : -1,
            "receiveLast" : 2811.05199999968,
            "connectStart" : 0,
            "len" : 186334,
            "sslStart" : -1,
            "receiveFirst" : 51,
            "type" : "application/x-javascript",
            "connectEnd" : 50,
            "sendEnd" : 50,
            "id" : "download_28",
            "sendStart" : 50,
            "receivedTime" : "2912.05199999968",
            "dnsEnd" : -1,
            "s_time" : 544.565000003786,
            "receiveHeadersEnd" : 101,
            "sslEnd" : -1,
            "dns" : 0
         },
         "id" : "r40",
         "comps" : [
            {
               "type" : 2,
               "s_time" : 3044.02200000186,
               "id" : "comp_63",
               "time" : 44.9109999899501,
               "e_time" : 3088.93299999181
            }
         ],
         "when_comp_start" : -1
      },
      {
         "url" : "http://b.scorecardresearch.com/beacon.js",
         "when_comp_start" : -1,
         "id" : "r34",
         "comps" : [
            {
               "id" : "comp_49",
               "type" : 2,
               "s_time" : 2954.69800000137,
               "e_time" : 2956.34299999801,
               "time" : 1.64499999663985
            }
         ],
         "download" : {
            "receiveHeadersEnd" : 106,
            "dns" : 0,
            "sslEnd" : -1,
            "sendStart" : 51,
            "dnsEnd" : -1,
            "s_time" : 540.979999990668,
            "receivedTime" : "2896.01599999878",
            "sendEnd" : 51,
            "id" : "download_29",
            "len" : 1495,
            "connectStart" : 0,
            "dnsStart" : -1,
            "receiveLast" : 2790.01599999878,
            "type" : "application/x-javascript",
            "connectEnd" : 51,
            "sslStart" : -1,
            "receiveFirst" : 55
         }
      },
      {
         "url" : "http://original.testbed.localhost/mic.com/data.json?b=84d4b8756c7575992bbc803e7aa339be",
         "when_comp_start" : 1,
         "id" : "r41",
         "comps" : [],
         "download" : {
            "id" : "download_30",
            "sendEnd" : 0,
            "sslStart" : -1,
            "receiveFirst" : 51,
            "type" : "text/html",
            "connectEnd" : 0,
            "connectStart" : 0,
            "receiveLast" : 2845.09999999811,
            "dnsStart" : -1,
            "len" : 306,
            "sslEnd" : -1,
            "dns" : 0,
            "receiveHeadersEnd" : 51,
            "receivedTime" : "2896.09999999811",
            "dnsEnd" : -1,
            "s_time" : 596.05599999486,
            "sendStart" : 0
         }
      },
      {
         "comps" : [
            {
               "type" : 2,
               "s_time" : 2956.36499999091,
               "id" : "comp_51",
               "time" : 5.02100000449036,
               "e_time" : 2961.3859999954
            }
         ],
         "id" : "r35",
         "download" : {
            "s_time" : 542.061999993166,
            "dnsEnd" : -1,
            "receivedTime" : "2903.7709999975",
            "sendStart" : 51,
            "dns" : 0,
            "sslEnd" : -1,
            "receiveHeadersEnd" : 111,
            "connectEnd" : 51,
            "type" : "application/x-javascript",
            "receiveFirst" : 60,
            "sslStart" : -1,
            "len" : 7874,
            "dnsStart" : -1,
            "receiveLast" : 2792.7709999975,
            "connectStart" : 0,
            "id" : "download_31",
            "sendEnd" : 51
         },
         "when_comp_start" : -1,
         "url" : "http://edge.quantserve.com/quant.js"
      },
      {
         "download" : {
            "id" : "download_32",
            "sendEnd" : 175,
            "sslStart" : 105,
            "receiveFirst" : 92,
            "type" : "text/html",
            "connectEnd" : 172,
            "connectStart" : 0,
            "receiveLast" : 2637.24299999722,
            "dnsStart" : -1,
            "len" : 2327,
            "sslEnd" : 172,
            "dns" : 0,
            "receiveHeadersEnd" : 267,
            "receivedTime" : "2904.24299999722",
            "dnsEnd" : -1,
            "s_time" : 394.381999998586,
            "sendStart" : 172
         },
         "id" : "r29",
         "comps" : [
            {
               "time" : 462.09299999464,
               "e_time" : 3579.23999999184,
               "type" : "evalhtml",
               "s_time" : 3117.1469999972,
               "id" : "r29_c1"
            }
         ],
         "when_comp_start" : 1,
         "url" : "https://www.youtube.com/subscribe_embed?usegapi=1&channelid=UCgpEN1mWQxivlZ9O6GuZbOw&layout=default&count=hidden&origin=http%3A%2F%2Foriginal.testbed.localhost&gsrc=3p&ic=1&jsh=m%3B%2F_%2Fscs%2Fapps-static%2F_%2Fjs%2Fk%3Doz.gapi.en_US.LA5PVEire2I.O%2Fm%3D__features__%2Fam%3DAQ%2Frt%3Dj%2Fd%3D1%2Frs%"
      },
      {
         "url" : "http://original.testbed.localhost/site-assets.mic.com/homepage_assets/js/bundle.map.json",
         "download" : {
            "type" : "text/html",
            "connectEnd" : 0,
            "sslStart" : -1,
            "receiveFirst" : 51,
            "len" : 343,
            "receiveLast" : 2858.56600000209,
            "connectStart" : 0,
            "dnsStart" : -1,
            "id" : "download_33",
            "sendEnd" : 0,
            "dnsEnd" : -1,
            "s_time" : 626.589999999851,
            "receivedTime" : "2909.56600000209",
            "sendStart" : 0,
            "dns" : 0,
            "sslEnd" : -1,
            "receiveHeadersEnd" : 51
         },
         "id" : "r44",
         "comps" : [],
         "when_comp_start" : 1
      },
      {
         "url" : "https://apis.google.com/_/scs/apps-static/_/js/k=oz.gapi.en_US.LA5PVEire2I.O/m=auth/exm=ytsubscribe/rt=j/sv=1/d=1/ed=1/am=AQ/rs=AGLTcCNWjxqU7_hxvpq5s59LXnetzBl1pQ/cb=gapi.loaded_1",
         "download" : {
            "receiveHeadersEnd" : 289,
            "sslEnd" : -1,
            "dns" : 0,
            "sendStart" : 167,
            "receivedTime" : "2911.11499999533",
            "dnsEnd" : -1,
            "s_time" : 389.584000004106,
            "sendEnd" : 180,
            "id" : "download_34",
            "receiveLast" : 2622.11499999533,
            "connectStart" : 0,
            "dnsStart" : -1,
            "len" : 86626,
            "sslStart" : -1,
            "receiveFirst" : 109,
            "type" : "text/javascript",
            "connectEnd" : 167
         },
         "comps" : [
            {
               "id" : "comp_55",
               "s_time" : 2987.39199999545,
               "type" : 2,
               "time" : 2.98299999849996,
               "e_time" : 2990.37499999395
            }
         ],
         "id" : "r28",
         "when_comp_start" : -1
      },
      {
         "download" : {
            "sendStart" : 50,
            "receivedTime" : "2910.88399999717",
            "s_time" : 544.120999998995,
            "dnsEnd" : -1,
            "receiveHeadersEnd" : 156,
            "sslEnd" : -1,
            "dns" : 0,
            "receiveLast" : 2754.88399999717,
            "connectStart" : 0,
            "dnsStart" : -1,
            "len" : 43,
            "receiveFirst" : 106,
            "sslStart" : -1,
            "connectEnd" : 50,
            "type" : "image/gif",
            "sendEnd" : 50,
            "id" : "download_35"
         },
         "id" : "r39",
         "comps" : [],
         "when_comp_start" : -1,
         "url" : "http://t.co/i/adsct?p_id=Twitter&p_user_id=0&txn_id=ntm6h&tw_sale_amount=0&tw_order_quantity=0&tw_iframe_status=0"
      },
      {
         "url" : "http://d8rk54i4mohrb.cloudfront.net/js/reach.js",
         "when_comp_start" : -1,
         "comps" : [
            {
               "id" : "comp_65",
               "s_time" : 3088.95999999368,
               "type" : 2,
               "e_time" : 3095.7139999955,
               "time" : 6.75400000182026
            }
         ],
         "id" : "r37",
         "download" : {
            "len" : 15748,
            "receiveLast" : 2723.175999998,
            "connectStart" : 0,
            "dnsStart" : -1,
            "connectEnd" : 50,
            "type" : "application/javascript",
            "receiveFirst" : 139,
            "sslStart" : -1,
            "sendEnd" : 50,
            "id" : "download_36",
            "sendStart" : 50,
            "s_time" : 542.472999994061,
            "dnsEnd" : -1,
            "receivedTime" : "2912.175999998",
            "receiveHeadersEnd" : 189,
            "dns" : 0,
            "sslEnd" : -1
         }
      },
      {
         "download" : {
            "sendStart" : 412,
            "s_time" : 263.808000003337,
            "dnsEnd" : -1,
            "receivedTime" : "2912.24099999818",
            "receiveHeadersEnd" : 469,
            "dns" : 0,
            "sslEnd" : 412,
            "len" : 34563,
            "dnsStart" : -1,
            "connectStart" : 0,
            "receiveLast" : 2443.24099999818,
            "connectEnd" : 412,
            "type" : "application/javascript",
            "receiveFirst" : 55,
            "sslStart" : 347,
            "sendEnd" : 414,
            "id" : "download_37"
         },
         "comps" : [
            {
               "s_time" : 3095.73499999533,
               "type" : 2,
               "id" : "comp_78",
               "time" : 9.68699999794035,
               "e_time" : 3105.42199999327
            }
         ],
         "id" : "r25",
         "when_comp_start" : -1,
         "url" : "https://files.mic.com/scripts/3.2.7-kt.min.js"
      },
      {
         "url" : "https://platform.twitter.com/js/button.07a87b943a27e2a4a74c40e24a4a5ccc.js",
         "id" : "r32",
         "comps" : [
            {
               "time" : 3.89899998845021,
               "e_time" : 3109.43499999121,
               "id" : "comp_81",
               "type" : 2,
               "s_time" : 3105.53600000276
            }
         ],
         "download" : {
            "id" : "download_38",
            "sendEnd" : 225,
            "sslStart" : 105,
            "receiveFirst" : 54,
            "type" : "application/javascript",
            "connectEnd" : 225,
            "receiveLast" : 2633.52899999381,
            "dnsStart" : -1,
            "connectStart" : 0,
            "len" : 4317,
            "sslEnd" : 225,
            "dns" : 0,
            "receiveHeadersEnd" : 279,
            "receivedTime" : "2912.52899999381",
            "dnsEnd" : -1,
            "s_time" : 509.647999992012,
            "sendStart" : 225
         },
         "when_comp_start" : -1
      },
      {
         "url" : "https://use.typekit.net/qrp0cdv.js",
         "download" : {
            "sendStart" : 168,
            "dnsEnd" : -1,
            "s_time" : 597.039999993285,
            "receivedTime" : "2921.22799999197",
            "receiveHeadersEnd" : 228,
            "dns" : 0,
            "sslEnd" : 167,
            "len" : 24679,
            "dnsStart" : -1,
            "receiveLast" : 2693.22799999197,
            "connectStart" : 0,
            "type" : "text/javascript",
            "connectEnd" : 168,
            "sslStart" : 104,
            "receiveFirst" : 55,
            "sendEnd" : 173,
            "id" : "download_39"
         },
         "comps" : [
            {
               "time" : 5.12099999469001,
               "e_time" : 3114.57999999402,
               "id" : "comp_84",
               "type" : 2,
               "s_time" : 3109.45899999933
            }
         ],
         "id" : "r42",
         "when_comp_start" : -1
      },
      {
         "download" : {
            "sendStart" : 173,
            "receivedTime" : "2912.91600000113",
            "dnsEnd" : -1,
            "s_time" : 597.448000000441,
            "receiveHeadersEnd" : 229,
            "sslEnd" : 173,
            "dns" : 0,
            "dnsStart" : -1,
            "receiveLast" : 2683.91600000113,
            "connectStart" : 0,
            "len" : 27466,
            "sslStart" : 110,
            "receiveFirst" : 56,
            "type" : "text/css",
            "connectEnd" : 173,
            "sendEnd" : 173,
            "id" : "download_40"
         },
         "comps" : [
            {
               "id" : "comp_43",
               "type" : 2,
               "s_time" : 2912.95600000012,
               "time" : 8.18399999115991,
               "e_time" : 2921.13999999128
            }
         ],
         "id" : "r43",
         "when_comp_start" : -1,
         "url" : "https://maxcdn.bootstrapcdn.com/font-awesome/4.5.0/css/font-awesome.min.css"
      },
      {
         "url" : "https://analytics.twitter.com/i/adsct?p_id=Twitter&p_user_id=0&txn_id=ntm6h&tw_sale_amount=0&tw_order_quantity=0&tw_iframe_status=0",
         "id" : "r38",
         "comps" : [],
         "download" : {
            "type" : "image/gif",
            "connectEnd" : 211,
            "sslStart" : 133,
            "receiveFirst" : 77,
            "len" : 43,
            "dnsStart" : -1,
            "receiveLast" : 2633.57700000098,
            "connectStart" : 0,
            "id" : "download_41",
            "sendEnd" : 211,
            "dnsEnd" : -1,
            "s_time" : 543.697000000975,
            "receivedTime" : "2921.57700000098",
            "sendStart" : 211,
            "dns" : 0,
            "sslEnd" : 211,
            "receiveHeadersEnd" : 288
         },
         "when_comp_start" : -1
      },
      {
         "id" : "r50",
         "comps" : [],
         "download" : {
            "receiveHeadersEnd" : 140,
            "sslEnd" : -1,
            "dns" : 0,
            "sendStart" : 50,
            "receivedTime" : "3132.35200000054",
            "dnsEnd" : -1,
            "s_time" : 2961.51300000201,
            "sendEnd" : 50,
            "id" : "download_42",
            "receiveLast" : 2992.35200000054,
            "dnsStart" : -1,
            "connectStart" : 0,
            "len" : 35,
            "sslStart" : -1,
            "receiveFirst" : 90,
            "type" : "image/gif",
            "connectEnd" : 50
         },
         "when_comp_start" : -1,
         "url" : "http://pixel.quantserve.com/pixel;r=1167864983;a=p-b8h5ojpDoAhcg;fpan=1;fpa=P0-2108717777-1463283565043;ns=0;ce=1;cm=;je=1;sr=1920x1080x24;enc=n;dst=1;et=1463283565041;tzo=240;ref=;url=http%3A%2F%2Foriginal.testbed.localhost%2Fmic.com%2F;ogl=image.%2F%2Fsite-assets%252Emic%252Ecom%2Fhomepage_assets%"
      },
      {
         "url" : "http://d8rk54i4mohrb.cloudfront.net/container.html?url=http%3A%2F%2Fmic.com&title=Welcome%20to%20Mic.com&referrer=&page_url=http%3A%2F%2Foriginal.testbed.localhost%2Fmic.com%2F&cb=SPR.API.callbacks.cbqmwbnzzolxr&ref_url=&cache_buster=1463283565177",
         "comps" : [
            {
               "e_time" : 3169.86700000416,
               "time" : 3.43600001361028,
               "type" : "evalhtml",
               "s_time" : 3166.43099999055,
               "id" : "r53_c1"
            }
         ],
         "id" : "r53",
         "download" : {
            "dnsStart" : -1,
            "receiveLast" : 3110.7489999925,
            "connectStart" : 0,
            "len" : 7233,
            "receiveFirst" : 55,
            "sslStart" : -1,
            "connectEnd" : 0,
            "type" : "text/html",
            "sendEnd" : 0,
            "id" : "download_43",
            "sendStart" : 0,
            "receivedTime" : "3165.7489999925",
            "s_time" : 3096.47499999846,
            "dnsEnd" : -1,
            "receiveHeadersEnd" : 55,
            "sslEnd" : -1,
            "dns" : 0
         },
         "when_comp_start" : 1
      },
      {
         "url" : "http://platform.twitter.com/widgets/follow_button.6f0f2e104cd4fbbafb16bbad6813f68d.en.html#dnt=true&id=twitter-widget-0&lang=en&screen_name=MicNews&show_count=false&show_screen_name=true&size=m&time=1463283565206",
         "when_comp_start" : 1,
         "download" : {
            "id" : "download_44",
            "sendEnd" : 0,
            "type" : "text/html",
            "connectEnd" : 0,
            "sslStart" : -1,
            "receiveFirst" : 50,
            "len" : 33571,
            "dnsStart" : -1,
            "receiveLast" : 3165.4179999925,
            "connectStart" : 0,
            "dns" : 0,
            "sslEnd" : -1,
            "receiveHeadersEnd" : 50,
            "dnsEnd" : -1,
            "s_time" : 3158.31699999399,
            "receivedTime" : "3215.4179999925",
            "sendStart" : 0
         },
         "id" : "r59",
         "comps" : [
            {
               "s_time" : 3215.62999999151,
               "type" : "evalhtml",
               "id" : "r59_c1",
               "time" : 31.2890000059201,
               "e_time" : 3246.91899999743
            }
         ]
      },
      {
         "url" : "https://maxcdn.bootstrapcdn.com/font-awesome/4.5.0/fonts/fontawesome-webfont.woff?v=4.5.0",
         "id" : "r46",
         "comps" : [],
         "download" : {
            "receiveLast" : 3186.12799999712,
            "connectStart" : 0,
            "dnsStart" : -1,
            "len" : 83588,
            "receiveFirst" : 105,
            "sslStart" : -1,
            "connectEnd" : 0,
            "type" : "application/font-woff",
            "sendEnd" : 0,
            "id" : "download_45",
            "sendStart" : 0,
            "receivedTime" : "3291.12799999712",
            "s_time" : 3132.66099999601,
            "dnsEnd" : -1,
            "receiveHeadersEnd" : 105,
            "sslEnd" : -1,
            "dns" : 0
         },
         "when_comp_start" : -1
      },
      {
         "comps" : [
            {
               "id" : "r60_c1",
               "type" : "evalhtml",
               "s_time" : 3281.79300000193,
               "time" : 52.3160000011499,
               "e_time" : 3334.10900000308
            }
         ],
         "id" : "r60",
         "download" : {
            "receiveHeadersEnd" : 100,
            "dns" : 0,
            "sslEnd" : -1,
            "sendStart" : 49,
            "s_time" : 3167.14700000011,
            "dnsEnd" : -1,
            "receivedTime" : "3324.64999999502",
            "sendEnd" : 49,
            "id" : "download_46",
            "len" : 36422,
            "dnsStart" : -1,
            "receiveLast" : 3224.64999999502,
            "connectStart" : 0,
            "connectEnd" : 49,
            "type" : "text/html",
            "receiveFirst" : 51,
            "sslStart" : -1
         },
         "when_comp_start" : 1,
         "url" : "http://staticxx.facebook.com/connect/xd_arbiter.php?version=42#channel=f10dd72fd4&origin=http%3A%2F%2Foriginal.testbed.localhost"
      },
      {
         "url" : "https://accounts.google.com/o/oauth2/postmessageRelay?parent=http%3A%2F%2Foriginal.testbed.localhost&jsh=m%3B%2F_%2Fscs%2Fapps-static%2F_%2Fjs%2Fk%3Doz.gapi.en_US.LA5PVEire2I.O%2Fm%3D__features__%2Fam%3DAQ%2Frt%3Dj%2Fd%3D1%2Frs%3DAGLTcCNWjxqU7_hxvpq5s59LXnetzBl1pQ#rpctoken=293114681&forcesecure=1",
         "when_comp_start" : 1,
         "download" : {
            "dnsEnd" : -1,
            "s_time" : 3035.02499999013,
            "receivedTime" : "3282.74100000272",
            "sendStart" : 167,
            "dns" : 0,
            "sslEnd" : 166,
            "receiveHeadersEnd" : 247,
            "type" : "text/html",
            "connectEnd" : 167,
            "sslStart" : 104,
            "receiveFirst" : 80,
            "len" : 506,
            "dnsStart" : -1,
            "receiveLast" : 3035.74100000272,
            "connectStart" : 0,
            "id" : "download_47",
            "sendEnd" : 167
         },
         "id" : "r52",
         "comps" : [
            {
               "time" : 111.50899999484,
               "e_time" : 3398.33899999212,
               "id" : "r52_c1",
               "type" : "evalhtml",
               "s_time" : 3286.82999999728
            },
            {
               "time" : 0.0109999964497547,
               "e_time" : 3511.30499999272,
               "s_time" : 3511.29399999627,
               "type" : "evalhtml",
               "id" : "r52_c2"
            }
         ]
      },
      {
         "when_comp_start" : -1,
         "comps" : [
            {
               "type" : null,
               "s_time" : 3342.72400000191,
               "id" : "comp_154",
               "e_time" : 3347.17300000193,
               "time" : 4.44900000002008
            }
         ],
         "id" : "r55",
         "download" : {
            "sendEnd" : 164,
            "id" : "download_48",
            "connectStart" : 0,
            "receiveLast" : 3124.64999999141,
            "dnsStart" : -1,
            "len" : 34925,
            "sslStart" : 104,
            "receiveFirst" : 54,
            "type" : "text/css",
            "connectEnd" : 162,
            "receiveHeadersEnd" : 218,
            "sslEnd" : 162,
            "dns" : 0,
            "sendStart" : 162,
            "receivedTime" : "3342.64999999141",
            "dnsEnd" : -1,
            "s_time" : 3117.44000000181
         },
         "url" : "https://s.ytimg.com/yts/cssbin/www-subscribe-embed-webp-vfl1WfA8o.css"
      },
      {
         "when_comp_start" : -1,
         "comps" : [
            {
               "s_time" : 3387.04600000347,
               "type" : null,
               "id" : "comp_165",
               "e_time" : 3394.96599999256,
               "time" : 7.91999998908977
            }
         ],
         "id" : "r56",
         "download" : {
            "sslStart" : -1,
            "receiveFirst" : 55,
            "type" : "text/javascript",
            "connectEnd" : 162,
            "dnsStart" : -1,
            "receiveLast" : 3167.99699999415,
            "connectStart" : 0,
            "len" : 55176,
            "id" : "download_49",
            "sendEnd" : 164,
            "receivedTime" : "3386.99699999415",
            "dnsEnd" : -1,
            "s_time" : 3117.6209999976,
            "sendStart" : 162,
            "sslEnd" : -1,
            "dns" : 0,
            "receiveHeadersEnd" : 219
         },
         "url" : "https://s.ytimg.com/yts/jsbin/www-subscribe-embed-vflQlEGg3/www-subscribe-embed.js"
      },
      {
         "download" : {
            "sendEnd" : 63,
            "id" : "download_50",
            "len" : 93,
            "dnsStart" : -1,
            "receiveLast" : 3158.29399999825,
            "connectStart" : 0,
            "connectEnd" : 63,
            "type" : "application/javascript",
            "receiveFirst" : 139,
            "sslStart" : -1,
            "receiveHeadersEnd" : 202,
            "dns" : 0,
            "sslEnd" : -1,
            "sendStart" : 63,
            "s_time" : 3157.47099999862,
            "dnsEnd" : -1,
            "receivedTime" : "3360.29399999825"
         },
         "id" : "r58",
         "comps" : [
            {
               "s_time" : 3360.39200000232,
               "type" : null,
               "id" : "comp_156",
               "e_time" : 3363.47599999863,
               "time" : 3.08399999631001
            }
         ],
         "when_comp_start" : -1,
         "url" : "http://edge.simplereach.com/n?url=http%3A%2F%2Fmic.com&title=Welcome%20to%20Mic.com&referrer=&page_url=http%3A%2F%2Foriginal.testbed.localhost%2Fmic.com%2F&cb=SPR.API.callbacks.cbqmwbnzzolxr"
      },
      {
         "url" : "http://edge.simplereach.com/x?url=http%3A%2F%2Fmic.com&title=Welcome%20to%20Mic.com&referrer=&page_url=http%3A%2F%2Foriginal.testbed.localhost%2Fmic.com%2F&cb=SPR.API.callbacks.cbqmwbnzzolxr&ref_url=&cache_buster=1463283565177",
         "download" : {
            "len" : 26,
            "dnsStart" : -1,
            "receiveLast" : 3171.57899999025,
            "connectStart" : 0,
            "type" : "text/html",
            "connectEnd" : 38,
            "sslStart" : -1,
            "receiveFirst" : 156,
            "sendEnd" : 38,
            "id" : "download_51",
            "sendStart" : 38,
            "dnsEnd" : -1,
            "s_time" : 3170.20199999388,
            "receivedTime" : "3365.57899999025",
            "receiveHeadersEnd" : 194,
            "dns" : 0,
            "sslEnd" : -1
         },
         "comps" : [
            {
               "s_time" : 3369.16600000404,
               "type" : "evalhtml",
               "id" : "r62_c1",
               "e_time" : 3369.24200000067,
               "time" : 0.0759999966298892
            }
         ],
         "id" : "r62",
         "when_comp_start" : 1
      },
      {
         "url" : "https://apis.google.com/js/rpc:shindig_random.js?onload=init",
         "id" : "r64",
         "comps" : [
            {
               "s_time" : 3507.65800000227,
               "type" : 1,
               "id" : "comp_174",
               "time" : 3.63599999400003,
               "e_time" : 3511.29399999627
            }
         ],
         "download" : {
            "dns" : 0,
            "sslEnd" : -1,
            "receiveHeadersEnd" : 98,
            "dnsEnd" : -1,
            "s_time" : 3287.24900000088,
            "receivedTime" : "3386.04299999133",
            "sendStart" : 0,
            "id" : "download_52",
            "sendEnd" : 0,
            "type" : "application/javascript",
            "connectEnd" : 0,
            "sslStart" : -1,
            "receiveFirst" : 98,
            "len" : 13547,
            "receiveLast" : 3288.04299999133,
            "dnsStart" : -1,
            "connectStart" : 0
         },
         "when_comp_start" : -1
      },
      {
         "download" : {
            "id" : "download_53",
            "sendEnd" : 193,
            "connectEnd" : 192,
            "type" : "image/gif",
            "receiveFirst" : 74,
            "sslStart" : 121,
            "len" : 42,
            "dnsStart" : -1,
            "connectStart" : 0,
            "receiveLast" : 3133.05199999723,
            "dns" : 0,
            "sslEnd" : 192,
            "receiveHeadersEnd" : 267,
            "s_time" : 3132.21599999815,
            "dnsEnd" : -1,
            "receivedTime" : "3400.05199999723",
            "sendStart" : 192
         },
         "comps" : [],
         "id" : "r51",
         "when_comp_start" : -1,
         "url" : "https://www.google.com/ads/ga-audiences?v=1&aip=1&t=sr&_r=4&tid=UA-17477340-4&cid=1607030558.1463283565&jid=1781522873&_v=5.6.7dc&z=44870138"
      },
      {
         "url" : "https://s.ytimg.com/yts/imgbin/www-hitchhiker-vflsIkBw3.webp",
         "when_comp_start" : -1,
         "id" : "r65",
         "comps" : [],
         "download" : {
            "sendStart" : 0,
            "receivedTime" : "3455.45399999537",
            "s_time" : 3347.12999999465,
            "dnsEnd" : -1,
            "receiveHeadersEnd" : 54,
            "sslEnd" : -1,
            "dns" : 0,
            "dnsStart" : -1,
            "connectStart" : 0,
            "receiveLast" : 3401.45399999537,
            "len" : 53882,
            "receiveFirst" : 54,
            "sslStart" : -1,
            "connectEnd" : 0,
            "type" : "image/webp",
            "sendEnd" : 0,
            "id" : "download_54"
         }
      },
      {
         "url" : "https://staticxx.facebook.com/connect/xd_arbiter.php?version=42#channel=f10dd72fd4&origin=http%3A%2F%2Foriginal.testbed.localhost",
         "when_comp_start" : 1,
         "comps" : [
            {
               "e_time" : 3557.45300000126,
               "time" : 101.55099999974,
               "id" : "r61_c1",
               "type" : "evalhtml",
               "s_time" : 3455.90200000152
            }
         ],
         "id" : "r61",
         "download" : {
            "id" : "download_55",
            "sendEnd" : 209,
            "connectEnd" : 206,
            "type" : "text/html",
            "receiveFirst" : 75,
            "sslStart" : 124,
            "len" : 36422,
            "dnsStart" : -1,
            "connectStart" : 0,
            "receiveLast" : 3247.2239999912,
            "dns" : 0,
            "sslEnd" : 206,
            "receiveHeadersEnd" : 284,
            "s_time" : 3167.09000000264,
            "dnsEnd" : -1,
            "receivedTime" : "3531.2239999912",
            "sendStart" : 206
         }
      },
      {
         "url" : "https://apis.google.com/_/scs/apps-static/_/js/k=oz.gapi.en_US.LA5PVEire2I.O/m=gapi_iframes,gapi_iframes_style_common/rt=j/sv=1/d=1/ed=1/am=AQ/rs=AGLTcCNWjxqU7_hxvpq5s59LXnetzBl1pQ/cb=gapi.loaded_0",
         "when_comp_start" : -1,
         "comps" : [
            {
               "e_time" : 3531.17799999018,
               "time" : 19.4510000001201,
               "type" : null,
               "s_time" : 3511.72699999006,
               "id" : "comp_177"
            },
            {
               "e_time" : 3897.34999999928,
               "time" : 20.2439999993699,
               "type" : null,
               "s_time" : 3877.10599999991,
               "id" : "comp_277"
            }
         ],
         "id" : "r67",
         "download" : {
            "len" : 100120,
            "connectStart" : 0,
            "dnsStart" : -1,
            "receiveLast" : 3456.61000000138,
            "connectEnd" : 0,
            "type" : "text/javascript",
            "receiveFirst" : 55,
            "sslStart" : -1,
            "sendEnd" : 0,
            "id" : "download_56",
            "sendStart" : 0,
            "s_time" : 3398.33899999212,
            "dnsEnd" : -1,
            "receivedTime" : "3511.61000000138",
            "receiveHeadersEnd" : 55,
            "dns" : 0,
            "sslEnd" : -1
         }
      },
      {
         "url" : "https://ssl.gstatic.com/accounts/o/1077434459-postmessagerelay.js",
         "when_comp_start" : -1,
         "id" : "r63",
         "comps" : [
            {
               "id" : "comp_173",
               "s_time" : 3505.83799999731,
               "type" : 2,
               "time" : 1.7340000049503,
               "e_time" : 3507.57200000226
            }
         ],
         "download" : {
            "len" : 10394,
            "connectStart" : 0,
            "receiveLast" : 3287.80099999206,
            "dnsStart" : -1,
            "connectEnd" : 163,
            "type" : "text/javascript",
            "receiveFirst" : 55,
            "sslStart" : 104,
            "sendEnd" : 163,
            "id" : "download_57",
            "sendStart" : 163,
            "s_time" : 3287.11999999359,
            "dnsEnd" : -1,
            "receivedTime" : "3505.80099999206",
            "receiveHeadersEnd" : 218,
            "dns" : 0,
            "sslEnd" : 162
         }
      },
      {
         "when_comp_start" : -1,
         "download" : {
            "len" : 50,
            "connectStart" : 0,
            "dnsStart" : -1,
            "receiveLast" : 3110.06499999948,
            "type" : "application/json",
            "connectEnd" : 320,
            "sslStart" : 222,
            "receiveFirst" : 138,
            "sendEnd" : 320,
            "id" : "download_58",
            "sendStart" : 320,
            "dnsEnd" : -1,
            "s_time" : 3105.25199999392,
            "receivedTime" : "3568.06499999948",
            "receiveHeadersEnd" : 458,
            "dns" : 0,
            "sslEnd" : 320
         },
         "comps" : [],
         "id" : "r54",
         "url" : "https://data.mic.com/3.0/projects/528e6e5b73f4bb62d1000002/events/homepage-impressions?api_key=058dd175a0899ed8d6a55d808449bbed2301c3199c39919824b0f8815791bb0d3452888594b5c45b4e799601e514a6f8c724b158a5804ae6455dac34d171cf3078638a3131928612fadcf4052409a3115fcaa49c5cda18b46970d7261a3727b71da7ca11341bf"
      },
      {
         "url" : "https://apis.google.com/_/scs/apps-static/_/js/k=oz.gapi.en_US.LA5PVEire2I.O/m=rpc,shindig_random/rt=j/sv=1/d=1/ed=1/am=AQ/rs=AGLTcCNWjxqU7_hxvpq5s59LXnetzBl1pQ/cb=gapi.loaded_0",
         "when_comp_start" : -1,
         "download" : {
            "sendStart" : 0,
            "receivedTime" : "3569.35799999337",
            "s_time" : 3511.37399999425,
            "dnsEnd" : -1,
            "receiveHeadersEnd" : 56,
            "sslEnd" : -1,
            "dns" : 0,
            "receiveLast" : 3513.35799999337,
            "connectStart" : 0,
            "dnsStart" : -1,
            "len" : 29176,
            "receiveFirst" : 56,
            "sslStart" : -1,
            "connectEnd" : 0,
            "type" : "text/javascript",
            "sendEnd" : 0,
            "id" : "download_59"
         },
         "id" : "r68",
         "comps" : [
            {
               "id" : "comp_198",
               "type" : null,
               "s_time" : 3569.81200000155,
               "time" : 7.00800000049003,
               "e_time" : 3576.82000000204
            }
         ]
      },
      {
         "id" : "r57",
         "comps" : [],
         "download" : {
            "len" : 43,
            "connectStart" : 0,
            "dnsStart" : -1,
            "receiveLast" : 3139.10299999034,
            "connectEnd" : 234,
            "type" : "image/gif",
            "receiveFirst" : 207,
            "sslStart" : 133,
            "sendEnd" : 239,
            "id" : "download_60",
            "sendStart" : 234,
            "s_time" : 3137.50299999083,
            "dnsEnd" : -1,
            "receivedTime" : "3585.10299999034",
            "receiveHeadersEnd" : 446,
            "dns" : 0,
            "sslEnd" : 234
         },
         "when_comp_start" : -1,
         "url" : "https://www.facebook.com/impression.php/f380bd68c4/?api_key=141861192518680&lid=115&payload=%7B%22source%22%3A%22jssdk%22%7D"
      },
      {
         "url" : "https://syndication.twitter.com/i/jot?dnt=1&l=%7B%22widget_origin%22%3A%22http%3A%2F%2Foriginal.testbed.localhost%2Fmic.com%2F%22%2C%22widget_frame%22%3Afalse%2C%22language%22%3A%22en%22%2C%22message%22%3A%22m%3Awithcount%3A%22%2C%22_category_%22%3A%22tfw_client_event%22%2C%22triggered_on%22%3A14632",
         "id" : "r66",
         "comps" : [],
         "download" : {
            "sendEnd" : 204,
            "id" : "download_61",
            "receiveLast" : 3355.44000000204,
            "dnsStart" : -1,
            "connectStart" : 0,
            "len" : 43,
            "sslStart" : 126,
            "receiveFirst" : 77,
            "type" : "image/gif",
            "connectEnd" : 204,
            "receiveHeadersEnd" : 281,
            "sslEnd" : 204,
            "dns" : 0,
            "sendStart" : 204,
            "receivedTime" : "3636.44000000204",
            "dnsEnd" : -1,
            "s_time" : 3354.1089999926
         },
         "when_comp_start" : -1
      },
      {
         "when_comp_start" : -1,
         "download" : {
            "sendEnd" : 0,
            "id" : "download_62",
            "receiveLast" : 3584.80500000354,
            "dnsStart" : -1,
            "connectStart" : 0,
            "len" : 26760,
            "receiveFirst" : 60,
            "sslStart" : -1,
            "connectEnd" : 0,
            "type" : "text/javascript",
            "receiveHeadersEnd" : 60,
            "sslEnd" : -1,
            "dns" : 0,
            "sendStart" : 0,
            "receivedTime" : "3644.80500000354",
            "s_time" : 3583.3469999925,
            "dnsEnd" : -1
         },
         "comps" : [
            {
               "type" : 2,
               "s_time" : 3644.9869999924,
               "id" : "comp_204",
               "e_time" : 3657.54000000015,
               "time" : 12.5530000077501
            }
         ],
         "id" : "r69",
         "url" : "https://apis.google.com/_/scs/apps-static/_/js/k=oz.gapi.en_US.LA5PVEire2I.O/m=gapi_iframes_style_bubble/exm=auth,ytsubscribe/rt=j/sv=1/d=1/ed=1/am=AQ/rs=AGLTcCNWjxqU7_hxvpq5s59LXnetzBl1pQ/cb=gapi.loaded_2"
      },
      {
         "download" : {
            "len" : 43,
            "receiveLast" : 3651.58800000092,
            "dnsStart" : -1,
            "connectStart" : 0,
            "type" : "image/gif",
            "connectEnd" : 0,
            "sslStart" : -1,
            "receiveFirst" : 55,
            "sendEnd" : 0,
            "id" : "download_63",
            "sendStart" : 0,
            "dnsEnd" : -1,
            "s_time" : 3651.09400000074,
            "receivedTime" : "3706.58800000092",
            "receiveHeadersEnd" : 55,
            "dns" : 0,
            "sslEnd" : -1
         },
         "id" : "r70",
         "comps" : [],
         "when_comp_start" : -1,
         "url" : "https://ssl.gstatic.com/s2/oz/images/stars/po/bubblev1/border_3.gif"
      },
      {
         "when_comp_start" : -1,
         "download" : {
            "type" : "image/gif",
            "connectEnd" : 0,
            "sslStart" : -1,
            "receiveFirst" : 56,
            "len" : 43,
            "receiveLast" : 3652.32900000096,
            "dnsStart" : -1,
            "connectStart" : 0,
            "id" : "download_64",
            "sendEnd" : 0,
            "dnsEnd" : -1,
            "s_time" : 3651.27299999585,
            "receivedTime" : "3708.32900000096",
            "sendStart" : 0,
            "dns" : 0,
            "sslEnd" : -1,
            "receiveHeadersEnd" : 56
         },
         "comps" : [],
         "id" : "r71",
         "url" : "https://ssl.gstatic.com/s2/oz/images/stars/po/bubblev1/spacer.gif"
      },
      {
         "download" : {
            "receiveLast" : 3655.84400000155,
            "connectStart" : 0,
            "dnsStart" : -1,
            "len" : 761,
            "receiveFirst" : 93,
            "sslStart" : -1,
            "connectEnd" : 0,
            "type" : "text/html",
            "sendEnd" : 0,
            "id" : "download_65",
            "sendStart" : 0,
            "receivedTime" : "3748.84400000155",
            "s_time" : 3654.54299999692,
            "dnsEnd" : -1,
            "receiveHeadersEnd" : 93,
            "sslEnd" : -1,
            "dns" : 0
         },
         "id" : "r72",
         "comps" : [
            {
               "e_time" : 3752.57699999202,
               "time" : 0.418999989060012,
               "id" : "r72_c1",
               "s_time" : 3752.15800000296,
               "type" : "evalhtml"
            },
            {
               "type" : "evalhtml",
               "s_time" : 3876.87100000039,
               "id" : "r72_c2",
               "time" : 0.0299999956100692,
               "e_time" : 3876.900999996
            }
         ],
         "when_comp_start" : 1,
         "url" : "https://www.youtube.com/subscribe_embed?action_card=1&channelid=UCgpEN1mWQxivlZ9O6GuZbOw&usegapi=1&jsh=m%3B%2F_%2Fscs%2Fapps-static%2F_%2Fjs%2Fk%3Doz.gapi.en_US.LA5PVEire2I.O%2Fm%3D__features__%2Fam%3DAQ%2Frt%3Dj%2Fd%3D1%2Frs%3DAGLTcCNWjxqU7_hxvpq5s59LXnetzBl1pQ#id=I0_1463283565736&parent=http%3A%2F"
      },
      {
         "url" : "http://ssl.gstatic.com/s2/oz/images/stars/po/bubblev1/bubbleSprite_3.png",
         "download" : {
            "id" : "download_66",
            "sendEnd" : 50,
            "connectEnd" : 50,
            "type" : "image/png",
            "receiveFirst" : 59,
            "sslStart" : -1,
            "len" : 318,
            "dnsStart" : -1,
            "receiveLast" : 3664.31599999161,
            "connectStart" : 0,
            "dns" : 0,
            "sslEnd" : -1,
            "receiveHeadersEnd" : 109,
            "s_time" : 3658.05099999125,
            "dnsEnd" : -1,
            "receivedTime" : "3773.31599999161",
            "sendStart" : 50
         },
         "comps" : [],
         "id" : "r74",
         "when_comp_start" : -1
      },
      {
         "url" : "http://ssl.gstatic.com/s2/oz/images/stars/po/bubblev1/border_3.gif",
         "when_comp_start" : -1,
         "comps" : [],
         "id" : "r73",
         "download" : {
            "receiveHeadersEnd" : 109,
            "dns" : 0,
            "sslEnd" : -1,
            "sendStart" : 50,
            "dnsEnd" : -1,
            "s_time" : 3657.93000000122,
            "receivedTime" : "3773.49599999434",
            "sendEnd" : 50,
            "id" : "download_67",
            "len" : 43,
            "dnsStart" : -1,
            "receiveLast" : 3664.49599999434,
            "connectStart" : 0,
            "type" : "image/gif",
            "connectEnd" : 50,
            "sslStart" : -1,
            "receiveFirst" : 59
         }
      },
      {
         "url" : "http://ssl.gstatic.com/s2/oz/images/stars/po/bubblev1/bubbleDropB_3.png",
         "download" : {
            "sslStart" : -1,
            "receiveFirst" : 58,
            "type" : "image/png",
            "connectEnd" : 50,
            "dnsStart" : -1,
            "receiveLast" : 3665.59099999012,
            "connectStart" : 0,
            "len" : 117,
            "id" : "download_68",
            "sendEnd" : 50,
            "receivedTime" : "3773.59099999012",
            "dnsEnd" : -1,
            "s_time" : 3658.6030000035,
            "sendStart" : 50,
            "sslEnd" : -1,
            "dns" : 0,
            "receiveHeadersEnd" : 108
         },
         "id" : "r76",
         "comps" : [],
         "when_comp_start" : -1
      },
      {
         "when_comp_start" : -1,
         "comps" : [],
         "id" : "r75",
         "download" : {
            "dns" : 0,
            "sslEnd" : -1,
            "receiveHeadersEnd" : 109,
            "s_time" : 3658.31099999195,
            "dnsEnd" : -1,
            "receivedTime" : "3773.68600000045",
            "sendStart" : 50,
            "id" : "download_69",
            "sendEnd" : 50,
            "connectEnd" : 50,
            "type" : "image/png",
            "receiveFirst" : 59,
            "sslStart" : -1,
            "len" : 116,
            "connectStart" : 0,
            "dnsStart" : -1,
            "receiveLast" : 3664.68600000045
         },
         "url" : "http://ssl.gstatic.com/s2/oz/images/stars/po/bubblev1/bubbleDropR_3.png"
      },
      {
         "when_comp_start" : -1,
         "download" : {
            "len" : 7212,
            "connectStart" : 0,
            "dnsStart" : -1,
            "receiveLast" : 3753.50999999337,
            "type" : "text/css",
            "connectEnd" : 0,
            "sslStart" : -1,
            "receiveFirst" : 117,
            "sendEnd" : 0,
            "id" : "download_70",
            "sendStart" : 0,
            "dnsEnd" : -1,
            "s_time" : 3752.42099999741,
            "receivedTime" : "3870.50999999337",
            "receiveHeadersEnd" : 117,
            "dns" : 0,
            "sslEnd" : -1
         },
         "id" : "r77",
         "comps" : [
            {
               "type" : 4,
               "s_time" : 3870.56199999643,
               "id" : "comp_272",
               "time" : 1.25000000116006,
               "e_time" : 3871.81199999759
            }
         ],
         "url" : "https://s.ytimg.com/yts/cssbin/www-subscribe-embed-card-webp-vflA-ZKG3.css"
      },
      {
         "download" : {
            "sendStart" : 0,
            "dnsEnd" : -1,
            "s_time" : 3752.57699999202,
            "receivedTime" : "3872.04000000202",
            "receiveHeadersEnd" : 118,
            "dns" : 0,
            "sslEnd" : -1,
            "len" : 12739,
            "receiveLast" : 3754.04000000202,
            "dnsStart" : -1,
            "connectStart" : 0,
            "type" : "text/javascript",
            "connectEnd" : 0,
            "sslStart" : -1,
            "receiveFirst" : 118,
            "sendEnd" : 0,
            "id" : "download_71"
         },
         "id" : "r78",
         "comps" : [
            {
               "s_time" : 3872.06799999694,
               "type" : 1,
               "id" : "comp_273",
               "time" : 4.8030000034496,
               "e_time" : 3876.87100000039
            }
         ],
         "when_comp_start" : -1,
         "url" : "https://s.ytimg.com/yts/jsbin/www-subscribe-embed-card-vflyOjid3/www-subscribe-embed-card.js"
      }
   ],
   "deps" : [
      {
         "a1" : "comp_15",
         "time" : -1,
         "a2" : "r1_c2",
         "id" : "dep1"
      },
      {
         "id" : "dep2",
         "a2" : "r52_c2",
         "time" : -1,
         "a1" : "comp_174"
      },
      {
         "a1" : "comp_273",
         "time" : -1,
         "a2" : "r72_c2",
         "id" : "dep3"
      },
      {
         "time" : -1,
         "a1" : "comp_272",
         "id" : "dep4",
         "a2" : "comp_273"
      },
      {
         "a2" : "download_71",
         "id" : "dep5",
         "a1" : "r72_c1",
         "time" : -1
      },
      {
         "a1" : "r72_c1",
         "time" : 0.262999994450183,
         "a2" : "download_70",
         "id" : "dep6"
      },
      {
         "a2" : "download_69",
         "id" : "dep7",
         "a1" : "r1_c2",
         "time" : -1
      },
      {
         "a1" : "r1_c2",
         "time" : -1,
         "a2" : "download_68",
         "id" : "dep8"
      },
      {
         "a1" : "r1_c2",
         "time" : 3393.88400000462,
         "a2" : "download_67",
         "id" : "dep9"
      },
      {
         "id" : "dep10",
         "a2" : "download_66",
         "time" : 3394.00499999465,
         "a1" : "r1_c2"
      },
      {
         "a1" : "r1_c2",
         "time" : 3390.49700000032,
         "a2" : "download_65",
         "id" : "dep11"
      },
      {
         "id" : "dep12",
         "a2" : "download_64",
         "time" : 3387.22699999925,
         "a1" : "r1_c2"
      },
      {
         "time" : 3387.04800000414,
         "a1" : "r1_c2",
         "id" : "dep13",
         "a2" : "download_63"
      },
      {
         "a1" : "r1_c2",
         "time" : 3319.3009999959,
         "a2" : "download_62",
         "id" : "dep14"
      },
      {
         "id" : "dep15",
         "a2" : "download_61",
         "time" : -1,
         "a1" : "r52_c1"
      },
      {
         "a1" : "r29_c1",
         "time" : 236.9619999954,
         "a2" : "download_61",
         "id" : "dep16"
      },
      {
         "time" : 3090.062999996,
         "a1" : "r1_c2",
         "id" : "dep17",
         "a2" : "download_61"
      },
      {
         "a2" : "download_60",
         "id" : "dep18",
         "a1" : "r29_c1",
         "time" : 20.3559999936301
      },
      {
         "time" : 2873.45699999423,
         "a1" : "r1_c2",
         "id" : "dep19",
         "a2" : "download_60"
      },
      {
         "id" : "dep20",
         "a2" : "download_59",
         "time" : 55.4719999927302,
         "a1" : "r61_c1"
      },
      {
         "id" : "dep21",
         "a2" : "download_59",
         "time" : 394.22699999705,
         "a1" : "r29_c1"
      },
      {
         "time" : 3247.32799999765,
         "a1" : "r1_c2",
         "id" : "dep22",
         "a2" : "download_59"
      },
      {
         "a2" : "download_58",
         "id" : "dep23",
         "a1" : "r1_c2",
         "time" : 2841.20599999732
      },
      {
         "a1" : "r52_c1",
         "time" : 0.289999996310144,
         "a2" : "download_57",
         "id" : "dep24"
      },
      {
         "time" : 5.32699999166016,
         "a1" : "r60_c1",
         "id" : "dep25",
         "a2" : "download_57"
      },
      {
         "a2" : "download_57",
         "id" : "dep26",
         "a1" : "r29_c1",
         "time" : 169.97299999639
      },
      {
         "a1" : "r1_c2",
         "time" : 3023.07399999699,
         "a2" : "download_57",
         "id" : "dep27"
      },
      {
         "a1" : "r52_c1",
         "time" : -1,
         "a2" : "download_56",
         "id" : "dep28"
      },
      {
         "a1" : "r29_c1",
         "time" : 281.19199999492,
         "a2" : "download_56",
         "id" : "dep29"
      },
      {
         "time" : 3134.29299999552,
         "a1" : "r1_c2",
         "id" : "dep30",
         "a2" : "download_56"
      },
      {
         "id" : "dep31",
         "a2" : "download_55",
         "time" : 0.659000012090019,
         "a1" : "r53_c1"
      },
      {
         "time" : 49.9430000054399,
         "a1" : "r29_c1",
         "id" : "dep32",
         "a2" : "download_55"
      },
      {
         "id" : "dep33",
         "a2" : "download_55",
         "time" : 2903.04400000604,
         "a1" : "r1_c2"
      },
      {
         "id" : "dep34",
         "a2" : "download_54",
         "time" : 4.40599999273991,
         "a1" : "comp_154"
      },
      {
         "id" : "dep35",
         "a2" : "download_53",
         "time" : 15.0690000009499,
         "a1" : "r29_c1"
      },
      {
         "a1" : "r1_c2",
         "time" : 2868.17000000155,
         "a2" : "download_53",
         "id" : "dep36"
      },
      {
         "time" : 3023.20300000428,
         "a1" : "r1_c2",
         "id" : "dep37",
         "a2" : "download_52"
      },
      {
         "a1" : "r52_c1",
         "time" : 0.419000003600104,
         "a2" : "download_52",
         "id" : "dep38"
      },
      {
         "id" : "dep39",
         "a2" : "download_52",
         "time" : 5.45599999895012,
         "a1" : "r60_c1"
      },
      {
         "id" : "dep40",
         "a2" : "download_52",
         "time" : 170.10200000368,
         "a1" : "r29_c1"
      },
      {
         "a1" : "r1_c2",
         "time" : 3023.20300000428,
         "a2" : "download_52",
         "id" : "dep41"
      },
      {
         "id" : "dep42",
         "a2" : "download_51",
         "time" : 53.0549999966797,
         "a1" : "r29_c1"
      },
      {
         "time" : 2906.15599999728,
         "a1" : "r1_c2",
         "id" : "dep43",
         "a2" : "download_51"
      },
      {
         "a2" : "download_50",
         "id" : "dep44",
         "a1" : "r29_c1",
         "time" : 40.3240000014198
      },
      {
         "a2" : "download_50",
         "id" : "dep45",
         "a1" : "r1_c2",
         "time" : 2893.42500000202
      },
      {
         "id" : "dep46",
         "a2" : "download_49",
         "time" : 0.474000000399883,
         "a1" : "r29_c1"
      },
      {
         "a1" : "r1_c2",
         "time" : 2853.575000001,
         "a2" : "download_49",
         "id" : "dep47"
      },
      {
         "id" : "dep48",
         "a2" : "download_48",
         "time" : 0.293000004609894,
         "a1" : "r29_c1"
      },
      {
         "id" : "dep49",
         "a2" : "download_48",
         "time" : 2853.39400000521,
         "a1" : "r1_c2"
      },
      {
         "time" : 2770.97899999353,
         "a1" : "r1_c2",
         "id" : "dep50",
         "a2" : "download_47"
      },
      {
         "a1" : "r53_c1",
         "time" : 0.716000009560048,
         "a2" : "download_46",
         "id" : "dep51"
      },
      {
         "time" : 50.0000000029099,
         "a1" : "r29_c1",
         "id" : "dep52",
         "a2" : "download_46"
      },
      {
         "a2" : "download_46",
         "id" : "dep53",
         "a1" : "r1_c2",
         "time" : 2903.10100000351
      },
      {
         "a1" : "r29_c1",
         "time" : 15.51399999881,
         "a2" : "download_45",
         "id" : "dep54"
      },
      {
         "id" : "dep55",
         "a2" : "download_45",
         "time" : 2868.61499999941,
         "a1" : "r1_c2"
      },
      {
         "id" : "dep56",
         "a2" : "download_44",
         "time" : 41.16999999679,
         "a1" : "r29_c1"
      },
      {
         "time" : 2894.27099999739,
         "a1" : "r1_c2",
         "id" : "dep57",
         "a2" : "download_44"
      },
      {
         "time" : 2832.42900000186,
         "a1" : "r1_c2",
         "id" : "dep58",
         "a2" : "download_43"
      },
      {
         "a1" : "r1_c2",
         "time" : 2697.46700000541,
         "a2" : "download_42",
         "id" : "dep59"
      },
      {
         "a1" : "r1_c2",
         "time" : 279.651000004378,
         "a2" : "download_41",
         "id" : "dep60"
      },
      {
         "a1" : "r1_c2",
         "time" : 333.402000003844,
         "a2" : "download_40",
         "id" : "dep61"
      },
      {
         "id" : "dep62",
         "a2" : "download_39",
         "time" : 332.993999996688,
         "a1" : "r1_c2"
      },
      {
         "a1" : "r1_c2",
         "time" : 245.601999995415,
         "a2" : "download_38",
         "id" : "dep63"
      },
      {
         "a2" : "download_37",
         "id" : "dep64",
         "a1" : "r1_c1",
         "time" : -1
      },
      {
         "id" : "dep65",
         "a2" : "download_36",
         "time" : 278.426999997464,
         "a1" : "r1_c2"
      },
      {
         "a2" : "download_35",
         "id" : "dep66",
         "a1" : "r1_c2",
         "time" : 280.075000002398
      },
      {
         "a1" : "r1_c2",
         "time" : 125.538000007509,
         "a2" : "download_34",
         "id" : "dep67"
      },
      {
         "id" : "dep68",
         "a2" : "download_33",
         "time" : 362.544000003254,
         "a1" : "r1_c2"
      },
      {
         "id" : "dep69",
         "a2" : "download_32",
         "time" : 130.336000001989,
         "a1" : "r1_c2"
      },
      {
         "time" : 278.015999996569,
         "a1" : "r1_c2",
         "id" : "dep70",
         "a2" : "download_31"
      },
      {
         "id" : "dep71",
         "a2" : "download_30",
         "time" : 332.009999998263,
         "a1" : "r1_c2"
      },
      {
         "a1" : "r1_c2",
         "time" : 276.933999994071,
         "a2" : "download_29",
         "id" : "dep72"
      },
      {
         "time" : 280.519000007189,
         "a1" : "r1_c2",
         "id" : "dep73",
         "a2" : "download_28"
      },
      {
         "a2" : "download_27",
         "id" : "dep74",
         "a1" : "r1_c2",
         "time" : 277.576000007684
      },
      {
         "a2" : "download_26",
         "id" : "dep75",
         "a1" : "r1_c2",
         "time" : 276.64100000402
      },
      {
         "a1" : "r1_c2",
         "time" : 123.290999996243,
         "a2" : "download_25",
         "id" : "dep76"
      },
      {
         "id" : "dep77",
         "a2" : "download_24",
         "time" : 149.447999996482,
         "a1" : "r1_c2"
      },
      {
         "a2" : "download_23",
         "id" : "dep78",
         "a1" : "r1_c2",
         "time" : 131.498000002466
      },
      {
         "time" : 149.923000004492,
         "a1" : "r1_c2",
         "id" : "dep79",
         "a2" : "download_22"
      },
      {
         "time" : 149.778000006336,
         "a1" : "r1_c2",
         "id" : "dep80",
         "a2" : "download_21"
      },
      {
         "time" : 0.616000004810985,
         "a1" : "r1_c2",
         "id" : "dep81",
         "a2" : "download_19"
      },
      {
         "a2" : "download_18",
         "id" : "dep82",
         "a1" : "r1_c1",
         "time" : 195.922000013525
      },
      {
         "a2" : "download_17",
         "id" : "dep83",
         "a1" : "r1_c1",
         "time" : 183.497000005446
      },
      {
         "time" : 179.521000012756,
         "a1" : "r1_c1",
         "id" : "dep84",
         "a2" : "download_16"
      },
      {
         "a2" : "download_15",
         "id" : "dep85",
         "a1" : "r1_c1",
         "time" : 2.11100000888101
      },
      {
         "a2" : "download_14",
         "id" : "dep86",
         "a1" : "r1_c1",
         "time" : 1.85600000258999
      },
      {
         "time" : 1.69800000730901,
         "a1" : "r1_c1",
         "id" : "dep87",
         "a2" : "download_13"
      },
      {
         "time" : 1.5450000064447,
         "a1" : "r1_c1",
         "id" : "dep88",
         "a2" : "download_12"
      },
      {
         "id" : "dep89",
         "a2" : "download_11",
         "time" : 1.3820000021951,
         "a1" : "r1_c1"
      },
      {
         "time" : 1.129000011133,
         "a1" : "r1_c1",
         "id" : "dep90",
         "a2" : "download_10"
      },
      {
         "time" : 0.6740000098943,
         "a1" : "r1_c1",
         "id" : "dep91",
         "a2" : "download_9"
      },
      {
         "id" : "dep92",
         "a2" : "download_8",
         "time" : 3.2990000036079,
         "a1" : "r1_c1"
      },
      {
         "time" : 3.2990000036079,
         "a1" : "r1_c1",
         "id" : "dep93",
         "a2" : "download_8"
      },
      {
         "a2" : "download_7",
         "id" : "dep94",
         "a1" : "r1_c1",
         "time" : 2.94700000085859
      },
      {
         "time" : 2.94700000085859,
         "a1" : "r1_c1",
         "id" : "dep95",
         "a2" : "download_7"
      },
      {
         "a1" : "r1_c1",
         "time" : 3.16600000951431,
         "a2" : "download_6",
         "id" : "dep96"
      },
      {
         "time" : 3.16600000951431,
         "a1" : "r1_c1",
         "id" : "dep97",
         "a2" : "download_6"
      },
      {
         "a2" : "download_5",
         "id" : "dep98",
         "a1" : "r1_c1",
         "time" : 3.0560000013792
      },
      {
         "a2" : "download_5",
         "id" : "dep99",
         "a1" : "r1_c1",
         "time" : 3.0560000013792
      },
      {
         "a2" : "download_4",
         "id" : "dep100",
         "a1" : "r1_c1",
         "time" : 2.83100000524421
      },
      {
         "a1" : "r1_c1",
         "time" : 2.83100000524421,
         "a2" : "download_4",
         "id" : "dep101"
      },
      {
         "id" : "dep102",
         "a2" : "download_3",
         "time" : 2.7030000055674,
         "a1" : "r1_c1"
      },
      {
         "a2" : "download_3",
         "id" : "dep103",
         "a1" : "r1_c1",
         "time" : 2.7030000055674
      },
      {
         "a2" : "download_2",
         "id" : "dep104",
         "a1" : "r1_c1",
         "time" : 0.324000007822107
      },
      {
         "a2" : "download_1",
         "id" : "dep105",
         "a1" : "r1_c1",
         "time" : 0.569000010727905
      }
   ],
   "load_activity" : -1
}
