{
   "deps" : [
      {
         "a1" : "comp_22",
         "a2" : "r1_c2",
         "time" : -1,
         "id" : "dep1"
      },
      {
         "a1" : "comp_23",
         "a2" : "r1_c3",
         "time" : -1,
         "id" : "dep2"
      },
      {
         "a1" : "comp_24",
         "a2" : "r1_c4",
         "time" : -1,
         "id" : "dep3"
      },
      {
         "a2" : "r1_c5",
         "a1" : "comp_25",
         "time" : -1,
         "id" : "dep4"
      },
      {
         "a2" : "r1_c6",
         "a1" : "comp_26",
         "id" : "dep5",
         "time" : -1
      },
      {
         "a2" : "r1_c7",
         "a1" : "comp_27",
         "id" : "dep6",
         "time" : -1
      },
      {
         "a1" : "comp_28",
         "a2" : "r1_c8",
         "id" : "dep7",
         "time" : -1
      },
      {
         "time" : -1,
         "id" : "dep8",
         "a1" : "comp_29",
         "a2" : "r1_c9"
      },
      {
         "a1" : "comp_52",
         "a2" : "r1_c10",
         "time" : -1,
         "id" : "dep9"
      },
      {
         "a1" : "comp_53",
         "a2" : "r1_c11",
         "time" : -1,
         "id" : "dep10"
      },
      {
         "a2" : "r1_c12",
         "a1" : "comp_54",
         "time" : -1,
         "id" : "dep11"
      },
      {
         "a1" : "comp_55",
         "a2" : "r1_c13",
         "time" : -1,
         "id" : "dep12"
      },
      {
         "a1" : "comp_56",
         "a2" : "r1_c14",
         "time" : -1,
         "id" : "dep13"
      },
      {
         "a1" : "comp_57",
         "a2" : "r1_c15",
         "time" : -1,
         "id" : "dep14"
      },
      {
         "a2" : "r1_c16",
         "a1" : "comp_59",
         "time" : -1,
         "id" : "dep15"
      },
      {
         "time" : -1,
         "id" : "dep16",
         "a1" : "comp_60",
         "a2" : "r1_c17"
      },
      {
         "a2" : "r1_c18",
         "a1" : "comp_61",
         "id" : "dep17",
         "time" : -1
      },
      {
         "time" : -1,
         "id" : "dep18",
         "a2" : "r1_c19",
         "a1" : "comp_62"
      },
      {
         "id" : "dep19",
         "time" : -1,
         "a2" : "r1_c20",
         "a1" : "comp_63"
      },
      {
         "a2" : "r1_c21",
         "a1" : "comp_64",
         "id" : "dep20",
         "time" : -1
      },
      {
         "time" : -1,
         "id" : "dep21",
         "a1" : "comp_65",
         "a2" : "r1_c22"
      },
      {
         "id" : "dep22",
         "time" : -1,
         "a2" : "r1_c23",
         "a1" : "comp_66"
      },
      {
         "a2" : "r1_c24",
         "a1" : "comp_67",
         "id" : "dep23",
         "time" : -1
      },
      {
         "a2" : "r1_c25",
         "a1" : "comp_68",
         "time" : -1,
         "id" : "dep24"
      },
      {
         "a2" : "r1_c26",
         "a1" : "comp_209",
         "id" : "dep25",
         "time" : -1
      },
      {
         "a2" : "download_58",
         "a1" : "r1_c9",
         "id" : "dep26",
         "time" : -1
      },
      {
         "a2" : "download_57",
         "a1" : "r1_c26",
         "time" : 598.4529999987,
         "id" : "dep27"
      },
      {
         "time" : 798.27100000693,
         "id" : "dep28",
         "a2" : "download_55",
         "a1" : "r1_c26"
      },
      {
         "a2" : "download_54",
         "a1" : "r1_c26",
         "id" : "dep29",
         "time" : 886.17800000065
      },
      {
         "a2" : "download_53",
         "a1" : "r1_c9",
         "time" : -1,
         "id" : "dep30"
      },
      {
         "a2" : "download_52",
         "a1" : "r1_c9",
         "id" : "dep31",
         "time" : 0.776999993832021
      },
      {
         "a1" : "r1_c26",
         "a2" : "download_51",
         "id" : "dep32",
         "time" : 779.59099999862
      },
      {
         "a2" : "download_50",
         "a1" : "r1_c26",
         "time" : 771.48500000476,
         "id" : "dep33"
      },
      {
         "id" : "dep34",
         "time" : 754.46700000612,
         "a2" : "download_49",
         "a1" : "r1_c26"
      },
      {
         "a2" : "download_48",
         "a1" : "r1_c26",
         "time" : 745.95599999884,
         "id" : "dep35"
      },
      {
         "a2" : "download_47",
         "a1" : "r1_c26",
         "id" : "dep36",
         "time" : 543.40399999637
      },
      {
         "a1" : "r1_c26",
         "a2" : "download_46",
         "time" : 727.73700000835,
         "id" : "dep37"
      },
      {
         "a2" : "download_45",
         "a1" : "r1_c26",
         "id" : "dep38",
         "time" : 719.00700000697
      },
      {
         "id" : "dep39",
         "time" : 701.55500000692,
         "a1" : "r1_c26",
         "a2" : "download_44"
      },
      {
         "a1" : "r1_c26",
         "a2" : "download_43",
         "id" : "dep40",
         "time" : 693.47800000105
      },
      {
         "a1" : "r1_c26",
         "a2" : "download_42",
         "time" : 404.09500000533,
         "id" : "dep41"
      },
      {
         "id" : "dep42",
         "time" : -1,
         "a1" : "r1_c25",
         "a2" : "download_41"
      },
      {
         "id" : "dep43",
         "time" : 1268.09100000537,
         "a1" : "r1_c25",
         "a2" : "download_40"
      },
      {
         "id" : "dep44",
         "time" : 1290.93499999726,
         "a1" : "r1_c25",
         "a2" : "download_39"
      },
      {
         "a2" : "download_38",
         "a1" : "r1_c26",
         "id" : "dep45",
         "time" : 245.47300000268
      },
      {
         "time" : 216.88500000164,
         "id" : "dep46",
         "a2" : "download_37",
         "a1" : "r1_c26"
      },
      {
         "a1" : "r1_c26",
         "a2" : "download_36",
         "time" : 33.0430000030901,
         "id" : "dep47"
      },
      {
         "id" : "dep48",
         "time" : 10.9270000102697,
         "a2" : "download_35",
         "a1" : "r1_c26"
      },
      {
         "time" : -1,
         "id" : "dep49",
         "a1" : "r1_c25",
         "a2" : "download_34"
      },
      {
         "time" : 1858.1370000029,
         "id" : "dep50",
         "a1" : "r1_c25",
         "a2" : "download_33"
      },
      {
         "a2" : "download_32",
         "a1" : "r1_c25",
         "time" : 1657.8770000051,
         "id" : "dep51"
      },
      {
         "id" : "dep52",
         "time" : -1,
         "a1" : "r1_c25",
         "a2" : "download_31"
      },
      {
         "a1" : "r1_c25",
         "a2" : "download_31",
         "id" : "dep53",
         "time" : 1976.84699999809
      },
      {
         "time" : 1473.40200000326,
         "id" : "dep54",
         "a1" : "r1_c25",
         "a2" : "download_30"
      },
      {
         "a1" : "r1_c25",
         "a2" : "download_29",
         "id" : "dep55",
         "time" : 1466.2410000019
      },
      {
         "a2" : "download_28",
         "a1" : "r1_c25",
         "time" : 1551.8000000011,
         "id" : "dep56"
      },
      {
         "time" : 962.8570000059,
         "id" : "dep57",
         "a2" : "download_27",
         "a1" : "r1_c25"
      },
      {
         "a1" : "r1_c15",
         "a2" : "download_26",
         "id" : "dep58",
         "time" : -1
      },
      {
         "id" : "dep59",
         "time" : -1,
         "a2" : "download_25",
         "a1" : "r1_c15"
      },
      {
         "a2" : "download_24",
         "a1" : "r1_c25",
         "id" : "dep60",
         "time" : 16.5359999955399
      },
      {
         "id" : "dep61",
         "time" : 18.16200000758,
         "a1" : "r1_c25",
         "a2" : "download_23"
      },
      {
         "a1" : "r1_c25",
         "a2" : "download_22",
         "id" : "dep62",
         "time" : 751.58100000408
      },
      {
         "id" : "dep63",
         "time" : 948.29499999469,
         "a1" : "r1_c25",
         "a2" : "download_21"
      },
      {
         "a2" : "download_20",
         "a1" : "r1_c25",
         "id" : "dep64",
         "time" : 487.51300000004
      },
      {
         "time" : 750.81100000534,
         "id" : "dep65",
         "a1" : "r1_c25",
         "a2" : "download_19"
      },
      {
         "id" : "dep66",
         "time" : 232.36700000416,
         "a1" : "r1_c25",
         "a2" : "download_18"
      },
      {
         "id" : "dep67",
         "time" : 232.43000000366,
         "a2" : "download_17",
         "a1" : "r1_c25"
      },
      {
         "id" : "dep68",
         "time" : 233.68299999857,
         "a2" : "download_16",
         "a1" : "r1_c25"
      },
      {
         "time" : 1485.0829999923,
         "id" : "dep69",
         "a1" : "r1_c15",
         "a2" : "download_15"
      },
      {
         "a2" : "download_14",
         "a1" : "r1_c15",
         "id" : "dep70",
         "time" : 1306.63199999253
      },
      {
         "a1" : "r1_c15",
         "a2" : "download_13",
         "id" : "dep71",
         "time" : 1050.1660000009
      },
      {
         "id" : "dep72",
         "time" : 315.132999996422,
         "a1" : "r1_c15",
         "a2" : "download_12"
      },
      {
         "a1" : "r1_c9",
         "a2" : "download_11",
         "id" : "dep73",
         "time" : 0.583000000916002
      },
      {
         "time" : 0.186999997823023,
         "id" : "dep74",
         "a2" : "download_10",
         "a1" : "r1_c9"
      },
      {
         "a1" : "r1_c9",
         "a2" : "download_9",
         "id" : "dep75",
         "time" : 0.00899999577103472
      },
      {
         "time" : 0.302000000375017,
         "id" : "dep76",
         "a1" : "r1_c9",
         "a2" : "download_8"
      },
      {
         "a1" : "r1_c9",
         "a2" : "download_7",
         "id" : "dep77",
         "time" : 0.698000003467996
      },
      {
         "id" : "dep78",
         "time" : 0.434000001405991,
         "a1" : "r1_c9",
         "a2" : "download_6"
      },
      {
         "a2" : "download_5",
         "a1" : "r1_c9",
         "time" : 0.484999996842987,
         "id" : "dep79"
      },
      {
         "a2" : "download_4",
         "a1" : "r1_c9",
         "time" : -1,
         "id" : "dep80"
      },
      {
         "a2" : "download_3",
         "a1" : "r1_c9",
         "id" : "dep81",
         "time" : -1
      },
      {
         "a1" : "r1_c9",
         "a2" : "download_2",
         "id" : "dep82",
         "time" : -1
      },
      {
         "a1" : "r1_c4",
         "a2" : "download_1",
         "id" : "dep83",
         "time" : -1
      },
      {
         "a2" : "download_1",
         "a1" : "r1_c4",
         "id" : "dep84",
         "time" : 0.315999990562034
      }
   ],
   "objs" : [
      {
         "id" : "r1",
         "when_comp_start" : 1,
         "download" : {
            "receivedTime" : "104.439000002458",
            "s_time" : 0,
            "sendEnd" : 0,
            "sendStart" : 0,
            "dns" : 0,
            "receiveFirst" : 53,
            "receiveHeadersEnd" : 53,
            "len" : 131403,
            "sslStart" : -1,
            "dnsEnd" : -1,
            "connectStart" : 0,
            "dnsStart" : -1,
            "type" : "text/html",
            "connectEnd" : 0,
            "sslEnd" : -1,
            "receiveLast" : 51.4390000024578,
            "id" : "download_0"
         },
         "comps" : [
            {
               "s_time" : 71.3609999947948,
               "e_time" : -81541672.108,
               "time" : -81541743.469,
               "type" : "evalhtml",
               "id" : "r1_c1"
            },
            {
               "e_time" : -81541672.108,
               "s_time" : 336.607999997796,
               "id" : "r1_c2",
               "type" : "evalhtml",
               "time" : -81542008.716
            },
            {
               "type" : "evalhtml",
               "id" : "r1_c3",
               "time" : -81542009.275,
               "e_time" : -81541672.108,
               "s_time" : 337.167000005138
            },
            {
               "e_time" : 337.641999998596,
               "s_time" : 337.326000008034,
               "type" : "evalhtml",
               "id" : "r1_c4",
               "time" : 0.315999990562034
            },
            {
               "e_time" : -81541672.108,
               "s_time" : 338.199999998324,
               "id" : "r1_c5",
               "type" : "evalhtml",
               "time" : -81542010.308
            },
            {
               "s_time" : 338.424999994459,
               "e_time" : -81541672.108,
               "time" : -81542010.533,
               "type" : "evalhtml",
               "id" : "r1_c6"
            },
            {
               "time" : -81542034.875,
               "id" : "r1_c7",
               "type" : "evalhtml",
               "s_time" : 362.766999998712,
               "e_time" : -81541672.108
            },
            {
               "time" : -81542060.535,
               "type" : "evalhtml",
               "id" : "r1_c8",
               "s_time" : 388.426999998046,
               "e_time" : -81541672.108
            },
            {
               "type" : "evalhtml",
               "id" : "r1_c9",
               "time" : 34.623999992619,
               "e_time" : 423.387999995612,
               "s_time" : 388.764000002993
            },
            {
               "type" : "evalhtml",
               "id" : "r1_c10",
               "time" : -81542149.279,
               "e_time" : -81541672.108,
               "s_time" : 477.17100000591
            },
            {
               "s_time" : 477.48600000341,
               "e_time" : -81541672.108,
               "time" : -81542149.594,
               "type" : "evalhtml",
               "id" : "r1_c11"
            },
            {
               "e_time" : -81541672.108,
               "s_time" : 477.662999997847,
               "type" : "evalhtml",
               "id" : "r1_c12",
               "time" : -81542149.771
            },
            {
               "time" : -81542150.017,
               "type" : "evalhtml",
               "id" : "r1_c13",
               "s_time" : 477.909000008367,
               "e_time" : -81541672.108
            },
            {
               "id" : "r1_c14",
               "type" : "evalhtml",
               "time" : -81542150.413,
               "e_time" : -81541672.108,
               "s_time" : 478.304999996908
            },
            {
               "e_time" : 2828.17700000305,
               "s_time" : 478.560000003199,
               "id" : "r1_c15",
               "type" : "evalhtml",
               "time" : 2349.61699999985
            },
            {
               "time" : -81544546.728,
               "id" : "r1_c16",
               "type" : "evalhtml",
               "s_time" : 2874.62000000232,
               "e_time" : -81541672.108
            },
            {
               "s_time" : 2874.96499999543,
               "e_time" : -81541672.108,
               "time" : -81544547.073,
               "id" : "r1_c17",
               "type" : "evalhtml"
            },
            {
               "time" : -81544547.306,
               "id" : "r1_c18",
               "type" : "evalhtml",
               "s_time" : 2875.19799999427,
               "e_time" : -81541672.108
            },
            {
               "e_time" : -81541672.108,
               "s_time" : 2875.52400000277,
               "id" : "r1_c19",
               "type" : "evalhtml",
               "time" : -81544547.632
            },
            {
               "id" : "r1_c20",
               "type" : "evalhtml",
               "time" : -81544547.681,
               "e_time" : -81541672.108,
               "s_time" : 2875.57299999753
            },
            {
               "s_time" : 2875.76399999671,
               "e_time" : -81541672.108,
               "time" : -81544547.872,
               "id" : "r1_c21",
               "type" : "evalhtml"
            },
            {
               "e_time" : -81541672.108,
               "s_time" : 2876.34800000524,
               "type" : "evalhtml",
               "id" : "r1_c22",
               "time" : -81544548.456
            },
            {
               "e_time" : -81541672.108,
               "s_time" : 2876.53900000441,
               "type" : "evalhtml",
               "id" : "r1_c23",
               "time" : -81544548.647
            },
            {
               "type" : "evalhtml",
               "id" : "r1_c24",
               "time" : -81544548.854,
               "e_time" : -81541672.108,
               "s_time" : 2876.74599999445
            },
            {
               "e_time" : 4853.78099999798,
               "s_time" : 2876.93399999989,
               "id" : "r1_c25",
               "type" : "evalhtml",
               "time" : 1976.84699999809
            },
            {
               "e_time" : 6190.4280000017,
               "s_time" : 4912.69199999806,
               "id" : "r1_c26",
               "type" : "evalhtml",
               "time" : 1277.73600000364
            }
         ],
         "url" : "http://original.testbed.localhost/www.kidsfoni.com/"
      },
      {
         "when_comp_start" : 1,
         "download" : {
            "connectStart" : 0,
            "dnsEnd" : -1,
            "dnsStart" : -1,
            "type" : "text/html",
            "sslEnd" : -1,
            "connectEnd" : 0,
            "receiveLast" : 367.100999996066,
            "id" : "download_1",
            "receivedTime" : "420.100999996066",
            "sendEnd" : 0,
            "s_time" : 337.641999998596,
            "sendStart" : 0,
            "dns" : 0,
            "receiveHeadersEnd" : 53,
            "receiveFirst" : 53,
            "sslStart" : -1,
            "len" : 336
         },
         "comps" : [],
         "url" : "http://original.testbed.localhost/Themes/Kidsfoni_New_350/Content/images/logo.png",
         "id" : "r30"
      },
      {
         "id" : "r77",
         "when_comp_start" : -1,
         "download" : {
            "dns" : 0,
            "receiveHeadersEnd" : 102,
            "receiveFirst" : 51,
            "sslStart" : -1,
            "len" : 27576,
            "receivedTime" : "526.444999995874",
            "sendEnd" : 51,
            "s_time" : 423.387999995612,
            "sendStart" : 51,
            "sslEnd" : -1,
            "connectEnd" : 51,
            "receiveLast" : 424.444999995874,
            "id" : "download_2",
            "connectStart" : 0,
            "dnsEnd" : -1,
            "dnsStart" : -1,
            "type" : "text/javascript"
         },
         "comps" : [
            {
               "time" : 2347.75600000285,
               "type" : 2,
               "id" : "comp_58",
               "s_time" : 526.578999997582,
               "e_time" : 2874.33500000043
            }
         ],
         "url" : "http://www.google-analytics.com/analytics.js"
      },
      {
         "id" : "r49",
         "when_comp_start" : -1,
         "download" : {
            "type" : "application/x-javascript",
            "dnsEnd" : -1,
            "connectStart" : 0,
            "dnsStart" : -1,
            "receiveLast" : 2720.88600000204,
            "id" : "download_3",
            "connectEnd" : 50,
            "sslEnd" : -1,
            "s_time" : 401.349000007031,
            "sendEnd" : 50,
            "sendStart" : 50,
            "receivedTime" : "2877.88600000204",
            "receiveFirst" : 107,
            "receiveHeadersEnd" : 157,
            "sslStart" : -1,
            "len" : 186350,
            "dns" : 0
         },
         "comps" : [],
         "url" : "http://connect.facebook.net/tr_TR/sdk.js#xfbml=1&version=v2.4&appId=1642719142676378"
      },
      {
         "id" : "r48",
         "url" : "https://assets.zendesk.com/embeddable_framework/main.js",
         "comps" : [
            {
               "e_time" : 3105.50999999396,
               "s_time" : 2988.55100000219,
               "type" : 2,
               "id" : "comp_100",
               "time" : 116.95899999177
            },
            {
               "type" : null,
               "id" : "comp_114",
               "time" : 99.0869999950601,
               "e_time" : 3290.58699999587,
               "s_time" : 3191.50000000081
            }
         ],
         "download" : {
            "dns" : 0,
            "receiveHeadersEnd" : 234,
            "receiveFirst" : 55,
            "sslStart" : 117,
            "len" : 915684,
            "receivedTime" : "2959.93900000758",
            "s_time" : 400.640000007115,
            "sendEnd" : 179,
            "sendStart" : 179,
            "connectEnd" : 179,
            "sslEnd" : 179,
            "id" : "download_4",
            "receiveLast" : 2725.93900000758,
            "dnsEnd" : -1,
            "connectStart" : 0,
            "dnsStart" : -1,
            "type" : "application/javascript"
         },
         "when_comp_start" : -1
      },
      {
         "download" : {
            "type" : "text/html",
            "dnsStart" : -1,
            "dnsEnd" : -1,
            "connectStart" : 0,
            "receiveLast" : 2474.79699999758,
            "id" : "download_5",
            "connectEnd" : 52,
            "sslEnd" : -1,
            "sendStart" : 52,
            "s_time" : 389.248999999836,
            "sendEnd" : 52,
            "receivedTime" : "2878.79699999758",
            "len" : 1245,
            "sslStart" : -1,
            "receiveFirst" : 352,
            "receiveHeadersEnd" : 404,
            "dns" : 0
         },
         "comps" : [],
         "url" : "http://kidsfoni.com/content/images/thumbs/0065141_dunyanin-1-numarali-cocuk-cumhuriyeti-kidzaniaya-cocuk-giris-bileti-80-tl-yerine-49-tl_304.png",
         "when_comp_start" : 1,
         "id" : "r35"
      },
      {
         "when_comp_start" : -1,
         "download" : {
            "receivedTime" : "3827.34899999923",
            "sendStart" : 52,
            "s_time" : 389.198000004399,
            "sendEnd" : 52,
            "dns" : 0,
            "len" : 1238881,
            "sslStart" : -1,
            "receiveHeadersEnd" : 432,
            "receiveFirst" : 380,
            "dnsStart" : -1,
            "dnsEnd" : -1,
            "connectStart" : 0,
            "type" : "image/png",
            "sslEnd" : -1,
            "connectEnd" : 52,
            "receiveLast" : 3395.34899999923,
            "id" : "download_6"
         },
         "url" : "http://kidsfoni.com/content/images/thumbs/0064978.png",
         "comps" : [],
         "id" : "r34"
      },
      {
         "download" : {
            "id" : "download_7",
            "receiveLast" : 2299.70000000193,
            "sslEnd" : -1,
            "connectEnd" : 404,
            "type" : "image/png",
            "dnsStart" : -1,
            "dnsEnd" : -1,
            "connectStart" : 0,
            "sslStart" : -1,
            "len" : 155710,
            "receiveHeadersEnd" : 583,
            "receiveFirst" : 179,
            "dns" : 0,
            "sendStart" : 404,
            "s_time" : 389.462000006461,
            "sendEnd" : 404,
            "receivedTime" : "2882.70000000193"
         },
         "comps" : [],
         "url" : "http://kidsfoni.com/content/images/thumbs/0065106_sealife-akvaryum-biletleri-31-tl-yerine-1850-tl_304.png",
         "when_comp_start" : -1,
         "id" : "r37"
      },
      {
         "id" : "r33",
         "when_comp_start" : -1,
         "comps" : [],
         "url" : "http://kidsfoni.com/content/images/thumbs/0065255.png",
         "download" : {
            "dns" : 0,
            "len" : 412119,
            "sslStart" : -1,
            "receiveHeadersEnd" : 1150,
            "receiveFirst" : 1098,
            "receivedTime" : "2959.72699999402",
            "sendStart" : 52,
            "sendEnd" : 52,
            "s_time" : 389.066000003368,
            "sslEnd" : -1,
            "connectEnd" : 52,
            "receiveLast" : 1809.72699999402,
            "id" : "download_8",
            "dnsStart" : -1,
            "connectStart" : 0,
            "dnsEnd" : -1,
            "type" : "image/png"
         }
      },
      {
         "id" : "r31",
         "when_comp_start" : -1,
         "download" : {
            "dnsEnd" : -1,
            "connectStart" : 0,
            "dnsStart" : -1,
            "type" : "image/png",
            "connectEnd" : 52,
            "sslEnd" : -1,
            "receiveLast" : 1805.29899999849,
            "id" : "download_9",
            "receivedTime" : "2960.29899999849",
            "s_time" : 388.772999998764,
            "sendEnd" : 52,
            "sendStart" : 52,
            "dns" : 0,
            "receiveFirst" : 1103,
            "receiveHeadersEnd" : 1155,
            "len" : 631281,
            "sslStart" : -1
         },
         "comps" : [],
         "url" : "http://kidsfoni.com/content/images/thumbs/0065298.png"
      },
      {
         "id" : "r32",
         "download" : {
            "receiveLast" : 1720.42499999737,
            "id" : "download_10",
            "sslEnd" : -1,
            "connectEnd" : 52,
            "type" : "image/jpeg",
            "dnsEnd" : -1,
            "connectStart" : 0,
            "dnsStart" : -1,
            "receiveFirst" : 1116,
            "receiveHeadersEnd" : 1168,
            "sslStart" : -1,
            "len" : 44363,
            "dns" : 0,
            "s_time" : 388.951000000816,
            "sendEnd" : 52,
            "sendStart" : 52,
            "receivedTime" : "2888.42499999737"
         },
         "url" : "http://kidsfoni.com/content/images/thumbs/0065220.jpeg",
         "comps" : [],
         "when_comp_start" : -1
      },
      {
         "when_comp_start" : -1,
         "url" : "http://kidsfoni.com/content/images/thumbs/0065259_viasea-tema-parkta-gunluk-sinirsiz-giris-49-tl_304.png",
         "comps" : [],
         "download" : {
            "dnsStart" : -1,
            "connectStart" : 0,
            "dnsEnd" : -1,
            "type" : "image/png",
            "connectEnd" : 52,
            "sslEnd" : -1,
            "receiveLast" : 1723.20200000657,
            "id" : "download_11",
            "receivedTime" : "2893.20200000657",
            "sendStart" : 52,
            "sendEnd" : 52,
            "s_time" : 389.347000003909,
            "dns" : 0,
            "len" : 144597,
            "sslStart" : -1,
            "receiveFirst" : 1118,
            "receiveHeadersEnd" : 1170
         },
         "id" : "r36"
      },
      {
         "when_comp_start" : -1,
         "download" : {
            "len" : 117915,
            "sslStart" : -1,
            "receiveHeadersEnd" : 930,
            "receiveFirst" : 195,
            "dns" : 0,
            "sendStart" : 735,
            "s_time" : 793.692999999621,
            "sendEnd" : 735,
            "receivedTime" : "2885.5770000082",
            "receiveLast" : 1955.5770000082,
            "id" : "download_12",
            "sslEnd" : -1,
            "connectEnd" : 735,
            "type" : "image/png",
            "dnsStart" : -1,
            "dnsEnd" : -1,
            "connectStart" : 0
         },
         "comps" : [],
         "url" : "http://kidsfoni.com/content/images/thumbs/0065252_ates-bizi-cagiriyor-ozel-kamp-kampanyasi_304.png",
         "id" : "r41"
      },
      {
         "when_comp_start" : -1,
         "url" : "http://kidsfoni.com/content/images/thumbs/0065182_xtrem-aventuresin-bahara-ozel-kampanyasi-ile-20-tlden-baslayan-fiyatlar_304.png",
         "comps" : [],
         "download" : {
            "receiveLast" : 2598.4440000013,
            "id" : "download_13",
            "connectEnd" : 256,
            "sslEnd" : -1,
            "type" : "image/png",
            "dnsEnd" : -1,
            "connectStart" : 0,
            "dnsStart" : -1,
            "receiveHeadersEnd" : 1242,
            "receiveFirst" : 986,
            "len" : 157184,
            "sslStart" : -1,
            "dns" : 0,
            "s_time" : 1528.7260000041,
            "sendEnd" : 256,
            "sendStart" : 256,
            "receivedTime" : "3840.4440000013"
         },
         "id" : "r42"
      },
      {
         "when_comp_start" : -1,
         "download" : {
            "receivedTime" : "2896.18100000371",
            "s_time" : 1785.19199999573,
            "sendEnd" : 178,
            "sendStart" : 178,
            "dns" : 0,
            "receiveFirst" : 816,
            "receiveHeadersEnd" : 994,
            "len" : 14873,
            "sslStart" : -1,
            "dnsEnd" : -1,
            "connectStart" : 0,
            "dnsStart" : -1,
            "type" : "image/jpeg",
            "sslEnd" : -1,
            "connectEnd" : 178,
            "receiveLast" : 1902.18100000371,
            "id" : "download_14"
         },
         "url" : "http://kidsfoni.com/content/images/thumbs/0065058_stanbul-kelebek-ciftliginde-kelebeklerle-tanisma-20-tlden-baslayan-fiyatlarla_304.jpeg",
         "comps" : [],
         "id" : "r43"
      },
      {
         "id" : "r44",
         "download" : {
            "dns" : 0,
            "receiveFirst" : 853,
            "receiveHeadersEnd" : 956,
            "len" : 93767,
            "sslStart" : -1,
            "receivedTime" : "3365.22500000137",
            "s_time" : 1963.6429999955,
            "sendEnd" : 103,
            "sendStart" : 103,
            "sslEnd" : -1,
            "connectEnd" : 103,
            "id" : "download_15",
            "receiveLast" : 2409.22500000137,
            "dnsEnd" : -1,
            "connectStart" : 0,
            "dnsStart" : -1,
            "type" : "image/png"
         },
         "url" : "http://kidsfoni.com/content/images/thumbs/0065286_the-zone-maslakta-cocuklar-icin-hem-eglenceli-hem-egitici-aktiviteler-30-tlden-baslayan-fiyatlarla_304.png",
         "comps" : [],
         "when_comp_start" : -1
      },
      {
         "download" : {
            "dns" : 0,
            "receiveHeadersEnd" : 75,
            "receiveFirst" : 75,
            "len" : 268,
            "sslStart" : -1,
            "receivedTime" : "3186.76199999754",
            "s_time" : 3110.61699999846,
            "sendEnd" : 0,
            "sendStart" : 0,
            "sslEnd" : -1,
            "connectEnd" : 0,
            "receiveLast" : 3111.76199999754,
            "id" : "download_16",
            "dnsEnd" : -1,
            "connectStart" : 0,
            "dnsStart" : -1,
            "type" : "text/html"
         },
         "comps" : [
            {
               "e_time" : 3191.26799999503,
               "s_time" : 3190.68100000732,
               "id" : "r98_c1",
               "type" : "evalhtml",
               "time" : 0.586999987709987
            }
         ],
         "url" : "https://assets.zendesk.com/embeddable_framework/update.html?1463283700960#b8716a8",
         "when_comp_start" : 1,
         "id" : "r98"
      },
      {
         "when_comp_start" : 1,
         "url" : "http://staticxx.facebook.com/connect/xd_arbiter.php?version=42#channel=f3e63f42&origin=http%3A%2F%2Foriginal.testbed.localhost",
         "comps" : [
            {
               "s_time" : 3297.12899999868,
               "e_time" : 3309.09500000416,
               "time" : 11.9660000054801,
               "id" : "r96_c1",
               "type" : "evalhtml"
            }
         ],
         "download" : {
            "s_time" : 3109.36400000355,
            "sendEnd" : 49,
            "sendStart" : 49,
            "receivedTime" : "3296.86099999526",
            "receiveFirst" : 51,
            "receiveHeadersEnd" : 100,
            "sslStart" : -1,
            "len" : 36422,
            "dns" : 0,
            "type" : "text/html",
            "dnsEnd" : -1,
            "connectStart" : 0,
            "dnsStart" : -1,
            "receiveLast" : 3196.86099999526,
            "id" : "download_17",
            "connectEnd" : 49,
            "sslEnd" : -1
         },
         "id" : "r96"
      },
      {
         "download" : {
            "dnsStart" : -1,
            "dnsEnd" : -1,
            "connectStart" : 0,
            "type" : "text/html",
            "connectEnd" : 203,
            "sslEnd" : 203,
            "receiveLast" : 3178.2279999993,
            "id" : "download_18",
            "receivedTime" : "3457.2279999993",
            "sendStart" : 203,
            "s_time" : 3109.30100000405,
            "sendEnd" : 205,
            "dns" : 0,
            "len" : 36422,
            "sslStart" : 122,
            "receiveFirst" : 74,
            "receiveHeadersEnd" : 279
         },
         "comps" : [
            {
               "s_time" : 3394.59900000656,
               "e_time" : 3465.64900000521,
               "time" : 71.04999999865,
               "type" : "evalhtml",
               "id" : "r97_c1"
            }
         ],
         "url" : "https://staticxx.facebook.com/connect/xd_arbiter.php?version=42#channel=f3e63f42&origin=http%3A%2F%2Foriginal.testbed.localhost",
         "when_comp_start" : 1,
         "id" : "r97"
      },
      {
         "when_comp_start" : -1,
         "download" : {
            "receiveLast" : 3629.11599999655,
            "id" : "download_19",
            "sslEnd" : -1,
            "connectEnd" : 0,
            "type" : "text/plain",
            "dnsStart" : -1,
            "connectStart" : 0,
            "dnsEnd" : -1,
            "sslStart" : -1,
            "len" : 1,
            "receiveFirst" : 197,
            "receiveHeadersEnd" : 197,
            "dns" : 0,
            "sendStart" : 0,
            "sendEnd" : 0,
            "s_time" : 3627.74500000523,
            "receivedTime" : "3826.11599999655"
         },
         "comps" : [],
         "url" : "https://kidsfoni.zendesk.com/embeddable/blips",
         "id" : "r102"
      },
      {
         "download" : {
            "type" : "image/png",
            "dnsStart" : -1,
            "dnsEnd" : -1,
            "connectStart" : 0,
            "receiveLast" : 3522.20499999449,
            "id" : "download_20",
            "sslEnd" : -1,
            "connectEnd" : 461,
            "sendStart" : 461,
            "s_time" : 3364.44699999993,
            "sendEnd" : 461,
            "receivedTime" : "4168.20499999449",
            "sslStart" : -1,
            "len" : 169122,
            "receiveFirst" : 185,
            "receiveHeadersEnd" : 646,
            "dns" : 0
         },
         "url" : "http://kidsfoni.com/content/images/thumbs/0065192_sutisten-baby-shower-ve-1-3-yas-dogum-gunu-paketleri-sadece-cengelkoy-subesi-icin-gecerlidir_304.png",
         "comps" : [],
         "when_comp_start" : -1,
         "id" : "r51"
      },
      {
         "id" : "r52",
         "download" : {
            "sendStart" : 14,
            "sendEnd" : 14,
            "s_time" : 3825.22899999458,
            "receivedTime" : "4176.87900000601",
            "len" : 19528,
            "sslStart" : -1,
            "receiveFirst" : 197,
            "receiveHeadersEnd" : 211,
            "dns" : 0,
            "type" : "image/jpeg",
            "dnsStart" : -1,
            "connectStart" : 0,
            "dnsEnd" : -1,
            "receiveLast" : 3965.87900000601,
            "id" : "download_21",
            "sslEnd" : -1,
            "connectEnd" : 14
         },
         "comps" : [],
         "url" : "http://kidsfoni.com/content/images/thumbs/0064974_su-sagliktir-swimbabyde-bebekler-icin-su-aktivitesi-deneme-dersi-130-tl-yerine-118-tl_304.jpeg",
         "when_comp_start" : -1
      },
      {
         "id" : "r103",
         "download" : {
            "receiveLast" : 3630.14099999471,
            "id" : "download_22",
            "sslEnd" : -1,
            "connectEnd" : 0,
            "type" : "application/json",
            "connectStart" : 0,
            "dnsEnd" : -1,
            "dnsStart" : -1,
            "receiveFirst" : 449,
            "receiveHeadersEnd" : 449,
            "sslStart" : -1,
            "len" : 149,
            "dns" : 0,
            "sendEnd" : 0,
            "s_time" : 3628.51500000397,
            "sendStart" : 0,
            "receivedTime" : "4079.14099999471"
         },
         "comps" : [],
         "url" : "https://kidsfoni.zendesk.com/embeddable/config",
         "when_comp_start" : -1
      },
      {
         "id" : "r50",
         "when_comp_start" : -1,
         "download" : {
            "dnsStart" : -1,
            "connectStart" : 0,
            "dnsEnd" : -1,
            "type" : "image/png",
            "sslEnd" : -1,
            "connectEnd" : 469,
            "receiveLast" : 3632.74699999962,
            "id" : "download_23",
            "receivedTime" : "4864.74699999962",
            "sendStart" : 469,
            "sendEnd" : 470,
            "s_time" : 2895.09600000747,
            "dns" : 0,
            "len" : 117955,
            "sslStart" : -1,
            "receiveHeadersEnd" : 1232,
            "receiveFirst" : 762
         },
         "comps" : [],
         "url" : "http://kidsfoni.com/content/images/thumbs/0065186_kozyatagi-med-akademiden-alaninda-uzman-egitmenler-esliginde-cocuklar-ve-yetiskinler-icin-lk-yardim-_304.png"
      },
      {
         "url" : "http://kidsfoni.com/content/images/thumbs/0065304_kidsfonide-lk-kez-gunluk-bakim-hizmeti_304.jpeg",
         "comps" : [],
         "download" : {
            "receiveLast" : 2944.3780000062,
            "id" : "download_24",
            "connectEnd" : 2,
            "sslEnd" : -1,
            "type" : "image/jpeg",
            "dnsEnd" : -1,
            "connectStart" : 0,
            "dnsStart" : -1,
            "receiveHeadersEnd" : 1244,
            "receiveFirst" : 1242,
            "sslStart" : -1,
            "len" : 17491,
            "dns" : 0,
            "s_time" : 2893.46999999543,
            "sendEnd" : 2,
            "sendStart" : 2,
            "receivedTime" : "4188.3780000062"
         },
         "when_comp_start" : -1,
         "id" : "r47"
      },
      {
         "comps" : [],
         "url" : "http://kidsfoni.com/content/images/thumbs/0065225_halat-by-divandan-ailece-pazar-keyfi-acik-bufe-kahvalti-sonrasi-muze-gezisi-paketi-32-tlden-baslayan_304.png",
         "download" : {
            "dnsStart" : -1,
            "connectStart" : 0,
            "dnsEnd" : -1,
            "type" : "image/png",
            "sslEnd" : -1,
            "connectEnd" : 66,
            "receiveLast" : 3031.74199999508,
            "id" : "download_25",
            "receivedTime" : "4350.74199999508",
            "sendStart" : 66,
            "sendEnd" : 66,
            "s_time" : 2828.17700000305,
            "dns" : 0,
            "sslStart" : -1,
            "len" : 152904,
            "receiveHeadersEnd" : 1319,
            "receiveFirst" : 1253
         },
         "when_comp_start" : -1,
         "id" : "r46"
      },
      {
         "id" : "r45",
         "when_comp_start" : -1,
         "download" : {
            "sendStart" : 762,
            "sendEnd" : 762,
            "s_time" : 2066.5469999949,
            "receivedTime" : "5614.21300000802",
            "len" : 153416,
            "sslStart" : -1,
            "receiveHeadersEnd" : 2092,
            "receiveFirst" : 1330,
            "dns" : 0,
            "type" : "image/png",
            "dnsStart" : -1,
            "connectStart" : 0,
            "dnsEnd" : -1,
            "receiveLast" : 3522.21300000802,
            "id" : "download_26",
            "connectEnd" : 762,
            "sslEnd" : -1
         },
         "comps" : [],
         "url" : "http://kidsfoni.com/content/images/thumbs/0063979_funloft-oyun-makineleri-veya-playground_304.png"
      },
      {
         "id" : "r53",
         "url" : "http://kidsfoni.com/content/images/thumbs/0064987_okay-temiz-ritim-atolyesi-ebeveyncocuk-aylik-toplam-4ders-ritim-kursu-290-tl-yerine-225-tl_304.jpeg",
         "comps" : [],
         "download" : {
            "dnsStart" : -1,
            "dnsEnd" : -1,
            "connectStart" : 0,
            "type" : "image/jpeg",
            "sslEnd" : -1,
            "connectEnd" : 305,
            "id" : "download_27",
            "receiveLast" : 3841.84800000407,
            "receivedTime" : "4343.84800000407",
            "sendStart" : 305,
            "s_time" : 3839.79100000579,
            "sendEnd" : 305,
            "dns" : 0,
            "sslStart" : -1,
            "len" : 17244,
            "receiveHeadersEnd" : 502,
            "receiveFirst" : 197
         },
         "when_comp_start" : -1
      },
      {
         "when_comp_start" : -1,
         "download" : {
            "type" : "application/javascript",
            "connectStart" : 0,
            "dnsEnd" : -1,
            "dnsStart" : -1,
            "id" : "download_28",
            "receiveLast" : 4629.90800000716,
            "sslEnd" : -1,
            "connectEnd" : 0,
            "sendEnd" : 0,
            "s_time" : 4428.73400000099,
            "sendStart" : 0,
            "receivedTime" : "4687.90800000716",
            "receiveFirst" : 58,
            "receiveHeadersEnd" : 58,
            "sslStart" : -1,
            "len" : 946859,
            "dns" : 0
         },
         "comps" : [],
         "url" : "http://v2.zopim.com/bin/v/widget_v2.147.js",
         "id" : "r104"
      },
      {
         "download" : {
            "connectStart" : 0,
            "dnsEnd" : -1,
            "dnsStart" : -1,
            "type" : "image/jpeg",
            "connectEnd" : 7,
            "sslEnd" : -1,
            "receiveLast" : 4345.55100000813,
            "id" : "download_29",
            "receivedTime" : "4535.55100000813",
            "sendEnd" : 7,
            "s_time" : 4343.17500000179,
            "sendStart" : 7,
            "dns" : 0,
            "receiveHeadersEnd" : 190,
            "receiveFirst" : 183,
            "len" : 12346,
            "sslStart" : -1
         },
         "url" : "http://kidsfoni.com/content/images/thumbs/0064546_atasehir-asia-city-hotelde-tatli-surprizler-10-16-yas-karaoke-etkinligi-kisi-basi-118-tl-hamburger-m_304.jpeg",
         "comps" : [],
         "when_comp_start" : -1,
         "id" : "r57"
      },
      {
         "id" : "r58",
         "when_comp_start" : -1,
         "comps" : [],
         "url" : "http://kidsfoni.com/content/images/thumbs/0064979_atolye-fulden-cocuklar-icin-cikolata-yapimi-atolyesi-100-tl-yerine-39-tl_304.jpeg",
         "download" : {
            "receivedTime" : "4864.14999999397",
            "sendStart" : 184,
            "s_time" : 4350.33600000315,
            "sendEnd" : 184,
            "dns" : 0,
            "sslStart" : -1,
            "len" : 21980,
            "receiveFirst" : 198,
            "receiveHeadersEnd" : 382,
            "dnsStart" : -1,
            "dnsEnd" : -1,
            "connectStart" : 0,
            "type" : "image/jpeg",
            "sslEnd" : -1,
            "connectEnd" : 184,
            "receiveLast" : 4482.14999999397,
            "id" : "download_30"
         }
      },
      {
         "id" : "r106",
         "when_comp_start" : -1,
         "download" : {
            "receiveFirst" : 57,
            "receiveHeadersEnd" : 57,
            "sslStart" : -1,
            "len" : 6273,
            "dns" : 0,
            "sendEnd" : 0,
            "s_time" : 4853.78099999798,
            "sendStart" : 0,
            "receivedTime" : "4911.45200000028",
            "receiveLast" : 4854.45200000028,
            "id" : "download_31",
            "connectEnd" : 0,
            "sslEnd" : -1,
            "type" : "application/javascript",
            "connectStart" : 0,
            "dnsEnd" : -1,
            "dnsStart" : -1
         },
         "comps" : [
            {
               "s_time" : 4911.54299999471,
               "e_time" : 4912.69199999806,
               "time" : 1.14900000335001,
               "id" : "comp_209",
               "type" : 1
            }
         ],
         "url" : "http://v2.zopim.com/lib/20160510.080635/__$$__stringtable_lang_tr.js"
      },
      {
         "when_comp_start" : -1,
         "download" : {
            "type" : "image/jpeg",
            "dnsStart" : -1,
            "dnsEnd" : -1,
            "connectStart" : 0,
            "receiveLast" : 4537.52700000629,
            "id" : "download_32",
            "sslEnd" : -1,
            "connectEnd" : 200,
            "sendStart" : 200,
            "s_time" : 4534.81100000499,
            "sendEnd" : 200,
            "receivedTime" : "4923.52700000629",
            "len" : 17032,
            "sslStart" : -1,
            "receiveHeadersEnd" : 386,
            "receiveFirst" : 186,
            "dns" : 0
         },
         "comps" : [],
         "url" : "http://kidsfoni.com/content/images/thumbs/0063782_stanbul-kumpanyasi-2015-2016-sezonu-cocuk-ve-yetiskin-oyunlarina-kombine-giris-biletleri-225-tl-yeri_304.jpeg",
         "id" : "r59"
      },
      {
         "id" : "r60",
         "when_comp_start" : -1,
         "download" : {
            "receiveHeadersEnd" : 208,
            "receiveFirst" : 189,
            "len" : 26295,
            "sslStart" : -1,
            "dns" : 0,
            "sendEnd" : 19,
            "s_time" : 4735.07100000279,
            "sendStart" : 19,
            "receivedTime" : "4948.68400000269",
            "receiveLast" : 4740.68400000269,
            "id" : "download_33",
            "connectEnd" : 19,
            "sslEnd" : -1,
            "type" : "image/jpeg",
            "connectStart" : 0,
            "dnsEnd" : -1,
            "dnsStart" : -1
         },
         "url" : "http://kidsfoni.com/content/images/thumbs/0065095_son-dakika-dogum-gunu-partileri-bubblevents-parti-evinde-sadece-900-tl_304.jpeg",
         "comps" : []
      },
      {
         "when_comp_start" : -1,
         "url" : "http://kidsfoni.com/content/images/thumbs/0064970_darussafaka-norse-spor-tesisleri-fethi-oztoprak-yuzme-okulu-ozel-ve-grup-dersleri-80-tlden-baslayan-_304.jpeg",
         "comps" : [],
         "download" : {
            "type" : "image/jpeg",
            "dnsStart" : -1,
            "connectStart" : 0,
            "dnsEnd" : -1,
            "receiveLast" : 4808.64400000323,
            "id" : "download_34",
            "sslEnd" : -1,
            "connectEnd" : 169,
            "sendStart" : 169,
            "sendEnd" : 169,
            "s_time" : 4754.08300000709,
            "receivedTime" : "5160.64400000323",
            "sslStart" : -1,
            "len" : 25346,
            "receiveFirst" : 183,
            "receiveHeadersEnd" : 352,
            "dns" : 0
         },
         "id" : "r61"
      },
      {
         "when_comp_start" : -1,
         "download" : {
            "receivedTime" : "5129.57200000528",
            "s_time" : 4923.61900000833,
            "sendEnd" : 22,
            "sendStart" : 22,
            "dns" : 0,
            "receiveFirst" : 183,
            "receiveHeadersEnd" : 205,
            "sslStart" : -1,
            "len" : 11312,
            "dnsEnd" : -1,
            "connectStart" : 0,
            "dnsStart" : -1,
            "type" : "image/jpeg",
            "sslEnd" : -1,
            "connectEnd" : 22,
            "receiveLast" : 4924.57200000528,
            "id" : "download_35"
         },
         "comps" : [],
         "url" : "http://kidsfoni.com/content/images/thumbs/0064946_hibricker-ile-cocugunuzla-beraber-istediginiz-binayi-yapabilirsiniz-ustelik-8990-tlden-baslayan-fiya_304.jpeg",
         "id" : "r62"
      },
      {
         "id" : "r63",
         "download" : {
            "receivedTime" : "5316.81899999967",
            "sendEnd" : 184,
            "s_time" : 4945.73500000115,
            "sendStart" : 184,
            "dns" : 0,
            "receiveHeadersEnd" : 370,
            "receiveFirst" : 186,
            "sslStart" : -1,
            "len" : 10276,
            "connectStart" : 0,
            "dnsEnd" : -1,
            "dnsStart" : -1,
            "type" : "image/jpeg",
            "connectEnd" : 184,
            "sslEnd" : -1,
            "receiveLast" : 4946.81899999967,
            "id" : "download_36"
         },
         "url" : "http://kidsfoni.com/content/images/thumbs/0064947_magic-nuudles-activity-hayal-gucu-bloklari-2490-yerine-1990-tlden-baslayan-fiyatlarla_304.jpeg",
         "comps" : [],
         "when_comp_start" : -1
      },
      {
         "id" : "r64",
         "download" : {
            "receiveHeadersEnd" : 217,
            "receiveFirst" : 189,
            "len" : 202233,
            "sslStart" : -1,
            "dns" : 0,
            "s_time" : 5129.5769999997,
            "sendEnd" : 28,
            "sendStart" : 28,
            "receivedTime" : "5455.94400000118",
            "receiveLast" : 5238.94400000118,
            "id" : "download_37",
            "connectEnd" : 28,
            "sslEnd" : -1,
            "type" : "image/png",
            "dnsEnd" : -1,
            "connectStart" : 0,
            "dnsStart" : -1
         },
         "url" : "http://kidsfoni.com/content/images/thumbs/0065069_aslan-ile-fare-kurnaz-tilkiye-karsi-cocuk-oyunu-23-nisan-2016-cumartesi-saat-1500de-torium-avmde-25-_304.png",
         "comps" : [],
         "when_comp_start" : -1
      },
      {
         "comps" : [],
         "url" : "http://kidsfoni.com/content/images/thumbs/0065096_nar-party-evinden-eglenceli-oyunlarla-dolu-baby-shower-partisi-1450-tl-yerine-1300-tl_304.jpeg",
         "download" : {
            "receivedTime" : "5511.06099999743",
            "sendEnd" : 158,
            "s_time" : 5158.16500000074,
            "sendStart" : 158,
            "dns" : 0,
            "receiveFirst" : 194,
            "receiveHeadersEnd" : 352,
            "sslStart" : -1,
            "len" : 13412,
            "connectStart" : 0,
            "dnsEnd" : -1,
            "dnsStart" : -1,
            "type" : "image/jpeg",
            "sslEnd" : -1,
            "connectEnd" : 158,
            "receiveLast" : 5159.06099999743,
            "id" : "download_38"
         },
         "when_comp_start" : -1,
         "id" : "r65"
      },
      {
         "id" : "r55",
         "url" : "http://kidsfoni.com/content/images/thumbs/0064686_exclusive-bogaz-turu-ile-bambaska-bir-dogum-gunu-850-tlden-baslayan-fiyatlarla_304.jpeg",
         "comps" : [],
         "download" : {
            "connectStart" : 0,
            "dnsEnd" : -1,
            "dnsStart" : -1,
            "type" : "image/jpeg",
            "connectEnd" : 20,
            "sslEnd" : -1,
            "receiveLast" : 4219.06499999994,
            "id" : "download_39",
            "receivedTime" : "5606.06499999994",
            "sendEnd" : 20,
            "s_time" : 4167.86899999715,
            "sendStart" : 20,
            "dns" : 0,
            "receiveHeadersEnd" : 1387,
            "receiveFirst" : 1367,
            "len" : 19237,
            "sslStart" : -1
         },
         "when_comp_start" : -1
      },
      {
         "when_comp_start" : -1,
         "comps" : [],
         "url" : "http://kidsfoni.com/content/images/thumbs/0063988_stanbul-kids-clubdan-ngilizce-yuzme-jimnastik-kurslarinda-4-ders-120tlden-baslayan-indirimli-fiyatla_304.png",
         "download" : {
            "receivedTime" : "5713.28100000392",
            "sendStart" : 23,
            "s_time" : 4145.02500000526,
            "sendEnd" : 23,
            "dns" : 0,
            "sslStart" : -1,
            "len" : 153913,
            "receiveHeadersEnd" : 1411,
            "receiveFirst" : 1388,
            "dnsStart" : -1,
            "dnsEnd" : -1,
            "connectStart" : 0,
            "type" : "image/png",
            "connectEnd" : 23,
            "sslEnd" : -1,
            "receiveLast" : 4302.28100000392,
            "id" : "download_40"
         },
         "id" : "r54"
      },
      {
         "when_comp_start" : -1,
         "download" : {
            "id" : "download_41",
            "receiveLast" : 4239.54000000213,
            "sslEnd" : -1,
            "connectEnd" : 155,
            "type" : "image/jpeg",
            "dnsEnd" : -1,
            "connectStart" : 0,
            "dnsStart" : -1,
            "receiveHeadersEnd" : 1392,
            "receiveFirst" : 1237,
            "len" : 19776,
            "sslStart" : -1,
            "dns" : 0,
            "s_time" : 4187.89400000242,
            "sendEnd" : 155,
            "sendStart" : 155,
            "receivedTime" : "5631.54000000213"
         },
         "url" : "http://kidsfoni.com/content/images/thumbs/0064985_minikler-icin-12-derslik-satranc-kursu-kovan-spor-kulturunde-300-tl-tek-derslik-fiyati-80-tl_304.jpeg",
         "comps" : [],
         "id" : "r56"
      },
      {
         "id" : "r66",
         "download" : {
            "dnsStart" : -1,
            "dnsEnd" : -1,
            "connectStart" : 0,
            "type" : "image/jpeg",
            "sslEnd" : -1,
            "connectEnd" : 139,
            "receiveLast" : 5319.3430000064,
            "id" : "download_42",
            "receivedTime" : "5640.3430000064",
            "sendStart" : 139,
            "s_time" : 5316.78700000339,
            "sendEnd" : 139,
            "dns" : 0,
            "len" : 25811,
            "sslStart" : -1,
            "receiveFirst" : 182,
            "receiveHeadersEnd" : 321
         },
         "comps" : [],
         "url" : "http://kidsfoni.com/content/images/thumbs/0064976_gymboree-playlearn-muzik-ve-sanat-derslerinde-12-ders-1200-tlden-baslayan-fiyatlarla-ustelik-2-ders-_304.jpeg",
         "when_comp_start" : -1
      },
      {
         "id" : "r69",
         "when_comp_start" : 1,
         "download" : {
            "receiveLast" : 5607.67200000503,
            "id" : "download_43",
            "connectEnd" : 0,
            "sslEnd" : -1,
            "type" : "text/html",
            "connectStart" : 0,
            "dnsEnd" : -1,
            "dnsStart" : -1,
            "receiveHeadersEnd" : 51,
            "receiveFirst" : 51,
            "len" : 360,
            "sslStart" : -1,
            "dns" : 0,
            "sendEnd" : 0,
            "s_time" : 5606.16999999911,
            "sendStart" : 0,
            "receivedTime" : "5658.67200000503"
         },
         "comps" : [],
         "url" : "http://original.testbed.localhost/Themes/Kidsfoni_New_350/Content/images/jenny_jimmy_mailing_14.11.05.jpg"
      },
      {
         "id" : "r70",
         "download" : {
            "receivedTime" : "5667.19200000807",
            "sendStart" : 0,
            "sendEnd" : 0,
            "s_time" : 5614.24700000498,
            "dns" : 0,
            "sslStart" : -1,
            "len" : 342,
            "receiveHeadersEnd" : 52,
            "receiveFirst" : 52,
            "dnsStart" : -1,
            "connectStart" : 0,
            "dnsEnd" : -1,
            "type" : "text/html",
            "connectEnd" : 0,
            "sslEnd" : -1,
            "receiveLast" : 5615.19200000807,
            "id" : "download_44"
         },
         "url" : "http://original.testbed.localhost/Themes/Kidsfoni_New_350/Content/images/bannerKids.jpg",
         "comps" : [],
         "when_comp_start" : 1
      },
      {
         "when_comp_start" : 1,
         "download" : {
            "s_time" : 5631.69900000503,
            "sendEnd" : 0,
            "sendStart" : 0,
            "receivedTime" : "5684.21099999978",
            "receiveFirst" : 52,
            "receiveHeadersEnd" : 52,
            "len" : 340,
            "sslStart" : -1,
            "dns" : 0,
            "type" : "text/html",
            "dnsEnd" : -1,
            "connectStart" : 0,
            "dnsStart" : -1,
            "receiveLast" : 5632.21099999978,
            "id" : "download_45",
            "sslEnd" : -1,
            "connectEnd" : 0
         },
         "comps" : [],
         "url" : "http://original.testbed.localhost/Themes/Kidsfoni_New_350/Content/images/campaign.png",
         "id" : "r71"
      },
      {
         "when_comp_start" : 1,
         "comps" : [],
         "url" : "http://original.testbed.localhost/Themes/Kidsfoni_New_350/Content/images/footer-add.png",
         "download" : {
            "receivedTime" : "5692.13700000546",
            "sendEnd" : 0,
            "s_time" : 5640.42900000641,
            "sendStart" : 0,
            "dns" : 0,
            "receiveFirst" : 51,
            "receiveHeadersEnd" : 51,
            "len" : 342,
            "sslStart" : -1,
            "connectStart" : 0,
            "dnsEnd" : -1,
            "dnsStart" : -1,
            "type" : "text/html",
            "sslEnd" : -1,
            "connectEnd" : 0,
            "receiveLast" : 5641.13700000546,
            "id" : "download_46"
         },
         "id" : "r72"
      },
      {
         "when_comp_start" : -1,
         "comps" : [],
         "url" : "http://kidsfoni.com/content/images/thumbs/0064317_kovan-spor-kulturunde-12-derslik-jimnastik-paketi-300-tl_304.jpeg",
         "download" : {
            "connectEnd" : 55,
            "sslEnd" : -1,
            "id" : "download_47",
            "receiveLast" : 5457.12999999966,
            "connectStart" : 0,
            "dnsEnd" : -1,
            "dnsStart" : -1,
            "type" : "image/jpeg",
            "dns" : 0,
            "receiveHeadersEnd" : 236,
            "receiveFirst" : 181,
            "len" : 13005,
            "sslStart" : -1,
            "receivedTime" : "5693.12999999966",
            "sendEnd" : 55,
            "s_time" : 5456.09599999443,
            "sendStart" : 55
         },
         "id" : "r67"
      },
      {
         "when_comp_start" : 1,
         "download" : {
            "receivedTime" : "5711.0079999984",
            "sendStart" : 0,
            "s_time" : 5658.6479999969,
            "sendEnd" : 0,
            "dns" : 0,
            "sslStart" : -1,
            "len" : 344,
            "receiveFirst" : 52,
            "receiveHeadersEnd" : 52,
            "dnsStart" : -1,
            "dnsEnd" : -1,
            "connectStart" : 0,
            "type" : "text/html",
            "sslEnd" : -1,
            "connectEnd" : 0,
            "receiveLast" : 5659.0079999984,
            "id" : "download_48"
         },
         "url" : "http://original.testbed.localhost/Themes/Kidsfoni_New_350/Content/images/visa-payment.png",
         "comps" : [],
         "id" : "r73"
      },
      {
         "id" : "r74",
         "when_comp_start" : 1,
         "url" : "http://original.testbed.localhost/Themes/Kidsfoni_New_350/Content/images/master-card-payment.png",
         "comps" : [],
         "download" : {
            "connectEnd" : 0,
            "sslEnd" : -1,
            "receiveLast" : 5667.62100000726,
            "id" : "download_49",
            "connectStart" : 0,
            "dnsEnd" : -1,
            "dnsStart" : -1,
            "type" : "text/html",
            "dns" : 0,
            "receiveHeadersEnd" : 51,
            "receiveFirst" : 51,
            "sslStart" : -1,
            "len" : 351,
            "receivedTime" : "5718.62100000726",
            "sendEnd" : 0,
            "s_time" : 5667.15900000418,
            "sendStart" : 0
         }
      },
      {
         "id" : "r75",
         "download" : {
            "connectStart" : 0,
            "dnsEnd" : -1,
            "dnsStart" : -1,
            "type" : "text/html",
            "connectEnd" : 0,
            "sslEnd" : -1,
            "receiveLast" : 5685.43000000448,
            "id" : "download_50",
            "receivedTime" : "5736.43000000448",
            "sendEnd" : 0,
            "s_time" : 5684.17700000282,
            "sendStart" : 0,
            "dns" : 0,
            "receiveHeadersEnd" : 51,
            "receiveFirst" : 51,
            "sslStart" : -1,
            "len" : 346
         },
         "url" : "http://original.testbed.localhost/Themes/Kidsfoni_New_350/Content/images/rapaid-payment.png",
         "comps" : [],
         "when_comp_start" : 1
      },
      {
         "when_comp_start" : 1,
         "comps" : [],
         "url" : "http://original.testbed.localhost/Themes/Kidsfoni_New_350/Content/images/img/kids/imalathanelogo.png",
         "download" : {
            "type" : "text/html",
            "dnsEnd" : -1,
            "connectStart" : 0,
            "dnsStart" : -1,
            "receiveLast" : 5695.28599999414,
            "id" : "download_51",
            "connectEnd" : 0,
            "sslEnd" : -1,
            "s_time" : 5692.28299999668,
            "sendEnd" : 0,
            "sendStart" : 0,
            "receivedTime" : "5746.28599999414",
            "receiveFirst" : 51,
            "receiveHeadersEnd" : 51,
            "sslStart" : -1,
            "len" : 355,
            "dns" : 0
         },
         "id" : "r76"
      },
      {
         "id" : "r38",
         "url" : "http://kidsfoni.com/content/images/thumbs/0064977_turkiyenin-lk-cocuk-sehri-kidzmondoya-giris-bileti-60-tl-yerine-45-tl_304.png",
         "comps" : [],
         "download" : {
            "type" : "image/png",
            "dnsEnd" : -1,
            "connectStart" : 0,
            "dnsStart" : -1,
            "receiveLast" : 528.730999999796,
            "id" : "download_52",
            "sslEnd" : -1,
            "connectEnd" : 5224,
            "s_time" : 389.540999996825,
            "sendEnd" : 5225,
            "sendStart" : 5224,
            "receivedTime" : "5945.7309999998",
            "receiveFirst" : 192,
            "receiveHeadersEnd" : 5417,
            "len" : 147015,
            "sslStart" : -1,
            "dns" : 0
         },
         "when_comp_start" : -1
      },
      {
         "comps" : [],
         "url" : "http://kidsfoni.com/content/images/thumbs/0065305_amerikanin-yaz-kampi-atasehirdecocuklar-icin-full-ngilizce_304.jpeg",
         "download" : {
            "dnsStart" : -1,
            "connectStart" : 0,
            "dnsEnd" : -1,
            "type" : "image/jpeg",
            "sslEnd" : -1,
            "connectEnd" : 5249,
            "receiveLast" : 393.891000002041,
            "id" : "download_53",
            "receivedTime" : "5833.89100000204",
            "sendStart" : 5249,
            "sendEnd" : 5249,
            "s_time" : 391.703000001144,
            "dns" : 0,
            "len" : 19284,
            "sslStart" : -1,
            "receiveFirst" : 191,
            "receiveHeadersEnd" : 5440
         },
         "when_comp_start" : -1,
         "id" : "r40"
      },
      {
         "id" : "r94",
         "when_comp_start" : -1,
         "url" : "https://stats.g.doubleclick.net/r/collect?v=1&aip=1&t=dc&_r=3&tid=UA-63715883-1&cid=1322465218.1463283698&jid=1886776751&_v=j43&z=842419764",
         "comps" : [],
         "download" : {
            "receiveLast" : 5995.23100000666,
            "id" : "download_54",
            "sslEnd" : 190,
            "connectEnd" : 190,
            "type" : "image/gif",
            "dnsEnd" : -1,
            "connectStart" : 0,
            "dnsStart" : -1,
            "receiveFirst" : 70,
            "receiveHeadersEnd" : 261,
            "len" : 35,
            "sslStart" : 118,
            "dns" : 0,
            "s_time" : 5798.86999999871,
            "sendEnd" : 191,
            "sendStart" : 190,
            "receivedTime" : "6256.23100000666"
         }
      },
      {
         "url" : "https://www.facebook.com/impression.php/ff045cc84/?api_key=1642719142676378&lid=115&payload=%7B%22source%22%3A%22jssdk%22%7D",
         "comps" : [],
         "download" : {
            "receivedTime" : "6256.59400000586",
            "s_time" : 5710.96300000499,
            "sendEnd" : 207,
            "sendStart" : 207,
            "dns" : 0,
            "receiveHeadersEnd" : 414,
            "receiveFirst" : 207,
            "len" : 43,
            "sslStart" : 125,
            "dnsEnd" : -1,
            "connectStart" : 0,
            "dnsStart" : -1,
            "type" : "image/gif",
            "sslEnd" : 206,
            "connectEnd" : 207,
            "receiveLast" : 5842.59400000586,
            "id" : "download_55"
         },
         "when_comp_start" : -1,
         "id" : "r95"
      },
      {
         "id" : "r68",
         "url" : "http://kidsfoni.com/content/images/thumbs/0064915_kovan-spor-kulturunde-tenis-ile-guclu-saglikli-ve-mutlu-cocuklar-10-derslik-paket-300-tl_304.jpeg",
         "comps" : [],
         "download" : {
            "dns" : 0,
            "sslStart" : -1,
            "len" : 12445,
            "receiveFirst" : 1347,
            "receiveHeadersEnd" : 1442,
            "receivedTime" : "7003.90900000639",
            "sendStart" : 95,
            "sendEnd" : 95,
            "s_time" : 5511.14499999676,
            "connectEnd" : 95,
            "sslEnd" : -1,
            "receiveLast" : 5561.90900000639,
            "id" : "download_57",
            "dnsStart" : -1,
            "connectStart" : 0,
            "dnsEnd" : -1,
            "type" : "image/jpeg"
         },
         "when_comp_start" : -1
      },
      {
         "when_comp_start" : -1,
         "download" : {
            "type" : "image/png",
            "dnsEnd" : -1,
            "connectStart" : 0,
            "dnsStart" : -1,
            "receiveLast" : 541.519999993965,
            "id" : "download_58",
            "connectEnd" : 5242,
            "sslEnd" : -1,
            "s_time" : 389.658000000054,
            "sendEnd" : 5242,
            "sendStart" : 5242,
            "receivedTime" : "7142.51999999397",
            "receiveFirst" : 1359,
            "receiveHeadersEnd" : 6601,
            "len" : 122874,
            "sslStart" : -1,
            "dns" : 0
         },
         "url" : "http://kidsfoni.com/content/images/thumbs/0065221_vialand-dogum-gunu-paketleri-ile-tum-gun-sinirsiz-eglence_304.png",
         "comps" : [],
         "id" : "r39"
      }
   ],
   "n_download_no_trigger" : 2,
   "load_activity" : -1,
   "start_activity" : "download_0",
   "name" : "original.testbed.localhost_www.kidsfoni.com_"
}
