{
   "name" : "original.testbed.localhost_www.baidu.com_",
   "objs" : [
      {
         "url" : "http://original.testbed.localhost/www.baidu.com/",
         "when_comp_start" : 1,
         "download" : {
            "dnsStart" : -1,
            "receiveHeadersEnd" : 53,
            "receiveFirst" : 53,
            "connectStart" : 0,
            "id" : "download_0",
            "sslEnd" : -1,
            "connectEnd" : 0,
            "s_time" : 0,
            "sendEnd" : 0,
            "sendStart" : 0,
            "sslStart" : -1,
            "dnsEnd" : -1,
            "dns" : 0,
            "receivedTime" : "180.75700000918",
            "type" : "text/html",
            "receiveLast" : 127.75700000918,
            "len" : 99554
         },
         "id" : "r1",
         "comps" : [
            {
               "s_time" : 70.0960000103805,
               "e_time" : 82.7859999990324,
               "time" : 12.6899999886519,
               "id" : "r1_c1",
               "type" : "evalhtml"
            },
            {
               "e_time" : 4290.86900000402,
               "s_time" : 208.063000012771,
               "id" : "r1_c2",
               "type" : "evalhtml",
               "time" : 4082.80599999125
            }
         ]
      },
      {
         "url" : "http://original.testbed.localhost/www.baidu.com/img/2016_5_8logo_9b520fd369fb6fe292bec8b820615fc3.gif",
         "when_comp_start" : -1,
         "download" : {
            "connectStart" : 0,
            "id" : "download_1",
            "sslEnd" : -1,
            "dnsStart" : -1,
            "receiveFirst" : 51,
            "receiveHeadersEnd" : 51,
            "len" : 439926,
            "type" : "image/gif",
            "receivedTime" : "2937.47200000507",
            "receiveLast" : 2886.47200000507,
            "sslStart" : -1,
            "dnsEnd" : -1,
            "dns" : 0,
            "sendEnd" : 0,
            "sendStart" : 0,
            "s_time" : 74.2060000047786,
            "connectEnd" : 0
         },
         "comps" : [],
         "id" : "r2"
      },
      {
         "download" : {
            "connectStart" : 0,
            "sslEnd" : -1,
            "id" : "download_2",
            "dnsStart" : -1,
            "receiveHeadersEnd" : 81,
            "receiveFirst" : 55,
            "dnsEnd" : -1,
            "sslStart" : -1,
            "dns" : 0,
            "receivedTime" : "182.467999999062",
            "type" : "application/javascript",
            "receiveLast" : 101.467999999062,
            "len" : 93680,
            "connectEnd" : 26,
            "s_time" : 78.2670000044163,
            "sendEnd" : 26,
            "sendStart" : 26
         },
         "when_comp_start" : -1,
         "url" : "http://original.testbed.localhost/s1.bdstatic.com/r/www/cache/static/jquery/jquery-1.10.2.min_f2fb5194.js",
         "comps" : [
            {
               "e_time" : 208.063000012771,
               "s_time" : 182.51300000702,
               "type" : 1,
               "id" : "comp_10",
               "time" : 25.550000005751
            }
         ],
         "id" : "r4"
      },
      {
         "comps" : [],
         "id" : "r3",
         "when_comp_start" : -1,
         "url" : "http://original.testbed.localhost/www.baidu.com/img/baidu_jgylogo3.gif",
         "download" : {
            "len" : 705,
            "receivedTime" : "208.598000011989",
            "receiveLast" : 106.598000011989,
            "type" : "image/gif",
            "dnsEnd" : -1,
            "sslStart" : -1,
            "dns" : 0,
            "sendEnd" : 50,
            "sendStart" : 50,
            "s_time" : 74.3780000047991,
            "connectEnd" : 50,
            "connectStart" : 0,
            "id" : "download_3",
            "sslEnd" : -1,
            "dnsStart" : -1,
            "receiveFirst" : 52,
            "receiveHeadersEnd" : 102
         }
      },
      {
         "download" : {
            "dnsStart" : -1,
            "receiveFirst" : 55,
            "receiveHeadersEnd" : 102,
            "connectStart" : 0,
            "id" : "download_4",
            "sslEnd" : -1,
            "s_time" : 82.3110000055749,
            "connectEnd" : 47,
            "sendEnd" : 47,
            "sendStart" : 47,
            "dnsEnd" : -1,
            "sslStart" : -1,
            "dns" : 0,
            "len" : 3223,
            "receivedTime" : "217.391000012867",
            "receiveLast" : 115.391000012867,
            "type" : "image/png"
         },
         "url" : "http://original.testbed.localhost/s1.bdstatic.com/r/www/cache/static/home/img/qrcode/zbios_62c636fe.png",
         "when_comp_start" : -1,
         "id" : "r5",
         "comps" : []
      },
      {
         "when_comp_start" : -1,
         "url" : "http://original.testbed.localhost/s1.bdstatic.com/r/www/cache/static/home/img/qrcode/nuomi_510f7472.png",
         "download" : {
            "connectStart" : 0,
            "id" : "download_5",
            "sslEnd" : -1,
            "dnsStart" : -1,
            "receiveHeadersEnd" : 102,
            "receiveFirst" : 51,
            "receivedTime" : "218.551000012667",
            "type" : "image/png",
            "receiveLast" : 116.551000012667,
            "len" : 3224,
            "dnsEnd" : -1,
            "sslStart" : -1,
            "dns" : 0,
            "sendEnd" : 51,
            "sendStart" : 51,
            "connectEnd" : 51,
            "s_time" : 82.5690000056056
         },
         "comps" : [],
         "id" : "r6"
      },
      {
         "id" : "r7",
         "comps" : [],
         "download" : {
            "connectStart" : 0,
            "id" : "download_6",
            "sslEnd" : -1,
            "dnsStart" : -1,
            "receiveFirst" : 52,
            "receiveHeadersEnd" : 103,
            "dnsEnd" : -1,
            "sslStart" : -1,
            "dns" : 0,
            "len" : 14391,
            "receivedTime" : "236.803000007058",
            "type" : "image/png",
            "receiveLast" : 133.803000007058,
            "s_time" : 82.7859999990324,
            "connectEnd" : 51,
            "sendEnd" : 51,
            "sendStart" : 51
         },
         "when_comp_start" : -1,
         "url" : "http://original.testbed.localhost/s1.bdstatic.com/r/www/cache/static/global/img/icons_0e814c16.png"
      },
      {
         "download" : {
            "sendEnd" : 0,
            "sendStart" : 0,
            "connectEnd" : 0,
            "s_time" : 216.239000001224,
            "receivedTime" : "375.142000004416",
            "receiveLast" : 318.142000004416,
            "type" : "application/javascript",
            "len" : 205369,
            "dnsEnd" : -1,
            "sslStart" : -1,
            "dns" : 0,
            "dnsStart" : -1,
            "receiveHeadersEnd" : 57,
            "receiveFirst" : 57,
            "connectStart" : 0,
            "sslEnd" : -1,
            "id" : "download_7"
         },
         "url" : "http://original.testbed.localhost/s1.bdstatic.com/r/www/cache/static/global/js/all_async_search_6305f449.js",
         "when_comp_start" : -1,
         "id" : "r8",
         "comps" : [
            {
               "e_time" : 2912.60700000566,
               "s_time" : 375.238000007812,
               "id" : "comp_16",
               "type" : 3,
               "time" : 2537.36899999785
            }
         ]
      },
      {
         "comps" : [
            {
               "type" : 2,
               "id" : "comp_32",
               "time" : 13.3040000073402,
               "e_time" : 2952.8990000108,
               "s_time" : 2939.59500000346
            }
         ],
         "id" : "r9",
         "when_comp_start" : -1,
         "url" : "http://s1.bdstatic.com/r/www/cache/static/plugins/every_cookie_aa168cb4.js",
         "download" : {
            "s_time" : 221.683000010671,
            "connectEnd" : 50,
            "sendStart" : 50,
            "sendEnd" : 50,
            "dns" : 0,
            "sslStart" : -1,
            "dnsEnd" : -1,
            "len" : 15280,
            "receiveLast" : 2297.99200000649,
            "receivedTime" : "2937.99200000649",
            "type" : "application/javascript",
            "receiveFirst" : 590,
            "receiveHeadersEnd" : 640,
            "dnsStart" : -1,
            "id" : "download_8",
            "sslEnd" : -1,
            "connectStart" : 0
         }
      },
      {
         "when_comp_start" : -1,
         "url" : "http://original.testbed.localhost/s1.bdstatic.com/r/www/cache/static/global/img/quickdelete_9c14b01a.png",
         "download" : {
            "dnsStart" : -1,
            "receiveFirst" : 52,
            "receiveHeadersEnd" : 52,
            "connectStart" : 0,
            "id" : "download_9",
            "sslEnd" : -1,
            "sendEnd" : 0,
            "sendStart" : 0,
            "s_time" : 2901.06000000378,
            "connectEnd" : 0,
            "len" : 1100,
            "receivedTime" : "2957.01300000655",
            "type" : "image/png",
            "receiveLast" : 2905.01300000655,
            "dnsEnd" : -1,
            "sslStart" : -1,
            "dns" : 0
         },
         "comps" : [],
         "id" : "r11"
      },
      {
         "comps" : [
            {
               "type" : 2,
               "id" : "comp_37",
               "time" : 4.01499999861971,
               "e_time" : 3130.16300000891,
               "s_time" : 3126.14800001029
            }
         ],
         "id" : "r10",
         "download" : {
            "receiveFirst" : 222,
            "receiveHeadersEnd" : 222,
            "dnsStart" : -1,
            "id" : "download_10",
            "sslEnd" : -1,
            "connectStart" : 0,
            "sendStart" : 0,
            "sendEnd" : 0,
            "s_time" : 2894.02200000768,
            "connectEnd" : 0,
            "len" : 24787,
            "type" : "application/javascript",
            "receivedTime" : "3126.02100000367",
            "receiveLast" : 2904.02100000367,
            "dns" : 0,
            "sslStart" : -1,
            "dnsEnd" : -1
         },
         "url" : "http://s1.bdstatic.com/r/www/cache/static/home/js/nu_instant_search_ebeb5baa.js",
         "when_comp_start" : -1
      },
      {
         "url" : "http://s1.bdstatic.com/r/www/cache/static/plugins/swfobject_c1c7185a.js",
         "when_comp_start" : -1,
         "download" : {
            "receiveHeadersEnd" : 442,
            "receiveFirst" : 392,
            "dnsStart" : -1,
            "id" : "download_11",
            "sslEnd" : -1,
            "connectStart" : 0,
            "sendStart" : 50,
            "sendEnd" : 50,
            "connectEnd" : 50,
            "s_time" : 2911.72300001199,
            "receiveLast" : 2919.75900000671,
            "receivedTime" : "3361.75900000671",
            "type" : "application/javascript",
            "len" : 10167,
            "dns" : 0,
            "dnsEnd" : -1,
            "sslStart" : -1
         },
         "id" : "r12",
         "comps" : [
            {
               "type" : 2,
               "id" : "comp_40",
               "time" : 2.07799999043982,
               "e_time" : 3363.97099999886,
               "s_time" : 3361.89300000842
            }
         ]
      },
      {
         "id" : "r14",
         "comps" : [
            {
               "time" : 4.03799999913008,
               "type" : 2,
               "id" : "comp_49",
               "s_time" : 3393.07200000621,
               "e_time" : 3397.11000000534
            }
         ],
         "url" : "http://s1.bdstatic.com/r/www/cache/static/sug/js/bdsug_async_dac7ea02.js",
         "when_comp_start" : -1,
         "download" : {
            "sendEnd" : 50,
            "sendStart" : 50,
            "connectEnd" : 50,
            "s_time" : 2923.04500000319,
            "receiveLast" : 2949.9560000106,
            "type" : "application/javascript",
            "receivedTime" : "3392.9560000106",
            "len" : 40070,
            "dnsEnd" : -1,
            "sslStart" : -1,
            "dns" : 0,
            "dnsStart" : -1,
            "receiveHeadersEnd" : 443,
            "receiveFirst" : 393,
            "connectStart" : 0,
            "id" : "download_12",
            "sslEnd" : -1
         }
      },
      {
         "url" : "http://s1.bdstatic.com/r/www/cache/static/soutu/js/tu_ff6f5523.js",
         "when_comp_start" : -1,
         "download" : {
            "dnsStart" : -1,
            "receiveHeadersEnd" : 459,
            "receiveFirst" : 409,
            "connectStart" : 0,
            "id" : "download_13",
            "sslEnd" : -1,
            "sendEnd" : 50,
            "sendStart" : 50,
            "connectEnd" : 50,
            "s_time" : 2912.36700001173,
            "receivedTime" : "3383.47200000135",
            "type" : "application/javascript",
            "receiveLast" : 2924.47200000135,
            "len" : 14575,
            "sslStart" : -1,
            "dnsEnd" : -1,
            "dns" : 0
         },
         "comps" : [
            {
               "s_time" : 3383.62400000915,
               "e_time" : 3387.55900000979,
               "time" : 3.93500000063977,
               "type" : 2,
               "id" : "comp_43"
            }
         ],
         "id" : "r13"
      },
      {
         "download" : {
            "dnsEnd" : -1,
            "sslStart" : -1,
            "dns" : 0,
            "receivedTime" : "3389.06800000404",
            "type" : "application/javascript",
            "receiveLast" : 2948.06800000404,
            "len" : 15957,
            "connectEnd" : 51,
            "s_time" : 2937.25700001232,
            "sendEnd" : 51,
            "sendStart" : 51,
            "connectStart" : 0,
            "sslEnd" : -1,
            "id" : "download_14",
            "dnsStart" : -1,
            "receiveHeadersEnd" : 441,
            "receiveFirst" : 390
         },
         "url" : "http://s1.bdstatic.com/r/www/cache/static/baiduia/baiduia_b45d552b.js",
         "when_comp_start" : -1,
         "comps" : [
            {
               "e_time" : 3392.79500000703,
               "s_time" : 3389.16000000609,
               "id" : "comp_46",
               "type" : 2,
               "time" : 3.63500000094018
            }
         ],
         "id" : "r15"
      },
      {
         "id" : "r16",
         "comps" : [
            {
               "time" : 0.941000005700062,
               "id" : "comp_53",
               "type" : null,
               "s_time" : 3613.51500000455,
               "e_time" : 3614.45600001025
            }
         ],
         "download" : {
            "receiveHeadersEnd" : 225,
            "receiveFirst" : 225,
            "dnsStart" : -1,
            "id" : "download_15",
            "sslEnd" : -1,
            "connectStart" : 0,
            "connectEnd" : 0,
            "s_time" : 3386.81999999972,
            "sendStart" : 0,
            "sendEnd" : 0,
            "dns" : 0,
            "dnsEnd" : -1,
            "sslStart" : -1,
            "receiveLast" : 3388.41299999913,
            "type" : "text/css",
            "receivedTime" : "3613.41299999913",
            "len" : 8468
         },
         "when_comp_start" : -1,
         "url" : "http://s1.bdstatic.com/r/www/cache/static/soutu/css/soutu_01a7a517.css"
      },
      {
         "comps" : [],
         "id" : "r18",
         "url" : "http://s1.bdstatic.com/r/www/cache/static/soutu/img/soutu_icons_sample_6a1e1619.png",
         "when_comp_start" : -1,
         "download" : {
            "id" : "download_16",
            "sslEnd" : -1,
            "connectStart" : 0,
            "receiveFirst" : 224,
            "receiveHeadersEnd" : 224,
            "dnsStart" : -1,
            "dns" : 0,
            "dnsEnd" : -1,
            "sslStart" : -1,
            "len" : 5455,
            "type" : "image/png",
            "receivedTime" : "3842.61500000139",
            "receiveLast" : 3618.61500000139,
            "s_time" : 3614.85500000708,
            "connectEnd" : 0,
            "sendStart" : 0,
            "sendEnd" : 0
         }
      },
      {
         "download" : {
            "dnsEnd" : -1,
            "sslStart" : -1,
            "dns" : 0,
            "receivedTime" : "4738.41700000048",
            "receiveLast" : 4457.41700000048,
            "type" : "text/html",
            "len" : 11217,
            "connectEnd" : 0,
            "s_time" : 4290.86900000402,
            "sendEnd" : 0,
            "sendStart" : 0,
            "connectStart" : 0,
            "id" : "download_17",
            "sslEnd" : -1,
            "dnsStart" : -1,
            "receiveHeadersEnd" : 281,
            "receiveFirst" : 281
         },
         "url" : "http://www.baidu.com/search/error.html",
         "when_comp_start" : 1,
         "comps" : [],
         "id" : "r17"
      }
   ],
   "start_activity" : "download_0",
   "n_download_no_trigger" : 1,
   "load_activity" : -1,
   "deps" : [
      {
         "id" : "dep1",
         "time" : -1,
         "a2" : "r1_c2",
         "a1" : "comp_10"
      },
      {
         "a2" : "download_17",
         "a1" : "r1_c2",
         "id" : "dep2",
         "time" : -1
      },
      {
         "a1" : "r1_c2",
         "a2" : "download_16",
         "time" : 3406.79199999431,
         "id" : "dep3"
      },
      {
         "a1" : "r1_c2",
         "a2" : "download_15",
         "id" : "dep4",
         "time" : 3178.75699998695
      },
      {
         "a2" : "download_14",
         "a1" : "r1_c2",
         "id" : "dep5",
         "time" : 2729.19399999955
      },
      {
         "a1" : "r1_c2",
         "a2" : "download_13",
         "time" : 2704.30399999896,
         "id" : "dep6"
      },
      {
         "a2" : "download_12",
         "a1" : "r1_c2",
         "time" : 2714.98199999042,
         "id" : "dep7"
      },
      {
         "time" : 2703.65999999922,
         "id" : "dep8",
         "a2" : "download_11",
         "a1" : "r1_c2"
      },
      {
         "id" : "dep9",
         "time" : 2685.95899999491,
         "a1" : "r1_c2",
         "a2" : "download_10"
      },
      {
         "a1" : "r1_c2",
         "a2" : "download_9",
         "time" : 2692.99699999101,
         "id" : "dep10"
      },
      {
         "time" : 13.6199999979,
         "id" : "dep11",
         "a2" : "download_8",
         "a1" : "r1_c2"
      },
      {
         "id" : "dep12",
         "time" : 8.17599998845301,
         "a1" : "r1_c2",
         "a2" : "download_7"
      },
      {
         "id" : "dep13",
         "time" : 8.17599998845301,
         "a1" : "r1_c2",
         "a2" : "download_7"
      },
      {
         "a2" : "download_6",
         "a1" : "r1_c1",
         "id" : "dep14",
         "time" : -1
      },
      {
         "time" : 12.4729999952251,
         "id" : "dep15",
         "a1" : "r1_c1",
         "a2" : "download_5"
      },
      {
         "a1" : "r1_c1",
         "a2" : "download_4",
         "id" : "dep16",
         "time" : 12.2149999951944
      },
      {
         "a2" : "download_3",
         "a1" : "r1_c1",
         "time" : 4.28199999441861,
         "id" : "dep17"
      },
      {
         "id" : "dep18",
         "time" : 8.17099999403581,
         "a1" : "r1_c1",
         "a2" : "download_2"
      },
      {
         "a2" : "download_1",
         "a1" : "r1_c1",
         "id" : "dep19",
         "time" : 4.10999999439811
      }
   ]
}
