{
   "start_activity" : "download_0",
   "deps" : [
      {
         "a2" : "r1_c2",
         "a1" : "comp_11",
         "id" : "dep1",
         "time" : -1
      },
      {
         "time" : -1,
         "id" : "dep2",
         "a1" : "comp_13",
         "a2" : "r1_c3"
      },
      {
         "time" : -1,
         "id" : "dep3",
         "a2" : "r1_c4",
         "a1" : "comp_16"
      },
      {
         "time" : -1,
         "id" : "dep4",
         "a2" : "r1_c5",
         "a1" : "comp_18"
      },
      {
         "a2" : "r1_c6",
         "a1" : "comp_21",
         "id" : "dep5",
         "time" : -1
      },
      {
         "time" : -1,
         "a2" : "r1_c7",
         "a1" : "comp_23",
         "id" : "dep6"
      },
      {
         "id" : "dep7",
         "a2" : "r1_c8",
         "a1" : "comp_25",
         "time" : -1
      },
      {
         "time" : -1,
         "a1" : "comp_28",
         "a2" : "r1_c9",
         "id" : "dep8"
      },
      {
         "a1" : "comp_35",
         "a2" : "r1_c10",
         "id" : "dep9",
         "time" : -1
      },
      {
         "time" : -1,
         "a1" : "comp_2",
         "a2" : "comp_11",
         "id" : "dep10"
      },
      {
         "a2" : "comp_11",
         "a1" : "comp_3",
         "id" : "dep11",
         "time" : -1
      },
      {
         "time" : -1,
         "id" : "dep12",
         "a2" : "comp_11",
         "a1" : "comp_6"
      },
      {
         "time" : -1,
         "a1" : "comp_9",
         "a2" : "comp_11",
         "id" : "dep13"
      },
      {
         "time" : -1,
         "a2" : "comp_11",
         "a1" : "comp_4",
         "id" : "dep14"
      },
      {
         "time" : -1,
         "a2" : "comp_11",
         "a1" : "comp_10",
         "id" : "dep15"
      },
      {
         "time" : -1,
         "id" : "dep16",
         "a1" : "comp_5",
         "a2" : "comp_11"
      },
      {
         "time" : -1,
         "a2" : "comp_11",
         "a1" : "comp_7",
         "id" : "dep17"
      },
      {
         "time" : -1,
         "id" : "dep18",
         "a2" : "comp_13",
         "a1" : "comp_11"
      },
      {
         "a2" : "comp_16",
         "a1" : "comp_13",
         "id" : "dep19",
         "time" : -1
      },
      {
         "id" : "dep20",
         "a2" : "comp_18",
         "a1" : "comp_16",
         "time" : -1
      },
      {
         "a2" : "comp_23",
         "a1" : "comp_21",
         "id" : "dep21",
         "time" : -1
      },
      {
         "time" : -1,
         "id" : "dep22",
         "a1" : "comp_23",
         "a2" : "comp_25"
      },
      {
         "a1" : "comp_28",
         "a2" : "comp_35",
         "id" : "dep23",
         "time" : -1
      },
      {
         "time" : -1,
         "id" : "dep24",
         "a1" : "r1_c10",
         "a2" : "download_46"
      },
      {
         "time" : -1,
         "a1" : "r1_c10",
         "a2" : "download_45",
         "id" : "dep25"
      },
      {
         "time" : -1,
         "a2" : "download_44",
         "a1" : "r1_c10",
         "id" : "dep26"
      },
      {
         "id" : "dep27",
         "a2" : "download_43",
         "a1" : "comp_47",
         "time" : 2039.79700000491
      },
      {
         "a2" : "download_42",
         "a1" : "comp_47",
         "id" : "dep28",
         "time" : 2035.29300000809
      },
      {
         "time" : 64.437000008184,
         "a1" : "r1_c10",
         "a2" : "download_41",
         "id" : "dep29"
      },
      {
         "time" : -1,
         "a2" : "download_40",
         "a1" : "r1_c9",
         "id" : "dep30"
      },
      {
         "id" : "dep31",
         "a2" : "download_39",
         "a1" : "r1_c9",
         "time" : 91.173999986495
      },
      {
         "time" : 87.208999990253,
         "a2" : "download_38",
         "a1" : "r1_c9",
         "id" : "dep32"
      },
      {
         "time" : -1,
         "a2" : "download_37",
         "a1" : "r1_c9",
         "id" : "dep33"
      },
      {
         "a2" : "download_36",
         "a1" : "r1_c9",
         "id" : "dep34",
         "time" : 65.1999999972761
      },
      {
         "time" : 64.6409999899331,
         "id" : "dep35",
         "a1" : "r1_c9",
         "a2" : "download_35"
      },
      {
         "id" : "dep36",
         "a1" : "r1_c9",
         "a2" : "download_34",
         "time" : 64.334999988205
      },
      {
         "a2" : "download_31",
         "a1" : "r1_c9",
         "id" : "dep37",
         "time" : 69.055999992997
      },
      {
         "a1" : "r1_c9",
         "a2" : "download_31",
         "id" : "dep38",
         "time" : 69.055999992997
      },
      {
         "time" : 68.8099999970291,
         "a2" : "download_30",
         "a1" : "r1_c9",
         "id" : "dep39"
      },
      {
         "time" : 63.973999989685,
         "a2" : "download_29",
         "a1" : "r1_c9",
         "id" : "dep40"
      },
      {
         "time" : 63.92099999357,
         "id" : "dep41",
         "a2" : "download_28",
         "a1" : "r1_c9"
      },
      {
         "id" : "dep42",
         "a2" : "download_27",
         "a1" : "r1_c9",
         "time" : 62.959999995655
      },
      {
         "time" : 58.2849999918831,
         "id" : "dep43",
         "a2" : "download_26",
         "a1" : "r1_c9"
      },
      {
         "time" : -1,
         "id" : "dep44",
         "a2" : "download_25",
         "a1" : "r1_c5"
      },
      {
         "a1" : "r1_c9",
         "a2" : "download_24",
         "id" : "dep45",
         "time" : 20.4139999987091
      },
      {
         "time" : 20.8579999889481,
         "id" : "dep46",
         "a2" : "download_23",
         "a1" : "r1_c9"
      },
      {
         "time" : -1,
         "a1" : "r1_c1",
         "a2" : "download_16",
         "id" : "dep47"
      },
      {
         "id" : "dep48",
         "a1" : "r1_c1",
         "a2" : "download_15",
         "time" : 3.20999999530609
      },
      {
         "a2" : "download_15",
         "a1" : "r1_c1",
         "id" : "dep49",
         "time" : 3.20999999530609
      },
      {
         "time" : 3.1069999968167,
         "a2" : "download_14",
         "a1" : "r1_c1",
         "id" : "dep50"
      },
      {
         "time" : 3.1069999968167,
         "id" : "dep51",
         "a1" : "r1_c1",
         "a2" : "download_14"
      },
      {
         "id" : "dep52",
         "a1" : "r1_c1",
         "a2" : "download_13",
         "time" : 3.0079999996815
      },
      {
         "a2" : "download_13",
         "a1" : "r1_c1",
         "id" : "dep53",
         "time" : 3.0079999996815
      },
      {
         "id" : "dep54",
         "a1" : "r1_c1",
         "a2" : "download_12",
         "time" : 2.85499999881719
      },
      {
         "a1" : "r1_c1",
         "a2" : "download_12",
         "id" : "dep55",
         "time" : 2.85499999881719
      },
      {
         "time" : 2.7560000016819,
         "a2" : "download_11",
         "a1" : "r1_c1",
         "id" : "dep56"
      },
      {
         "time" : 2.7560000016819,
         "a1" : "r1_c1",
         "a2" : "download_11",
         "id" : "dep57"
      },
      {
         "time" : 2.6539999962551,
         "a1" : "r1_c1",
         "a2" : "download_10",
         "id" : "dep58"
      },
      {
         "a2" : "download_10",
         "a1" : "r1_c1",
         "id" : "dep59",
         "time" : 2.6539999962551
      },
      {
         "time" : 2.5529999984428,
         "a1" : "r1_c1",
         "a2" : "download_9",
         "id" : "dep60"
      },
      {
         "a2" : "download_9",
         "a1" : "r1_c1",
         "id" : "dep61",
         "time" : 2.5529999984428
      },
      {
         "id" : "dep62",
         "a1" : "r1_c1",
         "a2" : "download_8",
         "time" : 2.426999999443
      },
      {
         "time" : 2.3079999955371,
         "a2" : "download_7",
         "a1" : "r1_c1",
         "id" : "dep63"
      },
      {
         "id" : "dep64",
         "a2" : "download_6",
         "a1" : "r1_c1",
         "time" : 2.171999993152
      },
      {
         "time" : 2.0660000009229,
         "a2" : "download_5",
         "a1" : "r1_c1",
         "id" : "dep65"
      },
      {
         "id" : "dep66",
         "a1" : "r1_c1",
         "a2" : "download_4",
         "time" : 1.7209999932674
      },
      {
         "a1" : "r1_c1",
         "a2" : "download_3",
         "id" : "dep67",
         "time" : 1.96700000378769
      },
      {
         "id" : "dep68",
         "a1" : "r1_c1",
         "a2" : "download_2",
         "time" : 1.6009999962989
      },
      {
         "a2" : "download_1",
         "a1" : "r1_c1",
         "id" : "dep69",
         "time" : 1.2249999999767
      }
   ],
   "objs" : [
      {
         "when_comp_start" : 1,
         "download" : {
            "sendStart" : 0,
            "sslEnd" : -1,
            "id" : "download_0",
            "sslStart" : -1,
            "receiveLast" : 50.6719999974594,
            "s_time" : 0,
            "len" : 116438,
            "receiveHeadersEnd" : 53,
            "type" : "text/html",
            "sendEnd" : 0,
            "connectEnd" : 0,
            "connectStart" : 0,
            "dns" : 0,
            "dnsStart" : -1,
            "dnsEnd" : -1,
            "receivedTime" : "103.671999997459",
            "receiveFirst" : 53
         },
         "comps" : [
            {
               "time" : 270.693999991636,
               "e_time" : 336.688999988837,
               "id" : "r1_c1",
               "type" : "evalhtml",
               "s_time" : 65.9949999972014
            },
            {
               "s_time" : 581.06399999815,
               "type" : "evalhtml",
               "id" : "r1_c2",
               "e_time" : -80964200.389,
               "time" : -80964781.453
            },
            {
               "type" : "evalhtml",
               "id" : "r1_c3",
               "time" : -80964801.487,
               "e_time" : -80964200.389,
               "s_time" : 601.097999999183
            },
            {
               "e_time" : -80964200.389,
               "time" : -80964803.196,
               "type" : "evalhtml",
               "id" : "r1_c4",
               "s_time" : 602.806999988388
            },
            {
               "type" : "evalhtml",
               "id" : "r1_c5",
               "time" : 0.769999998737944,
               "e_time" : 608.584999994491,
               "s_time" : 607.814999995753
            },
            {
               "s_time" : 608.998999989126,
               "time" : -80964809.388,
               "e_time" : -80964200.389,
               "id" : "r1_c6",
               "type" : "evalhtml"
            },
            {
               "type" : "evalhtml",
               "id" : "r1_c7",
               "time" : -80964810.411,
               "e_time" : -80964200.389,
               "s_time" : 610.021999993478
            },
            {
               "s_time" : 610.325999994529,
               "id" : "r1_c8",
               "type" : "evalhtml",
               "e_time" : -80964200.389,
               "time" : -80964810.715
            },
            {
               "s_time" : 612.475000001723,
               "e_time" : 768.37799999339,
               "time" : 155.902999991667,
               "id" : "r1_c9",
               "type" : "evalhtml"
            },
            {
               "id" : "r1_c10",
               "type" : "evalhtml",
               "e_time" : 3148.82099999522,
               "time" : 2376.57500000205,
               "s_time" : 772.245999993174
            }
         ],
         "id" : "r1",
         "url" : "http://original.testbed.localhost/www.whitehouse.gov/"
      },
      {
         "url" : "http://original.testbed.localhost/www.whitehouse.gov/sites/whitehouse.gov/files/css/css_lQaZfjVpwP_oGNqdtWCSpJT1EMqXdMiU84ekLLxQnc4.css",
         "id" : "r2",
         "comps" : [
            {
               "s_time" : 122.649999990244,
               "e_time" : 122.982999993837,
               "time" : 0.333000003593,
               "type" : 4,
               "id" : "comp_2"
            }
         ],
         "download" : {
            "id" : "download_1",
            "sslEnd" : -1,
            "sendStart" : 3,
            "sslStart" : -1,
            "connectEnd" : 3,
            "sendEnd" : 3,
            "type" : "text/css",
            "receiveHeadersEnd" : 54,
            "len" : 3111,
            "s_time" : 67.2199999971781,
            "receiveLast" : 68.6019999885466,
            "receiveFirst" : 51,
            "receivedTime" : "122.601999988547",
            "dnsEnd" : -1,
            "dnsStart" : -1,
            "dns" : 0,
            "connectStart" : 0
         },
         "when_comp_start" : -1
      },
      {
         "when_comp_start" : -1,
         "download" : {
            "type" : "text/css",
            "sendEnd" : 35,
            "connectEnd" : 35,
            "len" : 20977,
            "receiveHeadersEnd" : 87,
            "receiveLast" : 69.2609999964479,
            "s_time" : 67.5959999935003,
            "receiveFirst" : 52,
            "receivedTime" : "156.260999996448",
            "dnsEnd" : -1,
            "dnsStart" : -1,
            "connectStart" : 0,
            "dns" : 0,
            "id" : "download_2",
            "sendStart" : 35,
            "sslEnd" : -1,
            "sslStart" : -1
         },
         "url" : "http://original.testbed.localhost/www.whitehouse.gov/sites/whitehouse.gov/files/css/css_yU1ecLb-JQK8Zu-UAxooO-nvU4puNy9Vo8PpzTa6cX4.css",
         "id" : "r3",
         "comps" : [
            {
               "id" : "comp_3",
               "type" : 4,
               "e_time" : 158.073999991757,
               "time" : 1.739999992424,
               "s_time" : 156.333999999333
            }
         ]
      },
      {
         "download" : {
            "sslStart" : -1,
            "id" : "download_3",
            "sslEnd" : -1,
            "sendStart" : 52,
            "dnsEnd" : -1,
            "receiveFirst" : 51,
            "receivedTime" : "172.681999989436",
            "dns" : 0,
            "connectStart" : 0,
            "dnsStart" : -1,
            "receiveHeadersEnd" : 103,
            "len" : 293,
            "connectEnd" : 52,
            "sendEnd" : 52,
            "type" : "text/css",
            "s_time" : 67.9620000009891,
            "receiveLast" : 69.681999989436
         },
         "comps" : [
            {
               "s_time" : 173.048999989987,
               "e_time" : 173.12399999355,
               "time" : 0.075000003562991,
               "id" : "comp_4",
               "type" : 4
            }
         ],
         "url" : "http://original.testbed.localhost/www.whitehouse.gov/sites/whitehouse.gov/files/css/css_lhZ2r95cVv6XPZeCq2neqJ2WkJfOx4FGwB5NFslhk94.css",
         "id" : "r6",
         "when_comp_start" : -1
      },
      {
         "when_comp_start" : -1,
         "url" : "http://original.testbed.localhost/www.whitehouse.gov/sites/whitehouse.gov/files/css/css_2oCJ0RskfnmEh9znTNY-IJifw6J4BCzT2d88oZuCjDo.css",
         "id" : "r4",
         "comps" : [
            {
               "id" : "comp_6",
               "type" : 4,
               "time" : 4.03999999980402,
               "e_time" : 230.670999997528,
               "s_time" : 226.630999997724
            }
         ],
         "download" : {
            "id" : "download_4",
            "sendStart" : 52,
            "sslEnd" : -1,
            "sslStart" : -1,
            "type" : "text/css",
            "sendEnd" : 52,
            "connectEnd" : 52,
            "len" : 72916,
            "receiveHeadersEnd" : 108,
            "receiveLast" : 118.561999996193,
            "s_time" : 67.7159999904688,
            "receiveFirst" : 56,
            "receivedTime" : "226.561999996193",
            "dnsEnd" : -1,
            "dnsStart" : -1,
            "connectStart" : 0,
            "dns" : 0
         }
      },
      {
         "download" : {
            "receiveHeadersEnd" : 108,
            "len" : 677783,
            "connectEnd" : 52,
            "sendEnd" : 52,
            "type" : "text/css",
            "s_time" : 68.0609999981243,
            "receiveLast" : 422.123999997159,
            "dnsEnd" : -1,
            "receivedTime" : "530.123999997159",
            "receiveFirst" : 56,
            "dns" : 0,
            "connectStart" : 0,
            "dnsStart" : -1,
            "id" : "download_5",
            "sslEnd" : -1,
            "sendStart" : 52,
            "sslStart" : -1
         },
         "comps" : [
            {
               "s_time" : 530.245000001742,
               "type" : 4,
               "id" : "comp_10",
               "e_time" : 613.316999995732,
               "time" : 83.0719999939899
            }
         ],
         "id" : "r7",
         "url" : "http://original.testbed.localhost/cloud.typography.com/6570712/721006/css/fonts.css",
         "when_comp_start" : -1
      },
      {
         "when_comp_start" : -1,
         "download" : {
            "s_time" : 68.1669999903534,
            "receiveLast" : 72.2329999918584,
            "connectEnd" : 52,
            "sendEnd" : 52,
            "type" : "text/css",
            "receiveHeadersEnd" : 108,
            "len" : 41141,
            "dnsStart" : -1,
            "dns" : 0,
            "connectStart" : 0,
            "receivedTime" : "180.232999991858",
            "receiveFirst" : 56,
            "dnsEnd" : -1,
            "sslEnd" : -1,
            "sendStart" : 52,
            "id" : "download_6",
            "sslStart" : -1
         },
         "url" : "http://original.testbed.localhost/www.whitehouse.gov/sites/whitehouse.gov/files/css/css_n-PjoZ-gDcNukhc4jFBjlvpGzuEkmOSckysxO7f6tuo.css",
         "id" : "r8",
         "comps" : [
            {
               "type" : 4,
               "id" : "comp_5",
               "e_time" : 184.103999999934,
               "time" : 3.794000003836,
               "s_time" : 180.309999996098
            }
         ]
      },
      {
         "when_comp_start" : -1,
         "download" : {
            "receiveFirst" : 57,
            "receivedTime" : "231.353999988642",
            "dnsEnd" : -1,
            "dnsStart" : -1,
            "dns" : 0,
            "connectStart" : 0,
            "sendEnd" : 53,
            "connectEnd" : 53,
            "type" : "text/css",
            "receiveHeadersEnd" : 110,
            "len" : 128231,
            "s_time" : 68.3029999927385,
            "receiveLast" : 121.353999988642,
            "sslStart" : -1,
            "id" : "download_7",
            "sslEnd" : -1,
            "sendStart" : 53
         },
         "url" : "http://original.testbed.localhost/www.whitehouse.gov/sites/whitehouse.gov/files/css/css_bS-2Cq02LdaKdec12vU20dMGQSdgihJADtPC-kQVVmE.css",
         "id" : "r9",
         "comps" : [
            {
               "type" : 4,
               "id" : "comp_7",
               "e_time" : 237.234000000171,
               "time" : 5.82099999883201,
               "s_time" : 231.413000001339
            }
         ]
      },
      {
         "download" : {
            "type" : "application/javascript",
            "connectEnd" : 87,
            "sendEnd" : 87,
            "len" : 112884,
            "receiveHeadersEnd" : 143,
            "receiveLast" : 120.014999989537,
            "s_time" : 68.4219999966444,
            "receiveFirst" : 56,
            "receivedTime" : "263.014999989537",
            "dnsEnd" : -1,
            "dnsStart" : -1,
            "connectStart" : 0,
            "dns" : 0,
            "id" : "download_8",
            "sendStart" : 87,
            "sslEnd" : -1,
            "sslStart" : -1
         },
         "comps" : [
            {
               "s_time" : 553.888999987976,
               "id" : "comp_11",
               "type" : 1,
               "e_time" : 581.06399999815,
               "time" : 27.175000010174
            }
         ],
         "url" : "http://original.testbed.localhost/www.whitehouse.gov/sites/whitehouse.gov/files/js/js_MpKfe1sTh5JIVGCZ17DsAuT1rqAC38MLLlkjqjQ1X_k.js",
         "id" : "r10",
         "when_comp_start" : -1
      },
      {
         "comps" : [
            {
               "s_time" : 581.149999998161,
               "type" : 1,
               "id" : "comp_13",
               "time" : 19.948000001022,
               "e_time" : 601.097999999183
            }
         ],
         "url" : "http://original.testbed.localhost/www.whitehouse.gov/sites/whitehouse.gov/files/js/js_dpcaZHeWwtmqOEhy_RAIdKsPWHEDVNfKu0v8oY9XuOI.js",
         "id" : "r11",
         "download" : {
            "receiveHeadersEnd" : 160,
            "len" : 136531,
            "connectEnd" : 103,
            "sendEnd" : 103,
            "type" : "application/javascript",
            "s_time" : 68.5479999956442,
            "receiveLast" : 122.57099998882,
            "dnsEnd" : -1,
            "receiveFirst" : 57,
            "receivedTime" : "282.57099998882",
            "dns" : 0,
            "connectStart" : 0,
            "dnsStart" : -1,
            "id" : "download_9",
            "sslEnd" : -1,
            "sendStart" : 103,
            "sslStart" : -1
         },
         "when_comp_start" : -1
      },
      {
         "id" : "r12",
         "url" : "http://original.testbed.localhost/www.whitehouse.gov/sites/whitehouse.gov/files/js/js_uPNzaRP-bkimN_p8zvZONy7fi8Oh54S1WQzdPUW-yro.js",
         "comps" : [
            {
               "id" : "comp_16",
               "type" : 1,
               "e_time" : 602.806999988388,
               "time" : 1.495999997132,
               "s_time" : 601.310999991256
            }
         ],
         "download" : {
            "sslStart" : -1,
            "id" : "download_10",
            "sslEnd" : -1,
            "sendStart" : 111,
            "receivedTime" : "237.481999996817",
            "receiveFirst" : 51,
            "dnsEnd" : -1,
            "dnsStart" : -1,
            "dns" : 0,
            "connectStart" : 0,
            "sendEnd" : 111,
            "connectEnd" : 111,
            "type" : "application/javascript",
            "receiveHeadersEnd" : 162,
            "len" : 19817,
            "s_time" : 68.6489999934565,
            "receiveLast" : 75.4819999968167
         },
         "when_comp_start" : -1
      },
      {
         "url" : "http://original.testbed.localhost/www.whitehouse.gov/sites/whitehouse.gov/files/js/js_7A5xyLkXyLAj7O051G-zmQW0DzTaab-GPGPcoPFTC3w.js",
         "id" : "r13",
         "comps" : [
            {
               "e_time" : 607.814999995753,
               "time" : 4.92500000109408,
               "id" : "comp_18",
               "type" : 1,
               "s_time" : 602.889999994659
            }
         ],
         "download" : {
            "sslStart" : -1,
            "id" : "download_11",
            "sslEnd" : -1,
            "sendStart" : 157,
            "dnsEnd" : -1,
            "receivedTime" : "284.543999994639",
            "receiveFirst" : 56,
            "dns" : 0,
            "connectStart" : 0,
            "dnsStart" : -1,
            "receiveHeadersEnd" : 213,
            "len" : 55432,
            "connectEnd" : 157,
            "sendEnd" : 157,
            "type" : "application/javascript",
            "s_time" : 68.7509999988833,
            "receiveLast" : 71.5439999946393
         },
         "when_comp_start" : -1
      },
      {
         "when_comp_start" : -1,
         "url" : "http://original.testbed.localhost/www.whitehouse.gov/sites/whitehouse.gov/files/js/js_ZLR9AniROdeoCHWP-EH_xh-8M8GedFTjELHBIFv_kys.js",
         "id" : "r14",
         "comps" : [
            {
               "s_time" : 608.580999993137,
               "e_time" : 608.998999989126,
               "time" : 0.417999995989021,
               "id" : "comp_21",
               "type" : 1
            }
         ],
         "download" : {
            "sendStart" : 161,
            "sslEnd" : -1,
            "id" : "download_12",
            "sslStart" : -1,
            "receiveLast" : 70.252000001492,
            "s_time" : 68.8499999960186,
            "len" : 2999,
            "receiveHeadersEnd" : 215,
            "type" : "application/javascript",
            "connectEnd" : 161,
            "sendEnd" : 161,
            "connectStart" : 0,
            "dns" : 0,
            "dnsStart" : -1,
            "dnsEnd" : -1,
            "receiveFirst" : 54,
            "receivedTime" : "285.252000001492"
         }
      },
      {
         "url" : "http://original.testbed.localhost/www.whitehouse.gov/sites/whitehouse.gov/files/js/js_BnLp98TAFdrK4aTBmEXyC9rHYtfrp4gWf3_kvziFVJc.js",
         "id" : "r15",
         "comps" : [
            {
               "type" : 1,
               "id" : "comp_23",
               "time" : 0.981000004685939,
               "e_time" : 610.021999993478,
               "s_time" : 609.040999988792
            }
         ],
         "download" : {
            "sendStart" : 162,
            "sslEnd" : -1,
            "id" : "download_13",
            "sslStart" : -1,
            "receiveLast" : 70.4409999999916,
            "s_time" : 69.0029999968829,
            "len" : 15017,
            "receiveHeadersEnd" : 215,
            "type" : "application/javascript",
            "sendEnd" : 162,
            "connectEnd" : 162,
            "connectStart" : 0,
            "dns" : 0,
            "dnsStart" : -1,
            "dnsEnd" : -1,
            "receivedTime" : "285.440999999992",
            "receiveFirst" : 53
         },
         "when_comp_start" : -1
      },
      {
         "download" : {
            "id" : "download_14",
            "sslEnd" : -1,
            "sendStart" : 193,
            "sslStart" : -1,
            "receiveHeadersEnd" : 244,
            "len" : 1023,
            "connectEnd" : 193,
            "sendEnd" : 193,
            "type" : "application/javascript",
            "s_time" : 69.1019999940181,
            "receiveLast" : 71.0089999980992,
            "dnsEnd" : -1,
            "receiveFirst" : 51,
            "receivedTime" : "315.008999998099",
            "dns" : 0,
            "connectStart" : 0,
            "dnsStart" : -1
         },
         "comps" : [
            {
               "type" : 1,
               "id" : "comp_25",
               "e_time" : 610.325999994529,
               "time" : 0.258000000029938,
               "s_time" : 610.067999994499
            }
         ],
         "id" : "r16",
         "url" : "http://original.testbed.localhost/www.whitehouse.gov/sites/whitehouse.gov/files/js/js_S4ZZGC9DHcaMDgTpvRN7MBcmXkzFjVLWzboXJJewXOk.js",
         "when_comp_start" : -1
      },
      {
         "when_comp_start" : -1,
         "id" : "r17",
         "url" : "http://original.testbed.localhost/www.whitehouse.gov/sites/whitehouse.gov/modules/contrib/usfedgov_google_analytics/js/Universal-Federated-Analytics-Min.js%3Fagency=Executive%2520Office%2520of%2520the%2520President&subagency=The%2520White%2520House",
         "comps" : [
            {
               "e_time" : 612.475000001723,
               "time" : 1.65900000138197,
               "type" : 1,
               "id" : "comp_28",
               "s_time" : 610.816000000341
            }
         ],
         "download" : {
            "sslStart" : -1,
            "sslEnd" : -1,
            "sendStart" : 213,
            "id" : "download_15",
            "dns" : 0,
            "connectStart" : 0,
            "dnsStart" : -1,
            "dnsEnd" : -1,
            "receiveFirst" : 52,
            "receivedTime" : "337.074999988545",
            "s_time" : 69.2049999925075,
            "receiveLast" : 72.0749999885447,
            "receiveHeadersEnd" : 265,
            "len" : 19550,
            "connectEnd" : 213,
            "sendEnd" : 213,
            "type" : "text/plain"
         }
      },
      {
         "when_comp_start" : -1,
         "comps" : [],
         "id" : "r18",
         "url" : "http://original.testbed.localhost/www.whitehouse.gov/profiles/forall/modules/custom/gov_whitehouse_www/images/icons/wh_logo_seal.png",
         "download" : {
            "connectEnd" : 0,
            "sendEnd" : 0,
            "type" : "image/png",
            "receiveHeadersEnd" : 51,
            "len" : 8737,
            "s_time" : 336.688999988837,
            "receiveLast" : 338.116999998805,
            "receivedTime" : "389.116999998805",
            "receiveFirst" : 51,
            "dnsEnd" : -1,
            "dnsStart" : -1,
            "dns" : 0,
            "connectStart" : 0,
            "id" : "download_16",
            "sslEnd" : -1,
            "sendStart" : 0,
            "sslStart" : -1
         }
      },
      {
         "when_comp_start" : -1,
         "download" : {
            "sslStart" : -1,
            "id" : "download_23",
            "sslEnd" : -1,
            "sendStart" : 0,
            "dnsEnd" : -1,
            "receiveFirst" : 51,
            "receivedTime" : "766.271999993478",
            "dns" : 0,
            "connectStart" : 0,
            "dnsStart" : -1,
            "receiveHeadersEnd" : 51,
            "len" : 260,
            "sendEnd" : 0,
            "connectEnd" : 0,
            "type" : "image/png",
            "s_time" : 633.332999990671,
            "receiveLast" : 715.271999993478
         },
         "id" : "r56",
         "url" : "http://original.testbed.localhost/www.whitehouse.gov/profiles/forall/themes/custom/fortyfour/images/fortyfour/sprites/contact-nav-icons.png%3F1449244367",
         "comps" : []
      },
      {
         "when_comp_start" : -1,
         "download" : {
            "sslStart" : -1,
            "id" : "download_24",
            "sslEnd" : -1,
            "sendStart" : 0,
            "receivedTime" : "766.825999991852",
            "receiveFirst" : 52,
            "dnsEnd" : -1,
            "dnsStart" : -1,
            "dns" : 0,
            "connectStart" : 0,
            "connectEnd" : 0,
            "sendEnd" : 0,
            "type" : "image/png",
            "receiveHeadersEnd" : 52,
            "len" : 39804,
            "s_time" : 632.889000000432,
            "receiveLast" : 714.825999991852
         },
         "comps" : [],
         "url" : "http://original.testbed.localhost/www.whitehouse.gov/profiles/forall/themes/custom/fortyfour/images/fortyfour/bg/wh_header_decor_desktop_large_format.png%3F1449244366",
         "id" : "r55"
      },
      {
         "when_comp_start" : -1,
         "id" : "r54",
         "url" : "http://www.google-analytics.com/analytics.js",
         "comps" : [
            {
               "type" : null,
               "id" : "comp_47",
               "time" : 2039.89000000001,
               "e_time" : 2926.92499999248,
               "s_time" : 887.034999992466
            }
         ],
         "download" : {
            "id" : "download_25",
            "sendStart" : 50,
            "sslEnd" : -1,
            "sslStart" : -1,
            "type" : "text/javascript",
            "sendEnd" : 50,
            "connectEnd" : 50,
            "len" : 27576,
            "receiveHeadersEnd" : 101,
            "receiveLast" : 667.597999995109,
            "s_time" : 608.584999994491,
            "receivedTime" : "768.597999995109",
            "receiveFirst" : 51,
            "dnsEnd" : -1,
            "dnsStart" : -1,
            "connectStart" : 0,
            "dns" : 0
         }
      },
      {
         "download" : {
            "sslStart" : -1,
            "sslEnd" : -1,
            "sendStart" : 0,
            "id" : "download_26",
            "dnsStart" : -1,
            "dns" : 0,
            "connectStart" : 0,
            "receiveFirst" : 52,
            "receivedTime" : "769.000999993295",
            "dnsEnd" : -1,
            "s_time" : 670.759999993606,
            "receiveLast" : 717.000999993295,
            "sendEnd" : 0,
            "connectEnd" : 0,
            "type" : "text/html",
            "receiveHeadersEnd" : 52,
            "len" : 359
         },
         "id" : "r57",
         "url" : "http://original.testbed.localhost/www.whitehouse.gov/sites/whitehouse.gov/files/js/jquery-1.10.2.min.map",
         "comps" : [],
         "when_comp_start" : 1
      },
      {
         "download" : {
            "sendStart" : 1,
            "sslEnd" : -1,
            "id" : "download_27",
            "sslStart" : -1,
            "receiveLast" : 3045.58299999905,
            "s_time" : 675.434999997378,
            "type" : "image/jpeg",
            "connectEnd" : 1,
            "sendEnd" : 2,
            "len" : 633681,
            "receiveHeadersEnd" : 53,
            "dnsStart" : -1,
            "connectStart" : 0,
            "dns" : 0,
            "receiveFirst" : 51,
            "receivedTime" : "3098.58299999905",
            "dnsEnd" : -1
         },
         "comps" : [],
         "url" : "http://original.testbed.localhost/www.whitehouse.gov/sites/whitehouse.gov/files/hero-backgrounds/commutations_hero.jpg",
         "id" : "r58",
         "when_comp_start" : -1
      },
      {
         "when_comp_start" : -1,
         "download" : {
            "receivedTime" : "2985.39399998845",
            "receiveFirst" : 53,
            "dnsEnd" : -1,
            "dnsStart" : -1,
            "dns" : 0,
            "connectStart" : 0,
            "sendEnd" : 2,
            "connectEnd" : 2,
            "type" : "image/jpeg",
            "receiveHeadersEnd" : 55,
            "len" : 29582,
            "s_time" : 676.395999995293,
            "receiveLast" : 2930.39399998845,
            "sslStart" : -1,
            "id" : "download_28",
            "sslEnd" : -1,
            "sendStart" : 2
         },
         "comps" : [],
         "id" : "r59",
         "url" : "http://original.testbed.localhost/www.whitehouse.gov/sites/whitehouse.gov/files/tout_images/cfpbTout.jpg"
      },
      {
         "download" : {
            "sslStart" : -1,
            "sslEnd" : -1,
            "sendStart" : 2,
            "id" : "download_29",
            "dnsStart" : -1,
            "dns" : 0,
            "connectStart" : 0,
            "receivedTime" : "2990.25199998869",
            "receiveFirst" : 53,
            "dnsEnd" : -1,
            "s_time" : 676.448999991408,
            "receiveLast" : 2935.25199998869,
            "sendEnd" : 2,
            "connectEnd" : 2,
            "type" : "image/jpeg",
            "receiveHeadersEnd" : 55,
            "len" : 149991
         },
         "comps" : [],
         "url" : "http://original.testbed.localhost/www.whitehouse.gov/sites/whitehouse.gov/files/tout_images/flint_tout.jpg",
         "id" : "r60",
         "when_comp_start" : -1
      },
      {
         "download" : {
            "sslStart" : -1,
            "sendStart" : 4,
            "sslEnd" : -1,
            "id" : "download_30",
            "dnsStart" : -1,
            "connectStart" : 0,
            "dns" : 0,
            "receiveFirst" : 52,
            "receivedTime" : "770.88699999149",
            "dnsEnd" : -1,
            "receiveLast" : 714.88699999149,
            "s_time" : 681.284999998752,
            "type" : "application/javascript",
            "sendEnd" : 4,
            "connectEnd" : 4,
            "len" : 9432,
            "receiveHeadersEnd" : 56
         },
         "url" : "http://original.testbed.localhost/www.whitehouse.gov/sites/whitehouse.gov/files/js/js_2mdTQtvwCainuVKOqQsH1BuSMQvOxSgWO1is-qhBFoU.js",
         "id" : "r64",
         "comps" : [
            {
               "s_time" : 770.940999995219,
               "e_time" : 772.245999993174,
               "time" : 1.30499999795495,
               "type" : 1,
               "id" : "comp_35"
            }
         ],
         "when_comp_start" : -1
      },
      {
         "when_comp_start" : -1,
         "download" : {
            "receiveFirst" : 56,
            "receivedTime" : "872.182999999495",
            "dnsEnd" : -1,
            "dnsStart" : -1,
            "connectStart" : 0,
            "dns" : 0,
            "type" : "application/javascript",
            "connectEnd" : 6,
            "sendEnd" : 6,
            "len" : 95204,
            "receiveHeadersEnd" : 62,
            "receiveLast" : 810.182999999495,
            "s_time" : 681.53099999472,
            "sslStart" : -1,
            "id" : "download_31",
            "sendStart" : 6,
            "sslEnd" : -1
         },
         "url" : "http://original.testbed.localhost/platform.twitter.com/widgets.js",
         "id" : "r65",
         "comps" : [
            {
               "s_time" : 2926.95899998944,
               "time" : 39.05000000668,
               "e_time" : 2966.00899999612,
               "id" : "comp_49",
               "type" : null
            }
         ]
      },
      {
         "download" : {
            "receiveLast" : 2893.06399999093,
            "s_time" : 676.809999989928,
            "type" : "image/jpeg",
            "connectEnd" : 48,
            "sendEnd" : 48,
            "len" : 124960,
            "receiveHeadersEnd" : 99,
            "dnsStart" : -1,
            "connectStart" : 0,
            "dns" : 0,
            "receivedTime" : "2992.06399999093",
            "receiveFirst" : 51,
            "dnsEnd" : -1,
            "sendStart" : 48,
            "sslEnd" : -1,
            "id" : "download_34",
            "sslStart" : -1
         },
         "comps" : [],
         "id" : "r61",
         "url" : "http://original.testbed.localhost/www.whitehouse.gov/sites/whitehouse.gov/files/tout_images/presidents_schedule_tout_02.jpg",
         "when_comp_start" : -1
      },
      {
         "download" : {
            "type" : "image/jpeg",
            "connectEnd" : 60,
            "sendEnd" : 60,
            "len" : 253824,
            "receiveHeadersEnd" : 114,
            "receiveLast" : 2888.2159999935,
            "s_time" : 677.115999991656,
            "receivedTime" : "3002.2159999935",
            "receiveFirst" : 54,
            "dnsEnd" : -1,
            "dnsStart" : -1,
            "connectStart" : 0,
            "dns" : 0,
            "id" : "download_35",
            "sendStart" : 60,
            "sslEnd" : -1,
            "sslStart" : -1
         },
         "comps" : [],
         "id" : "r62",
         "url" : "http://original.testbed.localhost/www.whitehouse.gov/sites/whitehouse.gov/files/tout_images/potus_phone_tout.jpg",
         "when_comp_start" : -1
      },
      {
         "download" : {
            "sslEnd" : -1,
            "sendStart" : 68,
            "id" : "download_36",
            "sslStart" : -1,
            "s_time" : 677.674999998999,
            "receiveLast" : 2882.63899999461,
            "sendEnd" : 68,
            "connectEnd" : 68,
            "type" : "image/jpeg",
            "receiveHeadersEnd" : 119,
            "len" : 320051,
            "dnsStart" : -1,
            "dns" : 0,
            "connectStart" : 0,
            "receiveFirst" : 51,
            "receivedTime" : "3001.63899999461",
            "dnsEnd" : -1
         },
         "comps" : [],
         "id" : "r63",
         "url" : "http://original.testbed.localhost/www.whitehouse.gov/sites/whitehouse.gov/files/tout_images/POD_03022016_tout.jpg",
         "when_comp_start" : -1
      },
      {
         "when_comp_start" : -1,
         "download" : {
            "dnsStart" : -1,
            "dns" : 0,
            "connectStart" : 0,
            "receivedTime" : "2993.90999999014",
            "receiveFirst" : 56,
            "dnsEnd" : -1,
            "s_time" : 768.37799999339,
            "receiveLast" : 2920.90999999014,
            "connectEnd" : 17,
            "sendEnd" : 17,
            "type" : "application/octet-stream",
            "receiveHeadersEnd" : 73,
            "len" : 81284,
            "sslStart" : -1,
            "sslEnd" : -1,
            "sendStart" : 17,
            "id" : "download_37"
         },
         "comps" : [],
         "id" : "r51",
         "url" : "http://original.testbed.localhost/www.whitehouse.gov/sites/whitehouse.gov/libraries/fontawesome/fonts/fontawesome-webfont.woff%3Fv=4.4.0"
      },
      {
         "when_comp_start" : -1,
         "id" : "r66",
         "url" : "http://original.testbed.localhost/www.whitehouse.gov/profiles/forall/modules/custom/gov_whitehouse_www/modules/whitehouse_nav/images/sprites/search-icon-all-viewports.png%3F1409066161",
         "comps" : [],
         "download" : {
            "id" : "download_38",
            "sslEnd" : -1,
            "sendStart" : 146,
            "sslStart" : -1,
            "receiveHeadersEnd" : 199,
            "len" : 438,
            "sendEnd" : 146,
            "connectEnd" : 146,
            "type" : "image/png",
            "s_time" : 699.683999991976,
            "receiveLast" : 2797.18999999075,
            "dnsEnd" : -1,
            "receiveFirst" : 53,
            "receivedTime" : "2996.18999999075",
            "dns" : 0,
            "connectStart" : 0,
            "dnsStart" : -1
         }
      },
      {
         "comps" : [],
         "url" : "http://original.testbed.localhost/www.whitehouse.gov/profiles/forall/modules/custom/sixteenhundredfooter/sass/sixteenhundred/images/hr.jpg",
         "id" : "r67",
         "download" : {
            "dns" : 0,
            "connectStart" : 0,
            "dnsStart" : -1,
            "dnsEnd" : -1,
            "receiveFirst" : 51,
            "receivedTime" : "2997.9539999913",
            "s_time" : 703.648999988218,
            "receiveLast" : 2770.9539999913,
            "receiveHeadersEnd" : 227,
            "len" : 2743,
            "connectEnd" : 176,
            "sendEnd" : 176,
            "type" : "image/jpeg",
            "sslStart" : -1,
            "sslEnd" : -1,
            "sendStart" : 176,
            "id" : "download_39"
         },
         "when_comp_start" : -1
      },
      {
         "download" : {
            "receiveFirst" : 52,
            "receivedTime" : "2999.75799999083",
            "dnsEnd" : -1,
            "dnsStart" : -1,
            "dns" : 0,
            "connectStart" : 0,
            "sendEnd" : 190,
            "connectEnd" : 190,
            "type" : "image/png",
            "receiveHeadersEnd" : 242,
            "len" : 131,
            "s_time" : 704.489999989164,
            "receiveLast" : 2757.75799999083,
            "sslStart" : -1,
            "id" : "download_40",
            "sslEnd" : -1,
            "sendStart" : 190
         },
         "url" : "http://original.testbed.localhost/www.whitehouse.gov/profiles/forall/modules/custom/sixteenhundredfooter/sass/sixteenhundred/images/vr.png",
         "id" : "r68",
         "comps" : [],
         "when_comp_start" : -1
      },
      {
         "when_comp_start" : -1,
         "url" : "http://connect.facebook.net/en_US/sdk.js",
         "id" : "r69",
         "comps" : [
            {
               "id" : "comp_69",
               "type" : null,
               "time" : 55.61100000341,
               "e_time" : 3073.11199999822,
               "s_time" : 3017.50099999481
            }
         ],
         "download" : {
            "receiveHeadersEnd" : 151,
            "len" : 186334,
            "sendEnd" : 51,
            "connectEnd" : 51,
            "type" : "application/x-javascript",
            "s_time" : 836.683000001358,
            "receiveLast" : 2851.80399998883,
            "dnsEnd" : -1,
            "receivedTime" : "3002.80399998883",
            "receiveFirst" : 100,
            "dns" : 0,
            "connectStart" : 0,
            "dnsStart" : -1,
            "id" : "download_41",
            "sslEnd" : -1,
            "sendStart" : 51,
            "sslStart" : -1
         }
      },
      {
         "when_comp_start" : -1,
         "url" : "http://www.google-analytics.com/r/collect?v=1&_v=j43&aip=1&a=136489284&t=pageview&_s=1&dl=http%3A%2F%2Foriginal.testbed.localhost%2Fwww.whitehouse.gov%2F&ul=en-us&de=UTF-8&dt=The%20White%20House%20%7C%20whitehouse.gov&sd=24-bit&sr=1920x1080&vp=889x883&je=1&_u=QEAAAEQAI~&jid=2050057196&cid=1145240486",
         "id" : "r70",
         "comps" : [],
         "download" : {
            "id" : "download_42",
            "sslEnd" : -1,
            "sendStart" : 0,
            "sslStart" : -1,
            "connectEnd" : 0,
            "sendEnd" : 0,
            "type" : "image/gif",
            "receiveHeadersEnd" : 74,
            "len" : 35,
            "s_time" : 2922.32800000056,
            "receiveLast" : 3025.27500000049,
            "receiveFirst" : 74,
            "receivedTime" : "3099.27500000049",
            "dnsEnd" : -1,
            "dnsStart" : -1,
            "dns" : 0,
            "connectStart" : 0
         }
      },
      {
         "when_comp_start" : -1,
         "download" : {
            "sslStart" : 104,
            "id" : "download_43",
            "sendStart" : 165,
            "sslEnd" : 164,
            "receiveFirst" : 71,
            "receivedTime" : "3163.62799999479",
            "dnsEnd" : -1,
            "dnsStart" : -1,
            "connectStart" : 0,
            "dns" : 0,
            "type" : "image/gif",
            "sendEnd" : 165,
            "connectEnd" : 165,
            "len" : 35,
            "receiveHeadersEnd" : 236,
            "receiveLast" : 2927.62799999479,
            "s_time" : 2926.83199999738
         },
         "comps" : [],
         "id" : "r71",
         "url" : "https://www.google-analytics.com/r/collect?v=1&_v=j43&aip=1&a=136489284&t=pageview&_s=1&dl=http%3A%2F%2Foriginal.testbed.localhost%2Fwww.whitehouse.gov%2F&dp=%2Fwww.whitehouse.gov%2F&ul=en-us&de=UTF-8&dt=The%20White%20House%20%7C%20whitehouse.gov&sd=24-bit&sr=1920x1080&vp=889x883&je=1&_u=QECAAUQAI~&"
      },
      {
         "download" : {
            "sslStart" : -1,
            "id" : "download_44",
            "sslEnd" : -1,
            "sendStart" : 49,
            "dnsEnd" : -1,
            "receiveFirst" : 51,
            "receivedTime" : "3312.97899999481",
            "dns" : 0,
            "connectStart" : 0,
            "dnsStart" : -1,
            "receiveHeadersEnd" : 100,
            "len" : 36422,
            "connectEnd" : 49,
            "sendEnd" : 49,
            "type" : "text/html",
            "s_time" : 3148.82099999522,
            "receiveLast" : 3212.97899999481
         },
         "comps" : [
            {
               "type" : "evalhtml",
               "id" : "r73_c1",
               "e_time" : 3313.25199999264,
               "time" : 53.62700000114,
               "s_time" : 3259.6249999915
            }
         ],
         "url" : "http://staticxx.facebook.com/connect/xd_arbiter.php?version=42#channel=f379d80178&origin=http%3A%2F%2Foriginal.testbed.localhost",
         "id" : "r73",
         "when_comp_start" : 1
      },
      {
         "download" : {
            "s_time" : 3148.79099999962,
            "receiveLast" : 3218.84100000013,
            "connectEnd" : 202,
            "sendEnd" : 204,
            "type" : "text/html",
            "receiveHeadersEnd" : 278,
            "len" : 36422,
            "dnsStart" : -1,
            "dns" : 0,
            "connectStart" : 0,
            "receivedTime" : "3496.84100000013",
            "receiveFirst" : 74,
            "dnsEnd" : -1,
            "sslEnd" : 201,
            "sendStart" : 202,
            "id" : "download_45",
            "sslStart" : 124
         },
         "id" : "r74",
         "url" : "https://staticxx.facebook.com/connect/xd_arbiter.php?version=42#channel=f379d80178&origin=http%3A%2F%2Foriginal.testbed.localhost",
         "comps" : [
            {
               "s_time" : 3432.21499999345,
               "time" : 73.1870000017802,
               "e_time" : 3505.40199999523,
               "type" : "evalhtml",
               "id" : "r74_c1"
            }
         ],
         "when_comp_start" : 1
      },
      {
         "url" : "https://www.facebook.com/impression.php/f23ea08494/?api_key=100929903392&lid=115&payload=%7B%22source%22%3A%22jssdk%22%7D",
         "id" : "r72",
         "comps" : [],
         "download" : {
            "dnsEnd" : -1,
            "receiveFirst" : 206,
            "receivedTime" : "3517.2109999985",
            "connectStart" : 0,
            "dns" : 0,
            "dnsStart" : -1,
            "len" : 43,
            "receiveHeadersEnd" : 412,
            "type" : "image/gif",
            "connectEnd" : 205,
            "sendEnd" : 206,
            "receiveLast" : 3105.2109999985,
            "s_time" : 3104.68299999775,
            "sslStart" : 125,
            "id" : "download_46",
            "sendStart" : 205,
            "sslEnd" : 205
         },
         "when_comp_start" : -1
      }
   ],
   "load_activity" : -1,
   "name" : "original.testbed.localhost_www.whitehouse.gov_",
   "n_download_no_trigger" : 9
}
