{
   "name" : "original.testbed.localhost_www.yahoo.com_",
   "deps" : [
      {
         "a1" : "comp_9",
         "time" : -1,
         "a2" : "r1_c2",
         "id" : "dep1"
      },
      {
         "a1" : "comp_91",
         "a2" : "r1_c3",
         "id" : "dep2",
         "time" : -1
      },
      {
         "a1" : "comp_99",
         "time" : -1,
         "a2" : "r1_c4",
         "id" : "dep3"
      },
      {
         "time" : -1,
         "id" : "dep4",
         "a2" : "download_34",
         "a1" : "r1_c4"
      },
      {
         "a1" : "r1_c4",
         "time" : 356.916999997337,
         "id" : "dep5",
         "a2" : "download_33"
      },
      {
         "id" : "dep6",
         "a2" : "download_32",
         "time" : -1,
         "a1" : "r1_c3"
      },
      {
         "a1" : "r1_c2",
         "time" : -1,
         "a2" : "download_31",
         "id" : "dep7"
      },
      {
         "time" : -1,
         "a2" : "download_30",
         "id" : "dep8",
         "a1" : "r1_c2"
      },
      {
         "id" : "dep9",
         "a2" : "download_30",
         "time" : 200.556999989203,
         "a1" : "r1_c2"
      },
      {
         "a1" : "r1_c2",
         "time" : 198.990999997477,
         "a2" : "download_29",
         "id" : "dep10"
      },
      {
         "id" : "dep11",
         "a2" : "download_28",
         "time" : 200.056999994558,
         "a1" : "r1_c2"
      },
      {
         "a1" : "r1_c2",
         "id" : "dep12",
         "a2" : "download_28",
         "time" : 200.056999994558
      },
      {
         "id" : "dep13",
         "a2" : "download_27",
         "time" : 198.707999996259,
         "a1" : "r1_c2"
      },
      {
         "a1" : "r1_c2",
         "id" : "dep14",
         "a2" : "download_26",
         "time" : 198.533999995561
      },
      {
         "id" : "dep15",
         "a2" : "download_25",
         "time" : 198.321000003488,
         "a1" : "r1_c2"
      },
      {
         "a1" : "r1_c2",
         "time" : 198.149999996531,
         "id" : "dep16",
         "a2" : "download_24"
      },
      {
         "time" : 197.891000003437,
         "a2" : "download_23",
         "id" : "dep17",
         "a1" : "r1_c2"
      },
      {
         "id" : "dep18",
         "a2" : "download_22",
         "time" : 197.680999990552,
         "a1" : "r1_c2"
      },
      {
         "time" : 30.00400000019,
         "id" : "dep19",
         "a2" : "download_20",
         "a1" : "r1_c2"
      },
      {
         "a1" : "r1_c1",
         "time" : -1,
         "a2" : "download_19",
         "id" : "dep20"
      },
      {
         "time" : 325.861999997869,
         "a2" : "download_18",
         "id" : "dep21",
         "a1" : "r1_c1"
      },
      {
         "a1" : "r1_c2",
         "id" : "dep22",
         "a2" : "download_17",
         "time" : 14.276999994763
      },
      {
         "a1" : "r1_c1",
         "id" : "dep23",
         "a2" : "download_16",
         "time" : 325.437999999849
      },
      {
         "a1" : "r1_c1",
         "time" : 324.095000003581,
         "id" : "dep24",
         "a2" : "download_15"
      },
      {
         "a1" : "r1_c1",
         "id" : "dep25",
         "a2" : "download_14",
         "time" : 267.313000003924
      },
      {
         "time" : 267.313000003924,
         "a2" : "download_14",
         "id" : "dep26",
         "a1" : "r1_c1"
      },
      {
         "id" : "dep27",
         "a2" : "download_13",
         "time" : 267.579000006663,
         "a1" : "r1_c1"
      },
      {
         "a1" : "r1_c1",
         "time" : 267.579000006663,
         "id" : "dep28",
         "a2" : "download_13"
      },
      {
         "a1" : "r1_c1",
         "a2" : "download_12",
         "id" : "dep29",
         "time" : 267.436000009184
      },
      {
         "a1" : "r1_c1",
         "id" : "dep30",
         "a2" : "download_12",
         "time" : 267.436000009184
      },
      {
         "a1" : "r1_c1",
         "id" : "dep31",
         "a2" : "download_11",
         "time" : 267.174000007799
      },
      {
         "a1" : "r1_c1",
         "time" : 267.174000007799,
         "id" : "dep32",
         "a2" : "download_11"
      },
      {
         "a1" : "r1_c1",
         "a2" : "download_10",
         "id" : "dep33",
         "time" : 267.019000006257
      },
      {
         "a2" : "download_10",
         "id" : "dep34",
         "time" : 267.019000006257,
         "a1" : "r1_c1"
      },
      {
         "a1" : "r1_c1",
         "id" : "dep35",
         "a2" : "download_9",
         "time" : 266.893000007258
      },
      {
         "time" : 266.893000007258,
         "id" : "dep36",
         "a2" : "download_9",
         "a1" : "r1_c1"
      },
      {
         "id" : "dep37",
         "a2" : "download_8",
         "time" : 266.748000009102,
         "a1" : "r1_c1"
      },
      {
         "a2" : "download_8",
         "id" : "dep38",
         "time" : 266.748000009102,
         "a1" : "r1_c1"
      },
      {
         "a2" : "download_7",
         "id" : "dep39",
         "time" : 266.612000006717,
         "a1" : "r1_c1"
      },
      {
         "a1" : "r1_c1",
         "time" : 266.612000006717,
         "a2" : "download_7",
         "id" : "dep40"
      },
      {
         "id" : "dep41",
         "a2" : "download_6",
         "time" : 266.499999997904,
         "a1" : "r1_c1"
      },
      {
         "a1" : "r1_c1",
         "time" : 266.499999997904,
         "a2" : "download_6",
         "id" : "dep42"
      },
      {
         "a1" : "r1_c1",
         "time" : 266.339000008884,
         "id" : "dep43",
         "a2" : "download_5"
      },
      {
         "time" : 266.339000008884,
         "a2" : "download_5",
         "id" : "dep44",
         "a1" : "r1_c1"
      },
      {
         "a1" : "r1_c1",
         "id" : "dep45",
         "a2" : "download_4",
         "time" : 37.0220000040721
      },
      {
         "a1" : "r1_c1",
         "a2" : "download_4",
         "id" : "dep46",
         "time" : 37.0220000040721
      },
      {
         "a1" : "r1_c1",
         "time" : 0.741000010748394,
         "a2" : "download_3",
         "id" : "dep47"
      },
      {
         "a1" : "r1_c1",
         "time" : 0.557999999727997,
         "a2" : "download_2",
         "id" : "dep48"
      }
   ],
   "objs" : [
      {
         "when_comp_start" : 1,
         "download" : {
            "s_time" : 0,
            "sendStart" : 0,
            "id" : "download_0",
            "connectStart" : 0,
            "dns" : 0,
            "sslEnd" : -1,
            "type" : "text/html",
            "sendEnd" : 0,
            "sslStart" : -1,
            "receiveFirst" : 56,
            "dnsStart" : -1,
            "receiveHeadersEnd" : 56,
            "receivedTime" : "208.32099999825",
            "dnsEnd" : -1,
            "receiveLast" : 152.32099999825,
            "len" : 506462,
            "connectEnd" : 0
         },
         "comps" : [
            {
               "e_time" : 398.119000004954,
               "id" : "r1_c1",
               "s_time" : 70.1039999985369,
               "type" : "evalhtml",
               "time" : 328.015000006417
            },
            {
               "s_time" : 432.060000006459,
               "id" : "r1_c2",
               "time" : 200.556999989203,
               "type" : "evalhtml",
               "e_time" : 632.616999995662
            },
            {
               "e_time" : 985.067000001436,
               "id" : "r1_c3",
               "s_time" : 928.152000007685,
               "type" : "evalhtml",
               "time" : 56.9149999937509
            },
            {
               "e_time" : 1447.29399999778,
               "time" : 460.245999987817,
               "type" : "evalhtml",
               "id" : "r1_c4",
               "s_time" : 987.048000009963
            }
         ],
         "url" : "http://original.testbed.localhost/www.yahoo.com/",
         "id" : "r1"
      },
      {
         "download" : {
            "dns" : 0,
            "s_time" : 70.6619999982649,
            "id" : "download_2",
            "sendStart" : 0,
            "connectStart" : 0,
            "sendEnd" : 0,
            "sslEnd" : -1,
            "type" : "text/css",
            "receiveFirst" : 54,
            "sslStart" : -1,
            "receivedTime" : "175.147000001743",
            "receiveLast" : 121.147000001743,
            "dnsEnd" : -1,
            "len" : 62257,
            "connectEnd" : 0,
            "dnsStart" : -1,
            "receiveHeadersEnd" : 54
         },
         "comps" : [
            {
               "e_time" : 180.204000003869,
               "id" : "comp_2",
               "s_time" : 175.46100000618,
               "type" : 4,
               "time" : 4.742999997689
            }
         ],
         "id" : "r2",
         "url" : "http://original.testbed.localhost/s.yimg.com/os/fp/atomic-css.f7f3a421.css",
         "when_comp_start" : -1
      },
      {
         "url" : "http://original.testbed.localhost/s.yimg.com/zz/combo%3Fnn%252Flib%252Fmetro%252Fg%252Fmyy%252Fadvance_base_rc4_0.0.38.css&nn%252Flib%252Fmetro%252Fg%252Fmyy%252Ffont_rc4_0.0.37.css&nn%252Flib%252Fmetro%252Fg%252Fmyy%252Fyahoo20_grid_0.0.104.css&nn%252Flib%252Fmetro%252Fg%252Fmyy%252Fvideo_styles_0.",
         "comps" : [],
         "id" : "r3",
         "download" : {
            "sslStart" : -1,
            "receiveFirst" : 57,
            "dnsStart" : -1,
            "receiveHeadersEnd" : 107,
            "receiveLast" : 172.68000000692,
            "dnsEnd" : -1,
            "receivedTime" : "279.68000000692",
            "connectEnd" : 50,
            "len" : 212347,
            "s_time" : 70.8450000092853,
            "id" : "download_3",
            "sendStart" : 50,
            "connectStart" : 0,
            "dns" : 0,
            "type" : "text/css",
            "sslEnd" : -1,
            "sendEnd" : 50
         },
         "when_comp_start" : -1
      },
      {
         "comps" : [
            {
               "s_time" : 338.119000007282,
               "id" : "comp_9",
               "type" : 1,
               "time" : 93.940999999177,
               "e_time" : 432.060000006459
            }
         ],
         "url" : "http://original.testbed.localhost/s.yimg.com/rq/darla/2-9-9/js/g-r-min.js",
         "id" : "r4",
         "download" : {
            "receiveFirst" : 56,
            "sslStart" : -1,
            "connectEnd" : 53,
            "len" : 191941,
            "receiveLast" : 229.035000007949,
            "dnsEnd" : -1,
            "receivedTime" : "338.035000007949",
            "receiveHeadersEnd" : 109,
            "dnsStart" : -1,
            "dns" : 0,
            "connectStart" : 0,
            "id" : "download_4",
            "sendStart" : 53,
            "s_time" : 107.126000002609,
            "sendEnd" : 53,
            "type" : "application/javascript",
            "sslEnd" : -1
         },
         "when_comp_start" : -1
      },
      {
         "when_comp_start" : -1,
         "url" : "http://original.testbed.localhost/s.yimg.com/uu/api/res/1.2/MBmU56Y.ioCbBnmD4QN.7g--/Zmk9c3RyaW07aD0yNzQ7cHlvZmY9MDtxPTk1O3c9NzAyO3NtPTE7YXBwaWQ9eXRhY2h5b24-/http:/l.yimg.com/nn/fp/rsz/050816/images/smush/london-khan_ipad_1462665741.jpg.cf.jpg",
         "comps" : [],
         "id" : "r18",
         "download" : {
            "dnsStart" : -1,
            "receiveHeadersEnd" : 54,
            "receiveLast" : 573.345000000787,
            "dnsEnd" : -1,
            "receivedTime" : "627.345000000787",
            "connectEnd" : 3,
            "len" : 55677,
            "sslStart" : -1,
            "receiveFirst" : 51,
            "type" : "image/jpeg",
            "sslEnd" : -1,
            "sendEnd" : 3,
            "id" : "download_5",
            "s_time" : 336.443000007421,
            "sendStart" : 3,
            "connectStart" : 0,
            "dns" : 0
         }
      },
      {
         "download" : {
            "receiveHeadersEnd" : 54,
            "dnsStart" : -1,
            "connectEnd" : 2,
            "len" : 21647,
            "receiveLast" : 573.103999999235,
            "dnsEnd" : -1,
            "receivedTime" : "627.103999999235",
            "sslStart" : -1,
            "receiveFirst" : 52,
            "type" : "image/jpeg",
            "sslEnd" : -1,
            "sendEnd" : 2,
            "connectStart" : 0,
            "id" : "download_6",
            "sendStart" : 2,
            "s_time" : 336.603999996441,
            "dns" : 0
         },
         "comps" : [],
         "id" : "r19",
         "url" : "http://original.testbed.localhost/s.yimg.com/uu/api/res/1.2/8QZxy1r2livExHN9qJOUnA--/Zmk9c3RyaW07aD0xNjA7cHlvZmY9MDtxPTgwO3c9MzQwO3NtPTE7YXBwaWQ9eXRhY2h5b24-/http:/l.yimg.com/nn/fp/rsz/050716/images/smush/kentucky-derby_ipad_1462662840.jpg.cf.jpg",
         "when_comp_start" : -1
      },
      {
         "when_comp_start" : -1,
         "download" : {
            "dnsStart" : -1,
            "receiveHeadersEnd" : 54,
            "receiveLast" : 572.782000006642,
            "dnsEnd" : -1,
            "receivedTime" : "626.782000006642",
            "connectEnd" : 2,
            "len" : 9915,
            "sslStart" : -1,
            "receiveFirst" : 52,
            "type" : "image/jpeg",
            "sslEnd" : -1,
            "sendEnd" : 2,
            "sendStart" : 2,
            "s_time" : 336.716000005254,
            "id" : "download_7",
            "connectStart" : 0,
            "dns" : 0
         },
         "comps" : [],
         "id" : "r20",
         "url" : "http://original.testbed.localhost/s.yimg.com/uu/api/res/1.2/H2IJi07RmOmR.RdeG0oQtQ--/Zmk9c3RyaW07aD0xNjA7cHlvZmY9MDtxPTgwO3c9MzQwO3NtPTE7YXBwaWQ9eXRhY2h5b24-/http:/l.yimg.com/nn/fp/rsz/050716/images/smush/britney-prom-ipad_ipad_1462645187.jpg.cf.jpg"
      },
      {
         "when_comp_start" : -1,
         "download" : {
            "connectStart" : 0,
            "s_time" : 336.852000007639,
            "sendStart" : 2,
            "id" : "download_8",
            "dns" : 0,
            "sslEnd" : -1,
            "type" : "image/jpeg",
            "sendEnd" : 2,
            "sslStart" : -1,
            "receiveFirst" : 53,
            "receiveHeadersEnd" : 55,
            "dnsStart" : -1,
            "len" : 11999,
            "connectEnd" : 2,
            "receivedTime" : "627.006000009715",
            "receiveLast" : 572.006000009715,
            "dnsEnd" : -1
         },
         "id" : "r21",
         "comps" : [],
         "url" : "http://original.testbed.localhost/s.yimg.com/uu/api/res/1.2/.9BW_zMrBwXFIB91K2UMRQ--/Zmk9c3RyaW07aD0xNjA7cHlvZmY9MDtxPTgwO3c9MzQwO3NtPTE7YXBwaWQ9eXRhY2h5b24-/http:/l.yimg.com/nn/fp/rsz/050716/images/smush/elchapo-transferred-ipad_ipad_1462647420.jpg.cf.jpg"
      },
      {
         "comps" : [],
         "id" : "r22",
         "url" : "http://original.testbed.localhost/s.yimg.com/uu/api/res/1.2/jXL8zdsws6rYU.O129xv4Q--/Zmk9c3RyaW07aD0xNjA7cHlvZmY9MDtxPTgwO3c9MzQwO3NtPTE7YXBwaWQ9eXRhY2h5b24-/http:/l.yimg.com/nn/fp/rsz/050716/images/smush/harry_potter_wedding_ipad_1462613348.jpg.cf.jpg",
         "download" : {
            "type" : "image/jpeg",
            "sslEnd" : -1,
            "sendEnd" : 52,
            "s_time" : 336.997000005795,
            "sendStart" : 52,
            "id" : "download_9",
            "connectStart" : 0,
            "dns" : 0,
            "dnsStart" : -1,
            "receiveHeadersEnd" : 103,
            "receiveLast" : 529.479000007152,
            "dnsEnd" : -1,
            "receivedTime" : "632.479000007152",
            "connectEnd" : 52,
            "len" : 11816,
            "sslStart" : -1,
            "receiveFirst" : 51
         },
         "when_comp_start" : -1
      },
      {
         "comps" : [],
         "id" : "r23",
         "url" : "http://original.testbed.localhost/s.yimg.com/uu/api/res/1.2/RTC6wKH_Nd55MYlFM6neew--/Zmk9c3RyaW07aD0zODA7cHlvZmY9MDtxPTgwO3c9MzgwO3NtPTE7YXBwaWQ9eXRhY2h5b24-/http:/media.zenfs.com/en-US/homerun/usmagazine.com/62657f759a412c3cfa859da303c534e9",
         "download" : {
            "connectStart" : 0,
            "s_time" : 337.123000004794,
            "id" : "download_10",
            "sendStart" : 52,
            "dns" : 0,
            "type" : "image/jpeg",
            "sslEnd" : -1,
            "sendEnd" : 52,
            "sslStart" : -1,
            "receiveFirst" : 51,
            "receiveHeadersEnd" : 103,
            "dnsStart" : -1,
            "connectEnd" : 52,
            "len" : 26107,
            "receiveLast" : 530.535000000848,
            "dnsEnd" : -1,
            "receivedTime" : "633.535000000848"
         },
         "when_comp_start" : -1
      },
      {
         "when_comp_start" : -1,
         "download" : {
            "type" : "image/jpeg",
            "sslEnd" : -1,
            "sendEnd" : 57,
            "connectStart" : 0,
            "sendStart" : 57,
            "id" : "download_11",
            "s_time" : 337.278000006336,
            "dns" : 0,
            "receiveHeadersEnd" : 108,
            "dnsStart" : -1,
            "connectEnd" : 57,
            "len" : 8091,
            "dnsEnd" : -1,
            "receiveLast" : 524.739000007859,
            "receivedTime" : "632.739000007859",
            "sslStart" : -1,
            "receiveFirst" : 51
         },
         "comps" : [],
         "url" : "http://original.testbed.localhost/s.yimg.com/uu/api/res/1.2/_41MiESe6wfGIQOjtRH_XA--/Zmk9c3RyaW07aD0xNDA7cHlvZmY9MDtxPTkwO3c9MTQwO3NtPTE7YXBwaWQ9eXRhY2h5b24-/http:/media.zenfs.com/en-US/video/video.associatedpressfree.com/dc8748d25f552f6029a8793f999f264a",
         "id" : "r24"
      },
      {
         "download" : {
            "connectEnd" : 58,
            "len" : 14682,
            "dnsEnd" : -1,
            "receiveLast" : 523.987000004505,
            "receivedTime" : "632.987000004505",
            "receiveHeadersEnd" : 109,
            "dnsStart" : -1,
            "receiveFirst" : 51,
            "sslStart" : -1,
            "sendEnd" : 58,
            "type" : "image/jpeg",
            "sslEnd" : -1,
            "dns" : 0,
            "connectStart" : 0,
            "s_time" : 337.540000007721,
            "id" : "download_12",
            "sendStart" : 58
         },
         "comps" : [],
         "url" : "http://original.testbed.localhost/s.yimg.com/uu/api/res/1.2/XAdkHYwELSm.bO8LQJm42w--/Zmk9c3RyaW07aD0yMTQ7cHlvZmY9MDtxPTgwO3c9MzgwO3NtPTE7YXBwaWQ9eXRhY2h5b24-/https:/s.yimg.com/av/moneyball/ads/1458635178074-402.jpg.cf.jpg",
         "id" : "r26",
         "when_comp_start" : -1
      },
      {
         "when_comp_start" : -1,
         "download" : {
            "sendEnd" : 60,
            "sslEnd" : -1,
            "type" : "image/jpeg",
            "dns" : 0,
            "sendStart" : 60,
            "s_time" : 337.6830000052,
            "id" : "download_13",
            "connectStart" : 0,
            "receivedTime" : "633.415999996942",
            "receiveLast" : 521.415999996942,
            "dnsEnd" : -1,
            "len" : 17138,
            "connectEnd" : 60,
            "dnsStart" : -1,
            "receiveHeadersEnd" : 112,
            "receiveFirst" : 52,
            "sslStart" : -1
         },
         "comps" : [],
         "id" : "r27",
         "url" : "http://original.testbed.localhost/s.yimg.com/uu/api/res/1.2/2sQKRw9wSuWPtj0ca.CFow--/Zmk9c3RyaW07aD0yMTQ7cHlvZmY9MDtxPTgwO3c9MzgwO3NtPTE7YXBwaWQ9eXRhY2h5b24-/https:/s.yimg.com/cd/resizer/2.0/FIT_TO_WIDTH-w540/b4d48e8fc750e1afb8c6e10c2f0ba5158607f8f2.jpg.cf.jpg"
      },
      {
         "url" : "http://original.testbed.localhost/s.yimg.com/uu/api/res/1.2/C53fMkZF_TklIU0xlb2e2w--/Zmk9c3RyaW07aD0xNDA7cHlvZmY9MDtxPTkwO3c9MTQwO3NtPTE7YXBwaWQ9eXRhY2h5b24-/http:/media.zenfs.com/en-US/homerun/sbnation1.vox.com/3c6d50153068b4d87d8e543387e990f8",
         "comps" : [],
         "id" : "r25",
         "download" : {
            "sslStart" : -1,
            "receiveFirst" : 54,
            "dnsStart" : -1,
            "receiveHeadersEnd" : 112,
            "dnsEnd" : -1,
            "receiveLast" : 521.304999995744,
            "receivedTime" : "633.304999995744",
            "connectEnd" : 58,
            "len" : 9300,
            "id" : "download_14",
            "s_time" : 337.417000002461,
            "sendStart" : 58,
            "connectStart" : 0,
            "dns" : 0,
            "type" : "image/jpeg",
            "sslEnd" : -1,
            "sendEnd" : 58
         },
         "when_comp_start" : -1
      },
      {
         "download" : {
            "id" : "download_15",
            "s_time" : 394.199000002118,
            "sendStart" : 47,
            "connectStart" : 0,
            "dns" : 0,
            "sslEnd" : -1,
            "type" : "image/jpeg",
            "sendEnd" : 47,
            "sslStart" : -1,
            "receiveFirst" : 51,
            "dnsStart" : -1,
            "receiveHeadersEnd" : 98,
            "receivedTime" : "635.089000003063",
            "receiveLast" : 537.089000003063,
            "dnsEnd" : -1,
            "len" : 27136,
            "connectEnd" : 47
         },
         "comps" : [],
         "id" : "r28",
         "url" : "http://original.testbed.localhost/s.yimg.com/uu/api/res/1.2/txf3nufOBgoOn6BhPEbflQ--/Zmk9c3RyaW07aD0zODA7cHlvZmY9MDtxPTgwO3c9MzgwO3NtPTE7YXBwaWQ9eXRhY2h5b24-/http:/media.zenfs.com/en_us/gma/us.abcnews.gma.com/ap_donald_trump_hillary_clinton_split_jc_160412_16x9_992.jpg.cf.jpg",
         "when_comp_start" : -1
      },
      {
         "when_comp_start" : -1,
         "download" : {
            "receiveFirst" : 51,
            "sslStart" : -1,
            "receiveLast" : 533.122000003117,
            "dnsEnd" : -1,
            "receivedTime" : "634.122000003117",
            "connectEnd" : 50,
            "len" : 5187,
            "dnsStart" : -1,
            "receiveHeadersEnd" : 101,
            "dns" : 0,
            "id" : "download_16",
            "s_time" : 395.541999998386,
            "sendStart" : 50,
            "connectStart" : 0,
            "sendEnd" : 50,
            "type" : "image/jpeg",
            "sslEnd" : -1
         },
         "comps" : [],
         "url" : "http://original.testbed.localhost/s.yimg.com/uu/api/res/1.2/XP4ISBTJtMfmqWxIK6tF1w--/Zmk9c3RyaW07aD0xNDA7cHlvZmY9MDtxPTkwO3c9MTQwO3NtPTE7YXBwaWQ9eXRhY2h5b24-/http:/media.zenfs.com/en-US/video/video.nowthis.com/71c24659019cd149dfd1a5cc399a87f3",
         "id" : "r29"
      },
      {
         "when_comp_start" : -1,
         "id" : "r34",
         "comps" : [],
         "url" : "http://original.testbed.localhost/s.yimg.com/dh/ap/default/160115/fuji-spinner-2.gif",
         "download" : {
            "sslStart" : -1,
            "receiveFirst" : 50,
            "dnsStart" : -1,
            "receiveHeadersEnd" : 52,
            "receivedTime" : "634.422999995877",
            "receiveLast" : 582.422999995877,
            "dnsEnd" : -1,
            "len" : 20522,
            "connectEnd" : 1,
            "id" : "download_17",
            "s_time" : 446.337000001222,
            "sendStart" : 1,
            "connectStart" : 0,
            "dns" : 0,
            "sslEnd" : -1,
            "type" : "image/gif",
            "sendEnd" : 2
         }
      },
      {
         "when_comp_start" : -1,
         "download" : {
            "receivedTime" : "634.619999997085",
            "dnsEnd" : -1,
            "receiveLast" : 529.619999997085,
            "len" : 7423,
            "connectEnd" : 54,
            "dnsStart" : -1,
            "receiveHeadersEnd" : 105,
            "receiveFirst" : 51,
            "sslStart" : -1,
            "sendEnd" : 54,
            "sslEnd" : -1,
            "type" : "image/jpeg",
            "dns" : 0,
            "s_time" : 395.965999996406,
            "id" : "download_18",
            "sendStart" : 54,
            "connectStart" : 0
         },
         "url" : "http://original.testbed.localhost/s.yimg.com/uu/api/res/1.2/fOKobA0LsLxuWuxcqC00WA--/Zmk9c3RyaW07aD0xNDA7cHlvZmY9MDtxPTkwO3c9MTQwO3NtPTE7YXBwaWQ9eXRhY2h5b24-/http:/slingstone.zenfs.com/offnetwork/e332b49699c17c84d8b6fbe22ee56755",
         "comps" : [],
         "id" : "r30"
      },
      {
         "when_comp_start" : -1,
         "comps" : [],
         "url" : "http://original.testbed.localhost/s.yimg.com/os/mit/ape/m/81f43c2/t.gif",
         "id" : "r31",
         "download" : {
            "connectEnd" : 53,
            "len" : 43,
            "receiveLast" : 531.760000000824,
            "dnsEnd" : -1,
            "receivedTime" : "634.760000000824",
            "receiveHeadersEnd" : 103,
            "dnsStart" : -1,
            "receiveFirst" : 50,
            "sslStart" : -1,
            "sendEnd" : 53,
            "type" : "image/gif",
            "sslEnd" : -1,
            "dns" : 0,
            "connectStart" : 0,
            "id" : "download_19",
            "sendStart" : 53,
            "s_time" : 398.119000004954
         }
      },
      {
         "when_comp_start" : -1,
         "download" : {
            "type" : "image/jpeg",
            "sslEnd" : -1,
            "sendEnd" : 30,
            "connectStart" : 0,
            "s_time" : 462.064000006649,
            "id" : "download_20",
            "sendStart" : 30,
            "dns" : 0,
            "receiveHeadersEnd" : 81,
            "dnsStart" : -1,
            "connectEnd" : 30,
            "len" : 17305,
            "receiveLast" : 554.034999999334,
            "dnsEnd" : -1,
            "receivedTime" : "635.034999999334",
            "sslStart" : -1,
            "receiveFirst" : 51
         },
         "comps" : [],
         "id" : "r35",
         "url" : "http://original.testbed.localhost/www.yahoo.com/sy/nn/lib/metro/300_250_Human_Touch_mail.jpg"
      },
      {
         "when_comp_start" : -1,
         "comps" : [],
         "id" : "r36",
         "url" : "http://original.testbed.localhost/s.yimg.com/os/mit/ape/w/d8f6e02/dark/mostly_cloudy_day_night.png",
         "download" : {
            "sslStart" : -1,
            "receiveFirst" : 52,
            "receiveHeadersEnd" : 56,
            "dnsStart" : -1,
            "connectEnd" : 4,
            "len" : 1869,
            "receiveLast" : 631.442000009469,
            "dnsEnd" : -1,
            "receivedTime" : "687.442000009469",
            "connectStart" : 0,
            "s_time" : 629.740999997011,
            "sendStart" : 4,
            "id" : "download_22",
            "dns" : 0,
            "type" : "image/png",
            "sslEnd" : -1,
            "sendEnd" : 4
         }
      },
      {
         "comps" : [],
         "url" : "http://original.testbed.localhost/s.yimg.com/os/mit/ape/w/d8f6e02/dark/scattered_showers_day_night.png",
         "id" : "r37",
         "download" : {
            "dns" : 0,
            "connectStart" : 0,
            "id" : "download_23",
            "sendStart" : 4,
            "s_time" : 629.951000009896,
            "sendEnd" : 4,
            "sslEnd" : -1,
            "type" : "image/png",
            "receiveFirst" : 53,
            "sslStart" : -1,
            "len" : 2322,
            "connectEnd" : 4,
            "receivedTime" : "689.620999997715",
            "receiveLast" : 632.620999997715,
            "dnsEnd" : -1,
            "receiveHeadersEnd" : 57,
            "dnsStart" : -1
         },
         "when_comp_start" : -1
      },
      {
         "download" : {
            "sendEnd" : 4,
            "type" : "image/png",
            "sslEnd" : -1,
            "dns" : 0,
            "connectStart" : 0,
            "id" : "download_24",
            "s_time" : 630.21000000299,
            "sendStart" : 4,
            "connectEnd" : 4,
            "len" : 2268,
            "dnsEnd" : -1,
            "receiveLast" : 633.038000000641,
            "receivedTime" : "690.038000000641",
            "receiveHeadersEnd" : 57,
            "dnsStart" : -1,
            "receiveFirst" : 53,
            "sslStart" : -1
         },
         "comps" : [],
         "id" : "r38",
         "url" : "http://original.testbed.localhost/s.yimg.com/os/mit/ape/w/d8f6e02/dark/clear_day.png",
         "when_comp_start" : -1
      },
      {
         "comps" : [],
         "url" : "http://original.testbed.localhost/s.yimg.com/os/mit/ape/w/d8f6e02/dark/partly_cloudy_day.png",
         "id" : "r39",
         "download" : {
            "sendEnd" : 4,
            "sslEnd" : -1,
            "type" : "image/png",
            "dns" : 0,
            "connectStart" : 0,
            "id" : "download_25",
            "s_time" : 630.381000009947,
            "sendStart" : 4,
            "len" : 2512,
            "connectEnd" : 4,
            "receivedTime" : "690.15200001013",
            "receiveLast" : 633.15200001013,
            "dnsEnd" : -1,
            "receiveHeadersEnd" : 57,
            "dnsStart" : -1,
            "receiveFirst" : 53,
            "sslStart" : -1
         },
         "when_comp_start" : -1
      },
      {
         "download" : {
            "connectStart" : 0,
            "s_time" : 630.59400000202,
            "id" : "download_26",
            "sendStart" : 4,
            "dns" : 0,
            "type" : "image/jpeg",
            "sslEnd" : -1,
            "sendEnd" : 4,
            "sslStart" : -1,
            "receiveFirst" : 53,
            "receiveHeadersEnd" : 57,
            "dnsStart" : -1,
            "connectEnd" : 4,
            "len" : 21126,
            "dnsEnd" : -1,
            "receiveLast" : 634.147000005003,
            "receivedTime" : "691.147000005003"
         },
         "id" : "r40",
         "comps" : [],
         "url" : "http://original.testbed.localhost/s.yimg.com/uu/api/res/1.2/cZhWNdpjwykAXsry_gmPrA--/Zmk9ZmlsbDtoPTQxNDtweW9mZj0wO3E9ODA7dz00MTQ7c209MTthcHBpZD15dGFjaHlvbg--/http:/l.yimg.com/dh/ap/default/160504/ai.jpg",
         "when_comp_start" : -1
      },
      {
         "when_comp_start" : -1,
         "id" : "r41",
         "comps" : [],
         "url" : "http://original.testbed.localhost/s.yimg.com/uu/api/res/1.2/KYSf3f5KvjcnDva06tC.YA--/Zmk9ZmlsbDtoPTQxNDtweW9mZj0wO3E9ODA7dz00MTQ7c209MTthcHBpZD15dGFjaHlvbg--/http:/l.yimg.com/dh/ap/default/160504/dogs-veterans.jpg",
         "download" : {
            "dnsStart" : -1,
            "receiveHeadersEnd" : 57,
            "receiveLast" : 634.887000008137,
            "dnsEnd" : -1,
            "receivedTime" : "691.887000008137",
            "connectEnd" : 4,
            "len" : 30663,
            "sslStart" : -1,
            "receiveFirst" : 53,
            "type" : "image/jpeg",
            "sslEnd" : -1,
            "sendEnd" : 4,
            "s_time" : 630.768000002718,
            "id" : "download_27",
            "sendStart" : 4,
            "connectStart" : 0,
            "dns" : 0
         }
      },
      {
         "when_comp_start" : -1,
         "download" : {
            "sendEnd" : 56,
            "type" : "text/plain",
            "sslEnd" : -1,
            "dns" : 0,
            "connectStart" : 0,
            "sendStart" : 56,
            "s_time" : 632.117000001017,
            "id" : "download_28",
            "connectEnd" : 56,
            "len" : 742119,
            "receiveLast" : 924.82299999753,
            "dnsEnd" : -1,
            "receivedTime" : "1031.82299999753",
            "receiveHeadersEnd" : 107,
            "dnsStart" : -1,
            "receiveFirst" : 51,
            "sslStart" : -1
         },
         "url" : "http://original.testbed.localhost/s.yimg.com/zz/combo%3F&&%252Fos%252Fmit%252Ftd%252Ftd-applet-stream-atomic-2.0.503%252Fr-min.js&%252Fos%252Fmit%252Ftd%252Ftd-applet-mega-header-1.0.216%252Fr-min.js&%252Fos%252Fmit%252Ftd%252Ftd-applet-viewer-0.1.2169%252Fr-min.js&%252Fos%252Fmit%252Ftd%252Ftd-appl",
         "comps" : [],
         "id" : "r44"
      },
      {
         "when_comp_start" : -1,
         "comps" : [],
         "url" : "http://original.testbed.localhost/bs.serving-sys.com/BurstingPipe/adServer.bs%3Fcn=tf&c=19&mc=imp&pli=16991760&PluID=0&ord=$%257BCACHEBUSTER%257D&rtu=-1",
         "id" : "r42",
         "download" : {
            "receiveFirst" : 51,
            "sslStart" : -1,
            "connectEnd" : 57,
            "len" : 42,
            "receiveLast" : 633.27500000759,
            "dnsEnd" : -1,
            "receivedTime" : "741.27500000759",
            "receiveHeadersEnd" : 108,
            "dnsStart" : -1,
            "dns" : 0,
            "connectStart" : 0,
            "sendStart" : 57,
            "s_time" : 631.051000003936,
            "id" : "download_29",
            "sendEnd" : 57,
            "type" : "image/gif",
            "sslEnd" : -1
         }
      },
      {
         "id" : "r45",
         "comps" : [
            {
               "e_time" : 987.048000009963,
               "time" : 2.90700000186894,
               "type" : 1,
               "s_time" : 984.141000008094,
               "id" : "comp_99"
            }
         ],
         "url" : "http://original.testbed.localhost/s.yimg.com/zz/combo%3F%252Fos%252Fyaft%252Fyaft-0.3.3.min.js&%252Fos%252Fyaft%252Fyaft-plugin-aftnoad-0.1.3.min.js&os%252Fyaft%252Fyaft-plugin-harbeacon-0.1.3.min.js",
         "download" : {
            "dns" : 0,
            "id" : "download_30",
            "s_time" : 632.616999995662,
            "sendStart" : 56,
            "connectStart" : 0,
            "sendEnd" : 56,
            "sslEnd" : -1,
            "type" : "application/javascript",
            "receiveFirst" : 54,
            "sslStart" : -1,
            "receivedTime" : "743.738000004669",
            "receiveLast" : 633.738000004669,
            "dnsEnd" : -1,
            "len" : 18078,
            "connectEnd" : 56,
            "dnsStart" : -1,
            "receiveHeadersEnd" : 110
         },
         "when_comp_start" : -1
      },
      {
         "download" : {
            "dnsEnd" : -1,
            "receiveLast" : 742.75199999928,
            "receivedTime" : "854.75199999928",
            "connectEnd" : 55,
            "len" : 514533,
            "dnsStart" : -1,
            "receiveHeadersEnd" : 112,
            "receiveFirst" : 57,
            "sslStart" : -1,
            "sendEnd" : 55,
            "type" : "application/javascript",
            "sslEnd" : -1,
            "dns" : 0,
            "sendStart" : 55,
            "id" : "download_31",
            "s_time" : 631.94000000658,
            "connectStart" : 0
         },
         "url" : "http://original.testbed.localhost/s.yimg.com/zz/combo%3Fyui:%252F3.18.0%252Fyui%252Fyui-min.js&%252Fss%252Frapid-3.29.1.js&%252Fos%252Fmit%252Ftd%252Faperollup-min-a1ca94d8_desktop_advance.js",
         "comps" : [
            {
               "e_time" : 928.152000007685,
               "s_time" : 854.848999995738,
               "id" : "comp_91",
               "time" : 73.303000011947,
               "type" : 1
            }
         ],
         "id" : "r43",
         "when_comp_start" : -1
      },
      {
         "when_comp_start" : -1,
         "comps" : [
            {
               "time" : 2.13900000381,
               "type" : null,
               "s_time" : 1235.68800000066,
               "id" : "comp_110",
               "e_time" : 1237.82700000447
            }
         ],
         "url" : "https://s.yimg.com/lq/lib/3pm/cs_0.2.js",
         "id" : "r46",
         "download" : {
            "dns" : 0,
            "connectStart" : 0,
            "s_time" : 985.067000001436,
            "id" : "download_32",
            "sendStart" : 185,
            "sendEnd" : 186,
            "type" : "application/javascript",
            "sslEnd" : 185,
            "receiveFirst" : 62,
            "sslStart" : 114,
            "connectEnd" : 185,
            "len" : 1420,
            "receiveLast" : 987.540000008768,
            "dnsEnd" : -1,
            "receivedTime" : "1235.54000000877",
            "receiveHeadersEnd" : 248,
            "dnsStart" : -1
         }
      },
      {
         "comps" : [],
         "url" : "http://b.scorecardresearch.com/p2?c1=2&c2=7241469&c5=2023538075&c7=https%3A%2F%2Fwww.yahoo.com%2F&ns__t=1463283264768&ns_c=UTF-8",
         "id" : "r47",
         "download" : {
            "sslEnd" : -1,
            "type" : "image/gif",
            "sendEnd" : 0,
            "s_time" : 1343.9650000073,
            "sendStart" : 0,
            "id" : "download_33",
            "connectStart" : 0,
            "dns" : 0,
            "dnsStart" : -1,
            "receiveHeadersEnd" : 54,
            "receivedTime" : "1399.11100000609",
            "receiveLast" : 1345.11100000609,
            "dnsEnd" : -1,
            "len" : 43,
            "connectEnd" : 0,
            "sslStart" : -1,
            "receiveFirst" : 54
         },
         "when_comp_start" : -1
      },
      {
         "comps" : [],
         "url" : "https://pclick.yahoo.com/p/s=1197775342&t=1956618875031367169&szmk=4530b19a-676c-4c41-9656-ef8dc2f2834c-7",
         "id" : "r32",
         "download" : {
            "sslStart" : 128,
            "receiveFirst" : 66,
            "dnsStart" : -1,
            "receiveHeadersEnd" : 335,
            "dnsEnd" : -1,
            "receiveLast" : 1448.94500000286,
            "receivedTime" : "1783.94500000286",
            "connectEnd" : 269,
            "len" : 43,
            "sendStart" : 269,
            "id" : "download_34",
            "s_time" : 1447.29399999778,
            "connectStart" : 0,
            "dns" : 0,
            "type" : "image/gif",
            "sslEnd" : 268,
            "sendEnd" : 269
         },
         "when_comp_start" : -1
      }
   ],
   "start_activity" : "download_0",
   "n_download_no_trigger" : 3,
   "load_activity" : -1
}
