{
   "n_download_no_trigger" : 1,
   "start_activity" : "download_0",
   "name" : "original.testbed.localhost_www.adcash.com_",
   "load_activity" : -1,
   "objs" : [
      {
         "when_comp_start" : 1,
         "url" : "http://original.testbed.localhost/www.adcash.com/",
         "id" : "r1",
         "comps" : [
            {
               "s_time" : 24.5480000157841,
               "time" : 161.793999955989,
               "id" : "r1_c1",
               "type" : "evalhtml",
               "e_time" : 186.341999971773
            },
            {
               "s_time" : 250.538999971468,
               "time" : -274416434.179,
               "id" : "r1_c2",
               "type" : "evalhtml",
               "e_time" : -274416183.64
            },
            {
               "s_time" : 250.959999975748,
               "time" : 219.488000031561,
               "type" : "evalhtml",
               "id" : "r1_c3",
               "e_time" : 470.448000007309
            }
         ],
         "download" : {
            "receiveFirst" : 8,
            "len" : 109814,
            "dns" : 0,
            "dnsEnd" : -1,
            "receiveHeadersEnd" : 8,
            "sslEnd" : -1,
            "connectEnd" : 0,
            "connectStart" : 0,
            "id" : "download_0",
            "receivedTime" : "24.386000004597",
            "sslStart" : -1,
            "dnsStart" : -1,
            "receiveLast" : 16.386000004597,
            "s_time" : 0,
            "sendEnd" : 0,
            "sendStart" : 0,
            "type" : "text/html"
         }
      },
      {
         "when_comp_start" : -1,
         "url" : "http://original.testbed.localhost/www.adcash.com/cssv5_dist/semantic-base.css%3Fv=3.1.css",
         "id" : "r2",
         "comps" : [
            {
               "s_time" : 43.3140000095591,
               "time" : 17.7370000164956,
               "type" : 4,
               "id" : "comp_0",
               "e_time" : 61.0510000260547
            }
         ],
         "download" : {
            "receiveFirst" : 11,
            "len" : 229654,
            "dns" : 0,
            "dnsEnd" : -1,
            "receiveHeadersEnd" : 11,
            "sslEnd" : -1,
            "connectEnd" : 0,
            "connectStart" : 0,
            "id" : "download_1",
            "receivedTime" : "43.2390000205487",
            "sslStart" : -1,
            "dnsStart" : -1,
            "receiveLast" : 32.2390000205487,
            "s_time" : 25.52199998172,
            "sendEnd" : 0,
            "sendStart" : 0,
            "type" : "text/css"
         }
      },
      {
         "when_comp_start" : -1,
         "url" : "http://original.testbed.localhost/www.adcash.com/cssv5_dist/semantic.css%3Fv=3.1.css",
         "id" : "r3",
         "comps" : [
            {
               "s_time" : 61.3669999875128,
               "time" : 31.4690000377596,
               "type" : 4,
               "id" : "comp_1",
               "e_time" : 92.8360000252724
            }
         ],
         "download" : {
            "receiveFirst" : 11,
            "len" : 218740,
            "dns" : 0,
            "dnsEnd" : 0,
            "receiveHeadersEnd" : 15,
            "sslEnd" : -1,
            "connectEnd" : 4,
            "connectStart" : 0,
            "id" : "download_2",
            "receivedTime" : "61.2959999707527",
            "sslStart" : -1,
            "dnsStart" : 0,
            "receiveLast" : 46.2959999707527,
            "s_time" : 25.6429999717511,
            "sendEnd" : 4,
            "sendStart" : 4,
            "type" : "text/css"
         }
      },
      {
         "when_comp_start" : -1,
         "url" : "http://original.testbed.localhost/www.adcash.com/en/imgv5/delete_icon.png",
         "id" : "r17",
         "comps" : [],
         "download" : {
            "receiveFirst" : 5,
            "len" : 403,
            "dns" : 0,
            "dnsEnd" : -1,
            "receiveHeadersEnd" : 8,
            "sslEnd" : -1,
            "connectEnd" : 3,
            "connectStart" : 0,
            "id" : "download_3",
            "receivedTime" : "196.669999975711",
            "sslStart" : -1,
            "dnsStart" : -1,
            "receiveLast" : 188.669999975711,
            "s_time" : 93.2449999963865,
            "sendEnd" : 3,
            "sendStart" : 3,
            "type" : "image/png"
         }
      },
      {
         "when_comp_start" : -1,
         "url" : "http://original.testbed.localhost/ajax.googleapis.com/ajax/libs/jquery/2.1.3/jquery.min.js",
         "id" : "r57",
         "comps" : [
            {
               "s_time" : 223.890999972355,
               "time" : 26.647999999113,
               "type" : 1,
               "id" : "comp_56",
               "e_time" : 250.538999971468
            }
         ],
         "download" : {
            "receiveFirst" : 9,
            "len" : 84320,
            "dns" : 0,
            "dnsEnd" : -1,
            "receiveHeadersEnd" : 10,
            "sslEnd" : -1,
            "connectEnd" : 1,
            "connectStart" : 0,
            "id" : "download_4",
            "receivedTime" : "197.551999997813",
            "sslStart" : -1,
            "dnsStart" : -1,
            "receiveLast" : 187.551999997813,
            "s_time" : 95.5839999951422,
            "sendEnd" : 1,
            "sendStart" : 1,
            "type" : "application/javascript"
         }
      },
      {
         "when_comp_start" : -1,
         "url" : "http://original.testbed.localhost/www.adcash.com/jsv5_dist/jquery_cookie.js%3Fv=3.1",
         "id" : "r58",
         "comps" : [
            {
               "s_time" : 250.612000003457,
               "time" : 0.347999972290978,
               "type" : 1,
               "id" : "comp_58",
               "e_time" : 250.959999975748
            }
         ],
         "download" : {
            "receiveFirst" : 7,
            "len" : 1263,
            "dns" : 0,
            "dnsEnd" : 0,
            "receiveHeadersEnd" : 12,
            "sslEnd" : -1,
            "connectEnd" : 5,
            "connectStart" : 0,
            "id" : "download_5",
            "receivedTime" : "197.440000018105",
            "sslStart" : -1,
            "dnsStart" : 0,
            "receiveLast" : 185.440000018105,
            "s_time" : 95.738000003621,
            "sendEnd" : 5,
            "sendStart" : 5,
            "type" : "text/plain"
         }
      },
      {
         "when_comp_start" : -1,
         "url" : "http://original.testbed.localhost/www.adcash.com/en/imgv5/adcash_logo_new.svg",
         "id" : "r18",
         "comps" : [],
         "download" : {
            "receiveFirst" : 6,
            "len" : 8512,
            "dns" : 0,
            "dnsEnd" : -1,
            "receiveHeadersEnd" : 6,
            "sslEnd" : -1,
            "connectEnd" : 0,
            "connectStart" : 0,
            "id" : "download_6",
            "receivedTime" : "197.622000006959",
            "sslStart" : -1,
            "dnsStart" : -1,
            "receiveLast" : 191.622000006959,
            "s_time" : 102.14899998391,
            "sendEnd" : 0,
            "sendStart" : 0,
            "type" : "image/svg+xml"
         }
      },
      {
         "when_comp_start" : -1,
         "url" : "http://original.testbed.localhost/www.adcash.com/en/imgv5/language_selector.png",
         "id" : "r19",
         "comps" : [],
         "download" : {
            "receiveFirst" : 4,
            "len" : 440,
            "dns" : 0,
            "dnsEnd" : -1,
            "receiveHeadersEnd" : 10,
            "sslEnd" : -1,
            "connectEnd" : 6,
            "connectStart" : 0,
            "id" : "download_7",
            "receivedTime" : "206.362999975681",
            "sslStart" : -1,
            "dnsStart" : -1,
            "receiveLast" : 196.362999975681,
            "s_time" : 109.918000001926,
            "sendEnd" : 6,
            "sendStart" : 6,
            "type" : "image/png"
         }
      },
      {
         "when_comp_start" : -1,
         "url" : "http://original.testbed.localhost/www.adcash.com/en/imgv5/responsive.svg",
         "id" : "r20",
         "comps" : [],
         "download" : {
            "receiveFirst" : 4,
            "len" : 196,
            "dns" : 0,
            "dnsEnd" : -1,
            "receiveHeadersEnd" : 4,
            "sslEnd" : -1,
            "connectEnd" : 0,
            "connectStart" : 0,
            "id" : "download_8",
            "receivedTime" : "206.546999979764",
            "sslStart" : -1,
            "dnsStart" : -1,
            "receiveLast" : 202.546999979764,
            "s_time" : 120.713000011165,
            "sendEnd" : 0,
            "sendStart" : 0,
            "type" : "image/svg+xml"
         }
      },
      {
         "when_comp_start" : -1,
         "url" : "http://original.testbed.localhost/www.adcash.com/en/imgv5/social_icons/social_1_i.png",
         "id" : "r21",
         "comps" : [],
         "download" : {
            "receiveFirst" : 4,
            "len" : 229,
            "dns" : 0,
            "dnsEnd" : -1,
            "receiveHeadersEnd" : 4,
            "sslEnd" : -1,
            "connectEnd" : 0,
            "connectStart" : 0,
            "id" : "download_9",
            "receivedTime" : "209.916999971028",
            "sslStart" : -1,
            "dnsStart" : -1,
            "receiveLast" : 205.916999971028,
            "s_time" : 126.013999979477,
            "sendEnd" : 0,
            "sendStart" : 0,
            "type" : "image/png"
         }
      },
      {
         "when_comp_start" : -1,
         "url" : "http://original.testbed.localhost/www.adcash.com/en/imgv5/social_icons/social_2_i.png",
         "id" : "r22",
         "comps" : [],
         "download" : {
            "receiveFirst" : 4,
            "len" : 333,
            "dns" : 0,
            "dnsEnd" : -1,
            "receiveHeadersEnd" : 4,
            "sslEnd" : -1,
            "connectEnd" : 0,
            "connectStart" : 0,
            "id" : "download_10",
            "receivedTime" : "210.106000013184",
            "sslStart" : -1,
            "dnsStart" : -1,
            "receiveLast" : 206.106000013184,
            "s_time" : 131.363999971654,
            "sendEnd" : 0,
            "sendStart" : 0,
            "type" : "image/png"
         }
      },
      {
         "when_comp_start" : -1,
         "url" : "http://original.testbed.localhost/www.adcash.com/en/imgv5/social_icons/social_3_i.png",
         "id" : "r23",
         "comps" : [],
         "download" : {
            "receiveFirst" : 4,
            "len" : 274,
            "dns" : 0,
            "dnsEnd" : -1,
            "receiveHeadersEnd" : 4,
            "sslEnd" : -1,
            "connectEnd" : 0,
            "connectStart" : 0,
            "id" : "download_11",
            "receivedTime" : "210.268000024371",
            "sslStart" : -1,
            "dnsStart" : -1,
            "receiveLast" : 206.268000024371,
            "s_time" : 136.538000020664,
            "sendEnd" : 0,
            "sendStart" : 0,
            "type" : "image/png"
         }
      },
      {
         "when_comp_start" : -1,
         "url" : "http://original.testbed.localhost/www.adcash.com/en/imgv5/social_icons/social_4_i.png",
         "id" : "r24",
         "comps" : [],
         "download" : {
            "receiveFirst" : 4,
            "len" : 421,
            "dns" : 0,
            "dnsEnd" : -1,
            "receiveHeadersEnd" : 4,
            "sslEnd" : -1,
            "connectEnd" : 0,
            "connectStart" : 0,
            "id" : "download_12",
            "receivedTime" : "210.421000025235",
            "sslStart" : -1,
            "dnsStart" : -1,
            "receiveLast" : 206.421000025235,
            "s_time" : 141.591000021435,
            "sendEnd" : 0,
            "sendStart" : 0,
            "type" : "image/png"
         }
      },
      {
         "when_comp_start" : -1,
         "url" : "http://original.testbed.localhost/www.adcash.com/en/imgv5/square-image.png",
         "id" : "r25",
         "comps" : [],
         "download" : {
            "receiveFirst" : 4,
            "len" : 1641,
            "dns" : 0,
            "dnsEnd" : -1,
            "receiveHeadersEnd" : 4,
            "sslEnd" : -1,
            "connectEnd" : 0,
            "connectStart" : 0,
            "id" : "download_13",
            "receivedTime" : "210.571000003256",
            "sslStart" : -1,
            "dnsStart" : -1,
            "receiveLast" : 206.571000003256,
            "s_time" : 146.652000024915,
            "sendEnd" : 0,
            "sendStart" : 0,
            "type" : "image/png"
         }
      },
      {
         "when_comp_start" : -1,
         "url" : "http://fonts.googleapis.com/css?family=Open+Sans:300,400,700%7CLato:400,700,400italic,700italic&subset=latin,cyrillic,latin-ext,latin,latin-ext",
         "id" : "r16",
         "comps" : [
            {
               "s_time" : 210.837999999058,
               "time" : 41.642000025603,
               "type" : 2,
               "id" : "comp_49",
               "e_time" : 252.480000024661
            }
         ],
         "download" : {
            "receiveFirst" : 26,
            "len" : 1616,
            "dns" : 10,
            "dnsEnd" : 13,
            "receiveHeadersEnd" : 63,
            "sslEnd" : -1,
            "connectEnd" : 37,
            "connectStart" : 0,
            "id" : "download_14",
            "receivedTime" : "210.797999985516",
            "sslStart" : -1,
            "dnsStart" : 3,
            "receiveLast" : 147.797999985516,
            "s_time" : 92.8549999953248,
            "sendEnd" : 37,
            "sendStart" : 37,
            "type" : "text/css"
         }
      },
      {
         "when_comp_start" : -1,
         "url" : "http://original.testbed.localhost/www.adcash.com/en/imgv5/logo_carousel/logo_travian.png",
         "id" : "r26",
         "comps" : [],
         "download" : {
            "receiveFirst" : 5,
            "len" : 1819,
            "dns" : 0,
            "dnsEnd" : -1,
            "receiveHeadersEnd" : 5,
            "sslEnd" : -1,
            "connectEnd" : 0,
            "connectStart" : 0,
            "id" : "download_15",
            "receivedTime" : "252.546000003349",
            "sslStart" : -1,
            "dnsStart" : -1,
            "receiveLast" : 247.546000003349,
            "s_time" : 151.756000006571,
            "sendEnd" : 0,
            "sendStart" : 0,
            "type" : "image/png"
         }
      },
      {
         "when_comp_start" : -1,
         "url" : "http://original.testbed.localhost/www.adcash.com/en/imgv5/logo_carousel/logo_digitalvirgo.png",
         "id" : "r27",
         "comps" : [],
         "download" : {
            "receiveFirst" : 5,
            "len" : 1374,
            "dns" : 0,
            "dnsEnd" : -1,
            "receiveHeadersEnd" : 7,
            "sslEnd" : -1,
            "connectEnd" : 2,
            "connectStart" : 0,
            "id" : "download_16",
            "receivedTime" : "252.807000011671",
            "sslStart" : -1,
            "dnsStart" : -1,
            "receiveLast" : 245.807000011671,
            "s_time" : 157.170000020415,
            "sendEnd" : 2,
            "sendStart" : 2,
            "type" : "image/png"
         }
      },
      {
         "when_comp_start" : -1,
         "url" : "http://original.testbed.localhost/www.adcash.com/en/imgv5/logo_carousel/logo_youzu.png",
         "id" : "r28",
         "comps" : [],
         "download" : {
            "receiveFirst" : 5,
            "len" : 2528,
            "dns" : 0,
            "dnsEnd" : -1,
            "receiveHeadersEnd" : 7,
            "sslEnd" : -1,
            "connectEnd" : 2,
            "connectStart" : 0,
            "id" : "download_17",
            "receivedTime" : "253.066000004765",
            "sslStart" : -1,
            "dnsStart" : -1,
            "receiveLast" : 246.066000004765,
            "s_time" : 157.322000013664,
            "sendEnd" : 2,
            "sendStart" : 2,
            "type" : "image/png"
         }
      },
      {
         "when_comp_start" : -1,
         "url" : "http://original.testbed.localhost/www.adcash.com/en/imgv5/logo_carousel/logo_alibaba.png",
         "id" : "r29",
         "comps" : [],
         "download" : {
            "receiveFirst" : 5,
            "len" : 1665,
            "dns" : 0,
            "dnsEnd" : -1,
            "receiveHeadersEnd" : 7,
            "sslEnd" : -1,
            "connectEnd" : 2,
            "connectStart" : 0,
            "id" : "download_18",
            "receivedTime" : "253.217999998014",
            "sslStart" : -1,
            "dnsStart" : -1,
            "receiveLast" : 246.217999998014,
            "s_time" : 157.476000022143,
            "sendEnd" : 2,
            "sendStart" : 2,
            "type" : "image/png"
         }
      },
      {
         "when_comp_start" : -1,
         "url" : "http://original.testbed.localhost/www.adcash.com/en/imgv5/logo_carousel/logo_innogames.png",
         "id" : "r30",
         "comps" : [],
         "download" : {
            "receiveFirst" : 4,
            "len" : 3269,
            "dns" : 0,
            "dnsEnd" : 1,
            "receiveHeadersEnd" : 10,
            "sslEnd" : -1,
            "connectEnd" : 6,
            "connectStart" : 0,
            "id" : "download_19",
            "receivedTime" : "253.519999969285",
            "sslStart" : -1,
            "dnsStart" : 1,
            "receiveLast" : 243.519999969285,
            "s_time" : 157.626000000164,
            "sendEnd" : 6,
            "sendStart" : 6,
            "type" : "image/png"
         }
      },
      {
         "when_comp_start" : -1,
         "url" : "http://original.testbed.localhost/www.adcash.com/en/imgv5/logo_carousel/logo_ea.png",
         "id" : "r32",
         "comps" : [],
         "download" : {
            "receiveFirst" : 4,
            "len" : 1550,
            "dns" : 0,
            "dnsEnd" : 1,
            "receiveHeadersEnd" : 10,
            "sslEnd" : -1,
            "connectEnd" : 6,
            "connectStart" : 0,
            "id" : "download_20",
            "receivedTime" : "253.749000024982",
            "sslStart" : -1,
            "dnsStart" : 1,
            "receiveLast" : 243.749000024982,
            "s_time" : 157.915999996476,
            "sendEnd" : 6,
            "sendStart" : 6,
            "type" : "image/png"
         }
      },
      {
         "when_comp_start" : -1,
         "url" : "http://original.testbed.localhost/www.adcash.com/en/imgv5/logo_carousel/logo_goodgame.png",
         "id" : "r31",
         "comps" : [],
         "download" : {
            "receiveFirst" : 5,
            "len" : 3654,
            "dns" : 0,
            "dnsEnd" : 1,
            "receiveHeadersEnd" : 11,
            "sslEnd" : -1,
            "connectEnd" : 6,
            "connectStart" : 0,
            "id" : "download_21",
            "receivedTime" : "253.908000013325",
            "sslStart" : -1,
            "dnsStart" : 1,
            "receiveLast" : 242.908000013325,
            "s_time" : 157.773000013549,
            "sendEnd" : 6,
            "sendStart" : 6,
            "type" : "image/png"
         }
      },
      {
         "when_comp_start" : -1,
         "url" : "http://original.testbed.localhost/www.adcash.com/en/imgv5/logo_carousel/logo_ubisoft.png",
         "id" : "r33",
         "comps" : [],
         "download" : {
            "receiveFirst" : 6,
            "len" : 5208,
            "dns" : 0,
            "dnsEnd" : -1,
            "receiveHeadersEnd" : 12,
            "sslEnd" : -1,
            "connectEnd" : 6,
            "connectStart" : 0,
            "id" : "download_22",
            "receivedTime" : "254.104999999981",
            "sslStart" : -1,
            "dnsStart" : -1,
            "receiveLast" : 242.104999999981,
            "s_time" : 158.075999992434,
            "sendEnd" : 6,
            "sendStart" : 6,
            "type" : "image/png"
         }
      },
      {
         "when_comp_start" : -1,
         "url" : "http://original.testbed.localhost/www.adcash.com/en/imgv5/logo_carousel/logo_kromtech.png",
         "id" : "r34",
         "comps" : [],
         "download" : {
            "receiveFirst" : 6,
            "len" : 1446,
            "dns" : 0,
            "dnsEnd" : -1,
            "receiveHeadersEnd" : 13,
            "sslEnd" : -1,
            "connectEnd" : 7,
            "connectStart" : 0,
            "id" : "download_23",
            "receivedTime" : "254.292999976315",
            "sslStart" : -1,
            "dnsStart" : -1,
            "receiveLast" : 241.292999976315,
            "s_time" : 158.230000000913,
            "sendEnd" : 7,
            "sendStart" : 7,
            "type" : "image/png"
         }
      },
      {
         "when_comp_start" : -1,
         "url" : "http://original.testbed.localhost/www.adcash.com/en/imgv5/home_animated/home_advertisers_4.svg",
         "id" : "r35",
         "comps" : [],
         "download" : {
            "receiveFirst" : 6,
            "len" : 394,
            "dns" : 0,
            "dnsEnd" : -1,
            "receiveHeadersEnd" : 13,
            "sslEnd" : -1,
            "connectEnd" : 7,
            "connectStart" : 0,
            "id" : "download_24",
            "receivedTime" : "254.409999994095",
            "sslStart" : -1,
            "dnsStart" : -1,
            "receiveLast" : 241.409999994095,
            "s_time" : 158.394999976736,
            "sendEnd" : 7,
            "sendStart" : 7,
            "type" : "image/svg+xml"
         }
      },
      {
         "when_comp_start" : -1,
         "url" : "http://original.testbed.localhost/www.adcash.com/en/imgv5/home_animated/home_advertisers_3.svg",
         "id" : "r36",
         "comps" : [],
         "download" : {
            "receiveFirst" : 4,
            "len" : 33727,
            "dns" : 0,
            "dnsEnd" : -1,
            "receiveHeadersEnd" : 15,
            "sslEnd" : -1,
            "connectEnd" : 11,
            "connectStart" : 0,
            "id" : "download_25",
            "receivedTime" : "262.37900002161",
            "sslStart" : -1,
            "dnsStart" : -1,
            "receiveLast" : 247.37900002161,
            "s_time" : 158.724999986589,
            "sendEnd" : 11,
            "sendStart" : 11,
            "type" : "image/svg+xml"
         }
      },
      {
         "when_comp_start" : -1,
         "url" : "http://original.testbed.localhost/www.adcash.com/en/imgv5/home_animated/home_advertisers_1.svg",
         "id" : "r37",
         "comps" : [],
         "download" : {
            "receiveFirst" : 5,
            "len" : 1796,
            "dns" : 0,
            "dnsEnd" : -1,
            "receiveHeadersEnd" : 10,
            "sslEnd" : -1,
            "connectEnd" : 5,
            "connectStart" : 0,
            "id" : "download_26",
            "receivedTime" : "258.2200000179",
            "sslStart" : -1,
            "dnsStart" : -1,
            "receiveLast" : 248.2200000179,
            "s_time" : 164.578000025358,
            "sendEnd" : 5,
            "sendStart" : 5,
            "type" : "image/svg+xml"
         }
      },
      {
         "when_comp_start" : -1,
         "url" : "http://original.testbed.localhost/www.adcash.com/en/imgv5/home_animated/home_advertisers_2.svg",
         "id" : "r38",
         "comps" : [],
         "download" : {
            "receiveFirst" : 5,
            "len" : 39499,
            "dns" : 0,
            "dnsEnd" : -1,
            "receiveHeadersEnd" : 10,
            "sslEnd" : -1,
            "connectEnd" : 5,
            "connectStart" : 0,
            "id" : "download_27",
            "receivedTime" : "277.760999975726",
            "sslStart" : -1,
            "dnsStart" : -1,
            "receiveLast" : 267.760999975726,
            "s_time" : 165.34100001445,
            "sendEnd" : 5,
            "sendStart" : 5,
            "type" : "image/svg+xml"
         }
      },
      {
         "when_comp_start" : -1,
         "url" : "http://original.testbed.localhost/www.adcash.com/en/imgv5/back_to_top.png",
         "id" : "r39",
         "comps" : [],
         "download" : {
            "receiveFirst" : 5,
            "len" : 218,
            "dns" : 0,
            "dnsEnd" : -1,
            "receiveHeadersEnd" : 11,
            "sslEnd" : -1,
            "connectEnd" : 6,
            "connectStart" : 0,
            "id" : "download_28",
            "receivedTime" : "261.775999970268",
            "sslStart" : -1,
            "dnsStart" : -1,
            "receiveLast" : 250.775999970268,
            "s_time" : 165.666999993846,
            "sendEnd" : 6,
            "sendStart" : 6,
            "type" : "image/png"
         }
      },
      {
         "when_comp_start" : -1,
         "url" : "http://original.testbed.localhost/www.adcash.com/en/imgv5/home_animated/home_publishers_4.png",
         "id" : "r40",
         "comps" : [],
         "download" : {
            "receiveFirst" : 5,
            "len" : 10865,
            "dns" : 0,
            "dnsEnd" : -1,
            "receiveHeadersEnd" : 8,
            "sslEnd" : -1,
            "connectEnd" : 3,
            "connectStart" : 0,
            "id" : "download_29",
            "receivedTime" : "262.043000024278",
            "sslStart" : -1,
            "dnsStart" : -1,
            "receiveLast" : 254.043000024278,
            "s_time" : 169.172000023536,
            "sendEnd" : 3,
            "sendStart" : 3,
            "type" : "image/png"
         }
      },
      {
         "when_comp_start" : -1,
         "url" : "http://original.testbed.localhost/www.adcash.com/en/imgv5/home_animated/home_publishers_3.png",
         "id" : "r41",
         "comps" : [],
         "download" : {
            "receiveFirst" : 6,
            "len" : 8404,
            "dns" : 0,
            "dnsEnd" : -1,
            "receiveHeadersEnd" : 8,
            "sslEnd" : -1,
            "connectEnd" : 2,
            "connectStart" : 0,
            "id" : "download_30",
            "receivedTime" : "262.287999968976",
            "sslStart" : -1,
            "dnsStart" : -1,
            "receiveLast" : 254.287999968976,
            "s_time" : 169.716999982484,
            "sendEnd" : 2,
            "sendStart" : 2,
            "type" : "image/png"
         }
      },
      {
         "when_comp_start" : -1,
         "url" : "http://original.testbed.localhost/www.adcash.com/en/imgv5/home_animated/home_publishers_2.png",
         "id" : "r42",
         "comps" : [],
         "download" : {
            "receiveFirst" : 6,
            "len" : 4976,
            "dns" : 0,
            "dnsEnd" : -1,
            "receiveHeadersEnd" : 11,
            "sslEnd" : -1,
            "connectEnd" : 5,
            "connectStart" : 0,
            "id" : "download_31",
            "receivedTime" : "273.994999995921",
            "sslStart" : -1,
            "dnsStart" : -1,
            "receiveLast" : 262.994999995921,
            "s_time" : 170.396999979857,
            "sendEnd" : 5,
            "sendStart" : 5,
            "type" : "image/png"
         }
      },
      {
         "when_comp_start" : -1,
         "url" : "http://original.testbed.localhost/www.adcash.com/en/imgv5/home_animated/home_publishers_1.png",
         "id" : "r43",
         "comps" : [],
         "download" : {
            "receiveFirst" : 5,
            "len" : 14467,
            "dns" : 0,
            "dnsEnd" : -1,
            "receiveHeadersEnd" : 11,
            "sslEnd" : -1,
            "connectEnd" : 6,
            "connectStart" : 0,
            "id" : "download_32",
            "receivedTime" : "274.257000011858",
            "sslStart" : -1,
            "dnsStart" : -1,
            "receiveLast" : 263.257000011858,
            "s_time" : 171.257000009064,
            "sendEnd" : 6,
            "sendStart" : 6,
            "type" : "image/png"
         }
      },
      {
         "when_comp_start" : -1,
         "url" : "http://original.testbed.localhost/www.adcash.com/en/imgv5/home_facts/facts_dynamic.svg",
         "id" : "r44",
         "comps" : [],
         "download" : {
            "receiveFirst" : 6,
            "len" : 3536,
            "dns" : 0,
            "dnsEnd" : -1,
            "receiveHeadersEnd" : 12,
            "sslEnd" : -1,
            "connectEnd" : 6,
            "connectStart" : 0,
            "id" : "download_33",
            "receivedTime" : "274.54100002069",
            "sslStart" : -1,
            "dnsStart" : -1,
            "receiveLast" : 262.54100002069,
            "s_time" : 171.911999990698,
            "sendEnd" : 6,
            "sendStart" : 6,
            "type" : "image/svg+xml"
         }
      },
      {
         "when_comp_start" : -1,
         "url" : "http://original.testbed.localhost/www.adcash.com/en/imgv5/home_facts/facts_predictive.svg",
         "id" : "r45",
         "comps" : [],
         "download" : {
            "receiveFirst" : 6,
            "len" : 3930,
            "dns" : 0,
            "dnsEnd" : -1,
            "receiveHeadersEnd" : 12,
            "sslEnd" : -1,
            "connectEnd" : 6,
            "connectStart" : 0,
            "id" : "download_34",
            "receivedTime" : "283.264999976382",
            "sslStart" : -1,
            "dnsStart" : -1,
            "receiveLast" : 271.264999976382,
            "s_time" : 172.25399997551,
            "sendEnd" : 6,
            "sendStart" : 6,
            "type" : "image/svg+xml"
         }
      },
      {
         "when_comp_start" : -1,
         "url" : "http://original.testbed.localhost/www.adcash.com/en/imgv5/home_facts/facts_advanced.svg",
         "id" : "r46",
         "comps" : [],
         "download" : {
            "receiveFirst" : 6,
            "len" : 2421,
            "dns" : 0,
            "dnsEnd" : -1,
            "receiveHeadersEnd" : 10,
            "sslEnd" : -1,
            "connectEnd" : 4,
            "connectStart" : 0,
            "id" : "download_35",
            "receivedTime" : "287.401999987196",
            "sslStart" : -1,
            "dnsStart" : -1,
            "receiveLast" : 277.401999987196,
            "s_time" : 175.881000002846,
            "sendEnd" : 4,
            "sendStart" : 4,
            "type" : "image/svg+xml"
         }
      },
      {
         "when_comp_start" : -1,
         "url" : "http://original.testbed.localhost/www.adcash.com/en/imgv5/home_facts/fact_global.svg",
         "id" : "r47",
         "comps" : [],
         "download" : {
            "receiveFirst" : 4,
            "len" : 2458,
            "dns" : 0,
            "dnsEnd" : -1,
            "receiveHeadersEnd" : 9,
            "sslEnd" : -1,
            "connectEnd" : 5,
            "connectStart" : 0,
            "id" : "download_36",
            "receivedTime" : "291.086999990512",
            "sslStart" : -1,
            "dnsStart" : -1,
            "receiveLast" : 282.086999990512,
            "s_time" : 177.230999979656,
            "sendEnd" : 5,
            "sendStart" : 5,
            "type" : "image/svg+xml"
         }
      },
      {
         "when_comp_start" : -1,
         "url" : "http://original.testbed.localhost/www.adcash.com/en/imgv5/home_facts/fact_ads.svg",
         "id" : "r48",
         "comps" : [],
         "download" : {
            "receiveFirst" : 5,
            "len" : 973,
            "dns" : 0,
            "dnsEnd" : -1,
            "receiveHeadersEnd" : 10,
            "sslEnd" : -1,
            "connectEnd" : 5,
            "connectStart" : 0,
            "id" : "download_37",
            "receivedTime" : "294.299000001047",
            "sslStart" : -1,
            "dnsStart" : -1,
            "receiveLast" : 284.299000001047,
            "s_time" : 177.986999973655,
            "sendEnd" : 5,
            "sendStart" : 5,
            "type" : "image/svg+xml"
         }
      },
      {
         "when_comp_start" : -1,
         "url" : "http://original.testbed.localhost/www.adcash.com/en/imgv5/home_facts/fact_premium.svg",
         "id" : "r49",
         "comps" : [],
         "download" : {
            "receiveFirst" : 4,
            "len" : 787,
            "dns" : 0,
            "dnsEnd" : -1,
            "receiveHeadersEnd" : 10,
            "sslEnd" : -1,
            "connectEnd" : 6,
            "connectStart" : 0,
            "id" : "download_38",
            "receivedTime" : "297.391999978572",
            "sslStart" : -1,
            "dnsStart" : -1,
            "receiveLast" : 287.391999978572,
            "s_time" : 178.80100000184,
            "sendEnd" : 6,
            "sendStart" : 6,
            "type" : "image/svg+xml"
         }
      },
      {
         "when_comp_start" : -1,
         "url" : "http://original.testbed.localhost/www.adcash.com/en/imgv5/home_facts/fact_campaigns.svg",
         "id" : "r50",
         "comps" : [],
         "download" : {
            "receiveFirst" : 5,
            "len" : 1207,
            "dns" : 0,
            "dnsEnd" : -1,
            "receiveHeadersEnd" : 10,
            "sslEnd" : -1,
            "connectEnd" : 5,
            "connectStart" : 0,
            "id" : "download_39",
            "receivedTime" : "303.569999989122",
            "sslStart" : -1,
            "dnsStart" : -1,
            "receiveLast" : 293.569999989122,
            "s_time" : 180.143999983557,
            "sendEnd" : 5,
            "sendStart" : 5,
            "type" : "image/svg+xml"
         }
      },
      {
         "when_comp_start" : -1,
         "url" : "http://original.testbed.localhost/www.adcash.com/en/imgv5/home_facts/fact_team.svg",
         "id" : "r51",
         "comps" : [],
         "download" : {
            "receiveFirst" : 5,
            "len" : 1910,
            "dns" : 0,
            "dnsEnd" : -1,
            "receiveHeadersEnd" : 8,
            "sslEnd" : -1,
            "connectEnd" : 3,
            "connectStart" : 0,
            "id" : "download_40",
            "receivedTime" : "306.363000010606",
            "sslStart" : -1,
            "dnsStart" : -1,
            "receiveLast" : 298.363000010606,
            "s_time" : 182.165000005625,
            "sendEnd" : 3,
            "sendStart" : 3,
            "type" : "image/svg+xml"
         }
      },
      {
         "when_comp_start" : -1,
         "url" : "http://original.testbed.localhost/www.adcash.com/en/imgv5/adcash_logo_w.svg",
         "id" : "r52",
         "comps" : [],
         "download" : {
            "receiveFirst" : 4,
            "len" : 3311,
            "dns" : 0,
            "dnsEnd" : -1,
            "receiveHeadersEnd" : 7,
            "sslEnd" : -1,
            "connectEnd" : 3,
            "connectStart" : 0,
            "id" : "download_41",
            "receivedTime" : "310.356999980286",
            "sslStart" : -1,
            "dnsStart" : -1,
            "receiveLast" : 303.356999980286,
            "s_time" : 183.362999989185,
            "sendEnd" : 3,
            "sendStart" : 3,
            "type" : "image/svg+xml"
         }
      },
      {
         "when_comp_start" : -1,
         "url" : "http://original.testbed.localhost/www.adcash.com/en/imgv5/social_icons/social_1.png",
         "id" : "r53",
         "comps" : [],
         "download" : {
            "receiveFirst" : 5,
            "len" : 230,
            "dns" : 0,
            "dnsEnd" : -1,
            "receiveHeadersEnd" : 7,
            "sslEnd" : -1,
            "connectEnd" : 2,
            "connectStart" : 0,
            "id" : "download_42",
            "receivedTime" : "315.722999977879",
            "sslStart" : -1,
            "dnsStart" : -1,
            "receiveLast" : 308.722999977879,
            "s_time" : 184.598999971058,
            "sendEnd" : 2,
            "sendStart" : 2,
            "type" : "image/png"
         }
      },
      {
         "when_comp_start" : -1,
         "url" : "http://original.testbed.localhost/www.adcash.com/en/imgv5/social_icons/social_2.png",
         "id" : "r54",
         "comps" : [],
         "download" : {
            "receiveFirst" : 4,
            "len" : 331,
            "dns" : 0,
            "dnsEnd" : -1,
            "receiveHeadersEnd" : 7,
            "sslEnd" : -1,
            "connectEnd" : 3,
            "connectStart" : 0,
            "id" : "download_43",
            "receivedTime" : "315.951999975368",
            "sslStart" : -1,
            "dnsStart" : -1,
            "receiveLast" : 308.951999975368,
            "s_time" : 185.158999986015,
            "sendEnd" : 3,
            "sendStart" : 3,
            "type" : "image/png"
         }
      },
      {
         "when_comp_start" : -1,
         "url" : "http://original.testbed.localhost/www.adcash.com/en/imgv5/social_icons/social_3.png",
         "id" : "r55",
         "comps" : [],
         "download" : {
            "receiveFirst" : 5,
            "len" : 267,
            "dns" : 0,
            "dnsEnd" : -1,
            "receiveHeadersEnd" : 9,
            "sslEnd" : -1,
            "connectEnd" : 4,
            "connectStart" : 0,
            "id" : "download_44",
            "receivedTime" : "316.140000009909",
            "sslStart" : -1,
            "dnsStart" : -1,
            "receiveLast" : 307.140000009909,
            "s_time" : 185.478999977931,
            "sendEnd" : 4,
            "sendStart" : 4,
            "type" : "image/png"
         }
      },
      {
         "when_comp_start" : -1,
         "url" : "http://original.testbed.localhost/www.adcash.com/en/imgv5/social_icons/social_4.png",
         "id" : "r56",
         "comps" : [],
         "download" : {
            "receiveFirst" : 4,
            "len" : 424,
            "dns" : 0,
            "dnsEnd" : -1,
            "receiveHeadersEnd" : 8,
            "sslEnd" : -1,
            "connectEnd" : 4,
            "connectStart" : 0,
            "id" : "download_45",
            "receivedTime" : "316.330000001471",
            "sslStart" : -1,
            "dnsStart" : -1,
            "receiveLast" : 308.330000001471,
            "s_time" : 186.341999971773,
            "sendEnd" : 4,
            "sendStart" : 4,
            "type" : "image/png"
         }
      },
      {
         "when_comp_start" : -1,
         "url" : "http://original.testbed.localhost/www.adcash.com/imgv5/geo.png",
         "id" : "r68",
         "comps" : [],
         "download" : {
            "receiveFirst" : 5,
            "len" : 141572,
            "dns" : 0,
            "dnsEnd" : -1,
            "receiveHeadersEnd" : 5,
            "sslEnd" : -1,
            "connectEnd" : 0,
            "connectStart" : 0,
            "id" : "download_46",
            "receivedTime" : "437.297000025865",
            "sslStart" : -1,
            "dnsStart" : -1,
            "receiveLast" : 432.297000025865,
            "s_time" : 316.776000021491,
            "sendEnd" : 0,
            "sendStart" : 0,
            "type" : "image/png"
         }
      },
      {
         "when_comp_start" : -1,
         "url" : "http://original.testbed.localhost/www.adcash.com/imgv5/intro_background.jpg",
         "id" : "r69",
         "comps" : [],
         "download" : {
            "receiveFirst" : 4,
            "len" : 274210,
            "dns" : 0,
            "dnsEnd" : -1,
            "receiveHeadersEnd" : 4,
            "sslEnd" : -1,
            "connectEnd" : 0,
            "connectStart" : 0,
            "id" : "download_47",
            "receivedTime" : "439.113000000361",
            "sslStart" : -1,
            "dnsStart" : -1,
            "receiveLast" : 435.113000000361,
            "s_time" : 319.445999979507,
            "sendEnd" : 0,
            "sendStart" : 0,
            "type" : "image/jpeg"
         }
      },
      {
         "when_comp_start" : -1,
         "url" : "http://www.google-analytics.com/analytics.js",
         "id" : "r70",
         "comps" : [
            {
               "s_time" : 563.91700002132,
               "time" : 51.7319999635221,
               "type" : null,
               "id" : "comp_207",
               "e_time" : 615.648999984842
            }
         ],
         "download" : {
            "receiveFirst" : 8,
            "len" : 25252,
            "dns" : 8,
            "dnsEnd" : 9,
            "receiveHeadersEnd" : 27,
            "sslEnd" : -1,
            "connectEnd" : 19,
            "connectStart" : 0,
            "id" : "download_48",
            "receivedTime" : "563.573999970686",
            "sslStart" : -1,
            "dnsStart" : 1,
            "receiveLast" : 536.573999970686,
            "s_time" : 396.551000012551,
            "sendEnd" : 19,
            "sendStart" : 19,
            "type" : "text/javascript"
         }
      },
      {
         "when_comp_start" : -1,
         "url" : "http://fonts.gstatic.com/s/opensans/v13/k3k702ZOKiLJc3WVjuplzBsxEYwM7FgeyaSgU71cLG0.woff",
         "id" : "r65",
         "comps" : [],
         "download" : {
            "receiveFirst" : 17,
            "len" : 98780,
            "dns" : 8,
            "dnsEnd" : 10,
            "receiveHeadersEnd" : 42,
            "sslEnd" : -1,
            "connectEnd" : 25,
            "connectStart" : 0,
            "id" : "download_49",
            "receivedTime" : "715.873999986798",
            "sslStart" : -1,
            "dnsStart" : 2,
            "receiveLast" : 673.873999986798,
            "s_time" : 469.64600001229,
            "sendEnd" : 25,
            "sendStart" : 25,
            "type" : "font/woff"
         }
      },
      {
         "when_comp_start" : -1,
         "url" : "http://fonts.gstatic.com/s/opensans/v13/DXI1ORHCpsQm3Vp6mXoaTRsxEYwM7FgeyaSgU71cLG0.woff",
         "id" : "r63",
         "comps" : [],
         "download" : {
            "receiveFirst" : 17,
            "len" : 97924,
            "dns" : 9,
            "dnsEnd" : 10,
            "receiveHeadersEnd" : 42,
            "sslEnd" : -1,
            "connectEnd" : 25,
            "connectStart" : 0,
            "id" : "download_50",
            "receivedTime" : "713.422000000719",
            "sslStart" : -1,
            "dnsStart" : 1,
            "receiveLast" : 671.422000000719,
            "s_time" : 469.796999997925,
            "sendEnd" : 25,
            "sendStart" : 25,
            "type" : "font/woff"
         }
      },
      {
         "when_comp_start" : -1,
         "url" : "http://fonts.gstatic.com/s/lato/v11/I1Pn3gihk5vyP0Yw5GqKsQ.woff",
         "id" : "r60",
         "comps" : [],
         "download" : {
            "receiveFirst" : 18,
            "len" : 39316,
            "dns" : 8,
            "dnsEnd" : 9,
            "receiveHeadersEnd" : 43,
            "sslEnd" : -1,
            "connectEnd" : 25,
            "connectStart" : 0,
            "id" : "download_51",
            "receivedTime" : "699.261999980081",
            "sslStart" : -1,
            "dnsStart" : 1,
            "receiveLast" : 656.261999980081,
            "s_time" : 470.115999982227,
            "sendEnd" : 25,
            "sendStart" : 25,
            "type" : "font/woff"
         }
      },
      {
         "when_comp_start" : -1,
         "url" : "http://fonts.gstatic.com/s/opensans/v13/uYKcPVoh6c5R0NpdEY5A-Q.woff",
         "id" : "r64",
         "comps" : [],
         "download" : {
            "receiveFirst" : 20,
            "len" : 96116,
            "dns" : 9,
            "dnsEnd" : 11,
            "receiveHeadersEnd" : 45,
            "sslEnd" : -1,
            "connectEnd" : 25,
            "connectStart" : 0,
            "id" : "download_52",
            "receivedTime" : "719.014999980573",
            "sslStart" : -1,
            "dnsStart" : 2,
            "receiveLast" : 674.014999980573,
            "s_time" : 469.447000010405,
            "sendEnd" : 25,
            "sendStart" : 25,
            "type" : "font/woff"
         }
      },
      {
         "when_comp_start" : -1,
         "url" : "http://fonts.gstatic.com/s/lato/v11/1bHRUMxmJHoup12DnI9XmQ.woff",
         "id" : "r59",
         "comps" : [],
         "download" : {
            "receiveFirst" : 20,
            "len" : 39188,
            "dns" : 9,
            "dnsEnd" : 10,
            "receiveHeadersEnd" : 45,
            "sslEnd" : -1,
            "connectEnd" : 25,
            "connectStart" : 0,
            "id" : "download_53",
            "receivedTime" : "707.866000011563",
            "sslStart" : -1,
            "dnsStart" : 1,
            "receiveLast" : 662.866000011563,
            "s_time" : 469.961999973748,
            "sendEnd" : 25,
            "sendStart" : 25,
            "type" : "font/woff"
         }
      },
      {
         "when_comp_start" : -1,
         "url" : "http://fonts.gstatic.com/s/lato/v11/G-cgiyv4b0HVLV2M8HoP9A.woff",
         "id" : "r61",
         "comps" : [],
         "download" : {
            "receiveFirst" : 22,
            "len" : 39936,
            "dns" : 8,
            "dnsEnd" : 9,
            "receiveHeadersEnd" : 46,
            "sslEnd" : -1,
            "connectEnd" : 24,
            "connectStart" : 0,
            "id" : "download_54",
            "receivedTime" : "710.220000008121",
            "sslStart" : -1,
            "dnsStart" : 1,
            "receiveLast" : 664.220000008121,
            "s_time" : 470.292999991216,
            "sendEnd" : 24,
            "sendStart" : 24,
            "type" : "font/woff"
         }
      },
      {
         "when_comp_start" : -1,
         "url" : "http://fonts.gstatic.com/s/lato/v11/AcvTq8Q0lyKKNxRlL28Rnz8E0i7KZn-EPnyo3HZu7kw.woff",
         "id" : "r62",
         "comps" : [],
         "download" : {
            "receiveFirst" : 22,
            "len" : 40096,
            "dns" : 0,
            "dnsEnd" : -1,
            "receiveHeadersEnd" : 81,
            "sslEnd" : -1,
            "connectEnd" : 59,
            "connectStart" : 0,
            "id" : "download_55",
            "receivedTime" : "722.057999984827",
            "sslStart" : -1,
            "dnsStart" : -1,
            "receiveLast" : 641.057999984827,
            "s_time" : 470.448000007309,
            "sendEnd" : 59,
            "sendStart" : 59,
            "type" : "font/woff"
         }
      },
      {
         "when_comp_start" : -1,
         "url" : "http://www.google-analytics.com/collect?v=1&_v=j38&a=1989083534&t=pageview&_s=1&dl=http%3A%2F%2Foriginal.testbed.localhost%2Fwww.adcash.com%2F&ul=en-us&de=UTF-8&dt=Adcash%20%7C%20International%20Advertising%20Network%20%26%20Technology&sd=24-bit&sr=1024x768&vp=1009x714&je=1&_u=AGAAgEQ~&jid=145272024",
         "id" : "r75",
         "comps" : [],
         "download" : {
            "receiveFirst" : 8,
            "len" : 35,
            "dns" : 0,
            "dnsEnd" : -1,
            "receiveHeadersEnd" : 8,
            "sslEnd" : -1,
            "connectEnd" : 0,
            "connectStart" : 0,
            "id" : "download_56",
            "receivedTime" : "814.194999984466",
            "sslStart" : -1,
            "dnsStart" : -1,
            "receiveLast" : 806.194999984466,
            "s_time" : 615.004000021145,
            "sendEnd" : 0,
            "sendStart" : 0,
            "type" : "image/gif"
         }
      },
      {
         "when_comp_start" : -1,
         "url" : "http://static.hotjar.com/c/hotjar-29845.js?sv=3",
         "id" : "r71",
         "comps" : [
            {
               "s_time" : 979.938999982551,
               "time" : 32.566000008959,
               "type" : null,
               "id" : "comp_221",
               "e_time" : 1012.50499999151
            }
         ],
         "download" : {
            "receiveFirst" : 226,
            "len" : 167090,
            "dns" : 9,
            "dnsEnd" : 9,
            "receiveHeadersEnd" : 251,
            "sslEnd" : -1,
            "connectEnd" : 25,
            "connectStart" : 0,
            "id" : "download_57",
            "receivedTime" : "815.311999991536",
            "sslStart" : -1,
            "dnsStart" : 0,
            "receiveLast" : 564.311999991536,
            "s_time" : 397.171000018716,
            "sendEnd" : 25,
            "sendStart" : 25,
            "type" : "application/javascript"
         }
      },
      {
         "when_comp_start" : -1,
         "url" : "https://stats.g.doubleclick.net/r/collect?t=dc&aip=1&_r=3&v=1&_v=j38&tid=UA-26904811-1&cid=1084272878.1440812425&jid=1452720247&_u=AGAAgEQ~&z=1389502475",
         "id" : "r76",
         "comps" : [],
         "download" : {
            "receiveFirst" : 24,
            "len" : 35,
            "dns" : 9,
            "dnsEnd" : 9,
            "receiveHeadersEnd" : 86,
            "sslEnd" : 61,
            "connectEnd" : 61,
            "connectStart" : 0,
            "id" : "download_58",
            "receivedTime" : "816.045999992639",
            "sslStart" : 30,
            "dnsStart" : 0,
            "receiveLast" : 730.045999992639,
            "s_time" : 615.443999995477,
            "sendEnd" : 62,
            "sendStart" : 61,
            "type" : "image/gif"
         }
      }
   ],
   "deps" : [
      {
         "a2" : "r1_c2",
         "time" : -1,
         "id" : "dep1",
         "a1" : "comp_56"
      },
      {
         "a2" : "r1_c3",
         "time" : -1,
         "id" : "dep2",
         "a1" : "comp_58"
      },
      {
         "a2" : "comp_58",
         "time" : -1,
         "id" : "dep3",
         "a1" : "comp_56"
      },
      {
         "a2" : "download_58",
         "time" : 51.5269999741571,
         "id" : "dep4",
         "a1" : "comp_207"
      },
      {
         "a2" : "download_57",
         "time" : -1,
         "id" : "dep5",
         "a1" : "r1_c3"
      },
      {
         "a2" : "download_56",
         "time" : 51.086999999825,
         "id" : "dep6",
         "a1" : "comp_207"
      },
      {
         "a2" : "download_55",
         "time" : -1,
         "id" : "dep7",
         "a1" : "r1_c3"
      },
      {
         "a2" : "download_54",
         "time" : 219.333000015468,
         "id" : "dep8",
         "a1" : "r1_c3"
      },
      {
         "a2" : "download_53",
         "time" : 219.001999998,
         "id" : "dep9",
         "a1" : "r1_c3"
      },
      {
         "a2" : "download_52",
         "time" : 218.487000034657,
         "id" : "dep10",
         "a1" : "r1_c3"
      },
      {
         "a2" : "download_51",
         "time" : 219.156000006479,
         "id" : "dep11",
         "a1" : "r1_c3"
      },
      {
         "a2" : "download_50",
         "time" : 218.837000022177,
         "id" : "dep12",
         "a1" : "r1_c3"
      },
      {
         "a2" : "download_49",
         "time" : 218.686000036542,
         "id" : "dep13",
         "a1" : "r1_c3"
      },
      {
         "a2" : "download_48",
         "time" : 145.591000036803,
         "id" : "dep14",
         "a1" : "r1_c3"
      },
      {
         "a2" : "download_47",
         "time" : 68.486000003759,
         "id" : "dep15",
         "a1" : "r1_c3"
      },
      {
         "a2" : "download_46",
         "time" : 65.816000045743,
         "id" : "dep16",
         "a1" : "r1_c3"
      },
      {
         "a2" : "download_45",
         "time" : -1,
         "id" : "dep17",
         "a1" : "r1_c1"
      },
      {
         "a2" : "download_44",
         "time" : 160.930999962147,
         "id" : "dep18",
         "a1" : "r1_c1"
      },
      {
         "a2" : "download_43",
         "time" : 160.610999970231,
         "id" : "dep19",
         "a1" : "r1_c1"
      },
      {
         "a2" : "download_42",
         "time" : 160.050999955274,
         "id" : "dep20",
         "a1" : "r1_c1"
      },
      {
         "a2" : "download_41",
         "time" : 158.814999973401,
         "id" : "dep21",
         "a1" : "r1_c1"
      },
      {
         "a2" : "download_40",
         "time" : 157.616999989841,
         "id" : "dep22",
         "a1" : "r1_c1"
      },
      {
         "a2" : "download_39",
         "time" : 155.595999967773,
         "id" : "dep23",
         "a1" : "r1_c1"
      },
      {
         "a2" : "download_38",
         "time" : 154.252999986056,
         "id" : "dep24",
         "a1" : "r1_c1"
      },
      {
         "a2" : "download_37",
         "time" : 153.438999957871,
         "id" : "dep25",
         "a1" : "r1_c1"
      },
      {
         "a2" : "download_36",
         "time" : 152.682999963872,
         "id" : "dep26",
         "a1" : "r1_c1"
      },
      {
         "a2" : "download_35",
         "time" : 151.332999987062,
         "id" : "dep27",
         "a1" : "r1_c1"
      },
      {
         "a2" : "download_34",
         "time" : 147.705999959726,
         "id" : "dep28",
         "a1" : "r1_c1"
      },
      {
         "a2" : "download_33",
         "time" : 147.363999974914,
         "id" : "dep29",
         "a1" : "r1_c1"
      },
      {
         "a2" : "download_32",
         "time" : 146.70899999328,
         "id" : "dep30",
         "a1" : "r1_c1"
      },
      {
         "a2" : "download_31",
         "time" : 145.848999964073,
         "id" : "dep31",
         "a1" : "r1_c1"
      },
      {
         "a2" : "download_30",
         "time" : 145.1689999667,
         "id" : "dep32",
         "a1" : "r1_c1"
      },
      {
         "a2" : "download_29",
         "time" : 144.624000007752,
         "id" : "dep33",
         "a1" : "r1_c1"
      },
      {
         "a2" : "download_28",
         "time" : 141.118999978062,
         "id" : "dep34",
         "a1" : "r1_c1"
      },
      {
         "a2" : "download_27",
         "time" : 140.792999998666,
         "id" : "dep35",
         "a1" : "r1_c1"
      },
      {
         "a2" : "download_26",
         "time" : 140.030000009574,
         "id" : "dep36",
         "a1" : "r1_c1"
      },
      {
         "a2" : "download_25",
         "time" : 134.176999970805,
         "id" : "dep37",
         "a1" : "r1_c1"
      },
      {
         "a2" : "download_24",
         "time" : 133.846999960952,
         "id" : "dep38",
         "a1" : "r1_c1"
      },
      {
         "a2" : "download_23",
         "time" : 133.681999985129,
         "id" : "dep39",
         "a1" : "r1_c1"
      },
      {
         "a2" : "download_22",
         "time" : 133.52799997665,
         "id" : "dep40",
         "a1" : "r1_c1"
      },
      {
         "a2" : "download_21",
         "time" : 133.224999997765,
         "id" : "dep41",
         "a1" : "r1_c1"
      },
      {
         "a2" : "download_20",
         "time" : 133.367999980692,
         "id" : "dep42",
         "a1" : "r1_c1"
      },
      {
         "a2" : "download_19",
         "time" : 133.07799998438,
         "id" : "dep43",
         "a1" : "r1_c1"
      },
      {
         "a2" : "download_18",
         "time" : 132.928000006359,
         "id" : "dep44",
         "a1" : "r1_c1"
      },
      {
         "a2" : "download_17",
         "time" : 132.77399999788,
         "id" : "dep45",
         "a1" : "r1_c1"
      },
      {
         "a2" : "download_16",
         "time" : 132.622000004631,
         "id" : "dep46",
         "a1" : "r1_c1"
      },
      {
         "a2" : "download_15",
         "time" : 127.207999990787,
         "id" : "dep47",
         "a1" : "r1_c1"
      },
      {
         "a2" : "download_14",
         "time" : 68.3069999795407,
         "id" : "dep48",
         "a1" : "r1_c1"
      },
      {
         "a2" : "download_13",
         "time" : 122.104000009131,
         "id" : "dep49",
         "a1" : "r1_c1"
      },
      {
         "a2" : "download_12",
         "time" : 117.043000005651,
         "id" : "dep50",
         "a1" : "r1_c1"
      },
      {
         "a2" : "download_11",
         "time" : 111.99000000488,
         "id" : "dep51",
         "a1" : "r1_c1"
      },
      {
         "a2" : "download_10",
         "time" : 106.81599995587,
         "id" : "dep52",
         "a1" : "r1_c1"
      },
      {
         "a2" : "download_9",
         "time" : 101.465999963693,
         "id" : "dep53",
         "a1" : "r1_c1"
      },
      {
         "a2" : "download_8",
         "time" : 96.1649999953809,
         "id" : "dep54",
         "a1" : "r1_c1"
      },
      {
         "a2" : "download_7",
         "time" : 85.3699999861419,
         "id" : "dep55",
         "a1" : "r1_c1"
      },
      {
         "a2" : "download_6",
         "time" : 77.6009999681259,
         "id" : "dep56",
         "a1" : "r1_c1"
      },
      {
         "a2" : "download_5",
         "time" : 71.1899999878369,
         "id" : "dep57",
         "a1" : "r1_c1"
      },
      {
         "a2" : "download_5",
         "time" : 71.1899999878369,
         "id" : "dep58",
         "a1" : "r1_c1"
      },
      {
         "a2" : "download_4",
         "time" : 71.0359999793581,
         "id" : "dep59",
         "a1" : "r1_c1"
      },
      {
         "a2" : "download_4",
         "time" : 71.0359999793581,
         "id" : "dep60",
         "a1" : "r1_c1"
      },
      {
         "a2" : "download_3",
         "time" : 68.6969999806024,
         "id" : "dep61",
         "a1" : "r1_c1"
      },
      {
         "a2" : "download_3",
         "time" : 68.6969999806024,
         "id" : "dep62",
         "a1" : "r1_c1"
      },
      {
         "a2" : "download_2",
         "time" : 1.094999955967,
         "id" : "dep63",
         "a1" : "r1_c1"
      },
      {
         "a2" : "download_1",
         "time" : 0.973999965935899,
         "id" : "dep64",
         "a1" : "r1_c1"
      }
   ]
}
