{
   "objs" : [
      {
         "url" : "http://fast.cbsi.demdex.net/dest5.html?d_nsid=0#http%3A%2F%2Foriginal.testbed.localhost%2Fwww.cbs.com%2F",
         "id" : "r242",
         "when_comp_start" : 1,
         "comps" : [
            {
               "s_time" : 114.671000003,
               "id" : "r242_c1",
               "time" : 54.237000003923,
               "e_time" : 168.908000006923,
               "type" : "evalhtml"
            }
         ],
         "download" : {
            "receiveHeadersEnd" : 99,
            "type" : "text/html",
            "receivedTime" : "164.155000005849",
            "connectEnd" : 48,
            "id" : "download_0",
            "dnsStart" : -1,
            "dnsEnd" : -1,
            "sendStart" : 48,
            "dns" : 0,
            "len" : 8929,
            "receiveLast" : 65.1550000058487,
            "s_time" : 0,
            "sslEnd" : -1,
            "sslStart" : -1,
            "sendEnd" : 48,
            "connectStart" : 0,
            "receiveFirst" : 51
         }
      },
      {
         "url" : "http://tags.bluekai.com/site/20214?limit=1&phint=user%3Dtrue",
         "id" : "r240",
         "when_comp_start" : -1,
         "comps" : [],
         "download" : {
            "connectEnd" : 50,
            "id" : "download_1",
            "dnsEnd" : -1,
            "dnsStart" : -1,
            "sendStart" : 50,
            "receiveHeadersEnd" : 120,
            "type" : "image/gif",
            "receivedTime" : "126.336000001174",
            "sslStart" : -1,
            "sendEnd" : 50,
            "connectStart" : 0,
            "receiveFirst" : 70,
            "dns" : 0,
            "len" : 62,
            "receiveLast" : 6.3360000011744,
            "s_time" : -4.60699999530334,
            "sslEnd" : -1
         }
      },
      {
         "comps" : [
            {
               "type" : "evalhtml",
               "time" : 4.572999998345,
               "e_time" : 118.410000010044,
               "id" : "_c1",
               "s_time" : 113.837000011699
            }
         ]
      }
   ],
   "n_download_no_trigger" : 2,
   "start_activity" : "download_0",
   "load_activity" : -1,
   "name" : "fast.cbsi.demdex.net_dest5.html?d_nsid=0#http%3A%2F%2Foriginal.testbed.localhost%2Fwww.cbs.com%2F",
   "deps" : []
}
