{
   "n_download_no_trigger" : 1,
   "start_activity" : "download_0",
   "name" : "original.testbed.localhost_www.fc2.com_",
   "load_activity" : -1,
   "objs" : [
      {
         "when_comp_start" : 1,
         "url" : "http://original.testbed.localhost/www.fc2.com/",
         "id" : "r1",
         "comps" : [
            {
               "s_time" : 69.1500001121312,
               "time" : 31.2689999118448,
               "id" : "r1_c1",
               "type" : "evalhtml",
               "e_time" : 100.419000023976
            },
            {
               "s_time" : 520.60000016354,
               "time" : -1071141333.943,
               "id" : "r1_c2",
               "type" : "evalhtml",
               "e_time" : -1071140813.343
            },
            {
               "s_time" : 521.849000127986,
               "time" : -1071141335.192,
               "id" : "r1_c3",
               "type" : "evalhtml",
               "e_time" : -1071140813.343
            },
            {
               "s_time" : 524.429000215605,
               "time" : -1071141337.772,
               "id" : "r1_c4",
               "type" : "evalhtml",
               "e_time" : -1071140813.343
            },
            {
               "s_time" : 525.09200014174,
               "time" : 2.19099991954806,
               "id" : "r1_c5",
               "type" : "evalhtml",
               "e_time" : 527.283000061288
            },
            {
               "s_time" : 527.401000028476,
               "time" : -1071141340.744,
               "id" : "r1_c6",
               "type" : "evalhtml",
               "e_time" : -1071140813.343
            },
            {
               "s_time" : 528.464000206441,
               "time" : 17.85899978131,
               "id" : "r1_c7",
               "type" : "evalhtml",
               "e_time" : 546.322999987751
            },
            {
               "s_time" : 550.492000067607,
               "time" : 1113.62399999052,
               "id" : "r1_c8",
               "type" : "evalhtml",
               "e_time" : 1664.11600005813
            },
            {
               "s_time" : 1666.2789999973,
               "time" : 1960.11800016277,
               "type" : "evalhtml",
               "id" : "r1_c9",
               "e_time" : 3626.39700016007
            }
         ],
         "download" : {
            "receiveFirst" : 52,
            "len" : 35673,
            "dns" : 0,
            "dnsEnd" : -1,
            "receiveHeadersEnd" : 52,
            "sslEnd" : -1,
            "connectEnd" : 0,
            "connectStart" : 0,
            "id" : "download_0",
            "receivedTime" : "99.8670000117272",
            "sslStart" : -1,
            "dnsStart" : -1,
            "receiveLast" : 47.8670000117272,
            "s_time" : 0,
            "sendEnd" : 0,
            "sendStart" : 0,
            "type" : "text/html"
         }
      },
      {
         "when_comp_start" : -1,
         "url" : "http://original.testbed.localhost/static.fc2.com/share/css/common.css",
         "id" : "r2",
         "comps" : [
            {
               "s_time" : 215.295000001788,
               "time" : 0.223000068217999,
               "type" : 4,
               "id" : "comp_2",
               "e_time" : 215.518000070006
            }
         ],
         "download" : {
            "receiveFirst" : 51,
            "len" : 1852,
            "dns" : 0,
            "dnsEnd" : -1,
            "receiveHeadersEnd" : 144,
            "sslEnd" : -1,
            "connectEnd" : 93,
            "connectStart" : 0,
            "id" : "download_1",
            "receivedTime" : "215.19700018689",
            "sslStart" : -1,
            "dnsStart" : -1,
            "receiveLast" : 71.1970001868904,
            "s_time" : 69.7840000502765,
            "sendEnd" : 93,
            "sendStart" : 93,
            "type" : "text/css"
         }
      },
      {
         "when_comp_start" : -1,
         "url" : "http://original.testbed.localhost/static.fc2.com/share/fc2parts/css/share.css",
         "id" : "r3",
         "comps" : [
            {
               "s_time" : 236.159000080079,
               "time" : 1.56200001947599,
               "type" : 4,
               "id" : "comp_3",
               "e_time" : 237.721000099555
            }
         ],
         "download" : {
            "receiveFirst" : 52,
            "len" : 18123,
            "dns" : 0,
            "dnsEnd" : -1,
            "receiveHeadersEnd" : 145,
            "sslEnd" : -1,
            "connectEnd" : 93,
            "connectStart" : 0,
            "id" : "download_2",
            "receivedTime" : "236.075000138953",
            "sslStart" : -1,
            "dnsStart" : -1,
            "receiveLast" : 91.0750001389533,
            "s_time" : 69.9040000326931,
            "sendEnd" : 93,
            "sendStart" : 93,
            "type" : "text/css"
         }
      },
      {
         "when_comp_start" : -1,
         "url" : "http://original.testbed.localhost/static.fc2.com/fc2com/js/tab_panel.js",
         "id" : "r6",
         "comps" : [
            {
               "s_time" : 520.754000172019,
               "time" : 1.09499995596695,
               "type" : 1,
               "id" : "comp_8",
               "e_time" : 521.849000127986
            }
         ],
         "download" : {
            "receiveFirst" : 80,
            "len" : 439,
            "dns" : 0,
            "dnsEnd" : -1,
            "receiveHeadersEnd" : 174,
            "sslEnd" : -1,
            "connectEnd" : 93,
            "connectStart" : 0,
            "id" : "download_3",
            "receivedTime" : "245.758000062779",
            "sslStart" : -1,
            "dnsStart" : -1,
            "receiveLast" : 71.7580000627786,
            "s_time" : 70.268000010401,
            "sendEnd" : 94,
            "sendStart" : 93,
            "type" : "application/javascript"
         }
      },
      {
         "when_comp_start" : -1,
         "url" : "http://original.testbed.localhost/static.fc2.com/fc2com/css/fc2com_default_140313.css",
         "id" : "r4",
         "comps" : [
            {
               "s_time" : 298.720000078902,
               "time" : 4.59500006400003,
               "type" : 4,
               "id" : "comp_4",
               "e_time" : 303.315000142902
            }
         ],
         "download" : {
            "receiveFirst" : 87,
            "len" : 22324,
            "dns" : 0,
            "dnsEnd" : -1,
            "receiveHeadersEnd" : 180,
            "sslEnd" : -1,
            "connectEnd" : 93,
            "connectStart" : 0,
            "id" : "download_4",
            "receivedTime" : "298.593000043184",
            "sslStart" : -1,
            "dnsStart" : -1,
            "receiveLast" : 118.593000043184,
            "s_time" : 70.0280000455678,
            "sendEnd" : 93,
            "sendStart" : 93,
            "type" : "text/css"
         }
      },
      {
         "when_comp_start" : -1,
         "url" : "http://original.testbed.localhost/static.fc2.com/fc2com/js/jquery-1.2.6.min.js",
         "id" : "r5",
         "comps" : [
            {
               "s_time" : 507.635000161827,
               "time" : 12.965000001713,
               "type" : 1,
               "id" : "comp_7",
               "e_time" : 520.60000016354
            }
         ],
         "download" : {
            "receiveFirst" : 136,
            "len" : 55774,
            "dns" : 0,
            "dnsEnd" : -1,
            "receiveHeadersEnd" : 229,
            "sslEnd" : -1,
            "connectEnd" : 93,
            "connectStart" : 0,
            "id" : "download_5",
            "receivedTime" : "507.41000007838",
            "sslStart" : -1,
            "dnsStart" : -1,
            "receiveLast" : 278.41000007838,
            "s_time" : 70.187000092119,
            "sendEnd" : 93,
            "sendStart" : 93,
            "type" : "application/javascript"
         }
      },
      {
         "when_comp_start" : -1,
         "url" : "http://original.testbed.localhost/static.fc2.com/share/fc2parts/js/common_design.js",
         "id" : "r7",
         "comps" : [
            {
               "s_time" : 521.930000046268,
               "time" : 2.49900016933702,
               "type" : 1,
               "id" : "comp_10",
               "e_time" : 524.429000215605
            }
         ],
         "download" : {
            "receiveFirst" : 258,
            "len" : 3330,
            "dns" : 0,
            "dnsEnd" : -1,
            "receiveHeadersEnd" : 351,
            "sslEnd" : -1,
            "connectEnd" : 93,
            "connectStart" : 0,
            "id" : "download_6",
            "receivedTime" : "434.010000200942",
            "sslStart" : -1,
            "dnsStart" : -1,
            "receiveLast" : 83.0100002009422,
            "s_time" : 70.3420001082122,
            "sendEnd" : 93,
            "sendStart" : 93,
            "type" : "application/javascript"
         }
      },
      {
         "when_comp_start" : -1,
         "url" : "http://original.testbed.localhost/static.fc2.com/fc2com/css/sp.css",
         "id" : "r9",
         "comps" : [
            {
               "s_time" : 445.459000067785,
               "time" : 0.00500003807303528,
               "type" : 4,
               "id" : "comp_6",
               "e_time" : 445.464000105858
            }
         ],
         "download" : {
            "receiveFirst" : 229,
            "len" : 424,
            "dns" : 0,
            "dnsEnd" : -1,
            "receiveHeadersEnd" : 374,
            "sslEnd" : -1,
            "connectEnd" : 144,
            "connectStart" : 0,
            "id" : "download_7",
            "receivedTime" : "445.38400019519",
            "sslStart" : -1,
            "dnsStart" : -1,
            "receiveLast" : 71.3840001951903,
            "s_time" : 70.5270001199096,
            "sendEnd" : 145,
            "sendStart" : 144,
            "type" : "text/css"
         }
      },
      {
         "when_comp_start" : -1,
         "url" : "http://original.testbed.localhost/static.fc2.com/fc2com/js/sp.js%3F130128",
         "id" : "r8",
         "comps" : [
            {
               "s_time" : 524.5040000882,
               "time" : 0.588000053539986,
               "type" : 1,
               "id" : "comp_12",
               "e_time" : 525.09200014174
            }
         ],
         "download" : {
            "receiveFirst" : 214,
            "len" : 1316,
            "dns" : 0,
            "dnsEnd" : -1,
            "receiveHeadersEnd" : 379,
            "sslEnd" : -1,
            "connectEnd" : 165,
            "connectStart" : 0,
            "id" : "download_8",
            "receivedTime" : "462.589000118896",
            "sslStart" : -1,
            "dnsStart" : -1,
            "receiveLast" : 83.5890001188964,
            "s_time" : 70.41300018318,
            "sendEnd" : 165,
            "sendStart" : 165,
            "type" : "text/plain"
         }
      },
      {
         "when_comp_start" : -1,
         "url" : "http://original.testbed.localhost/fc2.com/ja/notice.js",
         "id" : "r10",
         "comps" : [
            {
               "s_time" : 526.5500000678,
               "time" : 0.850999960675949,
               "type" : 1,
               "id" : "comp_14",
               "e_time" : 527.401000028476
            }
         ],
         "download" : {
            "receiveFirst" : 229,
            "len" : 2593,
            "dns" : 0,
            "dnsEnd" : -1,
            "receiveHeadersEnd" : 404,
            "sslEnd" : -1,
            "connectEnd" : 175,
            "connectStart" : 0,
            "id" : "download_9",
            "receivedTime" : "475.546000059694",
            "sslStart" : -1,
            "dnsStart" : -1,
            "receiveLast" : 71.5460000596941,
            "s_time" : 70.6270001828671,
            "sendEnd" : 175,
            "sendStart" : 175,
            "type" : "application/javascript"
         }
      },
      {
         "when_comp_start" : -1,
         "url" : "http://original.testbed.localhost/fc2.com/ja/newentry.js",
         "id" : "r11",
         "comps" : [
            {
               "s_time" : 527.475000126287,
               "time" : 0.989000080154028,
               "type" : 1,
               "id" : "comp_16",
               "e_time" : 528.464000206441
            }
         ],
         "download" : {
            "receiveFirst" : 185,
            "len" : 3326,
            "dns" : 0,
            "dnsEnd" : -1,
            "receiveHeadersEnd" : 413,
            "sslEnd" : -1,
            "connectEnd" : 228,
            "connectStart" : 0,
            "id" : "download_10",
            "receivedTime" : "484.573000110686",
            "sslStart" : -1,
            "dnsStart" : -1,
            "receiveLast" : 71.5730001106858,
            "s_time" : 70.6860001664609,
            "sendEnd" : 228,
            "sendStart" : 228,
            "type" : "application/javascript"
         }
      },
      {
         "when_comp_start" : -1,
         "url" : "http://original.testbed.localhost/a.adimg.net/javascripts/AdLantisLoader.js",
         "id" : "r12",
         "comps" : [
            {
               "s_time" : 547.13200009428,
               "time" : 3.35999997332704,
               "type" : 1,
               "id" : "comp_19",
               "e_time" : 550.492000067607
            }
         ],
         "download" : {
            "receiveFirst" : 84,
            "len" : 6383,
            "dns" : 0,
            "dnsEnd" : -1,
            "receiveHeadersEnd" : 430,
            "sslEnd" : -1,
            "connectEnd" : 346,
            "connectStart" : 0,
            "id" : "download_11",
            "receivedTime" : "547.055000206456",
            "sslStart" : -1,
            "dnsStart" : -1,
            "receiveLast" : 117.055000206456,
            "s_time" : 88.1710001267493,
            "sendEnd" : 346,
            "sendStart" : 346,
            "type" : "application/javascript"
         }
      },
      {
         "when_comp_start" : -1,
         "url" : "http://original.testbed.localhost/media3.fc2.com/ana/processor.php%3Fuid=2",
         "id" : "r19",
         "comps" : [],
         "download" : {
            "receiveFirst" : 99,
            "len" : 2641,
            "dns" : 0,
            "dnsEnd" : -1,
            "receiveHeadersEnd" : 444,
            "sslEnd" : -1,
            "connectEnd" : 345,
            "connectStart" : 0,
            "id" : "download_12",
            "receivedTime" : "636.622000019997",
            "sslStart" : -1,
            "dnsStart" : -1,
            "receiveLast" : 192.622000019997,
            "s_time" : 100.419000023976,
            "sendEnd" : 345,
            "sendStart" : 345,
            "type" : "text/plain"
         }
      },
      {
         "when_comp_start" : -1,
         "url" : "http://original.testbed.localhost/static.fc2.com/share/fc2footermenu/blank.gif",
         "id" : "r13",
         "comps" : [],
         "download" : {
            "receiveFirst" : 107,
            "len" : 43,
            "dns" : 0,
            "dnsEnd" : -1,
            "receiveHeadersEnd" : 481,
            "sslEnd" : -1,
            "connectEnd" : 374,
            "connectStart" : 0,
            "id" : "download_13",
            "receivedTime" : "640.829000156373",
            "sslStart" : -1,
            "dnsStart" : -1,
            "receiveLast" : 159.829000156373,
            "s_time" : 88.3300001733005,
            "sendEnd" : 374,
            "sendStart" : 374,
            "type" : "image/gif"
         }
      },
      {
         "when_comp_start" : -1,
         "url" : "http://original.testbed.localhost/static.fc2.com/fc2com/img/bnr_careers/bnr_careers_b1_ja.png",
         "id" : "r14",
         "comps" : [],
         "download" : {
            "receiveFirst" : 51,
            "len" : 9146,
            "dns" : 0,
            "dnsEnd" : -1,
            "receiveHeadersEnd" : 52,
            "sslEnd" : -1,
            "connectEnd" : 1,
            "connectStart" : 0,
            "id" : "download_14",
            "receivedTime" : "670.353000052273",
            "sslStart" : -1,
            "dnsStart" : -1,
            "receiveLast" : 618.353000052273,
            "s_time" : 526.69299999252,
            "sendEnd" : 1,
            "sendStart" : 1,
            "type" : "image/png"
         }
      },
      {
         "when_comp_start" : -1,
         "url" : "http://original.testbed.localhost/static.fc2.com/share/image/banner_talk/fc2talk-120x600.png",
         "id" : "r15",
         "comps" : [],
         "download" : {
            "receiveFirst" : 118,
            "len" : 9402,
            "dns" : 0,
            "dnsEnd" : -1,
            "receiveHeadersEnd" : 119,
            "sslEnd" : -1,
            "connectEnd" : 1,
            "connectStart" : 0,
            "id" : "download_15",
            "receivedTime" : "725.284000160173",
            "sslStart" : -1,
            "dnsStart" : -1,
            "receiveLast" : 606.284000160173,
            "s_time" : 526.887000072747,
            "sendEnd" : 1,
            "sendStart" : 1,
            "type" : "image/png"
         }
      },
      {
         "when_comp_start" : -1,
         "url" : "http://original.testbed.localhost/media.fc2.com/counter_img.php%3Fid=3761",
         "id" : "r16",
         "comps" : [],
         "download" : {
            "receiveFirst" : 205,
            "len" : 43,
            "dns" : 0,
            "dnsEnd" : -1,
            "receiveHeadersEnd" : 206,
            "sslEnd" : -1,
            "connectEnd" : 1,
            "connectStart" : 0,
            "id" : "download_16",
            "receivedTime" : "734.430000185966",
            "sslStart" : -1,
            "dnsStart" : -1,
            "receiveLast" : 528.430000185966,
            "s_time" : 527.054000180215,
            "sendEnd" : 1,
            "sendStart" : 1,
            "type" : "image/gif"
         }
      },
      {
         "when_comp_start" : -1,
         "url" : "http://original.testbed.localhost/static.fc2.com/share/fc2parts/image/header_bar.png",
         "id" : "r20",
         "comps" : [],
         "download" : {
            "receiveFirst" : 193,
            "len" : 150,
            "dns" : 0,
            "dnsEnd" : -1,
            "receiveHeadersEnd" : 204,
            "sslEnd" : -1,
            "connectEnd" : 11,
            "connectStart" : 0,
            "id" : "download_17",
            "receivedTime" : "737.292000092566",
            "sslStart" : -1,
            "dnsStart" : -1,
            "receiveLast" : 533.292000092566,
            "s_time" : 532.141000032425,
            "sendEnd" : 11,
            "sendStart" : 11,
            "type" : "image/png"
         }
      },
      {
         "when_comp_start" : 1,
         "url" : "http://original.testbed.localhost/assys01.fc2.com/1302.html",
         "id" : "r26",
         "comps" : [
            {
               "s_time" : 745.943000074476,
               "time" : 1835.86900006048,
               "type" : "evalhtml",
               "id" : "r26_c1",
               "e_time" : 2581.81200013496
            }
         ],
         "download" : {
            "receiveFirst" : 172,
            "len" : 2932,
            "dns" : 0,
            "dnsEnd" : -1,
            "receiveHeadersEnd" : 189,
            "sslEnd" : -1,
            "connectEnd" : 17,
            "connectStart" : 0,
            "id" : "download_18",
            "receivedTime" : "753.259000135586",
            "sslStart" : -1,
            "dnsStart" : -1,
            "receiveLast" : 564.259000135586,
            "s_time" : 551.905000116676,
            "sendEnd" : 17,
            "sendStart" : 17,
            "type" : "text/html"
         }
      },
      {
         "when_comp_start" : -1,
         "url" : "http://original.testbed.localhost/static.fc2.com/fc2com/img/fc2_logo.gif.png",
         "id" : "r21",
         "comps" : [],
         "download" : {
            "receiveFirst" : 86,
            "len" : 4377,
            "dns" : 0,
            "dnsEnd" : -1,
            "receiveHeadersEnd" : 215,
            "sslEnd" : -1,
            "connectEnd" : 129,
            "connectStart" : 0,
            "id" : "download_19",
            "receivedTime" : "793.283000122756",
            "sslStart" : -1,
            "dnsStart" : -1,
            "receiveLast" : 578.283000122756,
            "s_time" : 541.201000101864,
            "sendEnd" : 129,
            "sendStart" : 129,
            "type" : "image/png"
         }
      },
      {
         "when_comp_start" : -1,
         "url" : "http://original.testbed.localhost/static.fc2.com/fc2com/img/header_menu-back.jpg",
         "id" : "r22",
         "comps" : [],
         "download" : {
            "receiveFirst" : 71,
            "len" : 20436,
            "dns" : 0,
            "dnsEnd" : -1,
            "receiveHeadersEnd" : 254,
            "sslEnd" : -1,
            "connectEnd" : 183,
            "connectStart" : 0,
            "id" : "download_20",
            "receivedTime" : "1251.35800009593",
            "sslStart" : -1,
            "dnsStart" : -1,
            "receiveLast" : 997.358000095934,
            "s_time" : 541.78800014779,
            "sendEnd" : 183,
            "sendStart" : 183,
            "type" : "image/jpeg"
         }
      },
      {
         "when_comp_start" : -1,
         "url" : "http://original.testbed.localhost/static.fc2.com/fc2com/img/fc2_service_icon.png",
         "id" : "r23",
         "comps" : [],
         "download" : {
            "receiveFirst" : 183,
            "len" : 41252,
            "dns" : 0,
            "dnsEnd" : -1,
            "receiveHeadersEnd" : 374,
            "sslEnd" : -1,
            "connectEnd" : 191,
            "connectStart" : 0,
            "id" : "download_21",
            "receivedTime" : "1602.62100002728",
            "sslStart" : -1,
            "dnsStart" : -1,
            "receiveLast" : 1228.62100002728,
            "s_time" : 542.719000019133,
            "sendEnd" : 191,
            "sendStart" : 191,
            "type" : "image/png"
         }
      },
      {
         "when_comp_start" : -1,
         "url" : "http://original.testbed.localhost/static.fc2.com/share/fc2parts/image/share_parts.png",
         "id" : "r27",
         "comps" : [],
         "download" : {
            "receiveFirst" : 303,
            "len" : 131649,
            "dns" : 0,
            "dnsEnd" : -1,
            "receiveHeadersEnd" : 469,
            "sslEnd" : -1,
            "connectEnd" : 166,
            "connectStart" : 0,
            "id" : "download_22",
            "receivedTime" : "3414.57900009118",
            "sslStart" : -1,
            "dnsStart" : -1,
            "receiveLast" : 2945.57900009118,
            "s_time" : 570.708000101149,
            "sendEnd" : 166,
            "sendStart" : 166,
            "type" : "image/png"
         }
      },
      {
         "when_comp_start" : -1,
         "url" : "http://original.testbed.localhost/static.fc2.com/share/fc2parts/image/fc2logo.png",
         "id" : "r17",
         "comps" : [],
         "download" : {
            "receiveFirst" : 407,
            "len" : 660,
            "dns" : 0,
            "dnsEnd" : -1,
            "receiveHeadersEnd" : 633,
            "sslEnd" : -1,
            "connectEnd" : 226,
            "connectStart" : 0,
            "id" : "download_23",
            "receivedTime" : "1161.36800008826",
            "sslStart" : -1,
            "dnsStart" : -1,
            "receiveLast" : 528.36800008826,
            "s_time" : 527.178000193089,
            "sendEnd" : 226,
            "sendStart" : 226,
            "type" : "image/png"
         }
      },
      {
         "when_comp_start" : -1,
         "url" : "http://original.testbed.localhost/static.fc2.com/share/fc2parts/image/sh_help_icon.gif",
         "id" : "r18",
         "comps" : [],
         "download" : {
            "receiveFirst" : 375,
            "len" : 726,
            "dns" : 0,
            "dnsEnd" : -1,
            "receiveHeadersEnd" : 641,
            "sslEnd" : -1,
            "connectEnd" : 266,
            "connectStart" : 0,
            "id" : "download_24",
            "receivedTime" : "1169.38800015487",
            "sslStart" : -1,
            "dnsStart" : -1,
            "receiveLast" : 528.388000154868,
            "s_time" : 527.283000061288,
            "sendEnd" : 266,
            "sendStart" : 266,
            "type" : "image/gif"
         }
      },
      {
         "when_comp_start" : -1,
         "url" : "http://original.testbed.localhost/static.adlantis.jp/javascripts/AdLantisLoader.js",
         "id" : "r24",
         "comps" : [
            {
               "s_time" : 1663.91200013459,
               "time" : 2.36699986270992,
               "type" : 1,
               "id" : "comp_45",
               "e_time" : 1666.2789999973
            }
         ],
         "download" : {
            "receiveFirst" : 631,
            "len" : 6383,
            "dns" : 0,
            "dnsEnd" : -1,
            "receiveHeadersEnd" : 655,
            "sslEnd" : -1,
            "connectEnd" : 24,
            "connectStart" : 0,
            "id" : "download_25",
            "receivedTime" : "1213.94899999723",
            "sslStart" : -1,
            "dnsStart" : -1,
            "receiveLast" : 558.948999997228,
            "s_time" : 546.322999987751,
            "sendEnd" : 24,
            "sendStart" : 24,
            "type" : "application/javascript"
         }
      },
      {
         "when_comp_start" : -1,
         "url" : "http://original.testbed.localhost/media.fc2.com/counter_img.php%3Fid=1512",
         "id" : "r25",
         "comps" : [],
         "download" : {
            "receiveFirst" : 339,
            "len" : 43,
            "dns" : 0,
            "dnsEnd" : -1,
            "receiveHeadersEnd" : 830,
            "sslEnd" : -1,
            "connectEnd" : 491,
            "connectStart" : 0,
            "id" : "download_26",
            "receivedTime" : "1501.89900002442",
            "sslStart" : -1,
            "dnsStart" : -1,
            "receiveLast" : 671.899000024423,
            "s_time" : 670.408000005409,
            "sendEnd" : 491,
            "sendStart" : 491,
            "type" : "image/gif"
         }
      },
      {
         "when_comp_start" : -1,
         "url" : "http://media3.fc2.com/ana/analyzer.php?uid=2&pid=0&idsess=&ref=&href=http%3A//original.testbed.localhost/www.fc2.com/&wid=1024&hei=768&col=24&visitor=1-1022041596-1442505935-0-1-1-0&ssl=0",
         "id" : "r28",
         "comps" : [
            {
               "s_time" : 1661.6309999954,
               "time" : 1.16900005376988,
               "type" : 2,
               "id" : "comp_42",
               "e_time" : 1662.80000004917
            }
         ],
         "download" : {
            "receiveFirst" : 1020,
            "len" : 578,
            "dns" : 0,
            "dnsEnd" : -1,
            "receiveHeadersEnd" : 1020,
            "sslEnd" : -1,
            "connectEnd" : 0,
            "connectStart" : 0,
            "id" : "download_27",
            "receivedTime" : "1661.52800014243",
            "sslStart" : -1,
            "dnsStart" : -1,
            "receiveLast" : 641.528000142425,
            "s_time" : 640.68300020881,
            "sendEnd" : 0,
            "sendStart" : 0,
            "type" : "application/x-javascript"
         }
      },
      {
         "when_comp_start" : -1,
         "url" : "http://analyzer-img.fc2.com/ana/icon63.gif",
         "id" : "r30",
         "comps" : [],
         "download" : {
            "receiveFirst" : 132,
            "len" : 45,
            "dns" : 0,
            "dnsEnd" : -1,
            "receiveHeadersEnd" : 132,
            "sslEnd" : -1,
            "connectEnd" : 0,
            "connectStart" : 0,
            "id" : "download_28",
            "receivedTime" : "1798.88600017875",
            "sslStart" : -1,
            "dnsStart" : -1,
            "receiveLast" : 1666.88600017875,
            "s_time" : 1662.94700000435,
            "sendEnd" : 0,
            "sendStart" : 0,
            "type" : "image/gif"
         }
      },
      {
         "when_comp_start" : -1,
         "url" : "http://www.google-analytics.com/ga.js",
         "id" : "r31",
         "comps" : [
            {
               "s_time" : 2186.08700018376,
               "time" : 61.0499999020299,
               "type" : null,
               "id" : "comp_60",
               "e_time" : 2247.13700008579
            }
         ],
         "download" : {
            "receiveFirst" : 136,
            "len" : 43082,
            "dns" : 0,
            "dnsEnd" : -1,
            "receiveHeadersEnd" : 136,
            "sslEnd" : -1,
            "connectEnd" : 0,
            "connectStart" : 0,
            "id" : "download_29",
            "receivedTime" : "2185.91000000015",
            "sslStart" : -1,
            "dnsStart" : -1,
            "receiveLast" : 2049.91000000015,
            "s_time" : 1664.11600005813,
            "sendEnd" : 0,
            "sendStart" : 0,
            "type" : "text/javascript"
         }
      },
      {
         "when_comp_start" : -1,
         "url" : "http://original.testbed.localhost/static.fc2.com/fc2com/img/info_title_back.gif.png",
         "id" : "r34",
         "comps" : [],
         "download" : {
            "receiveFirst" : 236,
            "len" : 996,
            "dns" : 0,
            "dnsEnd" : -1,
            "receiveHeadersEnd" : 242,
            "sslEnd" : -1,
            "connectEnd" : 6,
            "connectStart" : 0,
            "id" : "download_30",
            "receivedTime" : "1919.58600003272",
            "sslStart" : -1,
            "dnsStart" : -1,
            "receiveLast" : 1677.58600003272,
            "s_time" : 1676.74300004728,
            "sendEnd" : 6,
            "sendStart" : 6,
            "type" : "image/png"
         }
      },
      {
         "when_comp_start" : -1,
         "url" : "http://a.adimg.net/javascripts/adlantis.www.js",
         "id" : "r32",
         "comps" : [
            {
               "s_time" : 2015.30700013973,
               "time" : 2.20900005660997,
               "type" : null,
               "id" : "comp_54",
               "e_time" : 2017.51600019634
            }
         ],
         "download" : {
            "receiveFirst" : 248,
            "len" : 11799,
            "dns" : 0,
            "dnsEnd" : -1,
            "receiveHeadersEnd" : 254,
            "sslEnd" : -1,
            "connectEnd" : 6,
            "connectStart" : 0,
            "id" : "download_31",
            "receivedTime" : "2015.12100012042",
            "sslStart" : -1,
            "dnsStart" : -1,
            "receiveLast" : 1761.12100012042,
            "s_time" : 1676.19200004265,
            "sendEnd" : 6,
            "sendStart" : 6,
            "type" : "application/x-javascript"
         }
      },
      {
         "when_comp_start" : -1,
         "url" : "http://a.adimg.net/javascripts/swfobject.js",
         "id" : "r33",
         "comps" : [
            {
               "s_time" : 2082.53000001423,
               "time" : 0.955000054089851,
               "type" : null,
               "id" : "comp_57",
               "e_time" : 2083.48500006832
            }
         ],
         "download" : {
            "receiveFirst" : 351,
            "len" : 6880,
            "dns" : 0,
            "dnsEnd" : -1,
            "receiveHeadersEnd" : 357,
            "sslEnd" : -1,
            "connectEnd" : 6,
            "connectStart" : 0,
            "id" : "download_32",
            "receivedTime" : "2082.34900003299",
            "sslStart" : -1,
            "dnsStart" : -1,
            "receiveLast" : 1725.34900003299,
            "s_time" : 1676.44200008363,
            "sendEnd" : 6,
            "sendStart" : 6,
            "type" : "application/x-javascript"
         }
      },
      {
         "when_comp_start" : -1,
         "url" : "http://adf.send.microad.jp/ajs.php?zoneid=7575&snr=1&cb=17659550555&charset=UTF-8&loc=http%3A%2F%2Foriginal.testbed.localhost%2Fassys01.fc2.com%2F1302.html&referer=http%3A%2F%2Foriginal.testbed.localhost%2Fwww.fc2.com%2F",
         "id" : "r29",
         "comps" : [],
         "download" : {
            "receiveFirst" : 515,
            "len" : 2637,
            "dns" : 530,
            "dnsEnd" : 530,
            "receiveHeadersEnd" : 1459,
            "sslEnd" : -1,
            "connectEnd" : 944,
            "connectStart" : 0,
            "id" : "download_33",
            "receivedTime" : "2247.48900020495",
            "sslStart" : -1,
            "dnsStart" : 0,
            "receiveLast" : 788.489000204951,
            "s_time" : 749.180000042543,
            "sendEnd" : 944,
            "sendStart" : 944,
            "type" : "text/javascript"
         }
      },
      {
         "when_comp_start" : -1,
         "url" : "http://www.google-analytics.com/r/__utm.gif?utmwv=5.6.7&utms=1&utmn=1117638626&utmhn=original.testbed.localhost&utmcs=UTF-8&utmsr=1024x768&utmvp=1009x601&utmsc=24-bit&utmul=en-us&utmje=1&utmfl=-&utmdt=FC2%20-%E7%84%A1%E6%96%99%E3%83%96%E3%83%AD%E3%82%B0%20%E7%84%A1%E6%96%99%E5%8B%95%E7%94%BB%20%E7%8",
         "id" : "r36",
         "comps" : [],
         "download" : {
            "receiveFirst" : 121,
            "len" : 35,
            "dns" : 0,
            "dnsEnd" : -1,
            "receiveHeadersEnd" : 122,
            "sslEnd" : -1,
            "connectEnd" : 1,
            "connectStart" : 0,
            "id" : "download_34",
            "receivedTime" : "2368.57100017369",
            "sslStart" : -1,
            "dnsStart" : -1,
            "receiveLast" : 2246.57100017369,
            "s_time" : 2244.7740000207,
            "sendEnd" : 1,
            "sendStart" : 1,
            "type" : "image/gif"
         }
      },
      {
         "when_comp_start" : 1,
         "url" : "http://ad.adlantis.jp/ad/load_script?zid=0NSRyCnJ816GnIkq5Kfsdw%253D%253D&ref=&callbackid=ads0",
         "id" : "r35",
         "comps" : [
            {
               "s_time" : 2372.32000008225,
               "time" : 8.34800000302994,
               "type" : 2,
               "id" : "comp_64",
               "e_time" : 2380.66800008528
            }
         ],
         "download" : {
            "receiveFirst" : 285,
            "len" : 474,
            "dns" : 0,
            "dnsEnd" : -1,
            "receiveHeadersEnd" : 285,
            "sslEnd" : -1,
            "connectEnd" : 0,
            "connectStart" : 0,
            "id" : "download_35",
            "receivedTime" : "2372.17700015754",
            "sslStart" : -1,
            "dnsStart" : -1,
            "receiveLast" : 2087.17700015754,
            "s_time" : 2085.89099999517,
            "sendEnd" : 0,
            "sendStart" : 0,
            "type" : "text/html"
         }
      },
      {
         "when_comp_start" : -1,
         "url" : "http://adf.send.microad.jp/lg.php?bannerid=79538&campaignid=17326&zoneid=7575&cb=0897ef1c5f&t=1442505968.5095&snr=1",
         "id" : "r38",
         "comps" : [],
         "download" : {
            "receiveFirst" : 272,
            "len" : 43,
            "dns" : 0,
            "dnsEnd" : -1,
            "receiveHeadersEnd" : 274,
            "sslEnd" : -1,
            "connectEnd" : 2,
            "connectStart" : 0,
            "id" : "download_36",
            "receivedTime" : "2526.05700003915",
            "sslStart" : -1,
            "dnsStart" : -1,
            "receiveLast" : 2252.05700003915,
            "s_time" : 2250.38400013,
            "sendEnd" : 2,
            "sendStart" : 2,
            "type" : "image/gif"
         }
      },
      {
         "when_comp_start" : -1,
         "url" : "http://vsc.send.microad.jp/delivery/ajs.php?zoneid=4010&snr=2&cb=2734213601&charset=UTF-8&loc=http%3A%2F%2Foriginal.testbed.localhost%2Fassys01.fc2.com%2F1302.html&referer=http%3A%2F%2Foriginal.testbed.localhost%2Fwww.fc2.com%2F",
         "id" : "r37",
         "comps" : [
            {
               "s_time" : 2579.2500001844,
               "time" : 1.55699998141017,
               "type" : 2,
               "id" : "comp_75",
               "e_time" : 2580.80700016581
            }
         ],
         "download" : {
            "receiveFirst" : 325,
            "len" : 922,
            "dns" : 0,
            "dnsEnd" : -1,
            "receiveHeadersEnd" : 327,
            "sslEnd" : -1,
            "connectEnd" : 2,
            "connectStart" : 0,
            "id" : "download_37",
            "receivedTime" : "2579.12600017153",
            "sslStart" : -1,
            "dnsStart" : -1,
            "receiveLast" : 2252.12600017153,
            "s_time" : 2250.10500010103,
            "sendEnd" : 2,
            "sendStart" : 2,
            "type" : "text/javascript"
         }
      },
      {
         "when_comp_start" : 1,
         "url" : "http://ad.adlantis.jp/ad/load_iframe?key=Mjg5NzlfMF8zMTkyXzU%253D%250A&magic=pzsfafywsp",
         "id" : "r39",
         "comps" : [
            {
               "s_time" : 2714.74700002,
               "time" : 0.986000057309866,
               "type" : "evalhtml",
               "id" : "r39_c1",
               "e_time" : 2715.73300007731
            }
         ],
         "download" : {
            "receiveFirst" : 327,
            "len" : 550,
            "dns" : 0,
            "dnsEnd" : -1,
            "receiveHeadersEnd" : 327,
            "sslEnd" : -1,
            "connectEnd" : 0,
            "connectStart" : 0,
            "id" : "download_38",
            "receivedTime" : "2709.19800014235",
            "sslStart" : -1,
            "dnsStart" : -1,
            "receiveLast" : 2382.19800014235,
            "s_time" : 2381.69800001197,
            "sendEnd" : 0,
            "sendStart" : 0,
            "type" : "text/html"
         }
      },
      {
         "when_comp_start" : -1,
         "url" : "http://aimg.fc2.com/imgs/201505/general_468_60.png",
         "id" : "r40",
         "comps" : [],
         "download" : {
            "receiveFirst" : 137,
            "len" : 38608,
            "dns" : 0,
            "dnsEnd" : -1,
            "receiveHeadersEnd" : 138,
            "sslEnd" : -1,
            "connectEnd" : 1,
            "connectStart" : 0,
            "id" : "download_39",
            "receivedTime" : "3379.85000014305",
            "sslStart" : -1,
            "dnsStart" : -1,
            "receiveLast" : 3241.85000014305,
            "s_time" : 2580.3470001556,
            "sendEnd" : 1,
            "sendStart" : 1,
            "type" : "image/png"
         }
      },
      {
         "when_comp_start" : -1,
         "url" : "http://media.fc2.com/counter_img.php?id=3874",
         "id" : "r41",
         "comps" : [],
         "download" : {
            "receiveFirst" : 393,
            "len" : 43,
            "dns" : 0,
            "dnsEnd" : -1,
            "receiveHeadersEnd" : 394,
            "sslEnd" : -1,
            "connectEnd" : 1,
            "connectStart" : 0,
            "id" : "download_40",
            "receivedTime" : "2975.71300016716",
            "sslStart" : -1,
            "dnsStart" : -1,
            "receiveLast" : 2581.71300016716,
            "s_time" : 2580.65000013448,
            "sendEnd" : 1,
            "sendStart" : 1,
            "type" : "image/gif"
         }
      },
      {
         "when_comp_start" : -1,
         "url" : "http://vsc.send.microad.jp/delivery/lg.php?bannerid=38761&campaignid=5782&zoneid=4010&cb=29a1375560&t=1442505968.9997&snr=2",
         "id" : "r42",
         "comps" : [],
         "download" : {
            "receiveFirst" : 683,
            "len" : 43,
            "dns" : 0,
            "dnsEnd" : -1,
            "receiveHeadersEnd" : 684,
            "sslEnd" : -1,
            "connectEnd" : 1,
            "connectStart" : 0,
            "id" : "download_41",
            "receivedTime" : "3266.58800011501",
            "sslStart" : -1,
            "dnsStart" : -1,
            "receiveLast" : 2582.58800011501,
            "s_time" : 2581.00600005127,
            "sendEnd" : 1,
            "sendStart" : 1,
            "type" : "image/gif"
         }
      },
      {
         "when_comp_start" : 1,
         "url" : "http://adf.send.microad.jp/afr.php?zoneid=7332&cb=INSERT_RANDOM_NUMBER_HERE&ct0=INSERT_CLICKURL_HERE&snr=1",
         "id" : "r43",
         "comps" : [
            {
               "s_time" : 3393.52500019595,
               "time" : 651.99699997902,
               "id" : "r43_c1",
               "type" : "evalhtml",
               "e_time" : 4045.52200017497
            },
            {
               "s_time" : 4047.51200019382,
               "time" : 0.155999790880287,
               "type" : "evalhtml",
               "id" : "r43_c2",
               "e_time" : 4047.6679999847
            }
         ],
         "download" : {
            "receiveFirst" : 670,
            "len" : 2466,
            "dns" : 0,
            "dnsEnd" : -1,
            "receiveHeadersEnd" : 670,
            "sslEnd" : -1,
            "connectEnd" : 0,
            "connectStart" : 0,
            "id" : "download_42",
            "receivedTime" : "3389.15100018494",
            "sslStart" : -1,
            "dnsStart" : -1,
            "receiveLast" : 2719.15100018494,
            "s_time" : 2718.23300002143,
            "sendEnd" : 0,
            "sendStart" : 0,
            "type" : "text/html"
         }
      },
      {
         "when_comp_start" : -1,
         "url" : "http://adf.send.microad.jp/lg.php?bannerid=79540&campaignid=17326&zoneid=7332&cb=77de0d6218&t=1442505969.462&snr=1",
         "id" : "r45",
         "comps" : [],
         "download" : {
            "receiveFirst" : 211,
            "len" : 43,
            "dns" : 0,
            "dnsEnd" : -1,
            "receiveHeadersEnd" : 211,
            "sslEnd" : -1,
            "connectEnd" : 0,
            "connectStart" : 0,
            "id" : "download_43",
            "receivedTime" : "3608.36000018753",
            "sslStart" : -1,
            "dnsStart" : -1,
            "receiveLast" : 3397.36000018753,
            "s_time" : 3395.80400008708,
            "sendEnd" : 0,
            "sendStart" : 0,
            "type" : "image/gif"
         }
      },
      {
         "when_comp_start" : -1,
         "url" : "http://vsc.send.microad.jp/delivery/ajs.php?zoneid=3576&snr=2&cb=72248685964&charset=UTF-8&loc=http%3A%2F%2Fadf.send.microad.jp%2Fafr.php%3Fzoneid%3D7332%26cb%3DINSERT_RANDOM_NUMBER_HERE%26ct0%3DINSERT_CLICKURL_HERE%26snr%3D1&referer=http%3A%2F%2Fad.adlantis.jp%2Fad%2Fload_iframe%3Fkey%3DMjg5NzlfMF8",
         "id" : "r44",
         "comps" : [],
         "download" : {
            "receiveFirst" : 226,
            "len" : 2827,
            "dns" : 0,
            "dnsEnd" : -1,
            "receiveHeadersEnd" : 227,
            "sslEnd" : -1,
            "connectEnd" : 1,
            "connectStart" : 0,
            "id" : "download_44",
            "receivedTime" : "3623.62800003029",
            "sslStart" : -1,
            "dnsStart" : -1,
            "receiveLast" : 3396.62800003029,
            "s_time" : 3395.6340001896,
            "sendEnd" : 1,
            "sendStart" : 1,
            "type" : "text/javascript"
         }
      },
      {
         "when_comp_start" : -1,
         "url" : "http://d-cache.microad.jp/images/109/1991216_1.jpg",
         "id" : "r46",
         "comps" : [],
         "download" : {
            "receiveFirst" : 220,
            "len" : 45334,
            "dns" : 0,
            "dnsEnd" : -1,
            "receiveHeadersEnd" : 222,
            "sslEnd" : -1,
            "connectEnd" : 2,
            "connectStart" : 0,
            "id" : "download_45",
            "receivedTime" : "4234.44300005212",
            "sslStart" : -1,
            "dnsStart" : -1,
            "receiveLast" : 4012.44300005212,
            "s_time" : 3624.94600005448,
            "sendEnd" : 2,
            "sendStart" : 2,
            "type" : "image/jpeg"
         }
      },
      {
         "when_comp_start" : -1,
         "url" : "http://s-dsp.send.microad.jp/imp?v=4&e=N1huZkEle8_fpqCPiGRjfFbD2clfnI6gFS2uD4-5Kyx5pfEiCgt_2iCecz32Y2phN1Eg0_z0LLyjfUnMyQpQN70Q_Ssh8uw_8DeUroJGpqfwcsRCEYS6khGuKtMD93VOjRoRoc_mF8YWiF9QmSjwq0mXjnpZMBlJUS5EljDJS0ajUbY9JRZrgwb8ReTPYRXV&r=http%3A%2F%2Fad.adlantis.jp%2Fad%2Fload_iframe%3Fkey%3DMjg5NzlfMF8",
         "id" : "r49",
         "comps" : [],
         "download" : {
            "receiveFirst" : 392,
            "len" : 43,
            "dns" : 0,
            "dnsEnd" : -1,
            "receiveHeadersEnd" : 394,
            "sslEnd" : -1,
            "connectEnd" : 2,
            "connectStart" : 0,
            "id" : "download_46",
            "receivedTime" : "4021.09200018458",
            "sslStart" : -1,
            "dnsStart" : -1,
            "receiveLast" : 3627.09200018458,
            "s_time" : 3625.64300000668,
            "sendEnd" : 2,
            "sendStart" : 2,
            "type" : "image/gif"
         }
      },
      {
         "when_comp_start" : -1,
         "url" : "http://dsp.send.microad.jp/v2/ma/imp?wb=Vfn14gACIuDLR8YIknvDyue2_0hLuC9vgx7_NQ&ep=4E2DCY486D3LmX8OJQHn0uIBDw-oe4JydaJgQQke3OCQ09GYSfsnYkxSR5JDrVVdCrnw8yN5o1W4ce0ZN-HEPy7wTD5ddp426BiZK-QLBuwLfFZeO5c1-UF9rzB4Mrf0I",
         "id" : "r48",
         "comps" : [],
         "download" : {
            "receiveFirst" : 397,
            "len" : 43,
            "dns" : 0,
            "dnsEnd" : -1,
            "receiveHeadersEnd" : 399,
            "sslEnd" : -1,
            "connectEnd" : 2,
            "connectStart" : 0,
            "id" : "download_47",
            "receivedTime" : "4025.45400010422",
            "sslStart" : -1,
            "dnsStart" : -1,
            "receiveLast" : 3626.45400010422,
            "s_time" : 3625.43400004506,
            "sendEnd" : 2,
            "sendStart" : 2,
            "type" : "image/gif"
         }
      },
      {
         "when_comp_start" : -1,
         "url" : "http://y.one.impact-ad.jp/cs?d=22",
         "id" : "r52",
         "comps" : [
            {
               "s_time" : 4046.32600001059,
               "time" : 1.18600018322968,
               "type" : 1,
               "id" : "comp_97",
               "e_time" : 4047.51200019382
            }
         ],
         "download" : {
            "receiveFirst" : 393,
            "len" : 43,
            "dns" : 0,
            "dnsEnd" : 0,
            "receiveHeadersEnd" : 402,
            "sslEnd" : -1,
            "connectEnd" : 9,
            "connectStart" : 0,
            "id" : "download_48",
            "receivedTime" : "4029.85100005753",
            "sslStart" : -1,
            "dnsStart" : 0,
            "receiveLast" : 3627.85100005753,
            "s_time" : 3626.15600018762,
            "sendEnd" : 9,
            "sendStart" : 9,
            "type" : "image/gif"
         }
      },
      {
         "when_comp_start" : -1,
         "url" : "http://vsc.send.microad.jp/delivery/lg.php?bannerid=11961&campaignid=464&zoneid=3576&cb=69349e1504&t=1442505970.142&snr=2",
         "id" : "r53",
         "comps" : [],
         "download" : {
            "receiveFirst" : 406,
            "len" : 43,
            "dns" : 0,
            "dnsEnd" : -1,
            "receiveHeadersEnd" : 407,
            "sslEnd" : -1,
            "connectEnd" : 1,
            "connectStart" : 0,
            "id" : "download_49",
            "receivedTime" : "4034.29100010544",
            "sslStart" : -1,
            "dnsStart" : -1,
            "receiveLast" : 3627.29100010544,
            "s_time" : 3626.39700016007,
            "sendEnd" : 1,
            "sendStart" : 1,
            "type" : "image/gif"
         }
      },
      {
         "when_comp_start" : -1,
         "url" : "http://d-cache.microad.jp/js/ac7/1st.js",
         "id" : "r47",
         "comps" : [
            {
               "s_time" : 4042.72300004959,
               "time" : 2.81400000676967,
               "type" : 2,
               "id" : "comp_96",
               "e_time" : 4045.53700005636
            }
         ],
         "download" : {
            "receiveFirst" : 411,
            "len" : 1530,
            "dns" : 0,
            "dnsEnd" : -1,
            "receiveHeadersEnd" : 413,
            "sslEnd" : -1,
            "connectEnd" : 2,
            "connectStart" : 0,
            "id" : "download_50",
            "receivedTime" : "4042.63600008562",
            "sslStart" : -1,
            "dnsStart" : -1,
            "receiveLast" : 3629.63600008562,
            "s_time" : 3625.18700002693,
            "sendEnd" : 2,
            "sendStart" : 2,
            "type" : "application/javascript"
         }
      },
      {
         "when_comp_start" : -1,
         "url" : "http://cm.send.microad.jp/ox/cm?id=9245ccd9-1308-5bda-747f-de956375e992",
         "id" : "r50",
         "comps" : [],
         "download" : {
            "receiveFirst" : 293,
            "len" : 43,
            "dns" : 0,
            "dnsEnd" : -1,
            "receiveHeadersEnd" : 293,
            "sslEnd" : -1,
            "connectEnd" : 0,
            "connectStart" : 0,
            "id" : "download_51",
            "receivedTime" : "4057.05599999055",
            "sslStart" : -1,
            "dnsStart" : -1,
            "receiveLast" : 3764.05599999055,
            "s_time" : 3763.17200018093,
            "sendEnd" : 0,
            "sendStart" : 0,
            "type" : "image/gif"
         }
      },
      {
         "when_comp_start" : -1,
         "url" : "http://cm.send.microad.jp/g/cm?google_gid=CAESEJobjqsRNxCY1VTLrm2pCtk&google_cver=1",
         "id" : "r51",
         "comps" : [],
         "download" : {
            "receiveFirst" : 257,
            "len" : 43,
            "dns" : 0,
            "dnsEnd" : -1,
            "receiveHeadersEnd" : 257,
            "sslEnd" : -1,
            "connectEnd" : 0,
            "connectStart" : 0,
            "id" : "download_52",
            "receivedTime" : "4061.83300004341",
            "sslStart" : -1,
            "dnsStart" : -1,
            "receiveLast" : 3804.83300004341,
            "s_time" : 3802.32300003991,
            "sendEnd" : 0,
            "sendStart" : 0,
            "type" : "image/gif"
         }
      },
      {
         "when_comp_start" : -1,
         "url" : "http://d-cache.microad.jp/images/ac/i_mark.png",
         "id" : "r54",
         "comps" : [],
         "download" : {
            "receiveFirst" : 235,
            "len" : 274,
            "dns" : 0,
            "dnsEnd" : -1,
            "receiveHeadersEnd" : 236,
            "sslEnd" : -1,
            "connectEnd" : 1,
            "connectStart" : 0,
            "id" : "download_53",
            "receivedTime" : "4282.31999999844",
            "sslStart" : -1,
            "dnsStart" : -1,
            "receiveLast" : 4046.31999999844,
            "s_time" : 4045.0210000854,
            "sendEnd" : 1,
            "sendStart" : 1,
            "type" : "image/png"
         }
      },
      {
         "when_comp_start" : -1,
         "url" : "http://d-cache.microad.jp/images/ac/adsby.png",
         "id" : "r55",
         "comps" : [],
         "download" : {
            "receiveFirst" : 237,
            "len" : 1635,
            "dns" : 0,
            "dnsEnd" : -1,
            "receiveHeadersEnd" : 237,
            "sslEnd" : -1,
            "connectEnd" : 0,
            "connectStart" : 0,
            "id" : "download_54",
            "receivedTime" : "4283.6870001629",
            "sslStart" : -1,
            "dnsStart" : -1,
            "receiveLast" : 4046.6870001629,
            "s_time" : 4045.52200017497,
            "sendEnd" : 0,
            "sendStart" : 0,
            "type" : "image/png"
         }
      }
   ],
   "deps" : [
      {
         "a2" : "r1_c2",
         "time" : -1,
         "id" : "dep1",
         "a1" : "comp_7"
      },
      {
         "a2" : "r1_c3",
         "time" : -1,
         "id" : "dep2",
         "a1" : "comp_8"
      },
      {
         "a2" : "r1_c4",
         "time" : -1,
         "id" : "dep3",
         "a1" : "comp_10"
      },
      {
         "a2" : "r1_c5",
         "time" : -1,
         "id" : "dep4",
         "a1" : "comp_12"
      },
      {
         "a2" : "r1_c6",
         "time" : -1,
         "id" : "dep5",
         "a1" : "comp_14"
      },
      {
         "a2" : "r1_c7",
         "time" : -1,
         "id" : "dep6",
         "a1" : "comp_16"
      },
      {
         "a2" : "r1_c8",
         "time" : -1,
         "id" : "dep7",
         "a1" : "comp_19"
      },
      {
         "a2" : "r1_c9",
         "time" : -1,
         "id" : "dep8",
         "a1" : "comp_45"
      },
      {
         "a2" : "comp_7",
         "time" : -1,
         "id" : "dep9",
         "a1" : "comp_2"
      },
      {
         "a2" : "comp_7",
         "time" : -1,
         "id" : "dep10",
         "a1" : "comp_3"
      },
      {
         "a2" : "comp_7",
         "time" : -1,
         "id" : "dep11",
         "a1" : "comp_4"
      },
      {
         "a2" : "comp_8",
         "time" : -1,
         "id" : "dep12",
         "a1" : "comp_7"
      },
      {
         "a2" : "comp_10",
         "time" : -1,
         "id" : "dep13",
         "a1" : "comp_8"
      },
      {
         "a2" : "comp_12",
         "time" : -1,
         "id" : "dep14",
         "a1" : "comp_10"
      },
      {
         "a2" : "comp_14",
         "time" : -1,
         "id" : "dep15",
         "a1" : "comp_12"
      },
      {
         "a2" : "comp_14",
         "time" : -1,
         "id" : "dep16",
         "a1" : "comp_6"
      },
      {
         "a2" : "comp_16",
         "time" : -1,
         "id" : "dep17",
         "a1" : "comp_14"
      },
      {
         "a2" : "comp_19",
         "time" : -1,
         "id" : "dep18",
         "a1" : "comp_16"
      },
      {
         "a2" : "r43_c2",
         "time" : -1,
         "id" : "dep19",
         "a1" : "comp_97"
      },
      {
         "a2" : "download_54",
         "time" : -1,
         "id" : "dep20",
         "a1" : "r43_c1"
      },
      {
         "a2" : "download_53",
         "time" : 651.49599988945,
         "id" : "dep21",
         "a1" : "r43_c1"
      },
      {
         "a2" : "download_52",
         "time" : 408.79799984396,
         "id" : "dep22",
         "a1" : "r43_c1"
      },
      {
         "a2" : "download_51",
         "time" : 369.64699998498,
         "id" : "dep23",
         "a1" : "r43_c1"
      },
      {
         "a2" : "download_50",
         "time" : -1,
         "id" : "dep24",
         "a1" : "r1_c9"
      },
      {
         "a2" : "download_50",
         "time" : 231.66199983098,
         "id" : "dep25",
         "a1" : "r43_c1"
      },
      {
         "a2" : "download_49",
         "time" : -1,
         "id" : "dep26",
         "a1" : "r1_c9"
      },
      {
         "a2" : "download_49",
         "time" : 232.87199996412,
         "id" : "dep27",
         "a1" : "r43_c1"
      },
      {
         "a2" : "download_48",
         "time" : 1959.87700019032,
         "id" : "dep28",
         "a1" : "r1_c9"
      },
      {
         "a2" : "download_48",
         "time" : 232.63099999167,
         "id" : "dep29",
         "a1" : "r43_c1"
      },
      {
         "a2" : "download_47",
         "time" : 1959.15500004776,
         "id" : "dep30",
         "a1" : "r1_c9"
      },
      {
         "a2" : "download_47",
         "time" : 231.90899984911,
         "id" : "dep31",
         "a1" : "r43_c1"
      },
      {
         "a2" : "download_46",
         "time" : 1959.36400000938,
         "id" : "dep32",
         "a1" : "r1_c9"
      },
      {
         "a2" : "download_46",
         "time" : 232.11799981073,
         "id" : "dep33",
         "a1" : "r43_c1"
      },
      {
         "a2" : "download_45",
         "time" : 1958.66700005718,
         "id" : "dep34",
         "a1" : "r1_c9"
      },
      {
         "a2" : "download_45",
         "time" : 231.42099985853,
         "id" : "dep35",
         "a1" : "r43_c1"
      },
      {
         "a2" : "download_44",
         "time" : 2.10899999365029,
         "id" : "dep36",
         "a1" : "r43_c1"
      },
      {
         "a2" : "download_43",
         "time" : 1729.52500008978,
         "id" : "dep37",
         "a1" : "r1_c9"
      },
      {
         "a2" : "download_43",
         "time" : 2.2789998911303,
         "id" : "dep38",
         "a1" : "r43_c1"
      },
      {
         "a2" : "download_42",
         "time" : 1051.95400002413,
         "id" : "dep39",
         "a1" : "r1_c9"
      },
      {
         "a2" : "download_41",
         "time" : 1835.06299997679,
         "id" : "dep40",
         "a1" : "r26_c1"
      },
      {
         "a2" : "download_40",
         "time" : 1834.70700006,
         "id" : "dep41",
         "a1" : "r26_c1"
      },
      {
         "a2" : "download_39",
         "time" : 1834.40400008112,
         "id" : "dep42",
         "a1" : "r26_c1"
      },
      {
         "a2" : "download_38",
         "time" : 1635.75499993749,
         "id" : "dep43",
         "a1" : "r26_c1"
      },
      {
         "a2" : "download_37",
         "time" : 1504.16200002655,
         "id" : "dep44",
         "a1" : "r26_c1"
      },
      {
         "a2" : "download_36",
         "time" : 1504.44100005552,
         "id" : "dep45",
         "a1" : "r26_c1"
      },
      {
         "a2" : "download_35",
         "time" : 419.61199999787,
         "id" : "dep46",
         "a1" : "r1_c9"
      },
      {
         "a2" : "download_34",
         "time" : 58.6869998369398,
         "id" : "dep47",
         "a1" : "comp_60"
      },
      {
         "a2" : "download_33",
         "time" : 3.23699996806704,
         "id" : "dep48",
         "a1" : "r26_c1"
      },
      {
         "a2" : "download_33",
         "time" : -1,
         "id" : "dep49",
         "a1" : "r1_c8"
      },
      {
         "a2" : "download_32",
         "time" : 930.499000009154,
         "id" : "dep50",
         "a1" : "r26_c1"
      },
      {
         "a2" : "download_31",
         "time" : 9.91300004535015,
         "id" : "dep51",
         "a1" : "r1_c9"
      },
      {
         "a2" : "download_30",
         "time" : 930.799999972804,
         "id" : "dep52",
         "a1" : "r26_c1"
      },
      {
         "a2" : "download_29",
         "time" : 918.172999983654,
         "id" : "dep53",
         "a1" : "r26_c1"
      },
      {
         "a2" : "download_29",
         "time" : -1,
         "id" : "dep54",
         "a1" : "r1_c8"
      },
      {
         "a2" : "download_28",
         "time" : 917.003999929874,
         "id" : "dep55",
         "a1" : "r26_c1"
      },
      {
         "a2" : "download_28",
         "time" : 1112.45499993674,
         "id" : "dep56",
         "a1" : "r1_c8"
      },
      {
         "a2" : "download_27",
         "time" : 90.1910001412029,
         "id" : "dep57",
         "a1" : "r1_c8"
      },
      {
         "a2" : "download_27",
         "time" : 90.1910001412029,
         "id" : "dep58",
         "a1" : "r1_c8"
      },
      {
         "a2" : "download_26",
         "time" : 119.915999937802,
         "id" : "dep59",
         "a1" : "r1_c8"
      },
      {
         "a2" : "download_25",
         "time" : -1,
         "id" : "dep60",
         "a1" : "r1_c7"
      },
      {
         "a2" : "download_25",
         "time" : 17.85899978131,
         "id" : "dep61",
         "a1" : "r1_c7"
      },
      {
         "a2" : "download_24",
         "time" : -1,
         "id" : "dep62",
         "a1" : "r1_c5"
      },
      {
         "a2" : "download_23",
         "time" : 2.08600005134906,
         "id" : "dep63",
         "a1" : "r1_c5"
      },
      {
         "a2" : "download_22",
         "time" : 20.2160000335419,
         "id" : "dep64",
         "a1" : "r1_c8"
      },
      {
         "a2" : "download_21",
         "time" : 14.2549998126919,
         "id" : "dep65",
         "a1" : "r1_c7"
      },
      {
         "a2" : "download_20",
         "time" : 13.3239999413489,
         "id" : "dep66",
         "a1" : "r1_c7"
      },
      {
         "a2" : "download_19",
         "time" : 12.736999895423,
         "id" : "dep67",
         "a1" : "r1_c7"
      },
      {
         "a2" : "download_18",
         "time" : 1.41300004906896,
         "id" : "dep68",
         "a1" : "r1_c8"
      },
      {
         "a2" : "download_17",
         "time" : 3.67699982598401,
         "id" : "dep69",
         "a1" : "r1_c7"
      },
      {
         "a2" : "download_16",
         "time" : 1.96200003847503,
         "id" : "dep70",
         "a1" : "r1_c5"
      },
      {
         "a2" : "download_15",
         "time" : 1.79499993100706,
         "id" : "dep71",
         "a1" : "r1_c5"
      },
      {
         "a2" : "download_14",
         "time" : 1.60099985078,
         "id" : "dep72",
         "a1" : "r1_c5"
      },
      {
         "a2" : "download_13",
         "time" : -1,
         "id" : "dep73",
         "a1" : "r1_c1"
      },
      {
         "a2" : "download_13",
         "time" : 19.1800000611693,
         "id" : "dep74",
         "a1" : "r1_c1"
      },
      {
         "a2" : "download_12",
         "time" : -1,
         "id" : "dep75",
         "a1" : "r1_c1"
      },
      {
         "a2" : "download_12",
         "time" : 31.2689999118448,
         "id" : "dep76",
         "a1" : "r1_c1"
      },
      {
         "a2" : "download_11",
         "time" : 19.0210000146181,
         "id" : "dep77",
         "a1" : "r1_c1"
      },
      {
         "a2" : "download_11",
         "time" : 19.0210000146181,
         "id" : "dep78",
         "a1" : "r1_c1"
      },
      {
         "a2" : "download_10",
         "time" : 1.5360000543297,
         "id" : "dep79",
         "a1" : "r1_c1"
      },
      {
         "a2" : "download_10",
         "time" : 1.5360000543297,
         "id" : "dep80",
         "a1" : "r1_c1"
      },
      {
         "a2" : "download_9",
         "time" : 1.47700007073591,
         "id" : "dep81",
         "a1" : "r1_c1"
      },
      {
         "a2" : "download_9",
         "time" : 1.47700007073591,
         "id" : "dep82",
         "a1" : "r1_c1"
      },
      {
         "a2" : "download_8",
         "time" : 1.26300007104881,
         "id" : "dep83",
         "a1" : "r1_c1"
      },
      {
         "a2" : "download_8",
         "time" : 1.26300007104881,
         "id" : "dep84",
         "a1" : "r1_c1"
      },
      {
         "a2" : "download_7",
         "time" : 1.37700000777841,
         "id" : "dep85",
         "a1" : "r1_c1"
      },
      {
         "a2" : "download_7",
         "time" : 1.37700000777841,
         "id" : "dep86",
         "a1" : "r1_c1"
      },
      {
         "a2" : "download_6",
         "time" : 1.19199999608101,
         "id" : "dep87",
         "a1" : "r1_c1"
      },
      {
         "a2" : "download_6",
         "time" : 1.19199999608101,
         "id" : "dep88",
         "a1" : "r1_c1"
      },
      {
         "a2" : "download_5",
         "time" : 1.03699997998781,
         "id" : "dep89",
         "a1" : "r1_c1"
      },
      {
         "a2" : "download_4",
         "time" : 0.877999933436598,
         "id" : "dep90",
         "a1" : "r1_c1"
      },
      {
         "a2" : "download_3",
         "time" : 1.1179998982698,
         "id" : "dep91",
         "a1" : "r1_c1"
      },
      {
         "a2" : "download_3",
         "time" : 1.1179998982698,
         "id" : "dep92",
         "a1" : "r1_c1"
      },
      {
         "a2" : "download_2",
         "time" : 0.75399992056191,
         "id" : "dep93",
         "a1" : "r1_c1"
      },
      {
         "a2" : "download_1",
         "time" : 0.633999938145308,
         "id" : "dep94",
         "a1" : "r1_c1"
      }
   ]
}
