{
   "n_download_no_trigger" : 1,
   "start_activity" : "download_0",
   "name" : "original.testbed.localhost_www.google.ca_",
   "load_activity" : -1,
   "objs" : [
      {
         "when_comp_start" : 1,
         "url" : "http://original.testbed.localhost/www.google.ca/",
         "id" : "r1",
         "comps" : [
            {
               "s_time" : 164.321999996901,
               "time" : 466.368000023067,
               "type" : "evalhtml",
               "id" : "r1_c1",
               "e_time" : 630.690000019968
            }
         ],
         "download" : {
            "receiveFirst" : 56,
            "len" : 154021,
            "dns" : 0,
            "dnsEnd" : -1,
            "receiveHeadersEnd" : 56,
            "sslEnd" : -1,
            "connectEnd" : 0,
            "connectStart" : 0,
            "id" : "download_0",
            "receivedTime" : "629.412000067532",
            "sslStart" : -1,
            "dnsStart" : -1,
            "receiveLast" : 573.412000067532,
            "s_time" : 0,
            "sendEnd" : 0,
            "sendStart" : 0,
            "type" : "text/html"
         }
      },
      {
         "when_comp_start" : -1,
         "url" : "http://original.testbed.localhost/www.google.ca/images/icons/product/chrome-48.png",
         "id" : "r2",
         "comps" : [],
         "download" : {
            "receiveFirst" : 171,
            "len" : 1834,
            "dns" : 0,
            "dnsEnd" : -1,
            "receiveHeadersEnd" : 171,
            "sslEnd" : -1,
            "connectEnd" : 0,
            "connectStart" : 0,
            "id" : "download_1",
            "receivedTime" : "353.829999919981",
            "sslStart" : -1,
            "dnsStart" : -1,
            "receiveLast" : 182.829999919981,
            "s_time" : 169.905999908224,
            "sendEnd" : 0,
            "sendStart" : 0,
            "type" : "image/png"
         }
      },
      {
         "when_comp_start" : -1,
         "url" : "http://original.testbed.localhost/www.google.ca/images/branding/googlelogo/1x/googlelogo_white_background_color_272x92dp.png",
         "id" : "r3",
         "comps" : [],
         "download" : {
            "receiveFirst" : 187,
            "len" : 5482,
            "dns" : 0,
            "dnsEnd" : -1,
            "receiveHeadersEnd" : 187,
            "sslEnd" : -1,
            "connectEnd" : 0,
            "connectStart" : 0,
            "id" : "download_2",
            "receivedTime" : "396.653000032529",
            "sslStart" : -1,
            "dnsStart" : -1,
            "receiveLast" : 209.653000032529,
            "s_time" : 173.047000076622,
            "sendEnd" : 0,
            "sendStart" : 0,
            "type" : "image/png"
         }
      },
      {
         "when_comp_start" : -1,
         "url" : "http://original.testbed.localhost/www.google.ca/images/srpr/nav_logo80.png",
         "id" : "r4",
         "comps" : [],
         "download" : {
            "receiveFirst" : 234,
            "len" : 35615,
            "dns" : 0,
            "dnsEnd" : -1,
            "receiveHeadersEnd" : 234,
            "sslEnd" : -1,
            "connectEnd" : 0,
            "connectStart" : 0,
            "id" : "download_3",
            "receivedTime" : "818.020999897271",
            "sslStart" : -1,
            "dnsStart" : -1,
            "receiveLast" : 584.020999897271,
            "s_time" : 175.179000012577,
            "sendEnd" : 0,
            "sendStart" : 0,
            "type" : "image/png"
         }
      },
      {
         "when_comp_start" : 1,
         "url" : "http://original.testbed.localhost/client_204?&atyp=i&biw=1024&bih=601&ei=_pX4VZzECYLt-AHFjrXoDw",
         "id" : "r5",
         "comps" : [],
         "download" : {
            "receiveFirst" : 144,
            "len" : 300,
            "dns" : 0,
            "dnsEnd" : -1,
            "receiveHeadersEnd" : 144,
            "sslEnd" : -1,
            "connectEnd" : 0,
            "connectStart" : 0,
            "id" : "download_4",
            "receivedTime" : "760.069000069052",
            "sslStart" : -1,
            "dnsStart" : -1,
            "receiveLast" : 616.069000069052,
            "s_time" : 614.925999892876,
            "sendEnd" : 0,
            "sendStart" : 0,
            "type" : "text/html"
         }
      }
   ],
   "deps" : [
      {
         "a2" : "download_4",
         "time" : 450.603999895975,
         "id" : "dep1",
         "a1" : "r1_c1"
      },
      {
         "a2" : "download_3",
         "time" : 10.857000015676,
         "id" : "dep2",
         "a1" : "r1_c1"
      },
      {
         "a2" : "download_2",
         "time" : 8.72500007972099,
         "id" : "dep3",
         "a1" : "r1_c1"
      },
      {
         "a2" : "download_1",
         "time" : 5.58399991132299,
         "id" : "dep4",
         "a1" : "r1_c1"
      }
   ]
}
