{
   "n_download_no_trigger" : 2,
   "start_activity" : "download_0",
   "name" : "original.testbed.localhost_www.ok.ru_",
   "load_activity" : -1,
   "objs" : [
      {
         "when_comp_start" : 1,
         "url" : "http://original.testbed.localhost/www.ok.ru/",
         "id" : "r1",
         "comps" : [
            {
               "s_time" : 159.133999841288,
               "time" : 3.07500013150201,
               "id" : "r1_c1",
               "type" : "evalhtml",
               "e_time" : 162.20899997279
            },
            {
               "s_time" : 3071.32399990223,
               "time" : -1078956473.269,
               "id" : "r1_c2",
               "type" : "evalhtml",
               "e_time" : -1078953401.945
            },
            {
               "s_time" : 3077.03799987212,
               "time" : -1078956478.983,
               "id" : "r1_c3",
               "type" : "evalhtml",
               "e_time" : -1078953401.945
            },
            {
               "s_time" : 3121.41499994323,
               "time" : 336.02000004612,
               "id" : "r1_c4",
               "type" : "evalhtml",
               "e_time" : 3457.43499998935
            },
            {
               "s_time" : 3494.17999992147,
               "time" : -1078956896.125,
               "id" : "r1_c5",
               "type" : "evalhtml",
               "e_time" : -1078953401.945
            },
            {
               "s_time" : 3501.81000004523,
               "time" : 8135.82099997437,
               "type" : "evalhtml",
               "id" : "r1_c6",
               "e_time" : 11637.6310000196
            }
         ],
         "download" : {
            "receiveFirst" : 53,
            "len" : 85156,
            "dns" : 0,
            "dnsEnd" : -1,
            "receiveHeadersEnd" : 53,
            "sslEnd" : -1,
            "connectEnd" : 0,
            "connectStart" : 0,
            "id" : "download_0",
            "receivedTime" : "194.551999913529",
            "sslStart" : -1,
            "dnsStart" : -1,
            "receiveLast" : 141.551999913529,
            "s_time" : 0,
            "sendEnd" : 0,
            "sendStart" : 0,
            "type" : "text/html"
         }
      },
      {
         "when_comp_start" : -1,
         "url" : "http://st.mycdn.me/res/css/prod/core/ncore.5d7105b6.css",
         "id" : "r2",
         "comps" : [
            {
               "s_time" : 1396.1320000235,
               "time" : 30.0549999810701,
               "type" : 4,
               "id" : "comp_4",
               "e_time" : 1426.18700000457
            }
         ],
         "download" : {
            "receiveFirst" : 179,
            "len" : 303243,
            "dns" : 0,
            "dnsEnd" : 0,
            "receiveHeadersEnd" : 229,
            "sslEnd" : -1,
            "connectEnd" : 50,
            "connectStart" : 0,
            "id" : "download_1",
            "receivedTime" : "1395.98699985072",
            "sslStart" : -1,
            "dnsStart" : 0,
            "receiveLast" : 1166.98699985072,
            "s_time" : 161.080999998376,
            "sendEnd" : 50,
            "sendStart" : 50,
            "type" : "text/css"
         }
      },
      {
         "when_comp_start" : -1,
         "url" : "http://st.mycdn.me/res/css/prod/login/login.b7b3e6c4.css",
         "id" : "r3",
         "comps" : [
            {
               "s_time" : 3030.54399997927,
               "time" : 105.08999996819,
               "type" : 4,
               "id" : "comp_6",
               "e_time" : 3135.63399994746
            }
         ],
         "download" : {
            "receiveFirst" : 195,
            "len" : 348162,
            "dns" : 0,
            "dnsEnd" : 0,
            "receiveHeadersEnd" : 245,
            "sslEnd" : -1,
            "connectEnd" : 50,
            "connectStart" : 0,
            "id" : "download_2",
            "receivedTime" : "3030.08799999952",
            "sslStart" : -1,
            "dnsStart" : 0,
            "receiveLast" : 2785.08799999952,
            "s_time" : 161.304999841377,
            "sendEnd" : 50,
            "sendStart" : 50,
            "type" : "text/css"
         }
      },
      {
         "when_comp_start" : -1,
         "url" : "http://st.mycdn.me/res/css/prod/login/login_autumn.a3f9e6dd.css",
         "id" : "r8",
         "comps" : [
            {
               "s_time" : 1503.23799997568,
               "time" : 0.0700000673500654,
               "type" : 4,
               "id" : "comp_5",
               "e_time" : 1503.30800004303
            }
         ],
         "download" : {
            "receiveFirst" : 205,
            "len" : 45162,
            "dns" : 0,
            "dnsEnd" : 0,
            "receiveHeadersEnd" : 259,
            "sslEnd" : -1,
            "connectEnd" : 54,
            "connectStart" : 0,
            "id" : "download_3",
            "receivedTime" : "1503.07799992152",
            "sslStart" : -1,
            "dnsStart" : 0,
            "receiveLast" : 1244.07799992152,
            "s_time" : 162.20899997279,
            "sendEnd" : 54,
            "sendStart" : 54,
            "type" : "text/css"
         }
      },
      {
         "when_comp_start" : -1,
         "url" : "http://st.mycdn.me/res/js/lib/65190bac.js",
         "id" : "r4",
         "comps" : [
            {
               "s_time" : 3062.35999986529,
               "time" : 8.96400003693998,
               "type" : 1,
               "id" : "comp_9",
               "e_time" : 3071.32399990223
            }
         ],
         "download" : {
            "receiveFirst" : 232,
            "len" : 25080,
            "dns" : 0,
            "dnsEnd" : 0,
            "receiveHeadersEnd" : 288,
            "sslEnd" : -1,
            "connectEnd" : 56,
            "connectStart" : 0,
            "id" : "download_4",
            "receivedTime" : "793.868999928236",
            "sslStart" : -1,
            "dnsStart" : 0,
            "receiveLast" : 505.868999928236,
            "s_time" : 161.536999978125,
            "sendEnd" : 56,
            "sendStart" : 56,
            "type" : "application/javascript"
         }
      },
      {
         "when_comp_start" : -1,
         "url" : "http://st.mycdn.me/static/json/3-3-0/json3.js",
         "id" : "r5",
         "comps" : [
            {
               "s_time" : 3071.40999985859,
               "time" : 5.62800001353025,
               "type" : 1,
               "id" : "comp_10",
               "e_time" : 3077.03799987212
            }
         ],
         "download" : {
            "receiveFirst" : 259,
            "len" : 8103,
            "dns" : 0,
            "dnsEnd" : 0,
            "receiveHeadersEnd" : 316,
            "sslEnd" : -1,
            "connectEnd" : 57,
            "connectStart" : 0,
            "id" : "download_5",
            "receivedTime" : "491.286000004038",
            "sslStart" : -1,
            "dnsStart" : 0,
            "receiveLast" : 175.286000004038,
            "s_time" : 161.732999840751,
            "sendEnd" : 57,
            "sendStart" : 57,
            "type" : "application/javascript"
         }
      },
      {
         "when_comp_start" : -1,
         "url" : "http://st.mycdn.me/res/js/33b9e0c.js",
         "id" : "r6",
         "comps" : [
            {
               "s_time" : 3077.12000003085,
               "time" : 44.2949999123803,
               "type" : 1,
               "id" : "comp_11",
               "e_time" : 3121.41499994323
            }
         ],
         "download" : {
            "receiveFirst" : 291,
            "len" : 41239,
            "dns" : 0,
            "dnsEnd" : 0,
            "receiveHeadersEnd" : 349,
            "sslEnd" : -1,
            "connectEnd" : 58,
            "connectStart" : 0,
            "id" : "download_6",
            "receivedTime" : "1056.94899987429",
            "sslStart" : -1,
            "dnsStart" : 0,
            "receiveLast" : 707.948999874294,
            "s_time" : 161.915000062436,
            "sendEnd" : 58,
            "sendStart" : 58,
            "type" : "application/javascript"
         }
      },
      {
         "when_comp_start" : -1,
         "url" : "http://st.mycdn.me/res/i/p/mr-toolbar/projectsicons.png",
         "id" : "r11",
         "comps" : [],
         "download" : {
            "receiveFirst" : 180,
            "len" : 1581,
            "dns" : 0,
            "dnsEnd" : -1,
            "receiveHeadersEnd" : 180,
            "sslEnd" : -1,
            "connectEnd" : 0,
            "connectStart" : 0,
            "id" : "download_8",
            "receivedTime" : "3311.89000001177",
            "sslStart" : -1,
            "dnsStart" : -1,
            "receiveLast" : 3131.89000001177,
            "s_time" : 3131.00200006738,
            "sendEnd" : 0,
            "sendStart" : 0,
            "type" : "image/png"
         }
      },
      {
         "when_comp_start" : -1,
         "url" : "http://groupava2.mycdn.me/image?t=32&bid=524836340480&id=524836340480&plc=WEB&tkn=*u-szuCdGMPToHkX_OmHdryYCmVw",
         "id" : "r17",
         "comps" : [],
         "download" : {
            "receiveFirst" : 180,
            "len" : 1681,
            "dns" : 0,
            "dnsEnd" : -1,
            "receiveHeadersEnd" : 186,
            "sslEnd" : -1,
            "connectEnd" : 5,
            "connectStart" : 0,
            "id" : "download_9",
            "receivedTime" : "3416.93000006489",
            "sslStart" : -1,
            "dnsStart" : -1,
            "receiveLast" : 3230.93000006489,
            "s_time" : 3229.64999987744,
            "sendEnd" : 6,
            "sendStart" : 5,
            "type" : "image/jpeg"
         }
      },
      {
         "when_comp_start" : -1,
         "url" : "http://groupava2.mycdn.me/image?t=32&bid=804399287405&id=804399287405&plc=WEB&tkn=*-9_urUtJBFUqUGZahWNArbDB80I",
         "id" : "r19",
         "comps" : [],
         "download" : {
            "receiveFirst" : 186,
            "len" : 6451,
            "dns" : 0,
            "dnsEnd" : -1,
            "receiveHeadersEnd" : 191,
            "sslEnd" : -1,
            "connectEnd" : 5,
            "connectStart" : 0,
            "id" : "download_10",
            "receivedTime" : "3457.70799997263",
            "sslStart" : -1,
            "dnsStart" : -1,
            "receiveLast" : 3266.70799997263,
            "s_time" : 3230.10899988003,
            "sendEnd" : 5,
            "sendStart" : 5,
            "type" : "image/png"
         }
      },
      {
         "when_comp_start" : -1,
         "url" : "http://st.mycdn.me/res/batch/js/a6399aa9/scriptLogin.js",
         "id" : "r46",
         "comps" : [
            {
               "s_time" : 3486.54099996202,
               "time" : 7.63899995944985,
               "type" : 1,
               "id" : "comp_25",
               "e_time" : 3494.17999992147
            }
         ],
         "download" : {
            "receiveFirst" : 216,
            "len" : 4040,
            "dns" : 0,
            "dnsEnd" : -1,
            "receiveHeadersEnd" : 217,
            "sslEnd" : -1,
            "connectEnd" : 1,
            "connectStart" : 0,
            "id" : "download_11",
            "receivedTime" : "3486.40599986538",
            "sslStart" : -1,
            "dnsStart" : -1,
            "receiveLast" : 3269.40599986538,
            "s_time" : 3265.2020000387,
            "sendEnd" : 1,
            "sendStart" : 1,
            "type" : "application/javascript"
         }
      },
      {
         "when_comp_start" : 1,
         "url" : "http://original.testbed.localhost/dk?st.cmd=redirectAuthCode&nc=1442354686958",
         "id" : "r50",
         "comps" : [
            {
               "s_time" : 3559.32800006121,
               "time" : 0.108999898659931,
               "type" : "evalhtml",
               "id" : "r50_c1",
               "e_time" : 3559.43699995987
            }
         ],
         "download" : {
            "receiveFirst" : 51,
            "len" : 292,
            "dns" : 0,
            "dnsEnd" : -1,
            "receiveHeadersEnd" : 51,
            "sslEnd" : -1,
            "connectEnd" : 0,
            "connectStart" : 0,
            "id" : "download_12",
            "receivedTime" : "3555.17599987797",
            "sslStart" : -1,
            "dnsStart" : -1,
            "receiveLast" : 3504.17599987797,
            "s_time" : 3502.89599993266,
            "sendEnd" : 0,
            "sendStart" : 0,
            "type" : "text/html"
         }
      },
      {
         "when_comp_start" : -1,
         "url" : "http://gic5.mycdn.me/image?t=35&bid=805001805230&id=805001805230&plc=WEB&tkn=*alxo7ICpyQAyQvUe0yjsbnd2qAY",
         "id" : "r13",
         "comps" : [],
         "download" : {
            "receiveFirst" : 180,
            "len" : 30356,
            "dns" : 0,
            "dnsEnd" : 4,
            "receiveHeadersEnd" : 362,
            "sslEnd" : -1,
            "connectEnd" : 182,
            "connectStart" : 0,
            "id" : "download_13",
            "receivedTime" : "4689.61700005457",
            "sslStart" : -1,
            "dnsStart" : 4,
            "receiveLast" : 4327.61700005457,
            "s_time" : 3228.5269999411,
            "sendEnd" : 182,
            "sendStart" : 182,
            "type" : "image/jpeg"
         }
      },
      {
         "when_comp_start" : -1,
         "url" : "http://gic3.mycdn.me/image?t=35&bid=805161110637&id=805161110637&plc=WEB&tkn=*dFKcEjfgPkWufsUKdG5npTrCOiU",
         "id" : "r20",
         "comps" : [],
         "download" : {
            "receiveFirst" : 285,
            "len" : 25332,
            "dns" : 1,
            "dnsEnd" : 5,
            "receiveHeadersEnd" : 468,
            "sslEnd" : -1,
            "connectEnd" : 183,
            "connectStart" : 0,
            "id" : "download_14",
            "receivedTime" : "4753.2989999745",
            "sslStart" : -1,
            "dnsStart" : 4,
            "receiveLast" : 4285.2989999745,
            "s_time" : 3230.40400003083,
            "sendEnd" : 183,
            "sendStart" : 183,
            "type" : "image/jpeg"
         }
      },
      {
         "when_comp_start" : -1,
         "url" : "http://groupava2.mycdn.me/image?t=32&bid=501387820105&id=501387820105&plc=WEB&tkn=*iLwDXc0C1rSFWy-tXvpaNypRXw0",
         "id" : "r22",
         "comps" : [],
         "download" : {
            "receiveFirst" : 403,
            "len" : 1363,
            "dns" : 0,
            "dnsEnd" : -1,
            "receiveHeadersEnd" : 403,
            "sslEnd" : -1,
            "connectEnd" : 0,
            "connectStart" : 0,
            "id" : "download_15",
            "receivedTime" : "3821.20699994266",
            "sslStart" : -1,
            "dnsStart" : -1,
            "receiveLast" : 3418.20699994266,
            "s_time" : 3416.56200005673,
            "sendEnd" : 0,
            "sendStart" : 0,
            "type" : "image/jpeg"
         }
      },
      {
         "when_comp_start" : -1,
         "url" : "http://groupava1.mycdn.me/image?t=32&bid=772512449710&id=772512449710&plc=WEB&tkn=*Bus4igJvyhltPNWF2NHepBzEh_8",
         "id" : "r12",
         "comps" : [],
         "download" : {
            "receiveFirst" : 359,
            "len" : 2789,
            "dns" : 1,
            "dnsEnd" : 5,
            "receiveHeadersEnd" : 608,
            "sslEnd" : -1,
            "connectEnd" : 249,
            "connectStart" : 0,
            "id" : "download_16",
            "receivedTime" : "3837.33200002462",
            "sslStart" : -1,
            "dnsStart" : 4,
            "receiveLast" : 3229.33200002462,
            "s_time" : 3228.12299989164,
            "sendEnd" : 249,
            "sendStart" : 249,
            "type" : "image/jpeg"
         }
      },
      {
         "when_comp_start" : -1,
         "url" : "http://gic0.mycdn.me/image?t=35&bid=808927927296&id=808927927296&plc=WEB&tkn=*QI75TziSqACogIjseZ2cZQjtYn8",
         "id" : "r18",
         "comps" : [],
         "download" : {
            "receiveFirst" : 385,
            "len" : 41784,
            "dns" : 0,
            "dnsEnd" : 5,
            "receiveHeadersEnd" : 633,
            "sslEnd" : -1,
            "connectEnd" : 248,
            "connectStart" : 0,
            "id" : "download_17",
            "receivedTime" : "6094.44599994458",
            "sslStart" : -1,
            "dnsStart" : 5,
            "receiveLast" : 5461.44599994458,
            "s_time" : 3229.89499988034,
            "sendEnd" : 248,
            "sendStart" : 248,
            "type" : "image/jpeg"
         }
      },
      {
         "when_comp_start" : -1,
         "url" : "http://groupava1.mycdn.me/image?t=32&bid=804665553815&id=804665553815&plc=WEB&tkn=*YcaKM3b1tlleyvY_0FgFf-UWa7Q",
         "id" : "r14",
         "comps" : [],
         "download" : {
            "receiveFirst" : 508,
            "len" : 6960,
            "dns" : 0,
            "dnsEnd" : 3,
            "receiveHeadersEnd" : 757,
            "sslEnd" : -1,
            "connectEnd" : 249,
            "connectStart" : 0,
            "id" : "download_18",
            "receivedTime" : "4034.39699998125",
            "sslStart" : -1,
            "dnsStart" : 3,
            "receiveLast" : 3277.39699998125,
            "s_time" : 3228.79999992438,
            "sendEnd" : 249,
            "sendStart" : 249,
            "type" : "image/png"
         }
      },
      {
         "when_comp_start" : -1,
         "url" : "http://gic4.mycdn.me/image?t=35&bid=805005495191&id=805005495191&plc=WEB&tkn=*WWI6M2fOjRem1DwYJfgdCrcpJOM",
         "id" : "r15",
         "comps" : [],
         "download" : {
            "receiveFirst" : 568,
            "len" : 55101,
            "dns" : 0,
            "dnsEnd" : 5,
            "receiveHeadersEnd" : 818,
            "sslEnd" : -1,
            "connectEnd" : 250,
            "connectStart" : 0,
            "id" : "download_19",
            "receivedTime" : "6205.67000005394",
            "sslStart" : -1,
            "dnsStart" : 5,
            "receiveLast" : 5387.67000005394,
            "s_time" : 3229.09499984235,
            "sendEnd" : 250,
            "sendStart" : 250,
            "type" : "image/jpeg"
         }
      },
      {
         "when_comp_start" : -1,
         "url" : "http://gic4.mycdn.me/image?t=35&bid=805005495447&id=805005495447&plc=WEB&tkn=*tCBYCSnjBWd5opZK79_SIsVMV_M",
         "id" : "r16",
         "comps" : [],
         "download" : {
            "receiveFirst" : 689,
            "len" : 55969,
            "dns" : 0,
            "dnsEnd" : 5,
            "receiveHeadersEnd" : 939,
            "sslEnd" : -1,
            "connectEnd" : 250,
            "connectStart" : 0,
            "id" : "download_20",
            "receivedTime" : "6399.65200005099",
            "sslStart" : -1,
            "dnsStart" : 5,
            "receiveLast" : 5460.65200005099,
            "s_time" : 3229.4029998593,
            "sendEnd" : 250,
            "sendStart" : 250,
            "type" : "image/jpeg"
         }
      },
      {
         "when_comp_start" : -1,
         "url" : "http://gic3.mycdn.me/image?t=35&bid=805161066605&id=805161066605&plc=WEB&tkn=*N2Qh9hGs2XPEvL20v-_L8Rvy5Uc",
         "id" : "r21",
         "comps" : [],
         "download" : {
            "receiveFirst" : 790,
            "len" : 34240,
            "dns" : 0,
            "dnsEnd" : 0,
            "receiveHeadersEnd" : 979,
            "sslEnd" : -1,
            "connectEnd" : 189,
            "connectStart" : 0,
            "id" : "download_21",
            "receivedTime" : "6494.79499994777",
            "sslStart" : -1,
            "dnsStart" : 0,
            "receiveLast" : 5515.79499994777,
            "s_time" : 3311.44699989818,
            "sendEnd" : 189,
            "sendStart" : 189,
            "type" : "image/jpeg"
         }
      },
      {
         "when_comp_start" : -1,
         "url" : "http://st.mycdn.me/res/batch/js/9df350c2/scriptBottom.js",
         "id" : "r52",
         "comps" : [
            {
               "s_time" : 5648.13799993135,
               "time" : 21.2429999373899,
               "type" : null,
               "id" : "comp_77",
               "e_time" : 5669.38099986874
            }
         ],
         "download" : {
            "receiveFirst" : 904,
            "len" : 21571,
            "dns" : 0,
            "dnsEnd" : -1,
            "receiveHeadersEnd" : 904,
            "sslEnd" : -1,
            "connectEnd" : 0,
            "connectStart" : 0,
            "id" : "download_22",
            "receivedTime" : "5647.79099985026",
            "sslStart" : -1,
            "dnsStart" : -1,
            "receiveLast" : 4743.79099985026,
            "s_time" : 3507.90099985898,
            "sendEnd" : 0,
            "sendStart" : 0,
            "type" : "application/javascript"
         }
      },
      {
         "when_comp_start" : -1,
         "url" : "http://st.mycdn.me/res/js/lib/10ce6d44.js",
         "id" : "r53",
         "comps" : [
            {
               "s_time" : 10762.1110000182,
               "time" : 27.5989999063004,
               "type" : null,
               "id" : "comp_183",
               "e_time" : 10789.7099999245
            }
         ],
         "download" : {
            "receiveFirst" : 945,
            "len" : 106380,
            "dns" : 0,
            "dnsEnd" : -1,
            "receiveHeadersEnd" : 945,
            "sslEnd" : -1,
            "connectEnd" : 0,
            "connectStart" : 0,
            "id" : "download_23",
            "receivedTime" : "10761.8990000337",
            "sslStart" : -1,
            "dnsStart" : -1,
            "receiveLast" : 9816.89900003374,
            "s_time" : 3519.21999990009,
            "sendEnd" : 0,
            "sendStart" : 0,
            "type" : "application/javascript"
         }
      },
      {
         "when_comp_start" : -1,
         "url" : "http://st.mycdn.me/res/js/app/f0e27146.js",
         "id" : "r54",
         "comps" : [
            {
               "s_time" : 5726.7990000546,
               "time" : 0.791999977080195,
               "type" : null,
               "id" : "comp_82",
               "e_time" : 5727.59100003168
            }
         ],
         "download" : {
            "receiveFirst" : 1008,
            "len" : 10446,
            "dns" : 0,
            "dnsEnd" : -1,
            "receiveHeadersEnd" : 1008,
            "sslEnd" : -1,
            "connectEnd" : 0,
            "connectStart" : 0,
            "id" : "download_24",
            "receivedTime" : "5726.47899994627",
            "sslStart" : -1,
            "dnsStart" : -1,
            "receiveLast" : 4718.47899994627,
            "s_time" : 3520.06100001745,
            "sendEnd" : 0,
            "sendStart" : 0,
            "type" : "application/javascript"
         }
      },
      {
         "when_comp_start" : -1,
         "url" : "http://st.mycdn.me/res/js/app/48cc2fbe.js",
         "id" : "r55",
         "comps" : [
            {
               "s_time" : 4559.74799999967,
               "time" : 0.544999958950029,
               "type" : null,
               "id" : "comp_67",
               "e_time" : 4560.29299995862
            }
         ],
         "download" : {
            "receiveFirst" : 1034,
            "len" : 1276,
            "dns" : 0,
            "dnsEnd" : -1,
            "receiveHeadersEnd" : 1034,
            "sslEnd" : -1,
            "connectEnd" : 0,
            "connectStart" : 0,
            "id" : "download_25",
            "receivedTime" : "4559.55499992706",
            "sslStart" : -1,
            "dnsStart" : -1,
            "receiveLast" : 3525.55499992706,
            "s_time" : 3522.16199995019,
            "sendEnd" : 0,
            "sendStart" : 0,
            "type" : "application/javascript"
         }
      },
      {
         "when_comp_start" : -1,
         "url" : "http://groupava2.mycdn.me/image?t=32&bid=568772201472&id=568772201472&plc=WEB&tkn=*pPISDtkyDPNQb7PGKDzsIGttl9o",
         "id" : "r24",
         "comps" : [],
         "download" : {
            "receiveFirst" : 978,
            "len" : 1533,
            "dns" : 0,
            "dnsEnd" : -1,
            "receiveHeadersEnd" : 978,
            "sslEnd" : -1,
            "connectEnd" : 0,
            "connectStart" : 0,
            "id" : "download_26",
            "receivedTime" : "4799.84900006093",
            "sslStart" : -1,
            "dnsStart" : -1,
            "receiveLast" : 3821.84900006093,
            "s_time" : 3820.93899999745,
            "sendEnd" : 0,
            "sendStart" : 0,
            "type" : "image/jpeg"
         }
      },
      {
         "when_comp_start" : -1,
         "url" : "http://gic6.mycdn.me/image?t=35&bid=804936040395&id=804936040395&plc=WEB&tkn=*xLUnLHdPh-NuxCHCCsn9dmvFOms",
         "id" : "r23",
         "comps" : [],
         "download" : {
            "receiveFirst" : 982,
            "len" : 25862,
            "dns" : 0,
            "dnsEnd" : 0,
            "receiveHeadersEnd" : 1359,
            "sslEnd" : -1,
            "connectEnd" : 377,
            "connectStart" : 0,
            "id" : "download_27",
            "receivedTime" : "6044.72799994983",
            "sslStart" : -1,
            "dnsStart" : 0,
            "receiveLast" : 4685.72799994983,
            "s_time" : 3457.43499998935,
            "sendEnd" : 377,
            "sendStart" : 377,
            "type" : "image/jpeg"
         }
      },
      {
         "when_comp_start" : -1,
         "url" : "http://groupava2.mycdn.me/image?t=32&bid=504505726301&id=504505726301&plc=WEB&tkn=*RM9BhaDNW5oYU3zeekixZjV5UV4",
         "id" : "r26",
         "comps" : [],
         "download" : {
            "receiveFirst" : 1092,
            "len" : 1154,
            "dns" : 0,
            "dnsEnd" : -1,
            "receiveHeadersEnd" : 1092,
            "sslEnd" : -1,
            "connectEnd" : 0,
            "connectStart" : 0,
            "id" : "download_28",
            "receivedTime" : "5126.92800001241",
            "sslStart" : -1,
            "dnsStart" : -1,
            "receiveLast" : 4034.92800001241,
            "s_time" : 4034.31500005536,
            "sendEnd" : 0,
            "sendStart" : 0,
            "type" : "image/jpeg"
         }
      },
      {
         "when_comp_start" : -1,
         "url" : "http://st.mycdn.me/res/js/app/53217872.js",
         "id" : "r60",
         "comps" : [
            {
               "s_time" : 5743.85199998505,
               "time" : 0.422999961310779,
               "type" : null,
               "id" : "comp_85",
               "e_time" : 5744.27499994636
            }
         ],
         "download" : {
            "receiveFirst" : 1168,
            "len" : 403,
            "dns" : 0,
            "dnsEnd" : -1,
            "receiveHeadersEnd" : 1171,
            "sslEnd" : -1,
            "connectEnd" : 3,
            "connectStart" : 0,
            "id" : "download_29",
            "receivedTime" : "5743.48900001496",
            "sslStart" : -1,
            "dnsStart" : -1,
            "receiveLast" : 4572.48900001496,
            "s_time" : 4568.65999987349,
            "sendEnd" : 3,
            "sendStart" : 3,
            "type" : "application/javascript"
         }
      },
      {
         "when_comp_start" : -1,
         "url" : "http://st.mycdn.me/res/js/app/c2efb913.js",
         "id" : "r61",
         "comps" : [
            {
               "s_time" : 5750.57199993171,
               "time" : 0.445999903599841,
               "type" : null,
               "id" : "comp_88",
               "e_time" : 5751.01799983531
            }
         ],
         "download" : {
            "receiveFirst" : 1174,
            "len" : 4164,
            "dns" : 0,
            "dnsEnd" : -1,
            "receiveHeadersEnd" : 1177,
            "sslEnd" : -1,
            "connectEnd" : 3,
            "connectStart" : 0,
            "id" : "download_30",
            "receivedTime" : "5750.35599991679",
            "sslStart" : -1,
            "dnsStart" : -1,
            "receiveLast" : 4573.35599991679,
            "s_time" : 4569.2529999651,
            "sendEnd" : 3,
            "sendStart" : 3,
            "type" : "application/javascript"
         }
      },
      {
         "when_comp_start" : -1,
         "url" : "http://st.mycdn.me/res/js/b/9284cb6f.js",
         "id" : "r59",
         "comps" : [
            {
               "s_time" : 10922.4890000187,
               "time" : 33.5329999215992,
               "type" : null,
               "id" : "comp_186",
               "e_time" : 10956.0219999403
            }
         ],
         "download" : {
            "receiveFirst" : 1190,
            "len" : 189356,
            "dns" : 0,
            "dnsEnd" : -1,
            "receiveHeadersEnd" : 1193,
            "sslEnd" : -1,
            "connectEnd" : 3,
            "connectStart" : 0,
            "id" : "download_31",
            "receivedTime" : "10922.2770000342",
            "sslStart" : -1,
            "dnsStart" : -1,
            "receiveLast" : 9729.27700003423,
            "s_time" : 4568.05499992333,
            "sendEnd" : 3,
            "sendStart" : 3,
            "type" : "application/javascript"
         }
      },
      {
         "when_comp_start" : -1,
         "url" : "http://groupava2.mycdn.me/image?t=32&bid=600550532116&id=600550532116&plc=WEB&tkn=*wmR9b10_IMCIpyUwdZpTf0nT3IQ",
         "id" : "r28",
         "comps" : [],
         "download" : {
            "receiveFirst" : 1052,
            "len" : 2045,
            "dns" : 0,
            "dnsEnd" : -1,
            "receiveHeadersEnd" : 1052,
            "sslEnd" : -1,
            "connectEnd" : 0,
            "connectStart" : 0,
            "id" : "download_32",
            "receivedTime" : "5806.50199996307",
            "sslStart" : -1,
            "dnsStart" : -1,
            "receiveLast" : 4754.50199996307,
            "s_time" : 4753.22899990715,
            "sendEnd" : 0,
            "sendStart" : 0,
            "type" : "image/jpeg"
         }
      },
      {
         "when_comp_start" : -1,
         "url" : "http://gic0.mycdn.me/image?t=35&bid=808927930880&id=808927930880&plc=WEB&tkn=*IMzALlMuKMZtE-uWB1e7ibWRW-0",
         "id" : "r25",
         "comps" : [],
         "download" : {
            "receiveFirst" : 1022,
            "len" : 32522,
            "dns" : 0,
            "dnsEnd" : 0,
            "receiveHeadersEnd" : 2001,
            "sslEnd" : -1,
            "connectEnd" : 978,
            "connectStart" : 0,
            "id" : "download_33",
            "receivedTime" : "7066.80499995127",
            "sslStart" : -1,
            "dnsStart" : 0,
            "receiveLast" : 5065.80499995127,
            "s_time" : 3837.154999841,
            "sendEnd" : 979,
            "sendStart" : 978,
            "type" : "image/jpeg"
         }
      },
      {
         "when_comp_start" : -1,
         "url" : "http://st.mycdn.me/res/js/app/461ded24.js",
         "id" : "r62",
         "comps" : [
            {
               "s_time" : 7669.92899985053,
               "time" : 0.595000106839507,
               "type" : null,
               "id" : "comp_139",
               "e_time" : 7670.52399995737
            }
         ],
         "download" : {
            "receiveFirst" : 857,
            "len" : 349,
            "dns" : 0,
            "dnsEnd" : -1,
            "receiveHeadersEnd" : 1935,
            "sslEnd" : -1,
            "connectEnd" : 1078,
            "connectStart" : 0,
            "id" : "download_34",
            "receivedTime" : "7669.74599985406",
            "sslStart" : -1,
            "dnsStart" : -1,
            "receiveLast" : 5734.74599985406,
            "s_time" : 4569.73099987954,
            "sendEnd" : 1078,
            "sendStart" : 1078,
            "type" : "application/javascript"
         }
      },
      {
         "when_comp_start" : -1,
         "url" : "http://st.mycdn.me/res/js/app/243fa89.js",
         "id" : "r63",
         "comps" : [
            {
               "s_time" : 7684.57100004889,
               "time" : 0.411999877540438,
               "type" : null,
               "id" : "comp_142",
               "e_time" : 7684.98299992643
            }
         ],
         "download" : {
            "receiveFirst" : 833,
            "len" : 796,
            "dns" : 0,
            "dnsEnd" : -1,
            "receiveHeadersEnd" : 1988,
            "sslEnd" : -1,
            "connectEnd" : 1155,
            "connectStart" : 0,
            "id" : "download_35",
            "receivedTime" : "7684.41700004041",
            "sslStart" : -1,
            "dnsStart" : -1,
            "receiveLast" : 5696.41700004041,
            "s_time" : 4570.95299987122,
            "sendEnd" : 1155,
            "sendStart" : 1155,
            "type" : "application/javascript"
         }
      },
      {
         "when_comp_start" : 1,
         "url" : "http://ok.ru/dk?cmd=anonymLoginImport&nc=1442354686957",
         "id" : "r49",
         "comps" : [
            {
               "s_time" : 6575.32000006177,
               "time" : 0.661999918520451,
               "type" : "evalhtml",
               "id" : "r49_c1",
               "e_time" : 6575.98199998029
            }
         ],
         "download" : {
            "receiveFirst" : 824,
            "len" : 659,
            "dns" : 0,
            "dnsEnd" : -1,
            "receiveHeadersEnd" : 824,
            "sslEnd" : -1,
            "connectEnd" : 0,
            "connectStart" : 0,
            "id" : "download_36",
            "receivedTime" : "6564.34599985369",
            "sslStart" : -1,
            "dnsStart" : -1,
            "receiveLast" : 5740.34599985369,
            "s_time" : 5739.22799993306,
            "sendEnd" : 0,
            "sendStart" : 0,
            "type" : "text/html"
         }
      },
      {
         "when_comp_start" : -1,
         "url" : "http://st.mycdn.me/res/js/app/90f2ecc9.js",
         "id" : "r64",
         "comps" : [
            {
               "s_time" : 6590.30799986795,
               "time" : 0.542000168930826,
               "type" : null,
               "id" : "comp_124",
               "e_time" : 6590.85000003688
            }
         ],
         "download" : {
            "receiveFirst" : 836,
            "len" : 1659,
            "dns" : 0,
            "dnsEnd" : -1,
            "receiveHeadersEnd" : 2007,
            "sslEnd" : -1,
            "connectEnd" : 1171,
            "connectStart" : 0,
            "id" : "download_37",
            "receivedTime" : "6583.29500001855",
            "sslStart" : -1,
            "dnsStart" : -1,
            "receiveLast" : 4576.29500001855,
            "s_time" : 4571.92899985239,
            "sendEnd" : 1171,
            "sendStart" : 1171,
            "type" : "application/javascript"
         }
      },
      {
         "when_comp_start" : -1,
         "url" : "http://st.mycdn.me/res/css/prod/smiles.cf3729c1.css",
         "id" : "r65",
         "comps" : [
            {
               "s_time" : 9432.83499986865,
               "time" : 28.0470000579899,
               "type" : null,
               "id" : "comp_162",
               "e_time" : 9460.88199992664
            }
         ],
         "download" : {
            "receiveFirst" : 840,
            "len" : 292173,
            "dns" : 0,
            "dnsEnd" : -1,
            "receiveHeadersEnd" : 845,
            "sslEnd" : -1,
            "connectEnd" : 5,
            "connectStart" : 0,
            "id" : "download_38",
            "receivedTime" : "9432.70000000484",
            "sslStart" : -1,
            "dnsStart" : -1,
            "receiveLast" : 8587.70000000484,
            "s_time" : 5745.22099993192,
            "sendEnd" : 5,
            "sendStart" : 5,
            "type" : "text/css"
         }
      },
      {
         "when_comp_start" : -1,
         "url" : "http://groupava2.mycdn.me/image?t=32&bid=666223916307&id=666223916307&plc=WEB&tkn=*ZKTJJTetaUwNmEanMXm2VDm0ngU",
         "id" : "r31",
         "comps" : [],
         "download" : {
            "receiveFirst" : 885,
            "len" : 2385,
            "dns" : 0,
            "dnsEnd" : -1,
            "receiveHeadersEnd" : 885,
            "sslEnd" : -1,
            "connectEnd" : 0,
            "connectStart" : 0,
            "id" : "download_39",
            "receivedTime" : "6692.64899985865",
            "sslStart" : -1,
            "dnsStart" : -1,
            "receiveLast" : 5807.64899985865,
            "s_time" : 5805.97199988551,
            "sendEnd" : 0,
            "sendStart" : 0,
            "type" : "image/jpeg"
         }
      },
      {
         "when_comp_start" : -1,
         "url" : "http://gic1.mycdn.me/image?t=35&bid=805012923445&id=805012923445&plc=WEB&tkn=*ey9EifS9H3rPrkgSRev7ZXdswW8",
         "id" : "r27",
         "comps" : [],
         "download" : {
            "receiveFirst" : 912,
            "len" : 40260,
            "dns" : 0,
            "dnsEnd" : 1,
            "receiveHeadersEnd" : 2025,
            "sslEnd" : -1,
            "connectEnd" : 1113,
            "connectStart" : 0,
            "id" : "download_40",
            "receivedTime" : "9790.9450000152",
            "sslStart" : -1,
            "dnsStart" : 1,
            "receiveLast" : 7765.9450000152,
            "s_time" : 4689.60299994797,
            "sendEnd" : 1113,
            "sendStart" : 1113,
            "type" : "image/jpeg"
         }
      },
      {
         "when_comp_start" : -1,
         "url" : "http://gic0.mycdn.me/image?t=35&bid=804998547988&id=804998547988&plc=WEB&tkn=*_sKQp27OF1ZDFjb4K8oy9tKj9eQ",
         "id" : "r29",
         "comps" : [],
         "download" : {
            "receiveFirst" : 999,
            "len" : 14872,
            "dns" : 0,
            "dnsEnd" : 0,
            "receiveHeadersEnd" : 2036,
            "sslEnd" : -1,
            "connectEnd" : 1037,
            "connectStart" : 0,
            "id" : "download_41",
            "receivedTime" : "8471.71199996956",
            "sslStart" : -1,
            "dnsStart" : 0,
            "receiveLast" : 6435.71199996956,
            "s_time" : 4799.77699997835,
            "sendEnd" : 1037,
            "sendStart" : 1037,
            "type" : "image/jpeg"
         }
      },
      {
         "when_comp_start" : -1,
         "url" : "http://gic0.mycdn.me/image?t=35&bid=805062446867&id=805062446867&plc=WEB&tkn=*Ypk3F9WeqzsMct8jfvvR0kmsQmI",
         "id" : "r32",
         "comps" : [],
         "download" : {
            "receiveFirst" : 992,
            "len" : 72059,
            "dns" : 0,
            "dnsEnd" : 0,
            "receiveHeadersEnd" : 1056,
            "sslEnd" : -1,
            "connectEnd" : 64,
            "connectStart" : 0,
            "id" : "download_42",
            "receivedTime" : "11228.9839999285",
            "sslStart" : -1,
            "dnsStart" : 0,
            "receiveLast" : 10172.9839999285,
            "s_time" : 6044.34999986552,
            "sendEnd" : 64,
            "sendStart" : 64,
            "type" : "image/jpeg"
         }
      },
      {
         "when_comp_start" : -1,
         "url" : "http://vdp.mycdn.me/getImage?id=58327239412&idx=8&thumbType=32",
         "id" : "r34",
         "comps" : [],
         "download" : {
            "receiveFirst" : 1037,
            "len" : 27321,
            "dns" : 0,
            "dnsEnd" : -1,
            "receiveHeadersEnd" : 1037,
            "sslEnd" : -1,
            "connectEnd" : 0,
            "connectStart" : 0,
            "id" : "download_43",
            "receivedTime" : "9153.00199994817",
            "sslStart" : -1,
            "dnsStart" : -1,
            "receiveLast" : 8116.00199994817,
            "s_time" : 6186.00500002503,
            "sendEnd" : 0,
            "sendStart" : 0,
            "type" : "image/jpeg"
         }
      },
      {
         "when_comp_start" : -1,
         "url" : "http://vdp.mycdn.me/getImage?id=8668120396&idx=30&thumbType=47&i=1",
         "id" : "r35",
         "comps" : [],
         "download" : {
            "receiveFirst" : 976,
            "len" : 11498,
            "dns" : 0,
            "dnsEnd" : -1,
            "receiveHeadersEnd" : 976,
            "sslEnd" : -1,
            "connectEnd" : 0,
            "connectStart" : 0,
            "id" : "download_44",
            "receivedTime" : "7461.04900003411",
            "sslStart" : -1,
            "dnsStart" : -1,
            "receiveLast" : 6485.04900003411,
            "s_time" : 6399.37400002964,
            "sendEnd" : 0,
            "sendStart" : 0,
            "type" : "image/jpeg"
         }
      },
      {
         "when_comp_start" : -1,
         "url" : "http://vdp.mycdn.me/getImage?id=9193194982&idx=30&thumbType=47&i=1",
         "id" : "r36",
         "comps" : [],
         "download" : {
            "receiveFirst" : 981,
            "len" : 19337,
            "dns" : 0,
            "dnsEnd" : -1,
            "receiveHeadersEnd" : 981,
            "sslEnd" : -1,
            "connectEnd" : 0,
            "connectStart" : 0,
            "id" : "download_45",
            "receivedTime" : "9340.34099988639",
            "sslStart" : -1,
            "dnsStart" : -1,
            "receiveLast" : 8359.34099988639,
            "s_time" : 6494.57599991001,
            "sendEnd" : 0,
            "sendStart" : 0,
            "type" : "image/jpeg"
         }
      },
      {
         "when_comp_start" : 1,
         "url" : "http://ok-bar.love.mail.ru/?&JSONP_call=MRG_updateWambaToolbar&rnd=0.8538673415314406",
         "id" : "r67",
         "comps" : [
            {
               "s_time" : 7834.80999991298,
               "time" : 0.665999948980243,
               "type" : null,
               "id" : "comp_145",
               "e_time" : 7835.47599986196
            }
         ],
         "download" : {
            "receiveFirst" : 1162,
            "len" : 37,
            "dns" : 0,
            "dnsEnd" : -1,
            "receiveHeadersEnd" : 1162,
            "sslEnd" : -1,
            "connectEnd" : 0,
            "connectStart" : 0,
            "id" : "download_46",
            "receivedTime" : "7834.60399997421",
            "sslStart" : -1,
            "dnsStart" : -1,
            "receiveLast" : 6672.60399997421,
            "s_time" : 6671.69300001115,
            "sendEnd" : 0,
            "sendStart" : 0,
            "type" : "text/html"
         }
      },
      {
         "when_comp_start" : -1,
         "url" : "http://ok-portal.mail.ru/NaviData?gamescnt=1&JSONP_call=MRG_updateMainToolbar&rnd=0.3644091470632702",
         "id" : "r66",
         "comps" : [
            {
               "s_time" : 7873.86900000274,
               "time" : 0.290999887510225,
               "type" : null,
               "id" : "comp_147",
               "e_time" : 7874.15999989025
            }
         ],
         "download" : {
            "receiveFirst" : 1200,
            "len" : 54,
            "dns" : 0,
            "dnsEnd" : -1,
            "receiveHeadersEnd" : 1201,
            "sslEnd" : -1,
            "connectEnd" : 0,
            "connectStart" : 0,
            "id" : "download_47",
            "receivedTime" : "7873.70199989527",
            "sslStart" : -1,
            "dnsStart" : -1,
            "receiveLast" : 6672.70199989527,
            "s_time" : 6671.36100004427,
            "sendEnd" : 1,
            "sendStart" : 0,
            "type" : "application/json"
         }
      },
      {
         "when_comp_start" : -1,
         "url" : "http://gic0.mycdn.me/image?t=35&bid=804998550036&id=804998550036&plc=WEB&tkn=*gd4SmeyeCD4xIq8vaIKKYVUup_Q",
         "id" : "r30",
         "comps" : [],
         "download" : {
            "receiveFirst" : 1785,
            "len" : 48274,
            "dns" : 0,
            "dnsEnd" : -1,
            "receiveHeadersEnd" : 2752,
            "sslEnd" : -1,
            "connectEnd" : 967,
            "connectStart" : 0,
            "id" : "download_48",
            "receivedTime" : "9664.25999999046",
            "sslStart" : -1,
            "dnsStart" : -1,
            "receiveLast" : 6912.25999999046,
            "s_time" : 5126.98099995032,
            "sendEnd" : 967,
            "sendStart" : 967,
            "type" : "image/jpeg"
         }
      },
      {
         "when_comp_start" : -1,
         "url" : "http://vdp.mycdn.me/getImage?id=7361660310&idx=30&thumbType=47&i=1",
         "id" : "r37",
         "comps" : [],
         "download" : {
            "receiveFirst" : 1453,
            "len" : 26827,
            "dns" : 0,
            "dnsEnd" : -1,
            "receiveHeadersEnd" : 1453,
            "sslEnd" : -1,
            "connectEnd" : 0,
            "connectStart" : 0,
            "id" : "download_49",
            "receivedTime" : "9780.87399993092",
            "sslStart" : -1,
            "dnsStart" : -1,
            "receiveLast" : 8327.87399993092,
            "s_time" : 6692.36099999398,
            "sendEnd" : 0,
            "sendStart" : 0,
            "type" : "image/jpeg"
         }
      },
      {
         "when_comp_start" : -1,
         "url" : "http://gic0.mycdn.me/image?t=35&bid=805062472723&id=805062472723&plc=WEB&tkn=*WDVhHtQ73RumJf7OUEocmYqiL-0",
         "id" : "r33",
         "comps" : [],
         "download" : {
            "receiveFirst" : 1431,
            "len" : 29679,
            "dns" : 0,
            "dnsEnd" : -1,
            "receiveHeadersEnd" : 2403,
            "sslEnd" : -1,
            "connectEnd" : 972,
            "connectStart" : 0,
            "id" : "download_50",
            "receivedTime" : "9913.78299985081",
            "sslStart" : -1,
            "dnsStart" : -1,
            "receiveLast" : 7510.78299985081,
            "s_time" : 6094.11399997771,
            "sendEnd" : 972,
            "sendStart" : 972,
            "type" : "image/jpeg"
         }
      },
      {
         "when_comp_start" : -1,
         "url" : "http://vdp.mycdn.me/getImage?id=59832142573&idx=13&thumbType=32",
         "id" : "r38",
         "comps" : [],
         "download" : {
            "receiveFirst" : 1673,
            "len" : 29739,
            "dns" : 0,
            "dnsEnd" : -1,
            "receiveHeadersEnd" : 1673,
            "sslEnd" : -1,
            "connectEnd" : 0,
            "connectStart" : 0,
            "id" : "download_51",
            "receivedTime" : "10020.4539999831",
            "sslStart" : -1,
            "dnsStart" : -1,
            "receiveLast" : 8347.45399998315,
            "s_time" : 7066.57999986783,
            "sendEnd" : 0,
            "sendStart" : 0,
            "type" : "image/jpeg"
         }
      },
      {
         "when_comp_start" : -1,
         "url" : "http://vdp.mycdn.me/getImage?id=57714281050&idx=3&thumbType=32",
         "id" : "r39",
         "comps" : [],
         "download" : {
            "receiveFirst" : 1721,
            "len" : 25849,
            "dns" : 0,
            "dnsEnd" : -1,
            "receiveHeadersEnd" : 1721,
            "sslEnd" : -1,
            "connectEnd" : 0,
            "connectStart" : 0,
            "id" : "download_52",
            "receivedTime" : "10601.7630000133",
            "sslStart" : -1,
            "dnsStart" : -1,
            "receiveLast" : 8880.76300001331,
            "s_time" : 7460.85299993865,
            "sendEnd" : 0,
            "sendStart" : 0,
            "type" : "image/jpeg"
         }
      },
      {
         "when_comp_start" : -1,
         "url" : "http://vdp.mycdn.me/getImage?id=9226552619&idx=30&thumbType=47&i=1",
         "id" : "r40",
         "comps" : [],
         "download" : {
            "receiveFirst" : 1345,
            "len" : 16516,
            "dns" : 0,
            "dnsEnd" : -1,
            "receiveHeadersEnd" : 1345,
            "sslEnd" : -1,
            "connectEnd" : 0,
            "connectStart" : 0,
            "id" : "download_53",
            "receivedTime" : "11252.8969999403",
            "sslStart" : -1,
            "dnsStart" : -1,
            "receiveLast" : 9907.89699994028,
            "s_time" : 8471.49199992418,
            "sendEnd" : 0,
            "sendStart" : 0,
            "type" : "image/jpeg"
         }
      },
      {
         "when_comp_start" : -1,
         "url" : "http://vdp.mycdn.me/getImage?id=58542328575&idx=6&thumbType=32",
         "id" : "r41",
         "comps" : [],
         "download" : {
            "receiveFirst" : 1169,
            "len" : 67746,
            "dns" : 0,
            "dnsEnd" : -1,
            "receiveHeadersEnd" : 1169,
            "sslEnd" : -1,
            "connectEnd" : 0,
            "connectStart" : 0,
            "id" : "download_54",
            "receivedTime" : "11769.7240000125",
            "sslStart" : -1,
            "dnsStart" : -1,
            "receiveLast" : 10600.7240000125,
            "s_time" : 9152.84699993208,
            "sendEnd" : 0,
            "sendStart" : 0,
            "type" : "image/jpeg"
         }
      },
      {
         "when_comp_start" : -1,
         "url" : "http://vdp.mycdn.me/getImage?id=58603604716&idx=7&thumbType=32",
         "id" : "r42",
         "comps" : [],
         "download" : {
            "receiveFirst" : 1264,
            "len" : 22163,
            "dns" : 0,
            "dnsEnd" : -1,
            "receiveHeadersEnd" : 1264,
            "sslEnd" : -1,
            "connectEnd" : 0,
            "connectStart" : 0,
            "id" : "download_55",
            "receivedTime" : "11513.0719998851",
            "sslStart" : -1,
            "dnsStart" : -1,
            "receiveLast" : 10249.0719998851,
            "s_time" : 9340.13499994762,
            "sendEnd" : 0,
            "sendStart" : 0,
            "type" : "image/jpeg"
         }
      },
      {
         "when_comp_start" : -1,
         "url" : "http://vdp.mycdn.me/getImage?id=404292881&idx=30&thumbType=47&i=1",
         "id" : "r43",
         "comps" : [],
         "download" : {
            "receiveFirst" : 1169,
            "len" : 31201,
            "dns" : 0,
            "dnsEnd" : -1,
            "receiveHeadersEnd" : 1286,
            "sslEnd" : -1,
            "connectEnd" : 117,
            "connectStart" : 0,
            "id" : "download_56",
            "receivedTime" : "11553.6499998998",
            "sslStart" : -1,
            "dnsStart" : -1,
            "receiveLast" : 10267.6499998998,
            "s_time" : 9664.11200002767,
            "sendEnd" : 117,
            "sendStart" : 117,
            "type" : "image/jpeg"
         }
      },
      {
         "when_comp_start" : -1,
         "url" : "http://st.mycdn.me/res/i/video/play-l.png",
         "id" : "r45",
         "comps" : [],
         "download" : {
            "receiveFirst" : 1378,
            "len" : 2371,
            "dns" : 0,
            "dnsEnd" : -1,
            "receiveHeadersEnd" : 1378,
            "sslEnd" : -1,
            "connectEnd" : 0,
            "connectStart" : 0,
            "id" : "download_57",
            "receivedTime" : "11575.622000033",
            "sslStart" : -1,
            "dnsStart" : -1,
            "receiveLast" : 10197.622000033,
            "s_time" : 9790.90299992822,
            "sendEnd" : 0,
            "sendStart" : 0,
            "type" : "image/png"
         }
      },
      {
         "when_comp_start" : -1,
         "url" : "http://st.mycdn.me/res/i/p/anonym/logo_48x82.png",
         "id" : "r44",
         "comps" : [],
         "download" : {
            "receiveFirst" : 1403,
            "len" : 925,
            "dns" : 0,
            "dnsEnd" : -1,
            "receiveHeadersEnd" : 1403,
            "sslEnd" : -1,
            "connectEnd" : 0,
            "connectStart" : 0,
            "id" : "download_58",
            "receivedTime" : "11186.8509999476",
            "sslStart" : -1,
            "dnsStart" : -1,
            "receiveLast" : 9783.85099994764,
            "s_time" : 9780.87899996899,
            "sendEnd" : 0,
            "sendStart" : 0,
            "type" : "image/png"
         }
      },
      {
         "when_comp_start" : -1,
         "url" : "http://st.mycdn.me/res/i/anonym/autumn/default/autumn.jpg",
         "id" : "r48",
         "comps" : [],
         "download" : {
            "receiveFirst" : 1295,
            "len" : 452710,
            "dns" : 0,
            "dnsEnd" : -1,
            "receiveHeadersEnd" : 1295,
            "sslEnd" : -1,
            "connectEnd" : 0,
            "connectStart" : 0,
            "id" : "download_59",
            "receivedTime" : "23065.1670000516",
            "sslStart" : -1,
            "dnsStart" : -1,
            "receiveLast" : 21770.1670000516,
            "s_time" : 9913.78499986604,
            "sendEnd" : 0,
            "sendStart" : 0,
            "type" : "image/jpeg"
         }
      },
      {
         "when_comp_start" : -1,
         "url" : "http://st.mycdn.me/res/i/p/gs/gs_go-top.png",
         "id" : "r51",
         "comps" : [],
         "download" : {
            "receiveFirst" : 1203,
            "len" : 169,
            "dns" : 0,
            "dnsEnd" : -1,
            "receiveHeadersEnd" : 1203,
            "sslEnd" : -1,
            "connectEnd" : 0,
            "connectStart" : 0,
            "id" : "download_60",
            "receivedTime" : "11227.1050000563",
            "sslStart" : -1,
            "dnsStart" : -1,
            "receiveLast" : 10024.1050000563,
            "s_time" : 10020.2130000107,
            "sendEnd" : 0,
            "sendStart" : 0,
            "type" : "image/png"
         }
      },
      {
         "when_comp_start" : -1,
         "url" : "http://st.mycdn.me/res/i/bg/fader/fader_footer.png",
         "id" : "r68",
         "comps" : [],
         "download" : {
            "receiveFirst" : 413,
            "len" : 205,
            "dns" : 0,
            "dnsEnd" : -1,
            "receiveHeadersEnd" : 413,
            "sslEnd" : -1,
            "connectEnd" : 0,
            "connectStart" : 0,
            "id" : "download_61",
            "receivedTime" : "11645.2869998757",
            "sslStart" : -1,
            "dnsStart" : -1,
            "receiveLast" : 11232.2869998757,
            "s_time" : 11228.9970000274,
            "sendEnd" : 0,
            "sendStart" : 0,
            "type" : "image/png"
         }
      },
      {
         "when_comp_start" : -1,
         "url" : "http://counter.yadro.ru/hit?q;r;s1024*768*24;uhttp%3A%2F%2Foriginal.testbed.localhost%2Fwww.ok.ru%2F;0.36394461803138256",
         "id" : "r57",
         "comps" : [],
         "download" : {
            "receiveFirst" : 236,
            "len" : 43,
            "dns" : 0,
            "dnsEnd" : -1,
            "receiveHeadersEnd" : 236,
            "sslEnd" : -1,
            "connectEnd" : 0,
            "connectStart" : 0,
            "id" : "download_62",
            "receivedTime" : "11820.9450000431",
            "sslStart" : -1,
            "dnsStart" : -1,
            "receiveLast" : 11584.9450000431,
            "s_time" : 11584.1909998562,
            "sendEnd" : 0,
            "sendStart" : 0,
            "type" : "image/gif"
         }
      },
      {
         "when_comp_start" : -1,
         "url" : "http://top-fwz1.mail.ru/counter2?id=1963260;js=13;s=1024*768;_=0.9977858262136579",
         "id" : "r58",
         "comps" : [],
         "download" : {
            "receiveFirst" : 212,
            "len" : 43,
            "dns" : 0,
            "dnsEnd" : -1,
            "receiveHeadersEnd" : 212,
            "sslEnd" : -1,
            "connectEnd" : 0,
            "connectStart" : 0,
            "id" : "download_63",
            "receivedTime" : "11850.1440000255",
            "sslStart" : -1,
            "dnsStart" : -1,
            "receiveLast" : 11638.1440000255,
            "s_time" : 11637.6310000196,
            "sendEnd" : 0,
            "sendStart" : 0,
            "type" : "image/gif"
         }
      },
      {
         "when_comp_start" : -1,
         "url" : "http://www.tns-counter.ru/V13b***R%3E*odnoklassniki_ru/ru/UTF-8/tmsec=odnoklassniki_site/321950052",
         "id" : "r56",
         "comps" : [],
         "download" : {
            "receiveFirst" : 3927,
            "len" : 43,
            "dns" : 0,
            "dnsEnd" : -1,
            "receiveHeadersEnd" : 3927,
            "sslEnd" : -1,
            "connectEnd" : 0,
            "connectStart" : 0,
            "id" : "download_64",
            "receivedTime" : "15417.4219998531",
            "sslStart" : -1,
            "dnsStart" : -1,
            "receiveLast" : 11490.4219998531,
            "s_time" : 11489.4769999664,
            "sendEnd" : 0,
            "sendStart" : 0,
            "type" : "image/gif"
         }
      }
   ],
   "deps" : [
      {
         "a2" : "r1_c2",
         "time" : -1,
         "id" : "dep1",
         "a1" : "comp_9"
      },
      {
         "a2" : "r1_c3",
         "time" : -1,
         "id" : "dep2",
         "a1" : "comp_10"
      },
      {
         "a2" : "r1_c4",
         "time" : -1,
         "id" : "dep3",
         "a1" : "comp_11"
      },
      {
         "a2" : "r1_c5",
         "time" : -1,
         "id" : "dep4",
         "a1" : "comp_25"
      },
      {
         "a2" : "r1_c6",
         "time" : -1,
         "id" : "dep5",
         "a1" : "comp_36"
      },
      {
         "a2" : "comp_10",
         "time" : -1,
         "id" : "dep6",
         "a1" : "comp_9"
      },
      {
         "a2" : "comp_11",
         "time" : -1,
         "id" : "dep7",
         "a1" : "comp_10"
      },
      {
         "a2" : "download_64",
         "time" : -1,
         "id" : "dep8",
         "a1" : "r1_c6"
      },
      {
         "a2" : "download_63",
         "time" : -1,
         "id" : "dep9",
         "a1" : "r1_c6"
      },
      {
         "a2" : "download_62",
         "time" : 8082.38099981097,
         "id" : "dep10",
         "a1" : "r1_c6"
      },
      {
         "a2" : "download_61",
         "time" : 7727.18699998217,
         "id" : "dep11",
         "a1" : "r1_c6"
      },
      {
         "a2" : "download_60",
         "time" : 6518.40299996547,
         "id" : "dep12",
         "a1" : "r1_c6"
      },
      {
         "a2" : "download_59",
         "time" : 6411.97499982081,
         "id" : "dep13",
         "a1" : "r1_c6"
      },
      {
         "a2" : "download_58",
         "time" : 6279.06899992376,
         "id" : "dep14",
         "a1" : "r1_c6"
      },
      {
         "a2" : "download_57",
         "time" : 6289.09299988299,
         "id" : "dep15",
         "a1" : "r1_c6"
      },
      {
         "a2" : "download_56",
         "time" : 6162.30199998244,
         "id" : "dep16",
         "a1" : "r1_c6"
      },
      {
         "a2" : "download_55",
         "time" : 5838.32499990239,
         "id" : "dep17",
         "a1" : "r1_c6"
      },
      {
         "a2" : "download_54",
         "time" : 5651.03699988685,
         "id" : "dep18",
         "a1" : "r1_c6"
      },
      {
         "a2" : "download_53",
         "time" : 4969.68199987895,
         "id" : "dep19",
         "a1" : "r1_c6"
      },
      {
         "a2" : "download_52",
         "time" : 3959.04299989342,
         "id" : "dep20",
         "a1" : "r1_c6"
      },
      {
         "a2" : "download_51",
         "time" : 3564.7699998226,
         "id" : "dep21",
         "a1" : "r1_c6"
      },
      {
         "a2" : "download_50",
         "time" : 2592.30399993248,
         "id" : "dep22",
         "a1" : "r1_c6"
      },
      {
         "a2" : "download_49",
         "time" : 3190.55099994875,
         "id" : "dep23",
         "a1" : "r1_c6"
      },
      {
         "a2" : "download_48",
         "time" : 1625.17099990509,
         "id" : "dep24",
         "a1" : "r1_c6"
      },
      {
         "a2" : "download_47",
         "time" : 3169.55099999904,
         "id" : "dep25",
         "a1" : "r1_c6"
      },
      {
         "a2" : "download_46",
         "time" : 3169.88299996592,
         "id" : "dep26",
         "a1" : "r1_c6"
      },
      {
         "a2" : "download_45",
         "time" : 2992.76599986478,
         "id" : "dep27",
         "a1" : "r1_c6"
      },
      {
         "a2" : "download_44",
         "time" : 2897.56399998441,
         "id" : "dep28",
         "a1" : "r1_c6"
      },
      {
         "a2" : "download_43",
         "time" : 2684.1949999798,
         "id" : "dep29",
         "a1" : "r1_c6"
      },
      {
         "a2" : "download_42",
         "time" : 2542.53999982029,
         "id" : "dep30",
         "a1" : "r1_c6"
      },
      {
         "a2" : "download_41",
         "time" : 1297.96699993312,
         "id" : "dep31",
         "a1" : "r1_c6"
      },
      {
         "a2" : "download_40",
         "time" : 1187.79299990274,
         "id" : "dep32",
         "a1" : "r1_c6"
      },
      {
         "a2" : "download_39",
         "time" : 2304.16199984028,
         "id" : "dep33",
         "a1" : "r1_c6"
      },
      {
         "a2" : "download_38",
         "time" : 2243.41099988669,
         "id" : "dep34",
         "a1" : "r1_c6"
      },
      {
         "a2" : "download_37",
         "time" : 1070.11899980716,
         "id" : "dep35",
         "a1" : "r1_c6"
      },
      {
         "a2" : "download_36",
         "time" : 2237.41799988783,
         "id" : "dep36",
         "a1" : "r1_c6"
      },
      {
         "a2" : "download_35",
         "time" : 1069.14299982599,
         "id" : "dep37",
         "a1" : "r1_c6"
      },
      {
         "a2" : "download_34",
         "time" : 1067.92099983431,
         "id" : "dep38",
         "a1" : "r1_c6"
      },
      {
         "a2" : "download_33",
         "time" : 335.34499979577,
         "id" : "dep39",
         "a1" : "r1_c6"
      },
      {
         "a2" : "download_32",
         "time" : 1251.41899986192,
         "id" : "dep40",
         "a1" : "r1_c6"
      },
      {
         "a2" : "download_31",
         "time" : 1066.2449998781,
         "id" : "dep41",
         "a1" : "r1_c6"
      },
      {
         "a2" : "download_30",
         "time" : 1067.44299991987,
         "id" : "dep42",
         "a1" : "r1_c6"
      },
      {
         "a2" : "download_29",
         "time" : 1066.84999982826,
         "id" : "dep43",
         "a1" : "r1_c6"
      },
      {
         "a2" : "download_28",
         "time" : 532.50500001013,
         "id" : "dep44",
         "a1" : "r1_c6"
      },
      {
         "a2" : "download_27",
         "time" : -1,
         "id" : "dep45",
         "a1" : "r1_c4"
      },
      {
         "a2" : "download_26",
         "time" : 319.12899995222,
         "id" : "dep46",
         "a1" : "r1_c6"
      },
      {
         "a2" : "download_25",
         "time" : 20.3519999049599,
         "id" : "dep47",
         "a1" : "r1_c6"
      },
      {
         "a2" : "download_24",
         "time" : 18.2509999722201,
         "id" : "dep48",
         "a1" : "r1_c6"
      },
      {
         "a2" : "download_23",
         "time" : 17.40999985486,
         "id" : "dep49",
         "a1" : "r1_c6"
      },
      {
         "a2" : "download_22",
         "time" : 6.09099981374993,
         "id" : "dep50",
         "a1" : "r1_c6"
      },
      {
         "a2" : "download_21",
         "time" : 190.03199995495,
         "id" : "dep51",
         "a1" : "r1_c4"
      },
      {
         "a2" : "download_20",
         "time" : 107.98799991607,
         "id" : "dep52",
         "a1" : "r1_c4"
      },
      {
         "a2" : "download_19",
         "time" : 107.67999989912,
         "id" : "dep53",
         "a1" : "r1_c4"
      },
      {
         "a2" : "download_18",
         "time" : 107.38499998115,
         "id" : "dep54",
         "a1" : "r1_c4"
      },
      {
         "a2" : "download_17",
         "time" : 108.47999993711,
         "id" : "dep55",
         "a1" : "r1_c4"
      },
      {
         "a2" : "download_16",
         "time" : 106.70799994841,
         "id" : "dep56",
         "a1" : "r1_c4"
      },
      {
         "a2" : "download_15",
         "time" : 295.1470001135,
         "id" : "dep57",
         "a1" : "r1_c4"
      },
      {
         "a2" : "download_14",
         "time" : 108.9890000876,
         "id" : "dep58",
         "a1" : "r1_c4"
      },
      {
         "a2" : "download_13",
         "time" : 107.11199999787,
         "id" : "dep59",
         "a1" : "r1_c4"
      },
      {
         "a2" : "download_12",
         "time" : 1.08599988742981,
         "id" : "dep60",
         "a1" : "r1_c6"
      },
      {
         "a2" : "download_11",
         "time" : 143.78700009547,
         "id" : "dep61",
         "a1" : "r1_c4"
      },
      {
         "a2" : "download_10",
         "time" : 108.6939999368,
         "id" : "dep62",
         "a1" : "r1_c4"
      },
      {
         "a2" : "download_9",
         "time" : 108.23499993421,
         "id" : "dep63",
         "a1" : "r1_c4"
      },
      {
         "a2" : "download_8",
         "time" : 9.58700012414965,
         "id" : "dep64",
         "a1" : "r1_c4"
      },
      {
         "a2" : "download_6",
         "time" : -1,
         "id" : "dep65",
         "a1" : "r1_c1"
      },
      {
         "a2" : "download_5",
         "time" : 2.59899999946302,
         "id" : "dep66",
         "a1" : "r1_c1"
      },
      {
         "a2" : "download_4",
         "time" : 2.40300013683702,
         "id" : "dep67",
         "a1" : "r1_c1"
      },
      {
         "a2" : "download_4",
         "time" : 2.40300013683702,
         "id" : "dep68",
         "a1" : "r1_c1"
      },
      {
         "a2" : "download_3",
         "time" : -1,
         "id" : "dep69",
         "a1" : "r1_c1"
      },
      {
         "a2" : "download_2",
         "time" : 2.17100000008901,
         "id" : "dep70",
         "a1" : "r1_c1"
      },
      {
         "a2" : "download_1",
         "time" : 1.94700015708801,
         "id" : "dep71",
         "a1" : "r1_c1"
      }
   ]
}
