{
   "n_download_no_trigger" : 1,
   "start_activity" : "download_0",
   "name" : "original.testbed.localhost_www.kidsfoni.com_",
   "load_activity" : -1,
   "objs" : [
      {
         "when_comp_start" : 1,
         "url" : "http://original.testbed.localhost/www.kidsfoni.com/",
         "id" : "r1",
         "comps" : [
            {
               "s_time" : 164.668000070378,
               "time" : 7.54499994218398,
               "id" : "r1_c1",
               "type" : "evalhtml",
               "e_time" : 172.213000012562
            },
            {
               "s_time" : 879.408000037074,
               "time" : -1096937511.263,
               "id" : "r1_c2",
               "type" : "evalhtml",
               "e_time" : -1096936631.855
            },
            {
               "s_time" : 881.039999891073,
               "time" : -1096937512.895,
               "id" : "r1_c3",
               "type" : "evalhtml",
               "e_time" : -1096936631.855
            },
            {
               "s_time" : 886.56899984926,
               "time" : 1.11400010064199,
               "id" : "r1_c4",
               "type" : "evalhtml",
               "e_time" : 887.682999949902
            },
            {
               "s_time" : 891.264999983832,
               "time" : -1096937523.12,
               "id" : "r1_c5",
               "type" : "evalhtml",
               "e_time" : -1096936631.855
            },
            {
               "s_time" : 1021.53899986297,
               "time" : -1096937653.394,
               "id" : "r1_c6",
               "type" : "evalhtml",
               "e_time" : -1096936631.855
            },
            {
               "s_time" : 1073.98499990813,
               "time" : -1096937705.84,
               "id" : "r1_c7",
               "type" : "evalhtml",
               "e_time" : -1096936631.855
            },
            {
               "s_time" : 1078.3259999007,
               "time" : -1096937710.181,
               "id" : "r1_c8",
               "type" : "evalhtml",
               "e_time" : -1096936631.855
            },
            {
               "s_time" : 1082.82799995504,
               "time" : 521.52599999681,
               "id" : "r1_c9",
               "type" : "evalhtml",
               "e_time" : 1604.35399995185
            },
            {
               "s_time" : 1605.99699988961,
               "time" : 19.13400017657,
               "id" : "r1_c10",
               "type" : "evalhtml",
               "e_time" : 1625.13100006618
            },
            {
               "s_time" : 1638.43200006522,
               "time" : -1096938270.287,
               "id" : "r1_c11",
               "type" : "evalhtml",
               "e_time" : -1096936631.855
            },
            {
               "s_time" : 1638.57099995948,
               "time" : -1096938270.426,
               "id" : "r1_c12",
               "type" : "evalhtml",
               "e_time" : -1096936631.855
            },
            {
               "s_time" : 1638.64000001922,
               "time" : 127.12699989788,
               "id" : "r1_c13",
               "type" : "evalhtml",
               "e_time" : 1765.7669999171
            },
            {
               "s_time" : 1930.10700005107,
               "time" : -1096938561.962,
               "id" : "r1_c14",
               "type" : "evalhtml",
               "e_time" : -1096936631.855
            },
            {
               "s_time" : 1930.4359999951,
               "time" : -1096938562.291,
               "id" : "r1_c15",
               "type" : "evalhtml",
               "e_time" : -1096936631.855
            },
            {
               "s_time" : 2042.39499988034,
               "time" : -1096938674.25,
               "id" : "r1_c16",
               "type" : "evalhtml",
               "e_time" : -1096936631.855
            },
            {
               "s_time" : 2046.72300000675,
               "time" : 53.6919999867698,
               "id" : "r1_c17",
               "type" : "evalhtml",
               "e_time" : 2100.41499999352
            },
            {
               "s_time" : 2111.95899988525,
               "time" : -1096938743.814,
               "id" : "r1_c18",
               "type" : "evalhtml",
               "e_time" : -1096936631.855
            },
            {
               "s_time" : 2117.19699995592,
               "time" : 4.30399994366007,
               "id" : "r1_c19",
               "type" : "evalhtml",
               "e_time" : 2121.50099989958
            },
            {
               "s_time" : 2169.78299990296,
               "time" : -1096938801.638,
               "id" : "r1_c20",
               "type" : "evalhtml",
               "e_time" : -1096936631.855
            },
            {
               "s_time" : 2174.27999991924,
               "time" : -1096938806.135,
               "id" : "r1_c21",
               "type" : "evalhtml",
               "e_time" : -1096936631.855
            },
            {
               "s_time" : 2252.22499994561,
               "time" : -1096938884.08,
               "id" : "r1_c22",
               "type" : "evalhtml",
               "e_time" : -1096936631.855
            },
            {
               "s_time" : 2256.55499985442,
               "time" : -1096938888.41,
               "id" : "r1_c23",
               "type" : "evalhtml",
               "e_time" : -1096936631.855
            },
            {
               "s_time" : 2358.62099984661,
               "time" : -1096938990.476,
               "id" : "r1_c24",
               "type" : "evalhtml",
               "e_time" : -1096936631.855
            },
            {
               "s_time" : 2363.21999994107,
               "time" : 26938.705000095,
               "type" : "evalhtml",
               "id" : "r1_c25",
               "e_time" : 29301.9250000361
            }
         ],
         "download" : {
            "receiveFirst" : 153,
            "len" : 119207,
            "dns" : 0,
            "dnsEnd" : -1,
            "receiveHeadersEnd" : 153,
            "sslEnd" : -1,
            "connectEnd" : 0,
            "connectStart" : 0,
            "id" : "download_0",
            "receivedTime" : "225.470999954268",
            "sslStart" : -1,
            "dnsStart" : -1,
            "receiveLast" : 72.4709999542683,
            "s_time" : 0,
            "sendEnd" : 0,
            "sendStart" : 0,
            "type" : "text/html"
         }
      },
      {
         "when_comp_start" : 1,
         "url" : "http://original.testbed.localhost/Themes/Kidsfoni_350/Content/img/kids/logo.png",
         "id" : "r31",
         "comps" : [],
         "download" : {
            "receiveFirst" : 198,
            "len" : 335,
            "dns" : 0,
            "dnsEnd" : -1,
            "receiveHeadersEnd" : 199,
            "sslEnd" : -1,
            "connectEnd" : 1,
            "connectStart" : 0,
            "id" : "download_1",
            "receivedTime" : "1087.67899987288",
            "sslStart" : -1,
            "dnsStart" : -1,
            "receiveLast" : 888.678999872878,
            "s_time" : 887.682999949902,
            "sendEnd" : 1,
            "sendStart" : 1,
            "type" : "text/html"
         }
      },
      {
         "when_comp_start" : 1,
         "url" : "http://original.testbed.localhost/Themes/Kidsfoni_350/Content/images/etkinlikzamani.png",
         "id" : "r32",
         "comps" : [],
         "download" : {
            "receiveFirst" : 151,
            "len" : 343,
            "dns" : 0,
            "dnsEnd" : -1,
            "receiveHeadersEnd" : 151,
            "sslEnd" : -1,
            "connectEnd" : 0,
            "connectStart" : 0,
            "id" : "download_2",
            "receivedTime" : "1239.40399987623",
            "sslStart" : -1,
            "dnsStart" : -1,
            "receiveLast" : 1088.40399987623,
            "s_time" : 1087.49599987641,
            "sendEnd" : 0,
            "sendStart" : 0,
            "type" : "text/html"
         }
      },
      {
         "when_comp_start" : 1,
         "url" : "http://original.testbed.localhost/Themes/Kidsfoni_350/Content/images/dogumgunu.png",
         "id" : "r33",
         "comps" : [],
         "download" : {
            "receiveFirst" : 151,
            "len" : 338,
            "dns" : 0,
            "dnsEnd" : -1,
            "receiveHeadersEnd" : 151,
            "sslEnd" : -1,
            "connectEnd" : 0,
            "connectStart" : 0,
            "id" : "download_3",
            "receivedTime" : "1391.67100004852",
            "sslStart" : -1,
            "dnsStart" : -1,
            "receiveLast" : 1240.67100004852,
            "s_time" : 1239.22899994068,
            "sendEnd" : 0,
            "sendStart" : 0,
            "type" : "text/html"
         }
      },
      {
         "when_comp_start" : 1,
         "url" : "http://original.testbed.localhost/Themes/Kidsfoni_350/Content/images/urunler.png",
         "id" : "r34",
         "comps" : [],
         "download" : {
            "receiveFirst" : 151,
            "len" : 336,
            "dns" : 0,
            "dnsEnd" : -1,
            "receiveHeadersEnd" : 153,
            "sslEnd" : -1,
            "connectEnd" : 2,
            "connectStart" : 0,
            "id" : "download_4",
            "receivedTime" : "1546.10599996522",
            "sslStart" : -1,
            "dnsStart" : -1,
            "receiveLast" : 1393.10599996522,
            "s_time" : 1391.66199997999,
            "sendEnd" : 2,
            "sendStart" : 2,
            "type" : "text/html"
         }
      },
      {
         "when_comp_start" : -1,
         "url" : "https://reklamstore.cdn1.sadececdn.com/file/Bounce/pixelv6.js",
         "id" : "r30",
         "comps" : [
            {
               "s_time" : 1603.22599997744,
               "time" : 2.77099991216983,
               "type" : 1,
               "id" : "comp_28",
               "e_time" : 1605.99699988961
            }
         ],
         "download" : {
            "receiveFirst" : 857,
            "len" : 19173,
            "dns" : 0,
            "dnsEnd" : 0,
            "receiveHeadersEnd" : 1416,
            "sslEnd" : 558,
            "connectEnd" : 558,
            "connectStart" : 0,
            "id" : "download_5",
            "receivedTime" : "1602.88299992681",
            "sslStart" : 0,
            "dnsStart" : 0,
            "receiveLast" : 186.882999926805,
            "s_time" : 172.213000012562,
            "sendEnd" : 559,
            "sendStart" : 558,
            "type" : "application/x-javascript"
         }
      },
      {
         "when_comp_start" : 1,
         "url" : "http://original.testbed.localhost/Themes/kidsfoni_350/Content/img/kids/slides/slider_3.jpg",
         "id" : "r39",
         "comps" : [],
         "download" : {
            "receiveFirst" : 151,
            "len" : 346,
            "dns" : 0,
            "dnsEnd" : -1,
            "receiveHeadersEnd" : 153,
            "sslEnd" : -1,
            "connectEnd" : 2,
            "connectStart" : 0,
            "id" : "download_6",
            "receivedTime" : "1757.82399997115",
            "sslStart" : -1,
            "dnsStart" : -1,
            "receiveLast" : 1604.82399997115,
            "s_time" : 1603.6389998626,
            "sendEnd" : 2,
            "sendStart" : 2,
            "type" : "text/html"
         }
      },
      {
         "when_comp_start" : 1,
         "url" : "http://original.testbed.localhost/Themes/Kidsfoni_350/Content/img/kids/slides/slider_2.jpg",
         "id" : "r40",
         "comps" : [],
         "download" : {
            "receiveFirst" : 152,
            "len" : 346,
            "dns" : 0,
            "dnsEnd" : -1,
            "receiveHeadersEnd" : 154,
            "sslEnd" : -1,
            "connectEnd" : 2,
            "connectStart" : 0,
            "id" : "download_7",
            "receivedTime" : "1759.34299989603",
            "sslStart" : -1,
            "dnsStart" : -1,
            "receiveLast" : 1605.34299989603,
            "s_time" : 1603.75700006261,
            "sendEnd" : 2,
            "sendStart" : 2,
            "type" : "text/html"
         }
      },
      {
         "when_comp_start" : 1,
         "url" : "http://original.testbed.localhost/Themes/Kidsfoni_350/Content/img/kids/slides/slider_1.jpg",
         "id" : "r41",
         "comps" : [],
         "download" : {
            "receiveFirst" : 155,
            "len" : 346,
            "dns" : 0,
            "dnsEnd" : -1,
            "receiveHeadersEnd" : 157,
            "sslEnd" : -1,
            "connectEnd" : 2,
            "connectStart" : 0,
            "id" : "download_8",
            "receivedTime" : "1762.50599999912",
            "sslStart" : -1,
            "dnsStart" : -1,
            "receiveLast" : 1605.50599999912,
            "s_time" : 1603.89899997972,
            "sendEnd" : 2,
            "sendStart" : 2,
            "type" : "text/html"
         }
      },
      {
         "when_comp_start" : 1,
         "url" : "http://original.testbed.localhost/Themes/Kidsfoni_350/Content/img/kids/slides/slider_3.jpg",
         "id" : "r42",
         "comps" : [],
         "download" : {
            "receiveFirst" : 159,
            "len" : 346,
            "dns" : 0,
            "dnsEnd" : -1,
            "receiveHeadersEnd" : 161,
            "sslEnd" : -1,
            "connectEnd" : 2,
            "connectStart" : 0,
            "id" : "download_9",
            "receivedTime" : "1765.73499990627",
            "sslStart" : -1,
            "dnsStart" : -1,
            "receiveLast" : 1604.73499990627,
            "s_time" : 1604.01099990122,
            "sendEnd" : 2,
            "sendStart" : 2,
            "type" : "text/html"
         }
      },
      {
         "when_comp_start" : -1,
         "url" : "http://www.google-analytics.com/analytics.js",
         "id" : "r72",
         "comps" : [
            {
               "s_time" : 1871.86899990775,
               "time" : 57.95400007628,
               "type" : 2,
               "id" : "comp_49",
               "e_time" : 1929.82299998403
            }
         ],
         "download" : {
            "receiveFirst" : 175,
            "len" : 26303,
            "dns" : 0,
            "dnsEnd" : -1,
            "receiveHeadersEnd" : 175,
            "sslEnd" : -1,
            "connectEnd" : 0,
            "connectStart" : 0,
            "id" : "download_10",
            "receivedTime" : "1871.66699999943",
            "sslStart" : -1,
            "dnsStart" : -1,
            "receiveLast" : 1696.66699999943,
            "s_time" : 1625.13100006618,
            "sendEnd" : 0,
            "sendStart" : 0,
            "type" : "text/javascript"
         }
      },
      {
         "when_comp_start" : -1,
         "url" : "http://kidsfoni.com/content/images/thumbs/0063695.png",
         "id" : "r35",
         "comps" : [],
         "download" : {
            "receiveFirst" : 347,
            "len" : 1102550,
            "dns" : 0,
            "dnsEnd" : -1,
            "receiveHeadersEnd" : 349,
            "sslEnd" : -1,
            "connectEnd" : 2,
            "connectStart" : 0,
            "id" : "download_11",
            "receivedTime" : "31694.5779998787",
            "sslStart" : -1,
            "dnsStart" : -1,
            "receiveLast" : 31345.5779998787,
            "s_time" : 1545.98499997519,
            "sendEnd" : 2,
            "sendStart" : 2,
            "type" : "image/png"
         }
      },
      {
         "when_comp_start" : -1,
         "url" : "http://kidsfoni.com/content/images/thumbs/0063688.jpeg",
         "id" : "r36",
         "comps" : [],
         "download" : {
            "receiveFirst" : 339,
            "len" : 122077,
            "dns" : 0,
            "dnsEnd" : -1,
            "receiveHeadersEnd" : 341,
            "sslEnd" : -1,
            "connectEnd" : 2,
            "connectStart" : 0,
            "id" : "download_12",
            "receivedTime" : "20529.5319999568",
            "sslStart" : -1,
            "dnsStart" : -1,
            "receiveLast" : 20188.5319999568,
            "s_time" : 1603.02799986675,
            "sendEnd" : 2,
            "sendStart" : 2,
            "type" : "image/jpeg"
         }
      },
      {
         "when_comp_start" : -1,
         "url" : "http://kidsfoni.com/content/images/thumbs/0063689.png",
         "id" : "r37",
         "comps" : [],
         "download" : {
            "receiveFirst" : 387,
            "len" : 1434392,
            "dns" : 0,
            "dnsEnd" : -1,
            "receiveHeadersEnd" : 389,
            "sslEnd" : -1,
            "connectEnd" : 2,
            "connectStart" : 0,
            "id" : "download_13",
            "receivedTime" : "47333.0570000689",
            "sslStart" : -1,
            "dnsStart" : -1,
            "receiveLast" : 46944.0570000689,
            "s_time" : 1603.28199993819,
            "sendEnd" : 2,
            "sendStart" : 2,
            "type" : "image/png"
         }
      },
      {
         "when_comp_start" : -1,
         "url" : "http://kidsfoni.com/content/images/thumbs/0063692.png",
         "id" : "r38",
         "comps" : [],
         "download" : {
            "receiveFirst" : 445,
            "len" : 421935,
            "dns" : 0,
            "dnsEnd" : -1,
            "receiveHeadersEnd" : 447,
            "sslEnd" : -1,
            "connectEnd" : 2,
            "connectStart" : 0,
            "id" : "download_14",
            "receivedTime" : "20735.1919999346",
            "sslStart" : -1,
            "dnsStart" : -1,
            "receiveLast" : 20288.1919999346,
            "s_time" : 1603.42499986291,
            "sendEnd" : 2,
            "sendStart" : 2,
            "type" : "image/png"
         }
      },
      {
         "when_comp_start" : 1,
         "url" : "http://kidsfoni.com/content/images/thumbs/0063677_dunyanin-1-numarali-cocuk-cumhuriyeti-kidzaniaya-1-cocuk-ve-2-yetiskin-giris-bileti_340.jpeg",
         "id" : "r43",
         "comps" : [],
         "download" : {
            "receiveFirst" : 493,
            "len" : 1245,
            "dns" : 0,
            "dnsEnd" : -1,
            "receiveHeadersEnd" : 495,
            "sslEnd" : -1,
            "connectEnd" : 2,
            "connectStart" : 0,
            "id" : "download_15",
            "receivedTime" : "2100.39400006644",
            "sslStart" : -1,
            "dnsStart" : -1,
            "receiveLast" : 1605.39400006644,
            "s_time" : 1604.22199987806,
            "sendEnd" : 2,
            "sendStart" : 2,
            "type" : "text/html"
         }
      },
      {
         "when_comp_start" : 1,
         "url" : "http://kidsfoni.com/content/images/thumbs/0063677_dunyanin-1-numarali-cocuk-cumhuriyeti-kidzaniaya-1-cocuk-ve-2-yetiskin-giris-bileti.jpeg",
         "id" : "r44",
         "comps" : [],
         "download" : {
            "receiveFirst" : 514,
            "len" : 1245,
            "dns" : 0,
            "dnsEnd" : -1,
            "receiveHeadersEnd" : 516,
            "sslEnd" : -1,
            "connectEnd" : 2,
            "connectStart" : 0,
            "id" : "download_16",
            "receivedTime" : "2121.55699986033",
            "sslStart" : -1,
            "dnsStart" : -1,
            "receiveLast" : 1605.55699986033,
            "s_time" : 1604.35399995185,
            "sendEnd" : 2,
            "sendStart" : 2,
            "type" : "text/html"
         }
      },
      {
         "when_comp_start" : 1,
         "url" : "http://original.testbed.localhost/Themes/Kidsfoni_350/Content/img/kids/logo.png",
         "id" : "r73",
         "comps" : [],
         "download" : {
            "receiveFirst" : 321,
            "len" : 335,
            "dns" : 0,
            "dnsEnd" : -1,
            "receiveHeadersEnd" : 733,
            "sslEnd" : -1,
            "connectEnd" : 412,
            "connectStart" : 0,
            "id" : "download_17",
            "receivedTime" : "2491.94599990733",
            "sslStart" : -1,
            "dnsStart" : -1,
            "receiveLast" : 1758.94599990733,
            "s_time" : 1757.89100001566,
            "sendEnd" : 412,
            "sendStart" : 412,
            "type" : "text/html"
         }
      },
      {
         "when_comp_start" : 1,
         "url" : "http://original.testbed.localhost/Themes/Kidsfoni_350/Content/images/etkinlikzamani.png",
         "id" : "r74",
         "comps" : [],
         "download" : {
            "receiveFirst" : 322,
            "len" : 343,
            "dns" : 0,
            "dnsEnd" : -1,
            "receiveHeadersEnd" : 737,
            "sslEnd" : -1,
            "connectEnd" : 415,
            "connectStart" : 0,
            "id" : "download_18",
            "receivedTime" : "2497.19699984416",
            "sslStart" : -1,
            "dnsStart" : -1,
            "receiveLast" : 1760.19699984416,
            "s_time" : 1759.0959998779,
            "sendEnd" : 415,
            "sendStart" : 415,
            "type" : "text/html"
         }
      },
      {
         "when_comp_start" : -1,
         "url" : "http://image.kidsfoni.com//media/catalog/product/cache/1/image/9df78eab33525d08d6e5fb8d27136e95/a/n/ana_2_1.jpg",
         "id" : "r45",
         "comps" : [],
         "download" : {
            "receiveFirst" : 423,
            "len" : 54728,
            "dns" : 0,
            "dnsEnd" : -1,
            "receiveHeadersEnd" : 425,
            "sslEnd" : -1,
            "connectEnd" : 2,
            "connectStart" : 0,
            "id" : "download_19",
            "receivedTime" : "6501.15799997002",
            "sslStart" : -1,
            "dnsStart" : -1,
            "receiveLast" : 6076.15799997002,
            "s_time" : 2100.41499999352,
            "sendEnd" : 2,
            "sendStart" : 2,
            "type" : "image/jpeg"
         }
      },
      {
         "when_comp_start" : -1,
         "url" : "https://assets.zendesk.com/embeddable_framework/main.js",
         "id" : "r71",
         "comps" : [
            {
               "s_time" : 10472.0270000398,
               "time" : 106.459999922701,
               "type" : null,
               "id" : "comp_115",
               "e_time" : 10578.4869999625
            }
         ],
         "download" : {
            "receiveFirst" : 481,
            "len" : 716481,
            "dns" : 0,
            "dnsEnd" : 0,
            "receiveHeadersEnd" : 1023,
            "sslEnd" : 541,
            "connectEnd" : 542,
            "connectStart" : 0,
            "id" : "download_20",
            "receivedTime" : "7949.62399988435",
            "sslStart" : 156,
            "dnsStart" : 0,
            "receiveLast" : 6926.62399988435,
            "s_time" : 1623.87500004843,
            "sendEnd" : 542,
            "sendStart" : 542,
            "type" : "application/javascript"
         }
      },
      {
         "when_comp_start" : -1,
         "url" : "http://image.kidsfoni.com//media/catalog/product/cache/1/image/9df78eab33525d08d6e5fb8d27136e95/b/e/bel.jpg",
         "id" : "r46",
         "comps" : [],
         "download" : {
            "receiveFirst" : 854,
            "len" : 104368,
            "dns" : 0,
            "dnsEnd" : -1,
            "receiveHeadersEnd" : 854,
            "sslEnd" : -1,
            "connectEnd" : 0,
            "connectStart" : 0,
            "id" : "download_21",
            "receivedTime" : "15592.7859998774",
            "sslStart" : -1,
            "dnsStart" : -1,
            "receiveLast" : 14738.7859998774,
            "s_time" : 2121.50099989958,
            "sendEnd" : 0,
            "sendStart" : 0,
            "type" : "image/jpeg"
         }
      },
      {
         "when_comp_start" : 1,
         "url" : "http://original.testbed.localhost/Themes/Kidsfoni_350/Content/images/dogumgunu.png",
         "id" : "r75",
         "comps" : [],
         "download" : {
            "receiveFirst" : 893,
            "len" : 338,
            "dns" : 0,
            "dnsEnd" : -1,
            "receiveHeadersEnd" : 1383,
            "sslEnd" : -1,
            "connectEnd" : 490,
            "connectStart" : 0,
            "id" : "download_22",
            "receivedTime" : "3146.28800004721",
            "sslStart" : -1,
            "dnsStart" : -1,
            "receiveLast" : 1763.28800004721,
            "s_time" : 1761.95099996403,
            "sendEnd" : 490,
            "sendStart" : 490,
            "type" : "text/html"
         }
      },
      {
         "when_comp_start" : 1,
         "url" : "http://original.testbed.localhost/Themes/Kidsfoni_350/Content/images/urunler.png",
         "id" : "r76",
         "comps" : [],
         "download" : {
            "receiveFirst" : 893,
            "len" : 336,
            "dns" : 0,
            "dnsEnd" : -1,
            "receiveHeadersEnd" : 1384,
            "sslEnd" : -1,
            "connectEnd" : 491,
            "connectStart" : 0,
            "id" : "download_23",
            "receivedTime" : "3150.74499999173",
            "sslStart" : -1,
            "dnsStart" : -1,
            "receiveLast" : 1766.74499999173,
            "s_time" : 1765.7669999171,
            "sendEnd" : 491,
            "sendStart" : 491,
            "type" : "text/html"
         }
      },
      {
         "when_comp_start" : -1,
         "url" : "http://image.kidsfoni.com//media/catalog/product/cache/1/image/9df78eab33525d08d6e5fb8d27136e95/s/a/sanat.jpg",
         "id" : "r47",
         "comps" : [],
         "download" : {
            "receiveFirst" : 1281,
            "len" : 83288,
            "dns" : 0,
            "dnsEnd" : -1,
            "receiveHeadersEnd" : 1281,
            "sslEnd" : -1,
            "connectEnd" : 0,
            "connectStart" : 0,
            "id" : "download_24",
            "receivedTime" : "14943.2029998861",
            "sslStart" : -1,
            "dnsStart" : -1,
            "receiveLast" : 13662.2029998861,
            "s_time" : 2491.87200004235,
            "sendEnd" : 0,
            "sendStart" : 0,
            "type" : "image/jpeg"
         }
      },
      {
         "when_comp_start" : -1,
         "url" : "http://image.kidsfoni.com//media/catalog/product/cache/1/image/9df78eab33525d08d6e5fb8d27136e95/e/k/eks.jpg",
         "id" : "r48",
         "comps" : [],
         "download" : {
            "receiveFirst" : 1385,
            "len" : 29498,
            "dns" : 0,
            "dnsEnd" : -1,
            "receiveHeadersEnd" : 1385,
            "sslEnd" : -1,
            "connectEnd" : 0,
            "connectStart" : 0,
            "id" : "download_25",
            "receivedTime" : "6214.98199994676",
            "sslStart" : -1,
            "dnsStart" : -1,
            "receiveLast" : 4829.98199994676,
            "s_time" : 2497.22200003453,
            "sendEnd" : 0,
            "sendStart" : 0,
            "type" : "image/jpeg"
         }
      },
      {
         "when_comp_start" : -1,
         "url" : "http://image.kidsfoni.com//media/catalog/product/cache/1/image/9df78eab33525d08d6e5fb8d27136e95/y/o/yoga.jpg",
         "id" : "r49",
         "comps" : [],
         "download" : {
            "receiveFirst" : 2073,
            "len" : 37198,
            "dns" : 0,
            "dnsEnd" : -1,
            "receiveHeadersEnd" : 2073,
            "sslEnd" : -1,
            "connectEnd" : 0,
            "connectStart" : 0,
            "id" : "download_26",
            "receivedTime" : "20590.0979998987",
            "sslStart" : -1,
            "dnsStart" : -1,
            "receiveLast" : 18517.0979998987,
            "s_time" : 3146.29100007005,
            "sendEnd" : 0,
            "sendStart" : 0,
            "type" : "image/jpeg"
         }
      },
      {
         "when_comp_start" : -1,
         "url" : "http://image.kidsfoni.com//media/catalog/product/cache/1/image/9df78eab33525d08d6e5fb8d27136e95/i/b/ibk.jpg",
         "id" : "r50",
         "comps" : [],
         "download" : {
            "receiveFirst" : 2081,
            "len" : 58914,
            "dns" : 0,
            "dnsEnd" : -1,
            "receiveHeadersEnd" : 2081,
            "sslEnd" : -1,
            "connectEnd" : 0,
            "connectStart" : 0,
            "id" : "download_27",
            "receivedTime" : "22098.9159999881",
            "sslStart" : -1,
            "dnsStart" : -1,
            "receiveLast" : 20017.9159999881,
            "s_time" : 3150.77399997972,
            "sendEnd" : 0,
            "sendStart" : 0,
            "type" : "image/jpeg"
         }
      },
      {
         "when_comp_start" : 1,
         "url" : "http://kidsfoni.com/content/images/thumbs/0063681_cocuklarinizin-dogum-gunleri-ve-ozel-gunleri-icin-renkli-tasarimlar-kurabiye-kalibindan-ozel-tasarim_340.jpeg",
         "id" : "r51",
         "comps" : [],
         "download" : {
            "receiveFirst" : 2627,
            "len" : 1245,
            "dns" : 0,
            "dnsEnd" : -1,
            "receiveHeadersEnd" : 2627,
            "sslEnd" : -1,
            "connectEnd" : 0,
            "connectStart" : 0,
            "id" : "download_28",
            "receivedTime" : "8843.20100001059",
            "sslStart" : -1,
            "dnsStart" : -1,
            "receiveLast" : 6216.20100001059,
            "s_time" : 6215.03999992274,
            "sendEnd" : 0,
            "sendStart" : 0,
            "type" : "text/html"
         }
      },
      {
         "when_comp_start" : 1,
         "url" : "http://kidsfoni.com/content/images/thumbs/0063681_cocuklarinizin-dogum-gunleri-ve-ozel-gunleri-icin-renkli-tasarimlar-kurabiye-kalibindan-ozel-tasarim.jpeg",
         "id" : "r52",
         "comps" : [],
         "download" : {
            "receiveFirst" : 2523,
            "len" : 1245,
            "dns" : 0,
            "dnsEnd" : -1,
            "receiveHeadersEnd" : 2524,
            "sslEnd" : -1,
            "connectEnd" : 1,
            "connectStart" : 0,
            "id" : "download_29",
            "receivedTime" : "9026.04999998584",
            "sslStart" : -1,
            "dnsStart" : -1,
            "receiveLast" : 6502.04999998584,
            "s_time" : 6501.30699994043,
            "sendEnd" : 1,
            "sendStart" : 1,
            "type" : "text/html"
         }
      },
      {
         "when_comp_start" : 1,
         "url" : "https://assets.zendesk.com/embeddable_framework/update.html?1442531738969#075dd8b",
         "id" : "r90",
         "comps" : [
            {
               "s_time" : 10471.1730000563,
               "time" : 0.634999945799791,
               "type" : "evalhtml",
               "id" : "r90_c1",
               "e_time" : 10471.8080000021
            }
         ],
         "download" : {
            "receiveFirst" : 2383,
            "len" : 262,
            "dns" : 0,
            "dnsEnd" : -1,
            "receiveHeadersEnd" : 2383,
            "sslEnd" : -1,
            "connectEnd" : 0,
            "connectStart" : 0,
            "id" : "download_30",
            "receivedTime" : "10465.6489999034",
            "sslStart" : -1,
            "dnsStart" : -1,
            "receiveLast" : 8082.64899990335,
            "s_time" : 8079.36199987307,
            "sendEnd" : 0,
            "sendStart" : 0,
            "type" : "text/html"
         }
      },
      {
         "when_comp_start" : -1,
         "url" : "http://image.kidsfoni.com//media/catalog/product/cache/1/image/9df78eab33525d08d6e5fb8d27136e95/m/a/mad_1.jpg",
         "id" : "r53",
         "comps" : [],
         "download" : {
            "receiveFirst" : 2256,
            "len" : 81834,
            "dns" : 0,
            "dnsEnd" : -1,
            "receiveHeadersEnd" : 2256,
            "sslEnd" : -1,
            "connectEnd" : 0,
            "connectStart" : 0,
            "id" : "download_31",
            "receivedTime" : "18647.2080000676",
            "sslStart" : -1,
            "dnsStart" : -1,
            "receiveLast" : 16391.2080000676,
            "s_time" : 8843.13099994324,
            "sendEnd" : 0,
            "sendStart" : 0,
            "type" : "image/jpeg"
         }
      },
      {
         "when_comp_start" : -1,
         "url" : "http://image.kidsfoni.com//media/catalog/product/cache/1/image/9df78eab33525d08d6e5fb8d27136e95/y/a/yasamm.jpg",
         "id" : "r55",
         "comps" : [],
         "download" : {
            "receiveFirst" : 3339,
            "len" : 50961,
            "dns" : 0,
            "dnsEnd" : 0,
            "receiveHeadersEnd" : 3726,
            "sslEnd" : -1,
            "connectEnd" : 387,
            "connectStart" : 0,
            "id" : "download_32",
            "receivedTime" : "28314.3489998765",
            "sslStart" : -1,
            "dnsStart" : 0,
            "receiveLast" : 24588.3489998765,
            "s_time" : 14943.2889998425,
            "sendEnd" : 387,
            "sendStart" : 387,
            "type" : "image/jpeg"
         }
      },
      {
         "when_comp_start" : -1,
         "url" : "http://image.kidsfoni.com//media/catalog/product/cache/1/image/9df78eab33525d08d6e5fb8d27136e95/a/i/ai.jpg",
         "id" : "r56",
         "comps" : [],
         "download" : {
            "receiveFirst" : 980,
            "len" : 38945,
            "dns" : 0,
            "dnsEnd" : 1839,
            "receiveHeadersEnd" : 5817,
            "sslEnd" : -1,
            "connectEnd" : 4837,
            "connectStart" : 0,
            "id" : "download_33",
            "receivedTime" : "25197.9950000532",
            "sslStart" : -1,
            "dnsStart" : 1839,
            "receiveLast" : 19380.9950000532,
            "s_time" : 15592.8619999904,
            "sendEnd" : 4837,
            "sendStart" : 4837,
            "type" : "image/jpeg"
         }
      },
      {
         "when_comp_start" : -1,
         "url" : "http://image.kidsfoni.com//media/catalog/product/cache/1/image/9df78eab33525d08d6e5fb8d27136e95/y/u/yuzme.jpg",
         "id" : "r57",
         "comps" : [],
         "download" : {
            "receiveFirst" : 1099,
            "len" : 79999,
            "dns" : 0,
            "dnsEnd" : 0,
            "receiveHeadersEnd" : 2884,
            "sslEnd" : -1,
            "connectEnd" : 1785,
            "connectStart" : 0,
            "id" : "download_34",
            "receivedTime" : "27020.0970000587",
            "sslStart" : -1,
            "dnsStart" : 0,
            "receiveLast" : 24136.0970000587,
            "s_time" : 18647.2970000468,
            "sendEnd" : 1785,
            "sendStart" : 1785,
            "type" : "image/jpeg"
         }
      },
      {
         "when_comp_start" : -1,
         "url" : "http://image.kidsfoni.com//media/catalog/product/cache/1/image/9df78eab33525d08d6e5fb8d27136e95/b/e/bebek.jpg",
         "id" : "r54",
         "comps" : [],
         "download" : {
            "receiveFirst" : 1206,
            "len" : 71271,
            "dns" : 0,
            "dnsEnd" : -1,
            "receiveHeadersEnd" : 12770,
            "sslEnd" : -1,
            "connectEnd" : 11564,
            "connectStart" : 0,
            "id" : "download_35",
            "receivedTime" : "27268.0839998648",
            "sslStart" : -1,
            "dnsStart" : -1,
            "receiveLast" : 14498.0839998648,
            "s_time" : 9026.10899996944,
            "sendEnd" : 11564,
            "sendStart" : 11564,
            "type" : "image/jpeg"
         }
      },
      {
         "when_comp_start" : -1,
         "url" : "http://kidsfoni.com/content/images/thumbs/0063678_stanbul-kelebek-ciftliginde-acik-bufe-kahvalti-ve-kelebek-ciftligini-gezip-kelebeklerle-tanisma-firs_340.jpeg",
         "id" : "r59",
         "comps" : [],
         "download" : {
            "receiveFirst" : 1410,
            "len" : 18098,
            "dns" : 0,
            "dnsEnd" : -1,
            "receiveHeadersEnd" : 1411,
            "sslEnd" : -1,
            "connectEnd" : 0,
            "connectStart" : 0,
            "id" : "download_36",
            "receivedTime" : "24355.4090000689",
            "sslStart" : -1,
            "dnsStart" : -1,
            "receiveLast" : 22944.4090000689,
            "s_time" : 20590.1589998975,
            "sendEnd" : 1,
            "sendStart" : 0,
            "type" : "image/jpeg"
         }
      },
      {
         "when_comp_start" : -1,
         "url" : "http://image.kidsfoni.com//media/catalog/product/cache/1/image/9df78eab33525d08d6e5fb8d27136e95/a/n/ana_3_3.jpg",
         "id" : "r58",
         "comps" : [],
         "download" : {
            "receiveFirst" : 1759,
            "len" : 96436,
            "dns" : 0,
            "dnsEnd" : 0,
            "receiveHeadersEnd" : 2109,
            "sslEnd" : -1,
            "connectEnd" : 350,
            "connectStart" : 0,
            "id" : "download_37",
            "receivedTime" : "28940.2439999394",
            "sslStart" : -1,
            "dnsStart" : 0,
            "receiveLast" : 26831.2439999394,
            "s_time" : 20529.5569999143,
            "sendEnd" : 350,
            "sendStart" : 350,
            "type" : "image/jpeg"
         }
      },
      {
         "when_comp_start" : -1,
         "url" : "http://image.kidsfoni.com//media/catalog/product/cache/1/image/9df78eab33525d08d6e5fb8d27136e95/C/A/CADDE.jpg",
         "id" : "r61",
         "comps" : [],
         "download" : {
            "receiveFirst" : 2312,
            "len" : 77381,
            "dns" : 0,
            "dnsEnd" : -1,
            "receiveHeadersEnd" : 2313,
            "sslEnd" : -1,
            "connectEnd" : 1,
            "connectStart" : 0,
            "id" : "download_38",
            "receivedTime" : "27467.5689998548",
            "sslStart" : -1,
            "dnsStart" : -1,
            "receiveLast" : 25154.5689998548,
            "s_time" : 22099.0039999597,
            "sendEnd" : 1,
            "sendStart" : 1,
            "type" : "image/jpeg"
         }
      },
      {
         "when_comp_start" : -1,
         "url" : "http://kidsfoni.com/content/images/thumbs/0063678_stanbul-kelebek-ciftliginde-acik-bufe-kahvalti-ve-kelebek-ciftligini-gezip-kelebeklerle-tanisma-firs.jpeg",
         "id" : "r60",
         "comps" : [],
         "download" : {
            "receiveFirst" : 3932,
            "len" : 52793,
            "dns" : 0,
            "dnsEnd" : -1,
            "receiveHeadersEnd" : 3933,
            "sslEnd" : -1,
            "connectEnd" : 1,
            "connectStart" : 0,
            "id" : "download_39",
            "receivedTime" : "24693.2550000492",
            "sslStart" : -1,
            "dnsStart" : -1,
            "receiveLast" : 20760.2550000492,
            "s_time" : 20735.1740000304,
            "sendEnd" : 1,
            "sendStart" : 1,
            "type" : "image/jpeg"
         }
      },
      {
         "when_comp_start" : -1,
         "url" : "http://image.kidsfoni.com//media/catalog/product/cache/1/image/9df78eab33525d08d6e5fb8d27136e95/e/r/er.jpg",
         "id" : "r62",
         "comps" : [],
         "download" : {
            "receiveFirst" : 1506,
            "len" : 67837,
            "dns" : 0,
            "dnsEnd" : -1,
            "receiveHeadersEnd" : 2349,
            "sslEnd" : -1,
            "connectEnd" : 842,
            "connectStart" : 0,
            "id" : "download_40",
            "receivedTime" : "29172.554000048",
            "sslStart" : -1,
            "dnsStart" : -1,
            "receiveLast" : 26823.554000048,
            "s_time" : 24355.4970000405,
            "sendEnd" : 843,
            "sendStart" : 842,
            "type" : "image/jpeg"
         }
      },
      {
         "when_comp_start" : -1,
         "url" : "http://image.kidsfoni.com//media/catalog/product/cache/1/image/9df78eab33525d08d6e5fb8d27136e95/k/i/kit.jpg",
         "id" : "r63",
         "comps" : [],
         "download" : {
            "receiveFirst" : 954,
            "len" : 43142,
            "dns" : 0,
            "dnsEnd" : -1,
            "receiveHeadersEnd" : 3281,
            "sslEnd" : -1,
            "connectEnd" : 2327,
            "connectStart" : 0,
            "id" : "download_41",
            "receivedTime" : "29295.003999956",
            "sslStart" : -1,
            "dnsStart" : -1,
            "receiveLast" : 26014.003999956,
            "s_time" : 24693.2560000569,
            "sendEnd" : 2327,
            "sendStart" : 2327,
            "type" : "image/jpeg"
         }
      },
      {
         "when_comp_start" : -1,
         "url" : "http://image.kidsfoni.com//media/catalog/product/cache/1/image/9df78eab33525d08d6e5fb8d27136e95/o/k/oktay_1.jpg",
         "id" : "r64",
         "comps" : [],
         "download" : {
            "receiveFirst" : 1077,
            "len" : 53422,
            "dns" : 0,
            "dnsEnd" : -1,
            "receiveHeadersEnd" : 3147,
            "sslEnd" : -1,
            "connectEnd" : 2070,
            "connectStart" : 0,
            "id" : "download_42",
            "receivedTime" : "30050.9299999103",
            "sslStart" : -1,
            "dnsStart" : -1,
            "receiveLast" : 26903.9299999103,
            "s_time" : 25197.979999939,
            "sendEnd" : 2070,
            "sendStart" : 2070,
            "type" : "image/jpeg"
         }
      },
      {
         "when_comp_start" : -1,
         "url" : "http://image.kidsfoni.com//media/catalog/product/cache/1/image/9df78eab33525d08d6e5fb8d27136e95/a/q/aquamarine.jpg",
         "id" : "r65",
         "comps" : [],
         "download" : {
            "receiveFirst" : 1048,
            "len" : 94969,
            "dns" : 0,
            "dnsEnd" : -1,
            "receiveHeadersEnd" : 1496,
            "sslEnd" : -1,
            "connectEnd" : 447,
            "connectStart" : 0,
            "id" : "download_43",
            "receivedTime" : "30149.768000003",
            "sslStart" : -1,
            "dnsStart" : -1,
            "receiveLast" : 28653.768000003,
            "s_time" : 27020.0900000054,
            "sendEnd" : 448,
            "sendStart" : 447,
            "type" : "image/jpeg"
         }
      },
      {
         "when_comp_start" : -1,
         "url" : "https://api.airbrake.io/api/v3/projects/100143/notices?key=abcbe7f85eb9d5e1e77ec0232b62c6e3",
         "id" : "r95",
         "comps" : [],
         "download" : {
            "receiveFirst" : 1304,
            "len" : 83,
            "dns" : 0,
            "dnsEnd" : -1,
            "receiveHeadersEnd" : 1304,
            "sslEnd" : -1,
            "connectEnd" : 0,
            "connectStart" : 0,
            "id" : "download_44",
            "receivedTime" : "28963.3039999753",
            "sslStart" : -1,
            "dnsStart" : -1,
            "receiveLast" : 27659.3039999753,
            "s_time" : 27658.4339998662,
            "sendEnd" : 0,
            "sendStart" : 0,
            "type" : "application/json"
         }
      },
      {
         "when_comp_start" : 1,
         "url" : "http://original.testbed.localhost/Themes/Kidsfoni_350/Content/img/payment2.png",
         "id" : "r66",
         "comps" : [],
         "download" : {
            "receiveFirst" : 953,
            "len" : 334,
            "dns" : 0,
            "dnsEnd" : 1,
            "receiveHeadersEnd" : 2028,
            "sslEnd" : -1,
            "connectEnd" : 1075,
            "connectStart" : 0,
            "id" : "download_45",
            "receivedTime" : "29297.1109999344",
            "sslStart" : -1,
            "dnsStart" : 1,
            "receiveLast" : 27269.1109999344,
            "s_time" : 27268.0969999637,
            "sendEnd" : 1075,
            "sendStart" : 1075,
            "type" : "text/html"
         }
      },
      {
         "when_comp_start" : 1,
         "url" : "http://original.testbed.localhost/Themes/Kidsfoni_350/Content/img/payment3.png",
         "id" : "r67",
         "comps" : [],
         "download" : {
            "receiveFirst" : 869,
            "len" : 334,
            "dns" : 0,
            "dnsEnd" : 1,
            "receiveHeadersEnd" : 1915,
            "sslEnd" : -1,
            "connectEnd" : 1046,
            "connectStart" : 0,
            "id" : "download_46",
            "receivedTime" : "29383.0629999284",
            "sslStart" : -1,
            "dnsStart" : 1,
            "receiveLast" : 27468.0629999284,
            "s_time" : 27467.486999929,
            "sendEnd" : 1046,
            "sendStart" : 1046,
            "type" : "text/html"
         }
      },
      {
         "when_comp_start" : -1,
         "url" : "https://stats.g.doubleclick.net/r/collect?v=1&aip=1&t=dc&_r=3&tid=UA-63715883-1&cid=1002683849.1442531733&jid=104540462&_v=j39&z=2485067",
         "id" : "r88",
         "comps" : [],
         "download" : {
            "receiveFirst" : 327,
            "len" : 35,
            "dns" : 0,
            "dnsEnd" : 0,
            "receiveHeadersEnd" : 1275,
            "sslEnd" : 947,
            "connectEnd" : 947,
            "connectStart" : 0,
            "id" : "download_47",
            "receivedTime" : "30578.3239998855",
            "sslStart" : 651,
            "dnsStart" : 0,
            "receiveLast" : 29303.3239998855,
            "s_time" : 29301.9250000361,
            "sendEnd" : 948,
            "sendStart" : 947,
            "type" : "image/gif"
         }
      }
   ],
   "deps" : [
      {
         "a2" : "r1_c2",
         "time" : -1,
         "id" : "dep1",
         "a1" : "comp_20"
      },
      {
         "a2" : "r1_c3",
         "time" : -1,
         "id" : "dep2",
         "a1" : "comp_21"
      },
      {
         "a2" : "r1_c4",
         "time" : -1,
         "id" : "dep3",
         "a1" : "comp_22"
      },
      {
         "a2" : "r1_c5",
         "time" : -1,
         "id" : "dep4",
         "a1" : "comp_23"
      },
      {
         "a2" : "r1_c6",
         "time" : -1,
         "id" : "dep5",
         "a1" : "comp_24"
      },
      {
         "a2" : "r1_c7",
         "time" : -1,
         "id" : "dep6",
         "a1" : "comp_25"
      },
      {
         "a2" : "r1_c8",
         "time" : -1,
         "id" : "dep7",
         "a1" : "comp_26"
      },
      {
         "a2" : "r1_c9",
         "time" : -1,
         "id" : "dep8",
         "a1" : "comp_27"
      },
      {
         "a2" : "r1_c10",
         "time" : -1,
         "id" : "dep9",
         "a1" : "comp_28"
      },
      {
         "a2" : "r1_c11",
         "time" : -1,
         "id" : "dep10",
         "a1" : "comp_44"
      },
      {
         "a2" : "r1_c12",
         "time" : -1,
         "id" : "dep11",
         "a1" : "comp_45"
      },
      {
         "a2" : "r1_c13",
         "time" : -1,
         "id" : "dep12",
         "a1" : "comp_46"
      },
      {
         "a2" : "r1_c14",
         "time" : -1,
         "id" : "dep13",
         "a1" : "comp_50"
      },
      {
         "a2" : "r1_c15",
         "time" : -1,
         "id" : "dep14",
         "a1" : "comp_51"
      },
      {
         "a2" : "r1_c16",
         "time" : -1,
         "id" : "dep15",
         "a1" : "comp_56"
      },
      {
         "a2" : "r1_c17",
         "time" : -1,
         "id" : "dep16",
         "a1" : "comp_57"
      },
      {
         "a2" : "r1_c18",
         "time" : -1,
         "id" : "dep17",
         "a1" : "comp_60"
      },
      {
         "a2" : "r1_c19",
         "time" : -1,
         "id" : "dep18",
         "a1" : "comp_61"
      },
      {
         "a2" : "r1_c20",
         "time" : -1,
         "id" : "dep19",
         "a1" : "comp_63"
      },
      {
         "a2" : "r1_c21",
         "time" : -1,
         "id" : "dep20",
         "a1" : "comp_64"
      },
      {
         "a2" : "r1_c22",
         "time" : -1,
         "id" : "dep21",
         "a1" : "comp_65"
      },
      {
         "a2" : "r1_c23",
         "time" : -1,
         "id" : "dep22",
         "a1" : "comp_66"
      },
      {
         "a2" : "r1_c24",
         "time" : -1,
         "id" : "dep23",
         "a1" : "comp_67"
      },
      {
         "a2" : "r1_c25",
         "time" : -1,
         "id" : "dep24",
         "a1" : "comp_68"
      },
      {
         "a2" : "comp_28",
         "time" : -1,
         "id" : "dep25",
         "a1" : "comp_27"
      },
      {
         "a2" : "download_47",
         "time" : -1,
         "id" : "dep26",
         "a1" : "r1_c25"
      },
      {
         "a2" : "download_46",
         "time" : 25104.2669999879,
         "id" : "dep27",
         "a1" : "r1_c25"
      },
      {
         "a2" : "download_45",
         "time" : 24904.8770000226,
         "id" : "dep28",
         "a1" : "r1_c25"
      },
      {
         "a2" : "download_44",
         "time" : 25295.2139999251,
         "id" : "dep29",
         "a1" : "r1_c25"
      },
      {
         "a2" : "download_43",
         "time" : 24656.8700000643,
         "id" : "dep30",
         "a1" : "r1_c25"
      },
      {
         "a2" : "download_42",
         "time" : 22834.7599999979,
         "id" : "dep31",
         "a1" : "r1_c25"
      },
      {
         "a2" : "download_41",
         "time" : 22330.0360001158,
         "id" : "dep32",
         "a1" : "r1_c25"
      },
      {
         "a2" : "download_40",
         "time" : 21992.2770000994,
         "id" : "dep33",
         "a1" : "r1_c25"
      },
      {
         "a2" : "download_39",
         "time" : 18371.9540000893,
         "id" : "dep34",
         "a1" : "r1_c25"
      },
      {
         "a2" : "download_38",
         "time" : 19735.7840000186,
         "id" : "dep35",
         "a1" : "r1_c25"
      },
      {
         "a2" : "download_37",
         "time" : 18166.3369999732,
         "id" : "dep36",
         "a1" : "r1_c25"
      },
      {
         "a2" : "download_36",
         "time" : 18226.9389999564,
         "id" : "dep37",
         "a1" : "r1_c25"
      },
      {
         "a2" : "download_35",
         "time" : 6662.88900002837,
         "id" : "dep38",
         "a1" : "r1_c25"
      },
      {
         "a2" : "download_34",
         "time" : 16284.0770001057,
         "id" : "dep39",
         "a1" : "r1_c25"
      },
      {
         "a2" : "download_33",
         "time" : 13229.6420000493,
         "id" : "dep40",
         "a1" : "r1_c25"
      },
      {
         "a2" : "download_32",
         "time" : 12580.0689999014,
         "id" : "dep41",
         "a1" : "r1_c25"
      },
      {
         "a2" : "download_31",
         "time" : 6479.91100000217,
         "id" : "dep42",
         "a1" : "r1_c25"
      },
      {
         "a2" : "download_30",
         "time" : 5716.141999932,
         "id" : "dep43",
         "a1" : "r1_c25"
      },
      {
         "a2" : "download_29",
         "time" : 4138.08699999936,
         "id" : "dep44",
         "a1" : "r1_c25"
      },
      {
         "a2" : "download_28",
         "time" : 3851.81999998167,
         "id" : "dep45",
         "a1" : "r1_c25"
      },
      {
         "a2" : "download_27",
         "time" : 787.55400003865,
         "id" : "dep46",
         "a1" : "r1_c25"
      },
      {
         "a2" : "download_26",
         "time" : 783.07100012898,
         "id" : "dep47",
         "a1" : "r1_c25"
      },
      {
         "a2" : "download_25",
         "time" : 134.00200009346,
         "id" : "dep48",
         "a1" : "r1_c25"
      },
      {
         "a2" : "download_24",
         "time" : 128.65200010128,
         "id" : "dep49",
         "a1" : "r1_c25"
      },
      {
         "a2" : "download_23",
         "time" : -1,
         "id" : "dep50",
         "a1" : "r1_c13"
      },
      {
         "a2" : "download_22",
         "time" : 123.31099994481,
         "id" : "dep51",
         "a1" : "r1_c13"
      },
      {
         "a2" : "download_21",
         "time" : -1,
         "id" : "dep52",
         "a1" : "r1_c19"
      },
      {
         "a2" : "download_20",
         "time" : -1,
         "id" : "dep53",
         "a1" : "r1_c10"
      },
      {
         "a2" : "download_19",
         "time" : -1,
         "id" : "dep54",
         "a1" : "r1_c17"
      },
      {
         "a2" : "download_18",
         "time" : 120.45599985868,
         "id" : "dep55",
         "a1" : "r1_c13"
      },
      {
         "a2" : "download_17",
         "time" : 119.25099999644,
         "id" : "dep56",
         "a1" : "r1_c13"
      },
      {
         "a2" : "download_17",
         "time" : 119.25099999644,
         "id" : "dep57",
         "a1" : "r1_c13"
      },
      {
         "a2" : "download_16",
         "time" : -1,
         "id" : "dep58",
         "a1" : "r1_c9"
      },
      {
         "a2" : "download_15",
         "time" : 521.39399992302,
         "id" : "dep59",
         "a1" : "r1_c9"
      },
      {
         "a2" : "download_14",
         "time" : 520.59699990787,
         "id" : "dep60",
         "a1" : "r1_c9"
      },
      {
         "a2" : "download_13",
         "time" : 520.45399998315,
         "id" : "dep61",
         "a1" : "r1_c9"
      },
      {
         "a2" : "download_12",
         "time" : 520.19999991171,
         "id" : "dep62",
         "a1" : "r1_c9"
      },
      {
         "a2" : "download_11",
         "time" : 463.15700002015,
         "id" : "dep63",
         "a1" : "r1_c9"
      },
      {
         "a2" : "download_10",
         "time" : -1,
         "id" : "dep64",
         "a1" : "r1_c10"
      },
      {
         "a2" : "download_9",
         "time" : 521.18299994618,
         "id" : "dep65",
         "a1" : "r1_c9"
      },
      {
         "a2" : "download_8",
         "time" : 521.07100002468,
         "id" : "dep66",
         "a1" : "r1_c9"
      },
      {
         "a2" : "download_7",
         "time" : 520.92900010757,
         "id" : "dep67",
         "a1" : "r1_c9"
      },
      {
         "a2" : "download_6",
         "time" : 520.81099990756,
         "id" : "dep68",
         "a1" : "r1_c9"
      },
      {
         "a2" : "download_5",
         "time" : -1,
         "id" : "dep69",
         "a1" : "r1_c1"
      },
      {
         "a2" : "download_4",
         "time" : 308.83400002495,
         "id" : "dep70",
         "a1" : "r1_c9"
      },
      {
         "a2" : "download_3",
         "time" : 156.40099998564,
         "id" : "dep71",
         "a1" : "r1_c9"
      },
      {
         "a2" : "download_2",
         "time" : 4.66799992136998,
         "id" : "dep72",
         "a1" : "r1_c9"
      },
      {
         "a2" : "download_1",
         "time" : -1,
         "id" : "dep73",
         "a1" : "r1_c4"
      },
      {
         "a2" : "download_1",
         "time" : 1.11400010064199,
         "id" : "dep74",
         "a1" : "r1_c4"
      }
   ]
}
