{
   "n_download_no_trigger" : 1,
   "start_activity" : "download_0",
   "name" : "original.testbed.localhost_www.angelnetwork.com_",
   "load_activity" : -1,
   "objs" : [
      {
         "when_comp_start" : 1,
         "url" : "http://original.testbed.localhost/www.angelnetwork.com/",
         "id" : "r1",
         "comps" : [
            {
               "s_time" : 124.052999977721,
               "time" : 111.237000004621,
               "id" : "r1_c1",
               "type" : "evalhtml",
               "e_time" : 235.289999982342
            },
            {
               "s_time" : 3721.28199998406,
               "time" : -185781330.215,
               "id" : "r1_c2",
               "type" : "evalhtml",
               "e_time" : -185777608.933
            },
            {
               "s_time" : 3735.32099998556,
               "time" : -185781344.254,
               "id" : "r1_c3",
               "type" : "evalhtml",
               "e_time" : -185777608.933
            },
            {
               "s_time" : 3812.59099999443,
               "time" : -185781421.524,
               "id" : "r1_c4",
               "type" : "evalhtml",
               "e_time" : -185777608.933
            },
            {
               "s_time" : 3814.94099998963,
               "time" : -185781423.874,
               "id" : "r1_c5",
               "type" : "evalhtml",
               "e_time" : -185777608.933
            },
            {
               "s_time" : 3864.13499998162,
               "time" : -185781473.068,
               "id" : "r1_c6",
               "type" : "evalhtml",
               "e_time" : -185777608.933
            },
            {
               "s_time" : 3916.50299998582,
               "time" : -185781525.436,
               "id" : "r1_c7",
               "type" : "evalhtml",
               "e_time" : -185777608.933
            },
            {
               "s_time" : 3929.38200000208,
               "time" : -185781538.315,
               "id" : "r1_c8",
               "type" : "evalhtml",
               "e_time" : -185777608.933
            },
            {
               "s_time" : 3942.16899998719,
               "time" : -185781551.102,
               "id" : "r1_c9",
               "type" : "evalhtml",
               "e_time" : -185777608.933
            },
            {
               "s_time" : 3944.15199998184,
               "time" : 28.1990000221399,
               "id" : "r1_c10",
               "type" : "evalhtml",
               "e_time" : 3972.35100000398
            },
            {
               "s_time" : 3978.42400000081,
               "time" : -185781587.357,
               "id" : "r1_c11",
               "type" : "evalhtml",
               "e_time" : -185777608.933
            },
            {
               "s_time" : 3984.98499998823,
               "time" : 314.78899999638,
               "id" : "r1_c12",
               "type" : "evalhtml",
               "e_time" : 4299.77399998461
            },
            {
               "s_time" : 4324.70699999249,
               "time" : -185781933.64,
               "id" : "r1_c13",
               "type" : "evalhtml",
               "e_time" : -185777608.933
            },
            {
               "s_time" : 4328.67399998941,
               "time" : -185781937.607,
               "id" : "r1_c14",
               "type" : "evalhtml",
               "e_time" : -185777608.933
            },
            {
               "s_time" : 4331.60299999872,
               "time" : 483.03199998918,
               "id" : "r1_c15",
               "type" : "evalhtml",
               "e_time" : 4814.6349999879
            },
            {
               "s_time" : 5044.95199999656,
               "time" : 1703.76499998383,
               "id" : "r1_c16",
               "type" : "evalhtml",
               "e_time" : 6748.71699998039
            },
            {
               "s_time" : 7347.77799999574,
               "time" : 615.17299999832,
               "type" : "evalhtml",
               "id" : "r1_c17",
               "e_time" : 7962.95099999406
            }
         ],
         "download" : {
            "receiveFirst" : 13,
            "len" : 109486,
            "dns" : 0,
            "dnsEnd" : -1,
            "receiveHeadersEnd" : 19,
            "sslEnd" : -1,
            "connectEnd" : 6,
            "connectStart" : 0,
            "id" : "download_0",
            "receivedTime" : "234.282999997959",
            "sslStart" : -1,
            "dnsStart" : -1,
            "receiveLast" : 215.282999997959,
            "s_time" : 0,
            "sendEnd" : 6,
            "sendStart" : 6,
            "type" : "text/html"
         }
      },
      {
         "when_comp_start" : -1,
         "url" : "http://original.testbed.localhost/angelnetwork.com/wp-content/plugins/vfb-pro/public/assets/css/vfb-style.min.css%3Fver=2015.04.14.css",
         "id" : "r4",
         "comps" : [
            {
               "s_time" : 344.572999980301,
               "time" : 43.610000022454,
               "type" : 4,
               "id" : "comp_3",
               "e_time" : 388.183000002755
            }
         ],
         "download" : {
            "receiveFirst" : 49,
            "len" : 66961,
            "dns" : 0,
            "dnsEnd" : -1,
            "receiveHeadersEnd" : 91,
            "sslEnd" : -1,
            "connectEnd" : 42,
            "connectStart" : 0,
            "id" : "download_1",
            "receivedTime" : "343.993999995291",
            "sslStart" : -1,
            "dnsStart" : -1,
            "receiveLast" : 252.993999995291,
            "s_time" : 220.000999979675,
            "sendEnd" : 42,
            "sendStart" : 42,
            "type" : "text/css"
         }
      },
      {
         "when_comp_start" : -1,
         "url" : "http://original.testbed.localhost/angelnetwork.com/wp-content/plugins/vfbp-display-entries/public/assets/css/vfb-display-entries.min.css%3Fver=2014.12.30.css",
         "id" : "r5",
         "comps" : [
            {
               "s_time" : 389.861999981804,
               "time" : 9.27700000465802,
               "type" : 4,
               "id" : "comp_4",
               "e_time" : 399.138999986462
            }
         ],
         "download" : {
            "receiveFirst" : 91,
            "len" : 15596,
            "dns" : 0,
            "dnsEnd" : -1,
            "receiveHeadersEnd" : 135,
            "sslEnd" : -1,
            "connectEnd" : 43,
            "connectStart" : 0,
            "id" : "download_2",
            "receivedTime" : "389.494999981252",
            "sslStart" : -1,
            "dnsStart" : -1,
            "receiveLast" : 254.494999981252,
            "s_time" : 221.159999986412,
            "sendEnd" : 44,
            "sendStart" : 43,
            "type" : "text/css"
         }
      },
      {
         "when_comp_start" : -1,
         "url" : "http://original.testbed.localhost/angelnetwork.com/wp-content/themes/optimizePressTheme/pages/marketing/1/style.min.css%3Fver=2.5.0.1.css",
         "id" : "r6",
         "comps" : [
            {
               "s_time" : 479.552999982843,
               "time" : 46.6310000047091,
               "type" : 4,
               "id" : "comp_7",
               "e_time" : 526.183999987552
            }
         ],
         "download" : {
            "receiveFirst" : 38,
            "len" : 52606,
            "dns" : 0,
            "dnsEnd" : -1,
            "receiveHeadersEnd" : 160,
            "sslEnd" : -1,
            "connectEnd" : 122,
            "connectStart" : 0,
            "id" : "download_3",
            "receivedTime" : "478.758999990532",
            "sslStart" : -1,
            "dnsStart" : -1,
            "receiveLast" : 318.758999990532,
            "s_time" : 222.441999998409,
            "sendEnd" : 122,
            "sendStart" : 122,
            "type" : "text/css"
         }
      },
      {
         "when_comp_start" : -1,
         "url" : "http://original.testbed.localhost/angelnetwork.com/wp-content/plugins/viralquizbuilder/public/css/quiz_shortcode.css%3Fver=1.0.0.css",
         "id" : "r8",
         "comps" : [
            {
               "s_time" : 527.953999990132,
               "time" : 3.051000006962,
               "type" : 4,
               "id" : "comp_8",
               "e_time" : 531.004999997094
            }
         ],
         "download" : {
            "receiveFirst" : 111,
            "len" : 4773,
            "dns" : 0,
            "dnsEnd" : 43,
            "receiveHeadersEnd" : 265,
            "sslEnd" : -1,
            "connectEnd" : 153,
            "connectStart" : 0,
            "id" : "download_4",
            "receivedTime" : "527.525999990758",
            "sslStart" : -1,
            "dnsStart" : 43,
            "receiveLast" : 262.525999990758,
            "s_time" : 224.45599999628,
            "sendEnd" : 154,
            "sendStart" : 153,
            "type" : "text/css"
         }
      },
      {
         "when_comp_start" : -1,
         "url" : "http://original.testbed.localhost/angelnetwork.com/wp-includes/js/jquery/jquery.js%3Fver=1.11.2",
         "id" : "r9",
         "comps" : [
            {
               "s_time" : 3480.68199999398,
               "time" : 240.59999999008,
               "type" : 1,
               "id" : "comp_13",
               "e_time" : 3721.28199998406
            }
         ],
         "download" : {
            "receiveFirst" : 130,
            "len" : 95952,
            "dns" : 1,
            "dnsEnd" : 46,
            "receiveHeadersEnd" : 283,
            "sslEnd" : -1,
            "connectEnd" : 153,
            "connectStart" : 0,
            "id" : "download_5",
            "receivedTime" : "3472.92999998899",
            "sslStart" : -1,
            "dnsStart" : 45,
            "receiveLast" : 3189.92999998899,
            "s_time" : 225.554999982705,
            "sendEnd" : 153,
            "sendStart" : 153,
            "type" : "text/plain"
         }
      },
      {
         "when_comp_start" : -1,
         "url" : "http://original.testbed.localhost/angelnetwork.com/wp-includes/js/jquery/jquery-migrate.min.js%3Fver=1.2.1",
         "id" : "r10",
         "comps" : [
            {
               "s_time" : 3722.38099999959,
               "time" : 12.9399999859697,
               "type" : 1,
               "id" : "comp_15",
               "e_time" : 3735.32099998556
            }
         ],
         "download" : {
            "receiveFirst" : 231,
            "len" : 7200,
            "dns" : 0,
            "dnsEnd" : 52,
            "receiveHeadersEnd" : 383,
            "sslEnd" : -1,
            "connectEnd" : 152,
            "connectStart" : 0,
            "id" : "download_6",
            "receivedTime" : "668.578999990132",
            "sslStart" : -1,
            "dnsStart" : 52,
            "receiveLast" : 285.578999990132,
            "s_time" : 226.683999993838,
            "sendEnd" : 152,
            "sendStart" : 152,
            "type" : "text/plain"
         }
      },
      {
         "when_comp_start" : -1,
         "url" : "http://original.testbed.localhost/angelnetwork.com/wp-content/themes/optimizePressTheme/lib/js/op-jquery-base-all.min.js%3Fver=2.5.0.1",
         "id" : "r11",
         "comps" : [
            {
               "s_time" : 3738.18899999605,
               "time" : 74.4019999983802,
               "type" : 1,
               "id" : "comp_18",
               "e_time" : 3812.59099999443
            }
         ],
         "download" : {
            "receiveFirst" : 296,
            "len" : 39322,
            "dns" : 0,
            "dnsEnd" : 53,
            "receiveHeadersEnd" : 448,
            "sslEnd" : -1,
            "connectEnd" : 151,
            "connectStart" : 0,
            "id" : "download_7",
            "receivedTime" : "1981.16999998456",
            "sslStart" : -1,
            "dnsStart" : 53,
            "receiveLast" : 1533.16999998456,
            "s_time" : 227.385999984108,
            "sendEnd" : 152,
            "sendStart" : 151,
            "type" : "text/plain"
         }
      },
      {
         "when_comp_start" : -1,
         "url" : "http://original.testbed.localhost/angelnetwork.com/wp-content/themes/optimizePressTheme/lib/assets/default.min.css%3Fver=2.5.0.1.css",
         "id" : "r7",
         "comps" : [
            {
               "s_time" : 2713.8059999852,
               "time" : 307.49500001548,
               "type" : 4,
               "id" : "comp_11",
               "e_time" : 3021.30100000068
            }
         ],
         "download" : {
            "receiveFirst" : 420,
            "len" : 376390,
            "dns" : 0,
            "dnsEnd" : -1,
            "receiveHeadersEnd" : 572,
            "sslEnd" : -1,
            "connectEnd" : 151,
            "connectStart" : 0,
            "id" : "download_8",
            "receivedTime" : "2708.00699997926",
            "sslStart" : -1,
            "dnsStart" : -1,
            "receiveLast" : 2136.00699997926,
            "s_time" : 223.479999986012,
            "sendEnd" : 152,
            "sendStart" : 151,
            "type" : "text/css"
         }
      },
      {
         "when_comp_start" : -1,
         "url" : "http://original.testbed.localhost/angelnetwork.com/wp-content/plugins/akismet/_inc/form.js%3Fver=3.1.2",
         "id" : "r12",
         "comps" : [
            {
               "s_time" : 3813.3229999803,
               "time" : 1.61800000932999,
               "type" : 1,
               "id" : "comp_20",
               "e_time" : 3814.94099998963
            }
         ],
         "download" : {
            "receiveFirst" : 436,
            "len" : 700,
            "dns" : 0,
            "dnsEnd" : -1,
            "receiveHeadersEnd" : 687,
            "sslEnd" : -1,
            "connectEnd" : 251,
            "connectStart" : 0,
            "id" : "download_9",
            "receivedTime" : "922.697999980301",
            "sslStart" : -1,
            "dnsStart" : -1,
            "receiveLast" : 235.697999980301,
            "s_time" : 227.965999976732,
            "sendEnd" : 251,
            "sendStart" : 251,
            "type" : "text/plain"
         }
      },
      {
         "when_comp_start" : -1,
         "url" : "http://original.testbed.localhost/angelnetwork.com/wp-content/themes/optimizePressTheme/lib/modules/blog/video/flowplayer/flowplayer.min.js%3Fver=2.5.0.1",
         "id" : "r13",
         "comps" : [
            {
               "s_time" : 3815.36799998139,
               "time" : 48.7670000002299,
               "type" : 1,
               "id" : "comp_22",
               "e_time" : 3864.13499998162
            }
         ],
         "download" : {
            "receiveFirst" : 450,
            "len" : 37327,
            "dns" : 0,
            "dnsEnd" : -1,
            "receiveHeadersEnd" : 719,
            "sslEnd" : -1,
            "connectEnd" : 269,
            "connectStart" : 0,
            "id" : "download_10",
            "receivedTime" : "2307.28099998669",
            "sslStart" : -1,
            "dnsStart" : -1,
            "receiveLast" : 1588.28099998669,
            "s_time" : 228.54599999846,
            "sendEnd" : 269,
            "sendStart" : 269,
            "type" : "text/plain"
         }
      },
      {
         "when_comp_start" : -1,
         "url" : "http://original.testbed.localhost/angelnetwork.com/wp-content/themes/optimizePressTheme/lib/js/op-video-all.min.js%3Fver=2.5.0.1",
         "id" : "r14",
         "comps" : [
            {
               "s_time" : 3870.63499999931,
               "time" : 45.8679999865103,
               "type" : 1,
               "id" : "comp_24",
               "e_time" : 3916.50299998582
            }
         ],
         "download" : {
            "receiveFirst" : 428,
            "len" : 73620,
            "dns" : 0,
            "dnsEnd" : -1,
            "receiveHeadersEnd" : 867,
            "sslEnd" : -1,
            "connectEnd" : 439,
            "connectStart" : 0,
            "id" : "download_11",
            "receivedTime" : "3869.87299998873",
            "sslStart" : -1,
            "dnsStart" : -1,
            "receiveLast" : 3002.87299998873,
            "s_time" : 229.308999987552,
            "sendEnd" : 439,
            "sendStart" : 439,
            "type" : "text/plain"
         }
      },
      {
         "when_comp_start" : -1,
         "url" : "http://original.testbed.localhost/angelnetwork.com/wp-content/plugins/viralquizbuilder/public/js/jquery.form.js%3Fver=3.04",
         "id" : "r15",
         "comps" : [
            {
               "s_time" : 3916.99199998402,
               "time" : 12.3900000180602,
               "type" : 1,
               "id" : "comp_26",
               "e_time" : 3929.38200000208
            }
         ],
         "download" : {
            "receiveFirst" : 567,
            "len" : 36502,
            "dns" : 0,
            "dnsEnd" : -1,
            "receiveHeadersEnd" : 1254,
            "sslEnd" : -1,
            "connectEnd" : 687,
            "connectStart" : 0,
            "id" : "download_12",
            "receivedTime" : "3023.89499999117",
            "sslStart" : -1,
            "dnsStart" : -1,
            "receiveLast" : 1769.89499999117,
            "s_time" : 229.91899997578,
            "sendEnd" : 687,
            "sendStart" : 687,
            "type" : "text/plain"
         }
      },
      {
         "when_comp_start" : -1,
         "url" : "http://original.testbed.localhost/angelnetwork.com/wp-content/plugins/viralquizbuilder/public/js/jquery.validate.js%3Fver=1.9.0",
         "id" : "r16",
         "comps" : [
            {
               "s_time" : 3929.77899999823,
               "time" : 12.38999998896,
               "type" : 1,
               "id" : "comp_28",
               "e_time" : 3942.16899998719
            }
         ],
         "download" : {
            "receiveFirst" : 538,
            "len" : 21601,
            "dns" : 0,
            "dnsEnd" : -1,
            "receiveHeadersEnd" : 2287,
            "sslEnd" : -1,
            "connectEnd" : 1749,
            "connectStart" : 0,
            "id" : "download_13",
            "receivedTime" : "3200.56099997601",
            "sslStart" : -1,
            "dnsStart" : -1,
            "receiveLast" : 913.560999976005,
            "s_time" : 232.208000001265,
            "sendEnd" : 1749,
            "sendStart" : 1749,
            "type" : "text/plain"
         }
      },
      {
         "when_comp_start" : -1,
         "url" : "http://original.testbed.localhost/angelnetwork.com/wp-content/plugins/viralquizbuilder/public/js/jquery.placeholder.min.js%3Fver=2.0.7",
         "id" : "r17",
         "comps" : [
            {
               "s_time" : 3942.59599997895,
               "time" : 1.55600000288996,
               "type" : 1,
               "id" : "comp_30",
               "e_time" : 3944.15199998184
            }
         ],
         "download" : {
            "receiveFirst" : 475,
            "len" : 1747,
            "dns" : 0,
            "dnsEnd" : -1,
            "receiveHeadersEnd" : 2544,
            "sslEnd" : -1,
            "connectEnd" : 2069,
            "connectStart" : 0,
            "id" : "download_14",
            "receivedTime" : "3027.34299999429",
            "sslStart" : -1,
            "dnsStart" : -1,
            "receiveLast" : 483.342999994289,
            "s_time" : 235.289999982342,
            "sendEnd" : 2069,
            "sendStart" : 2069,
            "type" : "text/plain"
         }
      },
      {
         "when_comp_start" : -1,
         "url" : "http://original.testbed.localhost/angelnetwork.com/wp-content/plugins/viralquizbuilder/public/js/itpoverlay.js%3Fver=1.0.0",
         "id" : "r24",
         "comps" : [
            {
               "s_time" : 3977.56899998058,
               "time" : 0.855000020229909,
               "type" : 1,
               "id" : "comp_32",
               "e_time" : 3978.42400000081
            }
         ],
         "download" : {
            "receiveFirst" : 10,
            "len" : 1305,
            "dns" : 0,
            "dnsEnd" : -1,
            "receiveHeadersEnd" : 17,
            "sslEnd" : -1,
            "connectEnd" : 7,
            "connectStart" : 0,
            "id" : "download_15",
            "receivedTime" : "3976.68399999384",
            "sslStart" : -1,
            "dnsStart" : -1,
            "receiveLast" : 3959.68399999384,
            "s_time" : 3944.60999997682,
            "sendEnd" : 7,
            "sendStart" : 7,
            "type" : "text/plain"
         }
      },
      {
         "when_comp_start" : -1,
         "url" : "http://original.testbed.localhost/angelnetwork.com/wp-content/plugins/viralquizbuilder/public/js/vqzb_shortcode.js%3Fver=1.0.0",
         "id" : "r25",
         "comps" : [
            {
               "s_time" : 3983.67299998063,
               "time" : 1.31200000760009,
               "type" : 1,
               "id" : "comp_34",
               "e_time" : 3984.98499998823
            }
         ],
         "download" : {
            "receiveFirst" : 12,
            "len" : 1729,
            "dns" : 0,
            "dnsEnd" : -1,
            "receiveHeadersEnd" : 22,
            "sslEnd" : -1,
            "connectEnd" : 10,
            "connectStart" : 0,
            "id" : "download_16",
            "receivedTime" : "3982.23799999687",
            "sslStart" : -1,
            "dnsStart" : -1,
            "receiveLast" : 3960.23799999687,
            "s_time" : 3946.65499997791,
            "sendEnd" : 10,
            "sendStart" : 10,
            "type" : "text/plain"
         }
      },
      {
         "when_comp_start" : -1,
         "url" : "http://original.testbed.localhost/angelnetwork.com/wp-content/uploads/2014/05/ain-logo-460x751.png",
         "id" : "r26",
         "comps" : [],
         "download" : {
            "receiveFirst" : 27,
            "len" : 41624,
            "dns" : 0,
            "dnsEnd" : -1,
            "receiveHeadersEnd" : 38,
            "sslEnd" : -1,
            "connectEnd" : 11,
            "connectStart" : 0,
            "id" : "download_17",
            "receivedTime" : "4813.68999998085",
            "sslStart" : -1,
            "dnsStart" : -1,
            "receiveLast" : 4775.68999998085,
            "s_time" : 3949.04999999562,
            "sendEnd" : 11,
            "sendStart" : 11,
            "type" : "image/png"
         }
      },
      {
         "when_comp_start" : -1,
         "url" : "http://original.testbed.localhost/my.leadpages.net/leadbox-831.js",
         "id" : "r44",
         "comps" : [
            {
               "s_time" : 4314.0859999985,
               "time" : 10.6209999939902,
               "type" : 1,
               "id" : "comp_59",
               "e_time" : 4324.70699999249
            },
            {
               "s_time" : 4327.14799998212,
               "time" : 1.52600000728944,
               "type" : 1,
               "id" : "comp_61",
               "e_time" : 4328.67399998941
            },
            {
               "s_time" : 4330.87099998374,
               "time" : 0.732000014980258,
               "type" : 1,
               "id" : "comp_63",
               "e_time" : 4331.60299999872
            }
         ],
         "download" : {
            "receiveFirst" : 127,
            "len" : 24322,
            "dns" : 0,
            "dnsEnd" : -1,
            "receiveHeadersEnd" : 139,
            "sslEnd" : -1,
            "connectEnd" : 12,
            "connectStart" : 0,
            "id" : "download_18",
            "receivedTime" : "4313.71999997646",
            "sslStart" : -1,
            "dnsStart" : -1,
            "receiveLast" : 4174.71999997646,
            "s_time" : 3972.35100000398,
            "sendEnd" : 12,
            "sendStart" : 12,
            "type" : "application/javascript"
         }
      },
      {
         "when_comp_start" : -1,
         "url" : "http://original.testbed.localhost/angelnetwork.com/wp-content/themes/optimizePressTheme/lib/assets/images/divider/shadow-ornament.png",
         "id" : "r27",
         "comps" : [],
         "download" : {
            "receiveFirst" : 193,
            "len" : 2062,
            "dns" : 0,
            "dnsEnd" : -1,
            "receiveHeadersEnd" : 217,
            "sslEnd" : -1,
            "connectEnd" : 24,
            "connectStart" : 0,
            "id" : "download_19",
            "receivedTime" : "4377.44099998963",
            "sslStart" : -1,
            "dnsStart" : -1,
            "receiveLast" : 4160.44099998963,
            "s_time" : 4014.81599998078,
            "sendEnd" : 24,
            "sendStart" : 24,
            "type" : "image/png"
         }
      },
      {
         "when_comp_start" : -1,
         "url" : "http://original.testbed.localhost/angelnetwork.com/wp-content/uploads/2014/11/ain-greg1.jpg",
         "id" : "r28",
         "comps" : [],
         "download" : {
            "receiveFirst" : 208,
            "len" : 11082,
            "dns" : 0,
            "dnsEnd" : -1,
            "receiveHeadersEnd" : 238,
            "sslEnd" : -1,
            "connectEnd" : 29,
            "connectStart" : 0,
            "id" : "download_20",
            "receivedTime" : "4402.67899999162",
            "sslStart" : -1,
            "dnsStart" : -1,
            "receiveLast" : 4164.67899999162,
            "s_time" : 4015.48699999694,
            "sendEnd" : 30,
            "sendStart" : 29,
            "type" : "image/jpeg"
         }
      },
      {
         "when_comp_start" : -1,
         "url" : "http://original.testbed.localhost/angelnetwork.com/wp-content/uploads/2014/11/ain-kevin1.jpg",
         "id" : "r29",
         "comps" : [],
         "download" : {
            "receiveFirst" : 364,
            "len" : 8756,
            "dns" : 0,
            "dnsEnd" : -1,
            "receiveHeadersEnd" : 396,
            "sslEnd" : -1,
            "connectEnd" : 31,
            "connectStart" : 0,
            "id" : "download_21",
            "receivedTime" : "4436.43099998008",
            "sslStart" : -1,
            "dnsStart" : -1,
            "receiveLast" : 4040.43099998008,
            "s_time" : 4016.6779999854,
            "sendEnd" : 32,
            "sendStart" : 31,
            "type" : "image/jpeg"
         }
      },
      {
         "when_comp_start" : -1,
         "url" : "http://original.testbed.localhost/angelnetwork.com/wp-content/uploads/2014/11/ain-kevin.png",
         "id" : "r30",
         "comps" : [],
         "download" : {
            "receiveFirst" : 396,
            "len" : 42764,
            "dns" : 0,
            "dnsEnd" : -1,
            "receiveHeadersEnd" : 429,
            "sslEnd" : -1,
            "connectEnd" : 33,
            "connectStart" : 0,
            "id" : "download_22",
            "receivedTime" : "5365.35599999479",
            "sslStart" : -1,
            "dnsStart" : -1,
            "receiveLast" : 4936.35599999479,
            "s_time" : 4017.46999999159,
            "sendEnd" : 33,
            "sendStart" : 33,
            "type" : "image/png"
         }
      },
      {
         "when_comp_start" : 1,
         "url" : "http://original.testbed.localhost/tukipc.com/evp2/index.html%3Fid=YWluLWtldmluLXNpenpsZS0xLm1wNA==&profile=default&mode=iframe.html",
         "id" : "r51",
         "comps" : [
            {
               "s_time" : 4720.30600000289,
               "time" : 769.56199997221,
               "type" : "evalhtml",
               "id" : "r51_c1",
               "e_time" : 5489.8679999751
            }
         ],
         "download" : {
            "receiveFirst" : 459,
            "len" : 491,
            "dns" : 0,
            "dnsEnd" : -1,
            "receiveHeadersEnd" : 560,
            "sslEnd" : -1,
            "connectEnd" : 101,
            "connectStart" : 0,
            "id" : "download_23",
            "receivedTime" : "4622.83300000126",
            "sslStart" : -1,
            "dnsStart" : -1,
            "receiveLast" : 4062.83300000126,
            "s_time" : 4058.95899998723,
            "sendEnd" : 101,
            "sendStart" : 101,
            "type" : "text/html"
         }
      },
      {
         "when_comp_start" : 1,
         "url" : "http://original.testbed.localhost/www.youtube.com/embed/M7VZIbeUrSU%3Flist=UU7m6vQ1ASO89SUqafM_t8Pg&controls=0&showinfo=0.html",
         "id" : "r52",
         "comps" : [
            {
               "s_time" : 4724.94499999448,
               "time" : 4840.97200000542,
               "id" : "r52_c1",
               "type" : "evalhtml",
               "e_time" : 9565.9169999999
            },
            {
               "s_time" : 17424.8959999823,
               "time" : 648.834000021401,
               "type" : "evalhtml",
               "id" : "r52_c2",
               "e_time" : 18073.7300000037
            }
         ],
         "download" : {
            "receiveFirst" : 429,
            "len" : 16908,
            "dns" : 0,
            "dnsEnd" : -1,
            "receiveHeadersEnd" : 454,
            "sslEnd" : -1,
            "connectEnd" : 25,
            "connectStart" : 0,
            "id" : "download_24",
            "receivedTime" : "5046.47800000384",
            "sslStart" : -1,
            "dnsStart" : -1,
            "receiveLast" : 4592.47800000384,
            "s_time" : 4220.67099998822,
            "sendEnd" : 25,
            "sendStart" : 25,
            "type" : "text/html"
         }
      },
      {
         "when_comp_start" : -1,
         "url" : "http://original.testbed.localhost/angelnetwork.com/wp-content/themes/optimizePressTheme/lib/js/popup.min.js%3Fver=2.5.0.1",
         "id" : "r56",
         "comps" : [
            {
               "s_time" : 4803.28299998655,
               "time" : 1.46500000847027,
               "type" : 2,
               "id" : "comp_85",
               "e_time" : 4804.74799999502
            }
         ],
         "download" : {
            "receiveFirst" : 390,
            "len" : 3749,
            "dns" : 0,
            "dnsEnd" : -1,
            "receiveHeadersEnd" : 479,
            "sslEnd" : -1,
            "connectEnd" : 89,
            "connectStart" : 0,
            "id" : "download_25",
            "receivedTime" : "4802.27600000217",
            "sslStart" : -1,
            "dnsStart" : -1,
            "receiveLast" : 4323.27600000217,
            "s_time" : 4299.77399998461,
            "sendEnd" : 89,
            "sendStart" : 89,
            "type" : "text/plain"
         }
      },
      {
         "when_comp_start" : -1,
         "url" : "http://original.testbed.localhost/angelnetwork.com/wp-includes/js/comment-reply.min.js%3Fver=4.2.5",
         "id" : "r59",
         "comps" : [
            {
               "s_time" : 5039.58099998999,
               "time" : 5.37100000656937,
               "type" : 1,
               "id" : "comp_89",
               "e_time" : 5044.95199999656
            }
         ],
         "download" : {
            "receiveFirst" : 391,
            "len" : 757,
            "dns" : 0,
            "dnsEnd" : -1,
            "receiveHeadersEnd" : 641,
            "sslEnd" : -1,
            "connectEnd" : 250,
            "connectStart" : 0,
            "id" : "download_26",
            "receivedTime" : "5029.11299999687",
            "sslStart" : -1,
            "dnsStart" : -1,
            "receiveLast" : 4388.11299999687,
            "s_time" : 4375.54899998941,
            "sendEnd" : 250,
            "sendStart" : 250,
            "type" : "text/plain"
         }
      },
      {
         "when_comp_start" : -1,
         "url" : "http://original.testbed.localhost/s.ytimg.com/yts/cssbin/www-embed-player-new-vfl5giJql.css",
         "id" : "r70",
         "comps" : [
            {
               "s_time" : 6312.10300000384,
               "time" : 225.7689999824,
               "type" : null,
               "id" : "comp_105",
               "e_time" : 6537.87199998624
            }
         ],
         "download" : {
            "receiveFirst" : 244,
            "len" : 215308,
            "dns" : 0,
            "dnsEnd" : -1,
            "receiveHeadersEnd" : 316,
            "sslEnd" : -1,
            "connectEnd" : 72,
            "connectStart" : 0,
            "id" : "download_27",
            "receivedTime" : "6311.15699998918",
            "sslStart" : -1,
            "dnsStart" : -1,
            "receiveLast" : 5995.15699998918,
            "s_time" : 4729.58299997845,
            "sendEnd" : 72,
            "sendStart" : 72,
            "type" : "text/css"
         }
      },
      {
         "when_comp_start" : -1,
         "url" : "http://original.testbed.localhost/angelnetwork.com/wp-content/themes/optimizePressTheme/lib/js/op-front-all.min.js%3Fver=2.5.0.1",
         "id" : "r63",
         "comps" : [
            {
               "s_time" : 7193.32799999393,
               "time" : 153.167999989811,
               "type" : 2,
               "id" : "comp_115",
               "e_time" : 7346.49599998374
            }
         ],
         "download" : {
            "receiveFirst" : 348,
            "len" : 67276,
            "dns" : 0,
            "dnsEnd" : -1,
            "receiveHeadersEnd" : 764,
            "sslEnd" : -1,
            "connectEnd" : 415,
            "connectStart" : 0,
            "id" : "download_28",
            "receivedTime" : "7192.32099998044",
            "sslStart" : -1,
            "dnsStart" : -1,
            "receiveLast" : 6428.32099998044,
            "s_time" : 4401.42799998284,
            "sendEnd" : 416,
            "sendStart" : 415,
            "type" : "text/plain"
         }
      },
      {
         "when_comp_start" : -1,
         "url" : "http://original.testbed.localhost/angelnetwork.com/wp-content/themes/optimizePressTheme/lib/js/menus.min.js%3Fver=2.5.0.1",
         "id" : "r64",
         "comps" : [
            {
               "s_time" : 7347.04500000225,
               "time" : 0.732999993490012,
               "type" : 1,
               "id" : "comp_119",
               "e_time" : 7347.77799999574
            }
         ],
         "download" : {
            "receiveFirst" : 502,
            "len" : 287,
            "dns" : 0,
            "dnsEnd" : -1,
            "receiveHeadersEnd" : 926,
            "sslEnd" : -1,
            "connectEnd" : 424,
            "connectStart" : 0,
            "id" : "download_29",
            "receivedTime" : "5338.95799997845",
            "sslStart" : -1,
            "dnsStart" : -1,
            "receiveLast" : 4412.95799997845,
            "s_time" : 4401.97700000135,
            "sendEnd" : 424,
            "sendStart" : 424,
            "type" : "text/plain"
         }
      },
      {
         "when_comp_start" : -1,
         "url" : "http://original.testbed.localhost/tukipc.com/evp2/framework.php%3Fdiv_id=evp-8b0ebd0a13a9a1ab1508c2afc737d802&id=YWluLWtldmluLXNpenpsZS0xLm1wNA==&v=1442354711&profile=default",
         "id" : "r65",
         "comps" : [
            {
               "s_time" : 5433.62399999751,
               "time" : 8.4529999876404,
               "type" : 2,
               "id" : "comp_92",
               "e_time" : 5442.07699998515
            }
         ],
         "download" : {
            "receiveFirst" : 359,
            "len" : 7348,
            "dns" : 0,
            "dnsEnd" : -1,
            "receiveHeadersEnd" : 659,
            "sslEnd" : -1,
            "connectEnd" : 299,
            "connectStart" : 0,
            "id" : "download_30",
            "receivedTime" : "5432.40299998433",
            "sslStart" : -1,
            "dnsStart" : -1,
            "receiveLast" : 4773.40299998433,
            "s_time" : 4721.64899998461,
            "sendEnd" : 300,
            "sendStart" : 299,
            "type" : "text/plain"
         }
      },
      {
         "when_comp_start" : -1,
         "url" : "http://original.testbed.localhost/s.ytimg.com/yts/jsbin/www-embed-player-new-vflRnMsMv/www-embed-player-new.js",
         "id" : "r71",
         "comps" : [
            {
               "s_time" : 8644.19500000076,
               "time" : 588.92799998285,
               "type" : null,
               "id" : "comp_151",
               "e_time" : 9233.12299998361
            }
         ],
         "download" : {
            "receiveFirst" : 417,
            "len" : 183099,
            "dns" : 0,
            "dnsEnd" : -1,
            "receiveHeadersEnd" : 716,
            "sslEnd" : -1,
            "connectEnd" : 297,
            "connectStart" : 0,
            "id" : "download_31",
            "receivedTime" : "8642.54699999583",
            "sslStart" : -1,
            "dnsStart" : -1,
            "receiveLast" : 7926.54699999583,
            "s_time" : 4731.71900000307,
            "sendEnd" : 299,
            "sendStart" : 297,
            "type" : "application/javascript"
         }
      },
      {
         "when_comp_start" : -1,
         "url" : "http://original.testbed.localhost/s.ytimg.com/yts/jsbin/html5player-new-en_US-vflhlPTtB/html5player-new.js",
         "id" : "r72",
         "comps" : [
            {
               "s_time" : 16419.9209999933,
               "time" : 1004.974999989,
               "type" : 1,
               "id" : "comp_210",
               "e_time" : 17424.8959999823
            }
         ],
         "download" : {
            "receiveFirst" : 524,
            "len" : 1037844,
            "dns" : 0,
            "dnsEnd" : -1,
            "receiveHeadersEnd" : 1121,
            "sslEnd" : -1,
            "connectEnd" : 593,
            "connectStart" : 0,
            "id" : "download_32",
            "receivedTime" : "16415.8929999976",
            "sslStart" : -1,
            "dnsStart" : -1,
            "receiveLast" : 15294.8929999976,
            "s_time" : 4732.42099999334,
            "sendEnd" : 597,
            "sendStart" : 593,
            "type" : "application/javascript"
         }
      },
      {
         "when_comp_start" : -1,
         "url" : "http://original.testbed.localhost/angelnetwork.com/wp-content/uploads/2015/01/paul-h.jpg",
         "id" : "r36",
         "comps" : [],
         "download" : {
            "receiveFirst" : 630,
            "len" : 9651,
            "dns" : 0,
            "dnsEnd" : -1,
            "receiveHeadersEnd" : 1750,
            "sslEnd" : -1,
            "connectEnd" : 1119,
            "connectStart" : 0,
            "id" : "download_33",
            "receivedTime" : "6061.70599997859",
            "sslStart" : -1,
            "dnsStart" : -1,
            "receiveLast" : 4311.70599997859,
            "s_time" : 4244.10899999202,
            "sendEnd" : 1120,
            "sendStart" : 1119,
            "type" : "image/jpeg"
         }
      },
      {
         "when_comp_start" : -1,
         "url" : "http://original.testbed.localhost/angelnetwork.com/wp-content/uploads/2014/11/ain-david-drake.jpg",
         "id" : "r37",
         "comps" : [],
         "download" : {
            "receiveFirst" : 682,
            "len" : 7661,
            "dns" : 0,
            "dnsEnd" : -1,
            "receiveHeadersEnd" : 1724,
            "sslEnd" : -1,
            "connectEnd" : 1042,
            "connectStart" : 0,
            "id" : "download_34",
            "receivedTime" : "6244.65899998904",
            "sslStart" : -1,
            "dnsStart" : -1,
            "receiveLast" : 4520.65899998904,
            "s_time" : 4387.61799997883,
            "sendEnd" : 1042,
            "sendStart" : 1042,
            "type" : "image/jpeg"
         }
      },
      {
         "when_comp_start" : -1,
         "url" : "http://original.testbed.localhost/angelnetwork.com/wp-content/uploads/2014/12/ed.jpg",
         "id" : "r38",
         "comps" : [],
         "download" : {
            "receiveFirst" : 512,
            "len" : 7717,
            "dns" : 0,
            "dnsEnd" : -1,
            "receiveHeadersEnd" : 2165,
            "sslEnd" : -1,
            "connectEnd" : 1652,
            "connectStart" : 0,
            "id" : "download_35",
            "receivedTime" : "6657.34799997881",
            "sslStart" : -1,
            "dnsStart" : -1,
            "receiveLast" : 4492.34799997881,
            "s_time" : 4432.17399998684,
            "sendEnd" : 1653,
            "sendStart" : 1652,
            "type" : "image/jpeg"
         }
      },
      {
         "when_comp_start" : -1,
         "url" : "http://original.testbed.localhost/angelnetwork.com/wp-content/uploads/2014/11/ain-ed1.jpg",
         "id" : "r39",
         "comps" : [],
         "download" : {
            "receiveFirst" : 541,
            "len" : 10473,
            "dns" : 0,
            "dnsEnd" : -1,
            "receiveHeadersEnd" : 1858,
            "sslEnd" : -1,
            "connectEnd" : 1317,
            "connectStart" : 0,
            "id" : "download_36",
            "receivedTime" : "6749.96899999678",
            "sslStart" : -1,
            "dnsStart" : -1,
            "receiveLast" : 4891.96899999678,
            "s_time" : 4814.6349999879,
            "sendEnd" : 1317,
            "sendStart" : 1317,
            "type" : "image/jpeg"
         }
      },
      {
         "when_comp_start" : -1,
         "url" : "http://original.testbed.localhost/angelnetwork.com/wp-content/uploads/2015/06/ain-jeff-profilepic-homepage.jpg",
         "id" : "r40",
         "comps" : [],
         "download" : {
            "receiveFirst" : 617,
            "len" : 35643,
            "dns" : 0,
            "dnsEnd" : -1,
            "receiveHeadersEnd" : 1517,
            "sslEnd" : -1,
            "connectEnd" : 900,
            "connectStart" : 0,
            "id" : "download_37",
            "receivedTime" : "8170.53199998918",
            "sslStart" : -1,
            "dnsStart" : -1,
            "receiveLast" : 6653.53199998918,
            "s_time" : 5360.61000000336,
            "sendEnd" : 900,
            "sendStart" : 900,
            "type" : "image/jpeg"
         }
      },
      {
         "when_comp_start" : -1,
         "url" : "http://original.testbed.localhost/angelnetwork.com/wp-content/uploads/2015/06/ain-jeff-profilepic-homepage1.jpg",
         "id" : "r41",
         "comps" : [],
         "download" : {
            "receiveFirst" : 658,
            "len" : 35643,
            "dns" : 0,
            "dnsEnd" : -1,
            "receiveHeadersEnd" : 1256,
            "sslEnd" : -1,
            "connectEnd" : 597,
            "connectStart" : 0,
            "id" : "download_38",
            "receivedTime" : "8236.02199999732",
            "sslStart" : -1,
            "dnsStart" : -1,
            "receiveLast" : 6980.02199999732,
            "s_time" : 6063.88699999661,
            "sendEnd" : 598,
            "sendStart" : 597,
            "type" : "image/jpeg"
         }
      },
      {
         "when_comp_start" : -1,
         "url" : "http://original.testbed.localhost/angelnetwork.com/wp-content/uploads/2014/12/a.png",
         "id" : "r42",
         "comps" : [],
         "download" : {
            "receiveFirst" : 799,
            "len" : 125954,
            "dns" : 0,
            "dnsEnd" : -1,
            "receiveHeadersEnd" : 1420,
            "sslEnd" : -1,
            "connectEnd" : 620,
            "connectStart" : 0,
            "id" : "download_39",
            "receivedTime" : "12666.0149999952",
            "sslStart" : -1,
            "dnsStart" : -1,
            "receiveLast" : 11246.0149999952,
            "s_time" : 6130.61500000185,
            "sendEnd" : 621,
            "sendStart" : 620,
            "type" : "image/png"
         }
      },
      {
         "when_comp_start" : -1,
         "url" : "http://original.testbed.localhost/lh6.ggpht.com/uT-tVm7OgtOxWTnORdjHvsqMuH16QiTy27mDprZAQlIp19CKCIoyE4yJluFOwUGskSsByAYqn-o3JL7dCHTakw=s0",
         "id" : "r43",
         "comps" : [],
         "download" : {
            "receiveFirst" : 706,
            "len" : 7417,
            "dns" : 0,
            "dnsEnd" : -1,
            "receiveHeadersEnd" : 1242,
            "sslEnd" : -1,
            "connectEnd" : 536,
            "connectStart" : 0,
            "id" : "download_40",
            "receivedTime" : "8176.14699999103",
            "sslStart" : -1,
            "dnsStart" : -1,
            "receiveLast" : 6934.14699999103,
            "s_time" : 6657.92800000054,
            "sendEnd" : 536,
            "sendStart" : 536,
            "type" : "image/png"
         }
      },
      {
         "when_comp_start" : -1,
         "url" : "http://original.testbed.localhost/angelnetwork.com/wp-content/uploads/2015/06/AIN-background-image-hompage.jpg",
         "id" : "r53",
         "comps" : [],
         "download" : {
            "receiveFirst" : 373,
            "len" : 467918,
            "dns" : 0,
            "dnsEnd" : -1,
            "receiveHeadersEnd" : 1504,
            "sslEnd" : -1,
            "connectEnd" : 1130,
            "connectStart" : 0,
            "id" : "download_41",
            "receivedTime" : "15505.7669999951",
            "sslStart" : -1,
            "dnsStart" : -1,
            "receiveLast" : 14001.7669999951,
            "s_time" : 6748.71699998039,
            "sendEnd" : 1131,
            "sendStart" : 1130,
            "type" : "image/jpeg"
         }
      },
      {
         "when_comp_start" : -1,
         "url" : "http://original.testbed.localhost/angelnetwork.com/wp-content/themes/optimizePressTheme/lib/assets/images/divider/shadow-left.png",
         "id" : "r54",
         "comps" : [],
         "download" : {
            "receiveFirst" : 505,
            "len" : 927,
            "dns" : 0,
            "dnsEnd" : -1,
            "receiveHeadersEnd" : 595,
            "sslEnd" : -1,
            "connectEnd" : 90,
            "connectStart" : 0,
            "id" : "download_42",
            "receivedTime" : "8490.41699999361",
            "sslStart" : -1,
            "dnsStart" : -1,
            "receiveLast" : 7895.41699999361,
            "s_time" : 7877.40999998641,
            "sendEnd" : 90,
            "sendStart" : 90,
            "type" : "image/png"
         }
      },
      {
         "when_comp_start" : -1,
         "url" : "http://original.testbed.localhost/angelnetwork.com/wp-content/themes/optimizePressTheme/lib/assets/images/divider/shadow-right.png",
         "id" : "r55",
         "comps" : [],
         "download" : {
            "receiveFirst" : 502,
            "len" : 1015,
            "dns" : 0,
            "dnsEnd" : -1,
            "receiveHeadersEnd" : 699,
            "sslEnd" : -1,
            "connectEnd" : 197,
            "connectStart" : 0,
            "id" : "download_43",
            "receivedTime" : "9299.13299999316",
            "sslStart" : -1,
            "dnsStart" : -1,
            "receiveLast" : 8600.13299999316,
            "s_time" : 7964.79699999327,
            "sendEnd" : 197,
            "sendStart" : 197,
            "type" : "image/png"
         }
      },
      {
         "when_comp_start" : -1,
         "url" : "http://original.testbed.localhost/lh3.ggpht.com/XtGVgaYdER6BXR0TwyGec0dGrh8zg6ZbBX2cMtX2fxFxRBIE7xCXfz7C7wQaV-OHDr0oWjTzUUi_CfM-gCfhXQ=s0",
         "id" : "r45",
         "comps" : [],
         "download" : {
            "receiveFirst" : 570,
            "len" : 9500,
            "dns" : 0,
            "dnsEnd" : -1,
            "receiveHeadersEnd" : 891,
            "sslEnd" : -1,
            "connectEnd" : 321,
            "connectStart" : 0,
            "id" : "download_44",
            "receivedTime" : "9314.57499999669",
            "sslStart" : -1,
            "dnsStart" : -1,
            "receiveLast" : 8423.57499999669,
            "s_time" : 8159.10199997597,
            "sendEnd" : 321,
            "sendStart" : 321,
            "type" : "image/png"
         }
      },
      {
         "when_comp_start" : -1,
         "url" : "http://original.testbed.localhost/lh5.ggpht.com/gK5dKup8vVMrqrwk-x6xeJeh8SGQQ-MDB6ROiZEUjlhzDrOGtV8HIlF0fryWZD6ztYjFGzxqHRl_iT2HmayL7g=s0",
         "id" : "r46",
         "comps" : [],
         "download" : {
            "receiveFirst" : 623,
            "len" : 8343,
            "dns" : 0,
            "dnsEnd" : -1,
            "receiveHeadersEnd" : 787,
            "sslEnd" : -1,
            "connectEnd" : 163,
            "connectStart" : 0,
            "id" : "download_45",
            "receivedTime" : "9339.84299999429",
            "sslStart" : -1,
            "dnsStart" : -1,
            "receiveLast" : 8552.84299999429,
            "s_time" : 8477.35499998089,
            "sendEnd" : 164,
            "sendStart" : 163,
            "type" : "image/png"
         }
      },
      {
         "when_comp_start" : -1,
         "url" : "http://original.testbed.localhost/angelnetwork.com/wp-content/uploads/2015/04/Joyce-Bone.jpg",
         "id" : "r31",
         "comps" : [],
         "download" : {
            "receiveFirst" : 692,
            "len" : 25383,
            "dns" : 0,
            "dnsEnd" : -1,
            "receiveHeadersEnd" : 5343,
            "sslEnd" : -1,
            "connectEnd" : 4651,
            "connectStart" : 0,
            "id" : "download_46",
            "receivedTime" : "9566.25299999723",
            "sslStart" : -1,
            "dnsStart" : -1,
            "receiveLast" : 4223.25299999723,
            "s_time" : 4018.47799998359,
            "sendEnd" : 4651,
            "sendStart" : 4651,
            "type" : "image/jpeg"
         }
      },
      {
         "when_comp_start" : -1,
         "url" : "http://original.testbed.localhost/angelnetwork.com/wp-content/uploads/2014/12/viewyoutube.jpg",
         "id" : "r47",
         "comps" : [],
         "download" : {
            "receiveFirst" : 785,
            "len" : 15800,
            "dns" : 0,
            "dnsEnd" : -1,
            "receiveHeadersEnd" : 1247,
            "sslEnd" : -1,
            "connectEnd" : 462,
            "connectStart" : 0,
            "id" : "download_47",
            "receivedTime" : "10117.5529999891",
            "sslStart" : -1,
            "dnsStart" : -1,
            "receiveLast" : 8870.55299998913,
            "s_time" : 8667.63199999696,
            "sendEnd" : 462,
            "sendStart" : 462,
            "type" : "image/jpeg"
         }
      },
      {
         "when_comp_start" : -1,
         "url" : "http://original.testbed.localhost/angelnetwork.com/wp-content/themes/optimizePressTheme/lib/assets/tpls/social_sharing/images/buttons/share-twitter-alt.png",
         "id" : "r60",
         "comps" : [],
         "download" : {
            "receiveFirst" : 834,
            "len" : 2989,
            "dns" : 0,
            "dnsEnd" : -1,
            "receiveHeadersEnd" : 1032,
            "sslEnd" : -1,
            "connectEnd" : 198,
            "connectStart" : 0,
            "id" : "download_48",
            "receivedTime" : "10187.7129999921",
            "sslStart" : -1,
            "dnsStart" : -1,
            "receiveLast" : 9155.71299999207,
            "s_time" : 9128.70699999621,
            "sendEnd" : 198,
            "sendStart" : 198,
            "type" : "image/png"
         }
      },
      {
         "when_comp_start" : -1,
         "url" : "http://original.testbed.localhost/angelnetwork.com/wp-content/themes/optimizePressTheme/lib/assets/tpls/social_sharing/images/buttons/share-facebook-alt.png",
         "id" : "r61",
         "comps" : [],
         "download" : {
            "receiveFirst" : 620,
            "len" : 3020,
            "dns" : 0,
            "dnsEnd" : -1,
            "receiveHeadersEnd" : 864,
            "sslEnd" : -1,
            "connectEnd" : 244,
            "connectStart" : 0,
            "id" : "download_49",
            "receivedTime" : "10212.5240000023",
            "sslStart" : -1,
            "dnsStart" : -1,
            "receiveLast" : 9348.5240000023,
            "s_time" : 9325.23999997647,
            "sendEnd" : 244,
            "sendStart" : 244,
            "type" : "image/png"
         }
      },
      {
         "when_comp_start" : -1,
         "url" : "http://original.testbed.localhost/angelnetwork.com/wp-content/themes/optimizePressTheme/lib/assets/tpls/social_sharing/images/buttons/share-google-alt.png",
         "id" : "r62",
         "comps" : [],
         "download" : {
            "receiveFirst" : 458,
            "len" : 2336,
            "dns" : 0,
            "dnsEnd" : -1,
            "receiveHeadersEnd" : 1003,
            "sslEnd" : -1,
            "connectEnd" : 545,
            "connectStart" : 0,
            "id" : "download_50",
            "receivedTime" : "10580.2299999923",
            "sslStart" : -1,
            "dnsStart" : -1,
            "receiveLast" : 9577.2299999923,
            "s_time" : 9565.9169999999,
            "sendEnd" : 545,
            "sendStart" : 545,
            "type" : "image/png"
         }
      },
      {
         "when_comp_start" : -1,
         "url" : "http://original.testbed.localhost/angelnetwork.com/wp-content/uploads/2014/11/ain-corban.jpg",
         "id" : "r32",
         "comps" : [],
         "download" : {
            "receiveFirst" : 521,
            "len" : 11670,
            "dns" : 0,
            "dnsEnd" : -1,
            "receiveHeadersEnd" : 6685,
            "sslEnd" : -1,
            "connectEnd" : 6164,
            "connectStart" : 0,
            "id" : "download_51",
            "receivedTime" : "10854.7969999781",
            "sslStart" : -1,
            "dnsStart" : -1,
            "receiveLast" : 4169.79699997813,
            "s_time" : 4019.42299999064,
            "sendEnd" : 6164,
            "sendStart" : 6164,
            "type" : "image/jpeg"
         }
      },
      {
         "when_comp_start" : -1,
         "url" : "http://original.testbed.localhost/angelnetwork.com/wp-content/uploads/2014/11/ain-michael.jpg",
         "id" : "r33",
         "comps" : [],
         "download" : {
            "receiveFirst" : 596,
            "len" : 6220,
            "dns" : 0,
            "dnsEnd" : -1,
            "receiveHeadersEnd" : 6789,
            "sslEnd" : -1,
            "connectEnd" : 6193,
            "connectStart" : 0,
            "id" : "download_52",
            "receivedTime" : "10862.151999987",
            "sslStart" : -1,
            "dnsStart" : -1,
            "receiveLast" : 4073.15199998696,
            "s_time" : 4020.26299998397,
            "sendEnd" : 6193,
            "sendStart" : 6193,
            "type" : "image/jpeg"
         }
      },
      {
         "when_comp_start" : -1,
         "url" : "http://original.testbed.localhost/angelnetwork.com/wp-content/uploads/2014/11/ain-jason.jpg",
         "id" : "r34",
         "comps" : [],
         "download" : {
            "receiveFirst" : 706,
            "len" : 6643,
            "dns" : 0,
            "dnsEnd" : -1,
            "receiveHeadersEnd" : 7264,
            "sslEnd" : -1,
            "connectEnd" : 6558,
            "connectStart" : 0,
            "id" : "download_53",
            "receivedTime" : "11366.6379999777",
            "sslStart" : -1,
            "dnsStart" : -1,
            "receiveLast" : 4102.63799997768,
            "s_time" : 4021.54499999597,
            "sendEnd" : 6558,
            "sendStart" : 6558,
            "type" : "image/jpeg"
         }
      },
      {
         "when_comp_start" : -1,
         "url" : "http://original.testbed.localhost/angelnetwork.com/wp-content/uploads/2014/11/ain-kendall.jpg",
         "id" : "r35",
         "comps" : [],
         "download" : {
            "receiveFirst" : 643,
            "len" : 8896,
            "dns" : 0,
            "dnsEnd" : -1,
            "receiveHeadersEnd" : 7417,
            "sslEnd" : -1,
            "connectEnd" : 6774,
            "connectStart" : 0,
            "id" : "download_54",
            "receivedTime" : "11513.3360000036",
            "sslStart" : -1,
            "dnsStart" : -1,
            "receiveLast" : 4096.33600000362,
            "s_time" : 4023.16199999768,
            "sendEnd" : 6774,
            "sendStart" : 6774,
            "type" : "image/jpeg"
         }
      },
      {
         "when_comp_start" : 1,
         "url" : "http://original.testbed.localhost/list_ajaxstyle=json&action_get_list=1&list=UU7m6vQ1ASO89SUqafM_t8Pg",
         "id" : "r80",
         "comps" : [],
         "download" : {
            "receiveFirst" : 7,
            "len" : 299,
            "dns" : 0,
            "dnsEnd" : -1,
            "receiveHeadersEnd" : 15,
            "sslEnd" : -1,
            "connectEnd" : 8,
            "connectStart" : 0,
            "id" : "download_55",
            "receivedTime" : "18115.4469999892",
            "sslStart" : -1,
            "dnsStart" : -1,
            "receiveLast" : 18100.4469999892,
            "s_time" : 17824.2789999931,
            "sendEnd" : 8,
            "sendStart" : 8,
            "type" : "text/html"
         }
      }
   ],
   "deps" : [
      {
         "a2" : "r1_c2",
         "time" : -1,
         "id" : "dep1",
         "a1" : "comp_13"
      },
      {
         "a2" : "r1_c3",
         "time" : -1,
         "id" : "dep2",
         "a1" : "comp_15"
      },
      {
         "a2" : "r1_c4",
         "time" : -1,
         "id" : "dep3",
         "a1" : "comp_18"
      },
      {
         "a2" : "r1_c5",
         "time" : -1,
         "id" : "dep4",
         "a1" : "comp_20"
      },
      {
         "a2" : "r1_c6",
         "time" : -1,
         "id" : "dep5",
         "a1" : "comp_22"
      },
      {
         "a2" : "r1_c7",
         "time" : -1,
         "id" : "dep6",
         "a1" : "comp_24"
      },
      {
         "a2" : "r1_c8",
         "time" : -1,
         "id" : "dep7",
         "a1" : "comp_26"
      },
      {
         "a2" : "r1_c9",
         "time" : -1,
         "id" : "dep8",
         "a1" : "comp_28"
      },
      {
         "a2" : "r1_c10",
         "time" : -1,
         "id" : "dep9",
         "a1" : "comp_30"
      },
      {
         "a2" : "r1_c11",
         "time" : -1,
         "id" : "dep10",
         "a1" : "comp_32"
      },
      {
         "a2" : "r1_c12",
         "time" : -1,
         "id" : "dep11",
         "a1" : "comp_34"
      },
      {
         "a2" : "r1_c13",
         "time" : -1,
         "id" : "dep12",
         "a1" : "comp_59"
      },
      {
         "a2" : "r1_c14",
         "time" : -1,
         "id" : "dep13",
         "a1" : "comp_61"
      },
      {
         "a2" : "r1_c15",
         "time" : -1,
         "id" : "dep14",
         "a1" : "comp_63"
      },
      {
         "a2" : "r1_c16",
         "time" : -1,
         "id" : "dep15",
         "a1" : "comp_89"
      },
      {
         "a2" : "r1_c17",
         "time" : -1,
         "id" : "dep16",
         "a1" : "comp_119"
      },
      {
         "a2" : "comp_13",
         "time" : -1,
         "id" : "dep17",
         "a1" : "comp_3"
      },
      {
         "a2" : "comp_13",
         "time" : -1,
         "id" : "dep18",
         "a1" : "comp_4"
      },
      {
         "a2" : "comp_13",
         "time" : -1,
         "id" : "dep19",
         "a1" : "comp_7"
      },
      {
         "a2" : "comp_13",
         "time" : -1,
         "id" : "dep20",
         "a1" : "comp_11"
      },
      {
         "a2" : "comp_13",
         "time" : -1,
         "id" : "dep21",
         "a1" : "comp_8"
      },
      {
         "a2" : "comp_15",
         "time" : -1,
         "id" : "dep22",
         "a1" : "comp_13"
      },
      {
         "a2" : "comp_20",
         "time" : -1,
         "id" : "dep23",
         "a1" : "comp_18"
      },
      {
         "a2" : "comp_22",
         "time" : -1,
         "id" : "dep24",
         "a1" : "comp_20"
      },
      {
         "a2" : "comp_24",
         "time" : -1,
         "id" : "dep25",
         "a1" : "comp_22"
      },
      {
         "a2" : "comp_26",
         "time" : -1,
         "id" : "dep26",
         "a1" : "comp_24"
      },
      {
         "a2" : "comp_28",
         "time" : -1,
         "id" : "dep27",
         "a1" : "comp_26"
      },
      {
         "a2" : "comp_30",
         "time" : -1,
         "id" : "dep28",
         "a1" : "comp_28"
      },
      {
         "a2" : "comp_32",
         "time" : -1,
         "id" : "dep29",
         "a1" : "comp_30"
      },
      {
         "a2" : "comp_34",
         "time" : -1,
         "id" : "dep30",
         "a1" : "comp_32"
      },
      {
         "a2" : "r52_c2",
         "time" : -1,
         "id" : "dep31",
         "a1" : "comp_210"
      },
      {
         "a2" : "comp_210",
         "time" : -1,
         "id" : "dep32",
         "a1" : "comp_119"
      },
      {
         "a2" : "download_55",
         "time" : 399.383000010803,
         "id" : "dep33",
         "a1" : "r52_c2"
      },
      {
         "a2" : "download_54",
         "time" : -1,
         "id" : "dep34",
         "a1" : "r1_c12"
      },
      {
         "a2" : "download_53",
         "time" : 36.5600000077402,
         "id" : "dep35",
         "a1" : "r1_c12"
      },
      {
         "a2" : "download_52",
         "time" : 35.2779999957402,
         "id" : "dep36",
         "a1" : "r1_c12"
      },
      {
         "a2" : "download_51",
         "time" : 34.4380000024103,
         "id" : "dep37",
         "a1" : "r1_c12"
      },
      {
         "a2" : "download_50",
         "time" : -1,
         "id" : "dep38",
         "a1" : "r52_c1"
      },
      {
         "a2" : "download_49",
         "time" : 4600.29499998199,
         "id" : "dep39",
         "a1" : "r52_c1"
      },
      {
         "a2" : "download_48",
         "time" : 484.51199999545,
         "id" : "dep40",
         "a1" : "comp_151"
      },
      {
         "a2" : "download_47",
         "time" : 23.4369999962,
         "id" : "dep41",
         "a1" : "comp_151"
      },
      {
         "a2" : "download_46",
         "time" : 33.4929999953602,
         "id" : "dep42",
         "a1" : "r1_c12"
      },
      {
         "a2" : "download_45",
         "time" : 3752.40999998641,
         "id" : "dep43",
         "a1" : "r52_c1"
      },
      {
         "a2" : "download_44",
         "time" : 3434.15699998149,
         "id" : "dep44",
         "a1" : "r52_c1"
      },
      {
         "a2" : "download_43",
         "time" : 3239.85199999879,
         "id" : "dep45",
         "a1" : "r52_c1"
      },
      {
         "a2" : "download_42",
         "time" : 3152.46499999193,
         "id" : "dep46",
         "a1" : "r52_c1"
      },
      {
         "a2" : "download_42",
         "time" : 529.63199999067,
         "id" : "dep47",
         "a1" : "r1_c17"
      },
      {
         "a2" : "download_41",
         "time" : 2023.77199998591,
         "id" : "dep48",
         "a1" : "r52_c1"
      },
      {
         "a2" : "download_41",
         "time" : -1,
         "id" : "dep49",
         "a1" : "r1_c16"
      },
      {
         "a2" : "download_40",
         "time" : 1932.98300000606,
         "id" : "dep50",
         "a1" : "r52_c1"
      },
      {
         "a2" : "download_40",
         "time" : 1612.97600000398,
         "id" : "dep51",
         "a1" : "r1_c16"
      },
      {
         "a2" : "download_39",
         "time" : 1405.67000000737,
         "id" : "dep52",
         "a1" : "r52_c1"
      },
      {
         "a2" : "download_39",
         "time" : 1085.66300000529,
         "id" : "dep53",
         "a1" : "r1_c16"
      },
      {
         "a2" : "download_38",
         "time" : 1338.94200000213,
         "id" : "dep54",
         "a1" : "r52_c1"
      },
      {
         "a2" : "download_38",
         "time" : 1018.93500000005,
         "id" : "dep55",
         "a1" : "r1_c16"
      },
      {
         "a2" : "download_37",
         "time" : 635.66500000888,
         "id" : "dep56",
         "a1" : "r52_c1"
      },
      {
         "a2" : "download_37",
         "time" : 640.30400000047,
         "id" : "dep57",
         "a1" : "r51_c1"
      },
      {
         "a2" : "download_37",
         "time" : 315.658000006801,
         "id" : "dep58",
         "a1" : "r1_c16"
      },
      {
         "a2" : "download_36",
         "time" : 89.6899999934203,
         "id" : "dep59",
         "a1" : "r52_c1"
      },
      {
         "a2" : "download_36",
         "time" : 94.3289999850103,
         "id" : "dep60",
         "a1" : "r51_c1"
      },
      {
         "a2" : "download_36",
         "time" : -1,
         "id" : "dep61",
         "a1" : "r1_c15"
      },
      {
         "a2" : "download_35",
         "time" : 100.570999988119,
         "id" : "dep62",
         "a1" : "r1_c15"
      },
      {
         "a2" : "download_34",
         "time" : 56.0149999801097,
         "id" : "dep63",
         "a1" : "r1_c15"
      },
      {
         "a2" : "download_33",
         "time" : -1,
         "id" : "dep64",
         "a1" : "r1_c12"
      },
      {
         "a2" : "download_32",
         "time" : 400.81799999462,
         "id" : "dep65",
         "a1" : "r1_c15"
      },
      {
         "a2" : "download_32",
         "time" : 7.47599999886006,
         "id" : "dep66",
         "a1" : "r52_c1"
      },
      {
         "a2" : "download_32",
         "time" : 12.1149999904501,
         "id" : "dep67",
         "a1" : "r51_c1"
      },
      {
         "a2" : "download_32",
         "time" : 400.81799999462,
         "id" : "dep68",
         "a1" : "r1_c15"
      },
      {
         "a2" : "download_31",
         "time" : 400.116000004349,
         "id" : "dep69",
         "a1" : "r1_c15"
      },
      {
         "a2" : "download_31",
         "time" : 6.77400000858961,
         "id" : "dep70",
         "a1" : "r52_c1"
      },
      {
         "a2" : "download_31",
         "time" : 11.4130000001796,
         "id" : "dep71",
         "a1" : "r51_c1"
      },
      {
         "a2" : "download_31",
         "time" : 400.116000004349,
         "id" : "dep72",
         "a1" : "r1_c15"
      },
      {
         "a2" : "download_30",
         "time" : 1.34299998171991,
         "id" : "dep73",
         "a1" : "r51_c1"
      },
      {
         "a2" : "download_30",
         "time" : 390.045999985889,
         "id" : "dep74",
         "a1" : "r1_c15"
      },
      {
         "a2" : "download_29",
         "time" : 70.3740000026291,
         "id" : "dep75",
         "a1" : "r1_c15"
      },
      {
         "a2" : "download_29",
         "time" : 70.3740000026291,
         "id" : "dep76",
         "a1" : "r1_c15"
      },
      {
         "a2" : "download_28",
         "time" : 69.82499998412,
         "id" : "dep77",
         "a1" : "r1_c15"
      },
      {
         "a2" : "download_28",
         "time" : 69.82499998412,
         "id" : "dep78",
         "a1" : "r1_c15"
      },
      {
         "a2" : "download_27",
         "time" : 4.63799998397008,
         "id" : "dep79",
         "a1" : "r52_c1"
      },
      {
         "a2" : "download_27",
         "time" : 9.2769999755601,
         "id" : "dep80",
         "a1" : "r51_c1"
      },
      {
         "a2" : "download_27",
         "time" : 397.97999997973,
         "id" : "dep81",
         "a1" : "r1_c15"
      },
      {
         "a2" : "download_26",
         "time" : 43.9459999906894,
         "id" : "dep82",
         "a1" : "r1_c15"
      },
      {
         "a2" : "download_26",
         "time" : 43.9459999906894,
         "id" : "dep83",
         "a1" : "r1_c15"
      },
      {
         "a2" : "download_25",
         "time" : -1,
         "id" : "dep84",
         "a1" : "r1_c12"
      },
      {
         "a2" : "download_25",
         "time" : 314.78899999638,
         "id" : "dep85",
         "a1" : "r1_c12"
      },
      {
         "a2" : "download_24",
         "time" : 235.68599999999,
         "id" : "dep86",
         "a1" : "r1_c12"
      },
      {
         "a2" : "download_23",
         "time" : 73.9739999990002,
         "id" : "dep87",
         "a1" : "r1_c12"
      },
      {
         "a2" : "download_22",
         "time" : 32.4850000033603,
         "id" : "dep88",
         "a1" : "r1_c12"
      },
      {
         "a2" : "download_21",
         "time" : 31.6929999971703,
         "id" : "dep89",
         "a1" : "r1_c12"
      },
      {
         "a2" : "download_20",
         "time" : 30.5020000087102,
         "id" : "dep90",
         "a1" : "r1_c12"
      },
      {
         "a2" : "download_19",
         "time" : 29.83099999255,
         "id" : "dep91",
         "a1" : "r1_c12"
      },
      {
         "a2" : "download_18",
         "time" : -1,
         "id" : "dep92",
         "a1" : "r1_c10"
      },
      {
         "a2" : "download_18",
         "time" : 28.1990000221399,
         "id" : "dep93",
         "a1" : "r1_c10"
      },
      {
         "a2" : "download_17",
         "time" : 4.89800001377989,
         "id" : "dep94",
         "a1" : "r1_c10"
      },
      {
         "a2" : "download_17",
         "time" : 4.89800001377989,
         "id" : "dep95",
         "a1" : "r1_c10"
      },
      {
         "a2" : "download_16",
         "time" : 2.50299999606978,
         "id" : "dep96",
         "a1" : "r1_c10"
      },
      {
         "a2" : "download_16",
         "time" : 2.50299999606978,
         "id" : "dep97",
         "a1" : "r1_c10"
      },
      {
         "a2" : "download_15",
         "time" : 0.457999994979673,
         "id" : "dep98",
         "a1" : "r1_c10"
      },
      {
         "a2" : "download_14",
         "time" : -1,
         "id" : "dep99",
         "a1" : "r1_c1"
      },
      {
         "a2" : "download_14",
         "time" : 111.237000004621,
         "id" : "dep100",
         "a1" : "r1_c1"
      },
      {
         "a2" : "download_13",
         "time" : 108.155000023544,
         "id" : "dep101",
         "a1" : "r1_c1"
      },
      {
         "a2" : "download_13",
         "time" : 108.155000023544,
         "id" : "dep102",
         "a1" : "r1_c1"
      },
      {
         "a2" : "download_12",
         "time" : 105.865999998059,
         "id" : "dep103",
         "a1" : "r1_c1"
      },
      {
         "a2" : "download_12",
         "time" : 105.865999998059,
         "id" : "dep104",
         "a1" : "r1_c1"
      },
      {
         "a2" : "download_11",
         "time" : 105.256000009831,
         "id" : "dep105",
         "a1" : "r1_c1"
      },
      {
         "a2" : "download_11",
         "time" : 105.256000009831,
         "id" : "dep106",
         "a1" : "r1_c1"
      },
      {
         "a2" : "download_10",
         "time" : 104.493000020739,
         "id" : "dep107",
         "a1" : "r1_c1"
      },
      {
         "a2" : "download_10",
         "time" : 104.493000020739,
         "id" : "dep108",
         "a1" : "r1_c1"
      },
      {
         "a2" : "download_9",
         "time" : 103.912999999011,
         "id" : "dep109",
         "a1" : "r1_c1"
      },
      {
         "a2" : "download_9",
         "time" : 103.912999999011,
         "id" : "dep110",
         "a1" : "r1_c1"
      },
      {
         "a2" : "download_8",
         "time" : 99.427000008291,
         "id" : "dep111",
         "a1" : "r1_c1"
      },
      {
         "a2" : "download_7",
         "time" : 103.333000006387,
         "id" : "dep112",
         "a1" : "r1_c1"
      },
      {
         "a2" : "download_7",
         "time" : 103.333000006387,
         "id" : "dep113",
         "a1" : "r1_c1"
      },
      {
         "a2" : "download_6",
         "time" : 102.631000016117,
         "id" : "dep114",
         "a1" : "r1_c1"
      },
      {
         "a2" : "download_6",
         "time" : 102.631000016117,
         "id" : "dep115",
         "a1" : "r1_c1"
      },
      {
         "a2" : "download_5",
         "time" : 101.502000004984,
         "id" : "dep116",
         "a1" : "r1_c1"
      },
      {
         "a2" : "download_4",
         "time" : 100.403000018559,
         "id" : "dep117",
         "a1" : "r1_c1"
      },
      {
         "a2" : "download_3",
         "time" : 98.389000020688,
         "id" : "dep118",
         "a1" : "r1_c1"
      },
      {
         "a2" : "download_2",
         "time" : 97.107000008691,
         "id" : "dep119",
         "a1" : "r1_c1"
      },
      {
         "a2" : "download_1",
         "time" : 95.948000001954,
         "id" : "dep120",
         "a1" : "r1_c1"
      }
   ]
}
