{
   "n_download_no_trigger" : 1,
   "start_activity" : "download_0",
   "name" : "original.testbed.localhost_www.miamiherald.com_",
   "load_activity" : -1,
   "objs" : [
      {
         "when_comp_start" : 1,
         "url" : "http://original.testbed.localhost/www.miamiherald.com/",
         "id" : "r1",
         "comps" : [
            {
               "s_time" : 110.368000001472,
               "time" : 5.064999997558,
               "id" : "r1_c1",
               "type" : "evalhtml",
               "e_time" : 115.43299999903
            },
            {
               "s_time" : 243.790000000445,
               "time" : 3.87600000249202,
               "id" : "r1_c2",
               "type" : "evalhtml",
               "e_time" : 247.666000002937
            },
            {
               "s_time" : 1677.44500000117,
               "time" : 12.75699999678,
               "id" : "r1_c3",
               "type" : "evalhtml",
               "e_time" : 1690.20199999795
            },
            {
               "s_time" : 2241.86799999734,
               "time" : -60153713.669,
               "id" : "r1_c4",
               "type" : "evalhtml",
               "e_time" : -60151471.801
            },
            {
               "s_time" : 3143.5100000017,
               "time" : -60154615.311,
               "id" : "r1_c5",
               "type" : "evalhtml",
               "e_time" : -60151471.801
            },
            {
               "s_time" : 6175.70600000181,
               "time" : -60157647.507,
               "id" : "r1_c6",
               "type" : "evalhtml",
               "e_time" : -60151471.801
            },
            {
               "s_time" : 6253.15899999987,
               "time" : -60157724.96,
               "id" : "r1_c7",
               "type" : "evalhtml",
               "e_time" : -60151471.801
            },
            {
               "s_time" : 6270.46300000075,
               "time" : 52.7030000012001,
               "id" : "r1_c8",
               "type" : "evalhtml",
               "e_time" : 6323.16600000195
            },
            {
               "s_time" : 6337.54000000044,
               "time" : 48.1569999974499,
               "id" : "r1_c9",
               "type" : "evalhtml",
               "e_time" : 6385.69699999789
            },
            {
               "s_time" : 7123.64299999899,
               "time" : 1192.35199999821,
               "id" : "r1_c10",
               "type" : "evalhtml",
               "e_time" : 8315.9949999972
            },
            {
               "s_time" : 8546.55500000081,
               "time" : 89.8749999978409,
               "id" : "r1_c11",
               "type" : "evalhtml",
               "e_time" : 8636.42999999865
            },
            {
               "s_time" : 10378.8920000006,
               "time" : -60161850.693,
               "id" : "r1_c12",
               "type" : "evalhtml",
               "e_time" : -60151471.801
            },
            {
               "s_time" : 10407.852999997,
               "time" : 323.257000003601,
               "id" : "r1_c13",
               "type" : "evalhtml",
               "e_time" : 10731.1100000006
            },
            {
               "s_time" : 10739.8230000035,
               "time" : -60162211.624,
               "id" : "r1_c14",
               "type" : "evalhtml",
               "e_time" : -60151471.801
            },
            {
               "s_time" : 11861.4660000021,
               "time" : 575.896999995201,
               "id" : "r1_c15",
               "type" : "evalhtml",
               "e_time" : 12437.3629999973
            },
            {
               "s_time" : 14945.4810000025,
               "time" : -60166417.282,
               "id" : "r1_c16",
               "type" : "evalhtml",
               "e_time" : -60151471.801
            },
            {
               "s_time" : 14980.6069999977,
               "time" : 19.8660000023992,
               "id" : "r1_c17",
               "type" : "evalhtml",
               "e_time" : 15000.4730000001
            },
            {
               "s_time" : 15040.8180000013,
               "time" : 1217.5290000014,
               "type" : "evalhtml",
               "id" : "r1_c18",
               "e_time" : 16258.3470000027
            }
         ],
         "download" : {
            "receiveFirst" : 15,
            "len" : 124874,
            "dns" : 0,
            "dnsEnd" : -1,
            "receiveHeadersEnd" : 19,
            "sslEnd" : -1,
            "connectEnd" : 4,
            "connectStart" : 0,
            "id" : "download_0",
            "receivedTime" : "215.958000000683",
            "sslStart" : -1,
            "dnsStart" : -1,
            "receiveLast" : 196.958000000683,
            "s_time" : 0,
            "sendEnd" : 4,
            "sendStart" : 4,
            "type" : "text/html"
         }
      },
      {
         "when_comp_start" : -1,
         "url" : "http://original.testbed.localhost/www.miamiherald.com/static/js/mi-scripts/safeurl.js%3FsVer=1.0.64-1e691c6",
         "id" : "r2",
         "comps" : [
            {
               "s_time" : 230.63700000057,
               "time" : 13.152999999875,
               "type" : 1,
               "id" : "comp_0",
               "e_time" : 243.790000000445
            }
         ],
         "download" : {
            "receiveFirst" : 96,
            "len" : 1553,
            "dns" : 0,
            "dnsEnd" : -1,
            "receiveHeadersEnd" : 111,
            "sslEnd" : -1,
            "connectEnd" : 14,
            "connectStart" : 0,
            "id" : "download_1",
            "receivedTime" : "229.44699999789",
            "sslStart" : -1,
            "dnsStart" : -1,
            "receiveLast" : 118.44699999789,
            "s_time" : 112.487999998848,
            "sendEnd" : 15,
            "sendStart" : 14,
            "type" : "text/plain"
         }
      },
      {
         "when_comp_start" : -1,
         "url" : "http://original.testbed.localhost/www.miamiherald.com/static/theme/miamiherald/base/css/main.css%3FsVer=1.0.64-1e691c6.css",
         "id" : "r4",
         "comps" : [
            {
               "s_time" : 1895.921000003,
               "time" : 208.43500000046,
               "type" : 4,
               "id" : "comp_4",
               "e_time" : 2104.35600000346
            }
         ],
         "download" : {
            "receiveFirst" : 21,
            "len" : 245613,
            "dns" : 0,
            "dnsEnd" : -1,
            "receiveHeadersEnd" : 123,
            "sslEnd" : -1,
            "connectEnd" : 102,
            "connectStart" : 0,
            "id" : "download_2",
            "receivedTime" : "1894.66900000116",
            "sslStart" : -1,
            "dnsStart" : -1,
            "receiveLast" : 1771.66900000116,
            "s_time" : 113.572000002023,
            "sendEnd" : 102,
            "sendStart" : 102,
            "type" : "text/css"
         }
      },
      {
         "when_comp_start" : -1,
         "url" : "http://original.testbed.localhost/s.ppjol.net/lightbox/pp4.js",
         "id" : "r5",
         "comps" : [
            {
               "s_time" : 2214.64600000036,
               "time" : 27.2219999969802,
               "type" : 1,
               "id" : "comp_9",
               "e_time" : 2241.86799999734
            }
         ],
         "download" : {
            "receiveFirst" : 127,
            "len" : 79128,
            "dns" : 0,
            "dnsEnd" : 13,
            "receiveHeadersEnd" : 242,
            "sslEnd" : -1,
            "connectEnd" : 115,
            "connectStart" : 0,
            "id" : "download_3",
            "receivedTime" : "2211.83900000324",
            "sslStart" : -1,
            "dnsStart" : 13,
            "receiveLast" : 1969.83900000324,
            "s_time" : 114.120999998704,
            "sendEnd" : 115,
            "sendStart" : 115,
            "type" : "application/javascript"
         }
      },
      {
         "when_comp_start" : -1,
         "url" : "http://original.testbed.localhost/www.miamiherald.com/static/js/jquery-1.10.2.min.js%3FsVer=1.0.64-1e691c6",
         "id" : "r6",
         "comps" : [
            {
               "s_time" : 2945.69500000216,
               "time" : 197.81499999954,
               "type" : 1,
               "id" : "comp_11",
               "e_time" : 3143.5100000017
            }
         ],
         "download" : {
            "receiveFirst" : 248,
            "len" : 93107,
            "dns" : 0,
            "dnsEnd" : 15,
            "receiveHeadersEnd" : 363,
            "sslEnd" : -1,
            "connectEnd" : 115,
            "connectStart" : 0,
            "id" : "download_4",
            "receivedTime" : "2942.12400000106",
            "sslStart" : -1,
            "dnsStart" : 15,
            "receiveLast" : 2579.12400000106,
            "s_time" : 114.793000000645,
            "sendEnd" : 115,
            "sendStart" : 115,
            "type" : "text/plain"
         }
      },
      {
         "when_comp_start" : -1,
         "url" : "http://original.testbed.localhost/www.miamiherald.com/static/js/dtagent61_bxzjnpr2s3_8191.js",
         "id" : "r3",
         "comps" : [
            {
               "s_time" : 1545.45700000017,
               "time" : 131.988000001,
               "type" : 1,
               "id" : "comp_2",
               "e_time" : 1677.44500000117
            }
         ],
         "download" : {
            "receiveFirst" : 368,
            "len" : 58432,
            "dns" : 0,
            "dnsEnd" : -1,
            "receiveHeadersEnd" : 485,
            "sslEnd" : -1,
            "connectEnd" : 117,
            "connectStart" : 0,
            "id" : "download_5",
            "receivedTime" : "1544.45000000123",
            "sslStart" : -1,
            "dnsStart" : -1,
            "receiveLast" : 1059.45000000123,
            "s_time" : 112.442999998166,
            "sendEnd" : 117,
            "sendStart" : 117,
            "type" : "application/javascript"
         }
      },
      {
         "when_comp_start" : -1,
         "url" : "http://original.testbed.localhost/www.miamiherald.com/static/js/mi-wf-site.js%3FsVer=1.0.64-1e691c6",
         "id" : "r7",
         "comps" : [
            {
               "s_time" : 6088.97499999875,
               "time" : 86.7310000030602,
               "type" : 1,
               "id" : "comp_13",
               "e_time" : 6175.70600000181
            }
         ],
         "download" : {
            "receiveFirst" : 487,
            "len" : 195622,
            "dns" : 0,
            "dnsEnd" : 18,
            "receiveHeadersEnd" : 602,
            "sslEnd" : -1,
            "connectEnd" : 115,
            "connectStart" : 0,
            "id" : "download_6",
            "receivedTime" : "6076.4629999976",
            "sslStart" : -1,
            "dnsStart" : 18,
            "receiveLast" : 5474.4629999976,
            "s_time" : 115.43299999903,
            "sendEnd" : 115,
            "sendStart" : 115,
            "type" : "text/plain"
         }
      },
      {
         "when_comp_start" : -1,
         "url" : "http://original.testbed.localhost/media.miamiherald.com/misites/mia/miamiherald.js",
         "id" : "r8",
         "comps" : [
            {
               "s_time" : 6251.87800000276,
               "time" : 1.28099999710957,
               "type" : 1,
               "id" : "comp_18",
               "e_time" : 6253.15899999987
            }
         ],
         "download" : {
            "receiveFirst" : 622,
            "len" : 1766,
            "dns" : 0,
            "dnsEnd" : -1,
            "receiveHeadersEnd" : 631,
            "sslEnd" : -1,
            "connectEnd" : 9,
            "connectStart" : 0,
            "id" : "download_7",
            "receivedTime" : "884.995000000345",
            "sslStart" : -1,
            "dnsStart" : -1,
            "receiveLast" : 253.995000000345,
            "s_time" : 247.666000002937,
            "sendEnd" : 9,
            "sendStart" : 9,
            "type" : "application/javascript"
         }
      },
      {
         "when_comp_start" : -1,
         "url" : "http://original.testbed.localhost/c.amazon-adsystem.com/aax2/amzn_ads.js",
         "id" : "r9",
         "comps" : [
            {
               "s_time" : 6261.00199999928,
               "time" : 9.46100000146998,
               "type" : 1,
               "id" : "comp_20",
               "e_time" : 6270.46300000075
            }
         ],
         "download" : {
            "receiveFirst" : 1048,
            "len" : 15033,
            "dns" : 0,
            "dnsEnd" : -1,
            "receiveHeadersEnd" : 1053,
            "sslEnd" : -1,
            "connectEnd" : 5,
            "connectStart" : 0,
            "id" : "download_8",
            "receivedTime" : "2783.12800000276",
            "sslStart" : -1,
            "dnsStart" : -1,
            "receiveLast" : 1730.12800000276,
            "s_time" : 1690.20199999795,
            "sendEnd" : 5,
            "sendStart" : 5,
            "type" : "application/javascript"
         }
      },
      {
         "when_comp_start" : -1,
         "url" : "http://original.testbed.localhost/c.jsrdn.com/s/cs.js%3Fp=22301",
         "id" : "r24",
         "comps" : [
            {
               "s_time" : 7010.17799999681,
               "time" : 113.465000002179,
               "type" : 1,
               "id" : "comp_30",
               "e_time" : 7123.64299999899
            }
         ],
         "download" : {
            "receiveFirst" : 8,
            "len" : 75455,
            "dns" : 0,
            "dnsEnd" : -1,
            "receiveHeadersEnd" : 14,
            "sslEnd" : -1,
            "connectEnd" : 6,
            "connectStart" : 0,
            "id" : "download_9",
            "receivedTime" : "7009.08000000345",
            "sslStart" : -1,
            "dnsStart" : -1,
            "receiveLast" : 6995.08000000345,
            "s_time" : 6294.14399999951,
            "sendEnd" : 6,
            "sendStart" : 6,
            "type" : "text/plain"
         }
      },
      {
         "when_comp_start" : -1,
         "url" : "http://original.testbed.localhost/www.miamiherald.com/static/images/miamiherald/logo-lg.png",
         "id" : "r25",
         "comps" : [],
         "download" : {
            "receiveFirst" : 274,
            "len" : 5857,
            "dns" : 0,
            "dnsEnd" : -1,
            "receiveHeadersEnd" : 281,
            "sslEnd" : -1,
            "connectEnd" : 6,
            "connectStart" : 0,
            "id" : "download_10",
            "receivedTime" : "6650.04000000044",
            "sslStart" : -1,
            "dnsStart" : -1,
            "receiveLast" : 6369.04000000044,
            "s_time" : 6323.16600000195,
            "sendEnd" : 7,
            "sendStart" : 6,
            "type" : "image/png"
         }
      },
      {
         "when_comp_start" : -1,
         "url" : "http://original.testbed.localhost/www.miamiherald.com/static/img/placeholder/LANDSCAPE.gif",
         "id" : "r26",
         "comps" : [],
         "download" : {
            "receiveFirst" : 347,
            "len" : 70,
            "dns" : 0,
            "dnsEnd" : -1,
            "receiveHeadersEnd" : 617,
            "sslEnd" : -1,
            "connectEnd" : 269,
            "connectStart" : 0,
            "id" : "download_11",
            "receivedTime" : "7380.60099999711",
            "sslStart" : -1,
            "dnsStart" : -1,
            "receiveLast" : 6763.60099999711,
            "s_time" : 6385.69699999789,
            "sendEnd" : 270,
            "sendStart" : 269,
            "type" : "image/gif"
         }
      },
      {
         "when_comp_start" : -1,
         "url" : "http://original.testbed.localhost/www.miamiherald.com/static/fonts/mcclatchy-sans-condensed/McClatchySansCond-Semibold.woff",
         "id" : "r13",
         "comps" : [],
         "download" : {
            "receiveFirst" : 30,
            "len" : 23832,
            "dns" : 0,
            "dnsEnd" : -1,
            "receiveHeadersEnd" : 46,
            "sslEnd" : -1,
            "connectEnd" : 16,
            "connectStart" : 0,
            "id" : "download_12",
            "receivedTime" : "8338.82199999789",
            "sslStart" : -1,
            "dnsStart" : -1,
            "receiveLast" : 8292.82199999789,
            "s_time" : 7380.85999999748,
            "sendEnd" : 16,
            "sendStart" : 16,
            "type" : "application/octet-stream"
         }
      },
      {
         "when_comp_start" : -1,
         "url" : "http://original.testbed.localhost/product-images.imshopping.com/nimblebuy/35-evening-catamaran-cruise-wwine-snacks-reg-70-5926912-original.jpg",
         "id" : "r31",
         "comps" : [],
         "download" : {
            "receiveFirst" : 145,
            "len" : 152806,
            "dns" : 0,
            "dnsEnd" : -1,
            "receiveHeadersEnd" : 163,
            "sslEnd" : -1,
            "connectEnd" : 18,
            "connectStart" : 0,
            "id" : "download_13",
            "receivedTime" : "9756.18099999701",
            "sslStart" : -1,
            "dnsStart" : -1,
            "receiveLast" : 9593.18099999701,
            "s_time" : 7400.46799999982,
            "sendEnd" : 18,
            "sendStart" : 18,
            "type" : "image/jpeg"
         }
      },
      {
         "when_comp_start" : -1,
         "url" : "http://original.testbed.localhost/www.miamiherald.com/static/codewidgets/dealsaver/images/dealsaver_td_logo.png",
         "id" : "r32",
         "comps" : [],
         "download" : {
            "receiveFirst" : 229,
            "len" : 2644,
            "dns" : 0,
            "dnsEnd" : 21,
            "receiveHeadersEnd" : 509,
            "sslEnd" : -1,
            "connectEnd" : 280,
            "connectStart" : 0,
            "id" : "download_14",
            "receivedTime" : "8337.60099999927",
            "sslStart" : -1,
            "dnsStart" : 21,
            "receiveLast" : 7828.60099999927,
            "s_time" : 7401.45900000061,
            "sendEnd" : 280,
            "sendStart" : 280,
            "type" : "image/png"
         }
      },
      {
         "when_comp_start" : -1,
         "url" : "http://original.testbed.localhost/www.miamiherald.com/static/img/placeholder/SQUARE.gif",
         "id" : "r30",
         "comps" : [],
         "download" : {
            "receiveFirst" : 844,
            "len" : 80,
            "dns" : 0,
            "dnsEnd" : -1,
            "receiveHeadersEnd" : 868,
            "sslEnd" : -1,
            "connectEnd" : 23,
            "connectStart" : 0,
            "id" : "download_15",
            "receivedTime" : "8355.33199999918",
            "sslStart" : -1,
            "dnsStart" : -1,
            "receiveLast" : 7487.33199999918,
            "s_time" : 7386.00199999928,
            "sendEnd" : 24,
            "sendStart" : 23,
            "type" : "image/gif"
         }
      },
      {
         "when_comp_start" : -1,
         "url" : "http://original.testbed.localhost/pubsys.miamiherald.com/static/escenic/blogs/scripts/blog_script_new.js",
         "id" : "r33",
         "comps" : [
            {
               "s_time" : 8544.60200000176,
               "time" : 1.95299999905001,
               "type" : 1,
               "id" : "comp_206",
               "e_time" : 8546.55500000081
            }
         ],
         "download" : {
            "receiveFirst" : 223,
            "len" : 11268,
            "dns" : 0,
            "dnsEnd" : -1,
            "receiveHeadersEnd" : 234,
            "sslEnd" : -1,
            "connectEnd" : 11,
            "connectStart" : 0,
            "id" : "download_16",
            "receivedTime" : "8540.14699999971",
            "sslStart" : -1,
            "dnsStart" : -1,
            "receiveLast" : 8306.14699999971,
            "s_time" : 8263.35200000176,
            "sendEnd" : 11,
            "sendStart" : 11,
            "type" : "application/javascript"
         }
      },
      {
         "when_comp_start" : -1,
         "url" : "http://original.testbed.localhost/www.miamiherald.com/static/images/career-builder-widget-logo.png",
         "id" : "r34",
         "comps" : [],
         "download" : {
            "receiveFirst" : 249,
            "len" : 3034,
            "dns" : 0,
            "dnsEnd" : -1,
            "receiveHeadersEnd" : 266,
            "sslEnd" : -1,
            "connectEnd" : 17,
            "connectStart" : 0,
            "id" : "download_17",
            "receivedTime" : "8637.06999999704",
            "sslStart" : -1,
            "dnsStart" : -1,
            "receiveLast" : 8371.06999999704,
            "s_time" : 8268.12800000334,
            "sendEnd" : 17,
            "sendStart" : 17,
            "type" : "image/png"
         }
      },
      {
         "when_comp_start" : -1,
         "url" : "http://original.testbed.localhost/api.circularhub.com/844/45eb20750a20084f/circularhub_module.js",
         "id" : "r35",
         "comps" : [
            {
               "s_time" : 10268.326999998,
               "time" : 110.5650000026,
               "type" : 1,
               "id" : "comp_219",
               "e_time" : 10378.8920000006
            }
         ],
         "download" : {
            "receiveFirst" : 302,
            "len" : 175366,
            "dns" : 0,
            "dnsEnd" : -1,
            "receiveHeadersEnd" : 324,
            "sslEnd" : -1,
            "connectEnd" : 22,
            "connectStart" : 0,
            "id" : "download_18",
            "receivedTime" : "10260.6670000023",
            "sslStart" : -1,
            "dnsStart" : -1,
            "receiveLast" : 9936.66700000229,
            "s_time" : 8267.50300000276,
            "sendEnd" : 22,
            "sendStart" : 22,
            "type" : "application/javascript"
         }
      },
      {
         "when_comp_start" : -1,
         "url" : "http://original.testbed.localhost/www.google.com/jsapi",
         "id" : "r36",
         "comps" : [
            {
               "s_time" : 10385.3610000006,
               "time" : 22.4919999964004,
               "type" : 1,
               "id" : "comp_227",
               "e_time" : 10407.852999997
            }
         ],
         "download" : {
            "receiveFirst" : 393,
            "len" : 24351,
            "dns" : 0,
            "dnsEnd" : -1,
            "receiveHeadersEnd" : 631,
            "sslEnd" : -1,
            "connectEnd" : 238,
            "connectStart" : 0,
            "id" : "download_19",
            "receivedTime" : "9839.43300000101",
            "sslStart" : -1,
            "dnsStart" : -1,
            "receiveLast" : 9208.43300000101,
            "s_time" : 8269.7909999988,
            "sendEnd" : 238,
            "sendStart" : 238,
            "type" : "text/plain"
         }
      },
      {
         "when_comp_start" : -1,
         "url" : "http://original.testbed.localhost/www.miamiherald.com/static/fonts/font-awesome/fontawesome-webfont.woff%3Fv=4.3.0",
         "id" : "r10",
         "comps" : [],
         "download" : {
            "receiveFirst" : 480,
            "len" : 71508,
            "dns" : 0,
            "dnsEnd" : -1,
            "receiveHeadersEnd" : 729,
            "sslEnd" : -1,
            "connectEnd" : 248,
            "connectStart" : 0,
            "id" : "download_20",
            "receivedTime" : "11675.98",
            "sslStart" : -1,
            "dnsStart" : -1,
            "receiveLast" : 10946.98,
            "s_time" : 8307.8319999986,
            "sendEnd" : 249,
            "sendStart" : 248,
            "type" : "application/octet-stream"
         }
      },
      {
         "when_comp_start" : -1,
         "url" : "http://original.testbed.localhost/media.miamiherald.com/static/images/escenic-images/WOD.jpg",
         "id" : "r37",
         "comps" : [],
         "download" : {
            "receiveFirst" : 598,
            "len" : 71638,
            "dns" : 0,
            "dnsEnd" : 0,
            "receiveHeadersEnd" : 854,
            "sslEnd" : -1,
            "connectEnd" : 256,
            "connectStart" : 0,
            "id" : "download_21",
            "receivedTime" : "11512.069999997",
            "sslStart" : -1,
            "dnsStart" : 0,
            "receiveLast" : 10658.069999997,
            "s_time" : 8315.9949999972,
            "sendEnd" : 256,
            "sendStart" : 256,
            "type" : "image/jpeg"
         }
      },
      {
         "when_comp_start" : -1,
         "url" : "http://original.testbed.localhost/pagead2.googlesyndication.com/pagead/show_ads.js",
         "id" : "r39",
         "comps" : [],
         "download" : {
            "receiveFirst" : 852,
            "len" : 27555,
            "dns" : 0,
            "dnsEnd" : 0,
            "receiveHeadersEnd" : 920,
            "sslEnd" : -1,
            "connectEnd" : 68,
            "connectStart" : 0,
            "id" : "download_22",
            "receivedTime" : "9644.91300000373",
            "sslStart" : -1,
            "dnsStart" : 0,
            "receiveLast" : 8724.91300000373,
            "s_time" : 8636.42999999865,
            "sendEnd" : 68,
            "sendStart" : 68,
            "type" : "application/javascript"
         }
      },
      {
         "when_comp_start" : -1,
         "url" : "http://original.testbed.localhost/www.miamiherald.com/static/images/miamiherald/logo-sm.png",
         "id" : "r43",
         "comps" : [],
         "download" : {
            "receiveFirst" : 104,
            "len" : 3263,
            "dns" : 0,
            "dnsEnd" : -1,
            "receiveHeadersEnd" : 109,
            "sslEnd" : -1,
            "connectEnd" : 5,
            "connectStart" : 0,
            "id" : "download_23",
            "receivedTime" : "11675.2479999996",
            "sslStart" : -1,
            "dnsStart" : -1,
            "receiveLast" : 11566.2479999996,
            "s_time" : 10731.1100000006,
            "sendEnd" : 5,
            "sendStart" : 5,
            "type" : "image/png"
         }
      },
      {
         "when_comp_start" : -1,
         "url" : "http://original.testbed.localhost/www.miamiherald.com/static/js/wf-site.js%3FsVer=1.0.64-1e691c6",
         "id" : "r49",
         "comps" : [
            {
               "s_time" : 14775.6510000036,
               "time" : 169.829999998901,
               "type" : 1,
               "id" : "comp_461",
               "e_time" : 14945.4810000025
            }
         ],
         "download" : {
            "receiveFirst" : 13,
            "len" : 130541,
            "dns" : 0,
            "dnsEnd" : -1,
            "receiveHeadersEnd" : 35,
            "sslEnd" : -1,
            "connectEnd" : 21,
            "connectStart" : 0,
            "id" : "download_24",
            "receivedTime" : "14768.6929999982",
            "sslStart" : -1,
            "dnsStart" : -1,
            "receiveLast" : 14733.6929999982,
            "s_time" : 12434.586000003,
            "sendEnd" : 22,
            "sendStart" : 21,
            "type" : "text/plain"
         }
      },
      {
         "when_comp_start" : -1,
         "url" : "http://original.testbed.localhost/media.miamiherald.com/mistats/products/escenic_s_code.js",
         "id" : "r51",
         "comps" : [
            {
               "s_time" : 14947.3730000027,
               "time" : 33.233999995,
               "type" : 1,
               "id" : "comp_463",
               "e_time" : 14980.6069999977
            }
         ],
         "download" : {
            "receiveFirst" : 112,
            "len" : 41812,
            "dns" : 0,
            "dnsEnd" : -1,
            "receiveHeadersEnd" : 135,
            "sslEnd" : -1,
            "connectEnd" : 23,
            "connectStart" : 0,
            "id" : "download_25",
            "receivedTime" : "12706.253999997",
            "sslStart" : -1,
            "dnsStart" : -1,
            "receiveLast" : 12571.253999997,
            "s_time" : 12435.7149999996,
            "sendEnd" : 23,
            "sendStart" : 23,
            "type" : "application/javascript"
         }
      },
      {
         "when_comp_start" : -1,
         "url" : "http://original.testbed.localhost/launch.newsinc.com/js/embed.js",
         "id" : "r50",
         "comps" : [
            {
               "s_time" : 15330.826999998,
               "time" : 160.7660000008,
               "type" : 3,
               "id" : "comp_471",
               "e_time" : 15491.5929999988
            }
         ],
         "download" : {
            "receiveFirst" : 257,
            "len" : 198292,
            "dns" : 0,
            "dnsEnd" : -1,
            "receiveHeadersEnd" : 279,
            "sslEnd" : -1,
            "connectEnd" : 22,
            "connectStart" : 0,
            "id" : "download_26",
            "receivedTime" : "14016.770000002",
            "sslStart" : -1,
            "dnsStart" : -1,
            "receiveLast" : 13737.770000002,
            "s_time" : 12435.2270000018,
            "sendEnd" : 22,
            "sendStart" : 22,
            "type" : "application/javascript"
         }
      },
      {
         "when_comp_start" : -1,
         "url" : "http://original.testbed.localhost/media.miamiherald.com/mistats/products/escenic.js",
         "id" : "r52",
         "comps" : [
            {
               "s_time" : 14981.6140000039,
               "time" : 59.2039999974004,
               "type" : 1,
               "id" : "comp_466",
               "e_time" : 15040.8180000013
            }
         ],
         "download" : {
            "receiveFirst" : 414,
            "len" : 42554,
            "dns" : 0,
            "dnsEnd" : -1,
            "receiveHeadersEnd" : 436,
            "sslEnd" : -1,
            "connectEnd" : 22,
            "connectStart" : 0,
            "id" : "download_27",
            "receivedTime" : "12942.0020000034",
            "sslStart" : -1,
            "dnsStart" : -1,
            "receiveLast" : 12506.0020000034,
            "s_time" : 12436.2039999978,
            "sendEnd" : 22,
            "sendStart" : 22,
            "type" : "application/javascript"
         }
      },
      {
         "when_comp_start" : -1,
         "url" : "http://original.testbed.localhost/media.miamiherald.com/mistats/finalizestats.js",
         "id" : "r53",
         "comps" : [],
         "download" : {
            "receiveFirst" : 493,
            "len" : 49737,
            "dns" : 0,
            "dnsEnd" : -1,
            "receiveHeadersEnd" : 510,
            "sslEnd" : -1,
            "connectEnd" : 17,
            "connectStart" : 0,
            "id" : "download_28",
            "receivedTime" : "13061.6309999969",
            "sslStart" : -1,
            "dnsStart" : -1,
            "receiveLast" : 12551.6309999969,
            "s_time" : 12436.9060000026,
            "sendEnd" : 17,
            "sendStart" : 17,
            "type" : "application/javascript"
         }
      },
      {
         "when_comp_start" : -1,
         "url" : "http://original.testbed.localhost/tags.mdotlabs.com/tracking.php%3FsiteID=e8AJ",
         "id" : "r54",
         "comps" : [
            {
               "s_time" : 16820.2979999987,
               "time" : 123.444000004401,
               "type" : null,
               "id" : "comp_490",
               "e_time" : 16943.7420000031
            }
         ],
         "download" : {
            "receiveFirst" : 605,
            "len" : 37703,
            "dns" : 0,
            "dnsEnd" : -1,
            "receiveHeadersEnd" : 623,
            "sslEnd" : -1,
            "connectEnd" : 18,
            "connectStart" : 0,
            "id" : "download_29",
            "receivedTime" : "13824.142999998",
            "sslStart" : -1,
            "dnsStart" : -1,
            "receiveLast" : 13201.142999998,
            "s_time" : 12437.3629999973,
            "sendEnd" : 18,
            "sendStart" : 18,
            "type" : "text/plain"
         }
      },
      {
         "when_comp_start" : -1,
         "url" : "http://original.testbed.localhost/www.miamiherald.com/static/js/mi-scripts/safeurl.js%3FsVer=1.0.64-1e691c6",
         "id" : "r55",
         "comps" : [],
         "download" : {
            "receiveFirst" : 9,
            "len" : 1553,
            "dns" : 0,
            "dnsEnd" : -1,
            "receiveHeadersEnd" : 13,
            "sslEnd" : -1,
            "connectEnd" : 4,
            "connectStart" : 0,
            "id" : "download_30",
            "receivedTime" : "15492.6919999998",
            "sslStart" : -1,
            "dnsStart" : -1,
            "receiveLast" : 15479.6919999998,
            "s_time" : 15000.4730000001,
            "sendEnd" : 4,
            "sendStart" : 4,
            "type" : "text/plain"
         }
      }
   ],
   "deps" : [
      {
         "a2" : "r1_c2",
         "time" : -1,
         "id" : "dep1",
         "a1" : "comp_0"
      },
      {
         "a2" : "r1_c3",
         "time" : -1,
         "id" : "dep2",
         "a1" : "comp_2"
      },
      {
         "a2" : "r1_c4",
         "time" : -1,
         "id" : "dep3",
         "a1" : "comp_9"
      },
      {
         "a2" : "r1_c5",
         "time" : -1,
         "id" : "dep4",
         "a1" : "comp_11"
      },
      {
         "a2" : "r1_c6",
         "time" : -1,
         "id" : "dep5",
         "a1" : "comp_13"
      },
      {
         "a2" : "r1_c7",
         "time" : -1,
         "id" : "dep6",
         "a1" : "comp_18"
      },
      {
         "a2" : "r1_c8",
         "time" : -1,
         "id" : "dep7",
         "a1" : "comp_20"
      },
      {
         "a2" : "r1_c9",
         "time" : -1,
         "id" : "dep8",
         "a1" : "comp_24"
      },
      {
         "a2" : "r1_c10",
         "time" : -1,
         "id" : "dep9",
         "a1" : "comp_30"
      },
      {
         "a2" : "r1_c11",
         "time" : -1,
         "id" : "dep10",
         "a1" : "comp_206"
      },
      {
         "a2" : "r1_c12",
         "time" : -1,
         "id" : "dep11",
         "a1" : "comp_219"
      },
      {
         "a2" : "r1_c13",
         "time" : -1,
         "id" : "dep12",
         "a1" : "comp_227"
      },
      {
         "a2" : "r1_c14",
         "time" : -1,
         "id" : "dep13",
         "a1" : "comp_242"
      },
      {
         "a2" : "r1_c15",
         "time" : -1,
         "id" : "dep14",
         "a1" : "comp_432"
      },
      {
         "a2" : "r1_c16",
         "time" : -1,
         "id" : "dep15",
         "a1" : "comp_461"
      },
      {
         "a2" : "r1_c17",
         "time" : -1,
         "id" : "dep16",
         "a1" : "comp_463"
      },
      {
         "a2" : "r1_c18",
         "time" : -1,
         "id" : "dep17",
         "a1" : "comp_466"
      },
      {
         "a2" : "comp_11",
         "time" : -1,
         "id" : "dep18",
         "a1" : "comp_9"
      },
      {
         "a2" : "comp_13",
         "time" : -1,
         "id" : "dep19",
         "a1" : "comp_11"
      },
      {
         "a2" : "comp_20",
         "time" : -1,
         "id" : "dep20",
         "a1" : "comp_18"
      },
      {
         "a2" : "comp_227",
         "time" : -1,
         "id" : "dep21",
         "a1" : "comp_219"
      },
      {
         "a2" : "comp_463",
         "time" : -1,
         "id" : "dep22",
         "a1" : "comp_461"
      },
      {
         "a2" : "comp_466",
         "time" : -1,
         "id" : "dep23",
         "a1" : "comp_463"
      },
      {
         "a2" : "download_30",
         "time" : -1,
         "id" : "dep24",
         "a1" : "r1_c17"
      },
      {
         "a2" : "download_29",
         "time" : -1,
         "id" : "dep25",
         "a1" : "r1_c15"
      },
      {
         "a2" : "download_29",
         "time" : 575.896999995201,
         "id" : "dep26",
         "a1" : "r1_c15"
      },
      {
         "a2" : "download_28",
         "time" : 575.440000000501,
         "id" : "dep27",
         "a1" : "r1_c15"
      },
      {
         "a2" : "download_28",
         "time" : 575.440000000501,
         "id" : "dep28",
         "a1" : "r1_c15"
      },
      {
         "a2" : "download_27",
         "time" : 574.737999995701,
         "id" : "dep29",
         "a1" : "r1_c15"
      },
      {
         "a2" : "download_27",
         "time" : 574.737999995701,
         "id" : "dep30",
         "a1" : "r1_c15"
      },
      {
         "a2" : "download_26",
         "time" : 573.7609999997,
         "id" : "dep31",
         "a1" : "r1_c15"
      },
      {
         "a2" : "download_26",
         "time" : 573.7609999997,
         "id" : "dep32",
         "a1" : "r1_c15"
      },
      {
         "a2" : "download_25",
         "time" : 574.248999997501,
         "id" : "dep33",
         "a1" : "r1_c15"
      },
      {
         "a2" : "download_25",
         "time" : 574.248999997501,
         "id" : "dep34",
         "a1" : "r1_c15"
      },
      {
         "a2" : "download_24",
         "time" : 573.120000000901,
         "id" : "dep35",
         "a1" : "r1_c15"
      },
      {
         "a2" : "download_23",
         "time" : -1,
         "id" : "dep36",
         "a1" : "r1_c13"
      },
      {
         "a2" : "download_23",
         "time" : 323.257000003601,
         "id" : "dep37",
         "a1" : "r1_c13"
      },
      {
         "a2" : "download_22",
         "time" : -1,
         "id" : "dep38",
         "a1" : "r1_c11"
      },
      {
         "a2" : "download_22",
         "time" : 89.8749999978409,
         "id" : "dep39",
         "a1" : "r1_c11"
      },
      {
         "a2" : "download_21",
         "time" : -1,
         "id" : "dep40",
         "a1" : "r1_c10"
      },
      {
         "a2" : "download_21",
         "time" : 1192.35199999821,
         "id" : "dep41",
         "a1" : "r1_c10"
      },
      {
         "a2" : "download_20",
         "time" : 1184.18899999961,
         "id" : "dep42",
         "a1" : "r1_c10"
      },
      {
         "a2" : "download_19",
         "time" : 1146.14799999981,
         "id" : "dep43",
         "a1" : "r1_c10"
      },
      {
         "a2" : "download_19",
         "time" : 1146.14799999981,
         "id" : "dep44",
         "a1" : "r1_c10"
      },
      {
         "a2" : "download_18",
         "time" : 1143.86000000377,
         "id" : "dep45",
         "a1" : "r1_c10"
      },
      {
         "a2" : "download_18",
         "time" : 1143.86000000377,
         "id" : "dep46",
         "a1" : "r1_c10"
      },
      {
         "a2" : "download_17",
         "time" : 1144.48500000435,
         "id" : "dep47",
         "a1" : "r1_c10"
      },
      {
         "a2" : "download_16",
         "time" : 1139.70900000277,
         "id" : "dep48",
         "a1" : "r1_c10"
      },
      {
         "a2" : "download_15",
         "time" : 262.359000000291,
         "id" : "dep49",
         "a1" : "r1_c10"
      },
      {
         "a2" : "download_14",
         "time" : 277.816000001621,
         "id" : "dep50",
         "a1" : "r1_c10"
      },
      {
         "a2" : "download_13",
         "time" : 276.82500000083,
         "id" : "dep51",
         "a1" : "r1_c10"
      },
      {
         "a2" : "download_12",
         "time" : 257.216999998491,
         "id" : "dep52",
         "a1" : "r1_c10"
      },
      {
         "a2" : "download_11",
         "time" : -1,
         "id" : "dep53",
         "a1" : "r1_c9"
      },
      {
         "a2" : "download_10",
         "time" : -1,
         "id" : "dep54",
         "a1" : "r1_c8"
      },
      {
         "a2" : "download_10",
         "time" : 52.7030000012001,
         "id" : "dep55",
         "a1" : "r1_c8"
      },
      {
         "a2" : "download_9",
         "time" : 23.6809999987599,
         "id" : "dep56",
         "a1" : "r1_c8"
      },
      {
         "a2" : "download_9",
         "time" : 23.6809999987599,
         "id" : "dep57",
         "a1" : "r1_c8"
      },
      {
         "a2" : "download_8",
         "time" : -1,
         "id" : "dep58",
         "a1" : "r1_c3"
      },
      {
         "a2" : "download_8",
         "time" : 12.75699999678,
         "id" : "dep59",
         "a1" : "r1_c3"
      },
      {
         "a2" : "download_7",
         "time" : -1,
         "id" : "dep60",
         "a1" : "r1_c2"
      },
      {
         "a2" : "download_7",
         "time" : 3.87600000249202,
         "id" : "dep61",
         "a1" : "r1_c2"
      },
      {
         "a2" : "download_6",
         "time" : -1,
         "id" : "dep62",
         "a1" : "r1_c1"
      },
      {
         "a2" : "download_6",
         "time" : 5.064999997558,
         "id" : "dep63",
         "a1" : "r1_c1"
      },
      {
         "a2" : "download_5",
         "time" : 2.074999996694,
         "id" : "dep64",
         "a1" : "r1_c1"
      },
      {
         "a2" : "download_5",
         "time" : 2.074999996694,
         "id" : "dep65",
         "a1" : "r1_c1"
      },
      {
         "a2" : "download_4",
         "time" : 4.424999999173,
         "id" : "dep66",
         "a1" : "r1_c1"
      },
      {
         "a2" : "download_4",
         "time" : 4.424999999173,
         "id" : "dep67",
         "a1" : "r1_c1"
      },
      {
         "a2" : "download_3",
         "time" : 3.752999997232,
         "id" : "dep68",
         "a1" : "r1_c1"
      },
      {
         "a2" : "download_3",
         "time" : 3.752999997232,
         "id" : "dep69",
         "a1" : "r1_c1"
      },
      {
         "a2" : "download_2",
         "time" : 3.20400000055101,
         "id" : "dep70",
         "a1" : "r1_c1"
      },
      {
         "a2" : "download_2",
         "time" : 3.20400000055101,
         "id" : "dep71",
         "a1" : "r1_c1"
      },
      {
         "a2" : "download_1",
         "time" : 2.119999997376,
         "id" : "dep72",
         "a1" : "r1_c1"
      }
   ]
}
