{
   "n_download_no_trigger" : 1,
   "start_activity" : "download_0",
   "name" : "original.testbed.localhost_www.cnet.com_",
   "load_activity" : -1,
   "objs" : [
      {
         "when_comp_start" : 1,
         "url" : "http://original.testbed.localhost/www.cnet.com/",
         "id" : "r1",
         "comps" : [
            {
               "s_time" : 181.532999999035,
               "time" : 757.842999999412,
               "id" : "r1_c1",
               "type" : "evalhtml",
               "e_time" : 939.375999998447
            },
            {
               "s_time" : 1134.68899999862,
               "time" : -23483751.694,
               "id" : "r1_c2",
               "type" : "evalhtml",
               "e_time" : -23482617.005
            },
            {
               "s_time" : 1215.77400000024,
               "time" : 1266.83000000048,
               "id" : "r1_c3",
               "type" : "evalhtml",
               "e_time" : 2482.60400000072
            },
            {
               "s_time" : 2868.1179999985,
               "time" : 7933.3790000019,
               "type" : "evalhtml",
               "id" : "r1_c4",
               "e_time" : 10801.4970000004
            }
         ],
         "download" : {
            "receiveFirst" : 13,
            "len" : 257604,
            "dns" : 0,
            "dnsEnd" : -1,
            "receiveHeadersEnd" : 56,
            "sslEnd" : -1,
            "connectEnd" : 43,
            "connectStart" : 0,
            "id" : "download_0",
            "receivedTime" : "473.250999999436",
            "sslStart" : -1,
            "dnsStart" : -1,
            "receiveLast" : 417.250999999436,
            "s_time" : 0,
            "sendEnd" : 43,
            "sendStart" : 43,
            "type" : "text/html"
         }
      },
      {
         "when_comp_start" : -1,
         "url" : "http://original.testbed.localhost/cnet2.cbsistatic.com/fly/css/core/main.desktop-94dd7563a7-rev.css",
         "id" : "r2",
         "comps" : [
            {
               "s_time" : 482.34500000035,
               "time" : 76.049999999669,
               "type" : 4,
               "id" : "comp_1",
               "e_time" : 558.395000000019
            }
         ],
         "download" : {
            "receiveFirst" : 89,
            "len" : 99063,
            "dns" : 0,
            "dnsEnd" : -1,
            "receiveHeadersEnd" : 103,
            "sslEnd" : -1,
            "connectEnd" : 13,
            "connectStart" : 0,
            "id" : "download_1",
            "receivedTime" : "481.306999998196",
            "sslStart" : -1,
            "dnsStart" : -1,
            "receiveLast" : 378.306999998196,
            "s_time" : 232.742000000144,
            "sendEnd" : 14,
            "sendStart" : 13,
            "type" : "text/css"
         }
      },
      {
         "when_comp_start" : -1,
         "url" : "http://original.testbed.localhost/cnet4.cbsistatic.com/fly/css/feature/default/default.desktop-c3f0fbf8de-rev.css",
         "id" : "r3",
         "comps" : [
            {
               "s_time" : 931.563999998616,
               "time" : 459.015000000364,
               "type" : 4,
               "id" : "comp_3",
               "e_time" : 1390.57899999898
            }
         ],
         "download" : {
            "receiveFirst" : 151,
            "len" : 322139,
            "dns" : 0,
            "dnsEnd" : 14,
            "receiveHeadersEnd" : 249,
            "sslEnd" : -1,
            "connectEnd" : 97,
            "connectStart" : 0,
            "id" : "download_2",
            "receivedTime" : "930.037999998603",
            "sslStart" : -1,
            "dnsStart" : 14,
            "receiveLast" : 681.037999998603,
            "s_time" : 234.694999999192,
            "sendEnd" : 98,
            "sendStart" : 97,
            "type" : "text/css"
         }
      },
      {
         "when_comp_start" : -1,
         "url" : "http://original.testbed.localhost/cnet3.cbsistatic.com/fly/bundles/cnetcore/js/frontdoor_edition_redirect.js",
         "id" : "r4",
         "comps" : [
            {
               "s_time" : 1132.03399999838,
               "time" : 2.65500000023985,
               "type" : 1,
               "id" : "comp_4",
               "e_time" : 1134.68899999862
            }
         ],
         "download" : {
            "receiveFirst" : 151,
            "len" : 1485,
            "dns" : 0,
            "dnsEnd" : 15,
            "receiveHeadersEnd" : 369,
            "sslEnd" : -1,
            "connectEnd" : 218,
            "connectStart" : 0,
            "id" : "download_3",
            "receivedTime" : "609.145999998873",
            "sslStart" : -1,
            "dnsStart" : 15,
            "receiveLast" : 240.145999998873,
            "s_time" : 236.555999999837,
            "sendEnd" : 218,
            "sendStart" : 218,
            "type" : "application/javascript"
         }
      },
      {
         "when_comp_start" : -1,
         "url" : "http://original.testbed.localhost/cnet4.cbsistatic.com/fly/bundles/cnetjs/js/libs/boomr.js",
         "id" : "r5",
         "comps" : [
            {
               "s_time" : 1140.18199999919,
               "time" : 75.5920000010499,
               "type" : 1,
               "id" : "comp_6",
               "e_time" : 1215.77400000024
            }
         ],
         "download" : {
            "receiveFirst" : 159,
            "len" : 7477,
            "dns" : 0,
            "dnsEnd" : 14,
            "receiveHeadersEnd" : 376,
            "sslEnd" : -1,
            "connectEnd" : 216,
            "connectStart" : 0,
            "id" : "download_4",
            "receivedTime" : "637.771000001521",
            "sslStart" : -1,
            "dnsStart" : 14,
            "receiveLast" : 261.771000001521,
            "s_time" : 238.539999998466,
            "sendEnd" : 217,
            "sendStart" : 216,
            "type" : "application/javascript"
         }
      },
      {
         "when_comp_start" : -1,
         "url" : "http://original.testbed.localhost/www.cnet.com/1746-fly/bundles/cnetcore/images/logos/cnet-redball-large.jpg",
         "id" : "r6",
         "comps" : [],
         "download" : {
            "receiveFirst" : 188,
            "len" : 19009,
            "dns" : 0,
            "dnsEnd" : 14,
            "receiveHeadersEnd" : 401,
            "sslEnd" : -1,
            "connectEnd" : 213,
            "connectStart" : 0,
            "id" : "download_5",
            "receivedTime" : "921.065999998973",
            "sslStart" : -1,
            "dnsStart" : 14,
            "receiveLast" : 520.065999998973,
            "s_time" : 243.072000001121,
            "sendEnd" : 213,
            "sendStart" : 213,
            "type" : "image/jpeg"
         }
      },
      {
         "when_comp_start" : -1,
         "url" : "http://original.testbed.localhost/cnet1.cbsistatic.com/hub/i/r/2015/09/11/d2889052-000f-46e3-b6d4-eeb1f393c453/thumbnail/747x420/1523a7f8c93ae08b1353d65c69127ae3/ios-9-iphone-06.jpg",
         "id" : "r7",
         "comps" : [],
         "download" : {
            "receiveFirst" : 37,
            "len" : 34903,
            "dns" : 0,
            "dnsEnd" : -1,
            "receiveHeadersEnd" : 60,
            "sslEnd" : -1,
            "connectEnd" : 23,
            "connectStart" : 0,
            "id" : "download_6",
            "receivedTime" : "2088.69899999991",
            "sslStart" : -1,
            "dnsStart" : -1,
            "receiveLast" : 2028.69899999991,
            "s_time" : 921.507999999449,
            "sendEnd" : 23,
            "sendStart" : 23,
            "type" : "image/jpeg"
         }
      },
      {
         "when_comp_start" : -1,
         "url" : "http://original.testbed.localhost/cnet1.cbsistatic.com/hub/i/r/2015/09/15/76f2f553-9531-4d43-bcb7-caa4a318a643/thumbnail/640x420/e52d0f3ed29efbcf903dfee032f05ab6/hondaproject24-35.jpg",
         "id" : "r8",
         "comps" : [],
         "download" : {
            "receiveFirst" : 116,
            "len" : 45770,
            "dns" : 0,
            "dnsEnd" : -1,
            "receiveHeadersEnd" : 144,
            "sslEnd" : -1,
            "connectEnd" : 28,
            "connectStart" : 0,
            "id" : "download_7",
            "receivedTime" : "2300.49099999815",
            "sslStart" : -1,
            "dnsStart" : -1,
            "receiveLast" : 2156.49099999815,
            "s_time" : 930.648000001383,
            "sendEnd" : 28,
            "sendStart" : 28,
            "type" : "image/jpeg"
         }
      },
      {
         "when_comp_start" : -1,
         "url" : "http://original.testbed.localhost/cnet3.cbsistatic.com/hub/i/r/2015/08/27/ba752cec-5734-4472-a387-72014b1bb93a/thumbnail/373x210/cdbb16cc5cde4ffe967660ec9e28face/42-74872026.jpg",
         "id" : "r9",
         "comps" : [],
         "download" : {
            "receiveFirst" : 238,
            "len" : 16937,
            "dns" : 0,
            "dnsEnd" : -1,
            "receiveHeadersEnd" : 267,
            "sslEnd" : -1,
            "connectEnd" : 29,
            "connectStart" : 0,
            "id" : "download_8",
            "receivedTime" : "2056.80800000118",
            "sslStart" : -1,
            "dnsStart" : -1,
            "receiveLast" : 1789.80800000118,
            "s_time" : 931.884000001446,
            "sendEnd" : 29,
            "sendStart" : 29,
            "type" : "image/jpeg"
         }
      },
      {
         "when_comp_start" : -1,
         "url" : "http://original.testbed.localhost/cnet2.cbsistatic.com/hub/i/r/2015/09/15/9f2b218d-5c5d-4ff6-a939-a3de411ddb9b/thumbnail/373x210/5f4a0b98392c9b8e97d00edfd76a09a5/sony-morpheus-playstation-vr.jpg",
         "id" : "r10",
         "comps" : [],
         "download" : {
            "receiveFirst" : 352,
            "len" : 15708,
            "dns" : 0,
            "dnsEnd" : -1,
            "receiveHeadersEnd" : 383,
            "sslEnd" : -1,
            "connectEnd" : 30,
            "connectStart" : 0,
            "id" : "download_9",
            "receivedTime" : "2057.69299999884",
            "sslStart" : -1,
            "dnsStart" : -1,
            "receiveLast" : 1674.69299999884,
            "s_time" : 933.500999999524,
            "sendEnd" : 31,
            "sendStart" : 30,
            "type" : "image/jpeg"
         }
      },
      {
         "when_comp_start" : -1,
         "url" : "http://original.testbed.localhost/cnet4.cbsistatic.com/hub/i/r/2015/09/08/b72fc913-5c65-4c67-9601-ad8a6719ec6b/thumbnail/570x321/3879eed4acb8141542a81008b930f4e3/river-verizons-go90-free-mobile-video-service-mixes-youtube-with-hulu.jpg",
         "id" : "r12",
         "comps" : [],
         "download" : {
            "receiveFirst" : 471,
            "len" : 39538,
            "dns" : 0,
            "dnsEnd" : -1,
            "receiveHeadersEnd" : 505,
            "sslEnd" : -1,
            "connectEnd" : 33,
            "connectStart" : 0,
            "id" : "download_10",
            "receivedTime" : "3360.18300000069",
            "sslStart" : -1,
            "dnsStart" : -1,
            "receiveLast" : 2855.18300000069,
            "s_time" : 935.516000001371,
            "sendEnd" : 34,
            "sendStart" : 33,
            "type" : "image/jpeg"
         }
      },
      {
         "when_comp_start" : 1,
         "url" : "http://original.testbed.localhost/www.cnet.com/index.html",
         "id" : "r11",
         "comps" : [],
         "download" : {
            "receiveFirst" : 592,
            "len" : 257604,
            "dns" : 0,
            "dnsEnd" : -1,
            "receiveHeadersEnd" : 624,
            "sslEnd" : -1,
            "connectEnd" : 32,
            "connectStart" : 0,
            "id" : "download_11",
            "receivedTime" : "4461.89800000138",
            "sslStart" : -1,
            "dnsStart" : -1,
            "receiveLast" : 3837.89800000138,
            "s_time" : 934.416000000056,
            "sendEnd" : 32,
            "sendStart" : 32,
            "type" : "text/html"
         }
      },
      {
         "when_comp_start" : -1,
         "url" : "http://original.testbed.localhost/cnet3.cbsistatic.com/fly/images/sprites/socialMenu/social-menu-2x/default/social-menu-sf9b68d118d.png",
         "id" : "r48",
         "comps" : [],
         "download" : {
            "receiveFirst" : 529,
            "len" : 2048,
            "dns" : 0,
            "dnsEnd" : -1,
            "receiveHeadersEnd" : 1050,
            "sslEnd" : -1,
            "connectEnd" : 521,
            "connectStart" : 0,
            "id" : "download_12",
            "receivedTime" : "2490.49300000115",
            "sslStart" : -1,
            "dnsStart" : -1,
            "receiveLast" : 1440.49300000115,
            "s_time" : 1413.0699999987,
            "sendEnd" : 521,
            "sendStart" : 521,
            "type" : "image/png"
         }
      },
      {
         "when_comp_start" : -1,
         "url" : "http://original.testbed.localhost/cnet1.cbsistatic.com/fly/1441144377-fly/bundles/cnetcss/images/core/logo-masthead@2x.png",
         "id" : "r49",
         "comps" : [],
         "download" : {
            "receiveFirst" : 495,
            "len" : 20993,
            "dns" : 0,
            "dnsEnd" : -1,
            "receiveHeadersEnd" : 639,
            "sslEnd" : -1,
            "connectEnd" : 144,
            "connectStart" : 0,
            "id" : "download_13",
            "receivedTime" : "3352.981",
            "sslStart" : -1,
            "dnsStart" : -1,
            "receiveLast" : 2713.981,
            "s_time" : 1909.20900000128,
            "sendEnd" : 144,
            "sendStart" : 144,
            "type" : "image/png"
         }
      },
      {
         "when_comp_start" : -1,
         "url" : "http://original.testbed.localhost/cnet2.cbsistatic.com/fly/js/libs/require-2.1.2.js",
         "id" : "r94",
         "comps" : [
            {
               "s_time" : 2789.8099999984,
               "time" : 78.3080000001,
               "type" : 1,
               "id" : "comp_45",
               "e_time" : 2868.1179999985
            }
         ],
         "download" : {
            "receiveFirst" : 435,
            "len" : 16248,
            "dns" : 0,
            "dnsEnd" : -1,
            "receiveHeadersEnd" : 693,
            "sslEnd" : -1,
            "connectEnd" : 256,
            "connectStart" : 0,
            "id" : "download_14",
            "receivedTime" : "2788.37500000009",
            "sslStart" : -1,
            "dnsStart" : -1,
            "receiveLast" : 2095.37500000009,
            "s_time" : 2045.27199999939,
            "sendEnd" : 258,
            "sendStart" : 256,
            "type" : "application/javascript"
         }
      },
      {
         "when_comp_start" : -1,
         "url" : "http://original.testbed.localhost/cnet2.cbsistatic.com/bundles/cnetcss/fonts/Proxima%20Nova/Regular.woff",
         "id" : "r37",
         "comps" : [],
         "download" : {
            "receiveFirst" : 901,
            "len" : 25972,
            "dns" : 0,
            "dnsEnd" : -1,
            "receiveHeadersEnd" : 982,
            "sslEnd" : -1,
            "connectEnd" : 81,
            "connectStart" : 0,
            "id" : "download_15",
            "receivedTime" : "3355.27000000002",
            "sslStart" : -1,
            "dnsStart" : -1,
            "receiveLast" : 2373.27000000002,
            "s_time" : 1829.54299999983,
            "sendEnd" : 81,
            "sendStart" : 81,
            "type" : "application/octet-stream"
         }
      },
      {
         "when_comp_start" : -1,
         "url" : "http://original.testbed.localhost/cnet3.cbsistatic.com/fly/images/sprites/main-s4d0c66239a.png",
         "id" : "r50",
         "comps" : [],
         "download" : {
            "receiveFirst" : 586,
            "len" : 36554,
            "dns" : 0,
            "dnsEnd" : -1,
            "receiveHeadersEnd" : 1143,
            "sslEnd" : -1,
            "connectEnd" : 557,
            "connectStart" : 0,
            "id" : "download_16",
            "receivedTime" : "4179.55000000075",
            "sslStart" : -1,
            "dnsStart" : -1,
            "receiveLast" : 3036.55000000075,
            "s_time" : 1932.35600000116,
            "sendEnd" : 557,
            "sendStart" : 557,
            "type" : "image/png"
         }
      },
      {
         "when_comp_start" : -1,
         "url" : "http://original.testbed.localhost/cnet2.cbsistatic.com/fly/images/sprites/socialAuthentication/sa2x-s138ea39e8c.png",
         "id" : "r51",
         "comps" : [],
         "download" : {
            "receiveFirst" : 321,
            "len" : 1437,
            "dns" : 0,
            "dnsEnd" : -1,
            "receiveHeadersEnd" : 1066,
            "sslEnd" : -1,
            "connectEnd" : 745,
            "connectStart" : 0,
            "id" : "download_17",
            "receivedTime" : "3354.6290000013",
            "sslStart" : -1,
            "dnsStart" : -1,
            "receiveLast" : 2288.6290000013,
            "s_time" : 2042.7090000012,
            "sendEnd" : 745,
            "sendStart" : 745,
            "type" : "image/png"
         }
      },
      {
         "when_comp_start" : -1,
         "url" : "http://original.testbed.localhost/cnet4.cbsistatic.com/fly/images/sprites/playOverlay/play2x-s3153fa93d6.png",
         "id" : "r52",
         "comps" : [],
         "download" : {
            "receiveFirst" : 201,
            "len" : 46060,
            "dns" : 0,
            "dnsEnd" : -1,
            "receiveHeadersEnd" : 990,
            "sslEnd" : -1,
            "connectEnd" : 789,
            "connectStart" : 0,
            "id" : "download_18",
            "receivedTime" : "4388.56400000077",
            "sslStart" : -1,
            "dnsStart" : -1,
            "receiveLast" : 3398.56400000077,
            "s_time" : 2301.13100000017,
            "sendEnd" : 789,
            "sendStart" : 789,
            "type" : "image/png"
         }
      },
      {
         "when_comp_start" : -1,
         "url" : "http://original.testbed.localhost/cnet4.cbsistatic.com/fly/images/sprites/arrows-sfb3cc8e09f.png",
         "id" : "r53",
         "comps" : [],
         "download" : {
            "receiveFirst" : 329,
            "len" : 430,
            "dns" : 0,
            "dnsEnd" : -1,
            "receiveHeadersEnd" : 967,
            "sslEnd" : -1,
            "connectEnd" : 638,
            "connectStart" : 0,
            "id" : "download_19",
            "receivedTime" : "4157.02800000145",
            "sslStart" : -1,
            "dnsStart" : -1,
            "receiveLast" : 3190.02800000145,
            "s_time" : 2482.60400000072,
            "sendEnd" : 638,
            "sendStart" : 638,
            "type" : "image/png"
         }
      },
      {
         "when_comp_start" : -1,
         "url" : "http://original.testbed.localhost/cnet1.cbsistatic.com/fly/images/sprites/buyingGuide/icon-2x/default/icon-s99c11abb13.png",
         "id" : "r54",
         "comps" : [],
         "download" : {
            "receiveFirst" : 330,
            "len" : 94399,
            "dns" : 0,
            "dnsEnd" : -1,
            "receiveHeadersEnd" : 378,
            "sslEnd" : -1,
            "connectEnd" : 48,
            "connectStart" : 0,
            "id" : "download_20",
            "receivedTime" : "8018.32500000091",
            "sslStart" : -1,
            "dnsStart" : -1,
            "receiveLast" : 7640.32500000091,
            "s_time" : 3088.85100000043,
            "sendEnd" : 48,
            "sendStart" : 48,
            "type" : "image/png"
         }
      },
      {
         "when_comp_start" : -1,
         "url" : "http://original.testbed.localhost/cnet2.cbsistatic.com/fly/1441144385-fly/bundles/cnetcss/images/main/clock-2x.png",
         "id" : "r55",
         "comps" : [],
         "download" : {
            "receiveFirst" : 403,
            "len" : 1491,
            "dns" : 0,
            "dnsEnd" : -1,
            "receiveHeadersEnd" : 433,
            "sslEnd" : -1,
            "connectEnd" : 30,
            "connectStart" : 0,
            "id" : "download_21",
            "receivedTime" : "4171.37100000036",
            "sslStart" : -1,
            "dnsStart" : -1,
            "receiveLast" : 3738.37100000036,
            "s_time" : 3120.08599999899,
            "sendEnd" : 30,
            "sendStart" : 30,
            "type" : "image/png"
         }
      },
      {
         "when_comp_start" : -1,
         "url" : "http://original.testbed.localhost/cnet4.cbsistatic.com/fly/images/sprites/socialLarge/icon-2x-s56ac602e22.png",
         "id" : "r56",
         "comps" : [],
         "download" : {
            "receiveFirst" : 338,
            "len" : 8065,
            "dns" : 0,
            "dnsEnd" : -1,
            "receiveHeadersEnd" : 643,
            "sslEnd" : -1,
            "connectEnd" : 305,
            "connectStart" : 0,
            "id" : "download_22",
            "receivedTime" : "4208.66300000125",
            "sslStart" : -1,
            "dnsStart" : -1,
            "receiveLast" : 3565.66300000125,
            "s_time" : 3149.64200000031,
            "sendEnd" : 305,
            "sendStart" : 305,
            "type" : "image/png"
         }
      },
      {
         "when_comp_start" : -1,
         "url" : "http://original.testbed.localhost/cnet1.cbsistatic.com/fly/images/sprites/socialSmall/icon-small-2x-s25354ff284.png",
         "id" : "r57",
         "comps" : [],
         "download" : {
            "receiveFirst" : 429,
            "len" : 9724,
            "dns" : 0,
            "dnsEnd" : -1,
            "receiveHeadersEnd" : 543,
            "sslEnd" : -1,
            "connectEnd" : 113,
            "connectStart" : 0,
            "id" : "download_23",
            "receivedTime" : "4273.97099999871",
            "sslStart" : -1,
            "dnsStart" : -1,
            "receiveLast" : 3730.97099999871,
            "s_time" : 3452.65099999961,
            "sendEnd" : 114,
            "sendStart" : 113,
            "type" : "image/png"
         }
      },
      {
         "when_comp_start" : -1,
         "url" : "http://original.testbed.localhost/cnet2.cbsistatic.com/hub/i/r/2015/09/09/0f0ba9b2-d16c-480a-b6c8-4fde0c764416/thumbnail/270x203/36e379fa5f507630b9e08cbeae62772b/apple-event-sept9-2015-iphone6s-2872.jpg",
         "id" : "r58",
         "comps" : [],
         "download" : {
            "receiveFirst" : 462,
            "len" : 16126,
            "dns" : 0,
            "dnsEnd" : -1,
            "receiveHeadersEnd" : 516,
            "sslEnd" : -1,
            "connectEnd" : 54,
            "connectStart" : 0,
            "id" : "download_24",
            "receivedTime" : "4385.75700000001",
            "sslStart" : -1,
            "dnsStart" : -1,
            "receiveLast" : 3869.75700000001,
            "s_time" : 3563.42999999833,
            "sendEnd" : 54,
            "sendStart" : 54,
            "type" : "image/jpeg"
         }
      },
      {
         "when_comp_start" : -1,
         "url" : "http://original.testbed.localhost/cnet2.cbsistatic.com/hub/i/r/2015/05/01/61fa15ab-9fd8-472a-b9c4-30ede2c61439/thumbnail/270x203/f39a61382d13928f11f3f25ed03c94d0/river-chronometer-113.jpg",
         "id" : "r59",
         "comps" : [],
         "download" : {
            "receiveFirst" : 410,
            "len" : 25897,
            "dns" : 0,
            "dnsEnd" : -1,
            "receiveHeadersEnd" : 648,
            "sslEnd" : -1,
            "connectEnd" : 238,
            "connectStart" : 0,
            "id" : "download_25",
            "receivedTime" : "5365.09600000136",
            "sslStart" : -1,
            "dnsStart" : -1,
            "receiveLast" : 4717.09600000136,
            "s_time" : 3615.08099999992,
            "sendEnd" : 238,
            "sendStart" : 238,
            "type" : "image/jpeg"
         }
      },
      {
         "when_comp_start" : -1,
         "url" : "http://original.testbed.localhost/cnet2.cbsistatic.com/bundles/cnetcss/fonts/Proxima%20Nova/Semibold.woff",
         "id" : "r34",
         "comps" : [],
         "download" : {
            "receiveFirst" : 312,
            "len" : 26180,
            "dns" : 0,
            "dnsEnd" : -1,
            "receiveHeadersEnd" : 391,
            "sslEnd" : -1,
            "connectEnd" : 79,
            "connectStart" : 0,
            "id" : "download_26",
            "receivedTime" : "5729.71999999936",
            "sslStart" : -1,
            "dnsStart" : -1,
            "receiveLast" : 5338.71999999936,
            "s_time" : 4132.53800000166,
            "sendEnd" : 79,
            "sendStart" : 79,
            "type" : "application/octet-stream"
         }
      },
      {
         "when_comp_start" : -1,
         "url" : "http://original.testbed.localhost/cnet2.cbsistatic.com/bundles/cnetcss/fonts/Proxima%20Nova/Bold.woff",
         "id" : "r31",
         "comps" : [],
         "download" : {
            "receiveFirst" : 429,
            "len" : 26140,
            "dns" : 0,
            "dnsEnd" : -1,
            "receiveHeadersEnd" : 543,
            "sslEnd" : -1,
            "connectEnd" : 114,
            "connectStart" : 0,
            "id" : "download_27",
            "receivedTime" : "4898.0249999986",
            "sslStart" : -1,
            "dnsStart" : -1,
            "receiveLast" : 4355.0249999986,
            "s_time" : 4137.96899999943,
            "sendEnd" : 114,
            "sendStart" : 114,
            "type" : "application/octet-stream"
         }
      },
      {
         "when_comp_start" : -1,
         "url" : "http://original.testbed.localhost/cnet2.cbsistatic.com/bundles/cnetcss/fonts/Jubilat/Medium.woff",
         "id" : "r19",
         "comps" : [],
         "download" : {
            "receiveFirst" : 586,
            "len" : 24936,
            "dns" : 0,
            "dnsEnd" : -1,
            "receiveHeadersEnd" : 908,
            "sslEnd" : -1,
            "connectEnd" : 322,
            "connectStart" : 0,
            "id" : "download_28",
            "receivedTime" : "6463.30200000011",
            "sslStart" : -1,
            "dnsStart" : -1,
            "receiveLast" : 5555.30200000011,
            "s_time" : 4138.62499999959,
            "sendEnd" : 322,
            "sendStart" : 322,
            "type" : "application/octet-stream"
         }
      },
      {
         "when_comp_start" : -1,
         "url" : "http://original.testbed.localhost/cnet2.cbsistatic.com/bundles/cnetcss/fonts/Jubilat/Regular.woff",
         "id" : "r22",
         "comps" : [],
         "download" : {
            "receiveFirst" : 406,
            "len" : 23552,
            "dns" : 0,
            "dnsEnd" : -1,
            "receiveHeadersEnd" : 1166,
            "sslEnd" : -1,
            "connectEnd" : 760,
            "connectStart" : 0,
            "id" : "download_29",
            "receivedTime" : "6438.79599999855",
            "sslStart" : -1,
            "dnsStart" : -1,
            "receiveLast" : 5272.79599999855,
            "s_time" : 4138.99200000014,
            "sendEnd" : 760,
            "sendStart" : 760,
            "type" : "application/octet-stream"
         }
      },
      {
         "when_comp_start" : -1,
         "url" : "http://original.testbed.localhost/cnet2.cbsistatic.com/bundles/cnetcss/fonts/Proxima%20Nova/Light.woff",
         "id" : "r40",
         "comps" : [],
         "download" : {
            "receiveFirst" : 542,
            "len" : 25780,
            "dns" : 0,
            "dnsEnd" : -1,
            "receiveHeadersEnd" : 1376,
            "sslEnd" : -1,
            "connectEnd" : 834,
            "connectStart" : 0,
            "id" : "download_30",
            "receivedTime" : "7222.67099999954",
            "sslStart" : -1,
            "dnsStart" : -1,
            "receiveLast" : 5846.67099999954,
            "s_time" : 4139.48000000164,
            "sendEnd" : 834,
            "sendStart" : 834,
            "type" : "application/octet-stream"
         }
      },
      {
         "when_comp_start" : -1,
         "url" : "http://original.testbed.localhost/cnet1.cbsistatic.com/hub/i/r/2015/09/11/60a44ae5-25e4-4211-b55e-1620d33651b4/thumbnail/570x321/e8e74e7f746898f0a8d7cea1ba053813/ue-boom-2-08.jpg",
         "id" : "r60",
         "comps" : [],
         "download" : {
            "receiveFirst" : 1702,
            "len" : 31228,
            "dns" : 0,
            "dnsEnd" : -1,
            "receiveHeadersEnd" : 1919,
            "sslEnd" : -1,
            "connectEnd" : 217,
            "connectStart" : 0,
            "id" : "download_31",
            "receivedTime" : "8015.18199999919",
            "sslStart" : -1,
            "dnsStart" : -1,
            "receiveLast" : 6096.18199999919,
            "s_time" : 3851.97400000106,
            "sendEnd" : 217,
            "sendStart" : 217,
            "type" : "image/jpeg"
         }
      },
      {
         "when_comp_start" : -1,
         "url" : "http://original.testbed.localhost/cnet1.cbsistatic.com/hub/i/r/2015/09/15/22a825d7-3533-44f6-89ff-c74b74677c8b/thumbnail/270x203/e978de76b4a11361252588870f30c065/05-1.jpg",
         "id" : "r61",
         "comps" : [],
         "download" : {
            "receiveFirst" : 672,
            "len" : 12694,
            "dns" : 0,
            "dnsEnd" : -1,
            "receiveHeadersEnd" : 1906,
            "sslEnd" : -1,
            "connectEnd" : 1234,
            "connectStart" : 0,
            "id" : "download_32",
            "receivedTime" : "7128.03599999825",
            "sslStart" : -1,
            "dnsStart" : -1,
            "receiveLast" : 5222.03599999825,
            "s_time" : 4066.66499999847,
            "sendEnd" : 1234,
            "sendStart" : 1234,
            "type" : "image/jpeg"
         }
      },
      {
         "when_comp_start" : -1,
         "url" : "http://original.testbed.localhost/cnet1.cbsistatic.com/hub/i/r/2015/09/14/48112de0-fabf-44b9-be1c-8ef423e8cbc3/thumbnail/570x321/057a56d3572617aa5398a760eef7da47/oncarscapacitors.jpg",
         "id" : "r62",
         "comps" : [],
         "download" : {
            "receiveFirst" : 581,
            "len" : 26454,
            "dns" : 0,
            "dnsEnd" : -1,
            "receiveHeadersEnd" : 1869,
            "sslEnd" : -1,
            "connectEnd" : 1288,
            "connectStart" : 0,
            "id" : "download_33",
            "receivedTime" : "7259.87199999872",
            "sslStart" : -1,
            "dnsStart" : -1,
            "receiveLast" : 5390.87199999872,
            "s_time" : 4210.73800000158,
            "sendEnd" : 1288,
            "sendStart" : 1288,
            "type" : "image/jpeg"
         }
      },
      {
         "when_comp_start" : -1,
         "url" : "http://original.testbed.localhost/cnet1.cbsistatic.com/hub/i/r/2015/09/14/48112de0-fabf-44b9-be1c-8ef423e8cbc3/thumbnail/270x203/3a8329c27926a8270bb5cbbf45030c2f/oncarscapacitors.jpg",
         "id" : "r63",
         "comps" : [],
         "download" : {
            "receiveFirst" : 575,
            "len" : 10889,
            "dns" : 0,
            "dnsEnd" : -1,
            "receiveHeadersEnd" : 2239,
            "sslEnd" : -1,
            "connectEnd" : 1664,
            "connectStart" : 0,
            "id" : "download_34",
            "receivedTime" : "7245.22300000172",
            "sslStart" : -1,
            "dnsStart" : -1,
            "receiveLast" : 5006.22300000172,
            "s_time" : 4251.57100000069,
            "sendEnd" : 1664,
            "sendStart" : 1664,
            "type" : "image/jpeg"
         }
      },
      {
         "when_comp_start" : -1,
         "url" : "http://original.testbed.localhost/cnet3.cbsistatic.com/hub/i/r/2015/09/15/b54c3549-b030-4371-b32a-9f6c8fdeb1cf/thumbnail/270x203/52b7f1d5ddcecb180a9533df297f4427/nhl16screen4.jpg",
         "id" : "r64",
         "comps" : [],
         "download" : {
            "receiveFirst" : 558,
            "len" : 16181,
            "dns" : 0,
            "dnsEnd" : -1,
            "receiveHeadersEnd" : 2167,
            "sslEnd" : -1,
            "connectEnd" : 1608,
            "connectStart" : 0,
            "id" : "download_35",
            "receivedTime" : "7258.43700000041",
            "sslStart" : -1,
            "dnsStart" : -1,
            "receiveLast" : 5091.43700000041,
            "s_time" : 4460.7079999987,
            "sendEnd" : 1609,
            "sendStart" : 1608,
            "type" : "image/jpeg"
         }
      },
      {
         "when_comp_start" : -1,
         "url" : "http://original.testbed.localhost/cnet3.cbsistatic.com/hub/i/r/2015/09/14/1357e773-8c6f-4480-a023-dcd6649221f0/thumbnail/270x203/fadc1526ccaeb5f614a7c3d4fa52cdc9/wilson-connected-basketball-01.jpg",
         "id" : "r65",
         "comps" : [],
         "download" : {
            "receiveFirst" : 500,
            "len" : 17343,
            "dns" : 0,
            "dnsEnd" : -1,
            "receiveHeadersEnd" : 1842,
            "sslEnd" : -1,
            "connectEnd" : 1341,
            "connectStart" : 0,
            "id" : "download_36",
            "receivedTime" : "7269.51499999996",
            "sslStart" : -1,
            "dnsStart" : -1,
            "receiveLast" : 5427.51499999996,
            "s_time" : 4972.62499999852,
            "sendEnd" : 1342,
            "sendStart" : 1341,
            "type" : "image/jpeg"
         }
      },
      {
         "when_comp_start" : -1,
         "url" : "http://original.testbed.localhost/cnet4.cbsistatic.com/hub/i/r/2015/09/15/5724518b-f8f8-42ab-bfa7-b26d58d509b7/thumbnail/570x321/a016de4576621d05332d57ddd026d2fd/dsc0161.jpg",
         "id" : "r66",
         "comps" : [],
         "download" : {
            "receiveFirst" : 506,
            "len" : 33145,
            "dns" : 0,
            "dnsEnd" : -1,
            "receiveHeadersEnd" : 1010,
            "sslEnd" : -1,
            "connectEnd" : 504,
            "connectStart" : 0,
            "id" : "download_37",
            "receivedTime" : "8481.09399999885",
            "sslStart" : -1,
            "dnsStart" : -1,
            "receiveLast" : 7471.09399999885,
            "s_time" : 6066.26799999867,
            "sendEnd" : 504,
            "sendStart" : 504,
            "type" : "image/jpeg"
         }
      },
      {
         "when_comp_start" : -1,
         "url" : "http://original.testbed.localhost/cnet2.cbsistatic.com/hub/i/r/2015/09/14/76993ec8-792e-40bb-8f3f-5132f9ee1d71/thumbnail/270x203/9a4ea54ad90a7a1fec69cb2e5c3bc947/starwarsstartrekgeorgiatechsmall.jpg",
         "id" : "r67",
         "comps" : [],
         "download" : {
            "receiveFirst" : 448,
            "len" : 13516,
            "dns" : 0,
            "dnsEnd" : -1,
            "receiveHeadersEnd" : 640,
            "sslEnd" : -1,
            "connectEnd" : 192,
            "connectStart" : 0,
            "id" : "download_38",
            "receivedTime" : "7692.00099999944",
            "sslStart" : -1,
            "dnsStart" : -1,
            "receiveLast" : 7052.00099999944,
            "s_time" : 6568.2369999995,
            "sendEnd" : 192,
            "sendStart" : 192,
            "type" : "image/jpeg"
         }
      },
      {
         "when_comp_start" : -1,
         "url" : "http://original.testbed.localhost/cnet1.cbsistatic.com/hub/i/r/2015/01/20/579d3717-a19d-4efa-a718-1f4338aeb8c1/thumbnail/270x203/27a201dfdaaddf7c07d0d7ad27197826/microsoft-windows-lumia.jpg",
         "id" : "r68",
         "comps" : [],
         "download" : {
            "receiveFirst" : 532,
            "len" : 20890,
            "dns" : 0,
            "dnsEnd" : -1,
            "receiveHeadersEnd" : 567,
            "sslEnd" : -1,
            "connectEnd" : 35,
            "connectStart" : 0,
            "id" : "download_39",
            "receivedTime" : "8030.53200000068",
            "sslStart" : -1,
            "dnsStart" : -1,
            "receiveLast" : 7463.53200000068,
            "s_time" : 6758.83400000021,
            "sendEnd" : 35,
            "sendStart" : 35,
            "type" : "image/jpeg"
         }
      },
      {
         "when_comp_start" : -1,
         "url" : "http://original.testbed.localhost/cnet3.cbsistatic.com/hub/i/r/2015/09/15/b01c75b1-eeda-49fa-a682-2629aea7d875/thumbnail/270x203/4495d47b8cb93ad95eb23eacdece0883/flgalaxytabs21.jpg",
         "id" : "r69",
         "comps" : [],
         "download" : {
            "receiveFirst" : 573,
            "len" : 15173,
            "dns" : 0,
            "dnsEnd" : -1,
            "receiveHeadersEnd" : 702,
            "sslEnd" : -1,
            "connectEnd" : 129,
            "connectStart" : 0,
            "id" : "download_40",
            "receivedTime" : "8014.11400000143",
            "sslStart" : -1,
            "dnsStart" : -1,
            "receiveLast" : 7312.11400000143,
            "s_time" : 6790.29799999989,
            "sendEnd" : 129,
            "sendStart" : 129,
            "type" : "image/jpeg"
         }
      },
      {
         "when_comp_start" : -1,
         "url" : "http://original.testbed.localhost/cnet3.cbsistatic.com/hub/i/r/2015/09/10/b8d9da48-40a4-42ae-912c-71fb100f4c11/thumbnail/270x203/190447eeb95a3a76da9d552008d4e7d5/ellen-pao.jpg",
         "id" : "r70",
         "comps" : [],
         "download" : {
            "receiveFirst" : 496,
            "len" : 9409,
            "dns" : 0,
            "dnsEnd" : -1,
            "receiveHeadersEnd" : 893,
            "sslEnd" : -1,
            "connectEnd" : 397,
            "connectStart" : 0,
            "id" : "download_41",
            "receivedTime" : "8028.57900000163",
            "sslStart" : -1,
            "dnsStart" : -1,
            "receiveLast" : 7135.57900000163,
            "s_time" : 6920.04299999826,
            "sendEnd" : 397,
            "sendStart" : 397,
            "type" : "image/jpeg"
         }
      },
      {
         "when_comp_start" : -1,
         "url" : "http://original.testbed.localhost/cnet4.cbsistatic.com/hub/i/r/2015/09/14/dbe432f6-32f0-4f0d-bb83-bd6e5ae847a6/thumbnail/570x321/6663d9f47423831ae649326d85492c72/sligotree.jpg",
         "id" : "r71",
         "comps" : [],
         "download" : {
            "receiveFirst" : 312,
            "len" : 46919,
            "dns" : 0,
            "dnsEnd" : -1,
            "receiveHeadersEnd" : 611,
            "sslEnd" : -1,
            "connectEnd" : 299,
            "connectStart" : 0,
            "id" : "download_42",
            "receivedTime" : "9277.87700000044",
            "sslStart" : -1,
            "dnsStart" : -1,
            "receiveLast" : 8666.87700000044,
            "s_time" : 7316.28300000011,
            "sendEnd" : 299,
            "sendStart" : 299,
            "type" : "image/jpeg"
         }
      },
      {
         "when_comp_start" : -1,
         "url" : "http://original.testbed.localhost/cnet3.cbsistatic.com/hub/i/r/2015/09/08/5e3a08de-0399-483f-8de3-fbfa2c0b1f25/thumbnail/270x203/dfa089d57be3743c56bf7f79a6b3e82b/scanner-app-9762-001.jpg",
         "id" : "r72",
         "comps" : [],
         "download" : {
            "receiveFirst" : 461,
            "len" : 14361,
            "dns" : 0,
            "dnsEnd" : -1,
            "receiveHeadersEnd" : 495,
            "sslEnd" : -1,
            "connectEnd" : 33,
            "connectStart" : 0,
            "id" : "download_43",
            "receivedTime" : "8851.85199999978",
            "sslStart" : -1,
            "dnsStart" : -1,
            "receiveLast" : 8356.85199999978,
            "s_time" : 7614.66899999868,
            "sendEnd" : 34,
            "sendStart" : 33,
            "type" : "image/jpeg"
         }
      },
      {
         "when_comp_start" : -1,
         "url" : "http://original.testbed.localhost/cnet1.cbsistatic.com/hub/i/r/2015/09/11/e17e1215-1191-48b3-95e9-49c11f4551f8/thumbnail/270x203/fc51c89bab90b2f2c054a49e66295486/fd-siri-apple-tv.jpg",
         "id" : "r73",
         "comps" : [],
         "download" : {
            "receiveFirst" : 440,
            "len" : 9383,
            "dns" : 0,
            "dnsEnd" : -1,
            "receiveHeadersEnd" : 561,
            "sslEnd" : -1,
            "connectEnd" : 121,
            "connectStart" : 0,
            "id" : "download_44",
            "receivedTime" : "8491.10400000063",
            "sslStart" : -1,
            "dnsStart" : -1,
            "receiveLast" : 7930.10400000063,
            "s_time" : 7646.81900000141,
            "sendEnd" : 121,
            "sendStart" : 121,
            "type" : "image/jpeg"
         }
      },
      {
         "when_comp_start" : -1,
         "url" : "http://original.testbed.localhost/cnet4.cbsistatic.com/hub/i/r/2015/09/14/40af5403-e5e3-4527-a68c-19bc87eab238/thumbnail/270x203/50be3001c354fad40a5234714c885390/htios9batterytips.jpg",
         "id" : "r74",
         "comps" : [],
         "download" : {
            "receiveFirst" : 389,
            "len" : 7902,
            "dns" : 0,
            "dnsEnd" : -1,
            "receiveHeadersEnd" : 510,
            "sslEnd" : -1,
            "connectEnd" : 121,
            "connectStart" : 0,
            "id" : "download_45",
            "receivedTime" : "8497.20700000034",
            "sslStart" : -1,
            "dnsStart" : -1,
            "receiveLast" : 7987.20700000034,
            "s_time" : 7766.61600000079,
            "sendEnd" : 121,
            "sendStart" : 121,
            "type" : "image/jpeg"
         }
      },
      {
         "when_comp_start" : -1,
         "url" : "http://original.testbed.localhost/cnet3.cbsistatic.com/hub/i/r/2015/08/04/ec4914ba-d159-4ec6-ac6f-22a349038c2b/thumbnail/270x203/67a586614a72d49546d399bcbde1563b/obama-demo-day-2015.png",
         "id" : "r13",
         "comps" : [],
         "download" : {
            "receiveFirst" : 439,
            "len" : 105845,
            "dns" : 0,
            "dnsEnd" : -1,
            "receiveHeadersEnd" : 7415,
            "sslEnd" : -1,
            "connectEnd" : 6976,
            "connectStart" : 0,
            "id" : "download_46",
            "receivedTime" : "10738.9980000007",
            "sslStart" : -1,
            "dnsStart" : -1,
            "receiveLast" : 3323.99800000072,
            "s_time" : 937.118000001647,
            "sendEnd" : 6976,
            "sendStart" : 6976,
            "type" : "image/png"
         }
      },
      {
         "when_comp_start" : -1,
         "url" : "http://original.testbed.localhost/cnet2.cbsistatic.com/hub/i/r/2015/09/09/ea56eed4-6268-4a86-bd84-1c18101b6e51/thumbnail/270x203/d6978f08ee53a657369e1d982221ebd4/apple-event-sept9-2015-ipadpro-2907.jpg",
         "id" : "r75",
         "comps" : [],
         "download" : {
            "receiveFirst" : 554,
            "len" : 17630,
            "dns" : 0,
            "dnsEnd" : -1,
            "receiveHeadersEnd" : 867,
            "sslEnd" : -1,
            "connectEnd" : 313,
            "connectStart" : 0,
            "id" : "download_47",
            "receivedTime" : "9528.73199999885",
            "sslStart" : -1,
            "dnsStart" : -1,
            "receiveLast" : 8661.73199999885,
            "s_time" : 7885.93899999978,
            "sendEnd" : 313,
            "sendStart" : 313,
            "type" : "image/jpeg"
         }
      },
      {
         "when_comp_start" : -1,
         "url" : "http://original.testbed.localhost/cnet3.cbsistatic.com/hub/i/r/2015/09/10/fd08ed11-d8fe-43ab-899e-d777174312cc/thumbnail/570x321/d7d4f3e80d00f9c71f09b3b3b89edc7c/apple-event-sept9-2015-apple-tv-2626.jpg",
         "id" : "r76",
         "comps" : [],
         "download" : {
            "receiveFirst" : 617,
            "len" : 38110,
            "dns" : 0,
            "dnsEnd" : -1,
            "receiveHeadersEnd" : 979,
            "sslEnd" : -1,
            "connectEnd" : 362,
            "connectStart" : 0,
            "id" : "download_48",
            "receivedTime" : "10266.8300000005",
            "sslStart" : -1,
            "dnsStart" : -1,
            "receiveLast" : 9287.83000000048,
            "s_time" : 7909.27000000011,
            "sendEnd" : 362,
            "sendStart" : 362,
            "type" : "image/jpeg"
         }
      },
      {
         "when_comp_start" : -1,
         "url" : "http://original.testbed.localhost/cnet4.cbsistatic.com/hub/i/r/2015/09/15/0b78749c-6d30-4d45-85ad-869de7aef004/thumbnail/270x203/273388a3e46bbd22046425b5261e1757/junglebook.jpg",
         "id" : "r77",
         "comps" : [],
         "download" : {
            "receiveFirst" : 659,
            "len" : 9869,
            "dns" : 0,
            "dnsEnd" : -1,
            "receiveHeadersEnd" : 803,
            "sslEnd" : -1,
            "connectEnd" : 144,
            "connectStart" : 0,
            "id" : "download_49",
            "receivedTime" : "9200.54600000003",
            "sslStart" : -1,
            "dnsStart" : -1,
            "receiveLast" : 8397.54600000003,
            "s_time" : 8195.18999999855,
            "sendEnd" : 144,
            "sendStart" : 144,
            "type" : "image/jpeg"
         }
      },
      {
         "when_comp_start" : -1,
         "url" : "http://original.testbed.localhost/cnet1.cbsistatic.com/hub/i/r/2014/06/20/f2c2e2f4-3092-4a02-be33-5ee2c3f3d34a/thumbnail/270x203/2ac85cc7abf3d379be7cc5534037c90b/Smartphones_side_by_side.jpg",
         "id" : "r78",
         "comps" : [],
         "download" : {
            "receiveFirst" : 558,
            "len" : 14486,
            "dns" : 0,
            "dnsEnd" : -1,
            "receiveHeadersEnd" : 1035,
            "sslEnd" : -1,
            "connectEnd" : 476,
            "connectStart" : 0,
            "id" : "download_50",
            "receivedTime" : "10193.7099999996",
            "sslStart" : -1,
            "dnsStart" : -1,
            "receiveLast" : 9158.70999999956,
            "s_time" : 8267.7909999984,
            "sendEnd" : 477,
            "sendStart" : 476,
            "type" : "image/jpeg"
         }
      },
      {
         "when_comp_start" : -1,
         "url" : "http://original.testbed.localhost/cnet2.cbsistatic.com/hub/i/r/2015/09/09/d48a7b75-e037-4397-a9f8-c4491fd54a14/thumbnail/270x203/1fe92363dedb50fcb612196f65cb10d2/apple-event-sept9-2015-iphone6s-2864.jpg",
         "id" : "r79",
         "comps" : [],
         "download" : {
            "receiveFirst" : 449,
            "len" : 18224,
            "dns" : 0,
            "dnsEnd" : -1,
            "receiveHeadersEnd" : 1200,
            "sslEnd" : -1,
            "connectEnd" : 750,
            "connectStart" : 0,
            "id" : "download_51",
            "receivedTime" : "9881.2399999988",
            "sslStart" : -1,
            "dnsStart" : -1,
            "receiveLast" : 8681.2399999988,
            "s_time" : 8337.40100000068,
            "sendEnd" : 751,
            "sendStart" : 750,
            "type" : "image/jpeg"
         }
      },
      {
         "when_comp_start" : -1,
         "url" : "http://original.testbed.localhost/cnet1.cbsistatic.com/hub/i/r/2015/07/29/c86672bf-eb9c-4393-b6e3-9c1b0b08a730/thumbnail/270x203/ba2d95b41dbaed9eb2518c914c168cd3/2016-mazda-cx-3-21.jpg",
         "id" : "r80",
         "comps" : [],
         "download" : {
            "receiveFirst" : 606,
            "len" : 21064,
            "dns" : 0,
            "dnsEnd" : -1,
            "receiveHeadersEnd" : 1145,
            "sslEnd" : -1,
            "connectEnd" : 539,
            "connectStart" : 0,
            "id" : "download_52",
            "receivedTime" : "10439.4680000005",
            "sslStart" : -1,
            "dnsStart" : -1,
            "receiveLast" : 9294.46800000049,
            "s_time" : 8740.34000000029,
            "sendEnd" : 539,
            "sendStart" : 539,
            "type" : "image/jpeg"
         }
      },
      {
         "when_comp_start" : -1,
         "url" : "http://original.testbed.localhost/cnet1.cbsistatic.com/hub/i/r/2015/03/25/63fe72d9-3522-40f7-94e0-f32ff05d45a1/thumbnail/70x53/9f1f23a3469671b789b1032260273e19/samsung-galaxy-s6-9364.jpg",
         "id" : "r81",
         "comps" : [],
         "download" : {
            "receiveFirst" : 681,
            "len" : 5478,
            "dns" : 0,
            "dnsEnd" : -1,
            "receiveHeadersEnd" : 1012,
            "sslEnd" : -1,
            "connectEnd" : 331,
            "connectStart" : 0,
            "id" : "download_53",
            "receivedTime" : "10196.6089999987",
            "sslStart" : -1,
            "dnsStart" : -1,
            "receiveLast" : 9184.60899999872,
            "s_time" : 9081.96999999927,
            "sendEnd" : 331,
            "sendStart" : 331,
            "type" : "image/jpeg"
         }
      },
      {
         "when_comp_start" : -1,
         "url" : "http://original.testbed.localhost/cnet1.cbsistatic.com/hub/i/r/2015/01/12/8b2e65ef-7811-4510-b99c-ca93c4d7fc46/thumbnail/70x53/f862e14061b73cb8b7614fe27be4ff8e/cree-connected-led-product-photos-1.jpg",
         "id" : "r82",
         "comps" : [],
         "download" : {
            "receiveFirst" : 546,
            "len" : 4480,
            "dns" : 0,
            "dnsEnd" : -1,
            "receiveHeadersEnd" : 949,
            "sslEnd" : -1,
            "connectEnd" : 403,
            "connectStart" : 0,
            "id" : "download_54",
            "receivedTime" : "11666.1830000012",
            "sslStart" : -1,
            "dnsStart" : -1,
            "receiveLast" : 10717.1830000012,
            "s_time" : 9278.22699999888,
            "sendEnd" : 403,
            "sendStart" : 403,
            "type" : "image/jpeg"
         }
      },
      {
         "when_comp_start" : -1,
         "url" : "http://original.testbed.localhost/cnet2.cbsistatic.com/hub/i/r/2015/01/19/770486f3-fdf2-4c8d-be6f-2ee36038569e/thumbnail/70x53/470f6bdf1648790eaed189a2ebeeb2ad/2015subaruoutback-004.jpg",
         "id" : "r83",
         "comps" : [],
         "download" : {
            "receiveFirst" : 339,
            "len" : 4995,
            "dns" : 0,
            "dnsEnd" : -1,
            "receiveHeadersEnd" : 1010,
            "sslEnd" : -1,
            "connectEnd" : 671,
            "connectStart" : 0,
            "id" : "download_55",
            "receivedTime" : "10522.4449999987",
            "sslStart" : -1,
            "dnsStart" : -1,
            "receiveLast" : 9512.4449999987,
            "s_time" : 9411.60600000148,
            "sendEnd" : 671,
            "sendStart" : 671,
            "type" : "image/jpeg"
         }
      },
      {
         "when_comp_start" : -1,
         "url" : "http://original.testbed.localhost/cnet3.cbsistatic.com/hub/i/r/2014/09/15/d85a92c5-fb50-4dcc-8b08-1d0cf458f10f/thumbnail/70x53/2d79a94a051a25cdffc09f96d6d5a9cc/plutus09.jpg",
         "id" : "r84",
         "comps" : [],
         "download" : {
            "receiveFirst" : 332,
            "len" : 4830,
            "dns" : 0,
            "dnsEnd" : -1,
            "receiveHeadersEnd" : 786,
            "sslEnd" : -1,
            "connectEnd" : 454,
            "connectStart" : 0,
            "id" : "download_56",
            "receivedTime" : "10732.6810000013",
            "sslStart" : -1,
            "dnsStart" : -1,
            "receiveLast" : 9946.68100000132,
            "s_time" : 9680.60200000036,
            "sendEnd" : 454,
            "sendStart" : 454,
            "type" : "image/jpeg"
         }
      },
      {
         "when_comp_start" : -1,
         "url" : "http://original.testbed.localhost/cnet4.cbsistatic.com/hub/i/r/2014/09/02/5487c7b3-56f9-4fdc-b71d-6295d5b4a62f/thumbnail/70x53/859d00e4730345d47c879421d2e13c52/lg-55ec9300-product-photos16.jpg",
         "id" : "r85",
         "comps" : [],
         "download" : {
            "receiveFirst" : 293,
            "len" : 4905,
            "dns" : 0,
            "dnsEnd" : -1,
            "receiveHeadersEnd" : 431,
            "sslEnd" : -1,
            "connectEnd" : 138,
            "connectStart" : 0,
            "id" : "download_57",
            "receivedTime" : "10735.6709999985",
            "sslStart" : -1,
            "dnsStart" : -1,
            "receiveLast" : 10304.6709999985,
            "s_time" : 10078.7960000016,
            "sendEnd" : 138,
            "sendStart" : 138,
            "type" : "image/jpeg"
         }
      },
      {
         "when_comp_start" : -1,
         "url" : "http://original.testbed.localhost/cnet1.cbsistatic.com/hub/i/r/2013/09/26/f6314ac2-6797-11e3-846b-14feb5ca9861/thumbnail/70x53/5262e6e06b55eacbc24ae967618018b4/AsusRT-AC68U_(6).jpg",
         "id" : "r86",
         "comps" : [],
         "download" : {
            "receiveFirst" : 292,
            "len" : 1115,
            "dns" : 0,
            "dnsEnd" : -1,
            "receiveHeadersEnd" : 565,
            "sslEnd" : -1,
            "connectEnd" : 273,
            "connectStart" : 0,
            "id" : "download_58",
            "receivedTime" : "10742.2939999997",
            "sslStart" : -1,
            "dnsStart" : -1,
            "receiveLast" : 10177.2939999997,
            "s_time" : 10129.3939999996,
            "sendEnd" : 273,
            "sendStart" : 273,
            "type" : "image/jpeg"
         }
      },
      {
         "when_comp_start" : -1,
         "url" : "http://original.testbed.localhost/cnet2.cbsistatic.com/hub/i/r/2014/12/22/24465ad6-a65b-488f-884d-308eb42d24e5/thumbnail/70x53/29baaf0e03332e63724abf0ac7e1858e/marantz-nr1605-product-photos-01.jpg",
         "id" : "r87",
         "comps" : [],
         "download" : {
            "receiveFirst" : 248,
            "len" : 4630,
            "dns" : 0,
            "dnsEnd" : -1,
            "receiveHeadersEnd" : 492,
            "sslEnd" : -1,
            "connectEnd" : 244,
            "connectStart" : 0,
            "id" : "download_59",
            "receivedTime" : "10795.0889999993",
            "sslStart" : -1,
            "dnsStart" : -1,
            "receiveLast" : 10303.0889999993,
            "s_time" : 10214.1559999982,
            "sendEnd" : 244,
            "sendStart" : 244,
            "type" : "image/jpeg"
         }
      },
      {
         "when_comp_start" : -1,
         "url" : "http://original.testbed.localhost/cnet2.cbsistatic.com/hub/i/r/2014/05/20/4a584ebe-24e4-4d4f-a2c6-33fcf1f33959/thumbnail/70x53/5617597e6a1d9b6f8ac6dd8a194fbc56/large-hero-microsoft-surface-pro-3-product-photos.jpg",
         "id" : "r88",
         "comps" : [],
         "download" : {
            "receiveFirst" : 248,
            "len" : 2129,
            "dns" : 0,
            "dnsEnd" : -1,
            "receiveHeadersEnd" : 350,
            "sslEnd" : -1,
            "connectEnd" : 102,
            "connectStart" : 0,
            "id" : "download_60",
            "receivedTime" : "10802.8410000006",
            "sslStart" : -1,
            "dnsStart" : -1,
            "receiveLast" : 10452.8410000006,
            "s_time" : 10401.5179999988,
            "sendEnd" : 102,
            "sendStart" : 102,
            "type" : "image/jpeg"
         }
      },
      {
         "when_comp_start" : -1,
         "url" : "http://original.testbed.localhost/cnet4.cbsistatic.com/hub/i/r/2015/04/07/b35f1174-696c-4d25-8a4f-fa16a2842338/thumbnail/70x53/24b6ac8b9d11b089dbbfe048e49a2e33/macbook-air-gold-2015-16.jpg",
         "id" : "r89",
         "comps" : [],
         "download" : {
            "receiveFirst" : 221,
            "len" : 4859,
            "dns" : 0,
            "dnsEnd" : -1,
            "receiveHeadersEnd" : 311,
            "sslEnd" : -1,
            "connectEnd" : 90,
            "connectStart" : 0,
            "id" : "download_61",
            "receivedTime" : "10866.3779999988",
            "sslStart" : -1,
            "dnsStart" : -1,
            "receiveLast" : 10555.3779999988,
            "s_time" : 10457.6559999987,
            "sendEnd" : 90,
            "sendStart" : 90,
            "type" : "image/jpeg"
         }
      },
      {
         "when_comp_start" : -1,
         "url" : "http://original.testbed.localhost/cnet2.cbsistatic.com/hub/i/r/2012/12/07/7400d519-6797-11e3-846b-14feb5ca9861/thumbnail/70x53/8ff1b6bcbf393d756862838f631664fd/1Sony_MDR_1R_35481885.jpg",
         "id" : "r90",
         "comps" : [],
         "download" : {
            "receiveFirst" : 122,
            "len" : 4713,
            "dns" : 0,
            "dnsEnd" : -1,
            "receiveHeadersEnd" : 308,
            "sslEnd" : -1,
            "connectEnd" : 185,
            "connectStart" : 0,
            "id" : "download_62",
            "receivedTime" : "10941.5730000001",
            "sslStart" : -1,
            "dnsStart" : -1,
            "receiveLast" : 10633.5730000001,
            "s_time" : 10502.3489999985,
            "sendEnd" : 186,
            "sendStart" : 185,
            "type" : "image/jpeg"
         }
      },
      {
         "when_comp_start" : -1,
         "url" : "http://original.testbed.localhost/cnet3.cbsistatic.com/hub/i/r/2015/09/08/e10fb785-f010-4b16-933b-71ffc8196528/thumbnail/370x208/6883c52375ee5b391057bbf282e5ec5b/cnetsomerhalder001car0058-f2v3.jpg",
         "id" : "r91",
         "comps" : [],
         "download" : {
            "receiveFirst" : 154,
            "len" : 19170,
            "dns" : 0,
            "dnsEnd" : -1,
            "receiveHeadersEnd" : 308,
            "sslEnd" : -1,
            "connectEnd" : 153,
            "connectStart" : 0,
            "id" : "download_63",
            "receivedTime" : "11009.0479999999",
            "sslStart" : -1,
            "dnsStart" : -1,
            "receiveLast" : 10701.0479999999,
            "s_time" : 10545.2110000006,
            "sendEnd" : 154,
            "sendStart" : 153,
            "type" : "image/jpeg"
         }
      },
      {
         "when_comp_start" : -1,
         "url" : "http://original.testbed.localhost/cnet2.cbsistatic.com/fly/1441144377-fly/bundles/cnetcss/images/core/logo.png",
         "id" : "r97",
         "comps" : [],
         "download" : {
            "receiveFirst" : 256,
            "len" : 8228,
            "dns" : 0,
            "dnsEnd" : -1,
            "receiveHeadersEnd" : 319,
            "sslEnd" : -1,
            "connectEnd" : 63,
            "connectStart" : 0,
            "id" : "download_64",
            "receivedTime" : "11130.5690000008",
            "sslStart" : -1,
            "dnsStart" : -1,
            "receiveLast" : 10811.5690000008,
            "s_time" : 10697.2949999981,
            "sendEnd" : 63,
            "sendStart" : 63,
            "type" : "image/png"
         }
      },
      {
         "when_comp_start" : -1,
         "url" : "http://original.testbed.localhost/cnet3.cbsistatic.com/fly/images/sprites/socialCore/social-core-2x-s2738a31252.png",
         "id" : "r98",
         "comps" : [],
         "download" : {
            "receiveFirst" : 284,
            "len" : 6030,
            "dns" : 0,
            "dnsEnd" : -1,
            "receiveHeadersEnd" : 347,
            "sslEnd" : -1,
            "connectEnd" : 63,
            "connectStart" : 0,
            "id" : "download_65",
            "receivedTime" : "11136.7030000001",
            "sslStart" : -1,
            "dnsStart" : -1,
            "receiveLast" : 10789.7030000001,
            "s_time" : 10740.5240000007,
            "sendEnd" : 63,
            "sendStart" : 63,
            "type" : "image/png"
         }
      },
      {
         "when_comp_start" : -1,
         "url" : "http://original.testbed.localhost/phx1-cnet.cbsistatic.com/image-0.png",
         "id" : "r95",
         "comps" : [],
         "download" : {
            "receiveFirst" : 295,
            "len" : 11483,
            "dns" : 0,
            "dnsEnd" : -1,
            "receiveHeadersEnd" : 383,
            "sslEnd" : -1,
            "connectEnd" : 88,
            "connectStart" : 0,
            "id" : "download_66",
            "receivedTime" : "11252.7609999997",
            "sslStart" : -1,
            "dnsStart" : -1,
            "receiveLast" : 10869.7609999997,
            "s_time" : 10756.8810000012,
            "sendEnd" : 88,
            "sendStart" : 88,
            "type" : "image/png"
         }
      },
      {
         "when_comp_start" : -1,
         "url" : "http://original.testbed.localhost/mia2-cnet.cbsistatic.com/image-0.png",
         "id" : "r96",
         "comps" : [],
         "download" : {
            "receiveFirst" : 235,
            "len" : 11483,
            "dns" : 0,
            "dnsEnd" : -1,
            "receiveHeadersEnd" : 443,
            "sslEnd" : -1,
            "connectEnd" : 207,
            "connectStart" : 0,
            "id" : "download_67",
            "receivedTime" : "11335.0979999996",
            "sslStart" : -1,
            "dnsStart" : -1,
            "receiveLast" : 10892.0979999996,
            "s_time" : 10801.4970000004,
            "sendEnd" : 208,
            "sendStart" : 207,
            "type" : "image/png"
         }
      },
      {
         "when_comp_start" : -1,
         "url" : "http://original.testbed.localhost/cnet1.cbsistatic.com/hub/i/r/2015/08/20/ea3df2de-20c3-4014-a899-c74914b1d274/thumbnail/570x321/acac6ed5f252f7cdf85726a2f506edf8/om-d-e-m10-m2-1.jpg",
         "id" : "r14",
         "comps" : [],
         "download" : {
            "receiveFirst" : 265,
            "len" : 32022,
            "dns" : 0,
            "dnsEnd" : -1,
            "receiveHeadersEnd" : 10403,
            "sslEnd" : -1,
            "connectEnd" : 10137,
            "connectStart" : 0,
            "id" : "download_68",
            "receivedTime" : "11792.2809999982",
            "sslStart" : -1,
            "dnsStart" : -1,
            "receiveLast" : 1389.28099999818,
            "s_time" : 937.819999999192,
            "sendEnd" : 10138,
            "sendStart" : 10137,
            "type" : "image/jpeg"
         }
      },
      {
         "when_comp_start" : -1,
         "url" : "http://original.testbed.localhost/cnet4.cbsistatic.com/hub/i/r/2015/08/20/ea3df2de-20c3-4014-a899-c74914b1d274/thumbnail/270x203/4d048fa9b7ab20cf118eab8ac5df143e/om-d-e-m10-m2-1.jpg",
         "id" : "r15",
         "comps" : [],
         "download" : {
            "receiveFirst" : 360,
            "len" : 14243,
            "dns" : 0,
            "dnsEnd" : -1,
            "receiveHeadersEnd" : 10556,
            "sslEnd" : -1,
            "connectEnd" : 10196,
            "connectStart" : 0,
            "id" : "download_69",
            "receivedTime" : "11665.481",
            "sslStart" : -1,
            "dnsStart" : -1,
            "receiveLast" : 1109.481,
            "s_time" : 939.375999998447,
            "sendEnd" : 10196,
            "sendStart" : 10196,
            "type" : "image/jpeg"
         }
      },
      {
         "when_comp_start" : -1,
         "url" : "http://original.testbed.localhost/cnet3.cbsistatic.com/fly/images/sprites/ratingStars/stars-2x/small-s5ee5b9e1f5.png",
         "id" : "r92",
         "comps" : [],
         "download" : {
            "receiveFirst" : 1336,
            "len" : 1376,
            "dns" : 0,
            "dnsEnd" : -1,
            "receiveHeadersEnd" : 1392,
            "sslEnd" : -1,
            "connectEnd" : 56,
            "connectStart" : 0,
            "id" : "download_70",
            "receivedTime" : "12085.7389999983",
            "sslStart" : -1,
            "dnsStart" : -1,
            "receiveLast" : 10693.7389999983,
            "s_time" : 10686.278000001,
            "sendEnd" : 56,
            "sendStart" : 56,
            "type" : "image/png"
         }
      }
   ],
   "deps" : [
      {
         "a2" : "r1_c2",
         "time" : -1,
         "id" : "dep1",
         "a1" : "comp_4"
      },
      {
         "a2" : "r1_c3",
         "time" : -1,
         "id" : "dep2",
         "a1" : "comp_6"
      },
      {
         "a2" : "r1_c4",
         "time" : -1,
         "id" : "dep3",
         "a1" : "comp_45"
      },
      {
         "a2" : "comp_4",
         "time" : -1,
         "id" : "dep4",
         "a1" : "comp_1"
      },
      {
         "a2" : "comp_4",
         "time" : -1,
         "id" : "dep5",
         "a1" : "comp_3"
      },
      {
         "a2" : "comp_6",
         "time" : -1,
         "id" : "dep6",
         "a1" : "comp_4"
      },
      {
         "a2" : "download_70",
         "time" : -1,
         "id" : "dep7",
         "a1" : "r1_c4"
      },
      {
         "a2" : "download_69",
         "time" : -1,
         "id" : "dep8",
         "a1" : "r1_c1"
      },
      {
         "a2" : "download_68",
         "time" : 756.287000000157,
         "id" : "dep9",
         "a1" : "r1_c1"
      },
      {
         "a2" : "download_67",
         "time" : -1,
         "id" : "dep10",
         "a1" : "r1_c4"
      },
      {
         "a2" : "download_66",
         "time" : 7888.7630000027,
         "id" : "dep11",
         "a1" : "r1_c4"
      },
      {
         "a2" : "download_65",
         "time" : 7872.4060000022,
         "id" : "dep12",
         "a1" : "r1_c4"
      },
      {
         "a2" : "download_64",
         "time" : 7829.1769999996,
         "id" : "dep13",
         "a1" : "r1_c4"
      },
      {
         "a2" : "download_63",
         "time" : 7677.0930000021,
         "id" : "dep14",
         "a1" : "r1_c4"
      },
      {
         "a2" : "download_62",
         "time" : 7634.231,
         "id" : "dep15",
         "a1" : "r1_c4"
      },
      {
         "a2" : "download_61",
         "time" : 7589.5380000002,
         "id" : "dep16",
         "a1" : "r1_c4"
      },
      {
         "a2" : "download_60",
         "time" : 7533.4000000003,
         "id" : "dep17",
         "a1" : "r1_c4"
      },
      {
         "a2" : "download_59",
         "time" : 7346.0379999997,
         "id" : "dep18",
         "a1" : "r1_c4"
      },
      {
         "a2" : "download_58",
         "time" : 7261.2760000011,
         "id" : "dep19",
         "a1" : "r1_c4"
      },
      {
         "a2" : "download_57",
         "time" : 7210.6780000031,
         "id" : "dep20",
         "a1" : "r1_c4"
      },
      {
         "a2" : "download_56",
         "time" : 6812.48400000186,
         "id" : "dep21",
         "a1" : "r1_c4"
      },
      {
         "a2" : "download_55",
         "time" : 6543.48800000298,
         "id" : "dep22",
         "a1" : "r1_c4"
      },
      {
         "a2" : "download_54",
         "time" : 6410.10900000038,
         "id" : "dep23",
         "a1" : "r1_c4"
      },
      {
         "a2" : "download_53",
         "time" : 6213.85200000077,
         "id" : "dep24",
         "a1" : "r1_c4"
      },
      {
         "a2" : "download_52",
         "time" : 5872.22200000179,
         "id" : "dep25",
         "a1" : "r1_c4"
      },
      {
         "a2" : "download_51",
         "time" : 5469.28300000218,
         "id" : "dep26",
         "a1" : "r1_c4"
      },
      {
         "a2" : "download_50",
         "time" : 5399.6729999999,
         "id" : "dep27",
         "a1" : "r1_c4"
      },
      {
         "a2" : "download_49",
         "time" : 5327.07200000005,
         "id" : "dep28",
         "a1" : "r1_c4"
      },
      {
         "a2" : "download_48",
         "time" : 5041.15200000161,
         "id" : "dep29",
         "a1" : "r1_c4"
      },
      {
         "a2" : "download_47",
         "time" : 5017.82100000128,
         "id" : "dep30",
         "a1" : "r1_c4"
      },
      {
         "a2" : "download_46",
         "time" : 755.585000002612,
         "id" : "dep31",
         "a1" : "r1_c1"
      },
      {
         "a2" : "download_45",
         "time" : 4898.49800000229,
         "id" : "dep32",
         "a1" : "r1_c4"
      },
      {
         "a2" : "download_44",
         "time" : 4778.70100000291,
         "id" : "dep33",
         "a1" : "r1_c4"
      },
      {
         "a2" : "download_43",
         "time" : 4746.55100000018,
         "id" : "dep34",
         "a1" : "r1_c4"
      },
      {
         "a2" : "download_42",
         "time" : 4448.16500000161,
         "id" : "dep35",
         "a1" : "r1_c4"
      },
      {
         "a2" : "download_41",
         "time" : 4051.92499999976,
         "id" : "dep36",
         "a1" : "r1_c4"
      },
      {
         "a2" : "download_40",
         "time" : 3922.18000000139,
         "id" : "dep37",
         "a1" : "r1_c4"
      },
      {
         "a2" : "download_39",
         "time" : 3890.71600000171,
         "id" : "dep38",
         "a1" : "r1_c4"
      },
      {
         "a2" : "download_38",
         "time" : 3700.119000001,
         "id" : "dep39",
         "a1" : "r1_c4"
      },
      {
         "a2" : "download_37",
         "time" : 3198.15000000017,
         "id" : "dep40",
         "a1" : "r1_c4"
      },
      {
         "a2" : "download_36",
         "time" : 2104.50700000002,
         "id" : "dep41",
         "a1" : "r1_c4"
      },
      {
         "a2" : "download_35",
         "time" : 1592.5900000002,
         "id" : "dep42",
         "a1" : "r1_c4"
      },
      {
         "a2" : "download_34",
         "time" : 1383.45300000219,
         "id" : "dep43",
         "a1" : "r1_c4"
      },
      {
         "a2" : "download_33",
         "time" : 1342.62000000308,
         "id" : "dep44",
         "a1" : "r1_c4"
      },
      {
         "a2" : "download_32",
         "time" : 1198.54699999997,
         "id" : "dep45",
         "a1" : "r1_c4"
      },
      {
         "a2" : "download_31",
         "time" : 983.85600000256,
         "id" : "dep46",
         "a1" : "r1_c4"
      },
      {
         "a2" : "download_30",
         "time" : 1271.36200000314,
         "id" : "dep47",
         "a1" : "r1_c4"
      },
      {
         "a2" : "download_29",
         "time" : 1270.87400000164,
         "id" : "dep48",
         "a1" : "r1_c4"
      },
      {
         "a2" : "download_28",
         "time" : 1270.50700000109,
         "id" : "dep49",
         "a1" : "r1_c4"
      },
      {
         "a2" : "download_27",
         "time" : 1269.85100000093,
         "id" : "dep50",
         "a1" : "r1_c4"
      },
      {
         "a2" : "download_26",
         "time" : 1264.42000000316,
         "id" : "dep51",
         "a1" : "r1_c4"
      },
      {
         "a2" : "download_25",
         "time" : 746.96300000142,
         "id" : "dep52",
         "a1" : "r1_c4"
      },
      {
         "a2" : "download_24",
         "time" : 695.31199999983,
         "id" : "dep53",
         "a1" : "r1_c4"
      },
      {
         "a2" : "download_23",
         "time" : 584.53300000111,
         "id" : "dep54",
         "a1" : "r1_c4"
      },
      {
         "a2" : "download_22",
         "time" : 281.52400000181,
         "id" : "dep55",
         "a1" : "r1_c4"
      },
      {
         "a2" : "download_21",
         "time" : 251.96800000049,
         "id" : "dep56",
         "a1" : "r1_c4"
      },
      {
         "a2" : "download_20",
         "time" : 220.73300000193,
         "id" : "dep57",
         "a1" : "r1_c4"
      },
      {
         "a2" : "download_19",
         "time" : -1,
         "id" : "dep58",
         "a1" : "r1_c3"
      },
      {
         "a2" : "download_18",
         "time" : 1085.35699999993,
         "id" : "dep59",
         "a1" : "r1_c3"
      },
      {
         "a2" : "download_17",
         "time" : 826.93500000096,
         "id" : "dep60",
         "a1" : "r1_c3"
      },
      {
         "a2" : "download_16",
         "time" : 716.58200000092,
         "id" : "dep61",
         "a1" : "r1_c3"
      },
      {
         "a2" : "download_15",
         "time" : 613.76899999959,
         "id" : "dep62",
         "a1" : "r1_c3"
      },
      {
         "a2" : "download_14",
         "time" : 829.49799999915,
         "id" : "dep63",
         "a1" : "r1_c3"
      },
      {
         "a2" : "download_13",
         "time" : 693.43500000104,
         "id" : "dep64",
         "a1" : "r1_c3"
      },
      {
         "a2" : "download_12",
         "time" : 197.29599999846,
         "id" : "dep65",
         "a1" : "r1_c3"
      },
      {
         "a2" : "download_11",
         "time" : 752.883000001021,
         "id" : "dep66",
         "a1" : "r1_c1"
      },
      {
         "a2" : "download_10",
         "time" : 753.983000002336,
         "id" : "dep67",
         "a1" : "r1_c1"
      },
      {
         "a2" : "download_9",
         "time" : 751.968000000489,
         "id" : "dep68",
         "a1" : "r1_c1"
      },
      {
         "a2" : "download_8",
         "time" : 750.351000002411,
         "id" : "dep69",
         "a1" : "r1_c1"
      },
      {
         "a2" : "download_7",
         "time" : 749.115000002348,
         "id" : "dep70",
         "a1" : "r1_c1"
      },
      {
         "a2" : "download_6",
         "time" : 739.975000000414,
         "id" : "dep71",
         "a1" : "r1_c1"
      },
      {
         "a2" : "download_5",
         "time" : 61.539000002086,
         "id" : "dep72",
         "a1" : "r1_c1"
      },
      {
         "a2" : "download_5",
         "time" : 61.539000002086,
         "id" : "dep73",
         "a1" : "r1_c1"
      },
      {
         "a2" : "download_4",
         "time" : 57.006999999431,
         "id" : "dep74",
         "a1" : "r1_c1"
      },
      {
         "a2" : "download_4",
         "time" : 57.006999999431,
         "id" : "dep75",
         "a1" : "r1_c1"
      },
      {
         "a2" : "download_3",
         "time" : 55.023000000802,
         "id" : "dep76",
         "a1" : "r1_c1"
      },
      {
         "a2" : "download_2",
         "time" : 53.162000000157,
         "id" : "dep77",
         "a1" : "r1_c1"
      },
      {
         "a2" : "download_1",
         "time" : 51.209000001109,
         "id" : "dep78",
         "a1" : "r1_c1"
      }
   ]
}
