{
   "n_download_no_trigger" : 1,
   "start_activity" : "download_0",
   "name" : "original.testbed.localhost_www.bbc.com_",
   "load_activity" : -1,
   "objs" : [
      {
         "when_comp_start" : 1,
         "url" : "http://original.testbed.localhost/www.bbc.com/",
         "id" : "r1",
         "comps" : [
            {
               "s_time" : 128.357000008691,
               "time" : 15.778000000864,
               "id" : "r1_c1",
               "type" : "evalhtml",
               "e_time" : 144.135000009555
            },
            {
               "s_time" : 370.209000000614,
               "time" : 31.0670000035309,
               "id" : "r1_c2",
               "type" : "evalhtml",
               "e_time" : 401.276000004145
            },
            {
               "s_time" : 429.564999998547,
               "time" : -66005690.475,
               "id" : "r1_c3",
               "type" : "evalhtml",
               "e_time" : -66005260.91
            },
            {
               "s_time" : 467.407000003732,
               "time" : 3.38799999735801,
               "id" : "r1_c4",
               "type" : "evalhtml",
               "e_time" : 470.79500000109
            },
            {
               "s_time" : 612.122000005911,
               "time" : 256.117999990238,
               "id" : "r1_c5",
               "type" : "evalhtml",
               "e_time" : 868.239999996149
            },
            {
               "s_time" : 966.09499999613,
               "time" : 848.22100000747,
               "id" : "r1_c6",
               "type" : "evalhtml",
               "e_time" : 1814.3160000036
            },
            {
               "s_time" : 1972.29000000516,
               "time" : 2.93000000237998,
               "type" : "evalhtml",
               "id" : "r1_c7",
               "e_time" : 1975.22000000754
            }
         ],
         "download" : {
            "receiveFirst" : 12,
            "len" : 178527,
            "dns" : 0,
            "dnsEnd" : -1,
            "receiveHeadersEnd" : 20,
            "sslEnd" : -1,
            "connectEnd" : 7,
            "connectStart" : 0,
            "id" : "download_0",
            "receivedTime" : "248.749000005773",
            "sslStart" : -1,
            "dnsStart" : -1,
            "receiveLast" : 228.749000005773,
            "s_time" : 0,
            "sendEnd" : 8,
            "sendStart" : 7,
            "type" : "text/html"
         }
      },
      {
         "when_comp_start" : -1,
         "url" : "http://original.testbed.localhost/static.bbci.co.uk/frameworks/requirejs/lib.js",
         "id" : "r2",
         "comps" : [
            {
               "s_time" : 313.416000004509,
               "time" : 56.792999996105,
               "type" : 1,
               "id" : "comp_2",
               "e_time" : 370.209000000614
            }
         ],
         "download" : {
            "receiveFirst" : 107,
            "len" : 19738,
            "dns" : 0,
            "dnsEnd" : -1,
            "receiveHeadersEnd" : 120,
            "sslEnd" : -1,
            "connectEnd" : 13,
            "connectStart" : 0,
            "id" : "download_1",
            "receivedTime" : "312.653000000864",
            "sslStart" : -1,
            "dnsStart" : -1,
            "receiveLast" : 192.653000000864,
            "s_time" : 135.498000003281,
            "sendEnd" : 13,
            "sendStart" : 13,
            "type" : "application/javascript"
         }
      },
      {
         "when_comp_start" : -1,
         "url" : "http://original.testbed.localhost/static.bbci.co.uk/frameworks/barlesque/2.87.12/orb/4/style/orb.min.css",
         "id" : "r3",
         "comps" : [
            {
               "s_time" : 415.558000007877,
               "time" : 0.54899998940499,
               "type" : 4,
               "id" : "comp_6",
               "e_time" : 416.106999997282
            }
         ],
         "download" : {
            "receiveFirst" : 70,
            "len" : 25873,
            "dns" : 0,
            "dnsEnd" : -1,
            "receiveHeadersEnd" : 178,
            "sslEnd" : -1,
            "connectEnd" : 108,
            "connectStart" : 0,
            "id" : "download_2",
            "receivedTime" : "414.88599999866",
            "sslStart" : -1,
            "dnsStart" : -1,
            "receiveLast" : 236.88599999866,
            "s_time" : 141.205000007176,
            "sendEnd" : 108,
            "sendStart" : 108,
            "type" : "text/css"
         }
      },
      {
         "when_comp_start" : -1,
         "url" : "http://original.testbed.localhost/static.bbci.co.uk/frameworks/barlesque/2.87.12/orb/4/script/orb/api.min.js",
         "id" : "r4",
         "comps" : [
            {
               "s_time" : 466.217000008328,
               "time" : 1.18999999540398,
               "type" : 1,
               "id" : "comp_10",
               "e_time" : 467.407000003732
            }
         ],
         "download" : {
            "receiveFirst" : 49,
            "len" : 385,
            "dns" : 0,
            "dnsEnd" : -1,
            "receiveHeadersEnd" : 218,
            "sslEnd" : -1,
            "connectEnd" : 168,
            "connectStart" : 0,
            "id" : "download_3",
            "receivedTime" : "417.480000003707",
            "sslStart" : -1,
            "dnsStart" : -1,
            "receiveLast" : 199.480000003707,
            "s_time" : 144.135000009555,
            "sendEnd" : 169,
            "sendStart" : 168,
            "type" : "application/javascript"
         }
      },
      {
         "when_comp_start" : -1,
         "url" : "http://original.testbed.localhost/fig.bbc.co.uk/frameworks/fig/1/fig.js",
         "id" : "r5",
         "comps" : [
            {
               "s_time" : 420.37999999593,
               "time" : 9.18500000261702,
               "type" : 1,
               "id" : "comp_7",
               "e_time" : 429.564999998547
            }
         ],
         "download" : {
            "receiveFirst" : 7,
            "len" : 2533,
            "dns" : 0,
            "dnsEnd" : -1,
            "receiveHeadersEnd" : 13,
            "sslEnd" : -1,
            "connectEnd" : 6,
            "connectStart" : 0,
            "id" : "download_4",
            "receivedTime" : "419.739000004483",
            "sslStart" : -1,
            "dnsStart" : -1,
            "receiveLast" : 406.739000004483,
            "s_time" : 401.276000004145,
            "sendEnd" : 6,
            "sendStart" : 6,
            "type" : "application/javascript"
         }
      },
      {
         "when_comp_start" : -1,
         "url" : "http://original.testbed.localhost/static.bbci.co.uk/frameworks/barlesque/2.87.12/orb/4/script/vendor/edr.js",
         "id" : "r6",
         "comps" : [
            {
               "s_time" : 572.327000001678,
               "time" : 39.795000004233,
               "type" : 1,
               "id" : "comp_13",
               "e_time" : 612.122000005911
            }
         ],
         "download" : {
            "receiveFirst" : 9,
            "len" : 32277,
            "dns" : 0,
            "dnsEnd" : -1,
            "receiveHeadersEnd" : 14,
            "sslEnd" : -1,
            "connectEnd" : 5,
            "connectStart" : 0,
            "id" : "download_5",
            "receivedTime" : "569.885000004433",
            "sslStart" : -1,
            "dnsStart" : -1,
            "receiveLast" : 555.885000004433,
            "s_time" : 470.79500000109,
            "sendEnd" : 5,
            "sendStart" : 5,
            "type" : "application/javascript"
         }
      },
      {
         "when_comp_start" : -1,
         "url" : "http://original.testbed.localhost/static.bbci.co.uk/wwhp/1.82.0/responsive/css/wwhp.min.css",
         "id" : "r8",
         "comps" : [
            {
               "s_time" : 813.141000005999,
               "time" : 57.0069999957921,
               "type" : 4,
               "id" : "comp_25",
               "e_time" : 870.148000001791
            }
         ],
         "download" : {
            "receiveFirst" : 28,
            "len" : 79709,
            "dns" : 0,
            "dnsEnd" : -1,
            "receiveHeadersEnd" : 41,
            "sslEnd" : -1,
            "connectEnd" : 13,
            "connectStart" : 0,
            "id" : "download_6",
            "receivedTime" : "812.439000001177",
            "sslStart" : -1,
            "dnsStart" : -1,
            "receiveLast" : 771.439000001177,
            "s_time" : 667.998999997508,
            "sendEnd" : 13,
            "sendStart" : 13,
            "type" : "text/css"
         }
      },
      {
         "when_comp_start" : -1,
         "url" : "http://original.testbed.localhost/static.bbci.co.uk/wwhp/1.82.0/modules/vendor/modernizr/modernizr.js",
         "id" : "r9",
         "comps" : [
            {
               "s_time" : 874.236999996356,
               "time" : 91.8579999997741,
               "type" : 1,
               "id" : "comp_26",
               "e_time" : 966.09499999613
            }
         ],
         "download" : {
            "receiveFirst" : 135,
            "len" : 15607,
            "dns" : 0,
            "dnsEnd" : -1,
            "receiveHeadersEnd" : 152,
            "sslEnd" : -1,
            "connectEnd" : 17,
            "connectStart" : 0,
            "id" : "download_7",
            "receivedTime" : "873.566000009305",
            "sslStart" : -1,
            "dnsStart" : -1,
            "receiveLast" : 721.566000009305,
            "s_time" : 668.976000000839,
            "sendEnd" : 17,
            "sendStart" : 17,
            "type" : "application/javascript"
         }
      },
      {
         "when_comp_start" : -1,
         "url" : "http://original.testbed.localhost/static.bbci.co.uk/frameworks/barlesque/2.87.12/orb/4/img/bbc-blocks-light.png",
         "id" : "r10",
         "comps" : [],
         "download" : {
            "receiveFirst" : 218,
            "len" : 730,
            "dns" : 0,
            "dnsEnd" : -1,
            "receiveHeadersEnd" : 232,
            "sslEnd" : -1,
            "connectEnd" : 14,
            "connectStart" : 0,
            "id" : "download_8",
            "receivedTime" : "1079.77300000493",
            "sslStart" : -1,
            "dnsStart" : -1,
            "receiveLast" : 847.773000004934,
            "s_time" : 690.597000007983,
            "sendEnd" : 14,
            "sendStart" : 14,
            "type" : "image/png"
         }
      },
      {
         "when_comp_start" : -1,
         "url" : "http://original.testbed.localhost/static.bbci.co.uk/id/0.32.00/img/bbcid_orb_signin_light.png",
         "id" : "r11",
         "comps" : [],
         "download" : {
            "receiveFirst" : 60,
            "len" : 1183,
            "dns" : 0,
            "dnsEnd" : -1,
            "receiveHeadersEnd" : 81,
            "sslEnd" : -1,
            "connectEnd" : 21,
            "connectStart" : 0,
            "id" : "download_9",
            "receivedTime" : "1109.55799999647",
            "sslStart" : -1,
            "dnsStart" : -1,
            "receiveLast" : 1028.55799999647,
            "s_time" : 857.727000009618,
            "sendEnd" : 21,
            "sendStart" : 21,
            "type" : "image/png"
         }
      },
      {
         "when_comp_start" : -1,
         "url" : "http://original.testbed.localhost/static.bbci.co.uk/frameworks/barlesque/2.87.12/orb/4/img/orb-search-light.png",
         "id" : "r12",
         "comps" : [],
         "download" : {
            "receiveFirst" : 60,
            "len" : 269,
            "dns" : 0,
            "dnsEnd" : -1,
            "receiveHeadersEnd" : 82,
            "sslEnd" : -1,
            "connectEnd" : 22,
            "connectStart" : 0,
            "id" : "download_10",
            "receivedTime" : "1111.51099999552",
            "sslStart" : -1,
            "dnsStart" : -1,
            "receiveLast" : 1029.51099999552,
            "s_time" : 859.299000003375,
            "sendEnd" : 22,
            "sendStart" : 22,
            "type" : "image/png"
         }
      },
      {
         "when_comp_start" : -1,
         "url" : "http://original.testbed.localhost/static.bbci.co.uk/frameworks/barlesque/2.87.12/orb/4/img/orb-search-dark.png",
         "id" : "r13",
         "comps" : [],
         "download" : {
            "receiveFirst" : 59,
            "len" : 283,
            "dns" : 0,
            "dnsEnd" : -1,
            "receiveHeadersEnd" : 83,
            "sslEnd" : -1,
            "connectEnd" : 23,
            "connectStart" : 0,
            "id" : "download_11",
            "receivedTime" : "1114.50199999672",
            "sslStart" : -1,
            "dnsStart" : -1,
            "receiveLast" : 1031.50199999672,
            "s_time" : 859.695999999531,
            "sendEnd" : 24,
            "sendStart" : 23,
            "type" : "image/png"
         }
      },
      {
         "when_comp_start" : -1,
         "url" : "http://original.testbed.localhost/ichef.bbci.co.uk/wwhp/144/ibroadcast/images/live/p0/32/lk/p032lk40.jpg",
         "id" : "r14",
         "comps" : [],
         "download" : {
            "receiveFirst" : 50,
            "len" : 39057,
            "dns" : 0,
            "dnsEnd" : 26,
            "receiveHeadersEnd" : 84,
            "sslEnd" : -1,
            "connectEnd" : 34,
            "connectStart" : 0,
            "id" : "download_12",
            "receivedTime" : "2573.51699999708",
            "sslStart" : -1,
            "dnsStart" : 26,
            "receiveLast" : 2489.51699999708,
            "s_time" : 862.22799999814,
            "sendEnd" : 34,
            "sendStart" : 34,
            "type" : "image/jpeg"
         }
      },
      {
         "when_comp_start" : -1,
         "url" : "http://original.testbed.localhost/ichef.bbci.co.uk/wwhp/144/cpsprodpb/3BAC/production/_85567251_shaw-index-reu.jpg",
         "id" : "r15",
         "comps" : [],
         "download" : {
            "receiveFirst" : 125,
            "len" : 5707,
            "dns" : 1,
            "dnsEnd" : 28,
            "receiveHeadersEnd" : 159,
            "sslEnd" : -1,
            "connectEnd" : 33,
            "connectStart" : 0,
            "id" : "download_13",
            "receivedTime" : "1232.39099999773",
            "sslStart" : -1,
            "dnsStart" : 27,
            "receiveLast" : 1073.39099999773,
            "s_time" : 863.509999995586,
            "sendEnd" : 34,
            "sendStart" : 33,
            "type" : "image/jpeg"
         }
      },
      {
         "when_comp_start" : -1,
         "url" : "http://original.testbed.localhost/ichef.bbci.co.uk/wwhp/144/ibroadcast/images/live/p0/32/lr/p032lr54.jpg",
         "id" : "r16",
         "comps" : [],
         "download" : {
            "receiveFirst" : 248,
            "len" : 31283,
            "dns" : 0,
            "dnsEnd" : -1,
            "receiveHeadersEnd" : 319,
            "sslEnd" : -1,
            "connectEnd" : 71,
            "connectStart" : 0,
            "id" : "download_14",
            "receivedTime" : "2023.25399999972",
            "sslStart" : -1,
            "dnsStart" : -1,
            "receiveLast" : 1704.25399999972,
            "s_time" : 863.037000002805,
            "sendEnd" : 71,
            "sendStart" : 71,
            "type" : "image/jpeg"
         }
      },
      {
         "when_comp_start" : -1,
         "url" : "http://original.testbed.localhost/ichef.bbci.co.uk/wwhp/144/ibroadcast/images/live/p0/32/lv/p032lvxy.jpg",
         "id" : "r17",
         "comps" : [],
         "download" : {
            "receiveFirst" : 354,
            "len" : 32357,
            "dns" : 0,
            "dnsEnd" : -1,
            "receiveHeadersEnd" : 441,
            "sslEnd" : -1,
            "connectEnd" : 86,
            "connectStart" : 0,
            "id" : "download_15",
            "receivedTime" : "2127.19700000889",
            "sslStart" : -1,
            "dnsStart" : -1,
            "receiveLast" : 1686.19700000889,
            "s_time" : 864.958999998635,
            "sendEnd" : 87,
            "sendStart" : 86,
            "type" : "image/jpeg"
         }
      },
      {
         "when_comp_start" : -1,
         "url" : "http://original.testbed.localhost/ichef.bbci.co.uk/wwhp/144/ibroadcast/images/live/p0/30/6t/p0306t1y.jpg",
         "id" : "r18",
         "comps" : [],
         "download" : {
            "receiveFirst" : 520,
            "len" : 42238,
            "dns" : 0,
            "dnsEnd" : -1,
            "receiveHeadersEnd" : 609,
            "sslEnd" : -1,
            "connectEnd" : 89,
            "connectStart" : 0,
            "id" : "download_16",
            "receivedTime" : "2579.22400000098",
            "sslStart" : -1,
            "dnsStart" : -1,
            "receiveLast" : 1970.22400000098,
            "s_time" : 865.082000003895,
            "sendEnd" : 89,
            "sendStart" : 89,
            "type" : "image/jpeg"
         }
      },
      {
         "when_comp_start" : -1,
         "url" : "http://original.testbed.localhost/ichef.bbci.co.uk/wwhp/144/ibroadcast/images/live/p0/31/b1/p031b1pc.jpg",
         "id" : "r19",
         "comps" : [],
         "download" : {
            "receiveFirst" : 697,
            "len" : 30567,
            "dns" : 0,
            "dnsEnd" : -1,
            "receiveHeadersEnd" : 789,
            "sslEnd" : -1,
            "connectEnd" : 91,
            "connectStart" : 0,
            "id" : "download_17",
            "receivedTime" : "2397.70499999577",
            "sslStart" : -1,
            "dnsStart" : -1,
            "receiveLast" : 1608.70499999577,
            "s_time" : 868.239999996149,
            "sendEnd" : 92,
            "sendStart" : 91,
            "type" : "image/jpeg"
         }
      },
      {
         "when_comp_start" : -1,
         "url" : "http://original.testbed.localhost/static.bbci.co.uk/frameworks/barlesque/2.87.12/orb/4/img/orb-sprite.gif",
         "id" : "r23",
         "comps" : [],
         "download" : {
            "receiveFirst" : 755,
            "len" : 82,
            "dns" : 0,
            "dnsEnd" : -1,
            "receiveHeadersEnd" : 783,
            "sslEnd" : -1,
            "connectEnd" : 28,
            "connectStart" : 0,
            "id" : "download_18",
            "receivedTime" : "1979.24800000328",
            "sslStart" : -1,
            "dnsStart" : -1,
            "receiveLast" : 1196.24800000328,
            "s_time" : 1042.78600000544,
            "sendEnd" : 28,
            "sendStart" : 28,
            "type" : "image/gif"
         }
      },
      {
         "when_comp_start" : -1,
         "url" : "http://original.testbed.localhost/static.bbci.co.uk/wwhp/1.82.0/fonts/wwhp-icons.woff",
         "id" : "r20",
         "comps" : [],
         "download" : {
            "receiveFirst" : 577,
            "len" : 2636,
            "dns" : 0,
            "dnsEnd" : -1,
            "receiveHeadersEnd" : 592,
            "sslEnd" : -1,
            "connectEnd" : 15,
            "connectStart" : 0,
            "id" : "download_19",
            "receivedTime" : "2426.33100000967",
            "sslStart" : -1,
            "dnsStart" : -1,
            "receiveLast" : 1834.33100000967,
            "s_time" : 1814.3160000036,
            "sendEnd" : 15,
            "sendStart" : 15,
            "type" : "application/octet-stream"
         }
      },
      {
         "when_comp_start" : -1,
         "url" : "http://original.testbed.localhost/static.bbci.co.uk/weather/0.5.284/images/icons/individual_56_icons/en_on_light_bg/12.gif",
         "id" : "r25",
         "comps" : [],
         "download" : {
            "receiveFirst" : 449,
            "len" : 488,
            "dns" : 0,
            "dnsEnd" : -1,
            "receiveHeadersEnd" : 1296,
            "sslEnd" : -1,
            "connectEnd" : 846,
            "connectStart" : 0,
            "id" : "download_20",
            "receivedTime" : "2576.90400000138",
            "sslStart" : -1,
            "dnsStart" : -1,
            "receiveLast" : 1280.90400000138,
            "s_time" : 1156.76800000074,
            "sendEnd" : 847,
            "sendStart" : 846,
            "type" : "image/gif"
         }
      },
      {
         "when_comp_start" : -1,
         "url" : "http://original.testbed.localhost/static.bbci.co.uk/weather/0.5.284/images/icons/individual_56_icons/en_on_light_bg/15.gif",
         "id" : "r26",
         "comps" : [],
         "download" : {
            "receiveFirst" : 338,
            "len" : 542,
            "dns" : 0,
            "dnsEnd" : -1,
            "receiveHeadersEnd" : 1302,
            "sslEnd" : -1,
            "connectEnd" : 964,
            "connectStart" : 0,
            "id" : "download_21",
            "receivedTime" : "2578.125",
            "sslStart" : -1,
            "dnsStart" : -1,
            "receiveLast" : 1276.125,
            "s_time" : 1159.11900000356,
            "sendEnd" : 964,
            "sendStart" : 964,
            "type" : "image/gif"
         }
      },
      {
         "when_comp_start" : -1,
         "url" : "http://original.testbed.localhost/static.bbci.co.uk/weather/0.5.284/images/icons/individual_56_icons/en_on_light_bg/7.gif",
         "id" : "r27",
         "comps" : [],
         "download" : {
            "receiveFirst" : 85,
            "len" : 280,
            "dns" : 0,
            "dnsEnd" : -1,
            "receiveHeadersEnd" : 1322,
            "sslEnd" : -1,
            "connectEnd" : 1236,
            "connectStart" : 0,
            "id" : "download_22",
            "receivedTime" : "2580.50500000536",
            "sslStart" : -1,
            "dnsStart" : -1,
            "receiveLast" : 1258.50500000536,
            "s_time" : 1163.81900000852,
            "sendEnd" : 1237,
            "sendStart" : 1236,
            "type" : "image/gif"
         }
      },
      {
         "when_comp_start" : -1,
         "url" : "http://original.testbed.localhost/static.bbci.co.uk/weather/0.5.284/images/icons/individual_56_icons/en_on_light_bg/10.gif",
         "id" : "r28",
         "comps" : [],
         "download" : {
            "receiveFirst" : 65,
            "len" : 821,
            "dns" : 0,
            "dnsEnd" : -1,
            "receiveHeadersEnd" : 1326,
            "sslEnd" : -1,
            "connectEnd" : 1261,
            "connectStart" : 0,
            "id" : "download_23",
            "receivedTime" : "2581.63500000956",
            "sslStart" : -1,
            "dnsStart" : -1,
            "receiveLast" : 1255.63500000956,
            "s_time" : 1167.25199999928,
            "sendEnd" : 1261,
            "sendStart" : 1261,
            "type" : "image/gif"
         }
      }
   ],
   "deps" : [
      {
         "a2" : "r1_c2",
         "time" : -1,
         "id" : "dep1",
         "a1" : "comp_2"
      },
      {
         "a2" : "r1_c3",
         "time" : -1,
         "id" : "dep2",
         "a1" : "comp_7"
      },
      {
         "a2" : "r1_c4",
         "time" : -1,
         "id" : "dep3",
         "a1" : "comp_10"
      },
      {
         "a2" : "r1_c5",
         "time" : -1,
         "id" : "dep4",
         "a1" : "comp_13"
      },
      {
         "a2" : "r1_c6",
         "time" : -1,
         "id" : "dep5",
         "a1" : "comp_26"
      },
      {
         "a2" : "r1_c7",
         "time" : -1,
         "id" : "dep6",
         "a1" : "comp_127"
      },
      {
         "a2" : "comp_26",
         "time" : -1,
         "id" : "dep7",
         "a1" : "comp_25"
      },
      {
         "a2" : "download_23",
         "time" : -1,
         "id" : "dep8",
         "a1" : "r1_c6"
      },
      {
         "a2" : "download_22",
         "time" : 197.72400001239,
         "id" : "dep9",
         "a1" : "r1_c6"
      },
      {
         "a2" : "download_21",
         "time" : 193.02400000743,
         "id" : "dep10",
         "a1" : "r1_c6"
      },
      {
         "a2" : "download_20",
         "time" : 190.67300000461,
         "id" : "dep11",
         "a1" : "r1_c6"
      },
      {
         "a2" : "download_19",
         "time" : -1,
         "id" : "dep12",
         "a1" : "r1_c6"
      },
      {
         "a2" : "download_18",
         "time" : 76.69100000931,
         "id" : "dep13",
         "a1" : "r1_c6"
      },
      {
         "a2" : "download_17",
         "time" : -1,
         "id" : "dep14",
         "a1" : "r1_c5"
      },
      {
         "a2" : "download_16",
         "time" : 252.959999997984,
         "id" : "dep15",
         "a1" : "r1_c5"
      },
      {
         "a2" : "download_15",
         "time" : 252.836999992724,
         "id" : "dep16",
         "a1" : "r1_c5"
      },
      {
         "a2" : "download_14",
         "time" : 250.914999996894,
         "id" : "dep17",
         "a1" : "r1_c5"
      },
      {
         "a2" : "download_13",
         "time" : 251.387999989675,
         "id" : "dep18",
         "a1" : "r1_c5"
      },
      {
         "a2" : "download_12",
         "time" : 250.105999992229,
         "id" : "dep19",
         "a1" : "r1_c5"
      },
      {
         "a2" : "download_11",
         "time" : 247.57399999362,
         "id" : "dep20",
         "a1" : "r1_c5"
      },
      {
         "a2" : "download_10",
         "time" : 247.176999997464,
         "id" : "dep21",
         "a1" : "r1_c5"
      },
      {
         "a2" : "download_9",
         "time" : 245.605000003707,
         "id" : "dep22",
         "a1" : "r1_c5"
      },
      {
         "a2" : "download_8",
         "time" : 78.475000002072,
         "id" : "dep23",
         "a1" : "r1_c5"
      },
      {
         "a2" : "download_7",
         "time" : 56.853999994928,
         "id" : "dep24",
         "a1" : "r1_c5"
      },
      {
         "a2" : "download_6",
         "time" : 55.876999991597,
         "id" : "dep25",
         "a1" : "r1_c5"
      },
      {
         "a2" : "download_5",
         "time" : -1,
         "id" : "dep26",
         "a1" : "r1_c4"
      },
      {
         "a2" : "download_4",
         "time" : -1,
         "id" : "dep27",
         "a1" : "r1_c2"
      },
      {
         "a2" : "download_3",
         "time" : -1,
         "id" : "dep28",
         "a1" : "r1_c1"
      },
      {
         "a2" : "download_3",
         "time" : 15.778000000864,
         "id" : "dep29",
         "a1" : "r1_c1"
      },
      {
         "a2" : "download_2",
         "time" : 12.847999998485,
         "id" : "dep30",
         "a1" : "r1_c1"
      },
      {
         "a2" : "download_2",
         "time" : 12.847999998485,
         "id" : "dep31",
         "a1" : "r1_c1"
      },
      {
         "a2" : "download_1",
         "time" : 7.14099999459,
         "id" : "dep32",
         "a1" : "r1_c1"
      }
   ]
}
