{
   "n_download_no_trigger" : 1,
   "start_activity" : "download_0",
   "name" : "original.testbed.localhost_www.chron.com_",
   "load_activity" : -1,
   "objs" : [
      {
         "when_comp_start" : 1,
         "url" : "http://original.testbed.localhost/www.chron.com/",
         "id" : "r1",
         "comps" : [
            {
               "s_time" : 142.608000009204,
               "time" : -77586612.869,
               "id" : "r1_c1",
               "type" : "evalhtml",
               "e_time" : -77586470.261
            },
            {
               "s_time" : 258.331000004546,
               "time" : -77586728.592,
               "id" : "r1_c2",
               "type" : "evalhtml",
               "e_time" : -77586470.261
            },
            {
               "s_time" : 433.319000003394,
               "time" : -77586903.58,
               "id" : "r1_c3",
               "type" : "evalhtml",
               "e_time" : -77586470.261
            },
            {
               "s_time" : 596.862000005785,
               "time" : -77587067.123,
               "id" : "r1_c4",
               "type" : "evalhtml",
               "e_time" : -77586470.261
            },
            {
               "s_time" : 598.968000005698,
               "time" : -77587069.229,
               "id" : "r1_c5",
               "type" : "evalhtml",
               "e_time" : -77586470.261
            },
            {
               "s_time" : 708.099000010407,
               "time" : -77587178.36,
               "id" : "r1_c6",
               "type" : "evalhtml",
               "e_time" : -77586470.261
            },
            {
               "s_time" : 717.071000006399,
               "time" : -77587187.332,
               "id" : "r1_c7",
               "type" : "evalhtml",
               "e_time" : -77586470.261
            },
            {
               "s_time" : 811.859000008553,
               "time" : 536.590999996407,
               "id" : "r1_c8",
               "type" : "evalhtml",
               "e_time" : 1348.45000000496
            },
            {
               "s_time" : 2104.03400000359,
               "time" : 249.35900000856,
               "type" : "evalhtml",
               "id" : "r1_c9",
               "e_time" : 2353.39300001215
            }
         ],
         "download" : {
            "receiveFirst" : 14,
            "len" : 330301,
            "dns" : 0,
            "dnsEnd" : -1,
            "receiveHeadersEnd" : 23,
            "sslEnd" : -1,
            "connectEnd" : 9,
            "connectStart" : 0,
            "id" : "download_0",
            "receivedTime" : "456.848000001628",
            "sslStart" : -1,
            "dnsStart" : -1,
            "receiveLast" : 433.848000001628,
            "s_time" : 0,
            "sendEnd" : 9,
            "sendStart" : 9,
            "type" : "text/html"
         }
      },
      {
         "when_comp_start" : 1,
         "url" : "http://original.testbed.localhost/img/utils/rss_icon.png",
         "id" : "r115",
         "comps" : [],
         "download" : {
            "receiveFirst" : 129,
            "len" : 312,
            "dns" : 0,
            "dnsEnd" : -1,
            "receiveHeadersEnd" : 224,
            "sslEnd" : -1,
            "connectEnd" : 95,
            "connectStart" : 0,
            "id" : "download_1",
            "receivedTime" : "2101.53200000059",
            "sslStart" : -1,
            "dnsStart" : -1,
            "receiveLast" : 1877.53200000059,
            "s_time" : 1348.45000000496,
            "sendEnd" : 95,
            "sendStart" : 95,
            "type" : "text/html"
         }
      }
   ],
   "deps" : [
      {
         "a2" : "r1_c2",
         "time" : -1,
         "id" : "dep1",
         "a1" : "comp_17"
      },
      {
         "a2" : "r1_c3",
         "time" : -1,
         "id" : "dep2",
         "a1" : "comp_20"
      },
      {
         "a2" : "r1_c4",
         "time" : -1,
         "id" : "dep3",
         "a1" : "comp_28"
      },
      {
         "a2" : "r1_c5",
         "time" : -1,
         "id" : "dep4",
         "a1" : "comp_29"
      },
      {
         "a2" : "r1_c6",
         "time" : -1,
         "id" : "dep5",
         "a1" : "comp_32"
      },
      {
         "a2" : "r1_c7",
         "time" : -1,
         "id" : "dep6",
         "a1" : "comp_33"
      },
      {
         "a2" : "r1_c8",
         "time" : -1,
         "id" : "dep7",
         "a1" : "comp_35"
      },
      {
         "a2" : "r1_c9",
         "time" : -1,
         "id" : "dep8",
         "a1" : "comp_51"
      },
      {
         "a2" : "download_1",
         "time" : -1,
         "id" : "dep9",
         "a1" : "r1_c8"
      }
   ]
}
