{
   "n_download_no_trigger" : 1,
   "start_activity" : "download_0",
   "name" : "original.testbed.localhost_www.yahoo.co.jp_",
   "load_activity" : -1,
   "objs" : [
      {
         "when_comp_start" : 1,
         "url" : "http://original.testbed.localhost/www.yahoo.co.jp/",
         "id" : "r1",
         "comps" : [
            {
               "s_time" : 131.592000005185,
               "time" : 253.752999997232,
               "type" : "evalhtml",
               "id" : "r1_c1",
               "e_time" : 385.345000002417
            }
         ],
         "download" : {
            "receiveFirst" : 27,
            "len" : 18366,
            "dns" : 0,
            "dnsEnd" : -1,
            "receiveHeadersEnd" : 32,
            "sslEnd" : -1,
            "connectEnd" : 5,
            "connectStart" : 0,
            "id" : "download_0",
            "receivedTime" : "124.756999997771",
            "sslStart" : -1,
            "dnsStart" : -1,
            "receiveLast" : 92.7569999977713,
            "s_time" : 0,
            "sendEnd" : 5,
            "sendStart" : 5,
            "type" : "text/html"
         }
      },
      {
         "when_comp_start" : -1,
         "url" : "http://original.testbed.localhost/k.yimg.jp/images/clear.gif",
         "id" : "r2",
         "comps" : [],
         "download" : {
            "receiveFirst" : 8,
            "len" : 43,
            "dns" : 0,
            "dnsEnd" : -1,
            "receiveHeadersEnd" : 14,
            "sslEnd" : -1,
            "connectEnd" : 6,
            "connectStart" : 0,
            "id" : "download_1",
            "receivedTime" : "283.5699999996",
            "sslStart" : -1,
            "dnsStart" : -1,
            "receiveLast" : 269.5699999996,
            "s_time" : 140.626000007614,
            "sendEnd" : 6,
            "sendStart" : 6,
            "type" : "image/gif"
         }
      },
      {
         "when_comp_start" : -1,
         "url" : "http://original.testbed.localhost/k.yimg.jp/images/top/sp/cgrade/logo-mh-150217.gif",
         "id" : "r3",
         "comps" : [],
         "download" : {
            "receiveFirst" : 29,
            "len" : 6150,
            "dns" : 0,
            "dnsEnd" : -1,
            "receiveHeadersEnd" : 36,
            "sslEnd" : -1,
            "connectEnd" : 7,
            "connectStart" : 0,
            "id" : "download_2",
            "receivedTime" : "290.741999997408",
            "sslStart" : -1,
            "dnsStart" : -1,
            "receiveLast" : 254.741999997408,
            "s_time" : 141.983000008622,
            "sendEnd" : 7,
            "sendStart" : 7,
            "type" : "image/gif"
         }
      },
      {
         "when_comp_start" : -1,
         "url" : "http://original.testbed.localhost/k.yimg.jp/images/top/sp/cgrade/iconPhoto_150713.gif",
         "id" : "r4",
         "comps" : [],
         "download" : {
            "receiveFirst" : 96,
            "len" : 334,
            "dns" : 0,
            "dnsEnd" : -1,
            "receiveHeadersEnd" : 109,
            "sslEnd" : -1,
            "connectEnd" : 13,
            "connectStart" : 0,
            "id" : "download_3",
            "receivedTime" : "440.797000002931",
            "sslStart" : -1,
            "dnsStart" : -1,
            "receiveLast" : 331.797000002931,
            "s_time" : 156.754000010551,
            "sendEnd" : 13,
            "sendStart" : 13,
            "type" : "image/gif"
         }
      },
      {
         "when_comp_start" : -1,
         "url" : "http://original.testbed.localhost/k.yimg.jp/images/top/sp/cgrade/iconVideo_150713.gif",
         "id" : "r5",
         "comps" : [],
         "download" : {
            "receiveFirst" : 69,
            "len" : 183,
            "dns" : 0,
            "dnsEnd" : 15,
            "receiveHeadersEnd" : 114,
            "sslEnd" : -1,
            "connectEnd" : 45,
            "connectStart" : 0,
            "id" : "download_4",
            "receivedTime" : "443.085000006249",
            "sslStart" : -1,
            "dnsStart" : 15,
            "receiveLast" : 329.085000006249,
            "s_time" : 157.577999998466,
            "sendEnd" : 45,
            "sendStart" : 45,
            "type" : "image/gif"
         }
      },
      {
         "when_comp_start" : -1,
         "url" : "http://original.testbed.localhost/k.yimg.jp/images/top/sp/cgrade/iconNew_150713.gif",
         "id" : "r6",
         "comps" : [],
         "download" : {
            "receiveFirst" : 71,
            "len" : 362,
            "dns" : 0,
            "dnsEnd" : 17,
            "receiveHeadersEnd" : 116,
            "sslEnd" : -1,
            "connectEnd" : 45,
            "connectStart" : 0,
            "id" : "download_5",
            "receivedTime" : "443.970000007539",
            "sslStart" : -1,
            "dnsStart" : 17,
            "receiveLast" : 327.970000007539,
            "s_time" : 158.630999998422,
            "sendEnd" : 45,
            "sendStart" : 45,
            "type" : "image/gif"
         }
      },
      {
         "when_comp_start" : -1,
         "url" : "http://original.testbed.localhost/lpt.c.yimg.jp/im_siggyzZx0CopLHhz9FuOXc4CQA---x120-y120/amd/20150915-00000566-san-000-view.jpg",
         "id" : "r7",
         "comps" : [],
         "download" : {
            "receiveFirst" : 106,
            "len" : 5592,
            "dns" : 0,
            "dnsEnd" : 29,
            "receiveHeadersEnd" : 144,
            "sslEnd" : -1,
            "connectEnd" : 38,
            "connectStart" : 0,
            "id" : "download_6",
            "receivedTime" : "444.885999997496",
            "sslStart" : -1,
            "dnsStart" : 29,
            "receiveLast" : 300.885999997496,
            "s_time" : 166.459000000032,
            "sendEnd" : 38,
            "sendStart" : 38,
            "type" : "image/jpeg"
         }
      },
      {
         "when_comp_start" : -1,
         "url" : "http://original.testbed.localhost/k.yimg.jp/images/top/searchbox/s_w-140325.gif",
         "id" : "r8",
         "comps" : [],
         "download" : {
            "receiveFirst" : 89,
            "len" : 264,
            "dns" : 0,
            "dnsEnd" : -1,
            "receiveHeadersEnd" : 127,
            "sslEnd" : -1,
            "connectEnd" : 38,
            "connectStart" : 0,
            "id" : "download_7",
            "receivedTime" : "446.80900000094",
            "sslStart" : -1,
            "dnsStart" : -1,
            "receiveLast" : 319.80900000094,
            "s_time" : 239.624000008916,
            "sendEnd" : 38,
            "sendStart" : 38,
            "type" : "image/gif"
         }
      },
      {
         "when_comp_start" : -1,
         "url" : "http://original.testbed.localhost/k.yimg.jp/images/top/searchbox/s_i-140325.gif",
         "id" : "r9",
         "comps" : [],
         "download" : {
            "receiveFirst" : 83,
            "len" : 233,
            "dns" : 0,
            "dnsEnd" : 40,
            "receiveHeadersEnd" : 129,
            "sslEnd" : -1,
            "connectEnd" : 46,
            "connectStart" : 0,
            "id" : "download_8",
            "receivedTime" : "447.480000002543",
            "sslStart" : -1,
            "dnsStart" : 40,
            "receiveLast" : 318.480000002543,
            "s_time" : 240.541000006488,
            "sendEnd" : 46,
            "sendStart" : 46,
            "type" : "image/gif"
         }
      },
      {
         "when_comp_start" : -1,
         "url" : "http://original.testbed.localhost/k.yimg.jp/images/top/searchbox/s_m-140325.gif",
         "id" : "r10",
         "comps" : [],
         "download" : {
            "receiveFirst" : 74,
            "len" : 237,
            "dns" : 0,
            "dnsEnd" : -1,
            "receiveHeadersEnd" : 149,
            "sslEnd" : -1,
            "connectEnd" : 75,
            "connectStart" : 0,
            "id" : "download_9",
            "receivedTime" : "449.860000007902",
            "sslStart" : -1,
            "dnsStart" : -1,
            "receiveLast" : 300.860000007902,
            "s_time" : 241.471000001184,
            "sendEnd" : 75,
            "sendStart" : 75,
            "type" : "image/gif"
         }
      },
      {
         "when_comp_start" : -1,
         "url" : "http://original.testbed.localhost/k.yimg.jp/images/top/searchbox/s_d-140325.gif",
         "id" : "r11",
         "comps" : [],
         "download" : {
            "receiveFirst" : 71,
            "len" : 225,
            "dns" : 0,
            "dnsEnd" : -1,
            "receiveHeadersEnd" : 151,
            "sslEnd" : -1,
            "connectEnd" : 80,
            "connectStart" : 0,
            "id" : "download_10",
            "receivedTime" : "450.561999998172",
            "sslStart" : -1,
            "dnsStart" : -1,
            "receiveLast" : 299.561999998172,
            "s_time" : 242.387000005692,
            "sendEnd" : 80,
            "sendStart" : 80,
            "type" : "image/gif"
         }
      },
      {
         "when_comp_start" : -1,
         "url" : "http://original.testbed.localhost/k.yimg.jp/images/top/searchbox/s_k-140325.gif",
         "id" : "r12",
         "comps" : [],
         "download" : {
            "receiveFirst" : 70,
            "len" : 245,
            "dns" : 0,
            "dnsEnd" : -1,
            "receiveHeadersEnd" : 152,
            "sslEnd" : -1,
            "connectEnd" : 82,
            "connectStart" : 0,
            "id" : "download_11",
            "receivedTime" : "451.234000007389",
            "sslStart" : -1,
            "dnsStart" : -1,
            "receiveLast" : 299.234000007389,
            "s_time" : 243.226000005961,
            "sendEnd" : 82,
            "sendStart" : 82,
            "type" : "image/gif"
         }
      },
      {
         "when_comp_start" : -1,
         "url" : "http://original.testbed.localhost/k.yimg.jp/images/top/searchbox/s_mp-140325.gif",
         "id" : "r13",
         "comps" : [],
         "download" : {
            "receiveFirst" : 59,
            "len" : 237,
            "dns" : 0,
            "dnsEnd" : -1,
            "receiveHeadersEnd" : 171,
            "sslEnd" : -1,
            "connectEnd" : 112,
            "connectStart" : 0,
            "id" : "download_12",
            "receivedTime" : "453.309000004083",
            "sslStart" : -1,
            "dnsStart" : -1,
            "receiveLast" : 282.309000004083,
            "s_time" : 244.034000003012,
            "sendEnd" : 112,
            "sendStart" : 112,
            "type" : "image/gif"
         }
      },
      {
         "when_comp_start" : -1,
         "url" : "http://original.testbed.localhost/k.yimg.jp/images/top/sp/cgrade/pb_bg.gif",
         "id" : "r14",
         "comps" : [],
         "download" : {
            "receiveFirst" : 54,
            "len" : 94,
            "dns" : 0,
            "dnsEnd" : -1,
            "receiveHeadersEnd" : 127,
            "sslEnd" : -1,
            "connectEnd" : 73,
            "connectStart" : 0,
            "id" : "download_13",
            "receivedTime" : "488.465000002179",
            "sslStart" : -1,
            "dnsStart" : -1,
            "receiveLast" : 361.465000002179,
            "s_time" : 309.617000006256,
            "sendEnd" : 73,
            "sendStart" : 73,
            "type" : "image/gif"
         }
      },
      {
         "when_comp_start" : -1,
         "url" : "http://original.testbed.localhost/k.yimg.jp/images/top/sp/cgrade/info_btn-140325.gif",
         "id" : "r15",
         "comps" : [],
         "download" : {
            "receiveFirst" : 56,
            "len" : 229,
            "dns" : 0,
            "dnsEnd" : -1,
            "receiveHeadersEnd" : 128,
            "sslEnd" : -1,
            "connectEnd" : 72,
            "connectStart" : 0,
            "id" : "download_14",
            "receivedTime" : "489.654999997583",
            "sslStart" : -1,
            "dnsStart" : -1,
            "receiveLast" : 361.654999997583,
            "s_time" : 314.499000000069,
            "sendEnd" : 72,
            "sendStart" : 72,
            "type" : "image/gif"
         }
      },
      {
         "when_comp_start" : -1,
         "url" : "http://original.testbed.localhost/k.yimg.jp/images/top/sp/cgrade/iconMail.gif",
         "id" : "r16",
         "comps" : [],
         "download" : {
            "receiveFirst" : 52,
            "len" : 209,
            "dns" : 0,
            "dnsEnd" : -1,
            "receiveHeadersEnd" : 140,
            "sslEnd" : -1,
            "connectEnd" : 87,
            "connectStart" : 0,
            "id" : "download_15",
            "receivedTime" : "491.91399999836",
            "sslStart" : -1,
            "dnsStart" : -1,
            "receiveLast" : 351.91399999836,
            "s_time" : 319.367000003695,
            "sendEnd" : 88,
            "sendStart" : 87,
            "type" : "image/gif"
         }
      },
      {
         "when_comp_start" : -1,
         "url" : "http://original.testbed.localhost/k.yimg.jp/images/sicons/ybm161.gif",
         "id" : "r17",
         "comps" : [],
         "download" : {
            "receiveFirst" : 49,
            "len" : 282,
            "dns" : 0,
            "dnsEnd" : -1,
            "receiveHeadersEnd" : 106,
            "sslEnd" : -1,
            "connectEnd" : 57,
            "connectStart" : 0,
            "id" : "download_16",
            "receivedTime" : "492.645999998786",
            "sslStart" : -1,
            "dnsStart" : -1,
            "receiveLast" : 386.645999998786,
            "s_time" : 354.798000000301,
            "sendEnd" : 57,
            "sendStart" : 57,
            "type" : "image/gif"
         }
      },
      {
         "when_comp_start" : -1,
         "url" : "http://original.testbed.localhost/i.yimg.jp/images/sicons/box16.gif",
         "id" : "r18",
         "comps" : [],
         "download" : {
            "receiveFirst" : 44,
            "len" : 256,
            "dns" : 0,
            "dnsEnd" : -1,
            "receiveHeadersEnd" : 82,
            "sslEnd" : -1,
            "connectEnd" : 38,
            "connectStart" : 0,
            "id" : "download_17",
            "receivedTime" : "493.256000001566",
            "sslStart" : -1,
            "dnsStart" : -1,
            "receiveLast" : 411.256000001566,
            "s_time" : 381.485000005341,
            "sendEnd" : 38,
            "sendStart" : 38,
            "type" : "image/gif"
         }
      },
      {
         "when_comp_start" : -1,
         "url" : "http://original.testbed.localhost/k.yimg.jp/images/top/sp/cgrade/icon_point.gif",
         "id" : "r19",
         "comps" : [],
         "download" : {
            "receiveFirst" : 54,
            "len" : 100,
            "dns" : 0,
            "dnsEnd" : -1,
            "receiveHeadersEnd" : 102,
            "sslEnd" : -1,
            "connectEnd" : 48,
            "connectStart" : 0,
            "id" : "download_18",
            "receivedTime" : "505.921000003582",
            "sslStart" : -1,
            "dnsStart" : -1,
            "receiveLast" : 403.921000003582,
            "s_time" : 385.345000002417,
            "sendEnd" : 48,
            "sendStart" : 48,
            "type" : "image/gif"
         }
      }
   ],
   "deps" : [
      {
         "a2" : "download_18",
         "time" : -1,
         "id" : "dep1",
         "a1" : "r1_c1"
      },
      {
         "a2" : "download_17",
         "time" : 249.893000000156,
         "id" : "dep2",
         "a1" : "r1_c1"
      },
      {
         "a2" : "download_16",
         "time" : 223.205999995116,
         "id" : "dep3",
         "a1" : "r1_c1"
      },
      {
         "a2" : "download_15",
         "time" : 187.77499999851,
         "id" : "dep4",
         "a1" : "r1_c1"
      },
      {
         "a2" : "download_14",
         "time" : 182.906999994884,
         "id" : "dep5",
         "a1" : "r1_c1"
      },
      {
         "a2" : "download_13",
         "time" : 178.025000001071,
         "id" : "dep6",
         "a1" : "r1_c1"
      },
      {
         "a2" : "download_12",
         "time" : 112.441999997827,
         "id" : "dep7",
         "a1" : "r1_c1"
      },
      {
         "a2" : "download_11",
         "time" : 111.634000000776,
         "id" : "dep8",
         "a1" : "r1_c1"
      },
      {
         "a2" : "download_10",
         "time" : 110.795000000507,
         "id" : "dep9",
         "a1" : "r1_c1"
      },
      {
         "a2" : "download_9",
         "time" : 109.878999995999,
         "id" : "dep10",
         "a1" : "r1_c1"
      },
      {
         "a2" : "download_8",
         "time" : 108.949000001303,
         "id" : "dep11",
         "a1" : "r1_c1"
      },
      {
         "a2" : "download_7",
         "time" : 108.032000003731,
         "id" : "dep12",
         "a1" : "r1_c1"
      },
      {
         "a2" : "download_6",
         "time" : 34.866999994847,
         "id" : "dep13",
         "a1" : "r1_c1"
      },
      {
         "a2" : "download_5",
         "time" : 27.038999993237,
         "id" : "dep14",
         "a1" : "r1_c1"
      },
      {
         "a2" : "download_4",
         "time" : 25.985999993281,
         "id" : "dep15",
         "a1" : "r1_c1"
      },
      {
         "a2" : "download_3",
         "time" : 25.162000005366,
         "id" : "dep16",
         "a1" : "r1_c1"
      },
      {
         "a2" : "download_2",
         "time" : 10.391000003437,
         "id" : "dep17",
         "a1" : "r1_c1"
      },
      {
         "a2" : "download_1",
         "time" : 9.034000002429,
         "id" : "dep18",
         "a1" : "r1_c1"
      }
   ]
}
