{
   "load_activity" : -1,
   "name" : "cdn.krxd.net_partnerjs_xdi_proxy.22cee1c45b60e655c919130597160647.html#!kxsrc=http%3A%2F%2Fcdn.krxd.net%2Fcontroltag%3Fconfid%3DJDjkQwAo&kxtarget=http%3A%2F%2Foriginal.testbed.localhost",
   "deps" : [],
   "start_activity" : "download_0",
   "n_download_no_trigger" : 3,
   "objs" : [
      {
         "when_comp_start" : 1,
         "comps" : [
            {
               "id" : "r62_c1",
               "e_time" : 413.837000000058,
               "s_time" : 411.756000001333,
               "type" : "evalhtml",
               "time" : 2.08099999872502
            }
         ],
         "id" : "r62",
         "download" : {
            "sendEnd" : 0,
            "dnsEnd" : -1,
            "connectStart" : 0,
            "receiveHeadersEnd" : 401,
            "dns" : 0,
            "connectEnd" : 0,
            "s_time" : 0,
            "receiveLast" : 1.79200000804849,
            "id" : "download_0",
            "type" : "text/html",
            "sslStart" : -1,
            "receiveFirst" : 401,
            "sendStart" : 0,
            "sslEnd" : -1,
            "len" : 692,
            "receivedTime" : "402.792000008048",
            "dnsStart" : -1
         },
         "url" : "http://cdn.krxd.net/partnerjs/xdi/proxy.22cee1c45b60e655c919130597160647.html#!kxsrc=http%3A%2F%2Fcdn.krxd.net%2Fcontroltag%3Fconfid%3DJDjkQwAo&kxtarget=http%3A%2F%2Foriginal.testbed.localhost"
      },
      {
         "comps" : [],
         "when_comp_start" : -1,
         "id" : "r70",
         "url" : "http://bam.nr-data.net/1/41ccc492ef?a=8683266&v=943.9bd99bf&to=NlNUZhRWVkZVAUFdDA8Zc0oWRV1GRwhGGyQkYhkdTA%3D%3D&rst=4718&ref=http://original.testbed.localhost/www.newrepublic.com/&qt=16&ap=465.406174&be=226&fe=4273&dc=3148&tt=3021445cc952bc&af=err,xhr,stn,ins&perf=%7B%22timing%22:%7B%22of%22:1463291",
         "download" : {
            "type" : "text/javascript",
            "sslStart" : -1,
            "receiveFirst" : 147,
            "receivedTime" : "440.171000009286",
            "len" : 57,
            "dnsStart" : -1,
            "sslEnd" : -1,
            "sendStart" : 100,
            "receiveHeadersEnd" : 247,
            "connectEnd" : 100,
            "dns" : 0,
            "s_time" : 192.118000006303,
            "sendEnd" : 100,
            "dnsEnd" : -1,
            "connectStart" : 0,
            "receiveLast" : 193.171000009286,
            "id" : "download_1"
         }
      },
      {
         "id" : "r69",
         "comps" : [],
         "when_comp_start" : -1,
         "url" : "http://match.adsrvr.org/track/cmb/generic?ttd_pid=krux&ttd_tpi=1",
         "download" : {
            "receiveFirst" : 113,
            "sslStart" : -1,
            "type" : "image/gif",
            "receivedTime" : "444.048000004841",
            "len" : 70,
            "dnsStart" : -1,
            "sslEnd" : -1,
            "sendStart" : 0,
            "connectEnd" : 0,
            "dns" : 0,
            "s_time" : 326.79000000644,
            "receiveHeadersEnd" : 113,
            "dnsEnd" : -1,
            "connectStart" : 0,
            "sendEnd" : 0,
            "id" : "download_2",
            "receiveLast" : 331.048000004841
         }
      }
   ]
}
