{
   "objs" : [
      {
         "when_comp_start" : 1,
         "download" : {
            "sendEnd" : 0,
            "dns" : 0,
            "sslEnd" : -1,
            "dnsStart" : -1,
            "sslStart" : -1,
            "id" : "download_0",
            "len" : 131403,
            "receiveLast" : 100.406999997445,
            "receiveFirst" : 104,
            "receivedTime" : "204.406999997445",
            "s_time" : 0,
            "type" : "text/html",
            "receiveHeadersEnd" : 104,
            "connectStart" : 0,
            "dnsEnd" : -1,
            "connectEnd" : 0,
            "sendStart" : 0
         },
         "url" : "http://original.testbed.localhost/www.kidsfoni.com/",
         "id" : "r1",
         "comps" : [
            {
               "e_time" : -90446113.424,
               "id" : "r1_c1",
               "s_time" : 113.907999999356,
               "time" : -90446227.332,
               "type" : "evalhtml"
            },
            {
               "s_time" : 630.744000009145,
               "id" : "r1_c2",
               "e_time" : -90446113.424,
               "type" : "evalhtml",
               "time" : -90446744.168
            },
            {
               "e_time" : -90446113.424,
               "id" : "r1_c3",
               "s_time" : 631.053999997675,
               "type" : "evalhtml",
               "time" : -90446744.478
            },
            {
               "time" : -90446744.746,
               "type" : "evalhtml",
               "e_time" : -90446113.424,
               "id" : "r1_c4",
               "s_time" : 631.322000001092
            },
            {
               "time" : 0.320000006468035,
               "type" : "evalhtml",
               "id" : "r1_c5",
               "s_time" : 631.611000004341,
               "e_time" : 631.931000010809
            },
            {
               "time" : -90446745.42,
               "type" : "evalhtml",
               "e_time" : -90446113.424,
               "id" : "r1_c6",
               "s_time" : 631.996000010986
            },
            {
               "type" : "evalhtml",
               "time" : -90446826.622,
               "e_time" : -90446113.424,
               "id" : "r1_c7",
               "s_time" : 713.197999997647
            },
            {
               "s_time" : 734.840999997687,
               "id" : "r1_c8",
               "e_time" : -90446113.424,
               "time" : -90446848.265,
               "type" : "evalhtml"
            },
            {
               "type" : "evalhtml",
               "time" : 38.9200000063289,
               "s_time" : 735.138000003644,
               "id" : "r1_c9",
               "e_time" : 774.058000009973
            },
            {
               "type" : "evalhtml",
               "time" : -90446991.906,
               "id" : "r1_c10",
               "e_time" : -90446113.424,
               "s_time" : 878.482000000076
            },
            {
               "e_time" : -90446113.424,
               "id" : "r1_c11",
               "s_time" : 879.195000001346,
               "time" : -90446992.619,
               "type" : "evalhtml"
            },
            {
               "type" : "evalhtml",
               "time" : -90446992.667,
               "e_time" : -90446113.424,
               "id" : "r1_c12",
               "s_time" : 879.243000003044
            },
            {
               "time" : -90446992.706,
               "type" : "evalhtml",
               "e_time" : -90446113.424,
               "id" : "r1_c13",
               "s_time" : 879.28200000897
            },
            {
               "time" : -90446992.744,
               "type" : "evalhtml",
               "s_time" : 879.320000007283,
               "id" : "r1_c14",
               "e_time" : -90446113.424
            },
            {
               "type" : "evalhtml",
               "time" : 1756.44300000567,
               "e_time" : 2635.97600000503,
               "id" : "r1_c15",
               "s_time" : 879.532999999356
            },
            {
               "id" : "r1_c16",
               "e_time" : -90446113.424,
               "s_time" : 2835.75100000598,
               "type" : "evalhtml",
               "time" : -90448949.175
            },
            {
               "type" : "evalhtml",
               "time" : -90448949.549,
               "s_time" : 2836.12500000163,
               "id" : "r1_c17",
               "e_time" : -90446113.424
            },
            {
               "e_time" : -90446113.424,
               "id" : "r1_c18",
               "s_time" : 2836.44800000184,
               "time" : -90448949.872,
               "type" : "evalhtml"
            },
            {
               "e_time" : -90446113.424,
               "id" : "r1_c19",
               "s_time" : 2836.78700000746,
               "time" : -90448950.211,
               "type" : "evalhtml"
            },
            {
               "type" : "evalhtml",
               "time" : -90448950.585,
               "id" : "r1_c20",
               "s_time" : 2837.16100000311,
               "e_time" : -90446113.424
            },
            {
               "type" : "evalhtml",
               "time" : -90448950.995,
               "s_time" : 2837.57100001094,
               "id" : "r1_c21",
               "e_time" : -90446113.424
            },
            {
               "id" : "r1_c22",
               "e_time" : -90446113.424,
               "s_time" : 2841.35600000445,
               "type" : "evalhtml",
               "time" : -90448954.78
            },
            {
               "id" : "r1_c23",
               "e_time" : -90446113.424,
               "s_time" : 2841.45100000023,
               "type" : "evalhtml",
               "time" : -90448954.875
            },
            {
               "type" : "evalhtml",
               "time" : -90448955.186,
               "e_time" : -90446113.424,
               "id" : "r1_c24",
               "s_time" : 2841.76200001093
            },
            {
               "type" : "evalhtml",
               "time" : 262.97100000374,
               "s_time" : 2842.12800000387,
               "e_time" : 3105.09900000761,
               "id" : "r1_c25"
            }
         ]
      },
      {
         "comps" : [],
         "id" : "r30",
         "url" : "http://original.testbed.localhost/Themes/Kidsfoni_New_350/Content/images/logo.png",
         "when_comp_start" : 1,
         "download" : {
            "receivedTime" : "764.351000005263",
            "s_time" : 631.931000010809,
            "receiveFirst" : 101,
            "receiveLast" : 662.351000005263,
            "len" : 336,
            "id" : "download_1",
            "sslStart" : -1,
            "sslEnd" : -1,
            "dnsStart" : -1,
            "dns" : 0,
            "sendEnd" : 1,
            "sendStart" : 1,
            "connectEnd" : 1,
            "connectStart" : 0,
            "dnsEnd" : -1,
            "receiveHeadersEnd" : 102,
            "type" : "text/html"
         }
      },
      {
         "download" : {
            "receiveFirst" : 101,
            "receivedTime" : "2976.77400000975",
            "s_time" : 735.181000010925,
            "receiveLast" : 2773.77400000975,
            "len" : 631281,
            "dnsStart" : -1,
            "sslEnd" : -1,
            "id" : "download_2",
            "sslStart" : -1,
            "sendEnd" : 102,
            "dns" : 0,
            "connectEnd" : 102,
            "sendStart" : 102,
            "connectStart" : 0,
            "dnsEnd" : -1,
            "type" : "image/png",
            "receiveHeadersEnd" : 203
         },
         "when_comp_start" : -1,
         "url" : "http://kidsfoni.com/content/images/thumbs/0065298.png",
         "comps" : [],
         "id" : "r31"
      },
      {
         "comps" : [],
         "id" : "r32",
         "url" : "http://kidsfoni.com/content/images/thumbs/0065220.jpeg",
         "when_comp_start" : -1,
         "download" : {
            "receiveFirst" : 101,
            "s_time" : 735.376000011456,
            "receivedTime" : "2843.80200000305",
            "len" : 44363,
            "receiveLast" : 2640.80200000305,
            "dnsStart" : -1,
            "sslEnd" : -1,
            "sslStart" : -1,
            "id" : "download_3",
            "sendEnd" : 102,
            "dns" : 0,
            "connectEnd" : 102,
            "sendStart" : 102,
            "connectStart" : 0,
            "dnsEnd" : -1,
            "type" : "image/jpeg",
            "receiveHeadersEnd" : 203
         }
      },
      {
         "comps" : [],
         "id" : "r33",
         "when_comp_start" : -1,
         "download" : {
            "sslEnd" : -1,
            "dnsStart" : -1,
            "id" : "download_4",
            "sslStart" : -1,
            "sendEnd" : 102,
            "dns" : 0,
            "receiveFirst" : 102,
            "receivedTime" : "2974.96099999989",
            "s_time" : 735.525000010966,
            "receiveLast" : 2770.96099999989,
            "len" : 412119,
            "dnsEnd" : -1,
            "connectStart" : 0,
            "type" : "image/png",
            "receiveHeadersEnd" : 204,
            "connectEnd" : 102,
            "sendStart" : 102
         },
         "url" : "http://kidsfoni.com/content/images/thumbs/0065255.png"
      },
      {
         "url" : "http://kidsfoni.com/content/images/thumbs/0064978.png",
         "download" : {
            "sendEnd" : 102,
            "dns" : 0,
            "dnsStart" : -1,
            "sslEnd" : -1,
            "sslStart" : -1,
            "id" : "download_5",
            "len" : 1238881,
            "receiveLast" : 2898.10200000438,
            "receiveFirst" : 102,
            "receivedTime" : "3102.10200000438",
            "s_time" : 735.690000001341,
            "type" : "image/png",
            "receiveHeadersEnd" : 204,
            "dnsEnd" : -1,
            "connectStart" : 0,
            "connectEnd" : 102,
            "sendStart" : 102
         },
         "when_comp_start" : -1,
         "id" : "r34",
         "comps" : []
      },
      {
         "id" : "r36",
         "comps" : [],
         "download" : {
            "receiveHeadersEnd" : 207,
            "type" : "image/png",
            "connectStart" : 0,
            "dnsEnd" : -1,
            "sendStart" : 102,
            "connectEnd" : 102,
            "dns" : 0,
            "sendEnd" : 102,
            "sslStart" : -1,
            "id" : "download_6",
            "dnsStart" : -1,
            "sslEnd" : -1,
            "len" : 144597,
            "receiveLast" : 2647.99100000015,
            "receivedTime" : "2854.99100000015",
            "s_time" : 735.968000008143,
            "receiveFirst" : 105
         },
         "when_comp_start" : -1,
         "url" : "http://kidsfoni.com/content/images/thumbs/0065259_viasea-tema-parkta-gunluk-sinirsiz-giris-49-tl_304.png"
      },
      {
         "download" : {
            "receiveLast" : 775.44300001068,
            "len" : 27576,
            "s_time" : 774.058000009973,
            "receivedTime" : "977.44300001068",
            "receiveFirst" : 100,
            "dns" : 0,
            "sendEnd" : 102,
            "id" : "download_7",
            "sslStart" : -1,
            "sslEnd" : -1,
            "dnsStart" : -1,
            "sendStart" : 102,
            "connectEnd" : 102,
            "receiveHeadersEnd" : 202,
            "type" : "text/javascript",
            "dnsEnd" : -1,
            "connectStart" : 0
         },
         "when_comp_start" : -1,
         "url" : "http://www.google-analytics.com/analytics.js",
         "id" : "r77",
         "comps" : [
            {
               "e_time" : 2835.34000000509,
               "id" : "comp_61",
               "s_time" : 977.599999998347,
               "type" : 2,
               "time" : 1857.74000000674
            }
         ]
      },
      {
         "download" : {
            "connectEnd" : 100,
            "sendStart" : 100,
            "connectStart" : 0,
            "dnsEnd" : -1,
            "type" : "application/x-javascript",
            "receiveHeadersEnd" : 250,
            "receiveFirst" : 150,
            "receivedTime" : "2847.27700000803",
            "s_time" : 748.348000008264,
            "receiveLast" : 2597.27700000803,
            "len" : 186350,
            "sslEnd" : -1,
            "dnsStart" : -1,
            "id" : "download_8",
            "sslStart" : -1,
            "sendEnd" : 100,
            "dns" : 0
         },
         "when_comp_start" : -1,
         "url" : "http://connect.facebook.net/tr_TR/sdk.js#xfbml=1&version=v2.4&appId=1642719142676378",
         "id" : "r49",
         "comps" : []
      },
      {
         "comps" : [
            {
               "type" : null,
               "time" : 104.0490000014,
               "e_time" : 3096.76500000933,
               "s_time" : 2992.71600000793,
               "id" : "comp_149"
            },
            {
               "type" : null,
               "time" : 103.80799999985,
               "e_time" : 3357.94500001066,
               "s_time" : 3254.13700001081,
               "id" : "comp_164"
            }
         ],
         "id" : "r48",
         "when_comp_start" : -1,
         "download" : {
            "dnsStart" : -1,
            "sslEnd" : 320,
            "sslStart" : 205,
            "id" : "download_9",
            "sendEnd" : 321,
            "dns" : 0,
            "receiveFirst" : 104,
            "receivedTime" : "2978.58900000574",
            "s_time" : 747.774000003119,
            "len" : 915684,
            "receiveLast" : 2553.58900000574,
            "connectStart" : 0,
            "dnsEnd" : -1,
            "type" : "application/javascript",
            "receiveHeadersEnd" : 425,
            "connectEnd" : 321,
            "sendStart" : 321
         },
         "url" : "https://assets.zendesk.com/embeddable_framework/main.js"
      },
      {
         "comps" : [],
         "id" : "r35",
         "when_comp_start" : 1,
         "download" : {
            "dnsStart" : -1,
            "sslEnd" : -1,
            "id" : "download_10",
            "sslStart" : -1,
            "sendEnd" : 102,
            "dns" : 0,
            "receiveFirst" : 375,
            "receivedTime" : "2847.76299999794",
            "s_time" : 735.839000000851,
            "receiveLast" : 2370.76299999794,
            "len" : 1245,
            "connectStart" : 0,
            "dnsEnd" : -1,
            "type" : "text/html",
            "receiveHeadersEnd" : 477,
            "connectEnd" : 102,
            "sendStart" : 102
         },
         "url" : "http://kidsfoni.com/content/images/thumbs/0065141_dunyanin-1-numarali-cocuk-cumhuriyeti-kidzaniaya-cocuk-giris-bileti-80-tl-yerine-49-tl_304.png"
      },
      {
         "id" : "r37",
         "comps" : [],
         "download" : {
            "sslEnd" : -1,
            "dnsStart" : -1,
            "sslStart" : -1,
            "id" : "download_11",
            "sendEnd" : 405,
            "dns" : 0,
            "receiveFirst" : 104,
            "receivedTime" : "2867.97900000238",
            "s_time" : 736.109999998007,
            "len" : 155710,
            "receiveLast" : 2358.97900000238,
            "dnsEnd" : -1,
            "connectStart" : 0,
            "type" : "image/png",
            "receiveHeadersEnd" : 509,
            "connectEnd" : 405,
            "sendStart" : 405
         },
         "when_comp_start" : -1,
         "url" : "http://kidsfoni.com/content/images/thumbs/0065106_sealife-akvaryum-biletleri-31-tl-yerine-1850-tl_304.png"
      },
      {
         "id" : "r41",
         "comps" : [],
         "download" : {
            "receiveHeadersEnd" : 173,
            "type" : "image/png",
            "connectStart" : 0,
            "dnsEnd" : -1,
            "sendStart" : 72,
            "connectEnd" : 72,
            "dns" : 0,
            "sendEnd" : 72,
            "sslStart" : -1,
            "id" : "download_12",
            "sslEnd" : -1,
            "dnsStart" : -1,
            "len" : 117915,
            "receiveLast" : 2700.01900000602,
            "receivedTime" : "2873.01900000602",
            "s_time" : 1141.21300000988,
            "receiveFirst" : 101
         },
         "when_comp_start" : -1,
         "url" : "http://kidsfoni.com/content/images/thumbs/0065252_ates-bizi-cagiriyor-ozel-kamp-kampanyasi_304.png"
      },
      {
         "url" : "http://kidsfoni.com/content/images/thumbs/0065182_xtrem-aventuresin-bahara-ozel-kampanyasi-ile-20-tlden-baslayan-fiyatlar_304.png",
         "when_comp_start" : -1,
         "download" : {
            "receiveLast" : 2684.19199999829,
            "len" : 157184,
            "receiveFirst" : 124,
            "receivedTime" : "2869.19199999829",
            "s_time" : 1213.5580000031,
            "sendEnd" : 61,
            "dns" : 0,
            "sslEnd" : -1,
            "dnsStart" : -1,
            "id" : "download_13",
            "sslStart" : -1,
            "connectEnd" : 61,
            "sendStart" : 61,
            "type" : "image/png",
            "receiveHeadersEnd" : 185,
            "dnsEnd" : -1,
            "connectStart" : 0
         },
         "comps" : [],
         "id" : "r42"
      },
      {
         "id" : "r43",
         "comps" : [],
         "when_comp_start" : -1,
         "download" : {
            "sendStart" : 179,
            "connectEnd" : 179,
            "receiveHeadersEnd" : 280,
            "type" : "image/jpeg",
            "connectStart" : 0,
            "dnsEnd" : -1,
            "receiveLast" : 2590.66300000879,
            "len" : 14873,
            "receivedTime" : "2870.66300000879",
            "s_time" : 1274.62100000412,
            "receiveFirst" : 101,
            "dns" : 0,
            "sendEnd" : 179,
            "id" : "download_14",
            "sslStart" : -1,
            "dnsStart" : -1,
            "sslEnd" : -1
         },
         "url" : "http://kidsfoni.com/content/images/thumbs/0065058_stanbul-kelebek-ciftliginde-kelebeklerle-tanisma-20-tlden-baslayan-fiyatlarla_304.jpeg"
      },
      {
         "comps" : [],
         "id" : "r44",
         "when_comp_start" : -1,
         "download" : {
            "receivedTime" : "2872.66100000124",
            "s_time" : 1454.06400000502,
            "receiveFirst" : 101,
            "receiveLast" : 2721.66100000124,
            "len" : 93767,
            "id" : "download_15",
            "sslStart" : -1,
            "sslEnd" : -1,
            "dnsStart" : -1,
            "dns" : 0,
            "sendEnd" : 50,
            "sendStart" : 50,
            "connectEnd" : 50,
            "connectStart" : 0,
            "dnsEnd" : -1,
            "receiveHeadersEnd" : 151,
            "type" : "image/png"
         },
         "url" : "http://kidsfoni.com/content/images/thumbs/0065286_the-zone-maslakta-cocuklar-icin-hem-eglenceli-hem-egitici-aktiviteler-30-tlden-baslayan-fiyatlarla_304.png"
      },
      {
         "when_comp_start" : -1,
         "download" : {
            "type" : "image/png",
            "receiveHeadersEnd" : 153,
            "connectStart" : 0,
            "dnsEnd" : -1,
            "connectEnd" : 52,
            "sendStart" : 52,
            "sendEnd" : 52,
            "dns" : 0,
            "sslEnd" : -1,
            "dnsStart" : -1,
            "id" : "download_16",
            "sslStart" : -1,
            "receiveLast" : 2723.0670000047,
            "len" : 153416,
            "receiveFirst" : 101,
            "receivedTime" : "2876.0670000047",
            "s_time" : 1504.0580000059
         },
         "url" : "http://kidsfoni.com/content/images/thumbs/0063979_funloft-oyun-makineleri-veya-playground_304.png",
         "comps" : [],
         "id" : "r45"
      },
      {
         "when_comp_start" : -1,
         "download" : {
            "len" : 152904,
            "receiveLast" : 2724.85700000031,
            "receiveFirst" : 100,
            "s_time" : 1556.14300000889,
            "receivedTime" : "2881.85700000031",
            "sendEnd" : 57,
            "dns" : 0,
            "dnsStart" : -1,
            "sslEnd" : -1,
            "sslStart" : -1,
            "id" : "download_17",
            "connectEnd" : 57,
            "sendStart" : 57,
            "type" : "image/png",
            "receiveHeadersEnd" : 157,
            "connectStart" : 0,
            "dnsEnd" : -1
         },
         "url" : "http://kidsfoni.com/content/images/thumbs/0065225_halat-by-divandan-ailece-pazar-keyfi-acik-bufe-kahvalti-sonrasi-muze-gezisi-paketi-32-tlden-baslayan_304.png",
         "id" : "r46",
         "comps" : []
      },
      {
         "id" : "r47",
         "comps" : [],
         "when_comp_start" : -1,
         "download" : {
            "type" : "image/jpeg",
            "receiveHeadersEnd" : 112,
            "dnsEnd" : -1,
            "connectStart" : 0,
            "connectEnd" : 3,
            "sendStart" : 3,
            "sendEnd" : 3,
            "dns" : 0,
            "dnsStart" : -1,
            "sslEnd" : -1,
            "id" : "download_18",
            "sslStart" : -1,
            "receiveLast" : 2767.3880000012,
            "len" : 17491,
            "receiveFirst" : 109,
            "receivedTime" : "2879.3880000012",
            "s_time" : 1612.88900001091
         },
         "url" : "http://kidsfoni.com/content/images/thumbs/0065304_kidsfonide-lk-kez-gunluk-bakim-hizmeti_304.jpeg"
      },
      {
         "url" : "http://kidsfoni.com/content/images/thumbs/0065186_kozyatagi-med-akademiden-alaninda-uzman-egitmenler-esliginde-cocuklar-ve-yetiskinler-icin-lk-yardim-_304.png",
         "when_comp_start" : -1,
         "download" : {
            "receiveFirst" : 101,
            "receivedTime" : "2881.59600000654",
            "s_time" : 1615.91600000975,
            "receiveLast" : 2726.59600000654,
            "len" : 117955,
            "sslEnd" : -1,
            "dnsStart" : -1,
            "id" : "download_19",
            "sslStart" : -1,
            "sendEnd" : 54,
            "dns" : 0,
            "connectEnd" : 54,
            "sendStart" : 54,
            "dnsEnd" : -1,
            "connectStart" : 0,
            "type" : "image/png",
            "receiveHeadersEnd" : 155
         },
         "comps" : [],
         "id" : "r50"
      },
      {
         "url" : "http://kidsfoni.com/content/images/thumbs/0065192_sutisten-baby-shower-ve-1-3-yas-dogum-gunu-paketleri-sadece-cengelkoy-subesi-icin-gecerlidir_304.png",
         "download" : {
            "connectEnd" : 57,
            "sendStart" : 57,
            "dnsEnd" : -1,
            "connectStart" : 0,
            "type" : "image/png",
            "receiveHeadersEnd" : 158,
            "receiveFirst" : 101,
            "receivedTime" : "2885.06400000188",
            "s_time" : 1669.72000000533,
            "len" : 169122,
            "receiveLast" : 2727.06400000188,
            "dnsStart" : -1,
            "sslEnd" : -1,
            "sslStart" : -1,
            "id" : "download_20",
            "sendEnd" : 57,
            "dns" : 0
         },
         "when_comp_start" : -1,
         "id" : "r51",
         "comps" : []
      },
      {
         "comps" : [],
         "id" : "r52",
         "when_comp_start" : -1,
         "download" : {
            "sslEnd" : -1,
            "dnsStart" : -1,
            "sslStart" : -1,
            "id" : "download_21",
            "sendEnd" : 53,
            "dns" : 0,
            "receiveFirst" : 101,
            "receivedTime" : "2885.20000000426",
            "s_time" : 1727.20100000151,
            "len" : 19528,
            "receiveLast" : 2731.20000000426,
            "dnsEnd" : -1,
            "connectStart" : 0,
            "type" : "image/jpeg",
            "receiveHeadersEnd" : 154,
            "connectEnd" : 53,
            "sendStart" : 53
         },
         "url" : "http://kidsfoni.com/content/images/thumbs/0064974_su-sagliktir-swimbabyde-bebekler-icin-su-aktivitesi-deneme-dersi-130-tl-yerine-118-tl_304.jpeg"
      },
      {
         "url" : "http://kidsfoni.com/content/images/thumbs/0064987_okay-temiz-ritim-atolyesi-ebeveyncocuk-aylik-toplam-4ders-ritim-kursu-290-tl-yerine-225-tl_304.jpeg",
         "when_comp_start" : -1,
         "download" : {
            "sendStart" : 35,
            "connectEnd" : 35,
            "receiveHeadersEnd" : 135,
            "type" : "image/jpeg",
            "dnsEnd" : -1,
            "connectStart" : 0,
            "receiveLast" : 2749.42899999791,
            "len" : 17244,
            "s_time" : 1780.28400000767,
            "receivedTime" : "2884.42899999791",
            "receiveFirst" : 100,
            "dns" : 0,
            "sendEnd" : 35,
            "id" : "download_22",
            "sslStart" : -1,
            "sslEnd" : -1,
            "dnsStart" : -1
         },
         "id" : "r53",
         "comps" : []
      },
      {
         "comps" : [],
         "id" : "r54",
         "url" : "http://kidsfoni.com/content/images/thumbs/0063988_stanbul-kids-clubdan-ngilizce-yuzme-jimnastik-kurslarinda-4-ders-120tlden-baslayan-indirimli-fiyatla_304.png",
         "when_comp_start" : -1,
         "download" : {
            "receiveLast" : 2686.08500000252,
            "len" : 153913,
            "receiveFirst" : 101,
            "receivedTime" : "2889.08500000252",
            "s_time" : 1814.85400001111,
            "sendEnd" : 102,
            "dns" : 0,
            "dnsStart" : -1,
            "sslEnd" : -1,
            "id" : "download_23",
            "sslStart" : -1,
            "connectEnd" : 102,
            "sendStart" : 102,
            "type" : "image/png",
            "receiveHeadersEnd" : 203,
            "connectStart" : 0,
            "dnsEnd" : -1
         }
      },
      {
         "url" : "http://kidsfoni.com/content/images/thumbs/0064686_exclusive-bogaz-turu-ile-bambaska-bir-dogum-gunu-850-tlden-baslayan-fiyatlarla_304.jpeg",
         "download" : {
            "connectStart" : 0,
            "dnsEnd" : -1,
            "type" : "image/jpeg",
            "receiveHeadersEnd" : 116,
            "connectEnd" : 15,
            "sendStart" : 15,
            "dnsStart" : -1,
            "sslEnd" : -1,
            "id" : "download_24",
            "sslStart" : -1,
            "sendEnd" : 15,
            "dns" : 0,
            "receiveFirst" : 101,
            "s_time" : 1917.04800000298,
            "receivedTime" : "2888.36300000548",
            "receiveLast" : 2772.36300000548,
            "len" : 19237
         },
         "when_comp_start" : -1,
         "comps" : [],
         "id" : "r55"
      },
      {
         "comps" : [],
         "id" : "r56",
         "url" : "http://kidsfoni.com/content/images/thumbs/0064985_minikler-icin-12-derslik-satranc-kursu-kovan-spor-kulturunde-300-tl-tek-derslik-fiyati-80-tl_304.jpeg",
         "when_comp_start" : -1,
         "download" : {
            "dnsEnd" : -1,
            "connectStart" : 0,
            "type" : "image/jpeg",
            "receiveHeadersEnd" : 151,
            "connectEnd" : 50,
            "sendStart" : 50,
            "sslEnd" : -1,
            "dnsStart" : -1,
            "sslStart" : -1,
            "id" : "download_25",
            "sendEnd" : 50,
            "dns" : 0,
            "receiveFirst" : 101,
            "receivedTime" : "2888.94299999811",
            "s_time" : 1932.52000000211,
            "len" : 19776,
            "receiveLast" : 2737.94299999811
         }
      },
      {
         "when_comp_start" : -1,
         "download" : {
            "connectStart" : 0,
            "dnsEnd" : -1,
            "type" : "image/jpeg",
            "receiveHeadersEnd" : 153,
            "connectEnd" : 52,
            "sendStart" : 52,
            "sslEnd" : -1,
            "dnsStart" : -1,
            "sslStart" : -1,
            "id" : "download_26",
            "sendEnd" : 52,
            "dns" : 0,
            "receiveFirst" : 101,
            "s_time" : 1982.70800001046,
            "receivedTime" : "2889.59000000614",
            "len" : 12346,
            "receiveLast" : 2736.59000000614
         },
         "url" : "http://kidsfoni.com/content/images/thumbs/0064546_atasehir-asia-city-hotelde-tatli-surprizler-10-16-yas-karaoke-etkinligi-kisi-basi-118-tl-hamburger-m_304.jpeg",
         "id" : "r57",
         "comps" : []
      },
      {
         "comps" : [],
         "id" : "r58",
         "url" : "http://kidsfoni.com/content/images/thumbs/0064979_atolye-fulden-cocuklar-icin-cikolata-yapimi-atolyesi-100-tl-yerine-39-tl_304.jpeg",
         "when_comp_start" : -1,
         "download" : {
            "connectStart" : 0,
            "dnsEnd" : -1,
            "receiveHeadersEnd" : 151,
            "type" : "image/jpeg",
            "sendStart" : 50,
            "connectEnd" : 50,
            "id" : "download_27",
            "sslStart" : -1,
            "dnsStart" : -1,
            "sslEnd" : -1,
            "dns" : 0,
            "sendEnd" : 50,
            "receivedTime" : "2890.11900000332",
            "s_time" : 2034.85700000601,
            "receiveFirst" : 101,
            "receiveLast" : 2739.11900000332,
            "len" : 21980
         }
      },
      {
         "comps" : [],
         "id" : "r59",
         "when_comp_start" : -1,
         "download" : {
            "sendStart" : 33,
            "connectEnd" : 33,
            "receiveHeadersEnd" : 134,
            "type" : "image/jpeg",
            "dnsEnd" : -1,
            "connectStart" : 0,
            "len" : 17032,
            "receiveLast" : 2756.51199999813,
            "receivedTime" : "2890.51199999813",
            "s_time" : 2085.05500000319,
            "receiveFirst" : 101,
            "dns" : 0,
            "sendEnd" : 33,
            "sslStart" : -1,
            "id" : "download_28",
            "sslEnd" : -1,
            "dnsStart" : -1
         },
         "url" : "http://kidsfoni.com/content/images/thumbs/0063782_stanbul-kumpanyasi-2015-2016-sezonu-cocuk-ve-yetiskin-oyunlarina-kombine-giris-biletleri-225-tl-yeri_304.jpeg"
      },
      {
         "comps" : [],
         "id" : "r60",
         "download" : {
            "len" : 26295,
            "receiveLast" : 2772.1550000048,
            "receivedTime" : "2891.1550000048",
            "s_time" : 2118.16500000714,
            "receiveFirst" : 101,
            "dns" : 0,
            "sendEnd" : 18,
            "sslStart" : -1,
            "id" : "download_29",
            "sslEnd" : -1,
            "dnsStart" : -1,
            "sendStart" : 18,
            "connectEnd" : 18,
            "receiveHeadersEnd" : 119,
            "type" : "image/jpeg",
            "connectStart" : 0,
            "dnsEnd" : -1
         },
         "when_comp_start" : -1,
         "url" : "http://kidsfoni.com/content/images/thumbs/0065095_son-dakika-dogum-gunu-partileri-bubblevents-parti-evinde-sadece-900-tl_304.jpeg"
      },
      {
         "comps" : [],
         "id" : "r61",
         "when_comp_start" : -1,
         "download" : {
            "connectEnd" : 51,
            "sendStart" : 51,
            "type" : "image/jpeg",
            "receiveHeadersEnd" : 152,
            "connectStart" : 0,
            "dnsEnd" : -1,
            "len" : 25346,
            "receiveLast" : 2739.84700000624,
            "receiveFirst" : 101,
            "s_time" : 2136.6560000024,
            "receivedTime" : "2891.84700000624",
            "sendEnd" : 51,
            "dns" : 0,
            "dnsStart" : -1,
            "sslEnd" : -1,
            "sslStart" : -1,
            "id" : "download_30"
         },
         "url" : "http://kidsfoni.com/content/images/thumbs/0064970_darussafaka-norse-spor-tesisleri-fethi-oztoprak-yuzme-okulu-ozel-ve-grup-dersleri-80-tlden-baslayan-_304.jpeg"
      },
      {
         "comps" : [],
         "id" : "r62",
         "url" : "http://kidsfoni.com/content/images/thumbs/0064946_hibricker-ile-cocugunuzla-beraber-istediginiz-binayi-yapabilirsiniz-ustelik-8990-tlden-baslayan-fiya_304.jpeg",
         "when_comp_start" : -1,
         "download" : {
            "sendStart" : 33,
            "connectEnd" : 33,
            "receiveHeadersEnd" : 133,
            "type" : "image/jpeg",
            "dnsEnd" : -1,
            "connectStart" : 0,
            "receiveLast" : 2759.30900000257,
            "len" : 11312,
            "receivedTime" : "2892.30900000257",
            "s_time" : 2187.73800000781,
            "receiveFirst" : 100,
            "dns" : 0,
            "sendEnd" : 33,
            "id" : "download_31",
            "sslStart" : -1,
            "dnsStart" : -1,
            "sslEnd" : -1
         }
      },
      {
         "id" : "r63",
         "comps" : [],
         "when_comp_start" : -1,
         "download" : {
            "receiveHeadersEnd" : 119,
            "type" : "image/jpeg",
            "dnsEnd" : -1,
            "connectStart" : 0,
            "sendStart" : 19,
            "connectEnd" : 19,
            "dns" : 0,
            "sendEnd" : 19,
            "id" : "download_32",
            "sslStart" : -1,
            "dnsStart" : -1,
            "sslEnd" : -1,
            "receiveLast" : 2773.67200000177,
            "len" : 10276,
            "receivedTime" : "2892.67200000177",
            "s_time" : 2220.46599999885,
            "receiveFirst" : 100
         },
         "url" : "http://kidsfoni.com/content/images/thumbs/0064947_magic-nuudles-activity-hayal-gucu-bloklari-2490-yerine-1990-tlden-baslayan-fiyatlarla_304.jpeg"
      },
      {
         "when_comp_start" : -1,
         "download" : {
            "dns" : 0,
            "sendEnd" : 51,
            "sslStart" : -1,
            "id" : "download_33",
            "sslEnd" : -1,
            "dnsStart" : -1,
            "len" : 202233,
            "receiveLast" : 2744.96300000651,
            "receivedTime" : "2896.96300000651",
            "s_time" : 2239.45600001025,
            "receiveFirst" : 101,
            "receiveHeadersEnd" : 152,
            "type" : "image/png",
            "dnsEnd" : -1,
            "connectStart" : 0,
            "sendStart" : 51,
            "connectEnd" : 51
         },
         "url" : "http://kidsfoni.com/content/images/thumbs/0065069_aslan-ile-fare-kurnaz-tilkiye-karsi-cocuk-oyunu-23-nisan-2016-cumartesi-saat-1500de-torium-avmde-25-_304.png",
         "comps" : [],
         "id" : "r64"
      },
      {
         "id" : "r65",
         "comps" : [],
         "download" : {
            "sendStart" : 31,
            "connectEnd" : 31,
            "receiveHeadersEnd" : 132,
            "type" : "image/jpeg",
            "dnsEnd" : -1,
            "connectStart" : 0,
            "len" : 13412,
            "receiveLast" : 2763.60100001108,
            "receivedTime" : "2895.60100001108",
            "s_time" : 2290.73500000231,
            "receiveFirst" : 101,
            "dns" : 0,
            "sendEnd" : 31,
            "sslStart" : -1,
            "id" : "download_34",
            "dnsStart" : -1,
            "sslEnd" : -1
         },
         "when_comp_start" : -1,
         "url" : "http://kidsfoni.com/content/images/thumbs/0065096_nar-party-evinden-eglenceli-oyunlarla-dolu-baby-shower-partisi-1450-tl-yerine-1300-tl_304.jpeg"
      },
      {
         "url" : "http://kidsfoni.com/content/images/thumbs/0064976_gymboree-playlearn-muzik-ve-sanat-derslerinde-12-ders-1200-tlden-baslayan-fiyatlarla-ustelik-2-ders-_304.jpeg",
         "when_comp_start" : -1,
         "download" : {
            "type" : "image/jpeg",
            "receiveHeadersEnd" : 119,
            "dnsEnd" : -1,
            "connectStart" : 0,
            "connectEnd" : 18,
            "sendStart" : 18,
            "sendEnd" : 19,
            "dns" : 0,
            "dnsStart" : -1,
            "sslEnd" : -1,
            "id" : "download_35",
            "sslStart" : -1,
            "receiveLast" : 2777.22799999779,
            "len" : 25811,
            "receiveFirst" : 100,
            "receivedTime" : "2896.22799999779",
            "s_time" : 2322.20100000268
         },
         "id" : "r66",
         "comps" : []
      },
      {
         "url" : "http://kidsfoni.com/content/images/thumbs/0064317_kovan-spor-kulturunde-12-derslik-jimnastik-paketi-300-tl_304.jpeg",
         "when_comp_start" : -1,
         "download" : {
            "connectEnd" : 83,
            "sendStart" : 83,
            "connectStart" : 0,
            "dnsEnd" : -1,
            "type" : "image/jpeg",
            "receiveHeadersEnd" : 184,
            "receiveFirst" : 101,
            "receivedTime" : "2897.38200001011",
            "s_time" : 2340.90300000389,
            "receiveLast" : 2713.38200001011,
            "len" : 13005,
            "dnsStart" : -1,
            "sslEnd" : -1,
            "id" : "download_36",
            "sslStart" : -1,
            "sendEnd" : 83,
            "dns" : 0
         },
         "comps" : [],
         "id" : "r67"
      },
      {
         "id" : "r68",
         "comps" : [],
         "download" : {
            "sendEnd" : 20,
            "dns" : 0,
            "dnsStart" : -1,
            "sslEnd" : -1,
            "sslStart" : -1,
            "id" : "download_37",
            "len" : 12445,
            "receiveLast" : 2777.79600000475,
            "receiveFirst" : 100,
            "receivedTime" : "2897.79600000475",
            "s_time" : 2424.11300000094,
            "type" : "image/jpeg",
            "receiveHeadersEnd" : 120,
            "connectStart" : 0,
            "dnsEnd" : -1,
            "connectEnd" : 19,
            "sendStart" : 19
         },
         "when_comp_start" : -1,
         "url" : "http://kidsfoni.com/content/images/thumbs/0064915_kovan-spor-kulturunde-tenis-ile-guclu-saglikli-ve-mutlu-cocuklar-10-derslik-paket-300-tl_304.jpeg"
      },
      {
         "comps" : [],
         "id" : "r69",
         "when_comp_start" : 1,
         "download" : {
            "connectStart" : 0,
            "dnsEnd" : -1,
            "receiveHeadersEnd" : 102,
            "type" : "text/html",
            "sendStart" : 0,
            "connectEnd" : 0,
            "sslStart" : -1,
            "id" : "download_38",
            "sslEnd" : -1,
            "dnsStart" : -1,
            "dns" : 0,
            "sendEnd" : 0,
            "receivedTime" : "2898.10099999886",
            "s_time" : 2443.73900000937,
            "receiveFirst" : 102,
            "len" : 360,
            "receiveLast" : 2796.10099999886
         },
         "url" : "http://original.testbed.localhost/Themes/Kidsfoni_New_350/Content/images/jenny_jimmy_mailing_14.11.05.jpg"
      },
      {
         "url" : "http://kidsfoni.com/content/images/thumbs/0064977_turkiyenin-lk-cocuk-sehri-kidzmondoya-giris-bileti-60-tl-yerine-45-tl_304.png",
         "when_comp_start" : -1,
         "download" : {
            "sendEnd" : 1760,
            "dns" : 0,
            "dnsStart" : -1,
            "sslEnd" : -1,
            "id" : "download_39",
            "sslStart" : -1,
            "receiveLast" : 1040.14100000937,
            "len" : 147015,
            "receiveFirst" : 101,
            "s_time" : 736.304000005475,
            "receivedTime" : "2901.14100000937",
            "type" : "image/png",
            "receiveHeadersEnd" : 1861,
            "dnsEnd" : -1,
            "connectStart" : 0,
            "connectEnd" : 1760,
            "sendStart" : 1760
         },
         "id" : "r38",
         "comps" : []
      },
      {
         "comps" : [],
         "id" : "r70",
         "url" : "http://original.testbed.localhost/Themes/Kidsfoni_New_350/Content/images/bannerKids.jpg",
         "download" : {
            "connectEnd" : 1,
            "sendStart" : 1,
            "type" : "text/html",
            "receiveHeadersEnd" : 112,
            "connectStart" : 0,
            "dnsEnd" : -1,
            "len" : 342,
            "receiveLast" : 2788.97200000309,
            "receiveFirst" : 111,
            "receivedTime" : "2900.97200000309",
            "s_time" : 2501.40100000135,
            "sendEnd" : 1,
            "dns" : 0,
            "dnsStart" : -1,
            "sslEnd" : -1,
            "sslStart" : -1,
            "id" : "download_40"
         },
         "when_comp_start" : 1
      },
      {
         "download" : {
            "connectStart" : 0,
            "dnsEnd" : -1,
            "type" : "image/png",
            "receiveHeadersEnd" : 1890,
            "connectEnd" : 1790,
            "sendStart" : 1790,
            "sslEnd" : -1,
            "dnsStart" : -1,
            "sslStart" : -1,
            "id" : "download_41",
            "sendEnd" : 1790,
            "dns" : 0,
            "receiveFirst" : 100,
            "receivedTime" : "2903.60200000578",
            "s_time" : 736.474999997881,
            "len" : 122874,
            "receiveLast" : 1013.60200000578
         },
         "when_comp_start" : -1,
         "url" : "http://kidsfoni.com/content/images/thumbs/0065221_vialand-dogum-gunu-paketleri-ile-tum-gun-sinirsiz-eglence_304.png",
         "comps" : [],
         "id" : "r39"
      },
      {
         "comps" : [],
         "id" : "r71",
         "download" : {
            "receiveLast" : 2794.31000000879,
            "len" : 340,
            "receiveFirst" : 109,
            "s_time" : 2526.11200000683,
            "receivedTime" : "2903.31000000879",
            "sendEnd" : 0,
            "dns" : 0,
            "dnsStart" : -1,
            "sslEnd" : -1,
            "id" : "download_42",
            "sslStart" : -1,
            "connectEnd" : 0,
            "sendStart" : 0,
            "type" : "text/html",
            "receiveHeadersEnd" : 109,
            "dnsEnd" : -1,
            "connectStart" : 0
         },
         "when_comp_start" : 1,
         "url" : "http://original.testbed.localhost/Themes/Kidsfoni_New_350/Content/images/campaign.png"
      },
      {
         "when_comp_start" : -1,
         "download" : {
            "connectStart" : 0,
            "dnsEnd" : -1,
            "receiveHeadersEnd" : 1909,
            "type" : "image/jpeg",
            "sendStart" : 1809,
            "connectEnd" : 1809,
            "sslStart" : -1,
            "id" : "download_43",
            "dnsStart" : -1,
            "sslEnd" : -1,
            "dns" : 0,
            "sendEnd" : 1809,
            "receivedTime" : "2904.06000000075",
            "s_time" : 736.887999999453,
            "receiveFirst" : 100,
            "len" : 19284,
            "receiveLast" : 995.060000000754
         },
         "url" : "http://kidsfoni.com/content/images/thumbs/0065305_amerikanin-yaz-kampi-atasehirdecocuklar-icin-full-ngilizce_304.jpeg",
         "comps" : [],
         "id" : "r40"
      },
      {
         "url" : "http://original.testbed.localhost/Themes/Kidsfoni_New_350/Content/images/footer-add.png",
         "download" : {
            "sendStart" : 1,
            "connectEnd" : 1,
            "receiveHeadersEnd" : 102,
            "type" : "text/html",
            "connectStart" : 0,
            "dnsEnd" : -1,
            "receiveLast" : 2802.54899999895,
            "len" : 342,
            "receivedTime" : "2904.54899999895",
            "s_time" : 2545.78700001002,
            "receiveFirst" : 101,
            "dns" : 0,
            "sendEnd" : 1,
            "id" : "download_44",
            "sslStart" : -1,
            "sslEnd" : -1,
            "dnsStart" : -1
         },
         "when_comp_start" : 1,
         "comps" : [],
         "id" : "r72"
      },
      {
         "comps" : [],
         "id" : "r73",
         "when_comp_start" : 1,
         "download" : {
            "receiveFirst" : 101,
            "receivedTime" : "2904.64700000302",
            "s_time" : 2547.06300000544,
            "receiveLast" : 2803.64700000302,
            "len" : 344,
            "sslEnd" : -1,
            "dnsStart" : -1,
            "id" : "download_45",
            "sslStart" : -1,
            "sendEnd" : 0,
            "dns" : 0,
            "connectEnd" : 0,
            "sendStart" : 0,
            "dnsEnd" : -1,
            "connectStart" : 0,
            "type" : "text/html",
            "receiveHeadersEnd" : 101
         },
         "url" : "http://original.testbed.localhost/Themes/Kidsfoni_New_350/Content/images/visa-payment.png"
      },
      {
         "url" : "http://original.testbed.localhost/Themes/Kidsfoni_New_350/Content/images/master-card-payment.png",
         "download" : {
            "receiveHeadersEnd" : 102,
            "type" : "text/html",
            "connectStart" : 0,
            "dnsEnd" : -1,
            "sendStart" : 0,
            "connectEnd" : 0,
            "dns" : 0,
            "sendEnd" : 1,
            "id" : "download_46",
            "sslStart" : -1,
            "sslEnd" : -1,
            "dnsStart" : -1,
            "receiveLast" : 2802.92400000221,
            "len" : 351,
            "receivedTime" : "2904.92400000221",
            "s_time" : 2609.0860000113,
            "receiveFirst" : 101
         },
         "when_comp_start" : 1,
         "comps" : [],
         "id" : "r74"
      },
      {
         "id" : "r75",
         "comps" : [],
         "download" : {
            "connectStart" : 0,
            "dnsEnd" : -1,
            "receiveHeadersEnd" : 102,
            "type" : "text/html",
            "sendStart" : 0,
            "connectEnd" : 0,
            "sslStart" : -1,
            "id" : "download_47",
            "dnsStart" : -1,
            "sslEnd" : -1,
            "dns" : 0,
            "sendEnd" : 0,
            "receivedTime" : "2905.20500000275",
            "s_time" : 2609.7940000036,
            "receiveFirst" : 102,
            "len" : 346,
            "receiveLast" : 2803.20500000275
         },
         "when_comp_start" : 1,
         "url" : "http://original.testbed.localhost/Themes/Kidsfoni_New_350/Content/images/rapaid-payment.png"
      },
      {
         "when_comp_start" : 1,
         "download" : {
            "type" : "text/html",
            "receiveHeadersEnd" : 101,
            "dnsEnd" : -1,
            "connectStart" : 0,
            "connectEnd" : 0,
            "sendStart" : 0,
            "sendEnd" : 0,
            "dns" : 0,
            "sslEnd" : -1,
            "dnsStart" : -1,
            "sslStart" : -1,
            "id" : "download_48",
            "len" : 355,
            "receiveLast" : 2804.49699999974,
            "receiveFirst" : 101,
            "receivedTime" : "2905.49699999974",
            "s_time" : 2635.97600000503
         },
         "url" : "http://original.testbed.localhost/Themes/Kidsfoni_New_350/Content/images/img/kids/imalathanelogo.png",
         "comps" : [],
         "id" : "r76"
      },
      {
         "comps" : [
            {
               "e_time" : 3253.90500000503,
               "s_time" : 3253.34200001089,
               "id" : "r98_c1",
               "time" : 0.562999994140227,
               "type" : "evalhtml"
            }
         ],
         "id" : "r98",
         "when_comp_start" : 1,
         "download" : {
            "len" : 268,
            "receiveLast" : 3106.56800000835,
            "receivedTime" : "3240.56800000835",
            "s_time" : 3105.09900000761,
            "receiveFirst" : 134,
            "dns" : 0,
            "sendEnd" : 0,
            "sslStart" : -1,
            "id" : "download_49",
            "dnsStart" : -1,
            "sslEnd" : -1,
            "sendStart" : 0,
            "connectEnd" : 0,
            "receiveHeadersEnd" : 134,
            "type" : "text/html",
            "dnsEnd" : -1,
            "connectStart" : 0
         },
         "url" : "https://assets.zendesk.com/embeddable_framework/update.html?1463292605396#b8716a8"
      },
      {
         "url" : "http://staticxx.facebook.com/connect/xd_arbiter.php?version=42#channel=f1dad6e38&origin=http%3A%2F%2Foriginal.testbed.localhost",
         "download" : {
            "s_time" : 3103.53200000827,
            "receivedTime" : "3415.88000000047",
            "receiveFirst" : 101,
            "len" : 36422,
            "receiveLast" : 3215.88000000047,
            "sslStart" : -1,
            "id" : "download_50",
            "sslEnd" : -1,
            "dnsStart" : -1,
            "dns" : 0,
            "sendEnd" : 99,
            "sendStart" : 99,
            "connectEnd" : 99,
            "connectStart" : 0,
            "dnsEnd" : -1,
            "receiveHeadersEnd" : 200,
            "type" : "text/html"
         },
         "when_comp_start" : 1,
         "comps" : [
            {
               "id" : "r96_c1",
               "e_time" : 3416.09500000777,
               "s_time" : 3364.30700001074,
               "type" : "evalhtml",
               "time" : 51.7879999970301
            }
         ],
         "id" : "r96"
      },
      {
         "comps" : [],
         "id" : "r94",
         "url" : "https://stats.g.doubleclick.net/r/collect?v=1&aip=1&t=dc&_r=3&tid=UA-63715883-1&cid=365301012.1463292603&jid=329523161&_v=j43&z=1183776610",
         "when_comp_start" : -1,
         "download" : {
            "receiveFirst" : 118,
            "s_time" : 3097.17500000261,
            "receivedTime" : "3556.84800000745",
            "len" : 35,
            "receiveLast" : 3097.84800000745,
            "dnsStart" : -1,
            "sslEnd" : 341,
            "sslStart" : 218,
            "id" : "download_51",
            "sendEnd" : 341,
            "dns" : 0,
            "connectEnd" : 341,
            "sendStart" : 341,
            "connectStart" : 0,
            "dnsEnd" : -1,
            "type" : "image/gif",
            "receiveHeadersEnd" : 459
         }
      },
      {
         "id" : "r97",
         "comps" : [
            {
               "id" : "r97_c1",
               "e_time" : 3713.53000000818,
               "s_time" : 3588.3909999975,
               "time" : 125.13900001068,
               "type" : "evalhtml"
            }
         ],
         "url" : "https://staticxx.facebook.com/connect/xd_arbiter.php?version=42#channel=f1dad6e38&origin=http%3A%2F%2Foriginal.testbed.localhost",
         "when_comp_start" : 1,
         "download" : {
            "receiveLast" : 3222.85800001107,
            "len" : 36422,
            "receivedTime" : "3700.85800001107",
            "s_time" : 3103.50700000708,
            "receiveFirst" : 124,
            "dns" : 0,
            "sendEnd" : 354,
            "id" : "download_52",
            "sslStart" : 223,
            "sslEnd" : 351,
            "dnsStart" : -1,
            "sendStart" : 351,
            "connectEnd" : 351,
            "receiveHeadersEnd" : 478,
            "type" : "text/html",
            "dnsEnd" : -1,
            "connectStart" : 0
         }
      },
      {
         "comps" : [],
         "id" : "r95",
         "url" : "https://www.facebook.com/impression.php/f87a13598/?api_key=1642719142676378&lid=115&payload=%7B%22source%22%3A%22jssdk%22%7D",
         "when_comp_start" : -1,
         "download" : {
            "receiveFirst" : 257,
            "receivedTime" : "3595.29100000509",
            "s_time" : 2983.53800000041,
            "len" : 43,
            "receiveLast" : 2984.29100000509,
            "sslEnd" : 353,
            "dnsStart" : -1,
            "sslStart" : 223,
            "id" : "download_53",
            "sendEnd" : 354,
            "dns" : 0,
            "connectEnd" : 354,
            "sendStart" : 354,
            "connectStart" : 0,
            "dnsEnd" : -1,
            "type" : "image/gif",
            "receiveHeadersEnd" : 611
         }
      }
   ],
   "n_download_no_trigger" : 1,
   "deps" : [
      {
         "a1" : "comp_20",
         "time" : -1,
         "a2" : "r1_c2",
         "id" : "dep1"
      },
      {
         "a1" : "comp_21",
         "time" : -1,
         "a2" : "r1_c3",
         "id" : "dep2"
      },
      {
         "id" : "dep3",
         "a2" : "r1_c4",
         "time" : -1,
         "a1" : "comp_22"
      },
      {
         "id" : "dep4",
         "a2" : "r1_c5",
         "time" : -1,
         "a1" : "comp_23"
      },
      {
         "time" : -1,
         "a1" : "comp_24",
         "id" : "dep5",
         "a2" : "r1_c6"
      },
      {
         "a1" : "comp_25",
         "time" : -1,
         "a2" : "r1_c7",
         "id" : "dep6"
      },
      {
         "time" : -1,
         "a1" : "comp_26",
         "a2" : "r1_c8",
         "id" : "dep7"
      },
      {
         "a2" : "r1_c9",
         "id" : "dep8",
         "time" : -1,
         "a1" : "comp_27"
      },
      {
         "a1" : "comp_49",
         "time" : -1,
         "id" : "dep9",
         "a2" : "r1_c10"
      },
      {
         "id" : "dep10",
         "a2" : "r1_c11",
         "a1" : "comp_50",
         "time" : -1
      },
      {
         "a2" : "r1_c12",
         "id" : "dep11",
         "a1" : "comp_51",
         "time" : -1
      },
      {
         "a1" : "comp_52",
         "time" : -1,
         "a2" : "r1_c13",
         "id" : "dep12"
      },
      {
         "id" : "dep13",
         "a2" : "r1_c14",
         "time" : -1,
         "a1" : "comp_53"
      },
      {
         "a2" : "r1_c15",
         "id" : "dep14",
         "a1" : "comp_54",
         "time" : -1
      },
      {
         "time" : -1,
         "a1" : "comp_62",
         "id" : "dep15",
         "a2" : "r1_c16"
      },
      {
         "a2" : "r1_c17",
         "id" : "dep16",
         "time" : -1,
         "a1" : "comp_63"
      },
      {
         "id" : "dep17",
         "a2" : "r1_c18",
         "time" : -1,
         "a1" : "comp_64"
      },
      {
         "a2" : "r1_c19",
         "id" : "dep18",
         "time" : -1,
         "a1" : "comp_65"
      },
      {
         "a1" : "comp_66",
         "time" : -1,
         "id" : "dep19",
         "a2" : "r1_c20"
      },
      {
         "a2" : "r1_c21",
         "id" : "dep20",
         "a1" : "comp_67",
         "time" : -1
      },
      {
         "id" : "dep21",
         "a2" : "r1_c22",
         "time" : -1,
         "a1" : "comp_68"
      },
      {
         "id" : "dep22",
         "a2" : "r1_c23",
         "time" : -1,
         "a1" : "comp_69"
      },
      {
         "time" : -1,
         "a1" : "comp_70",
         "a2" : "r1_c24",
         "id" : "dep23"
      },
      {
         "id" : "dep24",
         "a2" : "r1_c25",
         "time" : -1,
         "a1" : "comp_71"
      },
      {
         "a2" : "download_53",
         "id" : "dep25",
         "time" : -1,
         "a1" : "r1_c25"
      },
      {
         "time" : -1,
         "a1" : "r1_c25",
         "a2" : "download_52",
         "id" : "dep26"
      },
      {
         "a2" : "download_51",
         "id" : "dep27",
         "a1" : "r1_c25",
         "time" : 255.04699999874
      },
      {
         "time" : -1,
         "a1" : "r1_c25",
         "id" : "dep28",
         "a2" : "download_50"
      },
      {
         "time" : -1,
         "a1" : "r1_c25",
         "a2" : "download_49",
         "id" : "dep29"
      },
      {
         "a2" : "download_48",
         "id" : "dep30",
         "time" : -1,
         "a1" : "r1_c15"
      },
      {
         "id" : "dep31",
         "a2" : "download_47",
         "a1" : "r1_c15",
         "time" : 1730.26100000424
      },
      {
         "a2" : "download_46",
         "id" : "dep32",
         "a1" : "r1_c15",
         "time" : 1729.55300001194
      },
      {
         "a1" : "r1_c15",
         "time" : 1667.53000000608,
         "id" : "dep33",
         "a2" : "download_45"
      },
      {
         "a2" : "download_44",
         "id" : "dep34",
         "a1" : "r1_c15",
         "time" : 1666.25400001066
      },
      {
         "a2" : "download_43",
         "id" : "dep35",
         "a1" : "r1_c9",
         "time" : -1
      },
      {
         "id" : "dep36",
         "a2" : "download_42",
         "time" : 1646.57900000747,
         "a1" : "r1_c15"
      },
      {
         "time" : 1.33699999423698,
         "a1" : "r1_c9",
         "a2" : "download_41",
         "id" : "dep37"
      },
      {
         "a1" : "r1_c15",
         "time" : 1621.86800000199,
         "a2" : "download_40",
         "id" : "dep38"
      },
      {
         "id" : "dep39",
         "a2" : "download_39",
         "time" : 1.16600000183098,
         "a1" : "r1_c9"
      },
      {
         "time" : 1564.20600001001,
         "a1" : "r1_c15",
         "id" : "dep40",
         "a2" : "download_38"
      },
      {
         "a1" : "r1_c15",
         "time" : 1544.58000000158,
         "id" : "dep41",
         "a2" : "download_37"
      },
      {
         "id" : "dep42",
         "a2" : "download_36",
         "time" : 1461.37000000453,
         "a1" : "r1_c15"
      },
      {
         "id" : "dep43",
         "a2" : "download_35",
         "a1" : "r1_c15",
         "time" : 1442.66800000332
      },
      {
         "a1" : "r1_c15",
         "time" : 1411.20200000295,
         "id" : "dep44",
         "a2" : "download_34"
      },
      {
         "id" : "dep45",
         "a2" : "download_33",
         "a1" : "r1_c15",
         "time" : 1359.92300001089
      },
      {
         "time" : 1340.93299999949,
         "a1" : "r1_c15",
         "a2" : "download_32",
         "id" : "dep46"
      },
      {
         "a1" : "r1_c15",
         "time" : 1308.20500000845,
         "id" : "dep47",
         "a2" : "download_31"
      },
      {
         "a1" : "r1_c15",
         "time" : 1257.12300000304,
         "a2" : "download_30",
         "id" : "dep48"
      },
      {
         "a1" : "r1_c15",
         "time" : 1238.63200000778,
         "a2" : "download_29",
         "id" : "dep49"
      },
      {
         "time" : 1205.52200000383,
         "a1" : "r1_c15",
         "id" : "dep50",
         "a2" : "download_28"
      },
      {
         "a2" : "download_27",
         "id" : "dep51",
         "time" : 1155.32400000665,
         "a1" : "r1_c15"
      },
      {
         "a1" : "r1_c15",
         "time" : 1103.1750000111,
         "a2" : "download_26",
         "id" : "dep52"
      },
      {
         "a1" : "r1_c15",
         "time" : 1052.98700000275,
         "a2" : "download_25",
         "id" : "dep53"
      },
      {
         "time" : 1037.51500000362,
         "a1" : "r1_c15",
         "id" : "dep54",
         "a2" : "download_24"
      },
      {
         "a2" : "download_23",
         "id" : "dep55",
         "a1" : "r1_c15",
         "time" : 935.321000011754
      },
      {
         "time" : 900.751000008314,
         "a1" : "r1_c15",
         "id" : "dep56",
         "a2" : "download_22"
      },
      {
         "a1" : "r1_c15",
         "time" : 847.668000002154,
         "id" : "dep57",
         "a2" : "download_21"
      },
      {
         "time" : 790.187000005974,
         "a1" : "r1_c15",
         "id" : "dep58",
         "a2" : "download_20"
      },
      {
         "id" : "dep59",
         "a2" : "download_19",
         "a1" : "r1_c15",
         "time" : 736.383000010394
      },
      {
         "id" : "dep60",
         "a2" : "download_18",
         "time" : 733.356000011554,
         "a1" : "r1_c15"
      },
      {
         "a1" : "r1_c15",
         "time" : 676.610000009534,
         "a2" : "download_17",
         "id" : "dep61"
      },
      {
         "a1" : "r1_c15",
         "time" : 624.525000006544,
         "a2" : "download_16",
         "id" : "dep62"
      },
      {
         "a1" : "r1_c15",
         "time" : 574.531000005664,
         "a2" : "download_15",
         "id" : "dep63"
      },
      {
         "time" : 395.088000004764,
         "a1" : "r1_c15",
         "id" : "dep64",
         "a2" : "download_14"
      },
      {
         "time" : 334.025000003744,
         "a1" : "r1_c15",
         "id" : "dep65",
         "a2" : "download_13"
      },
      {
         "a1" : "r1_c15",
         "time" : 261.680000010524,
         "a2" : "download_12",
         "id" : "dep66"
      },
      {
         "time" : 0.971999994362932,
         "a1" : "r1_c9",
         "a2" : "download_11",
         "id" : "dep67"
      },
      {
         "a1" : "r1_c9",
         "time" : 0.700999997206964,
         "a2" : "download_10",
         "id" : "dep68"
      },
      {
         "a2" : "download_9",
         "id" : "dep69",
         "a1" : "r1_c9",
         "time" : -1
      },
      {
         "id" : "dep70",
         "a2" : "download_8",
         "time" : -1,
         "a1" : "r1_c9"
      },
      {
         "id" : "dep71",
         "a2" : "download_7",
         "a1" : "r1_c9",
         "time" : -1
      },
      {
         "id" : "dep72",
         "a2" : "download_6",
         "a1" : "r1_c9",
         "time" : 0.83000000449897
      },
      {
         "time" : 0.551999997696953,
         "a1" : "r1_c9",
         "id" : "dep73",
         "a2" : "download_5"
      },
      {
         "id" : "dep74",
         "a2" : "download_4",
         "a1" : "r1_c9",
         "time" : 0.387000007321944
      },
      {
         "time" : 0.238000007811934,
         "a1" : "r1_c9",
         "a2" : "download_3",
         "id" : "dep75"
      },
      {
         "time" : 0.0430000072809662,
         "a1" : "r1_c9",
         "a2" : "download_2",
         "id" : "dep76"
      },
      {
         "time" : -1,
         "a1" : "r1_c5",
         "id" : "dep77",
         "a2" : "download_1"
      },
      {
         "id" : "dep78",
         "a2" : "download_1",
         "a1" : "r1_c5",
         "time" : 0.320000006468035
      }
   ],
   "load_activity" : -1,
   "start_activity" : "download_0",
   "name" : "original.testbed.localhost_www.kidsfoni.com_"
}
