{
   "n_download_no_trigger" : 1,
   "start_activity" : "download_0",
   "name" : "original.testbed.localhost_www.ft.com_",
   "load_activity" : -1,
   "objs" : [
      {
         "when_comp_start" : 1,
         "url" : "http://original.testbed.localhost/www.ft.com/",
         "id" : "r1",
         "comps" : [
            {
               "s_time" : 313.70600000082,
               "time" : 6.63699999859102,
               "type" : "evalhtml",
               "id" : "r1_c1",
               "e_time" : 320.342999999411
            }
         ],
         "download" : {
            "receiveFirst" : 153,
            "len" : 1109,
            "dns" : 0,
            "dnsEnd" : -1,
            "receiveHeadersEnd" : 158,
            "sslEnd" : -1,
            "connectEnd" : 5,
            "connectStart" : 0,
            "id" : "download_0",
            "receivedTime" : "170.364999998128",
            "sslStart" : -1,
            "dnsStart" : -1,
            "receiveLast" : 12.364999998128,
            "s_time" : 0,
            "sendEnd" : 5,
            "sendStart" : 5,
            "type" : "text/html"
         }
      },
      {
         "when_comp_start" : -1,
         "url" : "http://original.testbed.localhost/icons/blank.gif",
         "id" : "r2",
         "comps" : [],
         "download" : {
            "receiveFirst" : 163,
            "len" : 148,
            "dns" : 0,
            "dnsEnd" : -1,
            "receiveHeadersEnd" : 175,
            "sslEnd" : -1,
            "connectEnd" : 12,
            "connectStart" : 0,
            "id" : "download_1",
            "receivedTime" : "508.377999998629",
            "sslStart" : -1,
            "dnsStart" : -1,
            "receiveLast" : 333.377999998629,
            "s_time" : 316.98599999072,
            "sendEnd" : 12,
            "sendStart" : 12,
            "type" : "image/gif"
         }
      },
      {
         "when_comp_start" : -1,
         "url" : "http://original.testbed.localhost/icons/back.gif",
         "id" : "r3",
         "comps" : [],
         "download" : {
            "receiveFirst" : 170,
            "len" : 216,
            "dns" : 0,
            "dnsEnd" : -1,
            "receiveHeadersEnd" : 184,
            "sslEnd" : -1,
            "connectEnd" : 14,
            "connectStart" : 0,
            "id" : "download_2",
            "receivedTime" : "514.908999990439",
            "sslStart" : -1,
            "dnsStart" : -1,
            "receiveLast" : 330.908999990439,
            "s_time" : 318.741999988561,
            "sendEnd" : 14,
            "sendStart" : 14,
            "type" : "image/gif"
         }
      },
      {
         "when_comp_start" : -1,
         "url" : "http://original.testbed.localhost/icons/folder.gif",
         "id" : "r4",
         "comps" : [],
         "download" : {
            "receiveFirst" : 154,
            "len" : 225,
            "dns" : 0,
            "dnsEnd" : 17,
            "receiveHeadersEnd" : 322,
            "sslEnd" : -1,
            "connectEnd" : 168,
            "connectStart" : 0,
            "id" : "download_3",
            "receivedTime" : "645.79799999774",
            "sslStart" : -1,
            "dnsStart" : 17,
            "receiveLast" : 323.79799999774,
            "s_time" : 320.342999999411,
            "sendEnd" : 168,
            "sendStart" : 168,
            "type" : "image/gif"
         }
      }
   ],
   "deps" : [
      {
         "a2" : "download_3",
         "time" : -1,
         "id" : "dep1",
         "a1" : "r1_c1"
      },
      {
         "a2" : "download_2",
         "time" : 5.03599998774104,
         "id" : "dep2",
         "a1" : "r1_c1"
      },
      {
         "a2" : "download_1",
         "time" : 3.27999998990003,
         "id" : "dep3",
         "a1" : "r1_c1"
      }
   ]
}
