{
   "n_download_no_trigger" : 1,
   "start_activity" : "download_0",
   "name" : "original.testbed.localhost_www.chron.com_",
   "load_activity" : -1,
   "objs" : [
      {
         "when_comp_start" : 1,
         "url" : "http://original.testbed.localhost/www.chron.com/",
         "id" : "r1",
         "comps" : [
            {
               "s_time" : 333.144999996875,
               "time" : -79076340.408,
               "id" : "r1_c1",
               "type" : "evalhtml",
               "e_time" : -79076007.263
            },
            {
               "s_time" : 486.098999987007,
               "time" : -79076493.362,
               "id" : "r1_c2",
               "type" : "evalhtml",
               "e_time" : -79076007.263
            },
            {
               "s_time" : 1016.00699999835,
               "time" : -79077023.27,
               "id" : "r1_c3",
               "type" : "evalhtml",
               "e_time" : -79076007.263
            },
            {
               "s_time" : 1046.67699999118,
               "time" : -79077053.94,
               "id" : "r1_c4",
               "type" : "evalhtml",
               "e_time" : -79076007.263
            },
            {
               "s_time" : 1047.74499998894,
               "time" : -79077055.008,
               "id" : "r1_c5",
               "type" : "evalhtml",
               "e_time" : -79076007.263
            },
            {
               "s_time" : 1185.40999999095,
               "time" : -79077192.673,
               "id" : "r1_c6",
               "type" : "evalhtml",
               "e_time" : -79076007.263
            },
            {
               "s_time" : 1186.29499999224,
               "time" : -79077193.558,
               "id" : "r1_c7",
               "type" : "evalhtml",
               "e_time" : -79076007.263
            },
            {
               "s_time" : 1253.67799999367,
               "time" : 494.0329999954,
               "id" : "r1_c8",
               "type" : "evalhtml",
               "e_time" : 1747.71099998907
            },
            {
               "s_time" : 2461.74599998631,
               "time" : 310.02800000715,
               "type" : "evalhtml",
               "id" : "r1_c9",
               "e_time" : 2771.77399999346
            }
         ],
         "download" : {
            "receiveFirst" : 163,
            "len" : 330301,
            "dns" : 0,
            "dnsEnd" : -1,
            "receiveHeadersEnd" : 168,
            "sslEnd" : -1,
            "connectEnd" : 5,
            "connectStart" : 0,
            "id" : "download_0",
            "receivedTime" : "656.966999988072",
            "sslStart" : -1,
            "dnsStart" : -1,
            "receiveLast" : 488.966999988072,
            "s_time" : 0,
            "sendEnd" : 5,
            "sendStart" : 5,
            "type" : "text/html"
         }
      },
      {
         "when_comp_start" : 1,
         "url" : "http://original.testbed.localhost/img/utils/rss_icon.png",
         "id" : "r115",
         "comps" : [],
         "download" : {
            "receiveFirst" : 792,
            "len" : 312,
            "dns" : 0,
            "dnsEnd" : -1,
            "receiveHeadersEnd" : 825,
            "sslEnd" : -1,
            "connectEnd" : 33,
            "connectStart" : 0,
            "id" : "download_1",
            "receivedTime" : "2778.70199999597",
            "sslStart" : -1,
            "dnsStart" : -1,
            "receiveLast" : 1953.70199999597,
            "s_time" : 1747.71099998907,
            "sendEnd" : 33,
            "sendStart" : 33,
            "type" : "text/html"
         }
      }
   ],
   "deps" : [
      {
         "a2" : "r1_c2",
         "time" : -1,
         "id" : "dep1",
         "a1" : "comp_17"
      },
      {
         "a2" : "r1_c3",
         "time" : -1,
         "id" : "dep2",
         "a1" : "comp_27"
      },
      {
         "a2" : "r1_c4",
         "time" : -1,
         "id" : "dep3",
         "a1" : "comp_28"
      },
      {
         "a2" : "r1_c5",
         "time" : -1,
         "id" : "dep4",
         "a1" : "comp_29"
      },
      {
         "a2" : "r1_c6",
         "time" : -1,
         "id" : "dep5",
         "a1" : "comp_32"
      },
      {
         "a2" : "r1_c7",
         "time" : -1,
         "id" : "dep6",
         "a1" : "comp_33"
      },
      {
         "a2" : "r1_c8",
         "time" : -1,
         "id" : "dep7",
         "a1" : "comp_35"
      },
      {
         "a2" : "r1_c9",
         "time" : -1,
         "id" : "dep8",
         "a1" : "comp_51"
      },
      {
         "a2" : "download_1",
         "time" : -1,
         "id" : "dep9",
         "a1" : "r1_c8"
      }
   ]
}
