{
   "n_download_no_trigger" : 1,
   "start_activity" : "download_0",
   "name" : "original.testbed.localhost_www.qq.com_",
   "load_activity" : -1,
   "objs" : [
      {
         "when_comp_start" : 1,
         "url" : "http://original.testbed.localhost/www.qq.com/",
         "id" : "r1",
         "comps" : [
            {
               "s_time" : 357.665999996243,
               "time" : 2.41100000857801,
               "type" : "evalhtml",
               "id" : "r1_c1",
               "e_time" : 360.077000004821
            }
         ],
         "download" : {
            "receiveFirst" : 163,
            "len" : 139361,
            "dns" : 0,
            "dnsEnd" : -1,
            "receiveHeadersEnd" : 168,
            "sslEnd" : -1,
            "connectEnd" : 5,
            "connectStart" : 0,
            "id" : "download_0",
            "receivedTime" : "356.658999997308",
            "sslStart" : -1,
            "dnsStart" : -1,
            "receiveLast" : 188.658999997308,
            "s_time" : 0,
            "sendEnd" : 5,
            "sendStart" : 5,
            "type" : "text/html"
         }
      }
   ],
   "deps" : []
}
