{
   "n_download_no_trigger" : 1,
   "start_activity" : "download_0",
   "name" : "original.testbed.localhost_www.ft.com_",
   "load_activity" : -1,
   "objs" : [
      {
         "when_comp_start" : 1,
         "url" : "http://original.testbed.localhost/www.ft.com/",
         "id" : "r1",
         "comps" : [
            {
               "s_time" : 161.521999980323,
               "time" : 1.96600001072503,
               "type" : "evalhtml",
               "id" : "r1_c1",
               "e_time" : 163.487999991048
            }
         ],
         "download" : {
            "receiveFirst" : 151,
            "len" : 922,
            "dns" : 0,
            "dnsEnd" : -1,
            "receiveHeadersEnd" : 151,
            "sslEnd" : -1,
            "connectEnd" : 0,
            "connectStart" : 0,
            "id" : "download_0",
            "receivedTime" : "152.313999977196",
            "sslStart" : -1,
            "dnsStart" : -1,
            "receiveLast" : 1.31399997719564,
            "s_time" : 0,
            "sendEnd" : 0,
            "sendStart" : 0,
            "type" : "text/html"
         }
      },
      {
         "when_comp_start" : -1,
         "url" : "http://original.testbed.localhost/icons/blank.gif",
         "id" : "r2",
         "comps" : [],
         "download" : {
            "receiveFirst" : 151,
            "len" : 148,
            "dns" : 0,
            "dnsEnd" : -1,
            "receiveHeadersEnd" : 152,
            "sslEnd" : -1,
            "connectEnd" : 1,
            "connectStart" : 0,
            "id" : "download_1",
            "receivedTime" : "316.973999986658",
            "sslStart" : -1,
            "dnsStart" : -1,
            "receiveLast" : 164.973999986658,
            "s_time" : 163.124999991851,
            "sendEnd" : 1,
            "sendStart" : 1,
            "type" : "image/gif"
         }
      },
      {
         "when_comp_start" : -1,
         "url" : "http://original.testbed.localhost/icons/folder.gif",
         "id" : "r4",
         "comps" : [],
         "download" : {
            "receiveFirst" : 151,
            "len" : 225,
            "dns" : 0,
            "dnsEnd" : -1,
            "receiveHeadersEnd" : 151,
            "sslEnd" : -1,
            "connectEnd" : 0,
            "connectStart" : 0,
            "id" : "download_2",
            "receivedTime" : "317.316999979084",
            "sslStart" : -1,
            "dnsStart" : -1,
            "receiveLast" : 166.316999979084,
            "s_time" : 163.487999991048,
            "sendEnd" : 0,
            "sendStart" : 0,
            "type" : "image/gif"
         }
      },
      {
         "when_comp_start" : -1,
         "url" : "http://original.testbed.localhost/icons/back.gif",
         "id" : "r3",
         "comps" : [],
         "download" : {
            "receiveFirst" : 152,
            "len" : 216,
            "dns" : 0,
            "dnsEnd" : -1,
            "receiveHeadersEnd" : 152,
            "sslEnd" : -1,
            "connectEnd" : 0,
            "connectStart" : 0,
            "id" : "download_3",
            "receivedTime" : "317.471999995178",
            "sslStart" : -1,
            "dnsStart" : -1,
            "receiveLast" : 165.471999995178,
            "s_time" : 163.339999999152,
            "sendEnd" : 0,
            "sendStart" : 0,
            "type" : "image/gif"
         }
      }
   ],
   "deps" : [
      {
         "a2" : "download_3",
         "time" : -1,
         "id" : "dep1",
         "a1" : "r1_c1"
      },
      {
         "a2" : "download_2",
         "time" : -1,
         "id" : "dep2",
         "a1" : "r1_c1"
      },
      {
         "a2" : "download_1",
         "time" : 1.60300001152802,
         "id" : "dep3",
         "a1" : "r1_c1"
      }
   ]
}
