{
   "n_download_no_trigger" : 1,
   "start_activity" : "download_0",
   "name" : "original.testbed.localhost_www.googleadservices.com",
   "load_activity" : -1,
   "objs" : [
      {
         "when_comp_start" : 1,
         "url" : "http://original.testbed.localhost/www.googleadservices.com",
         "id" : "r1",
         "comps" : [
            {
               "s_time" : 291.361999989022,
               "time" : 0.444000004789984,
               "type" : "evalhtml",
               "id" : "r1_c1",
               "e_time" : 291.805999993812
            }
         ],
         "download" : {
            "receiveFirst" : 152,
            "len" : 314,
            "dns" : 0,
            "dnsEnd" : 0,
            "receiveHeadersEnd" : 192,
            "sslEnd" : -1,
            "connectEnd" : 40,
            "connectStart" : 0,
            "id" : "download_0",
            "receivedTime" : "257.317999989027",
            "sslStart" : -1,
            "dnsStart" : 0,
            "receiveLast" : 65.3179999890272,
            "s_time" : 0,
            "sendEnd" : 40,
            "sendStart" : 40,
            "type" : "text/html"
         }
      }
   ],
   "deps" : []
}
