load:	3069.8640000046
HTMLParse:	75.15699998474491
TTFB:	370.947000003071
Parse:	0.0
PostParse:	0.0
level:	0
time_download:	397.599000003538
time_comp:	2672.265000001062
time_block:	2588.8530000229475
whatif_matrix:	0.0
download_blocking:	0.0
download_proxy:	0.0
download_dns:	0
download_conn:	0.0
download_ssl:	0.0
download_send::	0.0
download_receiveFirst:	0.0
download_receiveLast:	0.0
parse_style:	1.8839999975170372
parse_script:	6.370999995852685
parse_layout:	0.0
parse_paint:	0.0
parse_other:	0.0
parse_undefined:	0.0
dep_D2E:	0.0
dep_E2D_html:	0.0
dep_E2D_css:	0.0
dep_E2D_js:	0.0
dep_E2D_timer:	0.0
dep_RFB:	0.0
dep_HOL_css:	0.0
dep_HOL_js:	0.0
time_download_html:	370.809000000008
time_download_css:	26.790000003529997
time_download_js:	0.0
time_download_img:	0.0
time_download_o:	0.0
time_block_css:	0.0
time_block_js:	0.0
time_ttfb:	0.0
num_domains_cp:	0.0
num_domains_all:	0
text_domains_cp:	{}
text_domains_all:	{}
num_bytes_cp:	3514.0
num_bytes_all:	364563
num_send_cp:	0.0
num_send_all:	0.0
num_conn_cp:	0.0
num_conn_all:	0.0
num_objs_cp:	11
num_objs_all:	21
num_js_cp:	0
num_js_all:	3
num_css_cp:	1
num_css_all:	2
text_domain_tcp_net_cp:	[]
text_domain_tcp_net_all:	[]
critical_path:	['download_0', 'r1_c1', 'download_2', 'comp_1', 'comp_2', 'r1_c2', 'r1_c3', 'r1_c3', 'comp_9', 'r1_c4', 'r8_c1']
domains_all:	5
domains_cp:	2
