{
   "n_download_no_trigger" : 1,
   "start_activity" : "download_0",
   "name" : "original.testbed.localhost_www.microsoft.com_",
   "load_activity" : -1,
   "objs" : [
      {
         "when_comp_start" : 1,
         "url" : "http://original.testbed.localhost/www.microsoft.com/",
         "id" : "r1",
         "comps" : [
            {
               "s_time" : 122.131999989506,
               "time" : 10.009000019636,
               "id" : "r1_c1",
               "type" : "evalhtml",
               "e_time" : 132.141000009142
            },
            {
               "s_time" : 424.804999987828,
               "time" : -153103799.698,
               "id" : "r1_c2",
               "type" : "evalhtml",
               "e_time" : -153103374.893
            },
            {
               "s_time" : 642.609000002267,
               "time" : -153104017.502,
               "id" : "r1_c3",
               "type" : "evalhtml",
               "e_time" : -153103374.893
            },
            {
               "s_time" : 694.458000012673,
               "time" : 45.638999989024,
               "id" : "r1_c4",
               "type" : "evalhtml",
               "e_time" : 740.097000001697
            },
            {
               "s_time" : 742.339999997057,
               "time" : -153104117.233,
               "id" : "r1_c5",
               "type" : "evalhtml",
               "e_time" : -153103374.893
            },
            {
               "s_time" : 753.418000007514,
               "time" : -153104128.311,
               "id" : "r1_c6",
               "type" : "evalhtml",
               "e_time" : -153103374.893
            },
            {
               "s_time" : 770.232999988366,
               "time" : -153104145.126,
               "id" : "r1_c7",
               "type" : "evalhtml",
               "e_time" : -153103374.893
            },
            {
               "s_time" : 778.656000009505,
               "time" : -153104153.549,
               "id" : "r1_c8",
               "type" : "evalhtml",
               "e_time" : -153103374.893
            },
            {
               "s_time" : 791.808999987552,
               "time" : -153104166.702,
               "id" : "r1_c9",
               "type" : "evalhtml",
               "e_time" : -153103374.893
            },
            {
               "s_time" : 795.653999986826,
               "time" : 522.873000008984,
               "id" : "r1_c10",
               "type" : "evalhtml",
               "e_time" : 1318.52699999581
            },
            {
               "s_time" : 1580.4449999996,
               "time" : 151.85500000371,
               "id" : "r1_c11",
               "type" : "evalhtml",
               "e_time" : 1732.30000000331
            },
            {
               "s_time" : 1764.77099998738,
               "time" : 336.91300000646,
               "type" : "evalhtml",
               "id" : "r1_c12",
               "e_time" : 2101.68399999384
            }
         ],
         "download" : {
            "receiveFirst" : 11,
            "len" : 118282,
            "dns" : 0,
            "dnsEnd" : -1,
            "receiveHeadersEnd" : 16,
            "sslEnd" : -1,
            "connectEnd" : 5,
            "connectStart" : 0,
            "id" : "download_0",
            "receivedTime" : "121.123999997508",
            "sslStart" : -1,
            "dnsStart" : -1,
            "receiveLast" : 105.123999997508,
            "s_time" : 0,
            "sendEnd" : 5,
            "sendStart" : 5,
            "type" : "text/html"
         }
      },
      {
         "when_comp_start" : -1,
         "url" : "http://original.testbed.localhost/ajax.aspnetcdn.com/ajax/jQuery/jquery-1.7.2.min.js",
         "id" : "r2",
         "comps" : [
            {
               "s_time" : 273.772999993525,
               "time" : 151.031999994303,
               "type" : 1,
               "id" : "comp_1",
               "e_time" : 424.804999987828
            }
         ],
         "download" : {
            "receiveFirst" : 104,
            "len" : 94840,
            "dns" : 0,
            "dnsEnd" : -1,
            "receiveHeadersEnd" : 131,
            "sslEnd" : -1,
            "connectEnd" : 27,
            "connectStart" : 0,
            "id" : "download_1",
            "receivedTime" : "272.980000008829",
            "sslStart" : -1,
            "dnsStart" : -1,
            "receiveLast" : 141.980000008829,
            "s_time" : 123.962999990908,
            "sendEnd" : 27,
            "sendStart" : 27,
            "type" : "application/javascript"
         }
      },
      {
         "when_comp_start" : -1,
         "url" : "http://original.testbed.localhost/ajax.aspnetcdn.com/ajax/jquery.mobile/1.3.2/jquery.mobile-1.3.2.min.js",
         "id" : "r3",
         "comps" : [
            {
               "s_time" : 443.299000005936,
               "time" : 199.309999996331,
               "type" : 1,
               "id" : "comp_5",
               "e_time" : 642.609000002267
            }
         ],
         "download" : {
            "receiveFirst" : 105,
            "len" : 145396,
            "dns" : 0,
            "dnsEnd" : -1,
            "receiveHeadersEnd" : 134,
            "sslEnd" : -1,
            "connectEnd" : 29,
            "connectStart" : 0,
            "id" : "download_2",
            "receivedTime" : "442.719000013312",
            "sslStart" : -1,
            "dnsStart" : -1,
            "receiveLast" : 308.719000013312,
            "s_time" : 124.970000004396,
            "sendEnd" : 29,
            "sendStart" : 29,
            "type" : "application/javascript"
         }
      },
      {
         "when_comp_start" : -1,
         "url" : "http://original.testbed.localhost/assets.onestore.ms/cdnfiles/onestorerolling-1509-14010/shell/v2_5/scss/shell.min.css",
         "id" : "r5",
         "comps" : [
            {
               "s_time" : 441.711999999825,
               "time" : 0.823999987914988,
               "type" : 4,
               "id" : "comp_4",
               "e_time" : 442.53599998774
            }
         ],
         "download" : {
            "receiveFirst" : 67,
            "len" : 96862,
            "dns" : 0,
            "dnsEnd" : 31,
            "receiveHeadersEnd" : 137,
            "sslEnd" : -1,
            "connectEnd" : 70,
            "connectStart" : 0,
            "id" : "download_3",
            "receivedTime" : "441.284000000451",
            "sslStart" : -1,
            "dnsStart" : 31,
            "receiveLast" : 304.284000000451,
            "s_time" : 126.740000006976,
            "sendEnd" : 70,
            "sendStart" : 70,
            "type" : "text/css"
         }
      },
      {
         "when_comp_start" : -1,
         "url" : "http://original.testbed.localhost/assets.onestore.ms/cdnfiles/onestorerolling-1509-14010/shell/common/js/shell_ie8.js",
         "id" : "r8",
         "comps" : [
            {
               "s_time" : 741.638000006787,
               "time" : 0.701999990269996,
               "type" : 1,
               "id" : "comp_12",
               "e_time" : 742.339999997057
            }
         ],
         "download" : {
            "receiveFirst" : 88,
            "len" : 42,
            "dns" : 0,
            "dnsEnd" : 50,
            "receiveHeadersEnd" : 190,
            "sslEnd" : -1,
            "connectEnd" : 102,
            "connectStart" : 0,
            "id" : "download_4",
            "receivedTime" : "439.087000006111",
            "sslStart" : -1,
            "dnsStart" : 50,
            "receiveLast" : 249.087000006111,
            "s_time" : 128.571000008378,
            "sendEnd" : 102,
            "sendStart" : 102,
            "type" : "application/javascript"
         }
      },
      {
         "when_comp_start" : -1,
         "url" : "http://original.testbed.localhost/c.webtrends.com/acs/account/ep4ka8v0wg/js/wt.js",
         "id" : "r4",
         "comps" : [
            {
               "s_time" : 643.432999990182,
               "time" : 51.025000022491,
               "type" : 1,
               "id" : "comp_7",
               "e_time" : 694.458000012673
            }
         ],
         "download" : {
            "receiveFirst" : 92,
            "len" : 36387,
            "dns" : 0,
            "dnsEnd" : 40,
            "receiveHeadersEnd" : 198,
            "sslEnd" : -1,
            "connectEnd" : 106,
            "connectStart" : 0,
            "id" : "download_5",
            "receivedTime" : "440.551999985473",
            "sslStart" : -1,
            "dnsStart" : 40,
            "receiveLast" : 242.551999985473,
            "s_time" : 126.06800001231,
            "sendEnd" : 106,
            "sendStart" : 106,
            "type" : "application/javascript"
         }
      },
      {
         "when_comp_start" : -1,
         "url" : "http://original.testbed.localhost/assets.onestore.ms/cdnfiles/onestorerolling-1509-14010/shell/generated/shellservice.v2_5.min.js",
         "id" : "r10",
         "comps" : [
            {
               "s_time" : 754.76099998923,
               "time" : 15.4719999991361,
               "type" : 1,
               "id" : "comp_16",
               "e_time" : 770.232999988366
            }
         ],
         "download" : {
            "receiveFirst" : 48,
            "len" : 26955,
            "dns" : 0,
            "dnsEnd" : -1,
            "receiveHeadersEnd" : 245,
            "sslEnd" : -1,
            "connectEnd" : 197,
            "connectStart" : 0,
            "id" : "download_6",
            "receivedTime" : "731.751000013901",
            "sslStart" : -1,
            "dnsStart" : -1,
            "receiveLast" : 486.751000013901,
            "s_time" : 129.729999986012,
            "sendEnd" : 197,
            "sendStart" : 197,
            "type" : "application/javascript"
         }
      },
      {
         "when_comp_start" : -1,
         "url" : "http://original.testbed.localhost/mem.gfx.ms/meversion%3Fpartner=retailstore&market=en-US",
         "id" : "r9",
         "comps" : [
            {
               "s_time" : 743.255999987014,
               "time" : 10.1620000205,
               "type" : 1,
               "id" : "comp_14",
               "e_time" : 753.418000007514
            }
         ],
         "download" : {
            "receiveFirst" : 99,
            "len" : 4443,
            "dns" : 0,
            "dnsEnd" : -1,
            "receiveHeadersEnd" : 242,
            "sslEnd" : -1,
            "connectEnd" : 143,
            "connectStart" : 0,
            "id" : "download_7",
            "receivedTime" : "730.865999998059",
            "sslStart" : -1,
            "dnsStart" : -1,
            "receiveLast" : 488.865999998059,
            "s_time" : 129.151000001002,
            "sendEnd" : 143,
            "sendStart" : 143,
            "type" : "text/plain"
         }
      },
      {
         "when_comp_start" : -1,
         "url" : "http://original.testbed.localhost/assets.onestore.ms/cdnfiles/onestorerolling-1509-14010/store/blender/js/blender.js",
         "id" : "r11",
         "comps" : [
            {
               "s_time" : 774.414000014076,
               "time" : 4.24199999542896,
               "type" : 1,
               "id" : "comp_18",
               "e_time" : 778.656000009505
            }
         ],
         "download" : {
            "receiveFirst" : 43,
            "len" : 15839,
            "dns" : 0,
            "dnsEnd" : -1,
            "receiveHeadersEnd" : 252,
            "sslEnd" : -1,
            "connectEnd" : 208,
            "connectStart" : 0,
            "id" : "download_8",
            "receivedTime" : "732.787999993889",
            "sslStart" : -1,
            "dnsStart" : -1,
            "receiveLast" : 480.787999993889,
            "s_time" : 130.310000007739,
            "sendEnd" : 209,
            "sendStart" : 208,
            "type" : "application/javascript"
         }
      },
      {
         "when_comp_start" : -1,
         "url" : "http://original.testbed.localhost/c.s-microsoft.com/Static/UHF/Common/JS/respond.min.js",
         "id" : "r13",
         "comps" : [
            {
               "s_time" : 787.566999992123,
               "time" : 4.24199999542907,
               "type" : 1,
               "id" : "comp_21",
               "e_time" : 791.808999987552
            }
         ],
         "download" : {
            "receiveFirst" : 42,
            "len" : 4591,
            "dns" : 0,
            "dnsEnd" : -1,
            "receiveHeadersEnd" : 254,
            "sslEnd" : -1,
            "connectEnd" : 211,
            "connectStart" : 0,
            "id" : "download_9",
            "receivedTime" : "733.215999993263",
            "sslStart" : -1,
            "dnsStart" : -1,
            "receiveLast" : 479.215999993263,
            "s_time" : 131.560999987414,
            "sendEnd" : 212,
            "sendStart" : 211,
            "type" : "application/javascript"
         }
      },
      {
         "when_comp_start" : -1,
         "url" : "http://original.testbed.localhost/c.s-microsoft.com/en-us/CMSScripts/script.jsx%3Fk=73f1b5e2-f232-8d8c-8508-273be99f6755",
         "id" : "r14",
         "comps" : [
            {
               "s_time" : 792.816000001039,
               "time" : 2.83799998578695,
               "type" : 1,
               "id" : "comp_23",
               "e_time" : 795.653999986826
            }
         ],
         "download" : {
            "receiveFirst" : 55,
            "len" : 1624,
            "dns" : 0,
            "dnsEnd" : -1,
            "receiveHeadersEnd" : 273,
            "sslEnd" : -1,
            "connectEnd" : 218,
            "connectStart" : 0,
            "id" : "download_10",
            "receivedTime" : "734.101000009105",
            "sslStart" : -1,
            "dnsStart" : -1,
            "receiveLast" : 461.101000009105,
            "s_time" : 132.141000009142,
            "sendEnd" : 218,
            "sendStart" : 218,
            "type" : "text/plain"
         }
      },
      {
         "when_comp_start" : 1,
         "url" : "http://original.testbed.localhost/assets.onestore.ms/cdnfiles/onestorerolling-1509-14010/shell/common/respond-proxy.html",
         "id" : "r6",
         "comps" : [
            {
               "s_time" : 740.600999997696,
               "time" : 161.590000003343,
               "type" : 4,
               "id" : "comp_11",
               "e_time" : 902.191000001039
            }
         ],
         "download" : {
            "receiveFirst" : 260,
            "len" : 2168,
            "dns" : 0,
            "dnsEnd" : 34,
            "receiveHeadersEnd" : 363,
            "sslEnd" : -1,
            "connectEnd" : 103,
            "connectStart" : 0,
            "id" : "download_11",
            "receivedTime" : "740.265000000363",
            "sslStart" : -1,
            "dnsStart" : 34,
            "receiveLast" : 377.265000000363,
            "s_time" : 127.349999995204,
            "sendEnd" : 103,
            "sendStart" : 103,
            "type" : "text/html"
         }
      },
      {
         "when_comp_start" : -1,
         "url" : "http://original.testbed.localhost/assets.onestore.ms/cdnfiles/onestorerolling-1509-14010/shell/v2_5/images/logo/microsoft.png",
         "id" : "r28",
         "comps" : [],
         "download" : {
            "receiveFirst" : 13,
            "len" : 16628,
            "dns" : 0,
            "dnsEnd" : -1,
            "receiveHeadersEnd" : 41,
            "sslEnd" : -1,
            "connectEnd" : 28,
            "connectStart" : 0,
            "id" : "download_12",
            "receivedTime" : "934.539999987464",
            "sslStart" : -1,
            "dnsStart" : -1,
            "receiveLast" : 893.539999987464,
            "s_time" : 740.097000001697,
            "sendEnd" : 28,
            "sendStart" : 28,
            "type" : "image/png"
         }
      },
      {
         "when_comp_start" : -1,
         "url" : "http://original.testbed.localhost/c.s-microsoft.com/en-us/CMSImages/Ofc_Sway_0805_768x768_EN_US.jpg%3Fversion=e0f152c3-4970-07ac-2968-61703355e8f1",
         "id" : "r31",
         "comps" : [],
         "download" : {
            "receiveFirst" : 53,
            "len" : 93917,
            "dns" : 0,
            "dnsEnd" : -1,
            "receiveHeadersEnd" : 121,
            "sslEnd" : -1,
            "connectEnd" : 68,
            "connectStart" : 0,
            "id" : "download_13",
            "receivedTime" : "1737.61000001105",
            "sslStart" : -1,
            "dnsStart" : -1,
            "receiveLast" : 1616.61000001105,
            "s_time" : 921.646000002511,
            "sendEnd" : 68,
            "sendStart" : 68,
            "type" : "image/jpeg"
         }
      },
      {
         "when_comp_start" : -1,
         "url" : "http://original.testbed.localhost/c.s-microsoft.com/en-us/CMSImages/Apps_Win10Apps_0729_768x768_EN_US.jpg%3Fversion=b52ae42e-05ce-c28e-4c92-f6eccb588998",
         "id" : "r33",
         "comps" : [],
         "download" : {
            "receiveFirst" : 62,
            "len" : 96758,
            "dns" : 0,
            "dnsEnd" : -1,
            "receiveHeadersEnd" : 132,
            "sslEnd" : -1,
            "connectEnd" : 70,
            "connectStart" : 0,
            "id" : "download_14",
            "receivedTime" : "2216.46100000362",
            "sslStart" : -1,
            "dnsStart" : -1,
            "receiveLast" : 2084.46100000362,
            "s_time" : 923.462000006111,
            "sendEnd" : 70,
            "sendStart" : 70,
            "type" : "image/jpeg"
         }
      },
      {
         "when_comp_start" : -1,
         "url" : "http://original.testbed.localhost/c.s-microsoft.com/en-us/CMSImages/MMD_Default_0303_768x768_EN_US.jpg%3Fversion=387927e4-eb01-344e-b5a8-ae207ba13961",
         "id" : "r34",
         "comps" : [],
         "download" : {
            "receiveFirst" : 71,
            "len" : 110919,
            "dns" : 0,
            "dnsEnd" : -1,
            "receiveHeadersEnd" : 140,
            "sslEnd" : -1,
            "connectEnd" : 69,
            "connectStart" : 0,
            "id" : "download_15",
            "receivedTime" : "2114.41099998774",
            "sslStart" : -1,
            "dnsStart" : -1,
            "receiveLast" : 1974.41099998774,
            "s_time" : 924.437999987276,
            "sendEnd" : 69,
            "sendStart" : 69,
            "type" : "image/jpeg"
         }
      },
      {
         "when_comp_start" : -1,
         "url" : "http://original.testbed.localhost/c.s-microsoft.com/en-us/CMSImages/Win10_EntEval_0729_768x768_EN_US.jpg%3Fversion=5e0f23d5-640c-a382-5c9c-c4886321921a",
         "id" : "r35",
         "comps" : [],
         "download" : {
            "receiveFirst" : 79,
            "len" : 96188,
            "dns" : 0,
            "dnsEnd" : -1,
            "receiveHeadersEnd" : 147,
            "sslEnd" : -1,
            "connectEnd" : 68,
            "connectStart" : 0,
            "id" : "download_16",
            "receivedTime" : "1711.1819999991",
            "sslStart" : -1,
            "dnsStart" : -1,
            "receiveLast" : 1564.1819999991,
            "s_time" : 925.094000005629,
            "sendEnd" : 68,
            "sendStart" : 68,
            "type" : "image/jpeg"
         }
      },
      {
         "when_comp_start" : -1,
         "url" : "http://original.testbed.localhost/c.s-microsoft.com/en-us/CMSImages/VS_2015RTM_0720_768x768_EN_US.jpg%3Fversion=227592ed-9465-85c9-2552-47640e7fb804",
         "id" : "r36",
         "comps" : [],
         "download" : {
            "receiveFirst" : 102,
            "len" : 41458,
            "dns" : 0,
            "dnsEnd" : -1,
            "receiveHeadersEnd" : 169,
            "sslEnd" : -1,
            "connectEnd" : 67,
            "connectStart" : 0,
            "id" : "download_17",
            "receivedTime" : "1324.28000000073",
            "sslStart" : -1,
            "dnsStart" : -1,
            "receiveLast" : 1155.28000000073,
            "s_time" : 925.948999996763,
            "sendEnd" : 67,
            "sendStart" : 67,
            "type" : "image/jpeg"
         }
      },
      {
         "when_comp_start" : -1,
         "url" : "http://original.testbed.localhost/c.s-microsoft.com/en-us/CMSImages/Xbox_Himalaya_0831_768x768_EN_US.jpg%3Fversion=f268636b-a7f5-27c3-372a-493fadfed191",
         "id" : "r32",
         "comps" : [],
         "download" : {
            "receiveFirst" : 409,
            "len" : 28400,
            "dns" : 0,
            "dnsEnd" : -1,
            "receiveHeadersEnd" : 480,
            "sslEnd" : -1,
            "connectEnd" : 71,
            "connectStart" : 0,
            "id" : "download_18",
            "receivedTime" : "1621.79599999217",
            "sslStart" : -1,
            "dnsStart" : -1,
            "receiveLast" : 1141.79599999217,
            "s_time" : 922.531999996863,
            "sendEnd" : 71,
            "sendStart" : 71,
            "type" : "image/jpeg"
         }
      },
      {
         "when_comp_start" : -1,
         "url" : "http://original.testbed.localhost/i.s-microsoft.com/library/svy/broker.js",
         "id" : "r58",
         "comps" : [
            {
               "s_time" : 1534.27100001136,
               "time" : 46.17399998824,
               "type" : 1,
               "id" : "comp_42",
               "e_time" : 1580.4449999996
            }
         ],
         "download" : {
            "receiveFirst" : 193,
            "len" : 38632,
            "dns" : 0,
            "dnsEnd" : -1,
            "receiveHeadersEnd" : 563,
            "sslEnd" : -1,
            "connectEnd" : 369,
            "connectStart" : 0,
            "id" : "download_19",
            "receivedTime" : "1533.47799999756",
            "sslStart" : -1,
            "dnsStart" : -1,
            "receiveLast" : 970.477999997558,
            "s_time" : 939.484000002267,
            "sendEnd" : 370,
            "sendStart" : 369,
            "type" : "application/javascript"
         }
      },
      {
         "when_comp_start" : -1,
         "url" : "http://original.testbed.localhost/i.s-microsoft.com/global/ImageStore/RenderingAssets/js/8BitDay.min.js",
         "id" : "r59",
         "comps" : [
            {
               "s_time" : 1762.97000001068,
               "time" : 1.80099997670004,
               "type" : 1,
               "id" : "comp_47",
               "e_time" : 1764.77099998738
            }
         ],
         "download" : {
            "receiveFirst" : 197,
            "len" : 9186,
            "dns" : 0,
            "dnsEnd" : -1,
            "receiveHeadersEnd" : 776,
            "sslEnd" : -1,
            "connectEnd" : 578,
            "connectStart" : 0,
            "id" : "download_20",
            "receivedTime" : "1762.2379999957",
            "sslStart" : -1,
            "dnsStart" : -1,
            "receiveLast" : 986.237999995705,
            "s_time" : 940.337999985786,
            "sendEnd" : 579,
            "sendStart" : 578,
            "type" : "application/javascript"
         }
      },
      {
         "when_comp_start" : -1,
         "url" : "http://original.testbed.localhost/i.s-microsoft.com/fonts/segoe-ui/west-european/normal/latest.woff",
         "id" : "r15",
         "comps" : [],
         "download" : {
            "receiveFirst" : 154,
            "len" : 76509,
            "dns" : 0,
            "dnsEnd" : -1,
            "receiveHeadersEnd" : 525,
            "sslEnd" : -1,
            "connectEnd" : 367,
            "connectStart" : 0,
            "id" : "download_21",
            "receivedTime" : "2223.35799998837",
            "sslStart" : -1,
            "dnsStart" : -1,
            "receiveLast" : 1698.35799998837,
            "s_time" : 1257.17100000475,
            "sendEnd" : 371,
            "sendStart" : 367,
            "type" : "application/octet-stream"
         }
      },
      {
         "when_comp_start" : -1,
         "url" : "http://original.testbed.localhost/assets.onestore.ms/cdnfiles/onestorerolling-1509-14010/shell/v2_5/fonts/shell-icons-0.4.0.woff",
         "id" : "r24",
         "comps" : [],
         "download" : {
            "receiveFirst" : 101,
            "len" : 2780,
            "dns" : 0,
            "dnsEnd" : -1,
            "receiveHeadersEnd" : 554,
            "sslEnd" : -1,
            "connectEnd" : 453,
            "connectStart" : 0,
            "id" : "download_22",
            "receivedTime" : "2116.08899998828",
            "sslStart" : -1,
            "dnsStart" : -1,
            "receiveLast" : 1562.08899998828,
            "s_time" : 1258.54400001117,
            "sendEnd" : 453,
            "sendStart" : 453,
            "type" : "application/octet-stream"
         }
      },
      {
         "when_comp_start" : -1,
         "url" : "http://original.testbed.localhost/c.s-microsoft.com/en-us/CMSImages/app_netflix_215x215.jpg%3Fversion=9f3d6566-00e9-6d5e-bf17-ad627cab8f55",
         "id" : "r41",
         "comps" : [],
         "download" : {
            "receiveFirst" : 88,
            "len" : 5708,
            "dns" : 0,
            "dnsEnd" : -1,
            "receiveHeadersEnd" : 505,
            "sslEnd" : -1,
            "connectEnd" : 417,
            "connectStart" : 0,
            "id" : "download_23",
            "receivedTime" : "2119.32399999932",
            "sslStart" : -1,
            "dnsStart" : -1,
            "receiveLast" : 1614.32399999932,
            "s_time" : 1318.52699999581,
            "sendEnd" : 417,
            "sendStart" : 417,
            "type" : "image/jpeg"
         }
      },
      {
         "when_comp_start" : -1,
         "url" : "http://original.testbed.localhost/c.s-microsoft.com/en-us/CMSImages/app_twitter_215x215.jpg%3Fversion=d8755a22-c2f3-4928-340b-cab6777b7238",
         "id" : "r42",
         "comps" : [],
         "download" : {
            "receiveFirst" : 97,
            "len" : 6159,
            "dns" : 0,
            "dnsEnd" : -1,
            "receiveHeadersEnd" : 238,
            "sslEnd" : -1,
            "connectEnd" : 141,
            "connectStart" : 0,
            "id" : "download_24",
            "receivedTime" : "2124.66400000267",
            "sslStart" : -1,
            "dnsStart" : -1,
            "receiveLast" : 1886.66400000267,
            "s_time" : 1617.53899999894,
            "sendEnd" : 141,
            "sendStart" : 141,
            "type" : "image/jpeg"
         }
      },
      {
         "when_comp_start" : -1,
         "url" : "http://original.testbed.localhost/c.s-microsoft.com/en-us/CMSImages/app_candycrush_215x215.jpg%3Fversion=5e933e75-237b-9443-bcf5-a51fe77a37ac",
         "id" : "r43",
         "comps" : [],
         "download" : {
            "receiveFirst" : 95,
            "len" : 15470,
            "dns" : 0,
            "dnsEnd" : -1,
            "receiveHeadersEnd" : 184,
            "sslEnd" : -1,
            "connectEnd" : 89,
            "connectStart" : 0,
            "id" : "download_25",
            "receivedTime" : "2214.99700000277",
            "sslStart" : -1,
            "dnsStart" : -1,
            "receiveLast" : 2030.99700000277,
            "s_time" : 1702.20999998855,
            "sendEnd" : 89,
            "sendStart" : 89,
            "type" : "image/jpeg"
         }
      },
      {
         "when_comp_start" : -1,
         "url" : "http://original.testbed.localhost/c.s-microsoft.com/en-us/CMSImages/HPFeb15_social_Facebook.png%3Fversion=7f2bd528-7148-5a76-d124-92ede5ee71c5",
         "id" : "r44",
         "comps" : [],
         "download" : {
            "receiveFirst" : 137,
            "len" : 165,
            "dns" : 0,
            "dnsEnd" : -1,
            "receiveHeadersEnd" : 214,
            "sslEnd" : -1,
            "connectEnd" : 77,
            "connectStart" : 0,
            "id" : "download_26",
            "receivedTime" : "2217.83499998855",
            "sslStart" : -1,
            "dnsStart" : -1,
            "receiveLast" : 2003.83499998855,
            "s_time" : 1732.30000000331,
            "sendEnd" : 77,
            "sendStart" : 77,
            "type" : "image/png"
         }
      },
      {
         "when_comp_start" : -1,
         "url" : "http://original.testbed.localhost/c.s-microsoft.com/en-us/CMSImages/HPFeb15_social_Twitter.png%3Fversion=6eb346b9-c834-c911-b448-1f01aa7d0201",
         "id" : "r45",
         "comps" : [],
         "download" : {
            "receiveFirst" : 138,
            "len" : 252,
            "dns" : 0,
            "dnsEnd" : -1,
            "receiveHeadersEnd" : 174,
            "sslEnd" : -1,
            "connectEnd" : 36,
            "connectStart" : 0,
            "id" : "download_27",
            "receivedTime" : "2219.11599999294",
            "sslStart" : -1,
            "dnsStart" : -1,
            "receiveLast" : 2045.11599999294,
            "s_time" : 1791.80899998755,
            "sendEnd" : 36,
            "sendStart" : 36,
            "type" : "image/png"
         }
      },
      {
         "when_comp_start" : -1,
         "url" : "http://original.testbed.localhost/c.s-microsoft.com/en-us/CMSImages/windows_symbol.png%3Fversion=f1f9db81-67ef-8866-1be3-d5b1c1bb0b26",
         "id" : "r46",
         "comps" : [],
         "download" : {
            "receiveFirst" : 127,
            "len" : 476,
            "dns" : 0,
            "dnsEnd" : -1,
            "receiveHeadersEnd" : 167,
            "sslEnd" : -1,
            "connectEnd" : 40,
            "connectStart" : 0,
            "id" : "download_28",
            "receivedTime" : "2220.91699999874",
            "sslStart" : -1,
            "dnsStart" : -1,
            "receiveLast" : 2053.91699999874,
            "s_time" : 1826.46199999726,
            "sendEnd" : 40,
            "sendStart" : 40,
            "type" : "image/png"
         }
      },
      {
         "when_comp_start" : -1,
         "url" : "http://original.testbed.localhost/c.s-microsoft.com/en-us/CMSImages/office_symbol.png%3Fversion=8a3d8983-7b8d-c5b3-875b-504f8b2d0fa2",
         "id" : "r47",
         "comps" : [],
         "download" : {
            "receiveFirst" : 86,
            "len" : 474,
            "dns" : 0,
            "dnsEnd" : -1,
            "receiveHeadersEnd" : 140,
            "sslEnd" : -1,
            "connectEnd" : 54,
            "connectStart" : 0,
            "id" : "download_29",
            "receivedTime" : "2222.50400000485",
            "sslStart" : -1,
            "dnsStart" : -1,
            "receiveLast" : 2082.50400000485,
            "s_time" : 1865.34099999699,
            "sendEnd" : 54,
            "sendStart" : 54,
            "type" : "image/png"
         }
      },
      {
         "when_comp_start" : -1,
         "url" : "http://original.testbed.localhost/c.s-microsoft.com/en-us/CMSImages/Azure_ITI_0420_768x768_EN_US.jpg%3Fversion=b4b81d88-a68e-d56b-7bee-ee16a4c4b3be",
         "id" : "r37",
         "comps" : [],
         "download" : {
            "receiveFirst" : 98,
            "len" : 49722,
            "dns" : 0,
            "dnsEnd" : -1,
            "receiveHeadersEnd" : 1114,
            "sslEnd" : -1,
            "connectEnd" : 1016,
            "connectStart" : 0,
            "id" : "download_30",
            "receivedTime" : "2304.44400000852",
            "sslStart" : -1,
            "dnsStart" : -1,
            "receiveLast" : 1190.44400000852,
            "s_time" : 926.803999987897,
            "sendEnd" : 1016,
            "sendStart" : 1016,
            "type" : "image/jpeg"
         }
      },
      {
         "when_comp_start" : -1,
         "url" : "http://original.testbed.localhost/c.s-microsoft.com/en-us/CMSImages/surface_symbol.png%3Fversion=b6d37581-e678-3ad9-41c3-c20da72abe5f",
         "id" : "r48",
         "comps" : [],
         "download" : {
            "receiveFirst" : 101,
            "len" : 1956,
            "dns" : 0,
            "dnsEnd" : -1,
            "receiveHeadersEnd" : 145,
            "sslEnd" : -1,
            "connectEnd" : 44,
            "connectStart" : 0,
            "id" : "download_31",
            "receivedTime" : "2461.42599999439",
            "sslStart" : -1,
            "dnsStart" : -1,
            "receiveLast" : 2316.42599999439,
            "s_time" : 1916.82499999297,
            "sendEnd" : 44,
            "sendStart" : 44,
            "type" : "image/png"
         }
      },
      {
         "when_comp_start" : -1,
         "url" : "http://original.testbed.localhost/c.s-microsoft.com/en-us/CMSImages/windowsphone_symbol.png%3Fversion=1b2bd4af-a95a-1154-1961-f76daae4c607",
         "id" : "r49",
         "comps" : [],
         "download" : {
            "receiveFirst" : 83,
            "len" : 748,
            "dns" : 0,
            "dnsEnd" : -1,
            "receiveHeadersEnd" : 126,
            "sslEnd" : -1,
            "connectEnd" : 43,
            "connectStart" : 0,
            "id" : "download_32",
            "receivedTime" : "2255.92100000358",
            "sslStart" : -1,
            "dnsStart" : -1,
            "receiveLast" : 2129.92100000358,
            "s_time" : 1937.95799999498,
            "sendEnd" : 43,
            "sendStart" : 43,
            "type" : "image/png"
         }
      },
      {
         "when_comp_start" : -1,
         "url" : "http://original.testbed.localhost/c.s-microsoft.com/en-us/CMSImages/nokia_symbol_clr_52x52.png%3Fversion=fcf4dd12-804c-280b-fe6c-3b3c9c71940c",
         "id" : "r50",
         "comps" : [],
         "download" : {
            "receiveFirst" : 62,
            "len" : 1397,
            "dns" : 0,
            "dnsEnd" : -1,
            "receiveHeadersEnd" : 111,
            "sslEnd" : -1,
            "connectEnd" : 49,
            "connectStart" : 0,
            "id" : "download_33",
            "receivedTime" : "2257.17200001236",
            "sslStart" : -1,
            "dnsStart" : -1,
            "receiveLast" : 2146.17200001236,
            "s_time" : 1960.19000001252,
            "sendEnd" : 49,
            "sendStart" : 49,
            "type" : "image/png"
         }
      },
      {
         "when_comp_start" : -1,
         "url" : "http://original.testbed.localhost/c.s-microsoft.com/en-us/CMSImages/xbox_symbol.png%3Fversion=8dc5af5f-c398-c2b1-1704-f327c77085c1",
         "id" : "r51",
         "comps" : [],
         "download" : {
            "receiveFirst" : 60,
            "len" : 1631,
            "dns" : 0,
            "dnsEnd" : -1,
            "receiveHeadersEnd" : 107,
            "sslEnd" : -1,
            "connectEnd" : 46,
            "connectStart" : 0,
            "id" : "download_34",
            "receivedTime" : "2259.03300000937",
            "sslStart" : -1,
            "dnsStart" : -1,
            "receiveLast" : 2152.03300000937,
            "s_time" : 1980.45299999649,
            "sendEnd" : 47,
            "sendStart" : 46,
            "type" : "image/png"
         }
      },
      {
         "when_comp_start" : -1,
         "url" : "http://original.testbed.localhost/c.s-microsoft.com/en-us/CMSImages/Cloud_EMSWin10_0729_768x768_EN_US.jpg%3Fversion=f84286af-d30c-c006-2e63-dd39eea0af6d",
         "id" : "r38",
         "comps" : [],
         "download" : {
            "receiveFirst" : 53,
            "len" : 95764,
            "dns" : 0,
            "dnsEnd" : -1,
            "receiveHeadersEnd" : 1172,
            "sslEnd" : -1,
            "connectEnd" : 1119,
            "connectStart" : 0,
            "id" : "download_35",
            "receivedTime" : "2342.37699999358",
            "sslStart" : -1,
            "dnsStart" : -1,
            "receiveLast" : 1170.37699999358,
            "s_time" : 927.65800000052,
            "sendEnd" : 1119,
            "sendStart" : 1119,
            "type" : "image/jpeg"
         }
      },
      {
         "when_comp_start" : -1,
         "url" : "http://original.testbed.localhost/c.s-microsoft.com/en-us/CMSImages/skype_symbol.png%3Fversion=329162f4-4d39-4899-1232-40b0a4bfb87b",
         "id" : "r52",
         "comps" : [],
         "download" : {
            "receiveFirst" : 54,
            "len" : 3212,
            "dns" : 0,
            "dnsEnd" : -1,
            "receiveHeadersEnd" : 123,
            "sslEnd" : -1,
            "connectEnd" : 69,
            "connectStart" : 0,
            "id" : "download_36",
            "receivedTime" : "2308.68499999633",
            "sslStart" : -1,
            "dnsStart" : -1,
            "receiveLast" : 2185.68499999633,
            "s_time" : 2008.26999999117,
            "sendEnd" : 69,
            "sendStart" : 69,
            "type" : "image/png"
         }
      },
      {
         "when_comp_start" : -1,
         "url" : "http://original.testbed.localhost/c.s-microsoft.com/en-us/CMSImages/msn_symbol_clr_52x52.png%3Fversion=0402c50c-7dd8-b940-c220-cccc6e24f498",
         "id" : "r53",
         "comps" : [],
         "download" : {
            "receiveFirst" : 57,
            "len" : 1940,
            "dns" : 0,
            "dnsEnd" : -1,
            "receiveHeadersEnd" : 113,
            "sslEnd" : -1,
            "connectEnd" : 56,
            "connectStart" : 0,
            "id" : "download_37",
            "receivedTime" : "2313.07999999262",
            "sslStart" : -1,
            "dnsStart" : -1,
            "receiveLast" : 2200.07999999262,
            "s_time" : 2026.3210000121,
            "sendEnd" : 56,
            "sendStart" : 56,
            "type" : "image/png"
         }
      },
      {
         "when_comp_start" : -1,
         "url" : "http://original.testbed.localhost/c.s-microsoft.com/en-us/CMSImages/bing_symbol.png%3Fversion=5e8cc4ee-663c-5970-919e-9bc72fb1a2ec",
         "id" : "r54",
         "comps" : [],
         "download" : {
            "receiveFirst" : 64,
            "len" : 2161,
            "dns" : 0,
            "dnsEnd" : -1,
            "receiveHeadersEnd" : 113,
            "sslEnd" : -1,
            "connectEnd" : 49,
            "connectStart" : 0,
            "id" : "download_38",
            "receivedTime" : "2323.7000000081",
            "sslStart" : -1,
            "dnsStart" : -1,
            "receiveLast" : 2210.7000000081,
            "s_time" : 2076.35499999742,
            "sendEnd" : 49,
            "sendStart" : 49,
            "type" : "image/png"
         }
      },
      {
         "when_comp_start" : -1,
         "url" : "http://original.testbed.localhost/c.s-microsoft.com/en-us/CMSImages/store_symbol.png%3Fversion=e2eecca5-4550-10c6-57b1-5114804a4c01",
         "id" : "r55",
         "comps" : [],
         "download" : {
            "receiveFirst" : 61,
            "len" : 289,
            "dns" : 0,
            "dnsEnd" : -1,
            "receiveHeadersEnd" : 116,
            "sslEnd" : -1,
            "connectEnd" : 55,
            "connectStart" : 0,
            "id" : "download_39",
            "receivedTime" : "2326.99599998887",
            "sslStart" : -1,
            "dnsStart" : -1,
            "receiveLast" : 2210.99599998887,
            "s_time" : 2081.87799999723,
            "sendEnd" : 55,
            "sendStart" : 55,
            "type" : "image/png"
         }
      },
      {
         "when_comp_start" : -1,
         "url" : "http://original.testbed.localhost/c.s-microsoft.com/en-us/CMSImages/ms_footerlogo_symbol.png%3Fversion=ee37649c-b0fc-fb61-2145-208603a372db",
         "id" : "r56",
         "comps" : [],
         "download" : {
            "receiveFirst" : 57,
            "len" : 2279,
            "dns" : 0,
            "dnsEnd" : -1,
            "receiveHeadersEnd" : 97,
            "sslEnd" : -1,
            "connectEnd" : 40,
            "connectStart" : 0,
            "id" : "download_40",
            "receivedTime" : "2329.83400000376",
            "sslStart" : -1,
            "dnsStart" : -1,
            "receiveLast" : 2232.83400000376,
            "s_time" : 2101.68399999384,
            "sendEnd" : 40,
            "sendStart" : 40,
            "type" : "image/png"
         }
      },
      {
         "when_comp_start" : -1,
         "url" : "http://original.testbed.localhost/c.s-microsoft.com/en-us/CMSImages/app_huluplus_215x215.jpg%3Fversion=749b1aad-b6c1-0ea7-77ba-997a3428f22f",
         "id" : "r39",
         "comps" : [],
         "download" : {
            "receiveFirst" : 53,
            "len" : 8156,
            "dns" : 0,
            "dnsEnd" : -1,
            "receiveHeadersEnd" : 1308,
            "sslEnd" : -1,
            "connectEnd" : 1254,
            "connectStart" : 0,
            "id" : "download_41",
            "receivedTime" : "2334.53399999416",
            "sslStart" : -1,
            "dnsStart" : -1,
            "receiveLast" : 1026.53399999416,
            "s_time" : 928.267999988748,
            "sendEnd" : 1255,
            "sendStart" : 1254,
            "type" : "image/jpeg"
         }
      },
      {
         "when_comp_start" : -1,
         "url" : "http://original.testbed.localhost/c.s-microsoft.com/en-us/CMSImages/app_flipboard_215x215.jpg%3Fversion=33b91f37-431f-ce3e-d3a2-144d7518d3dc",
         "id" : "r40",
         "comps" : [],
         "download" : {
            "receiveFirst" : 61,
            "len" : 4519,
            "dns" : 0,
            "dnsEnd" : -1,
            "receiveHeadersEnd" : 1336,
            "sslEnd" : -1,
            "connectEnd" : 1275,
            "connectStart" : 0,
            "id" : "download_42",
            "receivedTime" : "2341.61400000448",
            "sslStart" : -1,
            "dnsStart" : -1,
            "receiveLast" : 1005.61400000448,
            "s_time" : 929.138000006787,
            "sendEnd" : 1275,
            "sendStart" : 1275,
            "type" : "image/jpeg"
         }
      }
   ],
   "deps" : [
      {
         "a2" : "r1_c2",
         "time" : -1,
         "id" : "dep1",
         "a1" : "comp_1"
      },
      {
         "a2" : "r1_c3",
         "time" : -1,
         "id" : "dep2",
         "a1" : "comp_5"
      },
      {
         "a2" : "r1_c4",
         "time" : -1,
         "id" : "dep3",
         "a1" : "comp_7"
      },
      {
         "a2" : "r1_c5",
         "time" : -1,
         "id" : "dep4",
         "a1" : "comp_12"
      },
      {
         "a2" : "r1_c6",
         "time" : -1,
         "id" : "dep5",
         "a1" : "comp_14"
      },
      {
         "a2" : "r1_c7",
         "time" : -1,
         "id" : "dep6",
         "a1" : "comp_16"
      },
      {
         "a2" : "r1_c8",
         "time" : -1,
         "id" : "dep7",
         "a1" : "comp_18"
      },
      {
         "a2" : "r1_c9",
         "time" : -1,
         "id" : "dep8",
         "a1" : "comp_21"
      },
      {
         "a2" : "r1_c10",
         "time" : -1,
         "id" : "dep9",
         "a1" : "comp_23"
      },
      {
         "a2" : "r1_c11",
         "time" : -1,
         "id" : "dep10",
         "a1" : "comp_42"
      },
      {
         "a2" : "r1_c12",
         "time" : -1,
         "id" : "dep11",
         "a1" : "comp_47"
      },
      {
         "a2" : "comp_7",
         "time" : -1,
         "id" : "dep12",
         "a1" : "comp_5"
      },
      {
         "a2" : "comp_12",
         "time" : -1,
         "id" : "dep13",
         "a1" : "comp_7"
      },
      {
         "a2" : "comp_12",
         "time" : -1,
         "id" : "dep14",
         "a1" : "comp_4"
      },
      {
         "a2" : "comp_12",
         "time" : -1,
         "id" : "dep15",
         "a1" : "comp_11"
      },
      {
         "a2" : "comp_14",
         "time" : -1,
         "id" : "dep16",
         "a1" : "comp_12"
      },
      {
         "a2" : "comp_16",
         "time" : -1,
         "id" : "dep17",
         "a1" : "comp_14"
      },
      {
         "a2" : "comp_18",
         "time" : -1,
         "id" : "dep18",
         "a1" : "comp_16"
      },
      {
         "a2" : "comp_23",
         "time" : -1,
         "id" : "dep19",
         "a1" : "comp_21"
      },
      {
         "a2" : "comp_47",
         "time" : -1,
         "id" : "dep20",
         "a1" : "comp_42"
      },
      {
         "a2" : "download_42",
         "time" : -1,
         "id" : "dep21",
         "a1" : "r1_c10"
      },
      {
         "a2" : "download_41",
         "time" : 132.614000001922,
         "id" : "dep22",
         "a1" : "r1_c10"
      },
      {
         "a2" : "download_40",
         "time" : -1,
         "id" : "dep23",
         "a1" : "r1_c12"
      },
      {
         "a2" : "download_39",
         "time" : 317.10700000985,
         "id" : "dep24",
         "a1" : "r1_c12"
      },
      {
         "a2" : "download_38",
         "time" : 311.58400001004,
         "id" : "dep25",
         "a1" : "r1_c12"
      },
      {
         "a2" : "download_37",
         "time" : 261.55000002472,
         "id" : "dep26",
         "a1" : "r1_c12"
      },
      {
         "a2" : "download_36",
         "time" : 243.49900000379,
         "id" : "dep27",
         "a1" : "r1_c12"
      },
      {
         "a2" : "download_35",
         "time" : 132.004000013694,
         "id" : "dep28",
         "a1" : "r1_c10"
      },
      {
         "a2" : "download_34",
         "time" : 215.68200000911,
         "id" : "dep29",
         "a1" : "r1_c12"
      },
      {
         "a2" : "download_33",
         "time" : 195.41900002514,
         "id" : "dep30",
         "a1" : "r1_c12"
      },
      {
         "a2" : "download_32",
         "time" : 173.1870000076,
         "id" : "dep31",
         "a1" : "r1_c12"
      },
      {
         "a2" : "download_31",
         "time" : 152.05400000559,
         "id" : "dep32",
         "a1" : "r1_c12"
      },
      {
         "a2" : "download_30",
         "time" : 131.150000001071,
         "id" : "dep33",
         "a1" : "r1_c10"
      },
      {
         "a2" : "download_29",
         "time" : 100.57000000961,
         "id" : "dep34",
         "a1" : "r1_c12"
      },
      {
         "a2" : "download_28",
         "time" : 61.6910000098799,
         "id" : "dep35",
         "a1" : "r1_c12"
      },
      {
         "a2" : "download_27",
         "time" : 27.0380000001699,
         "id" : "dep36",
         "a1" : "r1_c12"
      },
      {
         "a2" : "download_26",
         "time" : -1,
         "id" : "dep37",
         "a1" : "r1_c11"
      },
      {
         "a2" : "download_25",
         "time" : 121.76499998895,
         "id" : "dep38",
         "a1" : "r1_c11"
      },
      {
         "a2" : "download_24",
         "time" : 37.09399999934,
         "id" : "dep39",
         "a1" : "r1_c11"
      },
      {
         "a2" : "download_23",
         "time" : -1,
         "id" : "dep40",
         "a1" : "r1_c10"
      },
      {
         "a2" : "download_22",
         "time" : 462.890000024344,
         "id" : "dep41",
         "a1" : "r1_c10"
      },
      {
         "a2" : "download_21",
         "time" : 461.517000017924,
         "id" : "dep42",
         "a1" : "r1_c10"
      },
      {
         "a2" : "download_20",
         "time" : 144.68399999896,
         "id" : "dep43",
         "a1" : "r1_c10"
      },
      {
         "a2" : "download_20",
         "time" : 144.68399999896,
         "id" : "dep44",
         "a1" : "r1_c10"
      },
      {
         "a2" : "download_19",
         "time" : 143.830000015441,
         "id" : "dep45",
         "a1" : "r1_c10"
      },
      {
         "a2" : "download_19",
         "time" : 143.830000015441,
         "id" : "dep46",
         "a1" : "r1_c10"
      },
      {
         "a2" : "download_18",
         "time" : 126.878000010037,
         "id" : "dep47",
         "a1" : "r1_c10"
      },
      {
         "a2" : "download_17",
         "time" : 130.295000009937,
         "id" : "dep48",
         "a1" : "r1_c10"
      },
      {
         "a2" : "download_16",
         "time" : 129.440000018803,
         "id" : "dep49",
         "a1" : "r1_c10"
      },
      {
         "a2" : "download_15",
         "time" : 128.78400000045,
         "id" : "dep50",
         "a1" : "r1_c10"
      },
      {
         "a2" : "download_14",
         "time" : 127.808000019285,
         "id" : "dep51",
         "a1" : "r1_c10"
      },
      {
         "a2" : "download_13",
         "time" : 125.992000015685,
         "id" : "dep52",
         "a1" : "r1_c10"
      },
      {
         "a2" : "download_12",
         "time" : -1,
         "id" : "dep53",
         "a1" : "r1_c4"
      },
      {
         "a2" : "download_12",
         "time" : 45.638999989024,
         "id" : "dep54",
         "a1" : "r1_c4"
      },
      {
         "a2" : "download_11",
         "time" : -1,
         "id" : "dep55",
         "a1" : "r1_c1"
      },
      {
         "a2" : "download_11",
         "time" : 5.218000005698,
         "id" : "dep56",
         "a1" : "r1_c1"
      },
      {
         "a2" : "download_10",
         "time" : -1,
         "id" : "dep57",
         "a1" : "r1_c1"
      },
      {
         "a2" : "download_10",
         "time" : 10.009000019636,
         "id" : "dep58",
         "a1" : "r1_c1"
      },
      {
         "a2" : "download_9",
         "time" : 9.42899999790799,
         "id" : "dep59",
         "a1" : "r1_c1"
      },
      {
         "a2" : "download_9",
         "time" : 9.42899999790799,
         "id" : "dep60",
         "a1" : "r1_c1"
      },
      {
         "a2" : "download_8",
         "time" : 8.17800001823301,
         "id" : "dep61",
         "a1" : "r1_c1"
      },
      {
         "a2" : "download_8",
         "time" : 8.17800001823301,
         "id" : "dep62",
         "a1" : "r1_c1"
      },
      {
         "a2" : "download_7",
         "time" : 7.01900001149599,
         "id" : "dep63",
         "a1" : "r1_c1"
      },
      {
         "a2" : "download_7",
         "time" : 7.01900001149599,
         "id" : "dep64",
         "a1" : "r1_c1"
      },
      {
         "a2" : "download_6",
         "time" : 7.59799999650599,
         "id" : "dep65",
         "a1" : "r1_c1"
      },
      {
         "a2" : "download_6",
         "time" : 7.59799999650599,
         "id" : "dep66",
         "a1" : "r1_c1"
      },
      {
         "a2" : "download_5",
         "time" : 3.936000022804,
         "id" : "dep67",
         "a1" : "r1_c1"
      },
      {
         "a2" : "download_5",
         "time" : 3.936000022804,
         "id" : "dep68",
         "a1" : "r1_c1"
      },
      {
         "a2" : "download_4",
         "time" : 6.43900001887201,
         "id" : "dep69",
         "a1" : "r1_c1"
      },
      {
         "a2" : "download_4",
         "time" : 6.43900001887201,
         "id" : "dep70",
         "a1" : "r1_c1"
      },
      {
         "a2" : "download_3",
         "time" : 4.60800001747,
         "id" : "dep71",
         "a1" : "r1_c1"
      },
      {
         "a2" : "download_3",
         "time" : 4.60800001747,
         "id" : "dep72",
         "a1" : "r1_c1"
      },
      {
         "a2" : "download_2",
         "time" : 2.83800001489,
         "id" : "dep73",
         "a1" : "r1_c1"
      },
      {
         "a2" : "download_2",
         "time" : 2.83800001489,
         "id" : "dep74",
         "a1" : "r1_c1"
      },
      {
         "a2" : "download_1",
         "time" : 1.831000001402,
         "id" : "dep75",
         "a1" : "r1_c1"
      }
   ]
}
