{
   "n_download_no_trigger" : 1,
   "start_activity" : "download_0",
   "name" : "original.testbed.localhost_www.wnd.com_",
   "load_activity" : -1,
   "objs" : [
      {
         "when_comp_start" : 1,
         "url" : "http://original.testbed.localhost/www.wnd.com/",
         "id" : "r1",
         "comps" : [
            {
               "s_time" : 118.224999998347,
               "time" : 12.299000001803,
               "id" : "r1_c1",
               "type" : "evalhtml",
               "e_time" : 130.52400000015
            },
            {
               "s_time" : 314.605999999912,
               "time" : -54925872.513,
               "id" : "r1_c2",
               "type" : "evalhtml",
               "e_time" : -54925557.907
            },
            {
               "s_time" : 328.7049999999,
               "time" : 61.644999994314,
               "id" : "r1_c3",
               "type" : "evalhtml",
               "e_time" : 390.349999994214
            },
            {
               "s_time" : 535.583999997471,
               "time" : -54926093.491,
               "id" : "r1_c4",
               "type" : "evalhtml",
               "e_time" : -54925557.907
            },
            {
               "s_time" : 540.252999999211,
               "time" : 25.879000000714,
               "id" : "r1_c5",
               "type" : "evalhtml",
               "e_time" : 566.131999999925
            },
            {
               "s_time" : 1005.55399999575,
               "time" : -54926563.461,
               "id" : "r1_c6",
               "type" : "evalhtml",
               "e_time" : -54925557.907
            },
            {
               "s_time" : 1009.06399999803,
               "time" : -54926566.971,
               "id" : "r1_c7",
               "type" : "evalhtml",
               "e_time" : -54925557.907
            },
            {
               "s_time" : 1030.91399999539,
               "time" : -54926588.821,
               "id" : "r1_c8",
               "type" : "evalhtml",
               "e_time" : -54925557.907
            },
            {
               "s_time" : 1049.2860000013,
               "time" : -54926607.193,
               "id" : "r1_c9",
               "type" : "evalhtml",
               "e_time" : -54925557.907
            },
            {
               "s_time" : 1064.72799999756,
               "time" : -54926622.635,
               "id" : "r1_c10",
               "type" : "evalhtml",
               "e_time" : -54925557.907
            },
            {
               "s_time" : 1076.65999999881,
               "time" : -54926634.567,
               "id" : "r1_c11",
               "type" : "evalhtml",
               "e_time" : -54925557.907
            },
            {
               "s_time" : 1092.34599999763,
               "time" : -54926650.253,
               "id" : "r1_c12",
               "type" : "evalhtml",
               "e_time" : -54925557.907
            },
            {
               "s_time" : 1103.08799999621,
               "time" : -54926660.995,
               "id" : "r1_c13",
               "type" : "evalhtml",
               "e_time" : -54925557.907
            },
            {
               "s_time" : 1109.61899999529,
               "time" : -54926667.526,
               "id" : "r1_c14",
               "type" : "evalhtml",
               "e_time" : -54925557.907
            },
            {
               "s_time" : 1171.50899999979,
               "time" : 982.19299999618,
               "id" : "r1_c15",
               "type" : "evalhtml",
               "e_time" : 2153.70199999597
            },
            {
               "s_time" : 2307.89199999708,
               "time" : 339.26300000167,
               "id" : "r1_c16",
               "type" : "evalhtml",
               "e_time" : 2647.15499999875
            },
            {
               "s_time" : 2671.53899999539,
               "time" : -54928229.446,
               "id" : "r1_c17",
               "type" : "evalhtml",
               "e_time" : -54925557.907
            },
            {
               "s_time" : 2676.48299999564,
               "time" : -54928234.39,
               "id" : "r1_c18",
               "type" : "evalhtml",
               "e_time" : -54925557.907
            },
            {
               "s_time" : 2678.1919999994,
               "time" : 882.4769999992,
               "type" : "evalhtml",
               "id" : "r1_c19",
               "e_time" : 3560.6689999986
            }
         ],
         "download" : {
            "receiveFirst" : 14,
            "len" : 107709,
            "dns" : 0,
            "dnsEnd" : -1,
            "receiveHeadersEnd" : 19,
            "sslEnd" : -1,
            "connectEnd" : 5,
            "connectStart" : 0,
            "id" : "download_0",
            "receivedTime" : "116.485999998986",
            "sslStart" : -1,
            "dnsStart" : -1,
            "receiveLast" : 97.4859999989858,
            "s_time" : 0,
            "sendEnd" : 5,
            "sendStart" : 5,
            "type" : "text/html"
         }
      },
      {
         "when_comp_start" : -1,
         "url" : "http://original.testbed.localhost/cdnjs.cloudflare.com/ajax/libs/masonry/3.3.0/masonry.pkgd.min.js",
         "id" : "r2",
         "comps" : [
            {
               "s_time" : 251.861999997345,
               "time" : 62.744000002567,
               "type" : 1,
               "id" : "comp_4",
               "e_time" : 314.605999999912
            }
         ],
         "download" : {
            "receiveFirst" : 68,
            "len" : 28315,
            "dns" : 0,
            "dnsEnd" : -1,
            "receiveHeadersEnd" : 99,
            "sslEnd" : -1,
            "connectEnd" : 31,
            "connectStart" : 0,
            "id" : "download_1",
            "receivedTime" : "251.128999996581",
            "sslStart" : -1,
            "dnsStart" : -1,
            "receiveLast" : 152.128999996581,
            "s_time" : 120.361000001139,
            "sendEnd" : 31,
            "sendStart" : 31,
            "type" : "application/javascript"
         }
      },
      {
         "when_comp_start" : -1,
         "url" : "http://original.testbed.localhost/www.wnd.com/wp-content/plugins/wnd-widgets/widgets/base/assets/css/style.css%3Fver=3.9.2.css",
         "id" : "r4",
         "comps" : [
            {
               "s_time" : 244.049000000814,
               "time" : 0.121999997645986,
               "type" : 4,
               "id" : "comp_0",
               "e_time" : 244.17099999846
            }
         ],
         "download" : {
            "receiveFirst" : 52,
            "len" : 1515,
            "dns" : 0,
            "dnsEnd" : 32,
            "receiveHeadersEnd" : 99,
            "sslEnd" : -1,
            "connectEnd" : 47,
            "connectStart" : 0,
            "id" : "download_2",
            "receivedTime" : "242.034999995667",
            "sslStart" : -1,
            "dnsStart" : 32,
            "receiveLast" : 143.034999995667,
            "s_time" : 121.856999998272,
            "sendEnd" : 47,
            "sendStart" : 47,
            "type" : "text/css"
         }
      },
      {
         "when_comp_start" : -1,
         "url" : "http://original.testbed.localhost/www.wnd.com/wp-content/plugins/wnd-widgets/widgets/breaking/assets/css/style.css%3Fver=3.9.2.css",
         "id" : "r5",
         "comps" : [
            {
               "s_time" : 247.467000001052,
               "time" : 0.121999997645986,
               "type" : 4,
               "id" : "comp_1",
               "e_time" : 247.588999998698
            }
         ],
         "download" : {
            "receiveFirst" : 53,
            "len" : 750,
            "dns" : 0,
            "dnsEnd" : 34,
            "receiveHeadersEnd" : 99,
            "sslEnd" : -1,
            "connectEnd" : 46,
            "connectStart" : 0,
            "id" : "download_3",
            "receivedTime" : "246.917999997095",
            "sslStart" : -1,
            "dnsStart" : 34,
            "receiveLast" : 147.917999997095,
            "s_time" : 122.527999999875,
            "sendEnd" : 46,
            "sendStart" : 46,
            "type" : "text/css"
         }
      },
      {
         "when_comp_start" : -1,
         "url" : "http://original.testbed.localhost/www.wnd.com/wp-content/plugins/wnd-widgets/widgets/poll/assets/css/style.css%3Fver=3.9.2.css",
         "id" : "r6",
         "comps" : [
            {
               "s_time" : 248.565999994753,
               "time" : 0.122000004921972,
               "type" : 4,
               "id" : "comp_2",
               "e_time" : 248.687999999675
            }
         ],
         "download" : {
            "receiveFirst" : 55,
            "len" : 2013,
            "dns" : 0,
            "dnsEnd" : 37,
            "receiveHeadersEnd" : 100,
            "sslEnd" : -1,
            "connectEnd" : 45,
            "connectStart" : 0,
            "id" : "download_4",
            "receivedTime" : "248.19999999454",
            "sslStart" : -1,
            "dnsStart" : 37,
            "receiveLast" : 148.19999999454,
            "s_time" : 123.22999999742,
            "sendEnd" : 45,
            "sendStart" : 45,
            "type" : "text/css"
         }
      },
      {
         "when_comp_start" : -1,
         "url" : "http://original.testbed.localhost/www.wnd.com/wp-content/plugins/wnd-widgets/widgets/rated/assets/css/style.css%3Fver=3.9.2.css",
         "id" : "r7",
         "comps" : [
            {
               "s_time" : 249.4200000001,
               "time" : 0.121999997645986,
               "type" : 4,
               "id" : "comp_3",
               "e_time" : 249.541999997746
            }
         ],
         "download" : {
            "receiveFirst" : 55,
            "len" : 2400,
            "dns" : 0,
            "dnsEnd" : 38,
            "receiveHeadersEnd" : 100,
            "sslEnd" : -1,
            "connectEnd" : 44,
            "connectStart" : 0,
            "id" : "download_5",
            "receivedTime" : "249.11499999871",
            "sslStart" : -1,
            "dnsStart" : 38,
            "receiveLast" : 149.11499999871,
            "s_time" : 123.748999998497,
            "sendEnd" : 45,
            "sendStart" : 44,
            "type" : "text/css"
         }
      },
      {
         "when_comp_start" : -1,
         "url" : "http://original.testbed.localhost/segapi.quantserve.com/api/segments.json%3Fa=p-d9XxhfbZ3mYSM&callback=qc_results",
         "id" : "r3",
         "comps" : [
            {
               "s_time" : 327.575999996043,
               "time" : 1.12900000385702,
               "type" : 1,
               "id" : "comp_9",
               "e_time" : 328.7049999999
            }
         ],
         "download" : {
            "receiveFirst" : 67,
            "len" : 39,
            "dns" : 0,
            "dnsEnd" : -1,
            "receiveHeadersEnd" : 99,
            "sslEnd" : -1,
            "connectEnd" : 31,
            "connectStart" : 0,
            "id" : "download_6",
            "receivedTime" : "240.265000000363",
            "sslStart" : -1,
            "dnsStart" : -1,
            "receiveLast" : 141.265000000363,
            "s_time" : 121.215999999549,
            "sendEnd" : 32,
            "sendStart" : 31,
            "type" : "text/plain"
         }
      },
      {
         "when_comp_start" : -1,
         "url" : "http://original.testbed.localhost/www.wnd.com/wp-content/plugins/wnd-widgets/widgets/scoop/assets/css/style.css%3Fver=3.9.2.css",
         "id" : "r8",
         "comps" : [
            {
               "s_time" : 349.029999997583,
               "time" : 2.16599999839701,
               "type" : 4,
               "id" : "comp_16",
               "e_time" : 351.19599999598
            }
         ],
         "download" : {
            "receiveFirst" : 51,
            "len" : 1545,
            "dns" : 0,
            "dnsEnd" : -1,
            "receiveHeadersEnd" : 160,
            "sslEnd" : -1,
            "connectEnd" : 109,
            "connectStart" : 0,
            "id" : "download_7",
            "receivedTime" : "348.267000001215",
            "sslStart" : -1,
            "dnsStart" : -1,
            "receiveLast" : 188.267000001215,
            "s_time" : 124.359000001277,
            "sendEnd" : 109,
            "sendStart" : 109,
            "type" : "text/css"
         }
      },
      {
         "when_comp_start" : -1,
         "url" : "http://original.testbed.localhost/ajax.googleapis.com/ajax/libs/jqueryui/1.8/themes/smoothness/jquery-ui.css%3Fver=3.9.2.css",
         "id" : "r10",
         "comps" : [
            {
               "s_time" : 360.015999998723,
               "time" : 22.49099999608,
               "type" : 4,
               "id" : "comp_17",
               "e_time" : 382.506999994803
            }
         ],
         "download" : {
            "receiveFirst" : 52,
            "len" : 33172,
            "dns" : 0,
            "dnsEnd" : -1,
            "receiveHeadersEnd" : 163,
            "sslEnd" : -1,
            "connectEnd" : 111,
            "connectStart" : 0,
            "id" : "download_8",
            "receivedTime" : "359.405999995943",
            "sslStart" : -1,
            "dnsStart" : -1,
            "receiveLast" : 196.405999995943,
            "s_time" : 125.701999997545,
            "sendEnd" : 111,
            "sendStart" : 111,
            "type" : "text/css"
         }
      },
      {
         "when_comp_start" : -1,
         "url" : "http://original.testbed.localhost/www.wnd.com/wp-content/plugins/wp-polls/polls-css.css%3Fver=2.63-r8.css",
         "id" : "r11",
         "comps" : [
            {
               "s_time" : 384.399999995367,
               "time" : 5.46200000098901,
               "type" : 4,
               "id" : "comp_18",
               "e_time" : 389.861999996356
            }
         ],
         "download" : {
            "receiveFirst" : 54,
            "len" : 7678,
            "dns" : 0,
            "dnsEnd" : -1,
            "receiveHeadersEnd" : 168,
            "sslEnd" : -1,
            "connectEnd" : 114,
            "connectStart" : 0,
            "id" : "download_9",
            "receivedTime" : "383.88099999429",
            "sslStart" : -1,
            "dnsStart" : -1,
            "receiveLast" : 215.88099999429,
            "s_time" : 126.892000000225,
            "sendEnd" : 114,
            "sendStart" : 114,
            "type" : "text/css"
         }
      },
      {
         "when_comp_start" : -1,
         "url" : "http://original.testbed.localhost/www.wnd.com/wp-content/themes/worldnet-theme/style.css%3Fver=3.9.2.css",
         "id" : "r9",
         "comps" : [
            {
               "s_time" : 401.977999994415,
               "time" : 139.251000000513,
               "type" : 4,
               "id" : "comp_22",
               "e_time" : 541.228999994928
            }
         ],
         "download" : {
            "receiveFirst" : 63,
            "len" : 206888,
            "dns" : 0,
            "dnsEnd" : -1,
            "receiveHeadersEnd" : 174,
            "sslEnd" : -1,
            "connectEnd" : 111,
            "connectStart" : 0,
            "id" : "download_10",
            "receivedTime" : "401.459000000614",
            "sslStart" : -1,
            "dnsStart" : -1,
            "receiveLast" : 227.459000000614,
            "s_time" : 125.030999995943,
            "sendEnd" : 111,
            "sendStart" : 111,
            "type" : "text/css"
         }
      },
      {
         "when_comp_start" : -1,
         "url" : "http://original.testbed.localhost/www.wnd.com/wp-includes/js/swfobject.js%3Fver=2.2-20120417",
         "id" : "r12",
         "comps" : [
            {
               "s_time" : 520.171999996819,
               "time" : 15.412000000652,
               "type" : 1,
               "id" : "comp_23",
               "e_time" : 535.583999997471
            }
         ],
         "download" : {
            "receiveFirst" : 79,
            "len" : 10231,
            "dns" : 0,
            "dnsEnd" : -1,
            "receiveHeadersEnd" : 194,
            "sslEnd" : -1,
            "connectEnd" : 115,
            "connectStart" : 0,
            "id" : "download_11",
            "receivedTime" : "395.537999997032",
            "sslStart" : -1,
            "dnsStart" : -1,
            "receiveLast" : 201.537999997032,
            "s_time" : 127.685999999812,
            "sendEnd" : 115,
            "sendStart" : 115,
            "type" : "text/plain"
         }
      },
      {
         "when_comp_start" : -1,
         "url" : "http://original.testbed.localhost/www.wnd.com/wp-content/themes/worldnet-theme/_/js/mobile.js%3Fver=3.9.2",
         "id" : "r13",
         "comps" : [
            {
               "s_time" : 536.77400000015,
               "time" : 3.4789999990611,
               "type" : 1,
               "id" : "comp_25",
               "e_time" : 540.252999999211
            }
         ],
         "download" : {
            "receiveFirst" : 99,
            "len" : 1670,
            "dns" : 0,
            "dnsEnd" : -1,
            "receiveHeadersEnd" : 213,
            "sslEnd" : -1,
            "connectEnd" : 114,
            "connectStart" : 0,
            "id" : "download_12",
            "receivedTime" : "399.53599999717",
            "sslStart" : -1,
            "dnsStart" : -1,
            "receiveLast" : 186.53599999717,
            "s_time" : 128.661999995529,
            "sendEnd" : 114,
            "sendStart" : 114,
            "type" : "text/plain"
         }
      },
      {
         "when_comp_start" : -1,
         "url" : "http://original.testbed.localhost/ajax.googleapis.com/ajax/libs/jquery/1.7.1/jquery.min.js%3Fver=3.9.2",
         "id" : "r14",
         "comps" : [
            {
               "s_time" : 845.642000000225,
               "time" : 159.911999995525,
               "type" : 1,
               "id" : "comp_29",
               "e_time" : 1005.55399999575
            }
         ],
         "download" : {
            "receiveFirst" : 109,
            "len" : 93868,
            "dns" : 0,
            "dnsEnd" : -1,
            "receiveHeadersEnd" : 276,
            "sslEnd" : -1,
            "connectEnd" : 167,
            "connectStart" : 0,
            "id" : "download_13",
            "receivedTime" : "844.63500000129",
            "sslStart" : -1,
            "dnsStart" : -1,
            "receiveLast" : 568.63500000129,
            "s_time" : 129.607999995642,
            "sendEnd" : 167,
            "sendStart" : 167,
            "type" : "text/plain"
         }
      },
      {
         "when_comp_start" : -1,
         "url" : "http://original.testbed.localhost/www.wnd.com/wp-content/plugins/elasticsearch/better-suggest.js%3Fver=3.9.2",
         "id" : "r15",
         "comps" : [
            {
               "s_time" : 1006.04300000123,
               "time" : 3.02099999680001,
               "type" : 1,
               "id" : "comp_31",
               "e_time" : 1009.06399999803
            }
         ],
         "download" : {
            "receiveFirst" : 104,
            "len" : 10144,
            "dns" : 0,
            "dnsEnd" : -1,
            "receiveHeadersEnd" : 290,
            "sslEnd" : -1,
            "connectEnd" : 186,
            "connectStart" : 0,
            "id" : "download_14",
            "receivedTime" : "546.783999998297",
            "sslStart" : -1,
            "dnsStart" : -1,
            "receiveLast" : 256.783999998297,
            "s_time" : 130.52400000015,
            "sendEnd" : 186,
            "sendStart" : 186,
            "type" : "text/plain"
         }
      },
      {
         "when_comp_start" : -1,
         "url" : "http://original.testbed.localhost/www.wnd.com/wp-includes/js/jquery/ui/jquery.ui.core.min.js%3Fver=1.10.4",
         "id" : "r18",
         "comps" : [
            {
               "s_time" : 1009.49099999707,
               "time" : 21.4229999983199,
               "type" : 1,
               "id" : "comp_33",
               "e_time" : 1030.91399999539
            }
         ],
         "download" : {
            "receiveFirst" : 38,
            "len" : 4289,
            "dns" : 0,
            "dnsEnd" : -1,
            "receiveHeadersEnd" : 90,
            "sslEnd" : -1,
            "connectEnd" : 51,
            "connectStart" : 0,
            "id" : "download_15",
            "receivedTime" : "549.347000000125",
            "sslStart" : -1,
            "dnsStart" : -1,
            "receiveLast" : 459.347000000125,
            "s_time" : 354.004000000714,
            "sendEnd" : 52,
            "sendStart" : 51,
            "type" : "text/plain"
         }
      },
      {
         "when_comp_start" : -1,
         "url" : "http://original.testbed.localhost/www.wnd.com/wp-content/themes/worldnet-theme/_/js/jquery-cycle/jquery.cycle.min.js%3Fver=3.9.2",
         "id" : "r19",
         "comps" : [
            {
               "s_time" : 1031.40300000086,
               "time" : 17.88300000044,
               "type" : 1,
               "id" : "comp_36",
               "e_time" : 1049.2860000013
            }
         ],
         "download" : {
            "receiveFirst" : 46,
            "len" : 31032,
            "dns" : 0,
            "dnsEnd" : -1,
            "receiveHeadersEnd" : 98,
            "sslEnd" : -1,
            "connectEnd" : 52,
            "connectStart" : 0,
            "id" : "download_16",
            "receivedTime" : "620.789000000514",
            "sslStart" : -1,
            "dnsStart" : -1,
            "receiveLast" : 522.789000000514,
            "s_time" : 356.110000000626,
            "sendEnd" : 52,
            "sendStart" : 52,
            "type" : "text/plain"
         }
      },
      {
         "when_comp_start" : -1,
         "url" : "http://original.testbed.localhost/www.wnd.com/wp-content/themes/worldnet-theme/_/js/jquery.jcarousel.min.js%3Fver=3.9.2",
         "id" : "r20",
         "comps" : [
            {
               "s_time" : 1049.74399999628,
               "time" : 14.9840000012798,
               "type" : 1,
               "id" : "comp_38",
               "e_time" : 1064.72799999756
            }
         ],
         "download" : {
            "receiveFirst" : 75,
            "len" : 50870,
            "dns" : 0,
            "dnsEnd" : -1,
            "receiveHeadersEnd" : 129,
            "sslEnd" : -1,
            "connectEnd" : 54,
            "connectStart" : 0,
            "id" : "download_17",
            "receivedTime" : "788.666000000376",
            "sslStart" : -1,
            "dnsStart" : -1,
            "receiveLast" : 659.666000000376,
            "s_time" : 357.208000001265,
            "sendEnd" : 54,
            "sendStart" : 54,
            "type" : "text/plain"
         }
      },
      {
         "when_comp_start" : -1,
         "url" : "http://original.testbed.localhost/www.wnd.com/wp-content/themes/worldnet-theme/_/js/functions.js%3Fver=3.9.2",
         "id" : "r21",
         "comps" : [
            {
               "s_time" : 1066.31499999639,
               "time" : 10.34500000242,
               "type" : 1,
               "id" : "comp_40",
               "e_time" : 1076.65999999881
            }
         ],
         "download" : {
            "receiveFirst" : 100,
            "len" : 65451,
            "dns" : 0,
            "dnsEnd" : -1,
            "receiveHeadersEnd" : 154,
            "sslEnd" : -1,
            "connectEnd" : 54,
            "connectStart" : 0,
            "id" : "download_18",
            "receivedTime" : "1065.85700000142",
            "sslStart" : -1,
            "dnsStart" : -1,
            "receiveLast" : 911.857000001415,
            "s_time" : 358.398999997007,
            "sendEnd" : 54,
            "sendStart" : 54,
            "type" : "text/plain"
         }
      },
      {
         "when_comp_start" : -1,
         "url" : "http://original.testbed.localhost/cdn.jquerytools.org/1.2.6/form/jquery.tools.min.js%3Fver=3.9.2",
         "id" : "r22",
         "comps" : [
            {
               "s_time" : 1077.14899999701,
               "time" : 15.1970000006202,
               "type" : 1,
               "id" : "comp_42",
               "e_time" : 1092.34599999763
            }
         ],
         "download" : {
            "receiveFirst" : 149,
            "len" : 18856,
            "dns" : 0,
            "dnsEnd" : -1,
            "receiveHeadersEnd" : 205,
            "sslEnd" : -1,
            "connectEnd" : 55,
            "connectStart" : 0,
            "id" : "download_19",
            "receivedTime" : "749.297999995179",
            "sslStart" : -1,
            "dnsStart" : -1,
            "receiveLast" : 544.297999995179,
            "s_time" : 383.02599999588,
            "sendEnd" : 56,
            "sendStart" : 55,
            "type" : "text/plain"
         }
      },
      {
         "when_comp_start" : -1,
         "url" : "http://original.testbed.localhost/www.wnd.com/wp-content/plugins/stream-video-player/responsive.css%3Fver=.css",
         "id" : "r41",
         "comps" : [
            {
               "s_time" : 779.47999999742,
               "time" : 0.0609999988230356,
               "type" : 4,
               "id" : "comp_28",
               "e_time" : 779.540999996243
            }
         ],
         "download" : {
            "receiveFirst" : 147,
            "len" : 532,
            "dns" : 0,
            "dnsEnd" : -1,
            "receiveHeadersEnd" : 202,
            "sslEnd" : -1,
            "connectEnd" : 54,
            "connectStart" : 0,
            "id" : "download_20",
            "receivedTime" : "778.86999999464",
            "sslStart" : -1,
            "dnsStart" : -1,
            "receiveLast" : 576.86999999464,
            "s_time" : 565.552000000025,
            "sendEnd" : 55,
            "sendStart" : 54,
            "type" : "text/css"
         }
      },
      {
         "when_comp_start" : -1,
         "url" : "http://original.testbed.localhost/www.wnd.com/wp-content/themes/worldnet-theme/_/js/fancybox/jquery.fancybox.pack.js%3Fver=3.9.2",
         "id" : "r23",
         "comps" : [
            {
               "s_time" : 1093.32300000096,
               "time" : 9.76499999525004,
               "type" : 1,
               "id" : "comp_44",
               "e_time" : 1103.08799999621
            }
         ],
         "download" : {
            "receiveFirst" : 343,
            "len" : 15936,
            "dns" : 0,
            "dnsEnd" : -1,
            "receiveHeadersEnd" : 404,
            "sslEnd" : -1,
            "connectEnd" : 61,
            "connectStart" : 0,
            "id" : "download_21",
            "receivedTime" : "1093.01799999957",
            "sslStart" : -1,
            "dnsStart" : -1,
            "receiveLast" : 689.017999999574,
            "s_time" : 390.349999994214,
            "sendEnd" : 61,
            "sendStart" : 61,
            "type" : "text/plain"
         }
      },
      {
         "when_comp_start" : -1,
         "url" : "http://original.testbed.localhost/www.wnd.com/wp-content/plugins/elasticsearch/template/autocomplete.css",
         "id" : "r42",
         "comps" : [
            {
               "s_time" : 1105.55999999633,
               "time" : 0.0609999988200798,
               "type" : 4,
               "id" : "comp_46",
               "e_time" : 1105.62099999515
            }
         ],
         "download" : {
            "receiveFirst" : 122,
            "len" : 3293,
            "dns" : 0,
            "dnsEnd" : -1,
            "receiveHeadersEnd" : 301,
            "sslEnd" : -1,
            "connectEnd" : 179,
            "connectStart" : 0,
            "id" : "download_22",
            "receivedTime" : "1105.34699999698",
            "sslStart" : -1,
            "dnsStart" : -1,
            "receiveLast" : 804.346999996982,
            "s_time" : 566.131999999925,
            "sendEnd" : 179,
            "sendStart" : 179,
            "type" : "text/css"
         }
      },
      {
         "when_comp_start" : -1,
         "url" : "http://original.testbed.localhost/www.wnd.com/wp-content/themes/worldnet-theme/_/js/jquery.dateformat.js%3Fver=3.9.2",
         "id" : "r39",
         "comps" : [
            {
               "s_time" : 1106.01799999858,
               "time" : 3.60099999671002,
               "type" : 1,
               "id" : "comp_47",
               "e_time" : 1109.61899999529
            }
         ],
         "download" : {
            "receiveFirst" : 96,
            "len" : 11816,
            "dns" : 0,
            "dnsEnd" : -1,
            "receiveHeadersEnd" : 310,
            "sslEnd" : -1,
            "connectEnd" : 214,
            "connectStart" : 0,
            "id" : "download_23",
            "receivedTime" : "1105.77399999602",
            "sslStart" : -1,
            "dnsStart" : -1,
            "receiveLast" : 795.773999996018,
            "s_time" : 563.720999998623,
            "sendEnd" : 214,
            "sendStart" : 214,
            "type" : "text/plain"
         }
      },
      {
         "when_comp_start" : -1,
         "url" : "http://original.testbed.localhost/www.wnd.com/wp-content/themes/worldnet-theme/_/js/modernizr-2.0.6.min.js%3Fver=3.9.2",
         "id" : "r40",
         "comps" : [
            {
               "s_time" : 1111.1149999997,
               "time" : 60.3940000000898,
               "type" : 1,
               "id" : "comp_49",
               "e_time" : 1171.50899999979
            }
         ],
         "download" : {
            "receiveFirst" : 104,
            "len" : 9073,
            "dns" : 0,
            "dnsEnd" : -1,
            "receiveHeadersEnd" : 327,
            "sslEnd" : -1,
            "connectEnd" : 223,
            "connectStart" : 0,
            "id" : "download_24",
            "receivedTime" : "1110.84000000119",
            "sslStart" : -1,
            "dnsStart" : -1,
            "receiveLast" : 783.84000000119,
            "s_time" : 564.361999997345,
            "sendEnd" : 223,
            "sendStart" : 223,
            "type" : "text/plain"
         }
      },
      {
         "when_comp_start" : -1,
         "url" : "http://original.testbed.localhost/www.wnd.com/files/2015/08/GOP-debate-596x283.jpg",
         "id" : "r49",
         "comps" : [],
         "download" : {
            "receiveFirst" : 40,
            "len" : 54783,
            "dns" : 0,
            "dnsEnd" : -1,
            "receiveHeadersEnd" : 56,
            "sslEnd" : -1,
            "connectEnd" : 16,
            "connectStart" : 0,
            "id" : "download_25",
            "receivedTime" : "1832.45899999747",
            "sslStart" : -1,
            "dnsStart" : -1,
            "receiveLast" : 1776.45899999747,
            "s_time" : 1310.72999999742,
            "sendEnd" : 16,
            "sendStart" : 16,
            "type" : "image/jpeg"
         }
      },
      {
         "when_comp_start" : -1,
         "url" : "http://original.testbed.localhost/www.wnd.com/files/2015/09/John-Johnson-III-596x283.jpg",
         "id" : "r50",
         "comps" : [],
         "download" : {
            "receiveFirst" : 41,
            "len" : 24633,
            "dns" : 0,
            "dnsEnd" : -1,
            "receiveHeadersEnd" : 58,
            "sslEnd" : -1,
            "connectEnd" : 16,
            "connectStart" : 0,
            "id" : "download_26",
            "receivedTime" : "1803.52799999673",
            "sslStart" : -1,
            "dnsStart" : -1,
            "receiveLast" : 1745.52799999673,
            "s_time" : 1312.28600000031,
            "sendEnd" : 17,
            "sendStart" : 16,
            "type" : "image/jpeg"
         }
      },
      {
         "when_comp_start" : -1,
         "url" : "http://original.testbed.localhost/www.wnd.com/files/2013/04/syrian_refugee_camp-285x283.jpg",
         "id" : "r51",
         "comps" : [],
         "download" : {
            "receiveFirst" : 52,
            "len" : 17161,
            "dns" : 0,
            "dnsEnd" : -1,
            "receiveHeadersEnd" : 71,
            "sslEnd" : -1,
            "connectEnd" : 19,
            "connectStart" : 0,
            "id" : "download_27",
            "receivedTime" : "1808.01399999473",
            "sslStart" : -1,
            "dnsStart" : -1,
            "receiveLast" : 1737.01399999473,
            "s_time" : 1314.13199999952,
            "sendEnd" : 19,
            "sendStart" : 19,
            "type" : "image/jpeg"
         }
      },
      {
         "when_comp_start" : -1,
         "url" : "http://original.testbed.localhost/www.wnd.com/files/2012/01/KathleenWilley-596x283.jpg",
         "id" : "r52",
         "comps" : [],
         "download" : {
            "receiveFirst" : 77,
            "len" : 30354,
            "dns" : 0,
            "dnsEnd" : -1,
            "receiveHeadersEnd" : 100,
            "sslEnd" : -1,
            "connectEnd" : 23,
            "connectStart" : 0,
            "id" : "download_28",
            "receivedTime" : "1814.8499999952",
            "sslStart" : -1,
            "dnsStart" : -1,
            "receiveLast" : 1714.8499999952,
            "s_time" : 1315.81100000039,
            "sendEnd" : 23,
            "sendStart" : 23,
            "type" : "image/jpeg"
         }
      },
      {
         "when_comp_start" : -1,
         "url" : "http://original.testbed.localhost/www.wnd.com/files/2013/08/School-bus-generic1-596x283.jpg",
         "id" : "r53",
         "comps" : [],
         "download" : {
            "receiveFirst" : 96,
            "len" : 41525,
            "dns" : 0,
            "dnsEnd" : -1,
            "receiveHeadersEnd" : 122,
            "sslEnd" : -1,
            "connectEnd" : 25,
            "connectStart" : 0,
            "id" : "download_29",
            "receivedTime" : "1863.860999998",
            "sslStart" : -1,
            "dnsStart" : -1,
            "receiveLast" : 1741.860999998,
            "s_time" : 1317.47499999619,
            "sendEnd" : 26,
            "sendStart" : 25,
            "type" : "image/jpeg"
         }
      },
      {
         "when_comp_start" : -1,
         "url" : "http://original.testbed.localhost/www.wnd.com/files/2015/01/muslims-pray.jpg",
         "id" : "r54",
         "comps" : [],
         "download" : {
            "receiveFirst" : 297,
            "len" : 78583,
            "dns" : 0,
            "dnsEnd" : -1,
            "receiveHeadersEnd" : 324,
            "sslEnd" : -1,
            "connectEnd" : 26,
            "connectStart" : 0,
            "id" : "download_30",
            "receivedTime" : "2009.36899999942",
            "sslStart" : -1,
            "dnsStart" : -1,
            "receiveLast" : 1685.36899999942,
            "s_time" : 1319.10699999571,
            "sendEnd" : 27,
            "sendStart" : 26,
            "type" : "image/jpeg"
         }
      },
      {
         "when_comp_start" : -1,
         "url" : "http://original.testbed.localhost/www.wnd.com/files/2015/09/Batman-DC44-596x283.jpg",
         "id" : "r55",
         "comps" : [],
         "download" : {
            "receiveFirst" : 148,
            "len" : 29481,
            "dns" : 0,
            "dnsEnd" : -1,
            "receiveHeadersEnd" : 353,
            "sslEnd" : -1,
            "connectEnd" : 205,
            "connectStart" : 0,
            "id" : "download_31",
            "receivedTime" : "2016.47999999841",
            "sslStart" : -1,
            "dnsStart" : -1,
            "receiveLast" : 1663.47999999841,
            "s_time" : 1320.89199999609,
            "sendEnd" : 205,
            "sendStart" : 205,
            "type" : "image/jpeg"
         }
      },
      {
         "when_comp_start" : -1,
         "url" : "http://original.testbed.localhost/www.wnd.com/files/2015/08/anti-planned_parenthood_rally.jpg",
         "id" : "r56",
         "comps" : [],
         "download" : {
            "receiveFirst" : 184,
            "len" : 67694,
            "dns" : 0,
            "dnsEnd" : -1,
            "receiveHeadersEnd" : 422,
            "sslEnd" : -1,
            "connectEnd" : 238,
            "connectStart" : 0,
            "id" : "download_32",
            "receivedTime" : "2188.56799999776",
            "sslStart" : -1,
            "dnsStart" : -1,
            "receiveLast" : 1766.56799999776,
            "s_time" : 1322.43300000118,
            "sendEnd" : 238,
            "sendStart" : 238,
            "type" : "image/jpeg"
         }
      },
      {
         "when_comp_start" : -1,
         "url" : "http://original.testbed.localhost/www.wnd.com/files/2015/07/hands-raised-school-classroom-students-600-596x283.jpg",
         "id" : "r57",
         "comps" : [],
         "download" : {
            "receiveFirst" : 188,
            "len" : 41243,
            "dns" : 0,
            "dnsEnd" : -1,
            "receiveHeadersEnd" : 459,
            "sslEnd" : -1,
            "connectEnd" : 271,
            "connectStart" : 0,
            "id" : "download_33",
            "receivedTime" : "2194.76299999951",
            "sslStart" : -1,
            "dnsStart" : -1,
            "receiveLast" : 1735.76299999951,
            "s_time" : 1324.26399999531,
            "sendEnd" : 271,
            "sendStart" : 271,
            "type" : "image/jpeg"
         }
      },
      {
         "when_comp_start" : -1,
         "url" : "http://original.testbed.localhost/www.wnd.com/files/2015/08/NorthKorea-596x283.png",
         "id" : "r58",
         "comps" : [],
         "download" : {
            "receiveFirst" : 138,
            "len" : 214476,
            "dns" : 0,
            "dnsEnd" : -1,
            "receiveHeadersEnd" : 538,
            "sslEnd" : -1,
            "connectEnd" : 400,
            "connectStart" : 0,
            "id" : "download_34",
            "receivedTime" : "3668.03000000073",
            "sslStart" : -1,
            "dnsStart" : -1,
            "receiveLast" : 3130.03000000073,
            "s_time" : 1325.8050000004,
            "sendEnd" : 400,
            "sendStart" : 400,
            "type" : "image/png"
         }
      },
      {
         "when_comp_start" : -1,
         "url" : "http://original.testbed.localhost/www.wnd.com/font/oswald-regular-webfont.woff",
         "id" : "r33",
         "comps" : [],
         "download" : {
            "receiveFirst" : 166,
            "len" : 27084,
            "dns" : 0,
            "dnsEnd" : -1,
            "receiveHeadersEnd" : 214,
            "sslEnd" : -1,
            "connectEnd" : 47,
            "connectStart" : 0,
            "id" : "download_35",
            "receivedTime" : "2084.38100000058",
            "sslStart" : -1,
            "dnsStart" : -1,
            "receiveLast" : 1870.38100000058,
            "s_time" : 1731.06399999961,
            "sendEnd" : 48,
            "sendStart" : 47,
            "type" : "application/octet-stream"
         }
      },
      {
         "when_comp_start" : -1,
         "url" : "http://original.testbed.localhost/www.wnd.com/font/fontawesome-webfont.woff%3Fv=4.3.0",
         "id" : "r36",
         "comps" : [],
         "download" : {
            "receiveFirst" : 96,
            "len" : 71508,
            "dns" : 0,
            "dnsEnd" : -1,
            "receiveHeadersEnd" : 375,
            "sslEnd" : -1,
            "connectEnd" : 279,
            "connectStart" : 0,
            "id" : "download_36",
            "receivedTime" : "3543.42699999688",
            "sslStart" : -1,
            "dnsStart" : -1,
            "receiveLast" : 3168.42699999688,
            "s_time" : 1731.99499999464,
            "sendEnd" : 279,
            "sendStart" : 279,
            "type" : "application/octet-stream"
         }
      },
      {
         "when_comp_start" : -1,
         "url" : "http://original.testbed.localhost/www.wnd.com/font/leaguegothicwnd-regular.woff",
         "id" : "r24",
         "comps" : [],
         "download" : {
            "receiveFirst" : 109,
            "len" : 16932,
            "dns" : 0,
            "dnsEnd" : -1,
            "receiveHeadersEnd" : 391,
            "sslEnd" : -1,
            "connectEnd" : 282,
            "connectStart" : 0,
            "id" : "download_37",
            "receivedTime" : "2324.88999999623",
            "sslStart" : -1,
            "dnsStart" : -1,
            "receiveLast" : 1933.88999999623,
            "s_time" : 1733.18399999698,
            "sendEnd" : 282,
            "sendStart" : 282,
            "type" : "application/octet-stream"
         }
      },
      {
         "when_comp_start" : 1,
         "url" : "http://original.testbed.localhost/privacy-policy.truste.com/privacy-seal/WorldNetDaily-com,-Inc-/asc%3Frid=ee85c98c-fc0c-4a8d-b38f-479e1c8cf4eb.html",
         "id" : "r81",
         "comps" : [
            {
               "s_time" : 2307.25099999836,
               "time" : 0.640999998719963,
               "type" : 1,
               "id" : "comp_99",
               "e_time" : 2307.89199999708
            }
         ],
         "download" : {
            "receiveFirst" : 116,
            "len" : 17,
            "dns" : 0,
            "dnsEnd" : -1,
            "receiveHeadersEnd" : 410,
            "sslEnd" : -1,
            "connectEnd" : 294,
            "connectStart" : 0,
            "id" : "download_38",
            "receivedTime" : "2306.82399999932",
            "sslStart" : -1,
            "dnsStart" : -1,
            "receiveLast" : 1896.82399999932,
            "s_time" : 1790.09999999835,
            "sendEnd" : 294,
            "sendStart" : 294,
            "type" : "text/html"
         }
      },
      {
         "when_comp_start" : -1,
         "url" : "http://original.testbed.localhost/i.po.st/share/script/post-widget.js#publisherKey=4flus3s05nn85t2p4pf4",
         "id" : "r83",
         "comps" : [],
         "download" : {
            "receiveFirst" : 112,
            "len" : 124132,
            "dns" : 0,
            "dnsEnd" : -1,
            "receiveHeadersEnd" : 416,
            "sslEnd" : -1,
            "connectEnd" : 303,
            "connectStart" : 0,
            "id" : "download_39",
            "receivedTime" : "2477.69200000039",
            "sslStart" : -1,
            "dnsStart" : -1,
            "receiveLast" : 2061.69200000039,
            "s_time" : 1791.29000000103,
            "sendEnd" : 304,
            "sendStart" : 303,
            "type" : "application/javascript"
         }
      },
      {
         "when_comp_start" : -1,
         "url" : "http://original.testbed.localhost/static.addtoany.com/menu/page.js",
         "id" : "r84",
         "comps" : [
            {
               "s_time" : 2626.22099999862,
               "time" : 45.3179999967701,
               "type" : 1,
               "id" : "comp_105",
               "e_time" : 2671.53899999539
            }
         ],
         "download" : {
            "receiveFirst" : 131,
            "len" : 66708,
            "dns" : 0,
            "dnsEnd" : -1,
            "receiveHeadersEnd" : 490,
            "sslEnd" : -1,
            "connectEnd" : 358,
            "connectStart" : 0,
            "id" : "download_40",
            "receivedTime" : "2625.82399999519",
            "sslStart" : -1,
            "dnsStart" : -1,
            "receiveLast" : 2135.82399999519,
            "s_time" : 1794.09799999848,
            "sendEnd" : 359,
            "sendStart" : 358,
            "type" : "application/javascript"
         }
      },
      {
         "when_comp_start" : -1,
         "url" : "http://original.testbed.localhost/www.wnd.com/wp-content/plugins/wp-polls/polls-js.js%3Fver=2.63-r9",
         "id" : "r85",
         "comps" : [
            {
               "s_time" : 2673.85899999499,
               "time" : 2.62400000065008,
               "type" : 1,
               "id" : "comp_108",
               "e_time" : 2676.48299999564
            }
         ],
         "download" : {
            "receiveFirst" : 134,
            "len" : 10871,
            "dns" : 0,
            "dnsEnd" : -1,
            "receiveHeadersEnd" : 542,
            "sslEnd" : -1,
            "connectEnd" : 408,
            "connectStart" : 0,
            "id" : "download_41",
            "receivedTime" : "2476.04399999545",
            "sslStart" : -1,
            "dnsStart" : -1,
            "receiveLast" : 1934.04399999545,
            "s_time" : 1795.0439999986,
            "sendEnd" : 408,
            "sendStart" : 408,
            "type" : "text/plain"
         }
      },
      {
         "when_comp_start" : -1,
         "url" : "http://original.testbed.localhost/www.wnd.com/wp-includes/js/comment-reply.min.js%3Fver=3.9.2",
         "id" : "r86",
         "comps" : [
            {
               "s_time" : 2677.09399999876,
               "time" : 1.09800000064024,
               "type" : 1,
               "id" : "comp_110",
               "e_time" : 2678.1919999994
            }
         ],
         "download" : {
            "receiveFirst" : 154,
            "len" : 757,
            "dns" : 0,
            "dnsEnd" : -1,
            "receiveHeadersEnd" : 622,
            "sslEnd" : -1,
            "connectEnd" : 468,
            "connectStart" : 0,
            "id" : "download_42",
            "receivedTime" : "2625.12199999765",
            "sslStart" : -1,
            "dnsStart" : -1,
            "receiveLast" : 2003.12199999765,
            "s_time" : 1795.7150000002,
            "sendEnd" : 468,
            "sendStart" : 468,
            "type" : "text/plain"
         }
      },
      {
         "when_comp_start" : -1,
         "url" : "http://original.testbed.localhost/www.wnd.com/files/2015/04/norway-children-girls-600-300x100.jpg",
         "id" : "r59",
         "comps" : [],
         "download" : {
            "receiveFirst" : 111,
            "len" : 14384,
            "dns" : 0,
            "dnsEnd" : -1,
            "receiveHeadersEnd" : 943,
            "sslEnd" : -1,
            "connectEnd" : 832,
            "connectStart" : 0,
            "id" : "download_43",
            "receivedTime" : "3538.78799999802",
            "sslStart" : -1,
            "dnsStart" : -1,
            "receiveLast" : 2595.78799999802,
            "s_time" : 1523.63599999808,
            "sendEnd" : 832,
            "sendStart" : 832,
            "type" : "image/jpeg"
         }
      },
      {
         "when_comp_start" : -1,
         "url" : "http://original.testbed.localhost/www.wnd.com/files/2012/01/burger-300x100.jpg",
         "id" : "r60",
         "comps" : [],
         "download" : {
            "receiveFirst" : 126,
            "len" : 15561,
            "dns" : 0,
            "dnsEnd" : -1,
            "receiveHeadersEnd" : 944,
            "sslEnd" : -1,
            "connectEnd" : 818,
            "connectStart" : 0,
            "id" : "download_44",
            "receivedTime" : "3542.81600000104",
            "sslStart" : -1,
            "dnsStart" : -1,
            "receiveLast" : 2598.81600000104,
            "s_time" : 1559.11199999537,
            "sendEnd" : 818,
            "sendStart" : 818,
            "type" : "image/jpeg"
         }
      },
      {
         "when_comp_start" : -1,
         "url" : "http://original.testbed.localhost/www.wnd.com/files/2015/04/religious-freedom-petition-300x250.jpg",
         "id" : "r61",
         "comps" : [],
         "download" : {
            "receiveFirst" : 116,
            "len" : 59182,
            "dns" : 0,
            "dnsEnd" : -1,
            "receiveHeadersEnd" : 951,
            "sslEnd" : -1,
            "connectEnd" : 835,
            "connectStart" : 0,
            "id" : "download_45",
            "receivedTime" : "3647.64399999694",
            "sslStart" : -1,
            "dnsStart" : -1,
            "receiveLast" : 2696.64399999694,
            "s_time" : 1594.32899999956,
            "sendEnd" : 835,
            "sendStart" : 835,
            "type" : "image/jpeg"
         }
      },
      {
         "when_comp_start" : -1,
         "url" : "http://original.testbed.localhost/www.wnd.com/files/2015/04/Carson-300x100.png",
         "id" : "r62",
         "comps" : [],
         "download" : {
            "receiveFirst" : 111,
            "len" : 62025,
            "dns" : 0,
            "dnsEnd" : -1,
            "receiveHeadersEnd" : 830,
            "sslEnd" : -1,
            "connectEnd" : 719,
            "connectStart" : 0,
            "id" : "download_46",
            "receivedTime" : "3621.97899999592",
            "sslStart" : -1,
            "dnsStart" : -1,
            "receiveLast" : 2791.97899999592,
            "s_time" : 1720.48899999936,
            "sendEnd" : 719,
            "sendStart" : 719,
            "type" : "image/png"
         }
      },
      {
         "when_comp_start" : -1,
         "url" : "http://original.testbed.localhost/www.wnd.com/wp-content/themes/worldnet-theme/_/images/wnd-logo-white.png",
         "id" : "r63",
         "comps" : [],
         "download" : {
            "receiveFirst" : 120,
            "len" : 22141,
            "dns" : 0,
            "dnsEnd" : -1,
            "receiveHeadersEnd" : 836,
            "sslEnd" : -1,
            "connectEnd" : 716,
            "connectStart" : 0,
            "id" : "download_47",
            "receivedTime" : "3572.69299999462",
            "sslStart" : -1,
            "dnsStart" : -1,
            "receiveLast" : 2736.69299999462,
            "s_time" : 1776.0169999965,
            "sendEnd" : 716,
            "sendStart" : 716,
            "type" : "image/png"
         }
      },
      {
         "when_comp_start" : -1,
         "url" : "http://original.testbed.localhost/www.wnd.com/wp-content/themes/worldnet-theme/_/images/diag_lines.png",
         "id" : "r64",
         "comps" : [],
         "download" : {
            "receiveFirst" : 149,
            "len" : 2692,
            "dns" : 0,
            "dnsEnd" : -1,
            "receiveHeadersEnd" : 660,
            "sslEnd" : -1,
            "connectEnd" : 511,
            "connectStart" : 0,
            "id" : "download_48",
            "receivedTime" : "3585.38799999951",
            "sslStart" : -1,
            "dnsStart" : -1,
            "receiveLast" : 2925.38799999951,
            "s_time" : 2007.76599999517,
            "sendEnd" : 511,
            "sendStart" : 511,
            "type" : "image/png"
         }
      },
      {
         "when_comp_start" : -1,
         "url" : "http://original.testbed.localhost/www.wnd.com/wp-content/themes/worldnet-theme/_/images/play_video.png",
         "id" : "r65",
         "comps" : [],
         "download" : {
            "receiveFirst" : 148,
            "len" : 6621,
            "dns" : 0,
            "dnsEnd" : -1,
            "receiveHeadersEnd" : 660,
            "sslEnd" : -1,
            "connectEnd" : 511,
            "connectStart" : 0,
            "id" : "download_49",
            "receivedTime" : "3587.73799999472",
            "sslStart" : -1,
            "dnsStart" : -1,
            "receiveLast" : 2927.73799999472,
            "s_time" : 2016.25100000092,
            "sendEnd" : 512,
            "sendStart" : 511,
            "type" : "image/png"
         }
      },
      {
         "when_comp_start" : -1,
         "url" : "http://original.testbed.localhost/www.wnd.com/files/2015/06/cartel_arrest-300x100.jpg",
         "id" : "r66",
         "comps" : [],
         "download" : {
            "receiveFirst" : 105,
            "len" : 14289,
            "dns" : 0,
            "dnsEnd" : -1,
            "receiveHeadersEnd" : 658,
            "sslEnd" : -1,
            "connectEnd" : 552,
            "connectStart" : 0,
            "id" : "download_50",
            "receivedTime" : "3598.20599999512",
            "sslStart" : -1,
            "dnsStart" : -1,
            "receiveLast" : 2940.20599999512,
            "s_time" : 2096.35899999557,
            "sendEnd" : 553,
            "sendStart" : 552,
            "type" : "image/jpeg"
         }
      },
      {
         "when_comp_start" : -1,
         "url" : "http://original.testbed.localhost/www.wnd.com/files/2015/06/pope-francis-in-white-600-90x65.jpg",
         "id" : "r67",
         "comps" : [],
         "download" : {
            "receiveFirst" : 115,
            "len" : 3349,
            "dns" : 0,
            "dnsEnd" : -1,
            "receiveHeadersEnd" : 643,
            "sslEnd" : -1,
            "connectEnd" : 528,
            "connectStart" : 0,
            "id" : "download_51",
            "receivedTime" : "3602.87499999686",
            "sslStart" : -1,
            "dnsStart" : -1,
            "receiveLast" : 2959.87499999686,
            "s_time" : 2153.70199999597,
            "sendEnd" : 528,
            "sendStart" : 528,
            "type" : "image/jpeg"
         }
      },
      {
         "when_comp_start" : -1,
         "url" : "http://original.testbed.localhost/www.wnd.com/files/2015/07/computer-keyboard-hackers-hacking-600-90x65.jpg",
         "id" : "r68",
         "comps" : [],
         "download" : {
            "receiveFirst" : 125,
            "len" : 3413,
            "dns" : 0,
            "dnsEnd" : -1,
            "receiveHeadersEnd" : 334,
            "sslEnd" : -1,
            "connectEnd" : 209,
            "connectStart" : 0,
            "id" : "download_52",
            "receivedTime" : "3605.34699999698",
            "sslStart" : -1,
            "dnsStart" : -1,
            "receiveLast" : 3271.34699999698,
            "s_time" : 2490.0209999978,
            "sendEnd" : 209,
            "sendStart" : 209,
            "type" : "image/jpeg"
         }
      },
      {
         "when_comp_start" : -1,
         "url" : "http://original.testbed.localhost/www.wnd.com/files/2014/09/david-muir-abc-news-600-90x65.jpg",
         "id" : "r69",
         "comps" : [],
         "download" : {
            "receiveFirst" : 84,
            "len" : 3693,
            "dns" : 0,
            "dnsEnd" : -1,
            "receiveHeadersEnd" : 345,
            "sslEnd" : -1,
            "connectEnd" : 261,
            "connectStart" : 0,
            "id" : "download_53",
            "receivedTime" : "3614.13599999651",
            "sslStart" : -1,
            "dnsStart" : -1,
            "receiveLast" : 3269.13599999651,
            "s_time" : 2517.27299999766,
            "sendEnd" : 261,
            "sendStart" : 261,
            "type" : "image/jpeg"
         }
      },
      {
         "when_comp_start" : -1,
         "url" : "http://original.testbed.localhost/www.wnd.com/files/2013/08/School-bus-generic1-90x65.jpg",
         "id" : "r70",
         "comps" : [],
         "download" : {
            "receiveFirst" : 88,
            "len" : 3529,
            "dns" : 0,
            "dnsEnd" : -1,
            "receiveHeadersEnd" : 244,
            "sslEnd" : -1,
            "connectEnd" : 156,
            "connectStart" : 0,
            "id" : "download_54",
            "receivedTime" : "3619.10999999964",
            "sslStart" : -1,
            "dnsStart" : -1,
            "receiveLast" : 3375.10999999964,
            "s_time" : 2647.15499999875,
            "sendEnd" : 156,
            "sendStart" : 156,
            "type" : "image/jpeg"
         }
      },
      {
         "when_comp_start" : -1,
         "url" : "http://original.testbed.localhost/www.wnd.com/files/2011/12/Joseph-Farah_avatar.jpg",
         "id" : "r71",
         "comps" : [],
         "download" : {
            "receiveFirst" : 98,
            "len" : 24717,
            "dns" : 0,
            "dnsEnd" : -1,
            "receiveHeadersEnd" : 255,
            "sslEnd" : -1,
            "connectEnd" : 156,
            "connectStart" : 0,
            "id" : "download_55",
            "receivedTime" : "3629.08899999456",
            "sslStart" : -1,
            "dnsStart" : -1,
            "receiveLast" : 3374.08899999456,
            "s_time" : 2679.70299999433,
            "sendEnd" : 157,
            "sendStart" : 156,
            "type" : "image/jpeg"
         }
      },
      {
         "when_comp_start" : -1,
         "url" : "http://original.testbed.localhost/www.wnd.com/files/2011/12/Phyllis-Schlafly_avatar.jpg",
         "id" : "r72",
         "comps" : [],
         "download" : {
            "receiveFirst" : 128,
            "len" : 27893,
            "dns" : 0,
            "dnsEnd" : -1,
            "receiveHeadersEnd" : 298,
            "sslEnd" : -1,
            "connectEnd" : 170,
            "connectStart" : 0,
            "id" : "download_56",
            "receivedTime" : "3665.95499999676",
            "sslStart" : -1,
            "dnsStart" : -1,
            "receiveLast" : 3367.95499999676,
            "s_time" : 2696.99099999707,
            "sendEnd" : 170,
            "sendStart" : 170,
            "type" : "image/jpeg"
         }
      },
      {
         "when_comp_start" : -1,
         "url" : "http://original.testbed.localhost/www.wnd.com/files/2011/12/Mychal-Massie_avatar.jpg",
         "id" : "r73",
         "comps" : [],
         "download" : {
            "receiveFirst" : 170,
            "len" : 22848,
            "dns" : 0,
            "dnsEnd" : -1,
            "receiveHeadersEnd" : 289,
            "sslEnd" : -1,
            "connectEnd" : 119,
            "connectStart" : 0,
            "id" : "download_57",
            "receivedTime" : "3654.69399999711",
            "sslStart" : -1,
            "dnsStart" : -1,
            "receiveLast" : 3365.69399999711,
            "s_time" : 2776.47399999842,
            "sendEnd" : 119,
            "sendStart" : 119,
            "type" : "image/jpeg"
         }
      },
      {
         "when_comp_start" : -1,
         "url" : "http://original.testbed.localhost/www.wnd.com/files/2014/02/David-Limbaugh_avatar.jpg",
         "id" : "r74",
         "comps" : [],
         "download" : {
            "receiveFirst" : 185,
            "len" : 2645,
            "dns" : 0,
            "dnsEnd" : -1,
            "receiveHeadersEnd" : 311,
            "sslEnd" : -1,
            "connectEnd" : 126,
            "connectStart" : 0,
            "id" : "download_58",
            "receivedTime" : "3657.4099999998",
            "sslStart" : -1,
            "dnsStart" : -1,
            "receiveLast" : 3346.4099999998,
            "s_time" : 2801.07099999441,
            "sendEnd" : 126,
            "sendStart" : 126,
            "type" : "image/jpeg"
         }
      },
      {
         "when_comp_start" : -1,
         "url" : "http://original.testbed.localhost/www.wnd.com/files/2012/03/Patrick-J.-Buchanan_avatar.jpg",
         "id" : "r75",
         "comps" : [],
         "download" : {
            "receiveFirst" : 153,
            "len" : 22800,
            "dns" : 0,
            "dnsEnd" : -1,
            "receiveHeadersEnd" : 283,
            "sslEnd" : -1,
            "connectEnd" : 130,
            "connectStart" : 0,
            "id" : "download_59",
            "receivedTime" : "3664.3980000008",
            "sslStart" : -1,
            "dnsStart" : -1,
            "receiveLast" : 3381.3980000008,
            "s_time" : 2834.79299999453,
            "sendEnd" : 130,
            "sendStart" : 130,
            "type" : "image/jpeg"
         }
      },
      {
         "when_comp_start" : -1,
         "url" : "http://original.testbed.localhost/www.wnd.com/files/2015/07/alone-130x190.jpg",
         "id" : "r76",
         "comps" : [],
         "download" : {
            "receiveFirst" : 126,
            "len" : 14175,
            "dns" : 0,
            "dnsEnd" : -1,
            "receiveHeadersEnd" : 315,
            "sslEnd" : -1,
            "connectEnd" : 189,
            "connectStart" : 0,
            "id" : "download_60",
            "receivedTime" : "3668.97600000084",
            "sslStart" : -1,
            "dnsStart" : -1,
            "receiveLast" : 3353.97600000084,
            "s_time" : 2866.08899999555,
            "sendEnd" : 189,
            "sendStart" : 189,
            "type" : "image/jpeg"
         }
      },
      {
         "when_comp_start" : -1,
         "url" : "http://original.testbed.localhost/www.wnd.com/wp-content/plugins/wnd-widgets/widgets/base/assets/images/wnd.png",
         "id" : "r77",
         "comps" : [],
         "download" : {
            "receiveFirst" : 386,
            "len" : 822,
            "dns" : 0,
            "dnsEnd" : -1,
            "receiveHeadersEnd" : 586,
            "sslEnd" : -1,
            "connectEnd" : 200,
            "connectStart" : 0,
            "id" : "download_61",
            "receivedTime" : "3777.12999999494",
            "sslStart" : -1,
            "dnsStart" : -1,
            "receiveLast" : 3191.12999999494,
            "s_time" : 2895.03400000103,
            "sendEnd" : 200,
            "sendStart" : 200,
            "type" : "image/png"
         }
      },
      {
         "when_comp_start" : -1,
         "url" : "http://original.testbed.localhost/www.wnd.com/wp-content/plugins/wnd-widgets/widgets/scoop/assets/images/logo.png",
         "id" : "r78",
         "comps" : [],
         "download" : {
            "receiveFirst" : 364,
            "len" : 2813,
            "dns" : 0,
            "dnsEnd" : -1,
            "receiveHeadersEnd" : 562,
            "sslEnd" : -1,
            "connectEnd" : 198,
            "connectStart" : 0,
            "id" : "download_62",
            "receivedTime" : "3852.72199999599",
            "sslStart" : -1,
            "dnsStart" : -1,
            "receiveLast" : 3290.72199999599,
            "s_time" : 2923.18700000033,
            "sendEnd" : 198,
            "sendStart" : 198,
            "type" : "image/png"
         }
      },
      {
         "when_comp_start" : -1,
         "url" : "http://original.testbed.localhost/email.media.wnd.com/files/2015/09/wb-sept-2015-200x220.jpg",
         "id" : "r80",
         "comps" : [],
         "download" : {
            "receiveFirst" : 331,
            "len" : 60857,
            "dns" : 0,
            "dnsEnd" : -1,
            "receiveHeadersEnd" : 448,
            "sslEnd" : -1,
            "connectEnd" : 117,
            "connectStart" : 0,
            "id" : "download_63",
            "receivedTime" : "3855.10299999441",
            "sslStart" : -1,
            "dnsStart" : -1,
            "receiveLast" : 3407.10299999441,
            "s_time" : 3054.74899999535,
            "sendEnd" : 117,
            "sendStart" : 117,
            "type" : "image/jpeg"
         }
      },
      {
         "when_comp_start" : -1,
         "url" : "http://original.testbed.localhost/superstore.wnd.com/core/media/media.nl%3Fid=5479&c=811217&h=b9fa10a323886691712e",
         "id" : "r79",
         "comps" : [],
         "download" : {
            "receiveFirst" : 354,
            "len" : 86654,
            "dns" : 0,
            "dnsEnd" : -1,
            "receiveHeadersEnd" : 533,
            "sslEnd" : -1,
            "connectEnd" : 179,
            "connectStart" : 0,
            "id" : "download_64",
            "receivedTime" : "3902.61900000041",
            "sslStart" : -1,
            "dnsStart" : -1,
            "receiveLast" : 3369.61900000041,
            "s_time" : 2964.37099999457,
            "sendEnd" : 179,
            "sendStart" : 179,
            "type" : "image/jpeg"
         }
      },
      {
         "when_comp_start" : -1,
         "url" : "http://original.testbed.localhost/www.wnd.com/wp-content/themes/worldnet-theme/_/images/sprite_landing_page.png",
         "id" : "r87",
         "comps" : [],
         "download" : {
            "receiveFirst" : 105,
            "len" : 36991,
            "dns" : 0,
            "dnsEnd" : -1,
            "receiveHeadersEnd" : 472,
            "sslEnd" : -1,
            "connectEnd" : 367,
            "connectStart" : 0,
            "id" : "download_65",
            "receivedTime" : "3905.82300000096",
            "sslStart" : -1,
            "dnsStart" : -1,
            "receiveLast" : 3433.82300000096,
            "s_time" : 3093.47499999421,
            "sendEnd" : 367,
            "sendStart" : 367,
            "type" : "image/png"
         }
      },
      {
         "when_comp_start" : 1,
         "url" : "http://original.testbed.localhost/files/2015/09/Screen-Shot-2015-09-15-at-10.29.29-AM-175x125.png",
         "id" : "r88",
         "comps" : [],
         "download" : {
            "receiveFirst" : 131,
            "len" : 353,
            "dns" : 0,
            "dnsEnd" : -1,
            "receiveHeadersEnd" : 510,
            "sslEnd" : -1,
            "connectEnd" : 379,
            "connectStart" : 0,
            "id" : "download_66",
            "receivedTime" : "3905.18199999497",
            "sslStart" : -1,
            "dnsStart" : -1,
            "receiveLast" : 3395.18199999497,
            "s_time" : 3142.11999999679,
            "sendEnd" : 379,
            "sendStart" : 379,
            "type" : "text/html"
         }
      },
      {
         "when_comp_start" : -1,
         "url" : "http://original.testbed.localhost/privacy-policy.truste.com/privacy-seal/WorldNetDaily-com,-Inc-/seal%3Frid=d9497206-4957-4066-944d-e72a58b6423a",
         "id" : "r82",
         "comps" : [],
         "download" : {
            "receiveFirst" : 136,
            "len" : 3091,
            "dns" : 0,
            "dnsEnd" : -1,
            "receiveHeadersEnd" : 487,
            "sslEnd" : -1,
            "connectEnd" : 351,
            "connectStart" : 0,
            "id" : "download_67",
            "receivedTime" : "3906.49399999529",
            "sslStart" : -1,
            "dnsStart" : -1,
            "receiveLast" : 3419.49399999529,
            "s_time" : 3120.48299999879,
            "sendEnd" : 351,
            "sendStart" : 351,
            "type" : "image/png"
         }
      },
      {
         "when_comp_start" : 1,
         "url" : "http://original.testbed.localhost/files/2015/09/Screen-Shot-2015-09-15-at-10.11.08-AM-175x125.png",
         "id" : "r89",
         "comps" : [],
         "download" : {
            "receiveFirst" : 119,
            "len" : 353,
            "dns" : 0,
            "dnsEnd" : -1,
            "receiveHeadersEnd" : 510,
            "sslEnd" : -1,
            "connectEnd" : 391,
            "connectStart" : 0,
            "id" : "download_68",
            "receivedTime" : "3907.74499999679",
            "sslStart" : -1,
            "dnsStart" : -1,
            "receiveLast" : 3397.74499999679,
            "s_time" : 3170.21199999726,
            "sendEnd" : 391,
            "sendStart" : 391,
            "type" : "text/html"
         }
      },
      {
         "when_comp_start" : 1,
         "url" : "http://original.testbed.localhost/files/2015/09/Screen-Shot-2015-09-14-at-1.08.33-PM-175x125.png",
         "id" : "r90",
         "comps" : [],
         "download" : {
            "receiveFirst" : 88,
            "len" : 352,
            "dns" : 0,
            "dnsEnd" : -1,
            "receiveHeadersEnd" : 223,
            "sslEnd" : -1,
            "connectEnd" : 134,
            "connectStart" : 0,
            "id" : "download_69",
            "receivedTime" : "3908.20299999905",
            "sslStart" : -1,
            "dnsStart" : -1,
            "receiveLast" : 3685.20299999905,
            "s_time" : 3459.22900000005,
            "sendEnd" : 135,
            "sendStart" : 134,
            "type" : "text/html"
         }
      },
      {
         "when_comp_start" : 1,
         "url" : "http://original.testbed.localhost/files/2015/09/Screen-Shot-2015-09-14-at-12.02.42-PM-175x125.png",
         "id" : "r91",
         "comps" : [],
         "download" : {
            "receiveFirst" : 60,
            "len" : 353,
            "dns" : 0,
            "dnsEnd" : -1,
            "receiveHeadersEnd" : 233,
            "sslEnd" : -1,
            "connectEnd" : 172,
            "connectStart" : 0,
            "id" : "download_70",
            "receivedTime" : "3909.02699999424",
            "sslStart" : -1,
            "dnsStart" : -1,
            "receiveLast" : 3676.02699999424,
            "s_time" : 3470.12299999915,
            "sendEnd" : 173,
            "sendStart" : 172,
            "type" : "text/html"
         }
      },
      {
         "when_comp_start" : 1,
         "url" : "http://original.testbed.localhost/files/2015/09/Screen-Shot-2015-09-10-at-12.18.14-PM-175x125.png",
         "id" : "r92",
         "comps" : [],
         "download" : {
            "receiveFirst" : 37,
            "len" : 353,
            "dns" : 0,
            "dnsEnd" : -1,
            "receiveHeadersEnd" : 194,
            "sslEnd" : -1,
            "connectEnd" : 157,
            "connectStart" : 0,
            "id" : "download_71",
            "receivedTime" : "3910.12599999522",
            "sslStart" : -1,
            "dnsStart" : -1,
            "receiveLast" : 3716.12599999522,
            "s_time" : 3520.62999999907,
            "sendEnd" : 157,
            "sendStart" : 157,
            "type" : "text/html"
         }
      },
      {
         "when_comp_start" : 1,
         "url" : "http://original.testbed.localhost/files/2015/09/Screen-Shot-2015-09-10-at-11.56.27-AM-175x125.png",
         "id" : "r93",
         "comps" : [],
         "download" : {
            "receiveFirst" : 39,
            "len" : 353,
            "dns" : 0,
            "dnsEnd" : -1,
            "receiveHeadersEnd" : 157,
            "sslEnd" : -1,
            "connectEnd" : 118,
            "connectStart" : 0,
            "id" : "download_72",
            "receivedTime" : "3910.58399999747",
            "sslStart" : -1,
            "dnsStart" : -1,
            "receiveLast" : 3753.58399999747,
            "s_time" : 3560.6689999986,
            "sendEnd" : 118,
            "sendStart" : 118,
            "type" : "text/html"
         }
      }
   ],
   "deps" : [
      {
         "a2" : "r1_c2",
         "time" : -1,
         "id" : "dep1",
         "a1" : "comp_4"
      },
      {
         "a2" : "r1_c3",
         "time" : -1,
         "id" : "dep2",
         "a1" : "comp_9"
      },
      {
         "a2" : "r1_c4",
         "time" : -1,
         "id" : "dep3",
         "a1" : "comp_23"
      },
      {
         "a2" : "r1_c5",
         "time" : -1,
         "id" : "dep4",
         "a1" : "comp_25"
      },
      {
         "a2" : "r1_c6",
         "time" : -1,
         "id" : "dep5",
         "a1" : "comp_29"
      },
      {
         "a2" : "r1_c7",
         "time" : -1,
         "id" : "dep6",
         "a1" : "comp_31"
      },
      {
         "a2" : "r1_c8",
         "time" : -1,
         "id" : "dep7",
         "a1" : "comp_33"
      },
      {
         "a2" : "r1_c9",
         "time" : -1,
         "id" : "dep8",
         "a1" : "comp_36"
      },
      {
         "a2" : "r1_c10",
         "time" : -1,
         "id" : "dep9",
         "a1" : "comp_38"
      },
      {
         "a2" : "r1_c11",
         "time" : -1,
         "id" : "dep10",
         "a1" : "comp_40"
      },
      {
         "a2" : "r1_c12",
         "time" : -1,
         "id" : "dep11",
         "a1" : "comp_42"
      },
      {
         "a2" : "r1_c13",
         "time" : -1,
         "id" : "dep12",
         "a1" : "comp_44"
      },
      {
         "a2" : "r1_c14",
         "time" : -1,
         "id" : "dep13",
         "a1" : "comp_47"
      },
      {
         "a2" : "r1_c15",
         "time" : -1,
         "id" : "dep14",
         "a1" : "comp_49"
      },
      {
         "a2" : "r1_c16",
         "time" : -1,
         "id" : "dep15",
         "a1" : "comp_99"
      },
      {
         "a2" : "r1_c17",
         "time" : -1,
         "id" : "dep16",
         "a1" : "comp_105"
      },
      {
         "a2" : "r1_c18",
         "time" : -1,
         "id" : "dep17",
         "a1" : "comp_108"
      },
      {
         "a2" : "r1_c19",
         "time" : -1,
         "id" : "dep18",
         "a1" : "comp_110"
      },
      {
         "a2" : "comp_23",
         "time" : -1,
         "id" : "dep19",
         "a1" : "comp_0"
      },
      {
         "a2" : "comp_23",
         "time" : -1,
         "id" : "dep20",
         "a1" : "comp_1"
      },
      {
         "a2" : "comp_23",
         "time" : -1,
         "id" : "dep21",
         "a1" : "comp_2"
      },
      {
         "a2" : "comp_23",
         "time" : -1,
         "id" : "dep22",
         "a1" : "comp_3"
      },
      {
         "a2" : "comp_23",
         "time" : -1,
         "id" : "dep23",
         "a1" : "comp_16"
      },
      {
         "a2" : "comp_23",
         "time" : -1,
         "id" : "dep24",
         "a1" : "comp_22"
      },
      {
         "a2" : "comp_23",
         "time" : -1,
         "id" : "dep25",
         "a1" : "comp_17"
      },
      {
         "a2" : "comp_23",
         "time" : -1,
         "id" : "dep26",
         "a1" : "comp_18"
      },
      {
         "a2" : "comp_25",
         "time" : -1,
         "id" : "dep27",
         "a1" : "comp_23"
      },
      {
         "a2" : "comp_29",
         "time" : -1,
         "id" : "dep28",
         "a1" : "comp_25"
      },
      {
         "a2" : "comp_31",
         "time" : -1,
         "id" : "dep29",
         "a1" : "comp_29"
      },
      {
         "a2" : "comp_33",
         "time" : -1,
         "id" : "dep30",
         "a1" : "comp_31"
      },
      {
         "a2" : "comp_36",
         "time" : -1,
         "id" : "dep31",
         "a1" : "comp_33"
      },
      {
         "a2" : "comp_38",
         "time" : -1,
         "id" : "dep32",
         "a1" : "comp_36"
      },
      {
         "a2" : "comp_40",
         "time" : -1,
         "id" : "dep33",
         "a1" : "comp_38"
      },
      {
         "a2" : "comp_42",
         "time" : -1,
         "id" : "dep34",
         "a1" : "comp_40"
      },
      {
         "a2" : "comp_44",
         "time" : -1,
         "id" : "dep35",
         "a1" : "comp_42"
      },
      {
         "a2" : "comp_47",
         "time" : -1,
         "id" : "dep36",
         "a1" : "comp_44"
      },
      {
         "a2" : "comp_49",
         "time" : -1,
         "id" : "dep37",
         "a1" : "comp_47"
      },
      {
         "a2" : "comp_110",
         "time" : -1,
         "id" : "dep38",
         "a1" : "comp_108"
      },
      {
         "a2" : "download_72",
         "time" : -1,
         "id" : "dep39",
         "a1" : "r1_c19"
      },
      {
         "a2" : "download_71",
         "time" : 842.43799999967,
         "id" : "dep40",
         "a1" : "r1_c19"
      },
      {
         "a2" : "download_70",
         "time" : 791.93099999975,
         "id" : "dep41",
         "a1" : "r1_c19"
      },
      {
         "a2" : "download_69",
         "time" : 781.03700000065,
         "id" : "dep42",
         "a1" : "r1_c19"
      },
      {
         "a2" : "download_68",
         "time" : 492.01999999786,
         "id" : "dep43",
         "a1" : "r1_c19"
      },
      {
         "a2" : "download_67",
         "time" : 442.29099999939,
         "id" : "dep44",
         "a1" : "r1_c19"
      },
      {
         "a2" : "download_66",
         "time" : 463.92799999739,
         "id" : "dep45",
         "a1" : "r1_c19"
      },
      {
         "a2" : "download_65",
         "time" : 415.28299999481,
         "id" : "dep46",
         "a1" : "r1_c19"
      },
      {
         "a2" : "download_64",
         "time" : 286.17899999517,
         "id" : "dep47",
         "a1" : "r1_c19"
      },
      {
         "a2" : "download_63",
         "time" : 376.55699999595,
         "id" : "dep48",
         "a1" : "r1_c19"
      },
      {
         "a2" : "download_62",
         "time" : 244.99500000093,
         "id" : "dep49",
         "a1" : "r1_c19"
      },
      {
         "a2" : "download_61",
         "time" : 216.84200000163,
         "id" : "dep50",
         "a1" : "r1_c19"
      },
      {
         "a2" : "download_60",
         "time" : 187.89699999615,
         "id" : "dep51",
         "a1" : "r1_c19"
      },
      {
         "a2" : "download_59",
         "time" : 156.60099999513,
         "id" : "dep52",
         "a1" : "r1_c19"
      },
      {
         "a2" : "download_58",
         "time" : 122.87899999501,
         "id" : "dep53",
         "a1" : "r1_c19"
      },
      {
         "a2" : "download_57",
         "time" : 98.2819999990197,
         "id" : "dep54",
         "a1" : "r1_c19"
      },
      {
         "a2" : "download_56",
         "time" : 18.7989999976699,
         "id" : "dep55",
         "a1" : "r1_c19"
      },
      {
         "a2" : "download_55",
         "time" : 1.51099999492999,
         "id" : "dep56",
         "a1" : "r1_c19"
      },
      {
         "a2" : "download_54",
         "time" : -1,
         "id" : "dep57",
         "a1" : "r1_c16"
      },
      {
         "a2" : "download_53",
         "time" : 209.38100000058,
         "id" : "dep58",
         "a1" : "r1_c16"
      },
      {
         "a2" : "download_52",
         "time" : 182.12900000072,
         "id" : "dep59",
         "a1" : "r1_c16"
      },
      {
         "a2" : "download_51",
         "time" : -1,
         "id" : "dep60",
         "a1" : "r1_c15"
      },
      {
         "a2" : "download_50",
         "time" : 924.84999999578,
         "id" : "dep61",
         "a1" : "r1_c15"
      },
      {
         "a2" : "download_49",
         "time" : 844.74200000113,
         "id" : "dep62",
         "a1" : "r1_c15"
      },
      {
         "a2" : "download_48",
         "time" : 836.25699999538,
         "id" : "dep63",
         "a1" : "r1_c15"
      },
      {
         "a2" : "download_47",
         "time" : 604.50799999671,
         "id" : "dep64",
         "a1" : "r1_c15"
      },
      {
         "a2" : "download_46",
         "time" : 548.97999999957,
         "id" : "dep65",
         "a1" : "r1_c15"
      },
      {
         "a2" : "download_45",
         "time" : 422.81999999977,
         "id" : "dep66",
         "a1" : "r1_c15"
      },
      {
         "a2" : "download_44",
         "time" : 387.60299999558,
         "id" : "dep67",
         "a1" : "r1_c15"
      },
      {
         "a2" : "download_43",
         "time" : 352.12699999829,
         "id" : "dep68",
         "a1" : "r1_c15"
      },
      {
         "a2" : "download_42",
         "time" : 624.20600000041,
         "id" : "dep69",
         "a1" : "r1_c15"
      },
      {
         "a2" : "download_42",
         "time" : 624.20600000041,
         "id" : "dep70",
         "a1" : "r1_c15"
      },
      {
         "a2" : "download_41",
         "time" : 623.53499999881,
         "id" : "dep71",
         "a1" : "r1_c15"
      },
      {
         "a2" : "download_41",
         "time" : 623.53499999881,
         "id" : "dep72",
         "a1" : "r1_c15"
      },
      {
         "a2" : "download_40",
         "time" : 622.58899999869,
         "id" : "dep73",
         "a1" : "r1_c15"
      },
      {
         "a2" : "download_40",
         "time" : 622.58899999869,
         "id" : "dep74",
         "a1" : "r1_c15"
      },
      {
         "a2" : "download_39",
         "time" : 619.78100000124,
         "id" : "dep75",
         "a1" : "r1_c15"
      },
      {
         "a2" : "download_39",
         "time" : 619.78100000124,
         "id" : "dep76",
         "a1" : "r1_c15"
      },
      {
         "a2" : "download_38",
         "time" : 618.59099999856,
         "id" : "dep77",
         "a1" : "r1_c15"
      },
      {
         "a2" : "download_37",
         "time" : 561.67499999719,
         "id" : "dep78",
         "a1" : "r1_c15"
      },
      {
         "a2" : "download_36",
         "time" : 560.48599999485,
         "id" : "dep79",
         "a1" : "r1_c15"
      },
      {
         "a2" : "download_35",
         "time" : 559.55499999982,
         "id" : "dep80",
         "a1" : "r1_c15"
      },
      {
         "a2" : "download_34",
         "time" : 154.29600000061,
         "id" : "dep81",
         "a1" : "r1_c15"
      },
      {
         "a2" : "download_33",
         "time" : 152.75499999552,
         "id" : "dep82",
         "a1" : "r1_c15"
      },
      {
         "a2" : "download_32",
         "time" : 150.92400000139,
         "id" : "dep83",
         "a1" : "r1_c15"
      },
      {
         "a2" : "download_31",
         "time" : 149.3829999963,
         "id" : "dep84",
         "a1" : "r1_c15"
      },
      {
         "a2" : "download_30",
         "time" : 147.59799999592,
         "id" : "dep85",
         "a1" : "r1_c15"
      },
      {
         "a2" : "download_29",
         "time" : 145.9659999964,
         "id" : "dep86",
         "a1" : "r1_c15"
      },
      {
         "a2" : "download_28",
         "time" : 144.3020000006,
         "id" : "dep87",
         "a1" : "r1_c15"
      },
      {
         "a2" : "download_27",
         "time" : 142.62299999973,
         "id" : "dep88",
         "a1" : "r1_c15"
      },
      {
         "a2" : "download_26",
         "time" : 140.77700000052,
         "id" : "dep89",
         "a1" : "r1_c15"
      },
      {
         "a2" : "download_25",
         "time" : 139.22099999763,
         "id" : "dep90",
         "a1" : "r1_c15"
      },
      {
         "a2" : "download_24",
         "time" : -1,
         "id" : "dep91",
         "a1" : "r1_c5"
      },
      {
         "a2" : "download_24",
         "time" : 24.108999998134,
         "id" : "dep92",
         "a1" : "r1_c5"
      },
      {
         "a2" : "download_23",
         "time" : 23.467999999412,
         "id" : "dep93",
         "a1" : "r1_c5"
      },
      {
         "a2" : "download_23",
         "time" : 23.467999999412,
         "id" : "dep94",
         "a1" : "r1_c5"
      },
      {
         "a2" : "download_22",
         "time" : -1,
         "id" : "dep95",
         "a1" : "r1_c5"
      },
      {
         "a2" : "download_22",
         "time" : 25.879000000714,
         "id" : "dep96",
         "a1" : "r1_c5"
      },
      {
         "a2" : "download_21",
         "time" : -1,
         "id" : "dep97",
         "a1" : "r1_c3"
      },
      {
         "a2" : "download_21",
         "time" : 61.644999994314,
         "id" : "dep98",
         "a1" : "r1_c3"
      },
      {
         "a2" : "download_20",
         "time" : 25.299000000814,
         "id" : "dep99",
         "a1" : "r1_c5"
      },
      {
         "a2" : "download_20",
         "time" : 25.299000000814,
         "id" : "dep100",
         "a1" : "r1_c5"
      },
      {
         "a2" : "download_19",
         "time" : 54.32099999598,
         "id" : "dep101",
         "a1" : "r1_c3"
      },
      {
         "a2" : "download_19",
         "time" : 54.32099999598,
         "id" : "dep102",
         "a1" : "r1_c3"
      },
      {
         "a2" : "download_18",
         "time" : 29.693999997107,
         "id" : "dep103",
         "a1" : "r1_c3"
      },
      {
         "a2" : "download_18",
         "time" : 29.693999997107,
         "id" : "dep104",
         "a1" : "r1_c3"
      },
      {
         "a2" : "download_17",
         "time" : 28.503000001365,
         "id" : "dep105",
         "a1" : "r1_c3"
      },
      {
         "a2" : "download_17",
         "time" : 28.503000001365,
         "id" : "dep106",
         "a1" : "r1_c3"
      },
      {
         "a2" : "download_16",
         "time" : 27.405000000726,
         "id" : "dep107",
         "a1" : "r1_c3"
      },
      {
         "a2" : "download_16",
         "time" : 27.405000000726,
         "id" : "dep108",
         "a1" : "r1_c3"
      },
      {
         "a2" : "download_15",
         "time" : 25.299000000814,
         "id" : "dep109",
         "a1" : "r1_c3"
      },
      {
         "a2" : "download_15",
         "time" : 25.299000000814,
         "id" : "dep110",
         "a1" : "r1_c3"
      },
      {
         "a2" : "download_14",
         "time" : -1,
         "id" : "dep111",
         "a1" : "r1_c1"
      },
      {
         "a2" : "download_14",
         "time" : 12.299000001803,
         "id" : "dep112",
         "a1" : "r1_c1"
      },
      {
         "a2" : "download_13",
         "time" : 11.382999997295,
         "id" : "dep113",
         "a1" : "r1_c1"
      },
      {
         "a2" : "download_13",
         "time" : 11.382999997295,
         "id" : "dep114",
         "a1" : "r1_c1"
      },
      {
         "a2" : "download_12",
         "time" : 10.436999997182,
         "id" : "dep115",
         "a1" : "r1_c1"
      },
      {
         "a2" : "download_12",
         "time" : 10.436999997182,
         "id" : "dep116",
         "a1" : "r1_c1"
      },
      {
         "a2" : "download_11",
         "time" : 9.461000001465,
         "id" : "dep117",
         "a1" : "r1_c1"
      },
      {
         "a2" : "download_11",
         "time" : 9.461000001465,
         "id" : "dep118",
         "a1" : "r1_c1"
      },
      {
         "a2" : "download_10",
         "time" : 6.805999997596,
         "id" : "dep119",
         "a1" : "r1_c1"
      },
      {
         "a2" : "download_10",
         "time" : 6.805999997596,
         "id" : "dep120",
         "a1" : "r1_c1"
      },
      {
         "a2" : "download_9",
         "time" : 8.66700000187799,
         "id" : "dep121",
         "a1" : "r1_c1"
      },
      {
         "a2" : "download_9",
         "time" : 8.66700000187799,
         "id" : "dep122",
         "a1" : "r1_c1"
      },
      {
         "a2" : "download_8",
         "time" : 7.476999999198,
         "id" : "dep123",
         "a1" : "r1_c1"
      },
      {
         "a2" : "download_8",
         "time" : 7.476999999198,
         "id" : "dep124",
         "a1" : "r1_c1"
      },
      {
         "a2" : "download_7",
         "time" : 6.13400000292999,
         "id" : "dep125",
         "a1" : "r1_c1"
      },
      {
         "a2" : "download_7",
         "time" : 6.13400000292999,
         "id" : "dep126",
         "a1" : "r1_c1"
      },
      {
         "a2" : "download_6",
         "time" : 2.991000001202,
         "id" : "dep127",
         "a1" : "r1_c1"
      },
      {
         "a2" : "download_6",
         "time" : 2.991000001202,
         "id" : "dep128",
         "a1" : "r1_c1"
      },
      {
         "a2" : "download_5",
         "time" : 5.52400000015,
         "id" : "dep129",
         "a1" : "r1_c1"
      },
      {
         "a2" : "download_5",
         "time" : 5.52400000015,
         "id" : "dep130",
         "a1" : "r1_c1"
      },
      {
         "a2" : "download_4",
         "time" : 5.00499999907299,
         "id" : "dep131",
         "a1" : "r1_c1"
      },
      {
         "a2" : "download_4",
         "time" : 5.00499999907299,
         "id" : "dep132",
         "a1" : "r1_c1"
      },
      {
         "a2" : "download_3",
         "time" : 4.30300000152799,
         "id" : "dep133",
         "a1" : "r1_c1"
      },
      {
         "a2" : "download_3",
         "time" : 4.30300000152799,
         "id" : "dep134",
         "a1" : "r1_c1"
      },
      {
         "a2" : "download_2",
         "time" : 3.631999999925,
         "id" : "dep135",
         "a1" : "r1_c1"
      },
      {
         "a2" : "download_2",
         "time" : 3.631999999925,
         "id" : "dep136",
         "a1" : "r1_c1"
      },
      {
         "a2" : "download_1",
         "time" : 2.136000002792,
         "id" : "dep137",
         "a1" : "r1_c1"
      }
   ]
}
