{
   "objs" : [
      {
         "id" : "r1",
         "when_comp_start" : 1,
         "download" : {
            "connectEnd" : 0,
            "sslEnd" : -1,
            "connectStart" : 0,
            "receiveLast" : 12.3779999916442,
            "sslStart" : -1,
            "receiveFirst" : 51,
            "id" : "download_0",
            "receivedTime" : "63.3779999916442",
            "s_time" : 0,
            "len" : 35264,
            "dnsStart" : -1,
            "receiveHeadersEnd" : 51,
            "type" : "text/html",
            "sendStart" : 0,
            "dnsEnd" : -1,
            "dns" : 0,
            "sendEnd" : 0
         },
         "comps" : [
            {
               "e_time" : 221.089999991818,
               "id" : "r1_c1",
               "time" : 157.485999996424,
               "s_time" : 63.6039999953937,
               "type" : "evalhtml"
            },
            {
               "id" : "r1_c2",
               "e_time" : -85992852.723,
               "time" : -85993082.774,
               "s_time" : 230.050999991363,
               "type" : "evalhtml"
            },
            {
               "s_time" : 230.874000000767,
               "type" : "evalhtml",
               "e_time" : -85992852.723,
               "id" : "r1_c3",
               "time" : -85993083.597
            },
            {
               "time" : -85993085.494,
               "id" : "r1_c4",
               "e_time" : -85992852.723,
               "type" : "evalhtml",
               "s_time" : 232.77099999541
            },
            {
               "time" : 0.748000005842982,
               "e_time" : 234.018999995897,
               "id" : "r1_c5",
               "type" : "evalhtml",
               "s_time" : 233.270999990054
            },
            {
               "s_time" : 235.323999993852,
               "type" : "evalhtml",
               "e_time" : 280.885000000126,
               "id" : "r1_c6",
               "time" : 45.561000006274
            },
            {
               "time" : 8.36500000150403,
               "e_time" : 291.287000000011,
               "id" : "r1_c7",
               "type" : "evalhtml",
               "s_time" : 282.921999998507
            },
            {
               "s_time" : 692.622000002302,
               "type" : "evalhtml",
               "id" : "r1_c8",
               "e_time" : 831.406999990577,
               "time" : 138.784999988275
            }
         ],
         "url" : "http://original.testbed.localhost/www.fc2.com/"
      },
      {
         "id" : "r2",
         "when_comp_start" : -1,
         "download" : {
            "receiveHeadersEnd" : 53,
            "dnsEnd" : -1,
            "sendStart" : 2,
            "type" : "text/css",
            "sendEnd" : 2,
            "dns" : 0,
            "s_time" : 64.0389999898616,
            "len" : 1852,
            "dnsStart" : -1,
            "id" : "download_1",
            "receivedTime" : "118.281999995816",
            "receiveLast" : 65.2819999958156,
            "sslStart" : -1,
            "receiveFirst" : 51,
            "connectEnd" : 2,
            "sslEnd" : -1,
            "connectStart" : 0
         },
         "comps" : [
            {
               "e_time" : 118.531000000075,
               "id" : "comp_2",
               "time" : 0.195000000530001,
               "s_time" : 118.335999999545,
               "type" : 4
            }
         ],
         "url" : "http://original.testbed.localhost/static.fc2.com/share/css/common.css"
      },
      {
         "id" : "r3",
         "comps" : [
            {
               "e_time" : 122.808000000077,
               "id" : "comp_3",
               "time" : 3.92100001045,
               "s_time" : 118.886999989627,
               "type" : 4
            }
         ],
         "url" : "http://original.testbed.localhost/static.fc2.com/share/fc2parts/css/share.css",
         "when_comp_start" : -1,
         "download" : {
            "sslStart" : -1,
            "receiveFirst" : 52,
            "receiveLast" : 64.8359999941895,
            "connectStart" : 0,
            "sslEnd" : -1,
            "connectEnd" : 2,
            "receivedTime" : "118.835999994189",
            "id" : "download_2",
            "dnsStart" : -1,
            "len" : 18123,
            "s_time" : 64.1990000003716,
            "sendEnd" : 2,
            "dns" : 0,
            "dnsEnd" : -1,
            "sendStart" : 2,
            "type" : "text/css",
            "receiveHeadersEnd" : 54
         }
      },
      {
         "when_comp_start" : -1,
         "download" : {
            "type" : "text/css",
            "sendStart" : 51,
            "dnsEnd" : -1,
            "sendEnd" : 51,
            "dns" : 0,
            "receiveHeadersEnd" : 102,
            "len" : 424,
            "s_time" : 65.1979999965988,
            "dnsStart" : -1,
            "receivedTime" : "168.636000002152",
            "id" : "download_3",
            "receiveLast" : 66.6360000021523,
            "receiveFirst" : 51,
            "sslStart" : -1,
            "sslEnd" : -1,
            "connectStart" : 0,
            "connectEnd" : 51
         },
         "comps" : [
            {
               "time" : 0.00699999509399163,
               "id" : "comp_4",
               "e_time" : 168.7099999981,
               "type" : 4,
               "s_time" : 168.703000003006
            }
         ],
         "url" : "http://original.testbed.localhost/static.fc2.com/fc2com/css/sp.css",
         "id" : "r9"
      },
      {
         "download" : {
            "dnsStart" : -1,
            "s_time" : 64.3339999951422,
            "len" : 22324,
            "sendEnd" : 52,
            "dns" : 0,
            "sendStart" : 52,
            "dnsEnd" : -1,
            "type" : "text/css",
            "receiveHeadersEnd" : 104,
            "receiveFirst" : 52,
            "sslStart" : -1,
            "receiveLast" : 65.7469999926398,
            "connectStart" : 0,
            "sslEnd" : -1,
            "connectEnd" : 52,
            "receivedTime" : "169.74699999264",
            "id" : "download_4"
         },
         "when_comp_start" : -1,
         "url" : "http://original.testbed.localhost/static.fc2.com/fc2com/css/fc2com_default_140313.css",
         "comps" : [
            {
               "s_time" : 169.798999995692,
               "type" : 4,
               "e_time" : 174.153999992996,
               "id" : "comp_5",
               "time" : 4.35499999730402
            }
         ],
         "id" : "r4"
      },
      {
         "when_comp_start" : -1,
         "download" : {
            "len" : 439,
            "s_time" : 64.580999998725,
            "dnsStart" : -1,
            "receiveHeadersEnd" : 104,
            "sendStart" : 52,
            "dnsEnd" : -1,
            "type" : "application/javascript",
            "dns" : 0,
            "sendEnd" : 52,
            "receiveLast" : 65.4560000032652,
            "receiveFirst" : 52,
            "sslStart" : -1,
            "connectEnd" : 52,
            "sslEnd" : -1,
            "connectStart" : 0,
            "id" : "download_5",
            "receivedTime" : "169.456000003265"
         },
         "comps" : [
            {
               "type" : 1,
               "s_time" : 230.186999993748,
               "time" : 0.687000007019009,
               "e_time" : 230.874000000767,
               "id" : "comp_7"
            }
         ],
         "url" : "http://original.testbed.localhost/static.fc2.com/fc2com/js/tab_panel.js",
         "id" : "r6"
      },
      {
         "id" : "r7",
         "url" : "http://original.testbed.localhost/static.fc2.com/share/fc2parts/js/common_design.js",
         "comps" : [
            {
               "id" : "comp_9",
               "e_time" : 232.77099999541,
               "time" : 1.839999997174,
               "s_time" : 230.930999998236,
               "type" : 1
            }
         ],
         "download" : {
            "sendStart" : 53,
            "type" : "application/javascript",
            "dnsEnd" : -1,
            "dns" : 0,
            "sendEnd" : 53,
            "receiveHeadersEnd" : 104,
            "len" : 3330,
            "s_time" : 64.6689999994123,
            "dnsStart" : -1,
            "receivedTime" : "174.367999992683",
            "id" : "download_6",
            "receiveLast" : 70.3679999926826,
            "receiveFirst" : 51,
            "sslStart" : -1,
            "sslEnd" : -1,
            "connectStart" : 0,
            "connectEnd" : 53
         },
         "when_comp_start" : -1
      },
      {
         "comps" : [
            {
               "time" : 0.444999997853017,
               "id" : "comp_11",
               "e_time" : 233.270999990054,
               "type" : 1,
               "s_time" : 232.825999992201
            }
         ],
         "url" : "http://original.testbed.localhost/static.fc2.com/fc2com/js/sp.js%3F130128",
         "when_comp_start" : -1,
         "download" : {
            "receiveHeadersEnd" : 105,
            "sendStart" : 53,
            "dnsEnd" : -1,
            "type" : "text/plain",
            "dns" : 0,
            "sendEnd" : 53,
            "len" : 1316,
            "s_time" : 64.7579999931622,
            "dnsStart" : -1,
            "id" : "download_7",
            "receivedTime" : "174.577999991016",
            "receiveLast" : 69.5779999910155,
            "receiveFirst" : 52,
            "sslStart" : -1,
            "connectEnd" : 53,
            "sslEnd" : -1,
            "connectStart" : 0
         },
         "id" : "r8"
      },
      {
         "comps" : [
            {
               "time" : 9.326999992482,
               "e_time" : 230.050999991363,
               "id" : "comp_6",
               "type" : 1,
               "s_time" : 220.723999998881
            }
         ],
         "url" : "http://original.testbed.localhost/static.fc2.com/fc2com/js/jquery-1.2.6.min.js",
         "when_comp_start" : -1,
         "download" : {
            "len" : 55774,
            "s_time" : 64.4619999948191,
            "dnsStart" : -1,
            "receiveHeadersEnd" : 105,
            "type" : "application/javascript",
            "sendStart" : 52,
            "dnsEnd" : -1,
            "dns" : 0,
            "sendEnd" : 52,
            "connectEnd" : 52,
            "sslEnd" : -1,
            "connectStart" : 0,
            "receiveLast" : 115.652999996673,
            "receiveFirst" : 53,
            "sslStart" : -1,
            "id" : "download_8",
            "receivedTime" : "220.652999996673"
         },
         "id" : "r5"
      },
      {
         "download" : {
            "len" : 2972,
            "s_time" : 65.2509999927133,
            "dnsStart" : -1,
            "receiveHeadersEnd" : 154,
            "sendStart" : 103,
            "type" : "application/javascript",
            "dnsEnd" : -1,
            "sendEnd" : 103,
            "dns" : 0,
            "connectEnd" : 103,
            "sslEnd" : -1,
            "connectStart" : 0,
            "receiveLast" : 66.2430000033928,
            "receiveFirst" : 51,
            "sslStart" : -1,
            "id" : "download_9",
            "receivedTime" : "220.243000003393"
         },
         "when_comp_start" : -1,
         "url" : "http://original.testbed.localhost/fc2.com/ja/notice.js",
         "comps" : [
            {
               "e_time" : 235.323999993852,
               "id" : "comp_13",
               "time" : 0.935000003663987,
               "s_time" : 234.388999990188,
               "type" : 1
            }
         ],
         "id" : "r10"
      },
      {
         "download" : {
            "connectEnd" : 104,
            "connectStart" : 0,
            "sslEnd" : -1,
            "receiveFirst" : 51,
            "sslStart" : -1,
            "receiveLast" : 126.602999995812,
            "id" : "download_10",
            "receivedTime" : "281.602999995812",
            "dnsStart" : -1,
            "s_time" : 65.4009999998379,
            "len" : 43,
            "receiveHeadersEnd" : 155,
            "sendEnd" : 104,
            "dns" : 0,
            "type" : "image/gif",
            "sendStart" : 104,
            "dnsEnd" : -1
         },
         "when_comp_start" : -1,
         "url" : "http://original.testbed.localhost/static.fc2.com/share/fc2footermenu/blank.gif",
         "comps" : [],
         "id" : "r12"
      },
      {
         "comps" : [
            {
               "time" : 1.16600000183098,
               "e_time" : 282.921999998507,
               "id" : "comp_16",
               "type" : 1,
               "s_time" : 281.755999996676
            }
         ],
         "url" : "http://original.testbed.localhost/fc2.com/ja/newentry.js",
         "when_comp_start" : -1,
         "download" : {
            "sslStart" : -1,
            "receiveFirst" : 51,
            "receiveLast" : 126.717999998364,
            "connectEnd" : 104,
            "connectStart" : 0,
            "sslEnd" : -1,
            "id" : "download_11",
            "receivedTime" : "281.717999998364",
            "dnsStart" : -1,
            "len" : 3565,
            "s_time" : 65.3159999928903,
            "receiveHeadersEnd" : 155,
            "sendEnd" : 104,
            "dns" : 0,
            "type" : "application/javascript",
            "sendStart" : 104,
            "dnsEnd" : -1
         },
         "id" : "r11"
      },
      {
         "download" : {
            "type" : "image/png",
            "sendStart" : 0,
            "dnsEnd" : -1,
            "sendEnd" : 0,
            "dns" : 0,
            "receiveHeadersEnd" : 55,
            "len" : 9146,
            "s_time" : 221.089999991818,
            "dnsStart" : -1,
            "receivedTime" : "667.239999995218",
            "id" : "download_12",
            "sslEnd" : -1,
            "connectStart" : 0,
            "connectEnd" : 0,
            "receiveLast" : 612.239999995218,
            "sslStart" : -1,
            "receiveFirst" : 55
         },
         "when_comp_start" : -1,
         "url" : "http://original.testbed.localhost/static.fc2.com/fc2com/img/bnr_careers/bnr_careers_b1_ja.png",
         "comps" : [],
         "id" : "r13"
      },
      {
         "url" : "http://original.testbed.localhost/static.fc2.com/share/image/banner_talk/fc2talk-120x600.png",
         "comps" : [],
         "download" : {
            "connectEnd" : 1,
            "connectStart" : 0,
            "sslEnd" : -1,
            "sslStart" : -1,
            "receiveFirst" : 51,
            "receiveLast" : 626.75500000082,
            "id" : "download_13",
            "receivedTime" : "678.75500000082",
            "dnsStart" : -1,
            "s_time" : 233.548999996856,
            "len" : 9402,
            "receiveHeadersEnd" : 52,
            "sendEnd" : 1,
            "dns" : 0,
            "sendStart" : 1,
            "dnsEnd" : -1,
            "type" : "image/png"
         },
         "when_comp_start" : -1,
         "id" : "r14"
      },
      {
         "comps" : [],
         "url" : "http://original.testbed.localhost/static.fc2.com/share/fc2parts/image/fc2logo.png",
         "when_comp_start" : -1,
         "download" : {
            "receiveLast" : 626.223999992246,
            "receiveFirst" : 52,
            "sslStart" : -1,
            "connectEnd" : 0,
            "sslEnd" : -1,
            "connectStart" : 0,
            "id" : "download_14",
            "receivedTime" : "679.223999992246",
            "s_time" : 233.834999991814,
            "len" : 660,
            "dnsStart" : -1,
            "receiveHeadersEnd" : 53,
            "dnsEnd" : -1,
            "sendStart" : 0,
            "type" : "image/png",
            "sendEnd" : 1,
            "dns" : 0
         },
         "id" : "r16"
      },
      {
         "comps" : [],
         "url" : "http://original.testbed.localhost/static.fc2.com/share/fc2parts/image/sh_help_icon.gif",
         "when_comp_start" : -1,
         "download" : {
            "receivedTime" : "679.366999989725",
            "id" : "download_15",
            "sslEnd" : -1,
            "connectStart" : 0,
            "connectEnd" : 0,
            "receiveLast" : 626.366999989725,
            "sslStart" : -1,
            "receiveFirst" : 53,
            "type" : "image/gif",
            "sendStart" : 0,
            "dnsEnd" : -1,
            "sendEnd" : 0,
            "dns" : 0,
            "receiveHeadersEnd" : 53,
            "s_time" : 233.945999993011,
            "len" : 726,
            "dnsStart" : -1
         },
         "id" : "r17"
      },
      {
         "comps" : [],
         "url" : "http://original.testbed.localhost/media.fc2.com/counter_img.php%3Fid=3761",
         "when_comp_start" : -1,
         "download" : {
            "dnsStart" : -1,
            "len" : 43,
            "s_time" : 233.722999997553,
            "receiveHeadersEnd" : 53,
            "dns" : 0,
            "sendEnd" : 1,
            "sendStart" : 1,
            "dnsEnd" : -1,
            "type" : "image/gif",
            "sslStart" : -1,
            "receiveFirst" : 52,
            "receiveLast" : 626.099999993923,
            "connectEnd" : 1,
            "connectStart" : 0,
            "sslEnd" : -1,
            "id" : "download_16",
            "receivedTime" : "679.099999993923"
         },
         "id" : "r15"
      },
      {
         "url" : "http://original.testbed.localhost/media.fc2.com/counter_img.php%3Fid=1512",
         "comps" : [],
         "download" : {
            "id" : "download_17",
            "receivedTime" : "679.56599999161",
            "sslStart" : -1,
            "receiveFirst" : 54,
            "receiveLast" : 625.56599999161,
            "connectEnd" : 0,
            "connectStart" : 0,
            "sslEnd" : -1,
            "receiveHeadersEnd" : 54,
            "sendEnd" : 0,
            "dns" : 0,
            "dnsEnd" : -1,
            "sendStart" : 0,
            "type" : "image/gif",
            "dnsStart" : -1,
            "s_time" : 234.018999995897,
            "len" : 43
         },
         "when_comp_start" : -1,
         "id" : "r19"
      },
      {
         "url" : "http://original.testbed.localhost/static.fc2.com/share/fc2parts/image/header_bar.png",
         "comps" : [],
         "download" : {
            "connectEnd" : 41,
            "sslEnd" : -1,
            "connectStart" : 0,
            "receiveLast" : 589.340999999316,
            "receiveFirst" : 50,
            "sslStart" : -1,
            "id" : "download_18",
            "receivedTime" : "680.340999999316",
            "len" : 150,
            "s_time" : 235.873999990872,
            "dnsStart" : -1,
            "receiveHeadersEnd" : 91,
            "sendStart" : 41,
            "type" : "image/png",
            "dnsEnd" : -1,
            "dns" : 0,
            "sendEnd" : 41
         },
         "when_comp_start" : -1,
         "id" : "r20"
      },
      {
         "id" : "r23",
         "when_comp_start" : 1,
         "download" : {
            "dnsStart" : -1,
            "s_time" : 285.344999996596,
            "len" : 1430,
            "dns" : 0,
            "sendEnd" : 3,
            "sendStart" : 3,
            "type" : "text/html",
            "dnsEnd" : -1,
            "receiveHeadersEnd" : 54,
            "receiveFirst" : 51,
            "sslStart" : -1,
            "receiveLast" : 626.645000000368,
            "connectStart" : 0,
            "sslEnd" : -1,
            "connectEnd" : 3,
            "receivedTime" : "680.645000000368",
            "id" : "download_19"
         },
         "comps" : [
            {
               "id" : "r23_c1",
               "e_time" : 797.890999994706,
               "time" : 55.3849999996601,
               "s_time" : 742.505999995046,
               "type" : "evalhtml"
            }
         ],
         "url" : "http://original.testbed.localhost/assys01.fc2.com/1271.html"
      },
      {
         "id" : "r24",
         "url" : "http://original.testbed.localhost/assys01.fc2.com/1302.html",
         "comps" : [
            {
               "type" : "evalhtml",
               "s_time" : 743.984000000637,
               "time" : 0.0659999932399842,
               "e_time" : 744.049999993877,
               "id" : "r24_c1"
            },
            {
               "s_time" : 797.020999991219,
               "type" : "evalhtml",
               "id" : "r24_c2",
               "e_time" : 797.27599999751,
               "time" : 0.25500000629097
            }
         ],
         "download" : {
            "len" : 1430,
            "s_time" : 286.716000002343,
            "dnsStart" : -1,
            "receiveHeadersEnd" : 53,
            "sendStart" : 2,
            "dnsEnd" : -1,
            "type" : "text/html",
            "dns" : 0,
            "sendEnd" : 2,
            "receiveLast" : 632.113999992609,
            "sslStart" : -1,
            "receiveFirst" : 51,
            "connectEnd" : 2,
            "sslEnd" : -1,
            "connectStart" : 0,
            "id" : "download_20",
            "receivedTime" : "685.113999992609"
         },
         "when_comp_start" : 1
      },
      {
         "id" : "r21",
         "download" : {
            "dnsEnd" : -1,
            "sendStart" : 8,
            "type" : "image/png",
            "sendEnd" : 8,
            "dns" : 0,
            "receiveHeadersEnd" : 60,
            "len" : 4377,
            "s_time" : 280.350999993971,
            "dnsStart" : -1,
            "receivedTime" : "688.788999992539",
            "id" : "download_21",
            "sslEnd" : -1,
            "connectStart" : 0,
            "connectEnd" : 8,
            "receiveLast" : 628.788999992539,
            "receiveFirst" : 52,
            "sslStart" : -1
         },
         "when_comp_start" : -1,
         "url" : "http://original.testbed.localhost/static.fc2.com/fc2com/img/fc2_logo.gif.png",
         "comps" : []
      },
      {
         "download" : {
            "type" : "image/jpeg",
            "sendStart" : 8,
            "dnsEnd" : -1,
            "sendEnd" : 8,
            "dns" : 0,
            "receiveHeadersEnd" : 60,
            "len" : 20436,
            "s_time" : 280.885000000126,
            "dnsStart" : -1,
            "receivedTime" : "691.632999994908",
            "id" : "download_22",
            "sslEnd" : -1,
            "connectStart" : 0,
            "connectEnd" : 8,
            "receiveLast" : 631.632999994908,
            "receiveFirst" : 52,
            "sslStart" : -1
         },
         "when_comp_start" : -1,
         "url" : "http://original.testbed.localhost/static.fc2.com/fc2com/img/header_menu-back.jpg",
         "comps" : [],
         "id" : "r22"
      },
      {
         "id" : "r25",
         "url" : "http://original.testbed.localhost/static.fc2.com/fc2com/img/fc2_service_icon.png",
         "comps" : [],
         "download" : {
            "dnsStart" : -1,
            "len" : 41252,
            "s_time" : 288.339999999152,
            "dns" : 0,
            "sendEnd" : 1,
            "type" : "image/png",
            "sendStart" : 1,
            "dnsEnd" : -1,
            "receiveHeadersEnd" : 52,
            "receiveFirst" : 51,
            "sslStart" : -1,
            "receiveLast" : 640.234000001918,
            "connectStart" : 0,
            "sslEnd" : -1,
            "connectEnd" : 1,
            "receivedTime" : "692.234000001918",
            "id" : "download_23"
         },
         "when_comp_start" : -1
      },
      {
         "comps" : [],
         "url" : "http://original.testbed.localhost/static.fc2.com/share/fc2parts/image/share_parts.png",
         "when_comp_start" : -1,
         "download" : {
            "receivedTime" : "701.223999989452",
            "id" : "download_24",
            "receiveLast" : 613.223999989452,
            "receiveFirst" : 51,
            "sslStart" : -1,
            "sslEnd" : -1,
            "connectStart" : 0,
            "connectEnd" : 36,
            "type" : "image/png",
            "sendStart" : 36,
            "dnsEnd" : -1,
            "sendEnd" : 37,
            "dns" : 0,
            "receiveHeadersEnd" : 88,
            "len" : 131649,
            "s_time" : 291.287000000011,
            "dnsStart" : -1
         },
         "id" : "r26"
      },
      {
         "id" : "r28",
         "comps" : [],
         "url" : "http://original.testbed.localhost/static.fc2.com/fc2com/img/info_title_back.gif.png",
         "when_comp_start" : -1,
         "download" : {
            "connectEnd" : 0,
            "sslEnd" : -1,
            "connectStart" : 0,
            "receiveLast" : 701.991000001202,
            "sslStart" : -1,
            "receiveFirst" : 51,
            "id" : "download_25",
            "receivedTime" : "752.991000001202",
            "s_time" : 700.947999997879,
            "len" : 996,
            "dnsStart" : -1,
            "receiveHeadersEnd" : 51,
            "sendStart" : 0,
            "type" : "image/png",
            "dnsEnd" : -1,
            "dns" : 0,
            "sendEnd" : 0
         }
      },
      {
         "id" : "r27",
         "when_comp_start" : -1,
         "download" : {
            "connectEnd" : 50,
            "sslEnd" : -1,
            "connectStart" : 0,
            "receiveLast" : 744.434999995632,
            "sslStart" : -1,
            "receiveFirst" : 51,
            "id" : "download_26",
            "receivedTime" : "845.434999995632",
            "len" : 43082,
            "s_time" : 693.914999996196,
            "dnsStart" : -1,
            "receiveHeadersEnd" : 101,
            "sendStart" : 50,
            "type" : "text/javascript",
            "dnsEnd" : -1,
            "dns" : 0,
            "sendEnd" : 50
         },
         "comps" : [
            {
               "id" : "comp_101",
               "e_time" : 2951.15700000315,
               "time" : 2105.52800000005,
               "s_time" : 845.6290000031,
               "type" : null
            }
         ],
         "url" : "http://www.google-analytics.com/ga.js"
      },
      {
         "id" : "r30",
         "url" : "http://original.testbed.localhost/assys01.fc2.com/js/ajax.module.js",
         "comps" : [
            {
               "type" : 1,
               "s_time" : 796.514999994542,
               "time" : 0.505999996677019,
               "e_time" : 797.020999991219,
               "id" : "comp_53"
            },
            {
               "type" : null,
               "s_time" : 797.376999995322,
               "time" : 0.320000006468035,
               "id" : "comp_57",
               "e_time" : 797.69700000179
            }
         ],
         "download" : {
            "receiveLast" : 744.481999990647,
            "sslStart" : -1,
            "receiveFirst" : 52,
            "connectEnd" : 0,
            "sslEnd" : -1,
            "connectStart" : 0,
            "id" : "download_27",
            "receivedTime" : "796.481999990647",
            "s_time" : 744.049999993877,
            "len" : 1594,
            "dnsStart" : -1,
            "receiveHeadersEnd" : 52,
            "dnsEnd" : -1,
            "sendStart" : 0,
            "type" : "application/javascript",
            "dns" : 0,
            "sendEnd" : 0
         },
         "when_comp_start" : -1
      },
      {
         "id" : "r29",
         "url" : "http://original.testbed.localhost/j.microad.net/js/compass.js",
         "comps" : [
            {
               "time" : 9.506999995211,
               "id" : "comp_61",
               "e_time" : 807.940999991843,
               "type" : null,
               "s_time" : 798.433999996632
            },
            {
               "s_time" : 816.393000000971,
               "type" : null,
               "id" : "comp_70",
               "e_time" : 823.154999990948,
               "time" : 6.76199998997697
            }
         ],
         "download" : {
            "id" : "download_28",
            "receivedTime" : "798.278000002028",
            "connectEnd" : 0,
            "connectStart" : 0,
            "sslEnd" : -1,
            "sslStart" : -1,
            "receiveFirst" : 53,
            "receiveLast" : 745.278000002028,
            "receiveHeadersEnd" : 53,
            "dns" : 0,
            "sendEnd" : 0,
            "sendStart" : 0,
            "type" : "application/javascript",
            "dnsEnd" : -1,
            "dnsStart" : -1,
            "s_time" : 743.667000002461,
            "len" : 69844
         },
         "when_comp_start" : -1
      },
      {
         "id" : "r31",
         "download" : {
            "receivedTime" : "2951.64899999509",
            "id" : "download_29",
            "sslEnd" : -1,
            "connectStart" : 0,
            "connectEnd" : 50,
            "receiveLast" : 2851.64899999509,
            "receiveFirst" : 50,
            "sslStart" : -1,
            "sendStart" : 50,
            "dnsEnd" : -1,
            "type" : "text/html",
            "dns" : 0,
            "sendEnd" : 50,
            "receiveHeadersEnd" : 100,
            "s_time" : 830.919999993057,
            "len" : 1243,
            "dnsStart" : -1
         },
         "when_comp_start" : 1,
         "url" : "http://cache.send.microadinc.com/js/cookie_enabled_get_apac.html",
         "comps" : [
            {
               "s_time" : 2977.10199998983,
               "type" : "evalhtml",
               "e_time" : 2979.36599999957,
               "id" : "r31_c1",
               "time" : 2.2640000097399
            }
         ]
      },
      {
         "download" : {
            "type" : "text/html",
            "sendStart" : 0,
            "dnsEnd" : -1,
            "sendEnd" : 0,
            "dns" : 0,
            "receiveHeadersEnd" : 100,
            "len" : 1243,
            "s_time" : 831.406999990577,
            "dnsStart" : -1,
            "receivedTime" : "2958.25699999114",
            "id" : "download_30",
            "receiveLast" : 2858.25699999114,
            "sslStart" : -1,
            "receiveFirst" : 100,
            "sslEnd" : -1,
            "connectStart" : 0,
            "connectEnd" : 0
         },
         "when_comp_start" : 1,
         "url" : "http://cache.send.microadinc.com/js/cookie_enabled_get_apac.html",
         "comps" : [],
         "id" : "r32"
      },
      {
         "when_comp_start" : -1,
         "download" : {
            "sendEnd" : 1,
            "dns" : 0,
            "dnsEnd" : -1,
            "sendStart" : 1,
            "type" : "image/gif",
            "receiveHeadersEnd" : 71,
            "dnsStart" : -1,
            "len" : 35,
            "s_time" : 2948.66899999033,
            "receivedTime" : "3022.01200000127",
            "id" : "download_31",
            "receiveFirst" : 70,
            "sslStart" : -1,
            "receiveLast" : 2951.01200000127,
            "connectStart" : 0,
            "sslEnd" : -1,
            "connectEnd" : 1
         },
         "comps" : [],
         "url" : "http://www.google-analytics.com/r/__utm.gif?utmwv=5.6.7&utms=1&utmn=1719054986&utmhn=original.testbed.localhost&utmcs=UTF-8&utmsr=1920x1080&utmvp=889x868&utmsc=24-bit&utmul=en-us&utmje=1&utmfl=-&utmdt=FC2%20-%E7%84%A1%E6%96%99%E3%83%96%E3%83%AD%E3%82%B0%20%E7%84%A1%E6%96%99%E5%8B%95%E7%94%BB%20%E7%8",
         "id" : "r33"
      }
   ],
   "load_activity" : -1,
   "n_download_no_trigger" : 1,
   "name" : "original.testbed.localhost_www.fc2.com_",
   "deps" : [
      {
         "a2" : "r1_c2",
         "time" : -1,
         "a1" : "comp_6",
         "id" : "dep1"
      },
      {
         "id" : "dep2",
         "time" : -1,
         "a1" : "comp_7",
         "a2" : "r1_c3"
      },
      {
         "time" : -1,
         "a1" : "comp_9",
         "id" : "dep3",
         "a2" : "r1_c4"
      },
      {
         "a2" : "r1_c5",
         "a1" : "comp_11",
         "time" : -1,
         "id" : "dep4"
      },
      {
         "id" : "dep5",
         "a1" : "comp_13",
         "time" : -1,
         "a2" : "r1_c6"
      },
      {
         "a2" : "r1_c7",
         "id" : "dep6",
         "time" : -1,
         "a1" : "comp_16"
      },
      {
         "id" : "dep7",
         "a1" : "comp_35",
         "time" : -1,
         "a2" : "r1_c8"
      },
      {
         "a2" : "comp_6",
         "a1" : "comp_2",
         "time" : -1,
         "id" : "dep8"
      },
      {
         "a2" : "comp_6",
         "id" : "dep9",
         "a1" : "comp_3",
         "time" : -1
      },
      {
         "a2" : "comp_6",
         "time" : -1,
         "a1" : "comp_5",
         "id" : "dep10"
      },
      {
         "id" : "dep11",
         "time" : -1,
         "a1" : "comp_6",
         "a2" : "comp_7"
      },
      {
         "id" : "dep12",
         "a1" : "comp_7",
         "time" : -1,
         "a2" : "comp_9"
      },
      {
         "time" : -1,
         "a1" : "comp_9",
         "id" : "dep13",
         "a2" : "comp_11"
      },
      {
         "a2" : "comp_13",
         "id" : "dep14",
         "a1" : "comp_11",
         "time" : -1
      },
      {
         "id" : "dep15",
         "time" : -1,
         "a1" : "comp_4",
         "a2" : "comp_13"
      },
      {
         "id" : "dep16",
         "a1" : "comp_13",
         "time" : -1,
         "a2" : "comp_16"
      },
      {
         "a2" : "r24_c2",
         "id" : "dep17",
         "time" : -1,
         "a1" : "comp_53"
      },
      {
         "a1" : "comp_101",
         "time" : 2103.03999998723,
         "id" : "dep18",
         "a2" : "download_31"
      },
      {
         "time" : -1,
         "a1" : "r1_c8",
         "id" : "dep19",
         "a2" : "download_30"
      },
      {
         "a2" : "download_29",
         "id" : "dep20",
         "time" : 138.297999990755,
         "a1" : "r1_c8"
      },
      {
         "a1" : "r23_c1",
         "time" : 1.16100000741505,
         "id" : "dep21",
         "a2" : "download_28"
      },
      {
         "time" : -1,
         "a1" : "r24_c1",
         "id" : "dep22",
         "a2" : "download_27"
      },
      {
         "a2" : "download_27",
         "id" : "dep23",
         "time" : 1.54399999883105,
         "a1" : "r23_c1"
      },
      {
         "a2" : "download_26",
         "id" : "dep24",
         "time" : 1.292999993894,
         "a1" : "r1_c8"
      },
      {
         "a2" : "download_25",
         "id" : "dep25",
         "time" : 8.32599999557704,
         "a1" : "r1_c8"
      },
      {
         "a2" : "download_24",
         "time" : -1,
         "a1" : "r1_c7",
         "id" : "dep26"
      },
      {
         "a1" : "r1_c7",
         "time" : 5.41800000064501,
         "id" : "dep27",
         "a2" : "download_23"
      },
      {
         "a2" : "download_22",
         "id" : "dep28",
         "time" : -1,
         "a1" : "r1_c6"
      },
      {
         "a2" : "download_21",
         "id" : "dep29",
         "time" : 45.027000000119,
         "a1" : "r1_c6"
      },
      {
         "a2" : "download_20",
         "id" : "dep30",
         "time" : 3.794000003836,
         "a1" : "r1_c7"
      },
      {
         "id" : "dep31",
         "time" : 2.42299999808904,
         "a1" : "r1_c7",
         "a2" : "download_19"
      },
      {
         "a2" : "download_18",
         "time" : 0.549999997019995,
         "a1" : "r1_c6",
         "id" : "dep32"
      },
      {
         "a1" : "r1_c5",
         "time" : -1,
         "id" : "dep33",
         "a2" : "download_17"
      },
      {
         "a2" : "download_16",
         "time" : 0.452000007498981,
         "a1" : "r1_c5",
         "id" : "dep34"
      },
      {
         "a1" : "r1_c5",
         "time" : 0.675000002956978,
         "id" : "dep35",
         "a2" : "download_15"
      },
      {
         "a2" : "download_14",
         "time" : 0.564000001759979,
         "a1" : "r1_c5",
         "id" : "dep36"
      },
      {
         "a2" : "download_13",
         "time" : 0.278000006801989,
         "a1" : "r1_c5",
         "id" : "dep37"
      },
      {
         "a1" : "r1_c1",
         "time" : -1,
         "id" : "dep38",
         "a2" : "download_12"
      },
      {
         "a2" : "download_11",
         "id" : "dep39",
         "time" : 1.7119999974966,
         "a1" : "r1_c1"
      },
      {
         "a1" : "r1_c1",
         "time" : 1.7119999974966,
         "id" : "dep40",
         "a2" : "download_11"
      },
      {
         "a2" : "download_10",
         "a1" : "r1_c1",
         "time" : 1.79700000444419,
         "id" : "dep41"
      },
      {
         "id" : "dep42",
         "time" : 1.79700000444419,
         "a1" : "r1_c1",
         "a2" : "download_10"
      },
      {
         "time" : 1.6469999973196,
         "a1" : "r1_c1",
         "id" : "dep43",
         "a2" : "download_9"
      },
      {
         "a2" : "download_9",
         "a1" : "r1_c1",
         "time" : 1.6469999973196,
         "id" : "dep44"
      },
      {
         "a1" : "r1_c1",
         "time" : 0.857999999425395,
         "id" : "dep45",
         "a2" : "download_8"
      },
      {
         "a2" : "download_7",
         "id" : "dep46",
         "time" : 1.1539999977685,
         "a1" : "r1_c1"
      },
      {
         "a2" : "download_7",
         "id" : "dep47",
         "time" : 1.1539999977685,
         "a1" : "r1_c1"
      },
      {
         "a1" : "r1_c1",
         "time" : 1.06500000401861,
         "id" : "dep48",
         "a2" : "download_6"
      },
      {
         "id" : "dep49",
         "time" : 1.06500000401861,
         "a1" : "r1_c1",
         "a2" : "download_6"
      },
      {
         "a2" : "download_5",
         "time" : 0.977000003331305,
         "a1" : "r1_c1",
         "id" : "dep50"
      },
      {
         "a2" : "download_5",
         "id" : "dep51",
         "time" : 0.977000003331305,
         "a1" : "r1_c1"
      },
      {
         "a2" : "download_4",
         "a1" : "r1_c1",
         "time" : 0.729999999748493,
         "id" : "dep52"
      },
      {
         "id" : "dep53",
         "time" : 1.5940000012051,
         "a1" : "r1_c1",
         "a2" : "download_3"
      },
      {
         "a2" : "download_3",
         "a1" : "r1_c1",
         "time" : 1.5940000012051,
         "id" : "dep54"
      },
      {
         "a2" : "download_2",
         "id" : "dep55",
         "a1" : "r1_c1",
         "time" : 0.595000004977898
      },
      {
         "a2" : "download_1",
         "time" : 0.434999994467894,
         "a1" : "r1_c1",
         "id" : "dep56"
      }
   ],
   "start_activity" : "download_0"
}
