{
   "n_download_no_trigger" : 1,
   "start_activity" : "download_0",
   "name" : "original.testbed.localhost_www.live.com_",
   "load_activity" : -1,
   "objs" : [
      {
         "when_comp_start" : 1,
         "url" : "http://original.testbed.localhost/www.live.com/",
         "id" : "r1",
         "comps" : [
            {
               "s_time" : 166.480000014417,
               "time" : 1.25400000251801,
               "id" : "r1_c1",
               "type" : "evalhtml",
               "e_time" : 167.734000016935
            },
            {
               "s_time" : 234.503999934532,
               "time" : -962261493.908,
               "id" : "r1_c2",
               "type" : "evalhtml",
               "e_time" : -962261259.404
            },
            {
               "s_time" : 742.251000017859,
               "time" : 0.866999966091953,
               "type" : "evalhtml",
               "id" : "r1_c3",
               "e_time" : 743.117999983951
            }
         ],
         "download" : {
            "receiveFirst" : 51,
            "len" : 9559,
            "dns" : 0,
            "dnsEnd" : -1,
            "receiveHeadersEnd" : 51,
            "sslEnd" : -1,
            "connectEnd" : 0,
            "connectStart" : 0,
            "id" : "download_0",
            "receivedTime" : "166.183999972418",
            "sslStart" : -1,
            "dnsStart" : -1,
            "receiveLast" : 115.183999972418,
            "s_time" : 0,
            "sendEnd" : 0,
            "sendStart" : 0,
            "type" : "text/html"
         }
      },
      {
         "when_comp_start" : -1,
         "url" : "http://original.testbed.localhost/auth.gfx.ms/16.000.25828.00/R3WinLive1033.css",
         "id" : "r2",
         "comps" : [
            {
               "s_time" : 224.663999979384,
               "time" : 9.019999997691,
               "type" : 4,
               "id" : "comp_3",
               "e_time" : 233.683999977075
            }
         ],
         "download" : {
            "receiveFirst" : 51,
            "len" : 25806,
            "dns" : 0,
            "dnsEnd" : -1,
            "receiveHeadersEnd" : 52,
            "sslEnd" : -1,
            "connectEnd" : 1,
            "connectStart" : 0,
            "id" : "download_1",
            "receivedTime" : "224.536999943666",
            "sslStart" : -1,
            "dnsStart" : -1,
            "receiveLast" : 172.536999943666,
            "s_time" : 167.340000043623,
            "sendEnd" : 1,
            "sendStart" : 1,
            "type" : "text/css"
         }
      },
      {
         "when_comp_start" : -1,
         "url" : "http://original.testbed.localhost/auth.gfx.ms/16.000.25828.00/Login_Strings_JS1033.js",
         "id" : "r3",
         "comps" : [
            {
               "s_time" : 234.027000027709,
               "time" : 0.476999906823011,
               "type" : 1,
               "id" : "comp_7",
               "e_time" : 234.503999934532
            }
         ],
         "download" : {
            "receiveFirst" : 58,
            "len" : 4644,
            "dns" : 0,
            "dnsEnd" : -1,
            "receiveHeadersEnd" : 58,
            "sslEnd" : -1,
            "connectEnd" : 0,
            "connectStart" : 0,
            "id" : "download_2",
            "receivedTime" : "233.968999935314",
            "sslStart" : -1,
            "dnsStart" : -1,
            "receiveLast" : 175.968999935314,
            "s_time" : 167.597000021487,
            "sendEnd" : 0,
            "sendStart" : 0,
            "type" : "application/javascript"
         }
      },
      {
         "when_comp_start" : -1,
         "url" : "http://original.testbed.localhost/auth.gfx.ms/16.000.25828.00/Login_Core.js",
         "id" : "r4",
         "comps" : [
            {
               "s_time" : 726.29300004337,
               "time" : 15.9579999744891,
               "type" : 1,
               "id" : "comp_9",
               "e_time" : 742.251000017859
            }
         ],
         "download" : {
            "receiveFirst" : 62,
            "len" : 114599,
            "dns" : 0,
            "dnsEnd" : -1,
            "receiveHeadersEnd" : 62,
            "sslEnd" : -1,
            "connectEnd" : 0,
            "connectStart" : 0,
            "id" : "download_3",
            "receivedTime" : "726.155999931507",
            "sslStart" : -1,
            "dnsStart" : -1,
            "receiveLast" : 664.155999931507,
            "s_time" : 167.734000016935,
            "sendEnd" : 0,
            "sendStart" : 0,
            "type" : "application/javascript"
         }
      }
   ],
   "deps" : [
      {
         "a2" : "r1_c2",
         "time" : -1,
         "id" : "dep1",
         "a1" : "comp_7"
      },
      {
         "a2" : "r1_c3",
         "time" : -1,
         "id" : "dep2",
         "a1" : "comp_9"
      },
      {
         "a2" : "comp_9",
         "time" : -1,
         "id" : "dep3",
         "a1" : "comp_7"
      },
      {
         "a2" : "download_3",
         "time" : -1,
         "id" : "dep4",
         "a1" : "r1_c1"
      },
      {
         "a2" : "download_3",
         "time" : 1.25400000251801,
         "id" : "dep5",
         "a1" : "r1_c1"
      },
      {
         "a2" : "download_2",
         "time" : 1.11700000707,
         "id" : "dep6",
         "a1" : "r1_c1"
      },
      {
         "a2" : "download_2",
         "time" : 1.11700000707,
         "id" : "dep7",
         "a1" : "r1_c1"
      },
      {
         "a2" : "download_1",
         "time" : 0.86000002920602,
         "id" : "dep8",
         "a1" : "r1_c1"
      }
   ]
}
