{
   "n_download_no_trigger" : 1,
   "start_activity" : "download_0",
   "name" : "original.testbed.localhost_www.airfreshing.com_",
   "load_activity" : -1,
   "objs" : [
      {
         "when_comp_start" : 1,
         "url" : "http://original.testbed.localhost/www.airfreshing.com/",
         "id" : "r1",
         "comps" : [
            {
               "s_time" : 71.5479999780655,
               "time" : 654.569000005723,
               "id" : "r1_c1",
               "type" : "evalhtml",
               "e_time" : 726.116999983788
            },
            {
               "s_time" : 963.158000027761,
               "time" : 266.428000060839,
               "id" : "r1_c2",
               "type" : "evalhtml",
               "e_time" : 1229.5860000886
            },
            {
               "s_time" : 1313.78099997528,
               "time" : 5188.85200005025,
               "type" : "evalhtml",
               "id" : "r1_c3",
               "e_time" : 6502.63300002553
            }
         ],
         "download" : {
            "receiveFirst" : 52,
            "len" : 74995,
            "dns" : 0,
            "dnsEnd" : -1,
            "receiveHeadersEnd" : 52,
            "sslEnd" : -1,
            "connectEnd" : 0,
            "connectStart" : 0,
            "id" : "download_0",
            "receivedTime" : "71.373000042513",
            "sslStart" : -1,
            "dnsStart" : -1,
            "receiveLast" : 19.373000042513,
            "s_time" : 0,
            "sendEnd" : 0,
            "sendStart" : 0,
            "type" : "text/html"
         }
      },
      {
         "when_comp_start" : -1,
         "url" : "http://original.testbed.localhost/www.airfreshing.com/wp-content/themes/airfreshing2013/bootstrap/css/bootstrap-responsive.css",
         "id" : "r5",
         "comps" : [
            {
               "s_time" : 139.915999956429,
               "time" : 1.78000004962101,
               "type" : 4,
               "id" : "comp_0",
               "e_time" : 141.69600000605
            }
         ],
         "download" : {
            "receiveFirst" : 55,
            "len" : 22111,
            "dns" : 0,
            "dnsEnd" : -1,
            "receiveHeadersEnd" : 59,
            "sslEnd" : -1,
            "connectEnd" : 4,
            "connectStart" : 0,
            "id" : "download_1",
            "receivedTime" : "139.849999919534",
            "sslStart" : -1,
            "dnsStart" : -1,
            "receiveLast" : 80.8499999195337,
            "s_time" : 72.8490001056343,
            "sendEnd" : 4,
            "sendStart" : 4,
            "type" : "text/css"
         }
      },
      {
         "when_comp_start" : -1,
         "url" : "http://original.testbed.localhost/www.airfreshing.com/wp-content/themes/airfreshing2013/js/fancybox2/jquery.fancybox.css",
         "id" : "r3",
         "comps" : [
            {
               "s_time" : 141.936999978498,
               "time" : 0.328999944031011,
               "type" : 4,
               "id" : "comp_1",
               "e_time" : 142.265999922529
            }
         ],
         "download" : {
            "receiveFirst" : 63,
            "len" : 3678,
            "dns" : 0,
            "dnsEnd" : -1,
            "receiveHeadersEnd" : 67,
            "sslEnd" : -1,
            "connectEnd" : 4,
            "connectStart" : 0,
            "id" : "download_2",
            "receivedTime" : "141.876999987289",
            "sslStart" : -1,
            "dnsStart" : -1,
            "receiveLast" : 74.8769999872893,
            "s_time" : 72.5030000321567,
            "sendEnd" : 4,
            "sendStart" : 4,
            "type" : "text/css"
         }
      },
      {
         "when_comp_start" : -1,
         "url" : "http://original.testbed.localhost/www.airfreshing.com/wp-content/plugins/bwp-minify/cache/minify-b1--905d3989b5e51b563624b5273a35ad75.css%3Fver=1437638565.css",
         "id" : "r4",
         "comps" : [
            {
               "s_time" : 150.069999974221,
               "time" : 1.584999961779,
               "type" : 4,
               "id" : "comp_2",
               "e_time" : 151.654999936
            }
         ],
         "download" : {
            "receiveFirst" : 65,
            "len" : 17822,
            "dns" : 0,
            "dnsEnd" : -1,
            "receiveHeadersEnd" : 69,
            "sslEnd" : -1,
            "connectEnd" : 4,
            "connectStart" : 0,
            "id" : "download_3",
            "receivedTime" : "149.965000106022",
            "sslStart" : -1,
            "dnsStart" : -1,
            "receiveLast" : 80.9650001060218,
            "s_time" : 72.6850000210106,
            "sendEnd" : 4,
            "sendStart" : 4,
            "type" : "text/css"
         }
      },
      {
         "when_comp_start" : -1,
         "url" : "http://original.testbed.localhost/www.airfreshing.com/wp-content/plugins/bwp-minify/cache/minify-b1-yarppWidgetCss-cf8d717922443470864933e5d3248a09.css%3Fver=1437638565.css",
         "id" : "r7",
         "comps" : [
            {
               "s_time" : 153.591000009328,
               "time" : 0.0189999118449862,
               "type" : 4,
               "id" : "comp_3",
               "e_time" : 153.609999921173
            }
         ],
         "download" : {
            "receiveFirst" : 73,
            "len" : 10132,
            "dns" : 0,
            "dnsEnd" : -1,
            "receiveHeadersEnd" : 77,
            "sslEnd" : -1,
            "connectEnd" : 4,
            "connectStart" : 0,
            "id" : "download_4",
            "receivedTime" : "153.472000034526",
            "sslStart" : -1,
            "dnsStart" : -1,
            "receiveLast" : 76.472000034526,
            "s_time" : 73.2150000985712,
            "sendEnd" : 4,
            "sendStart" : 4,
            "type" : "text/css"
         }
      },
      {
         "when_comp_start" : -1,
         "url" : "http://original.testbed.localhost/www.airfreshing.com/wp-content/themes/airfreshing2013/font-awesome-4.1.0/css/font-awesome.min.css",
         "id" : "r6",
         "comps" : [
            {
               "s_time" : 162.045000120997,
               "time" : 1.643999945373,
               "type" : 4,
               "id" : "comp_4",
               "e_time" : 163.68900006637
            }
         ],
         "download" : {
            "receiveFirst" : 77,
            "len" : 20740,
            "dns" : 0,
            "dnsEnd" : -1,
            "receiveHeadersEnd" : 81,
            "sslEnd" : -1,
            "connectEnd" : 4,
            "connectStart" : 0,
            "id" : "download_5",
            "receivedTime" : "161.956999916583",
            "sslStart" : -1,
            "dnsStart" : -1,
            "receiveLast" : 80.9569999165833,
            "s_time" : 72.9720001108944,
            "sendEnd" : 4,
            "sendStart" : 4,
            "type" : "text/css"
         }
      },
      {
         "when_comp_start" : -1,
         "url" : "http://original.testbed.localhost/www.airfreshing.com/wp-content/themes/airfreshing2013/bootstrap/css/bootstrap.css",
         "id" : "r2",
         "comps" : [
            {
               "s_time" : 251.678999979049,
               "time" : 25.021000066772,
               "type" : 4,
               "id" : "comp_7",
               "e_time" : 276.700000045821
            }
         ],
         "download" : {
            "receiveFirst" : 86,
            "len" : 127247,
            "dns" : 0,
            "dnsEnd" : -1,
            "receiveHeadersEnd" : 90,
            "sslEnd" : -1,
            "connectEnd" : 4,
            "connectStart" : 0,
            "id" : "download_6",
            "receivedTime" : "251.455999910831",
            "sslStart" : -1,
            "dnsStart" : -1,
            "receiveLast" : 161.455999910831,
            "s_time" : 72.3359999246895,
            "sendEnd" : 4,
            "sendStart" : 4,
            "type" : "text/css"
         }
      },
      {
         "when_comp_start" : -1,
         "url" : "http://original.testbed.localhost/www.airfreshing.com/wp-content/plugins/bwp-minify/cache/minify-b1-jquery-658116fc2672f58067bd69e86a39f92c.js%3Fver=1437638565",
         "id" : "r8",
         "comps" : [
            {
               "s_time" : 920.790000120178,
               "time" : 42.367999907583,
               "type" : 1,
               "id" : "comp_28",
               "e_time" : 963.158000027761
            }
         ],
         "download" : {
            "receiveFirst" : 54,
            "len" : 190417,
            "dns" : 0,
            "dnsEnd" : -1,
            "receiveHeadersEnd" : 120,
            "sslEnd" : -1,
            "connectEnd" : 66,
            "connectStart" : 0,
            "id" : "download_7",
            "receivedTime" : "920.622000005096",
            "sslStart" : -1,
            "dnsStart" : -1,
            "receiveLast" : 800.622000005096,
            "s_time" : 73.3950000721961,
            "sendEnd" : 66,
            "sendStart" : 66,
            "type" : "text/plain"
         }
      },
      {
         "when_comp_start" : -1,
         "url" : "http://original.testbed.localhost/www.airfreshing.com/wp-content/plugins/bwp-minify/cache/minify-b1-twoclick-social-media-buttons-jquery-d6d779232ba0b63d634119ed5abe5166.js%3Fver=1437638565",
         "id" : "r39",
         "comps" : [
            {
               "s_time" : 1270.00000001863,
               "time" : 43.78099995665,
               "type" : 1,
               "id" : "comp_46",
               "e_time" : 1313.78099997528
            }
         ],
         "download" : {
            "receiveFirst" : 77,
            "len" : 113888,
            "dns" : 0,
            "dnsEnd" : -1,
            "receiveHeadersEnd" : 141,
            "sslEnd" : -1,
            "connectEnd" : 64,
            "connectStart" : 0,
            "id" : "download_8",
            "receivedTime" : "1269.88000003621",
            "sslStart" : -1,
            "dnsStart" : -1,
            "receiveLast" : 1128.88000003621,
            "s_time" : 75.8970000315458,
            "sendEnd" : 64,
            "sendStart" : 64,
            "type" : "text/plain"
         }
      },
      {
         "when_comp_start" : -1,
         "url" : "http://original.testbed.localhost/www.airfreshing.com/wp-content/themes/airfreshing2013/images/airfreshing_2013_500.png",
         "id" : "r9",
         "comps" : [],
         "download" : {
            "receiveFirst" : 93,
            "len" : 2458,
            "dns" : 0,
            "dnsEnd" : -1,
            "receiveHeadersEnd" : 169,
            "sslEnd" : -1,
            "connectEnd" : 76,
            "connectStart" : 0,
            "id" : "download_9",
            "receivedTime" : "245.49899995327",
            "sslStart" : -1,
            "dnsStart" : -1,
            "receiveLast" : 76.49899995327,
            "s_time" : 73.6169998999685,
            "sendEnd" : 76,
            "sendStart" : 76,
            "type" : "image/png"
         }
      },
      {
         "when_comp_start" : -1,
         "url" : "http://original.testbed.localhost/www.airfreshing.com/wp-content/themes/airfreshing2013/images/airfreshing_logo_symbol_optimized.svg",
         "id" : "r10",
         "comps" : [],
         "download" : {
            "receiveFirst" : 76,
            "len" : 23721,
            "dns" : 0,
            "dnsEnd" : -1,
            "receiveHeadersEnd" : 76,
            "sslEnd" : -1,
            "connectEnd" : 0,
            "connectStart" : 0,
            "id" : "download_10",
            "receivedTime" : "428.985000122339",
            "sslStart" : -1,
            "dnsStart" : -1,
            "receiveLast" : 352.985000122339,
            "s_time" : 245.082000037655,
            "sendEnd" : 0,
            "sendStart" : 0,
            "type" : "image/svg+xml"
         }
      },
      {
         "when_comp_start" : -1,
         "url" : "http://www.airfreshing.com/wp-includes/js/wp-emoji-release.min.js",
         "id" : "r43",
         "comps" : [
            {
               "s_time" : 474.505000049248,
               "time" : 2.32099997811099,
               "type" : 2,
               "id" : "comp_20",
               "e_time" : 476.826000027359
            }
         ],
         "download" : {
            "receiveFirst" : 190,
            "len" : 15930,
            "dns" : 0,
            "dnsEnd" : -1,
            "receiveHeadersEnd" : 190,
            "sslEnd" : -1,
            "connectEnd" : 0,
            "connectStart" : 0,
            "id" : "download_11",
            "receivedTime" : "474.307999946177",
            "sslStart" : -1,
            "dnsStart" : -1,
            "receiveLast" : 284.307999946177,
            "s_time" : 273.968999972567,
            "sendEnd" : 0,
            "sendStart" : 0,
            "type" : "application/javascript"
         }
      },
      {
         "when_comp_start" : -1,
         "url" : "http://original.testbed.localhost/www.airfreshing.com/wp-content/themes/airfreshing2013/images/airfreshing_logo_text_optimized.svg",
         "id" : "r11",
         "comps" : [],
         "download" : {
            "receiveFirst" : 78,
            "len" : 47393,
            "dns" : 0,
            "dnsEnd" : -1,
            "receiveHeadersEnd" : 78,
            "sslEnd" : -1,
            "connectEnd" : 0,
            "connectStart" : 0,
            "id" : "download_12",
            "receivedTime" : "726.544999983162",
            "sslStart" : -1,
            "dnsStart" : -1,
            "receiveLast" : 648.544999983162,
            "s_time" : 428.576000034809,
            "sendEnd" : 0,
            "sendStart" : 0,
            "type" : "image/svg+xml"
         }
      },
      {
         "when_comp_start" : -1,
         "url" : "http://original.testbed.localhost/www.airfreshing.com/bilder/2015/09/airFreshing_2015_IMS_Kiku_VairLosung_Feel_Good_byGORE-TEX-600x400.jpg",
         "id" : "r12",
         "comps" : [],
         "download" : {
            "receiveFirst" : 51,
            "len" : 86062,
            "dns" : 0,
            "dnsEnd" : -1,
            "receiveHeadersEnd" : 51,
            "sslEnd" : -1,
            "connectEnd" : 0,
            "connectStart" : 0,
            "id" : "download_13",
            "receivedTime" : "1026.15100005642",
            "sslStart" : -1,
            "dnsStart" : -1,
            "receiveLast" : 975.151000056416,
            "s_time" : 726.116999983788,
            "sendEnd" : 0,
            "sendStart" : 0,
            "type" : "image/jpeg"
         }
      },
      {
         "when_comp_start" : 1,
         "url" : "http://original.testbed.localhost/www.airfreshing.com/bilder/2015/08/airfreshing_2015_Testbericht_Norrona-fjora_endlich-auch-fu%EF%BF%BD%2588r-Ma%EF%BF%BD%2588dels_Imagebild-6-533x400.jpg",
         "id" : "r13",
         "comps" : [],
         "download" : {
            "receiveFirst" : 50,
            "len" : 427,
            "dns" : 0,
            "dnsEnd" : -1,
            "receiveHeadersEnd" : 53,
            "sslEnd" : -1,
            "connectEnd" : 2,
            "connectStart" : 0,
            "id" : "download_14",
            "receivedTime" : "1026.72199998051",
            "sslStart" : -1,
            "dnsStart" : -1,
            "receiveLast" : 973.721999980509,
            "s_time" : 964.153999928385,
            "sendEnd" : 3,
            "sendStart" : 2,
            "type" : "text/html"
         }
      },
      {
         "when_comp_start" : -1,
         "url" : "http://original.testbed.localhost/www.airfreshing.com/bilder/2015/09/airFreshing_2015_IMS_Kiku_VairLosung_Feel_Good_byGORE-TEX-360x240.jpg",
         "id" : "r16",
         "comps" : [],
         "download" : {
            "receiveFirst" : 51,
            "len" : 33681,
            "dns" : 0,
            "dnsEnd" : -1,
            "receiveHeadersEnd" : 53,
            "sslEnd" : -1,
            "connectEnd" : 2,
            "connectStart" : 0,
            "id" : "download_15",
            "receivedTime" : "1229.86999992281",
            "sslStart" : -1,
            "dnsStart" : -1,
            "receiveLast" : 1176.86999992281,
            "s_time" : 964.669999899343,
            "sendEnd" : 2,
            "sendStart" : 2,
            "type" : "image/jpeg"
         }
      },
      {
         "when_comp_start" : -1,
         "url" : "http://original.testbed.localhost/www.airfreshing.com/bilder/2015/08/airfreshing_2015_MTB-Einstieg-leicht-gemacht_Imagebild-600x400.jpg",
         "id" : "r15",
         "comps" : [],
         "download" : {
            "receiveFirst" : 74,
            "len" : 64756,
            "dns" : 0,
            "dnsEnd" : -1,
            "receiveHeadersEnd" : 76,
            "sslEnd" : -1,
            "connectEnd" : 2,
            "connectStart" : 0,
            "id" : "download_16",
            "receivedTime" : "1806.38800002635",
            "sslStart" : -1,
            "dnsStart" : -1,
            "receiveLast" : 1730.38800002635,
            "s_time" : 964.509000070393,
            "sendEnd" : 2,
            "sendStart" : 2,
            "type" : "image/jpeg"
         }
      },
      {
         "when_comp_start" : -1,
         "url" : "http://original.testbed.localhost/www.airfreshing.com/bilder/2015/08/airfreshing_2015_Testbericht_MTB-Einstieg_Beitragsbild2-672x400.jpg",
         "id" : "r14",
         "comps" : [],
         "download" : {
            "receiveFirst" : 98,
            "len" : 106642,
            "dns" : 0,
            "dnsEnd" : -1,
            "receiveHeadersEnd" : 100,
            "sslEnd" : -1,
            "connectEnd" : 2,
            "connectStart" : 0,
            "id" : "download_17",
            "receivedTime" : "2019.94500006549",
            "sslStart" : -1,
            "dnsStart" : -1,
            "receiveLast" : 1919.94500006549,
            "s_time" : 964.374999981374,
            "sendEnd" : 2,
            "sendStart" : 2,
            "type" : "image/jpeg"
         }
      },
      {
         "when_comp_start" : -1,
         "url" : "http://platform.twitter.com/widgets.js",
         "id" : "r44",
         "comps" : [
            {
               "s_time" : 1551.78400012664,
               "time" : 71.9119999557799,
               "type" : null,
               "id" : "comp_188",
               "e_time" : 1623.69600008242
            }
         ],
         "download" : {
            "receiveFirst" : 118,
            "len" : 134898,
            "dns" : 0,
            "dnsEnd" : -1,
            "receiveHeadersEnd" : 118,
            "sslEnd" : -1,
            "connectEnd" : 0,
            "connectStart" : 0,
            "id" : "download_18",
            "receivedTime" : "1551.57099990174",
            "sslStart" : -1,
            "dnsStart" : -1,
            "receiveLast" : 1433.57099990174,
            "s_time" : 971.006999956444,
            "sendEnd" : 0,
            "sendStart" : 0,
            "type" : "application/javascript"
         }
      },
      {
         "when_comp_start" : -1,
         "url" : "http://original.testbed.localhost/www.airfreshing.com/bilder/2015/09/airFreshing_2015_IMS_Kiku_VairLosung_Feel_Good_byGORE-TEX-480x320.jpg",
         "id" : "r17",
         "comps" : [],
         "download" : {
            "receiveFirst" : 110,
            "len" : 56877,
            "dns" : 0,
            "dnsEnd" : -1,
            "receiveHeadersEnd" : 149,
            "sslEnd" : -1,
            "connectEnd" : 39,
            "connectStart" : 0,
            "id" : "download_19",
            "receivedTime" : "1623.92499996349",
            "sslStart" : -1,
            "dnsStart" : -1,
            "receiveLast" : 1474.92499996349,
            "s_time" : 964.832999976352,
            "sendEnd" : 39,
            "sendStart" : 39,
            "type" : "image/jpeg"
         }
      },
      {
         "when_comp_start" : -1,
         "url" : "http://original.testbed.localhost/www.airfreshing.com/bilder/2015/08/airfreshing_2015_MTB-Einstieg-leicht-gemacht_Imagebild-360x240.jpg",
         "id" : "r22",
         "comps" : [],
         "download" : {
            "receiveFirst" : 146,
            "len" : 25058,
            "dns" : 0,
            "dnsEnd" : -1,
            "receiveHeadersEnd" : 161,
            "sslEnd" : -1,
            "connectEnd" : 15,
            "connectStart" : 0,
            "id" : "download_20",
            "receivedTime" : "1206.75999997184",
            "sslStart" : -1,
            "dnsStart" : -1,
            "receiveLast" : 1045.75999997184,
            "s_time" : 1003.65100009367,
            "sendEnd" : 15,
            "sendStart" : 15,
            "type" : "image/jpeg"
         }
      },
      {
         "when_comp_start" : -1,
         "url" : "http://original.testbed.localhost/www.airfreshing.com/bilder/2015/08/airfreshing_2015_MTB-Einstieg-leicht-gemacht_Imagebild-480x320.jpg",
         "id" : "r23",
         "comps" : [],
         "download" : {
            "receiveFirst" : 152,
            "len" : 42027,
            "dns" : 0,
            "dnsEnd" : -1,
            "receiveHeadersEnd" : 340,
            "sslEnd" : -1,
            "connectEnd" : 188,
            "connectStart" : 0,
            "id" : "download_21",
            "receivedTime" : "1624.56399993971",
            "sslStart" : -1,
            "dnsStart" : -1,
            "receiveLast" : 1284.56399993971,
            "s_time" : 1018.86900002137,
            "sendEnd" : 188,
            "sendStart" : 188,
            "type" : "image/jpeg"
         }
      },
      {
         "when_comp_start" : -1,
         "url" : "http://original.testbed.localhost/www.airfreshing.com/bilder/2015/09/airfreshing_2015_News_Eider-Wangs-Pull-W_Imagebild_-Frederik-Marmsater_Copyright-Eider-480x320.jpg",
         "id" : "r24",
         "comps" : [],
         "download" : {
            "receiveFirst" : 176,
            "len" : 38091,
            "dns" : 0,
            "dnsEnd" : -1,
            "receiveHeadersEnd" : 199,
            "sslEnd" : -1,
            "connectEnd" : 23,
            "connectStart" : 0,
            "id" : "download_22",
            "receivedTime" : "1789.43699994124",
            "sslStart" : -1,
            "dnsStart" : -1,
            "receiveLast" : 1590.43699994124,
            "s_time" : 1206.49600005709,
            "sendEnd" : 23,
            "sendStart" : 23,
            "type" : "image/jpeg"
         }
      },
      {
         "when_comp_start" : -1,
         "url" : "http://original.testbed.localhost/www.airfreshing.com/bilder/2015/08/airFreshing_2015_Jack_Wolfskin_Kampagne_Spuerst_du_es_auch-480x331.jpg",
         "id" : "r25",
         "comps" : [],
         "download" : {
            "receiveFirst" : 216,
            "len" : 47283,
            "dns" : 0,
            "dnsEnd" : -1,
            "receiveHeadersEnd" : 256,
            "sslEnd" : -1,
            "connectEnd" : 40,
            "connectStart" : 0,
            "id" : "download_23",
            "receivedTime" : "1840.3119998984",
            "sslStart" : -1,
            "dnsStart" : -1,
            "receiveLast" : 1584.3119998984,
            "s_time" : 1229.5860000886,
            "sendEnd" : 40,
            "sendStart" : 40,
            "type" : "image/jpeg"
         }
      },
      {
         "when_comp_start" : -1,
         "url" : "http://www.airfreshing.com/piwik/piwik.js",
         "id" : "r50",
         "comps" : [
            {
               "s_time" : 1842.5930000376,
               "time" : 51.1950000654901,
               "type" : null,
               "id" : "comp_248",
               "e_time" : 1893.78800010309
            }
         ],
         "download" : {
            "receiveFirst" : 290,
            "len" : 43388,
            "dns" : 0,
            "dnsEnd" : -1,
            "receiveHeadersEnd" : 290,
            "sslEnd" : -1,
            "connectEnd" : 0,
            "connectStart" : 0,
            "id" : "download_24",
            "receivedTime" : "1842.44900010526",
            "sslStart" : -1,
            "dnsStart" : -1,
            "receiveLast" : 1552.44900010526,
            "s_time" : 1314.86600008793,
            "sendEnd" : 0,
            "sendStart" : 0,
            "type" : "application/javascript"
         }
      },
      {
         "when_comp_start" : 1,
         "url" : "http://original.testbed.localhost/www.airfreshing.com/bilder/2015/08/airfreshing_2015_Testbericht_Norrona-fjora_endlich-auch-fu%EF%BF%BD%2588r-Ma%EF%BF%BD%2588dels_Imagebild-6-360x270.jpg",
         "id" : "r18",
         "comps" : [],
         "download" : {
            "receiveFirst" : 163,
            "len" : 427,
            "dns" : 0,
            "dnsEnd" : -1,
            "receiveHeadersEnd" : 762,
            "sslEnd" : -1,
            "connectEnd" : 599,
            "connectStart" : 0,
            "id" : "download_25",
            "receivedTime" : "1728.21899992414",
            "sslStart" : -1,
            "dnsStart" : -1,
            "receiveLast" : 966.218999924138,
            "s_time" : 965.132999932393,
            "sendEnd" : 599,
            "sendStart" : 599,
            "type" : "text/html"
         }
      },
      {
         "when_comp_start" : -1,
         "url" : "http://original.testbed.localhost/www.airfreshing.com/bilder/2015/09/20150501-rapha-super-cross-2015-munich-480x360.jpg",
         "id" : "r26",
         "comps" : [],
         "download" : {
            "receiveFirst" : 139,
            "len" : 20261,
            "dns" : 0,
            "dnsEnd" : -1,
            "receiveHeadersEnd" : 164,
            "sslEnd" : -1,
            "connectEnd" : 25,
            "connectStart" : 0,
            "id" : "download_26",
            "receivedTime" : "1762.55599991418",
            "sslStart" : -1,
            "dnsStart" : -1,
            "receiveLast" : 1598.55599991418,
            "s_time" : 1564.35899995267,
            "sendEnd" : 25,
            "sendStart" : 25,
            "type" : "image/jpeg"
         }
      },
      {
         "when_comp_start" : -1,
         "url" : "http://www.google-analytics.com/ga.js",
         "id" : "r51",
         "comps" : [
            {
               "s_time" : 1953.50899989717,
               "time" : 21.0850001312799,
               "type" : null,
               "id" : "comp_250",
               "e_time" : 1974.59400002845
            }
         ],
         "download" : {
            "receiveFirst" : 447,
            "len" : 43082,
            "dns" : 0,
            "dnsEnd" : -1,
            "receiveHeadersEnd" : 447,
            "sslEnd" : -1,
            "connectEnd" : 0,
            "connectStart" : 0,
            "id" : "download_27",
            "receivedTime" : "1953.28500005417",
            "sslStart" : -1,
            "dnsStart" : -1,
            "receiveLast" : 1506.28500005417,
            "s_time" : 1315.75500010513,
            "sendEnd" : 0,
            "sendStart" : 0,
            "type" : "text/javascript"
         }
      },
      {
         "when_comp_start" : -1,
         "url" : "http://original.testbed.localhost/www.airfreshing.com/bilder/2015/09/20150904-poc-avip-series-helm-jersey-bib-short-480x320.jpg",
         "id" : "r27",
         "comps" : [],
         "download" : {
            "receiveFirst" : 133,
            "len" : 65134,
            "dns" : 0,
            "dnsEnd" : -1,
            "receiveHeadersEnd" : 271,
            "sslEnd" : -1,
            "connectEnd" : 138,
            "connectStart" : 0,
            "id" : "download_28",
            "receivedTime" : "2266.07999997213",
            "sslStart" : -1,
            "dnsStart" : -1,
            "receiveLast" : 1995.07999997213,
            "s_time" : 1589.84500006773,
            "sendEnd" : 138,
            "sendStart" : 138,
            "type" : "image/jpeg"
         }
      },
      {
         "when_comp_start" : -1,
         "url" : "http://original.testbed.localhost/www.airfreshing.com/bilder/2015/09/airfreshing_2015_Erfahrungsbericht_Guidefinder_MTB_Trail_Tour_Ti-480x320.jpg",
         "id" : "r28",
         "comps" : [],
         "download" : {
            "receiveFirst" : 141,
            "len" : 48483,
            "dns" : 0,
            "dnsEnd" : -1,
            "receiveHeadersEnd" : 176,
            "sslEnd" : -1,
            "connectEnd" : 34,
            "connectStart" : 0,
            "id" : "download_29",
            "receivedTime" : "2132.17699993402",
            "sslStart" : -1,
            "dnsStart" : -1,
            "receiveLast" : 1956.17699993402,
            "s_time" : 1728.03399991244,
            "sendEnd" : 35,
            "sendStart" : 34,
            "type" : "image/jpeg"
         }
      },
      {
         "when_comp_start" : -1,
         "url" : "http://original.testbed.localhost/www.airfreshing.com/bilder/2015/06/20150822_OR_Deadpoint_Pant_019-480x360.jpg",
         "id" : "r29",
         "comps" : [],
         "download" : {
            "receiveFirst" : 165,
            "len" : 49791,
            "dns" : 0,
            "dnsEnd" : -1,
            "receiveHeadersEnd" : 192,
            "sslEnd" : -1,
            "connectEnd" : 27,
            "connectStart" : 0,
            "id" : "download_30",
            "receivedTime" : "2495.91800011694",
            "sslStart" : -1,
            "dnsStart" : -1,
            "receiveLast" : 2303.91800011694,
            "s_time" : 1762.31799996458,
            "sendEnd" : 27,
            "sendStart" : 27,
            "type" : "image/jpeg"
         }
      },
      {
         "when_comp_start" : -1,
         "url" : "http://original.testbed.localhost/www.airfreshing.com/bilder/2015/08/20150527_Petzl_Reverso4_009-480x360.jpg",
         "id" : "r30",
         "comps" : [],
         "download" : {
            "receiveFirst" : 172,
            "len" : 45507,
            "dns" : 0,
            "dnsEnd" : -1,
            "receiveHeadersEnd" : 189,
            "sslEnd" : -1,
            "connectEnd" : 17,
            "connectStart" : 0,
            "id" : "download_31",
            "receivedTime" : "2363.52799995802",
            "sslStart" : -1,
            "dnsStart" : -1,
            "receiveLast" : 2174.52799995802,
            "s_time" : 1789.20500003733,
            "sendEnd" : 17,
            "sendStart" : 17,
            "type" : "image/jpeg"
         }
      },
      {
         "when_comp_start" : -1,
         "url" : "http://original.testbed.localhost/www.airfreshing.com/bilder/2015/09/20150501-the-north-face-nightray-outdoor-fest-verdon-480x320.jpg",
         "id" : "r31",
         "comps" : [],
         "download" : {
            "receiveFirst" : 190,
            "len" : 25359,
            "dns" : 0,
            "dnsEnd" : -1,
            "receiveHeadersEnd" : 224,
            "sslEnd" : -1,
            "connectEnd" : 34,
            "connectStart" : 0,
            "id" : "download_32",
            "receivedTime" : "2235.61699991114",
            "sslStart" : -1,
            "dnsStart" : -1,
            "receiveLast" : 2011.61699991114,
            "s_time" : 1806.15500011481,
            "sendEnd" : 34,
            "sendStart" : 34,
            "type" : "image/jpeg"
         }
      },
      {
         "when_comp_start" : -1,
         "url" : "http://original.testbed.localhost/www.airfreshing.com/bilder/2015/09/airFreshing_2015_Red_Bull_26Zoll_2014_Artur-Lik_Red_Bull_Content-Pool-480x319.jpg",
         "id" : "r32",
         "comps" : [],
         "download" : {
            "receiveFirst" : 166,
            "len" : 51063,
            "dns" : 0,
            "dnsEnd" : -1,
            "receiveHeadersEnd" : 346,
            "sslEnd" : -1,
            "connectEnd" : 180,
            "connectStart" : 0,
            "id" : "download_33",
            "receivedTime" : "2533.67700008675",
            "sslStart" : -1,
            "dnsStart" : -1,
            "receiveLast" : 2187.67700008675,
            "s_time" : 1840.09300009347,
            "sendEnd" : 180,
            "sendStart" : 180,
            "type" : "image/jpeg"
         }
      },
      {
         "when_comp_start" : -1,
         "url" : "https://syndication.twitter.com/i/jot/syndication?l=%7B%22_category_%22%3A%22syndicated_impression%22%2C%22triggered_on%22%3A1442550474151%2C%22dnt%22%3Afalse%2C%22event_namespace%22%3A%7B%22client%22%3A%22tfw%22%2C%22page%22%3A%22timeline%22%2C%22action%22%3A%22impression%22%7D%7D",
         "id" : "r59",
         "comps" : [],
         "download" : {
            "receiveFirst" : 215,
            "len" : 43,
            "dns" : 0,
            "dnsEnd" : 1,
            "receiveHeadersEnd" : 621,
            "sslEnd" : 405,
            "connectEnd" : 405,
            "connectStart" : 0,
            "id" : "download_34",
            "receivedTime" : "2244.10100001842",
            "sslStart" : 187,
            "dnsStart" : 1,
            "receiveLast" : 1623.10100001842,
            "s_time" : 1621.12600007094,
            "sendEnd" : 406,
            "sendStart" : 405,
            "type" : "image/gif"
         }
      },
      {
         "when_comp_start" : -1,
         "url" : "http://original.testbed.localhost/www.airfreshing.com/bilder/2015/08/airFreshing_2015_Ziele_Biketour_Alpen_ph_M_Toniolo_livigno-480x320.jpg",
         "id" : "r33",
         "comps" : [],
         "download" : {
            "receiveFirst" : 135,
            "len" : 42862,
            "dns" : 0,
            "dnsEnd" : -1,
            "receiveHeadersEnd" : 247,
            "sslEnd" : -1,
            "connectEnd" : 112,
            "connectStart" : 0,
            "id" : "download_35",
            "receivedTime" : "2929.76800003089",
            "sslStart" : -1,
            "dnsStart" : -1,
            "receiveLast" : 2682.76800003089,
            "s_time" : 2019.71499994397,
            "sendEnd" : 112,
            "sendStart" : 112,
            "type" : "image/jpeg"
         }
      },
      {
         "when_comp_start" : -1,
         "url" : "http://original.testbed.localhost/www.airfreshing.com/bilder/2015/05/airFreshing_2015_Hauser_Exkursionen_Alpe_Adria_Trail_Dobrovo_in_Goriska_Brda1-480x320.jpg",
         "id" : "r34",
         "comps" : [],
         "download" : {
            "receiveFirst" : 167,
            "len" : 47630,
            "dns" : 0,
            "dnsEnd" : -1,
            "receiveHeadersEnd" : 271,
            "sslEnd" : -1,
            "connectEnd" : 104,
            "connectStart" : 0,
            "id" : "download_36",
            "receivedTime" : "2718.37899996899",
            "sslStart" : -1,
            "dnsStart" : -1,
            "receiveLast" : 2447.37899996899,
            "s_time" : 2131.9220000878,
            "sendEnd" : 104,
            "sendStart" : 104,
            "type" : "image/jpeg"
         }
      },
      {
         "when_comp_start" : -1,
         "url" : "http://original.testbed.localhost/www.airfreshing.com/bilder/2015/04/airFreshing_2015_Nepal_Trip_Tag7_Annapurna_South2-480x360.jpg",
         "id" : "r35",
         "comps" : [],
         "download" : {
            "receiveFirst" : 176,
            "len" : 39836,
            "dns" : 0,
            "dnsEnd" : -1,
            "receiveHeadersEnd" : 207,
            "sslEnd" : -1,
            "connectEnd" : 30,
            "connectStart" : 0,
            "id" : "download_37",
            "receivedTime" : "2605.21399998106",
            "sslStart" : -1,
            "dnsStart" : -1,
            "receiveLast" : 2398.21399998106,
            "s_time" : 2235.40099989623,
            "sendEnd" : 31,
            "sendStart" : 30,
            "type" : "image/jpeg"
         }
      },
      {
         "when_comp_start" : -1,
         "url" : "http://original.testbed.localhost/www.airfreshing.com/bilder/2015/07/airFreshing_2015_Webtipp_Mammut_360_Project_Plattform_JThompson-480x320.jpg",
         "id" : "r36",
         "comps" : [],
         "download" : {
            "receiveFirst" : 133,
            "len" : 53311,
            "dns" : 0,
            "dnsEnd" : -1,
            "receiveHeadersEnd" : 231,
            "sslEnd" : -1,
            "connectEnd" : 97,
            "connectStart" : 0,
            "id" : "download_38",
            "receivedTime" : "2843.42200006358",
            "sslStart" : -1,
            "dnsStart" : -1,
            "receiveLast" : 2612.42200006358,
            "s_time" : 2265.92999999411,
            "sendEnd" : 98,
            "sendStart" : 97,
            "type" : "image/jpeg"
         }
      },
      {
         "when_comp_start" : -1,
         "url" : "http://original.testbed.localhost/www.airfreshing.com/bilder/2015/07/airFreshing_2015_webtipp_Guidefinder_app1-480x293.jpg",
         "id" : "r37",
         "comps" : [],
         "download" : {
            "receiveFirst" : 111,
            "len" : 35973,
            "dns" : 0,
            "dnsEnd" : -1,
            "receiveHeadersEnd" : 243,
            "sslEnd" : -1,
            "connectEnd" : 132,
            "connectStart" : 0,
            "id" : "download_39",
            "receivedTime" : "2838.59000005759",
            "sslStart" : -1,
            "dnsStart" : -1,
            "receiveLast" : 2595.59000005759,
            "s_time" : 2363.33699990064,
            "sendEnd" : 132,
            "sendStart" : 132,
            "type" : "image/jpeg"
         }
      },
      {
         "when_comp_start" : -1,
         "url" : "http://original.testbed.localhost/www.airfreshing.com/bilder/2015/07/airFreshing_2015_Webtipp_SchlafsackNET_Tipps_Schlafsackkauf_Zelt-480x360.jpg",
         "id" : "r38",
         "comps" : [],
         "download" : {
            "receiveFirst" : 133,
            "len" : 44038,
            "dns" : 0,
            "dnsEnd" : -1,
            "receiveHeadersEnd" : 171,
            "sslEnd" : -1,
            "connectEnd" : 38,
            "connectStart" : 0,
            "id" : "download_40",
            "receivedTime" : "2854.04199990444",
            "sslStart" : -1,
            "dnsStart" : -1,
            "receiveLast" : 2683.04199990444,
            "s_time" : 2495.70500012487,
            "sendEnd" : 38,
            "sendStart" : 38,
            "type" : "image/jpeg"
         }
      },
      {
         "when_comp_start" : -1,
         "url" : "http://original.testbed.localhost/www.airfreshing.com/wp-content/themes/airfreshing2013/bootstrap/img/glyphicons-halflings.png",
         "id" : "r45",
         "comps" : [],
         "download" : {
            "receiveFirst" : 113,
            "len" : 12762,
            "dns" : 0,
            "dnsEnd" : -1,
            "receiveHeadersEnd" : 185,
            "sslEnd" : -1,
            "connectEnd" : 72,
            "connectStart" : 0,
            "id" : "download_41",
            "receivedTime" : "2741.01400002837",
            "sslStart" : -1,
            "dnsStart" : -1,
            "receiveLast" : 2556.01400002837,
            "s_time" : 2533.72700000182,
            "sendEnd" : 72,
            "sendStart" : 72,
            "type" : "image/png"
         }
      },
      {
         "when_comp_start" : -1,
         "url" : "http://original.testbed.localhost/www.airfreshing.com/wp-content/themes/airfreshing2013/bootstrap/img/glyphicons-halflings-white.png",
         "id" : "r46",
         "comps" : [],
         "download" : {
            "receiveFirst" : 101,
            "len" : 8777,
            "dns" : 0,
            "dnsEnd" : -1,
            "receiveHeadersEnd" : 214,
            "sslEnd" : -1,
            "connectEnd" : 113,
            "connectStart" : 0,
            "id" : "download_42",
            "receivedTime" : "2834.45700001903",
            "sslStart" : -1,
            "dnsStart" : -1,
            "receiveLast" : 2620.45700001903,
            "s_time" : 2605.34000000916,
            "sendEnd" : 113,
            "sendStart" : 113,
            "type" : "image/png"
         }
      },
      {
         "when_comp_start" : -1,
         "url" : "http://original.testbed.localhost/www.airfreshing.com/wp-content/themes/airfreshing2013/images/af_menu_gradients.png",
         "id" : "r47",
         "comps" : [],
         "download" : {
            "receiveFirst" : 94,
            "len" : 274,
            "dns" : 0,
            "dnsEnd" : -1,
            "receiveHeadersEnd" : 116,
            "sslEnd" : -1,
            "connectEnd" : 22,
            "connectStart" : 0,
            "id" : "download_43",
            "receivedTime" : "2835.81000007689",
            "sslStart" : -1,
            "dnsStart" : -1,
            "receiveLast" : 2719.81000007689,
            "s_time" : 2718.49799994379,
            "sendEnd" : 22,
            "sendStart" : 22,
            "type" : "image/png"
         }
      },
      {
         "when_comp_start" : -1,
         "url" : "http://original.testbed.localhost/www.airfreshing.com/wp-content/themes/airfreshing2013/images/af_pfeil_ressorts.png",
         "id" : "r48",
         "comps" : [],
         "download" : {
            "receiveFirst" : 51,
            "len" : 800,
            "dns" : 0,
            "dnsEnd" : -1,
            "receiveHeadersEnd" : 145,
            "sslEnd" : -1,
            "connectEnd" : 94,
            "connectStart" : 0,
            "id" : "download_44",
            "receivedTime" : "2886.04000001214",
            "sslStart" : -1,
            "dnsStart" : -1,
            "receiveLast" : 2741.04000001214,
            "s_time" : 2740.58900005184,
            "sendEnd" : 94,
            "sendStart" : 94,
            "type" : "image/png"
         }
      },
      {
         "when_comp_start" : -1,
         "url" : "http://original.testbed.localhost/www.airfreshing.com/wp-content/themes/airfreshing2013/images/supermassivecsspriteicons.png",
         "id" : "r49",
         "comps" : [],
         "download" : {
            "receiveFirst" : 51,
            "len" : 157213,
            "dns" : 0,
            "dnsEnd" : -1,
            "receiveHeadersEnd" : 52,
            "sslEnd" : -1,
            "connectEnd" : 1,
            "connectStart" : 0,
            "id" : "download_45",
            "receivedTime" : "3341.82700002566",
            "sslStart" : -1,
            "dnsStart" : -1,
            "receiveLast" : 3289.82700002566,
            "s_time" : 2834.49200005271,
            "sendEnd" : 1,
            "sendStart" : 1,
            "type" : "image/png"
         }
      },
      {
         "when_comp_start" : -1,
         "url" : "http://original.testbed.localhost/www.airfreshing.com/wp-content/themes/airfreshing2013/images/1280_8_10_10.png",
         "id" : "r52",
         "comps" : [],
         "download" : {
            "receiveFirst" : 82,
            "len" : 734,
            "dns" : 0,
            "dnsEnd" : -1,
            "receiveHeadersEnd" : 85,
            "sslEnd" : -1,
            "connectEnd" : 3,
            "connectStart" : 0,
            "id" : "download_46",
            "receivedTime" : "2921.54200002551",
            "sslStart" : -1,
            "dnsStart" : -1,
            "receiveLast" : 2836.54200002551,
            "s_time" : 2835.82399995066,
            "sendEnd" : 3,
            "sendStart" : 3,
            "type" : "image/png"
         }
      },
      {
         "when_comp_start" : -1,
         "url" : "http://original.testbed.localhost/www.airfreshing.com/wp-content/themes/airfreshing2013/images/cursors/cursor_arrow_left.png",
         "id" : "r53",
         "comps" : [],
         "download" : {
            "receiveFirst" : 79,
            "len" : 178,
            "dns" : 0,
            "dnsEnd" : -1,
            "receiveHeadersEnd" : 84,
            "sslEnd" : -1,
            "connectEnd" : 5,
            "connectStart" : 0,
            "id" : "download_47",
            "receivedTime" : "2923.22900006548",
            "sslStart" : -1,
            "dnsStart" : -1,
            "receiveLast" : 2839.22900006548,
            "s_time" : 2838.64900004119,
            "sendEnd" : 5,
            "sendStart" : 5,
            "type" : "image/png"
         }
      },
      {
         "when_comp_start" : 1,
         "url" : "http://original.testbed.localhost/www.airfreshing.com/wp-content/themes/airfreshing2013/images/cursors/cursor_arrow_left.cur.html",
         "id" : "r54",
         "comps" : [],
         "download" : {
            "receiveFirst" : 70,
            "len" : 4286,
            "dns" : 0,
            "dnsEnd" : -1,
            "receiveHeadersEnd" : 80,
            "sslEnd" : -1,
            "connectEnd" : 10,
            "connectStart" : 0,
            "id" : "download_48",
            "receivedTime" : "2924.28399994969",
            "sslStart" : -1,
            "dnsStart" : -1,
            "receiveLast" : 2844.28399994969,
            "s_time" : 2843.44800002873,
            "sendEnd" : 10,
            "sendStart" : 10,
            "type" : "text/html"
         }
      },
      {
         "when_comp_start" : -1,
         "url" : "http://original.testbed.localhost/www.airfreshing.com/wp-content/themes/airfreshing2013/images/big_transparent.gif",
         "id" : "r55",
         "comps" : [],
         "download" : {
            "receiveFirst" : 53,
            "len" : 806,
            "dns" : 0,
            "dnsEnd" : -1,
            "receiveHeadersEnd" : 85,
            "sslEnd" : -1,
            "connectEnd" : 32,
            "connectStart" : 0,
            "id" : "download_49",
            "receivedTime" : "2939.59799990989",
            "sslStart" : -1,
            "dnsStart" : -1,
            "receiveLast" : 2854.59799990989,
            "s_time" : 2854.0370000992,
            "sendEnd" : 32,
            "sendStart" : 32,
            "type" : "image/gif"
         }
      },
      {
         "when_comp_start" : -1,
         "url" : "http://original.testbed.localhost/www.airfreshing.com/wp-content/themes/airfreshing2013/images/cursors/cursor_arrow_right.png",
         "id" : "r56",
         "comps" : [],
         "download" : {
            "receiveFirst" : 51,
            "len" : 157,
            "dns" : 0,
            "dnsEnd" : -1,
            "receiveHeadersEnd" : 86,
            "sslEnd" : -1,
            "connectEnd" : 35,
            "connectStart" : 0,
            "id" : "download_50",
            "receivedTime" : "2972.98100008629",
            "sslStart" : -1,
            "dnsStart" : -1,
            "receiveLast" : 2886.98100008629,
            "s_time" : 2886.03499997407,
            "sendEnd" : 35,
            "sendStart" : 35,
            "type" : "image/png"
         }
      },
      {
         "when_comp_start" : 1,
         "url" : "http://original.testbed.localhost/www.airfreshing.com/wp-content/themes/airfreshing2013/images/cursors/cursor_arrow_right.cur.html",
         "id" : "r57",
         "comps" : [],
         "download" : {
            "receiveFirst" : 51,
            "len" : 4286,
            "dns" : 0,
            "dnsEnd" : -1,
            "receiveHeadersEnd" : 53,
            "sslEnd" : -1,
            "connectEnd" : 2,
            "connectStart" : 0,
            "id" : "download_51",
            "receivedTime" : "2975.26300000027",
            "sslStart" : -1,
            "dnsStart" : -1,
            "receiveLast" : 2922.26300000027,
            "s_time" : 2921.52699991129,
            "sendEnd" : 2,
            "sendStart" : 2,
            "type" : "text/html"
         }
      },
      {
         "when_comp_start" : -1,
         "url" : "http://original.testbed.localhost/www.airfreshing.com/wp-content/themes/airfreshing2013/images/afspecial-weiss.png",
         "id" : "r58",
         "comps" : [],
         "download" : {
            "receiveFirst" : 51,
            "len" : 508,
            "dns" : 0,
            "dnsEnd" : -1,
            "receiveHeadersEnd" : 52,
            "sslEnd" : -1,
            "connectEnd" : 1,
            "connectStart" : 0,
            "id" : "download_52",
            "receivedTime" : "2975.74499994516",
            "sslStart" : -1,
            "dnsStart" : -1,
            "receiveLast" : 2923.74499994516,
            "s_time" : 2923.21499995887,
            "sendEnd" : 1,
            "sendStart" : 1,
            "type" : "image/png"
         }
      },
      {
         "when_comp_start" : 1,
         "url" : "http://original.testbed.localhost/www.airfreshing.com/bilder/2015/08/airfreshing_2015_Testbericht_Norrona-fjora_endlich-auch-fu%EF%BF%BD%2588r-Ma%EF%BF%BD%2588dels_Imagebild-6-480x360.jpg",
         "id" : "r19",
         "comps" : [],
         "download" : {
            "receiveFirst" : 50,
            "len" : 427,
            "dns" : 0,
            "dnsEnd" : -1,
            "receiveHeadersEnd" : 2014,
            "sslEnd" : -1,
            "connectEnd" : 1964,
            "connectStart" : 0,
            "id" : "download_53",
            "receivedTime" : "2980.75799993239",
            "sslStart" : -1,
            "dnsStart" : -1,
            "receiveLast" : 966.757999932393,
            "s_time" : 965.274000074714,
            "sendEnd" : 1964,
            "sendStart" : 1964,
            "type" : "text/html"
         }
      },
      {
         "when_comp_start" : -1,
         "url" : "http://original.testbed.localhost/www.airfreshing.com/bilder/2015/08/airfreshing_2015_Testbericht_MTB-Einstieg_Beitragsbild2-360x214.jpg",
         "id" : "r20",
         "comps" : [],
         "download" : {
            "receiveFirst" : 54,
            "len" : 33204,
            "dns" : 0,
            "dnsEnd" : -1,
            "receiveHeadersEnd" : 2028,
            "sslEnd" : -1,
            "connectEnd" : 1973,
            "connectStart" : 0,
            "id" : "download_54",
            "receivedTime" : "3105.42699997313",
            "sslStart" : -1,
            "dnsStart" : -1,
            "receiveLast" : 1077.42699997313,
            "s_time" : 965.459000086412,
            "sendEnd" : 1974,
            "sendStart" : 1973,
            "type" : "image/jpeg"
         }
      },
      {
         "when_comp_start" : -1,
         "url" : "http://original.testbed.localhost/www.airfreshing.com/bilder/2015/08/airfreshing_2015_Testbericht_MTB-Einstieg_Beitragsbild2-480x286.jpg",
         "id" : "r21",
         "comps" : [],
         "download" : {
            "receiveFirst" : 88,
            "len" : 57179,
            "dns" : 0,
            "dnsEnd" : -1,
            "receiveHeadersEnd" : 2095,
            "sslEnd" : -1,
            "connectEnd" : 2007,
            "connectStart" : 0,
            "id" : "download_55",
            "receivedTime" : "3290.02900002524",
            "sslStart" : -1,
            "dnsStart" : -1,
            "receiveLast" : 1195.02900002524,
            "s_time" : 965.622999938205,
            "sendEnd" : 2007,
            "sendStart" : 2007,
            "type" : "image/jpeg"
         }
      },
      {
         "when_comp_start" : -1,
         "url" : "https://cdn.syndication.twimg.com/widgets/timelines/285718595915366400?callback=__twttr.callbacks.tl_285718595915366400_i0&dnt=false&domain=original.testbed.localhost&lang=de&suppress_response_codes=true&t=1602833",
         "id" : "r60",
         "comps" : [],
         "download" : {
            "receiveFirst" : 147,
            "len" : 122978,
            "dns" : 0,
            "dnsEnd" : 0,
            "receiveHeadersEnd" : 3419,
            "sslEnd" : 3271,
            "connectEnd" : 3271,
            "connectStart" : 0,
            "id" : "download_56",
            "receivedTime" : "6477.67299995758",
            "sslStart" : 185,
            "dnsStart" : 0,
            "receiveLast" : 3058.67299995758,
            "s_time" : 1623.0570001062,
            "sendEnd" : 3272,
            "sendStart" : 3271,
            "type" : "application/javascript"
         }
      },
      {
         "when_comp_start" : -1,
         "url" : "http://platform.twitter.com/embed/timeline.93933550310288c77a13ff57ab42950b.default.css",
         "id" : "r69",
         "comps" : [],
         "download" : {
            "receiveFirst" : 54,
            "len" : 38593,
            "dns" : 0,
            "dnsEnd" : -1,
            "receiveHeadersEnd" : 55,
            "sslEnd" : -1,
            "connectEnd" : 0,
            "connectStart" : 0,
            "id" : "download_57",
            "receivedTime" : "6578.79699999467",
            "sslStart" : -1,
            "dnsStart" : -1,
            "receiveLast" : 6523.79699999467,
            "s_time" : 6502.12000007741,
            "sendEnd" : 1,
            "sendStart" : 0,
            "type" : "text/css"
         }
      },
      {
         "when_comp_start" : -1,
         "url" : "http://platform.twitter.com/embed/timeline.93933550310288c77a13ff57ab42950b.default.css",
         "id" : "r70",
         "comps" : [],
         "download" : {
            "receiveFirst" : 76,
            "len" : 38593,
            "dns" : 0,
            "dnsEnd" : -1,
            "receiveHeadersEnd" : 76,
            "sslEnd" : -1,
            "connectEnd" : 0,
            "connectStart" : 0,
            "id" : "download_58",
            "receivedTime" : "6593.42900011688",
            "sslStart" : -1,
            "dnsStart" : -1,
            "receiveLast" : 6517.42900011688,
            "s_time" : 6502.63300002553,
            "sendEnd" : 0,
            "sendStart" : 0,
            "type" : "text/css"
         }
      },
      {
         "when_comp_start" : -1,
         "url" : "https://syndication.twitter.com/i/jot?l=%7B%22widget_origin%22%3A%22http%3A%2F%2Foriginal.testbed.localhost%2Fwww.airfreshing.com%2Findex.html%22%2C%22widget_frame%22%3Afalse%2C%22widget_id%22%3A%22285718595915366400%22%2C%22message%22%3Anull%2C%22query%22%3Anull%2C%22profile_id%22%3A%2228183905%22%",
         "id" : "r68",
         "comps" : [],
         "download" : {
            "receiveFirst" : 87,
            "len" : 43,
            "dns" : 0,
            "dnsEnd" : -1,
            "receiveHeadersEnd" : 88,
            "sslEnd" : -1,
            "connectEnd" : 1,
            "connectStart" : 0,
            "id" : "download_59",
            "receivedTime" : "6636.65300002322",
            "sslStart" : -1,
            "dnsStart" : -1,
            "receiveLast" : 6548.65300002322,
            "s_time" : 6501.8680000212,
            "sendEnd" : 1,
            "sendStart" : 1,
            "type" : "image/gif"
         }
      }
   ],
   "deps" : [
      {
         "a2" : "r1_c2",
         "time" : -1,
         "id" : "dep1",
         "a1" : "comp_28"
      },
      {
         "a2" : "r1_c3",
         "time" : -1,
         "id" : "dep2",
         "a1" : "comp_46"
      },
      {
         "a2" : "comp_28",
         "time" : -1,
         "id" : "dep3",
         "a1" : "comp_3"
      },
      {
         "a2" : "download_59",
         "time" : -1,
         "id" : "dep4",
         "a1" : "r1_c3"
      },
      {
         "a2" : "download_58",
         "time" : -1,
         "id" : "dep5",
         "a1" : "r1_c3"
      },
      {
         "a2" : "download_57",
         "time" : 5188.33900010213,
         "id" : "dep6",
         "a1" : "r1_c3"
      },
      {
         "a2" : "download_56",
         "time" : 71.2729999795599,
         "id" : "dep7",
         "a1" : "comp_188"
      },
      {
         "a2" : "download_55",
         "time" : -1,
         "id" : "dep8",
         "a1" : "r1_c2"
      },
      {
         "a2" : "download_54",
         "time" : 2.30100005865097,
         "id" : "dep9",
         "a1" : "r1_c2"
      },
      {
         "a2" : "download_53",
         "time" : 2.11600004695299,
         "id" : "dep10",
         "a1" : "r1_c2"
      },
      {
         "a2" : "download_52",
         "time" : 1609.43399998359,
         "id" : "dep11",
         "a1" : "r1_c3"
      },
      {
         "a2" : "download_51",
         "time" : 1607.74599993601,
         "id" : "dep12",
         "a1" : "r1_c3"
      },
      {
         "a2" : "download_50",
         "time" : 1572.25399999879,
         "id" : "dep13",
         "a1" : "r1_c3"
      },
      {
         "a2" : "download_49",
         "time" : 1540.25600012392,
         "id" : "dep14",
         "a1" : "r1_c3"
      },
      {
         "a2" : "download_48",
         "time" : 1529.66700005345,
         "id" : "dep15",
         "a1" : "r1_c3"
      },
      {
         "a2" : "download_47",
         "time" : 1524.86800006591,
         "id" : "dep16",
         "a1" : "r1_c3"
      },
      {
         "a2" : "download_46",
         "time" : 1522.04299997538,
         "id" : "dep17",
         "a1" : "r1_c3"
      },
      {
         "a2" : "download_45",
         "time" : 1520.71100007743,
         "id" : "dep18",
         "a1" : "r1_c3"
      },
      {
         "a2" : "download_44",
         "time" : 1426.80800007656,
         "id" : "dep19",
         "a1" : "r1_c3"
      },
      {
         "a2" : "download_43",
         "time" : 1404.71699996851,
         "id" : "dep20",
         "a1" : "r1_c3"
      },
      {
         "a2" : "download_42",
         "time" : 1291.55900003388,
         "id" : "dep21",
         "a1" : "r1_c3"
      },
      {
         "a2" : "download_41",
         "time" : 1219.94600002654,
         "id" : "dep22",
         "a1" : "r1_c3"
      },
      {
         "a2" : "download_40",
         "time" : 1181.92400014959,
         "id" : "dep23",
         "a1" : "r1_c3"
      },
      {
         "a2" : "download_39",
         "time" : 1049.55599992536,
         "id" : "dep24",
         "a1" : "r1_c3"
      },
      {
         "a2" : "download_38",
         "time" : 952.14900001883,
         "id" : "dep25",
         "a1" : "r1_c3"
      },
      {
         "a2" : "download_37",
         "time" : 921.61999992095,
         "id" : "dep26",
         "a1" : "r1_c3"
      },
      {
         "a2" : "download_36",
         "time" : 818.14100011252,
         "id" : "dep27",
         "a1" : "r1_c3"
      },
      {
         "a2" : "download_35",
         "time" : 705.93399996869,
         "id" : "dep28",
         "a1" : "r1_c3"
      },
      {
         "a2" : "download_34",
         "time" : 69.3419999443001,
         "id" : "dep29",
         "a1" : "comp_188"
      },
      {
         "a2" : "download_33",
         "time" : 526.31200011819,
         "id" : "dep30",
         "a1" : "r1_c3"
      },
      {
         "a2" : "download_32",
         "time" : 492.37400013953,
         "id" : "dep31",
         "a1" : "r1_c3"
      },
      {
         "a2" : "download_31",
         "time" : 475.42400006205,
         "id" : "dep32",
         "a1" : "r1_c3"
      },
      {
         "a2" : "download_30",
         "time" : 448.5369999893,
         "id" : "dep33",
         "a1" : "r1_c3"
      },
      {
         "a2" : "download_29",
         "time" : 414.25299993716,
         "id" : "dep34",
         "a1" : "r1_c3"
      },
      {
         "a2" : "download_28",
         "time" : 38.0609999410901,
         "id" : "dep35",
         "a1" : "comp_188"
      },
      {
         "a2" : "download_27",
         "time" : 1.97400012984986,
         "id" : "dep36",
         "a1" : "r1_c3"
      },
      {
         "a2" : "download_26",
         "time" : 12.5749998260301,
         "id" : "dep37",
         "a1" : "comp_188"
      },
      {
         "a2" : "download_25",
         "time" : 1.974999904632,
         "id" : "dep38",
         "a1" : "r1_c2"
      },
      {
         "a2" : "download_24",
         "time" : 1.08500011264982,
         "id" : "dep39",
         "a1" : "r1_c3"
      },
      {
         "a2" : "download_23",
         "time" : -1,
         "id" : "dep40",
         "a1" : "r1_c2"
      },
      {
         "a2" : "download_22",
         "time" : 243.338000029329,
         "id" : "dep41",
         "a1" : "r1_c2"
      },
      {
         "a2" : "download_21",
         "time" : 55.710999993609,
         "id" : "dep42",
         "a1" : "r1_c2"
      },
      {
         "a2" : "download_20",
         "time" : 40.493000065909,
         "id" : "dep43",
         "a1" : "r1_c2"
      },
      {
         "a2" : "download_19",
         "time" : 1.67499994859099,
         "id" : "dep44",
         "a1" : "r1_c2"
      },
      {
         "a2" : "download_18",
         "time" : 7.84899992868304,
         "id" : "dep45",
         "a1" : "r1_c2"
      },
      {
         "a2" : "download_17",
         "time" : 1.21699995361303,
         "id" : "dep46",
         "a1" : "r1_c2"
      },
      {
         "a2" : "download_16",
         "time" : 1.35100004263199,
         "id" : "dep47",
         "a1" : "r1_c2"
      },
      {
         "a2" : "download_15",
         "time" : 1.51199987158202,
         "id" : "dep48",
         "a1" : "r1_c2"
      },
      {
         "a2" : "download_14",
         "time" : 0.995999900624042,
         "id" : "dep49",
         "a1" : "r1_c2"
      },
      {
         "a2" : "download_13",
         "time" : -1,
         "id" : "dep50",
         "a1" : "r1_c1"
      },
      {
         "a2" : "download_12",
         "time" : 357.028000056744,
         "id" : "dep51",
         "a1" : "r1_c1"
      },
      {
         "a2" : "download_11",
         "time" : 202.420999994502,
         "id" : "dep52",
         "a1" : "r1_c1"
      },
      {
         "a2" : "download_10",
         "time" : 173.53400005959,
         "id" : "dep53",
         "a1" : "r1_c1"
      },
      {
         "a2" : "download_9",
         "time" : 2.068999921903,
         "id" : "dep54",
         "a1" : "r1_c1"
      },
      {
         "a2" : "download_9",
         "time" : 2.068999921903,
         "id" : "dep55",
         "a1" : "r1_c1"
      },
      {
         "a2" : "download_8",
         "time" : 4.3490000534803,
         "id" : "dep56",
         "a1" : "r1_c1"
      },
      {
         "a2" : "download_8",
         "time" : 4.3490000534803,
         "id" : "dep57",
         "a1" : "r1_c1"
      },
      {
         "a2" : "download_7",
         "time" : 1.84700009413059,
         "id" : "dep58",
         "a1" : "r1_c1"
      },
      {
         "a2" : "download_7",
         "time" : 1.84700009413059,
         "id" : "dep59",
         "a1" : "r1_c1"
      },
      {
         "a2" : "download_6",
         "time" : 0.787999946623998,
         "id" : "dep60",
         "a1" : "r1_c1"
      },
      {
         "a2" : "download_5",
         "time" : 1.42400013282889,
         "id" : "dep61",
         "a1" : "r1_c1"
      },
      {
         "a2" : "download_4",
         "time" : 1.66700012050569,
         "id" : "dep62",
         "a1" : "r1_c1"
      },
      {
         "a2" : "download_4",
         "time" : 1.66700012050569,
         "id" : "dep63",
         "a1" : "r1_c1"
      },
      {
         "a2" : "download_3",
         "time" : 1.13700004294509,
         "id" : "dep64",
         "a1" : "r1_c1"
      },
      {
         "a2" : "download_2",
         "time" : 0.955000054091201,
         "id" : "dep65",
         "a1" : "r1_c1"
      },
      {
         "a2" : "download_1",
         "time" : 1.3010001275688,
         "id" : "dep66",
         "a1" : "r1_c1"
      }
   ]
}
