{
   "n_download_no_trigger" : 1,
   "start_activity" : "download_0",
   "name" : "original.testbed.localhost_www.reddit.com_",
   "load_activity" : -1,
   "objs" : [
      {
         "when_comp_start" : 1,
         "url" : "http://original.testbed.localhost/www.reddit.com/",
         "id" : "r1",
         "comps" : [
            {
               "s_time" : 64.6520000882447,
               "time" : 408.719999948516,
               "id" : "r1_c1",
               "type" : "evalhtml",
               "e_time" : 473.372000036761
            },
            {
               "s_time" : 533.355000079609,
               "time" : 774.700999958441,
               "type" : "evalhtml",
               "id" : "r1_c2",
               "e_time" : 1308.05600003805
            }
         ],
         "download" : {
            "receiveFirst" : 53,
            "len" : 112728,
            "dns" : 0,
            "dnsEnd" : -1,
            "receiveHeadersEnd" : 53,
            "sslEnd" : -1,
            "connectEnd" : 0,
            "connectStart" : 0,
            "id" : "download_0",
            "receivedTime" : "108.590000076219",
            "sslStart" : -1,
            "dnsStart" : -1,
            "receiveLast" : 55.5900000762194,
            "s_time" : 0,
            "sendEnd" : 0,
            "sendStart" : 0,
            "type" : "text/html"
         }
      },
      {
         "when_comp_start" : -1,
         "url" : "http://original.testbed.localhost/www.redditstatic.com/reddit.WHhoZ3zb8Os.css",
         "id" : "r2",
         "comps" : [
            {
               "s_time" : 402.972000068985,
               "time" : 27.112999930978,
               "type" : 4,
               "id" : "comp_12",
               "e_time" : 430.084999999963
            }
         ],
         "download" : {
            "receiveFirst" : 54,
            "len" : 282065,
            "dns" : 0,
            "dnsEnd" : -1,
            "receiveHeadersEnd" : 55,
            "sslEnd" : -1,
            "connectEnd" : 1,
            "connectStart" : 0,
            "id" : "download_1",
            "receivedTime" : "402.83899998758",
            "sslStart" : -1,
            "dnsStart" : -1,
            "receiveLast" : 347.83899998758,
            "s_time" : 65.3830000665039,
            "sendEnd" : 1,
            "sendStart" : 1,
            "type" : "text/css"
         }
      },
      {
         "when_comp_start" : -1,
         "url" : "http://original.testbed.localhost/www.redditstatic.com/subscribe-header.svg",
         "id" : "r4",
         "comps" : [],
         "download" : {
            "receiveFirst" : 74,
            "len" : 7716,
            "dns" : 0,
            "dnsEnd" : -1,
            "receiveHeadersEnd" : 75,
            "sslEnd" : -1,
            "connectEnd" : 1,
            "connectStart" : 0,
            "id" : "download_2",
            "receivedTime" : "153.896000003442",
            "sslStart" : -1,
            "dnsStart" : -1,
            "receiveLast" : 78.8960000034422,
            "s_time" : 66.2759999977425,
            "sendEnd" : 1,
            "sendStart" : 1,
            "type" : "image/svg+xml"
         }
      },
      {
         "when_comp_start" : -1,
         "url" : "http://original.testbed.localhost/www.redditstatic.com/reddit-init.en.M6iFcl7DsRg.js",
         "id" : "r3",
         "comps" : [
            {
               "s_time" : 473.510000039823,
               "time" : 59.845000039786,
               "type" : 1,
               "id" : "comp_13",
               "e_time" : 533.355000079609
            }
         ],
         "download" : {
            "receiveFirst" : 88,
            "len" : 202658,
            "dns" : 0,
            "dnsEnd" : -1,
            "receiveHeadersEnd" : 89,
            "sslEnd" : -1,
            "connectEnd" : 1,
            "connectStart" : 0,
            "id" : "download_3",
            "receivedTime" : "473.352000000887",
            "sslStart" : -1,
            "dnsStart" : -1,
            "receiveLast" : 384.352000000887,
            "s_time" : 65.5350000597537,
            "sendEnd" : 1,
            "sendStart" : 1,
            "type" : "application/javascript"
         }
      },
      {
         "when_comp_start" : -1,
         "url" : "http://original.testbed.localhost/www.redditstatic.com/subscribe-header-thanks.svg",
         "id" : "r5",
         "comps" : [],
         "download" : {
            "receiveFirst" : 51,
            "len" : 6679,
            "dns" : 0,
            "dnsEnd" : -1,
            "receiveHeadersEnd" : 51,
            "sslEnd" : -1,
            "connectEnd" : 0,
            "connectStart" : 0,
            "id" : "download_4",
            "receivedTime" : "213.042000075802",
            "sslStart" : -1,
            "dnsStart" : -1,
            "receiveLast" : 162.042000075802,
            "s_time" : 153.779000043869,
            "sendEnd" : 0,
            "sendStart" : 0,
            "type" : "image/svg+xml"
         }
      },
      {
         "when_comp_start" : -1,
         "url" : "http://original.testbed.localhost/b.thumbs.redditmedia.com/aIDmaTElbRkuxtILUFCYj9yL4z7WonqWjy5hJ5T12us.jpg",
         "id" : "r6",
         "comps" : [],
         "download" : {
            "receiveFirst" : 51,
            "len" : 3682,
            "dns" : 0,
            "dnsEnd" : -1,
            "receiveHeadersEnd" : 51,
            "sslEnd" : -1,
            "connectEnd" : 0,
            "connectStart" : 0,
            "id" : "download_5",
            "receivedTime" : "266.691000084393",
            "sslStart" : -1,
            "dnsStart" : -1,
            "receiveLast" : 215.691000084393,
            "s_time" : 212.945000035688,
            "sendEnd" : 0,
            "sendStart" : 0,
            "type" : "image/jpeg"
         }
      },
      {
         "when_comp_start" : -1,
         "url" : "http://original.testbed.localhost/b.thumbs.redditmedia.com/txkVMyCG3onW5aUazcqOheK8T4PNKPKyLwXldis5Htc.jpg",
         "id" : "r7",
         "comps" : [],
         "download" : {
            "receiveFirst" : 51,
            "len" : 4299,
            "dns" : 0,
            "dnsEnd" : -1,
            "receiveHeadersEnd" : 51,
            "sslEnd" : -1,
            "connectEnd" : 0,
            "connectStart" : 0,
            "id" : "download_6",
            "receivedTime" : "322.464000084437",
            "sslStart" : -1,
            "dnsStart" : -1,
            "receiveLast" : 271.464000084437,
            "s_time" : 266.566000063904,
            "sendEnd" : 0,
            "sendStart" : 0,
            "type" : "image/jpeg"
         }
      },
      {
         "when_comp_start" : -1,
         "url" : "http://original.testbed.localhost/b.thumbs.redditmedia.com/5KiugS3_HHw5aBH_3Gf1ZIHq8yUDnVNmidL8loY5U1U.jpg",
         "id" : "r8",
         "comps" : [],
         "download" : {
            "receiveFirst" : 51,
            "len" : 4506,
            "dns" : 0,
            "dnsEnd" : -1,
            "receiveHeadersEnd" : 51,
            "sslEnd" : -1,
            "connectEnd" : 0,
            "connectStart" : 0,
            "id" : "download_7",
            "receivedTime" : "380.160000058822",
            "sslStart" : -1,
            "dnsStart" : -1,
            "receiveLast" : 329.160000058822,
            "s_time" : 322.396000032313,
            "sendEnd" : 0,
            "sendStart" : 0,
            "type" : "image/jpeg"
         }
      },
      {
         "when_comp_start" : -1,
         "url" : "http://original.testbed.localhost/a.thumbs.redditmedia.com/UFtP7JUETG5ZyUX0mqYArDn_HsR7-2m90-AL9TUZZs0.jpg",
         "id" : "r9",
         "comps" : [],
         "download" : {
            "receiveFirst" : 51,
            "len" : 5189,
            "dns" : 0,
            "dnsEnd" : -1,
            "receiveHeadersEnd" : 51,
            "sslEnd" : -1,
            "connectEnd" : 0,
            "connectStart" : 0,
            "id" : "download_8",
            "receivedTime" : "436.02300004568",
            "sslStart" : -1,
            "dnsStart" : -1,
            "receiveLast" : 385.02300004568,
            "s_time" : 380.089999991469,
            "sendEnd" : 0,
            "sendStart" : 0,
            "type" : "image/jpeg"
         }
      },
      {
         "when_comp_start" : -1,
         "url" : "http://original.testbed.localhost/b.thumbs.redditmedia.com/i-Ol2ZmRMB9Em1LKe7aUZU60xGDrv_pSSfP4ZZKK1bE.jpg",
         "id" : "r10",
         "comps" : [],
         "download" : {
            "receiveFirst" : 51,
            "len" : 4997,
            "dns" : 0,
            "dnsEnd" : -1,
            "receiveHeadersEnd" : 51,
            "sslEnd" : -1,
            "connectEnd" : 0,
            "connectStart" : 0,
            "id" : "download_9",
            "receivedTime" : "589.978000032715",
            "sslStart" : -1,
            "dnsStart" : -1,
            "receiveLast" : 538.978000032715,
            "s_time" : 435.961000039242,
            "sendEnd" : 0,
            "sendStart" : 0,
            "type" : "image/jpeg"
         }
      },
      {
         "when_comp_start" : -1,
         "url" : "http://original.testbed.localhost/b.thumbs.redditmedia.com/dIrP6SR7LRfpI3d7Dqm3gYn8J02IgSDhnSzWir9aMdY.jpg",
         "id" : "r11",
         "comps" : [],
         "download" : {
            "receiveFirst" : 51,
            "len" : 7642,
            "dns" : 0,
            "dnsEnd" : -1,
            "receiveHeadersEnd" : 52,
            "sslEnd" : -1,
            "connectEnd" : 1,
            "connectStart" : 0,
            "id" : "download_10",
            "receivedTime" : "594.985999981873",
            "sslStart" : -1,
            "dnsStart" : -1,
            "receiveLast" : 542.985999981873,
            "s_time" : 473.372000036761,
            "sendEnd" : 1,
            "sendStart" : 1,
            "type" : "image/jpeg"
         }
      },
      {
         "when_comp_start" : 1,
         "url" : "http://original.testbed.localhost/static.adzerk.net/reddit/ads.html%3Fsr=-reddit.com,loggedout&bust2.html#https://www.reddit.com",
         "id" : "r14",
         "comps" : [
            {
               "s_time" : 660.4379999917,
               "time" : 360.5979999993,
               "id" : "r14_c1",
               "type" : "evalhtml",
               "e_time" : 1021.035999991
            },
            {
               "s_time" : 1089.66000005603,
               "time" : 215.63699992839,
               "type" : "evalhtml",
               "id" : "r14_c2",
               "e_time" : 1305.29699998442
            }
         ],
         "download" : {
            "receiveFirst" : 51,
            "len" : 2338,
            "dns" : 0,
            "dnsEnd" : -1,
            "receiveHeadersEnd" : 51,
            "sslEnd" : -1,
            "connectEnd" : 0,
            "connectStart" : 0,
            "id" : "download_11",
            "receivedTime" : "637.03300000634",
            "sslStart" : -1,
            "dnsStart" : -1,
            "receiveLast" : 586.03300000634,
            "s_time" : 545.547000016086,
            "sendEnd" : 0,
            "sendStart" : 0,
            "type" : "text/html"
         }
      },
      {
         "when_comp_start" : -1,
         "url" : "http://original.testbed.localhost/www.redditstatic.com/droparrowgray.gif",
         "id" : "r15",
         "comps" : [],
         "download" : {
            "receiveFirst" : 51,
            "len" : 67,
            "dns" : 0,
            "dnsEnd" : -1,
            "receiveHeadersEnd" : 51,
            "sslEnd" : -1,
            "connectEnd" : 0,
            "connectStart" : 0,
            "id" : "download_12",
            "receivedTime" : "644.348000059836",
            "sslStart" : -1,
            "dnsStart" : -1,
            "receiveLast" : 593.348000059836,
            "s_time" : 553.859999985434,
            "sendEnd" : 0,
            "sendStart" : 0,
            "type" : "image/gif"
         }
      },
      {
         "when_comp_start" : -1,
         "url" : "http://original.testbed.localhost/www.redditstatic.com/sprite-reddit.LvLkshxZC3E.png",
         "id" : "r16",
         "comps" : [],
         "download" : {
            "receiveFirst" : 50,
            "len" : 38848,
            "dns" : 0,
            "dnsEnd" : -1,
            "receiveHeadersEnd" : 50,
            "sslEnd" : -1,
            "connectEnd" : 0,
            "connectStart" : 0,
            "id" : "download_13",
            "receivedTime" : "744.640000048093",
            "sslStart" : -1,
            "dnsStart" : -1,
            "receiveLast" : 694.640000048093,
            "s_time" : 557.13700002525,
            "sendEnd" : 0,
            "sendStart" : 0,
            "type" : "image/png"
         }
      },
      {
         "when_comp_start" : -1,
         "url" : "http://original.testbed.localhost/www.redditstatic.com/throbber.gif",
         "id" : "r17",
         "comps" : [],
         "download" : {
            "receiveFirst" : 72,
            "len" : 1100,
            "dns" : 0,
            "dnsEnd" : -1,
            "receiveHeadersEnd" : 72,
            "sslEnd" : -1,
            "connectEnd" : 0,
            "connectStart" : 0,
            "id" : "download_14",
            "receivedTime" : "645.953000057489",
            "sslStart" : -1,
            "dnsStart" : -1,
            "receiveLast" : 573.953000057489,
            "s_time" : 563.271000050008,
            "sendEnd" : 0,
            "sendStart" : 0,
            "type" : "image/gif"
         }
      },
      {
         "when_comp_start" : 1,
         "url" : "http://original.testbed.localhost/api/request_promo",
         "id" : "r18",
         "comps" : [],
         "download" : {
            "receiveFirst" : 51,
            "len" : 307,
            "dns" : 0,
            "dnsEnd" : -1,
            "receiveHeadersEnd" : 51,
            "sslEnd" : -1,
            "connectEnd" : 0,
            "connectStart" : 0,
            "id" : "download_15",
            "receivedTime" : "650.996000040323",
            "sslStart" : -1,
            "dnsStart" : -1,
            "receiveLast" : 599.996000040323,
            "s_time" : 587.427000049502,
            "sendEnd" : 0,
            "sendStart" : 0,
            "type" : "text/html"
         }
      },
      {
         "when_comp_start" : -1,
         "url" : "http://original.testbed.localhost/b.thumbs.redditmedia.com/8T_nLlMK0TkqBxekOEt7UYs1hXc_jQjbPMwn3ttCC4A.jpg",
         "id" : "r19",
         "comps" : [],
         "download" : {
            "receiveFirst" : 51,
            "len" : 5852,
            "dns" : 0,
            "dnsEnd" : -1,
            "receiveHeadersEnd" : 52,
            "sslEnd" : -1,
            "connectEnd" : 1,
            "connectStart" : 0,
            "id" : "download_16",
            "receivedTime" : "661.65100003127",
            "sslStart" : -1,
            "dnsStart" : -1,
            "receiveLast" : 609.65100003127,
            "s_time" : 591.741000069305,
            "sendEnd" : 1,
            "sendStart" : 1,
            "type" : "image/jpeg"
         }
      },
      {
         "when_comp_start" : -1,
         "url" : "http://original.testbed.localhost/b.thumbs.redditmedia.com/CttPpkoU7PfMXd-y-U4NMeZG_CIXX5ktBL9akg8Dm7Y.jpg",
         "id" : "r20",
         "comps" : [],
         "download" : {
            "receiveFirst" : 55,
            "len" : 2476,
            "dns" : 0,
            "dnsEnd" : -1,
            "receiveHeadersEnd" : 60,
            "sslEnd" : -1,
            "connectEnd" : 5,
            "connectStart" : 0,
            "id" : "download_17",
            "receivedTime" : "670.500000007451",
            "sslStart" : -1,
            "dnsStart" : -1,
            "receiveLast" : 610.500000007451,
            "s_time" : 592.142999987118,
            "sendEnd" : 5,
            "sendStart" : 5,
            "type" : "image/jpeg"
         }
      },
      {
         "when_comp_start" : -1,
         "url" : "http://original.testbed.localhost/www.redditstatic.com/reddit.en.hTghecSDM9A.js",
         "id" : "r38",
         "comps" : [
            {
               "s_time" : 940.819000010379,
               "time" : 49.725000048056,
               "type" : 2,
               "id" : "comp_74",
               "e_time" : 990.544000058435
            }
         ],
         "download" : {
            "receiveFirst" : 60,
            "len" : 130319,
            "dns" : 0,
            "dnsEnd" : -1,
            "receiveHeadersEnd" : 65,
            "sslEnd" : -1,
            "connectEnd" : 5,
            "connectStart" : 0,
            "id" : "download_18",
            "receivedTime" : "940.707999980077",
            "sslStart" : -1,
            "dnsStart" : -1,
            "receiveLast" : 875.707999980077,
            "s_time" : 600.778000080027,
            "sendEnd" : 5,
            "sendStart" : 5,
            "type" : "application/javascript"
         }
      },
      {
         "when_comp_start" : -1,
         "url" : "http://original.testbed.localhost/b.thumbs.redditmedia.com/3QO195cr5IeJ9Q6L5IgbYnHiYcCLobor1ohVRMyGp_U.jpg",
         "id" : "r21",
         "comps" : [],
         "download" : {
            "receiveFirst" : 74,
            "len" : 5166,
            "dns" : 0,
            "dnsEnd" : -1,
            "receiveHeadersEnd" : 117,
            "sslEnd" : -1,
            "connectEnd" : 43,
            "connectStart" : 0,
            "id" : "download_19",
            "receivedTime" : "716.815000050701",
            "sslStart" : -1,
            "dnsStart" : -1,
            "receiveLast" : 599.815000050701,
            "s_time" : 592.416000086814,
            "sendEnd" : 43,
            "sendStart" : 43,
            "type" : "image/jpeg"
         }
      },
      {
         "when_comp_start" : -1,
         "url" : "http://original.testbed.localhost/a.thumbs.redditmedia.com/fsYjtUElu2TVUGZ4QTZaduSU53-_p2voUrVXEIdEYO8.jpg",
         "id" : "r22",
         "comps" : [],
         "download" : {
            "receiveFirst" : 80,
            "len" : 3106,
            "dns" : 0,
            "dnsEnd" : -1,
            "receiveHeadersEnd" : 126,
            "sslEnd" : -1,
            "connectEnd" : 46,
            "connectStart" : 0,
            "id" : "download_20",
            "receivedTime" : "723.541000043042",
            "sslStart" : -1,
            "dnsStart" : -1,
            "receiveLast" : 597.541000043042,
            "s_time" : 592.777000041679,
            "sendEnd" : 46,
            "sendStart" : 46,
            "type" : "image/jpeg"
         }
      },
      {
         "when_comp_start" : -1,
         "url" : "http://original.testbed.localhost/b.thumbs.redditmedia.com/csfYE3SKinbErYXget63DZ_dhR208MXXAv4-U9ilrCs.jpg",
         "id" : "r23",
         "comps" : [],
         "download" : {
            "receiveFirst" : 73,
            "len" : 2171,
            "dns" : 0,
            "dnsEnd" : -1,
            "receiveHeadersEnd" : 132,
            "sslEnd" : -1,
            "connectEnd" : 59,
            "connectStart" : 0,
            "id" : "download_21",
            "receivedTime" : "727.292999974452",
            "sslStart" : -1,
            "dnsStart" : -1,
            "receiveLast" : 595.292999974452,
            "s_time" : 593.073999974877,
            "sendEnd" : 59,
            "sendStart" : 59,
            "type" : "image/jpeg"
         }
      },
      {
         "when_comp_start" : -1,
         "url" : "http://original.testbed.localhost/b.thumbs.redditmedia.com/6Bb3JAQecHL-Rz3DP2wR09u9piyWHwSmLczi5rBanMI.jpg",
         "id" : "r24",
         "comps" : [],
         "download" : {
            "receiveFirst" : 74,
            "len" : 3656,
            "dns" : 0,
            "dnsEnd" : -1,
            "receiveHeadersEnd" : 135,
            "sslEnd" : -1,
            "connectEnd" : 61,
            "connectStart" : 0,
            "id" : "download_22",
            "receivedTime" : "733.88200008776",
            "sslStart" : -1,
            "dnsStart" : -1,
            "receiveLast" : 598.88200008776,
            "s_time" : 593.391000060365,
            "sendEnd" : 61,
            "sendStart" : 61,
            "type" : "image/jpeg"
         }
      },
      {
         "when_comp_start" : -1,
         "url" : "http://original.testbed.localhost/ajax.googleapis.com/ajax/libs/jquery/1.7.1/jquery.min.js",
         "id" : "r40",
         "comps" : [
            {
               "s_time" : 1061.3950000843,
               "time" : 23.59199989587,
               "type" : null,
               "id" : "comp_81",
               "e_time" : 1084.98699998017
            }
         ],
         "download" : {
            "receiveFirst" : 55,
            "len" : 93868,
            "dns" : 0,
            "dnsEnd" : -1,
            "receiveHeadersEnd" : 111,
            "sslEnd" : -1,
            "connectEnd" : 55,
            "connectStart" : 0,
            "id" : "download_23",
            "receivedTime" : "1061.33900000714",
            "sslStart" : -1,
            "dnsStart" : -1,
            "receiveLast" : 950.339000007138,
            "s_time" : 661.270000040531,
            "sendEnd" : 56,
            "sendStart" : 55,
            "type" : "application/javascript"
         }
      },
      {
         "when_comp_start" : -1,
         "url" : "http://original.testbed.localhost/secure.adzerk.net/ados.js%3Fq=43",
         "id" : "r41",
         "comps" : [
            {
               "s_time" : 1085.36500006448,
               "time" : 4.29499999154996,
               "type" : 1,
               "id" : "comp_83",
               "e_time" : 1089.66000005603
            }
         ],
         "download" : {
            "receiveFirst" : 71,
            "len" : 30235,
            "dns" : 0,
            "dnsEnd" : -1,
            "receiveHeadersEnd" : 133,
            "sslEnd" : -1,
            "connectEnd" : 62,
            "connectStart" : 0,
            "id" : "download_24",
            "receivedTime" : "1085.22400003858",
            "sslStart" : -1,
            "dnsStart" : -1,
            "receiveLast" : 952.224000038579,
            "s_time" : 661.536000086926,
            "sendEnd" : 62,
            "sendStart" : 62,
            "type" : "text/plain"
         }
      },
      {
         "when_comp_start" : -1,
         "url" : "http://original.testbed.localhost/b.thumbs.redditmedia.com/y4hUU9JKxPL-m5nnGW8WBigs8VaLKMjTHYrCNLKPeQY.jpg",
         "id" : "r25",
         "comps" : [],
         "download" : {
            "receiveFirst" : 91,
            "len" : 8223,
            "dns" : 0,
            "dnsEnd" : -1,
            "receiveHeadersEnd" : 225,
            "sslEnd" : -1,
            "connectEnd" : 133,
            "connectStart" : 0,
            "id" : "download_25",
            "receivedTime" : "830.987000023015",
            "sslStart" : -1,
            "dnsStart" : -1,
            "receiveLast" : 605.987000023015,
            "s_time" : 593.709000037052,
            "sendEnd" : 134,
            "sendStart" : 133,
            "type" : "image/jpeg"
         }
      },
      {
         "when_comp_start" : -1,
         "url" : "http://original.testbed.localhost/b.thumbs.redditmedia.com/H3BK3b49UQnK12fi3vgZTFN-_FAqGSH8PVt1EY_OLmI.jpg",
         "id" : "r26",
         "comps" : [],
         "download" : {
            "receiveFirst" : 99,
            "len" : 3975,
            "dns" : 0,
            "dnsEnd" : -1,
            "receiveHeadersEnd" : 227,
            "sslEnd" : -1,
            "connectEnd" : 128,
            "connectStart" : 0,
            "id" : "download_26",
            "receivedTime" : "838.28300004825",
            "sslStart" : -1,
            "dnsStart" : -1,
            "receiveLast" : 611.28300004825,
            "s_time" : 605.697000049986,
            "sendEnd" : 128,
            "sendStart" : 128,
            "type" : "image/jpeg"
         }
      },
      {
         "when_comp_start" : -1,
         "url" : "http://original.testbed.localhost/a.thumbs.redditmedia.com/0AwgiqNBCe748FbJKYjiKTfsGw9_neGluHaeS18nFR4.jpg",
         "id" : "r27",
         "comps" : [],
         "download" : {
            "receiveFirst" : 101,
            "len" : 2574,
            "dns" : 0,
            "dnsEnd" : -1,
            "receiveHeadersEnd" : 209,
            "sslEnd" : -1,
            "connectEnd" : 107,
            "connectStart" : 0,
            "id" : "download_27",
            "receivedTime" : "847.833000007086",
            "sslStart" : -1,
            "dnsStart" : -1,
            "receiveLast" : 638.833000007086,
            "s_time" : 635.820000083186,
            "sendEnd" : 108,
            "sendStart" : 107,
            "type" : "image/jpeg"
         }
      },
      {
         "when_comp_start" : -1,
         "url" : "http://www.google-analytics.com/ga.js",
         "id" : "r12",
         "comps" : [
            {
               "s_time" : 1105.19200004637,
               "time" : 13.26899998822,
               "type" : 2,
               "id" : "comp_145",
               "e_time" : 1118.46100003459
            }
         ],
         "download" : {
            "receiveFirst" : 106,
            "len" : 41100,
            "dns" : 0,
            "dnsEnd" : 0,
            "receiveHeadersEnd" : 308,
            "sslEnd" : -1,
            "connectEnd" : 202,
            "connectStart" : 0,
            "id" : "download_28",
            "receivedTime" : "1060.7580000069",
            "sslStart" : -1,
            "dnsStart" : 0,
            "receiveLast" : 752.758000006899,
            "s_time" : 541.659999988042,
            "sendEnd" : 202,
            "sendStart" : 202,
            "type" : "text/javascript"
         }
      },
      {
         "when_comp_start" : -1,
         "url" : "http://www.google-analytics.com/analytics.js",
         "id" : "r13",
         "comps" : [
            {
               "s_time" : 895.863000070676,
               "time" : 44.695999938995,
               "type" : 2,
               "id" : "comp_72",
               "e_time" : 940.559000009671
            }
         ],
         "download" : {
            "receiveFirst" : 135,
            "len" : 25252,
            "dns" : 0,
            "dnsEnd" : 0,
            "receiveHeadersEnd" : 336,
            "sslEnd" : -1,
            "connectEnd" : 201,
            "connectStart" : 0,
            "id" : "download_29",
            "receivedTime" : "895.642000017688",
            "sslStart" : -1,
            "dnsStart" : 0,
            "receiveLast" : 559.642000017688,
            "s_time" : 542.255999986082,
            "sendEnd" : 201,
            "sendStart" : 201,
            "type" : "text/javascript"
         }
      },
      {
         "when_comp_start" : -1,
         "url" : "http://original.testbed.localhost/b.thumbs.redditmedia.com/Ruxw76eBHcuEQHlSp4bQl-5576zG9kIY2-11m7ndjxw.jpg",
         "id" : "r28",
         "comps" : [],
         "download" : {
            "receiveFirst" : 122,
            "len" : 3573,
            "dns" : 0,
            "dnsEnd" : -1,
            "receiveHeadersEnd" : 302,
            "sslEnd" : -1,
            "connectEnd" : 179,
            "connectStart" : 0,
            "id" : "download_30",
            "receivedTime" : "1059.86200005282",
            "sslStart" : -1,
            "dnsStart" : -1,
            "receiveLast" : 757.862000052817,
            "s_time" : 651.584999985062,
            "sendEnd" : 180,
            "sendStart" : 179,
            "type" : "image/jpeg"
         }
      },
      {
         "when_comp_start" : -1,
         "url" : "http://original.testbed.localhost/b.thumbs.redditmedia.com/tMsKJtzCGETEuXnz5iW4aXNZFX9ffNtqhTx_x015jeI.jpg",
         "id" : "r29",
         "comps" : [],
         "download" : {
            "receiveFirst" : 122,
            "len" : 4441,
            "dns" : 0,
            "dnsEnd" : -1,
            "receiveHeadersEnd" : 306,
            "sslEnd" : -1,
            "connectEnd" : 184,
            "connectStart" : 0,
            "id" : "download_31",
            "receivedTime" : "1060.24700007401",
            "sslStart" : -1,
            "dnsStart" : -1,
            "receiveLast" : 754.247000074014,
            "s_time" : 654.092999990098,
            "sendEnd" : 184,
            "sendStart" : 184,
            "type" : "image/jpeg"
         }
      },
      {
         "when_comp_start" : -1,
         "url" : "http://original.testbed.localhost/b.thumbs.redditmedia.com/dbCD3PB1wLStCw2Xb641PYfD-lwdfXRBOVdg3BlgohY.jpg",
         "id" : "r30",
         "comps" : [],
         "download" : {
            "receiveFirst" : 121,
            "len" : 7739,
            "dns" : 0,
            "dnsEnd" : -1,
            "receiveHeadersEnd" : 252,
            "sslEnd" : -1,
            "connectEnd" : 131,
            "connectStart" : 0,
            "id" : "download_32",
            "receivedTime" : "1060.64400007017",
            "sslStart" : -1,
            "dnsStart" : -1,
            "receiveLast" : 808.64400007017,
            "s_time" : 716.734000016004,
            "sendEnd" : 131,
            "sendStart" : 131,
            "type" : "image/jpeg"
         }
      },
      {
         "when_comp_start" : -1,
         "url" : "http://original.testbed.localhost/b.thumbs.redditmedia.com/8rydhmF3y44Sc42rWhakyNNAutXP0vHswADprVt1ydU.jpg",
         "id" : "r31",
         "comps" : [],
         "download" : {
            "receiveFirst" : 83,
            "len" : 5266,
            "dns" : 0,
            "dnsEnd" : -1,
            "receiveHeadersEnd" : 262,
            "sslEnd" : -1,
            "connectEnd" : 179,
            "connectStart" : 0,
            "id" : "download_33",
            "receivedTime" : "1061.1350000836",
            "sslStart" : -1,
            "dnsStart" : -1,
            "receiveLast" : 799.135000083596,
            "s_time" : 723.532999982126,
            "sendEnd" : 179,
            "sendStart" : 179,
            "type" : "image/jpeg"
         }
      },
      {
         "when_comp_start" : -1,
         "url" : "http://original.testbed.localhost/a.thumbs.redditmedia.com/2Y9rpAd1EWPXcMtlEEs6XKm3vpoBHO1bbf4RLrNeXC4.jpg",
         "id" : "r32",
         "comps" : [],
         "download" : {
            "receiveFirst" : 50,
            "len" : 4152,
            "dns" : 0,
            "dnsEnd" : -1,
            "receiveHeadersEnd" : 282,
            "sslEnd" : -1,
            "connectEnd" : 231,
            "connectStart" : 0,
            "id" : "download_34",
            "receivedTime" : "1100.56400008034",
            "sslStart" : -1,
            "dnsStart" : -1,
            "receiveLast" : 818.56400008034,
            "s_time" : 727.266000001691,
            "sendEnd" : 232,
            "sendStart" : 231,
            "type" : "image/jpeg"
         }
      },
      {
         "when_comp_start" : -1,
         "url" : "http://original.testbed.localhost/a.thumbs.redditmedia.com/F0Tht7IhxtLM6gr6irD6UKAzALZWuNY7Wt2xy2I0Wf4.jpg",
         "id" : "r33",
         "comps" : [],
         "download" : {
            "receiveFirst" : 51,
            "len" : 5575,
            "dns" : 0,
            "dnsEnd" : -1,
            "receiveHeadersEnd" : 284,
            "sslEnd" : -1,
            "connectEnd" : 233,
            "connectStart" : 0,
            "id" : "download_35",
            "receivedTime" : "1103.59299997799",
            "sslStart" : -1,
            "dnsStart" : -1,
            "receiveLast" : 819.592999977991,
            "s_time" : 733.917000005022,
            "sendEnd" : 233,
            "sendStart" : 233,
            "type" : "image/jpeg"
         }
      },
      {
         "when_comp_start" : -1,
         "url" : "http://original.testbed.localhost/b.thumbs.redditmedia.com/3qIXXhkcJwuKWeXvpkZr3YM5jlytAISIc-YDYo3FToM.jpg",
         "id" : "r34",
         "comps" : [],
         "download" : {
            "receiveFirst" : 51,
            "len" : 4222,
            "dns" : 0,
            "dnsEnd" : -1,
            "receiveHeadersEnd" : 288,
            "sslEnd" : -1,
            "connectEnd" : 237,
            "connectStart" : 0,
            "id" : "download_36",
            "receivedTime" : "1103.99099998176",
            "sslStart" : -1,
            "dnsStart" : -1,
            "receiveLast" : 815.990999981761,
            "s_time" : 743.374000070617,
            "sendEnd" : 237,
            "sendStart" : 237,
            "type" : "image/jpeg"
         }
      },
      {
         "when_comp_start" : -1,
         "url" : "http://original.testbed.localhost/a.thumbs.redditmedia.com/fcG9K4KFSROkoDmPZ9rYE0etdgrJ3WA4hUe6WKQ9Xc8.jpg",
         "id" : "r35",
         "comps" : [],
         "download" : {
            "receiveFirst" : 51,
            "len" : 4621,
            "dns" : 0,
            "dnsEnd" : -1,
            "receiveHeadersEnd" : 213,
            "sslEnd" : -1,
            "connectEnd" : 162,
            "connectStart" : 0,
            "id" : "download_37",
            "receivedTime" : "1104.33200001717",
            "sslStart" : -1,
            "dnsStart" : -1,
            "receiveLast" : 891.332000017166,
            "s_time" : 831.087999977171,
            "sendEnd" : 162,
            "sendStart" : 162,
            "type" : "image/jpeg"
         }
      },
      {
         "when_comp_start" : -1,
         "url" : "http://original.testbed.localhost/b.thumbs.redditmedia.com/AXn0WTGQAB1B1zod6ffoKPMNqfNqahQEdOtNSPJEDSQ.jpg",
         "id" : "r36",
         "comps" : [],
         "download" : {
            "receiveFirst" : 50,
            "len" : 2928,
            "dns" : 0,
            "dnsEnd" : -1,
            "receiveHeadersEnd" : 215,
            "sslEnd" : -1,
            "connectEnd" : 165,
            "connectStart" : 0,
            "id" : "download_38",
            "receivedTime" : "1104.61799998302",
            "sslStart" : -1,
            "dnsStart" : -1,
            "receiveLast" : 889.61799998302,
            "s_time" : 838.325000018813,
            "sendEnd" : 165,
            "sendStart" : 165,
            "type" : "image/jpeg"
         }
      },
      {
         "when_comp_start" : -1,
         "url" : "http://original.testbed.localhost/reddit.com/static/pixel.png",
         "id" : "r37",
         "comps" : [],
         "download" : {
            "receiveFirst" : 51,
            "len" : 67,
            "dns" : 0,
            "dnsEnd" : -1,
            "receiveHeadersEnd" : 209,
            "sslEnd" : -1,
            "connectEnd" : 158,
            "connectStart" : 0,
            "id" : "download_39",
            "receivedTime" : "1104.85200001858",
            "sslStart" : -1,
            "dnsStart" : -1,
            "receiveLast" : 895.852000018582,
            "s_time" : 847.92000008747,
            "sendEnd" : 158,
            "sendStart" : 158,
            "type" : "image/png"
         }
      },
      {
         "when_comp_start" : -1,
         "url" : "http://pixel.redditmedia.com/pixel/of_destiny.png?v=ZKIM9mTppxm7X4D%2BqTXwaxqwaec82vjVWWpdu7a6QNtgJTzIiu4B8SY5WuPdsdoGU10R0y0dtAM%3D&r=0.2701841478701681&loid=gQFyT3B0ZUzZnwaXW7&loidcreated=2015-09-16T15%3A50%3A01.253Z",
         "id" : "r42",
         "comps" : [],
         "download" : {
            "receiveFirst" : 63,
            "len" : 67,
            "dns" : 0,
            "dnsEnd" : -1,
            "receiveHeadersEnd" : 63,
            "sslEnd" : -1,
            "connectEnd" : 0,
            "connectStart" : 0,
            "id" : "download_40",
            "receivedTime" : "1122.272000066",
            "sslStart" : -1,
            "dnsStart" : -1,
            "receiveLast" : 1059.272000066,
            "s_time" : 1021.035999991,
            "sendEnd" : 0,
            "sendStart" : 0,
            "type" : "image/png"
         }
      },
      {
         "when_comp_start" : -1,
         "url" : "http://www.google-analytics.com/plugins/ga/inpage_linkid.js",
         "id" : "r44",
         "comps" : [
            {
               "s_time" : 1173.68400003761,
               "time" : 15.2450000168799,
               "type" : 2,
               "id" : "comp_149",
               "e_time" : 1188.92900005449
            }
         ],
         "download" : {
            "receiveFirst" : 54,
            "len" : 1169,
            "dns" : 0,
            "dnsEnd" : -1,
            "receiveHeadersEnd" : 54,
            "sslEnd" : -1,
            "connectEnd" : 0,
            "connectStart" : 0,
            "id" : "download_41",
            "receivedTime" : "1173.5350000672",
            "sslStart" : -1,
            "dnsStart" : -1,
            "receiveLast" : 1119.5350000672,
            "s_time" : 1118.51900001056,
            "sendEnd" : 0,
            "sendStart" : 0,
            "type" : "text/javascript"
         }
      },
      {
         "when_comp_start" : -1,
         "url" : "http://original.testbed.localhost/www.redditstatic.com/snoo-upside-down.png",
         "id" : "r39",
         "comps" : [],
         "download" : {
            "receiveFirst" : 163,
            "len" : 2782,
            "dns" : 0,
            "dnsEnd" : -1,
            "receiveHeadersEnd" : 218,
            "sslEnd" : -1,
            "connectEnd" : 55,
            "connectStart" : 0,
            "id" : "download_42",
            "receivedTime" : "3284.31000001729",
            "sslStart" : -1,
            "dnsStart" : -1,
            "receiveLast" : 3066.31000001729,
            "s_time" : 958.889000001363,
            "sendEnd" : 55,
            "sendStart" : 55,
            "type" : "image/png"
         }
      },
      {
         "when_comp_start" : -1,
         "url" : "http://engine.adzerk.net/ados?t=1442418601326&request={%22Placements%22:[{%22A%22:5146,%22S%22:24950,%22D%22:%22main%22,%22AT%22:5},{%22A%22:5146,%22S%22:24950,%22D%22:%22sponsorship%22,%22AT%22:8}],%22Keywords%22:%22undefined%22,%22Referrer%22:%22http%3A%2F%2Foriginal.testbed.localhost%2Fwww.reddit",
         "id" : "r43",
         "comps" : [],
         "download" : {
            "receiveFirst" : 106,
            "len" : 14550,
            "dns" : 0,
            "dnsEnd" : -1,
            "receiveHeadersEnd" : 106,
            "sslEnd" : -1,
            "connectEnd" : 0,
            "connectStart" : 0,
            "id" : "download_43",
            "receivedTime" : "1200.19600004889",
            "sslStart" : -1,
            "dnsStart" : -1,
            "receiveLast" : 1094.19600004889,
            "s_time" : 1093.21000007913,
            "sendEnd" : 0,
            "sendStart" : 0,
            "type" : "application/javascript"
         }
      },
      {
         "when_comp_start" : -1,
         "url" : "http://static.adzerk.net/Extensions/adFeedback.css",
         "id" : "r46",
         "comps" : [
            {
               "s_time" : 1259.6870000707,
               "time" : 0.697999959809977,
               "type" : 2,
               "id" : "comp_153",
               "e_time" : 1260.38500003051
            }
         ],
         "download" : {
            "receiveFirst" : 56,
            "len" : 1852,
            "dns" : 0,
            "dnsEnd" : -1,
            "receiveHeadersEnd" : 56,
            "sslEnd" : -1,
            "connectEnd" : 0,
            "connectStart" : 0,
            "id" : "download_44",
            "receivedTime" : "1259.59300005343",
            "sslStart" : -1,
            "dnsStart" : -1,
            "receiveLast" : 1203.59300005343,
            "s_time" : 1202.77900004294,
            "sendEnd" : 0,
            "sendStart" : 0,
            "type" : "text/css"
         }
      },
      {
         "when_comp_start" : -1,
         "url" : "http://static.adzerk.net/Extensions/adFeedback.js",
         "id" : "r45",
         "comps" : [
            {
               "s_time" : 1264.16300004348,
               "time" : 1.04000000283008,
               "type" : 2,
               "id" : "comp_155",
               "e_time" : 1265.20300004631
            }
         ],
         "download" : {
            "receiveFirst" : 61,
            "len" : 7616,
            "dns" : 0,
            "dnsEnd" : -1,
            "receiveHeadersEnd" : 61,
            "sslEnd" : -1,
            "connectEnd" : 0,
            "connectStart" : 0,
            "id" : "download_45",
            "receivedTime" : "1263.9940000372",
            "sslStart" : -1,
            "dnsStart" : -1,
            "receiveLast" : 1202.9940000372,
            "s_time" : 1202.14599999599,
            "sendEnd" : 0,
            "sendStart" : 0,
            "type" : "application/javascript"
         }
      },
      {
         "when_comp_start" : -1,
         "url" : "http://static.adzerk.net/Advertisers/ef65dacfb9234d979caed3d1eb9ea04d.jpg",
         "id" : "r47",
         "comps" : [],
         "download" : {
            "receiveFirst" : 59,
            "len" : 16795,
            "dns" : 0,
            "dnsEnd" : -1,
            "receiveHeadersEnd" : 59,
            "sslEnd" : -1,
            "connectEnd" : 0,
            "connectStart" : 0,
            "id" : "download_46",
            "receivedTime" : "1416.65500006638",
            "sslStart" : -1,
            "dnsStart" : -1,
            "receiveLast" : 1357.65500006638,
            "s_time" : 1303.29599999823,
            "sendEnd" : 0,
            "sendStart" : 0,
            "type" : "image/jpeg"
         }
      },
      {
         "when_comp_start" : -1,
         "url" : "http://engine.adzerk.net/i.gif?e=eyJhdiI6MTg4MjcsImF0Ijo1LCJidCI6MCwiY20iOjIwNTgzMywiY2giOjc5ODQsImNrIjp7fSwiY3IiOjk1MTc5NywiZGkiOiJjNDljYzk2MzdmZmI0NDIyOTc5MWU0YzE5YWEwODc0NyIsImRtIjoxLCJmYyI6MTAwMDU3NiwiZmwiOjY4MzExMywiaXAiOiIxMzAuMjQ1LjE0NS4yMDQiLCJudyI6NTE0NiwicGMiOjAsInByIjoyMDM2NSwicnQiOjEsInJ",
         "id" : "r48",
         "comps" : [],
         "download" : {
            "receiveFirst" : 85,
            "len" : 43,
            "dns" : 0,
            "dnsEnd" : -1,
            "receiveHeadersEnd" : 85,
            "sslEnd" : -1,
            "connectEnd" : 0,
            "connectStart" : 0,
            "id" : "download_47",
            "receivedTime" : "1394.08800005913",
            "sslStart" : -1,
            "dnsStart" : -1,
            "receiveLast" : 1309.08800005913,
            "s_time" : 1308.05600003805,
            "sendEnd" : 0,
            "sendStart" : 0,
            "type" : "image/gif"
         }
      }
   ],
   "deps" : [
      {
         "a2" : "r1_c2",
         "time" : -1,
         "id" : "dep1",
         "a1" : "comp_13"
      },
      {
         "a2" : "comp_13",
         "time" : -1,
         "id" : "dep2",
         "a1" : "comp_12"
      },
      {
         "a2" : "r14_c2",
         "time" : -1,
         "id" : "dep3",
         "a1" : "comp_83"
      },
      {
         "a2" : "download_47",
         "time" : -1,
         "id" : "dep4",
         "a1" : "r1_c2"
      },
      {
         "a2" : "download_46",
         "time" : 213.6359999422,
         "id" : "dep5",
         "a1" : "r14_c2"
      },
      {
         "a2" : "download_45",
         "time" : 112.48599993996,
         "id" : "dep6",
         "a1" : "r14_c2"
      },
      {
         "a2" : "download_44",
         "time" : 113.11899998691,
         "id" : "dep7",
         "a1" : "r14_c2"
      },
      {
         "a2" : "download_43",
         "time" : 3.55000002309998,
         "id" : "dep8",
         "a1" : "r14_c2"
      },
      {
         "a2" : "download_42",
         "time" : -1,
         "id" : "dep9",
         "a1" : "r14_c1"
      },
      {
         "a2" : "download_42",
         "time" : 425.533999921754,
         "id" : "dep10",
         "a1" : "r1_c2"
      },
      {
         "a2" : "download_41",
         "time" : 28.85899995453,
         "id" : "dep11",
         "a1" : "r14_c2"
      },
      {
         "a2" : "download_40",
         "time" : -1,
         "id" : "dep12",
         "a1" : "r14_c1"
      },
      {
         "a2" : "download_40",
         "time" : 487.680999911391,
         "id" : "dep13",
         "a1" : "r1_c2"
      },
      {
         "a2" : "download_39",
         "time" : 187.48200009577,
         "id" : "dep14",
         "a1" : "r14_c1"
      },
      {
         "a2" : "download_39",
         "time" : 314.565000007861,
         "id" : "dep15",
         "a1" : "r1_c2"
      },
      {
         "a2" : "download_38",
         "time" : 177.887000027113,
         "id" : "dep16",
         "a1" : "r14_c1"
      },
      {
         "a2" : "download_38",
         "time" : 304.969999939204,
         "id" : "dep17",
         "a1" : "r1_c2"
      },
      {
         "a2" : "download_37",
         "time" : 170.649999985471,
         "id" : "dep18",
         "a1" : "r14_c1"
      },
      {
         "a2" : "download_37",
         "time" : 297.732999897562,
         "id" : "dep19",
         "a1" : "r1_c2"
      },
      {
         "a2" : "download_36",
         "time" : 82.9360000789169,
         "id" : "dep20",
         "a1" : "r14_c1"
      },
      {
         "a2" : "download_36",
         "time" : 210.018999991008,
         "id" : "dep21",
         "a1" : "r1_c2"
      },
      {
         "a2" : "download_35",
         "time" : 73.479000013322,
         "id" : "dep22",
         "a1" : "r14_c1"
      },
      {
         "a2" : "download_35",
         "time" : 200.561999925413,
         "id" : "dep23",
         "a1" : "r1_c2"
      },
      {
         "a2" : "download_34",
         "time" : 66.828000009991,
         "id" : "dep24",
         "a1" : "r14_c1"
      },
      {
         "a2" : "download_34",
         "time" : 193.910999922082,
         "id" : "dep25",
         "a1" : "r1_c2"
      },
      {
         "a2" : "download_33",
         "time" : 63.0949999904259,
         "id" : "dep26",
         "a1" : "r14_c1"
      },
      {
         "a2" : "download_33",
         "time" : 190.177999902517,
         "id" : "dep27",
         "a1" : "r1_c2"
      },
      {
         "a2" : "download_32",
         "time" : 56.2960000243039,
         "id" : "dep28",
         "a1" : "r14_c1"
      },
      {
         "a2" : "download_32",
         "time" : 183.378999936395,
         "id" : "dep29",
         "a1" : "r1_c2"
      },
      {
         "a2" : "download_31",
         "time" : 120.737999910489,
         "id" : "dep30",
         "a1" : "r1_c2"
      },
      {
         "a2" : "download_30",
         "time" : 118.229999905453,
         "id" : "dep31",
         "a1" : "r1_c2"
      },
      {
         "a2" : "download_29",
         "time" : 8.90099990647298,
         "id" : "dep32",
         "a1" : "r1_c2"
      },
      {
         "a2" : "download_28",
         "time" : 8.30499990843305,
         "id" : "dep33",
         "a1" : "r1_c2"
      },
      {
         "a2" : "download_27",
         "time" : 102.465000003577,
         "id" : "dep34",
         "a1" : "r1_c2"
      },
      {
         "a2" : "download_26",
         "time" : 72.3419999703769,
         "id" : "dep35",
         "a1" : "r1_c2"
      },
      {
         "a2" : "download_25",
         "time" : 60.353999957443,
         "id" : "dep36",
         "a1" : "r1_c2"
      },
      {
         "a2" : "download_24",
         "time" : 128.181000007317,
         "id" : "dep37",
         "a1" : "r1_c2"
      },
      {
         "a2" : "download_24",
         "time" : 1.09800009522598,
         "id" : "dep38",
         "a1" : "r14_c1"
      },
      {
         "a2" : "download_24",
         "time" : 128.181000007317,
         "id" : "dep39",
         "a1" : "r1_c2"
      },
      {
         "a2" : "download_23",
         "time" : 0.832000048830992,
         "id" : "dep40",
         "a1" : "r14_c1"
      },
      {
         "a2" : "download_23",
         "time" : 127.914999960922,
         "id" : "dep41",
         "a1" : "r1_c2"
      },
      {
         "a2" : "download_22",
         "time" : 60.0359999807559,
         "id" : "dep42",
         "a1" : "r1_c2"
      },
      {
         "a2" : "download_21",
         "time" : 59.718999895268,
         "id" : "dep43",
         "a1" : "r1_c2"
      },
      {
         "a2" : "download_20",
         "time" : 59.42199996207,
         "id" : "dep44",
         "a1" : "r1_c2"
      },
      {
         "a2" : "download_19",
         "time" : 59.0610000072051,
         "id" : "dep45",
         "a1" : "r1_c2"
      },
      {
         "a2" : "download_18",
         "time" : 67.423000000418,
         "id" : "dep46",
         "a1" : "r1_c2"
      },
      {
         "a2" : "download_17",
         "time" : 58.7879999075089,
         "id" : "dep47",
         "a1" : "r1_c2"
      },
      {
         "a2" : "download_16",
         "time" : 58.385999989696,
         "id" : "dep48",
         "a1" : "r1_c2"
      },
      {
         "a2" : "download_15",
         "time" : 54.071999969893,
         "id" : "dep49",
         "a1" : "r1_c2"
      },
      {
         "a2" : "download_14",
         "time" : 29.915999970399,
         "id" : "dep50",
         "a1" : "r1_c2"
      },
      {
         "a2" : "download_13",
         "time" : 23.781999945641,
         "id" : "dep51",
         "a1" : "r1_c2"
      },
      {
         "a2" : "download_12",
         "time" : 20.504999905825,
         "id" : "dep52",
         "a1" : "r1_c2"
      },
      {
         "a2" : "download_11",
         "time" : 12.191999936477,
         "id" : "dep53",
         "a1" : "r1_c2"
      },
      {
         "a2" : "download_10",
         "time" : -1,
         "id" : "dep54",
         "a1" : "r1_c1"
      },
      {
         "a2" : "download_9",
         "time" : 371.308999950997,
         "id" : "dep55",
         "a1" : "r1_c1"
      },
      {
         "a2" : "download_8",
         "time" : 315.437999903224,
         "id" : "dep56",
         "a1" : "r1_c1"
      },
      {
         "a2" : "download_7",
         "time" : 257.743999944068,
         "id" : "dep57",
         "a1" : "r1_c1"
      },
      {
         "a2" : "download_6",
         "time" : 201.913999975659,
         "id" : "dep58",
         "a1" : "r1_c1"
      },
      {
         "a2" : "download_5",
         "time" : 148.292999947443,
         "id" : "dep59",
         "a1" : "r1_c1"
      },
      {
         "a2" : "download_4",
         "time" : 89.1269999556243,
         "id" : "dep60",
         "a1" : "r1_c1"
      },
      {
         "a2" : "download_3",
         "time" : 0.882999971508994,
         "id" : "dep61",
         "a1" : "r1_c1"
      },
      {
         "a2" : "download_2",
         "time" : 1.6239999094978,
         "id" : "dep62",
         "a1" : "r1_c1"
      },
      {
         "a2" : "download_2",
         "time" : 1.6239999094978,
         "id" : "dep63",
         "a1" : "r1_c1"
      },
      {
         "a2" : "download_1",
         "time" : 0.730999978259192,
         "id" : "dep64",
         "a1" : "r1_c1"
      }
   ]
}
