load:	25722.449000044962
HTMLParse:	7329.830000002439
TTFB:	0.0
Parse:	0.0
PostParse:	0.0
level:	0
time_download:	16494.224000027378
time_comp:	9228.225000017585
time_block:	0.0
whatif_matrix:	0.0
download_blocking:	0.0
download_proxy:	0.0
download_dns:	0
download_conn:	0.0
download_ssl:	0.0
download_send::	0.0
download_receiveFirst:	0.0
download_receiveLast:	0.0
parse_style:	0.0
parse_script:	1898.395000015145
parse_layout:	0.0
parse_paint:	0.0
parse_other:	0.0
parse_undefined:	0.0
dep_D2E:	0.0
dep_E2D_html:	0.0
dep_E2D_css:	0.0
dep_E2D_js:	0.0
dep_E2D_timer:	0.0
dep_RFB:	0.0
dep_HOL_css:	0.0
dep_HOL_js:	0.0
time_download_html:	190.672000011196
time_download_css:	0.0
time_download_js:	5100.96300000628
time_download_img:	11202.5890000099
time_download_o:	0.0
time_block_css:	0.0
time_block_js:	0.0
time_ttfb:	0.0
num_domains_cp:	1
num_domains_all:	1
text_domains_cp:	{}
text_domains_all:	{}
num_bytes_cp:	146829
num_bytes_all:	2422495
num_send_cp:	0.0
num_send_all:	0.0
num_conn_cp:	0.0
num_conn_all:	0.0
num_objs_cp:	20
num_objs_all:	66
num_js_cp:	2
num_js_all:	17
num_css_cp:	0
num_css_all:	7
text_domain_tcp_net_cp:	[]
text_domain_tcp_net_all:	[]
