{
   "n_download_no_trigger" : 1,
   "start_activity" : "download_0",
   "name" : "original.testbed.localhost_www.theguardian.com_",
   "load_activity" : -1,
   "objs" : [
      {
         "when_comp_start" : 1,
         "url" : "http://original.testbed.localhost/www.theguardian.com/",
         "id" : "r1",
         "comps" : [
            {
               "s_time" : 730.696999999054,
               "time" : 19.348000001628,
               "type" : "evalhtml",
               "id" : "r1_c1",
               "e_time" : 750.045000000682
            }
         ],
         "download" : {
            "receiveFirst" : 572,
            "len" : 1138,
            "dns" : 0,
            "dnsEnd" : -1,
            "receiveHeadersEnd" : 577,
            "sslEnd" : -1,
            "connectEnd" : 5,
            "connectStart" : 0,
            "id" : "download_0",
            "receivedTime" : "584.854000000632",
            "sslStart" : -1,
            "dnsStart" : -1,
            "receiveLast" : 7.85400000063237,
            "s_time" : 0,
            "sendEnd" : 5,
            "sendStart" : 5,
            "type" : "text/html"
         }
      },
      {
         "when_comp_start" : -1,
         "url" : "http://original.testbed.localhost/icons/blank.gif",
         "id" : "r2",
         "comps" : [],
         "download" : {
            "receiveFirst" : 157,
            "len" : 148,
            "dns" : 0,
            "dnsEnd" : -1,
            "receiveHeadersEnd" : 200,
            "sslEnd" : -1,
            "connectEnd" : 42,
            "connectStart" : 0,
            "id" : "download_1",
            "receivedTime" : "944.289999999455",
            "sslStart" : -1,
            "dnsStart" : -1,
            "receiveLast" : 744.289999999455,
            "s_time" : 740.40099999911,
            "sendEnd" : 43,
            "sendStart" : 42,
            "type" : "image/gif"
         }
      },
      {
         "when_comp_start" : -1,
         "url" : "http://original.testbed.localhost/icons/back.gif",
         "id" : "r3",
         "comps" : [],
         "download" : {
            "receiveFirst" : 160,
            "len" : 216,
            "dns" : 0,
            "dnsEnd" : -1,
            "receiveHeadersEnd" : 202,
            "sslEnd" : -1,
            "connectEnd" : 42,
            "connectStart" : 0,
            "id" : "download_2",
            "receivedTime" : "956.893999999011",
            "sslStart" : -1,
            "dnsStart" : -1,
            "receiveLast" : 754.893999999011,
            "s_time" : 747.695000001841,
            "sendEnd" : 42,
            "sendStart" : 42,
            "type" : "image/gif"
         }
      },
      {
         "when_comp_start" : -1,
         "url" : "http://original.testbed.localhost/icons/text.gif",
         "id" : "r4",
         "comps" : [],
         "download" : {
            "receiveFirst" : 153,
            "len" : 229,
            "dns" : 0,
            "dnsEnd" : -1,
            "receiveHeadersEnd" : 344,
            "sslEnd" : -1,
            "connectEnd" : 190,
            "connectStart" : 0,
            "id" : "download_3",
            "receivedTime" : "1100.08200000084",
            "sslStart" : -1,
            "dnsStart" : -1,
            "receiveLast" : 756.082000000839,
            "s_time" : 749.038000001747,
            "sendEnd" : 191,
            "sendStart" : 190,
            "type" : "image/gif"
         }
      },
      {
         "when_comp_start" : -1,
         "url" : "http://original.testbed.localhost/icons/unknown.gif",
         "id" : "r5",
         "comps" : [],
         "download" : {
            "receiveFirst" : 155,
            "len" : 245,
            "dns" : 0,
            "dnsEnd" : 42,
            "receiveHeadersEnd" : 348,
            "sslEnd" : -1,
            "connectEnd" : 193,
            "connectStart" : 0,
            "id" : "download_4",
            "receivedTime" : "1107.80299999897",
            "sslStart" : -1,
            "dnsStart" : 42,
            "receiveLast" : 759.802999998967,
            "s_time" : 750.045000000682,
            "sendEnd" : 193,
            "sendStart" : 193,
            "type" : "image/gif"
         }
      }
   ],
   "deps" : [
      {
         "a2" : "download_4",
         "time" : -1,
         "id" : "dep1",
         "a1" : "r1_c1"
      },
      {
         "a2" : "download_3",
         "time" : 18.341000002693,
         "id" : "dep2",
         "a1" : "r1_c1"
      },
      {
         "a2" : "download_2",
         "time" : 16.998000002787,
         "id" : "dep3",
         "a1" : "r1_c1"
      },
      {
         "a2" : "download_1",
         "time" : 9.704000000056,
         "id" : "dep4",
         "a1" : "r1_c1"
      }
   ]
}
