{
   "n_download_no_trigger" : 1,
   "start_activity" : "download_0",
   "name" : "original.testbed.localhost_www.thefiscaltimes.com_",
   "load_activity" : -1,
   "objs" : [
      {
         "when_comp_start" : 1,
         "url" : "http://original.testbed.localhost/www.thefiscaltimes.com/",
         "id" : "r1",
         "comps" : [
            {
               "s_time" : 356.003999986569,
               "time" : 41.534000003594,
               "id" : "r1_c1",
               "type" : "evalhtml",
               "e_time" : 397.537999990163
            },
            {
               "s_time" : 1552.71999999241,
               "time" : 24.71899999363,
               "id" : "r1_c2",
               "type" : "evalhtml",
               "e_time" : 1577.43899998604
            },
            {
               "s_time" : 1581.03999999003,
               "time" : -94088960.037,
               "id" : "r1_c3",
               "type" : "evalhtml",
               "e_time" : -94087378.997
            },
            {
               "s_time" : 1594.68199999537,
               "time" : -94088973.679,
               "id" : "r1_c4",
               "type" : "evalhtml",
               "e_time" : -94087378.997
            },
            {
               "s_time" : 1639.45099999546,
               "time" : 26.9929999922199,
               "id" : "r1_c5",
               "type" : "evalhtml",
               "e_time" : 1666.44399998768
            },
            {
               "s_time" : 2646.25599999272,
               "time" : -94090025.253,
               "id" : "r1_c6",
               "type" : "evalhtml",
               "e_time" : -94087378.997
            },
            {
               "s_time" : 2648.48399999028,
               "time" : -94090027.481,
               "id" : "r1_c7",
               "type" : "evalhtml",
               "e_time" : -94087378.997
            },
            {
               "s_time" : 2671.64699999557,
               "time" : -94090050.644,
               "id" : "r1_c8",
               "type" : "evalhtml",
               "e_time" : -94087378.997
            },
            {
               "s_time" : 2710.61799999734,
               "time" : 855.94100000162,
               "id" : "r1_c9",
               "type" : "evalhtml",
               "e_time" : 3566.55899999896
            },
            {
               "s_time" : 4044.69399999653,
               "time" : 1746.79499999911,
               "type" : "evalhtml",
               "id" : "r1_c10",
               "e_time" : 5791.48899999564
            }
         ],
         "download" : {
            "receiveFirst" : 154,
            "len" : 61174,
            "dns" : 0,
            "dnsEnd" : -1,
            "receiveHeadersEnd" : 161,
            "sslEnd" : -1,
            "connectEnd" : 7,
            "connectStart" : 0,
            "id" : "download_0",
            "receivedTime" : "346.512999996776",
            "sslStart" : -1,
            "dnsStart" : -1,
            "receiveLast" : 185.512999996776,
            "s_time" : 0,
            "sendEnd" : 7,
            "sendStart" : 7,
            "type" : "text/html"
         }
      },
      {
         "when_comp_start" : -1,
         "url" : "http://original.testbed.localhost/d2n114696xot9z.cloudfront.net/sites/default/files/cdn/css/http/css_v771nukfsDOabdNAIycK45zgOoraMLbd5RwMohco7O4.css",
         "id" : "r2",
         "comps" : [
            {
               "s_time" : 537.277999988873,
               "time" : 10.376000005636,
               "type" : 4,
               "id" : "comp_0",
               "e_time" : 547.653999994509
            }
         ],
         "download" : {
            "receiveFirst" : 154,
            "len" : 7893,
            "dns" : 0,
            "dnsEnd" : -1,
            "receiveHeadersEnd" : 169,
            "sslEnd" : -1,
            "connectEnd" : 15,
            "connectStart" : 0,
            "id" : "download_1",
            "receivedTime" : "536.789999998291",
            "sslStart" : -1,
            "dnsStart" : -1,
            "receiveLast" : 367.789999998291,
            "s_time" : 359.51299998851,
            "sendEnd" : 15,
            "sendStart" : 15,
            "type" : "text/css"
         }
      },
      {
         "when_comp_start" : -1,
         "url" : "http://original.testbed.localhost/d2n114696xot9z.cloudfront.net/sites/default/files/cdn/css/http/css_F2eI4uCwgxU3r5KZFHZO8y1vE53pBimpuaZv_cuQngU.css",
         "id" : "r3",
         "comps" : [
            {
               "s_time" : 569.076999992831,
               "time" : 13.336999996681,
               "type" : 4,
               "id" : "comp_1",
               "e_time" : 582.413999989512
            }
         ],
         "download" : {
            "receiveFirst" : 155,
            "len" : 16528,
            "dns" : 0,
            "dnsEnd" : -1,
            "receiveHeadersEnd" : 176,
            "sslEnd" : -1,
            "connectEnd" : 21,
            "connectStart" : 0,
            "id" : "download_2",
            "receivedTime" : "565.170999994734",
            "sslStart" : -1,
            "dnsStart" : -1,
            "receiveLast" : 389.170999994734,
            "s_time" : 360.458999988623,
            "sendEnd" : 21,
            "sendStart" : 21,
            "type" : "text/css"
         }
      },
      {
         "when_comp_start" : -1,
         "url" : "http://original.testbed.localhost/d2n114696xot9z.cloudfront.net/sites/default/files/cdn/css/http/css_vZ_wrMQ9Og-YPPxa1q4us3N7DsZMJa-14jShHgRoRNo.css",
         "id" : "r4",
         "comps" : [
            {
               "s_time" : 695.480999987922,
               "time" : 0.397000010706961,
               "type" : 4,
               "id" : "comp_2",
               "e_time" : 695.877999998629
            }
         ],
         "download" : {
            "receiveFirst" : 155,
            "len" : 141,
            "dns" : 0,
            "dnsEnd" : -1,
            "receiveHeadersEnd" : 323,
            "sslEnd" : -1,
            "connectEnd" : 168,
            "connectStart" : 0,
            "id" : "download_3",
            "receivedTime" : "694.534999987809",
            "sslStart" : -1,
            "dnsStart" : -1,
            "receiveLast" : 371.534999987809,
            "s_time" : 361.435999991954,
            "sendEnd" : 168,
            "sendStart" : 168,
            "type" : "text/css"
         }
      },
      {
         "when_comp_start" : -1,
         "url" : "http://original.testbed.localhost/d2n114696xot9z.cloudfront.net/sites/default/files/cdn/css/http/css_IArvZrrmndQTr6lNTpWLHilNE_IoMzNdwyCM44MZxFk.css",
         "id" : "r5",
         "comps" : [
            {
               "s_time" : 751.358999987133,
               "time" : 3.14300000900403,
               "type" : 4,
               "id" : "comp_3",
               "e_time" : 754.501999996137
            }
         ],
         "download" : {
            "receiveFirst" : 169,
            "len" : 3564,
            "dns" : 0,
            "dnsEnd" : -1,
            "receiveHeadersEnd" : 361,
            "sslEnd" : -1,
            "connectEnd" : 191,
            "connectStart" : 0,
            "id" : "download_4",
            "receivedTime" : "750.381999998353",
            "sslStart" : -1,
            "dnsStart" : -1,
            "receiveLast" : 389.381999998353,
            "s_time" : 373.977999988711,
            "sendEnd" : 192,
            "sendStart" : 191,
            "type" : "text/css"
         }
      },
      {
         "when_comp_start" : -1,
         "url" : "http://original.testbed.localhost/d2n114696xot9z.cloudfront.net/sites/default/files/cdn/css/http/css__r408iefJFDp7tkJY64xde0BtyLdHU1-GytpTja6H4w.css",
         "id" : "r6",
         "comps" : [
            {
               "s_time" : 775.986999986344,
               "time" : 6.37800000549794,
               "type" : 4,
               "id" : "comp_4",
               "e_time" : 782.364999991842
            }
         ],
         "download" : {
            "receiveFirst" : 175,
            "len" : 8646,
            "dns" : 0,
            "dnsEnd" : 22,
            "receiveHeadersEnd" : 360,
            "sslEnd" : -1,
            "connectEnd" : 185,
            "connectStart" : 0,
            "id" : "download_5",
            "receivedTime" : "775.162999998429",
            "sslStart" : -1,
            "dnsStart" : 22,
            "receiveLast" : 415.162999998429,
            "s_time" : 375.351999988197,
            "sendEnd" : 185,
            "sendStart" : 185,
            "type" : "text/css"
         }
      },
      {
         "when_comp_start" : -1,
         "url" : "http://original.testbed.localhost/d2n114696xot9z.cloudfront.net/sites/default/files/cdn/css/http/css_jKRW034s1ssbWLJDPQm-xK6Qs9enf4loXL6uJczn51c.css",
         "id" : "r7",
         "comps" : [
            {
               "s_time" : 800.705999994534,
               "time" : 15.868999995291,
               "type" : 4,
               "id" : "comp_5",
               "e_time" : 816.574999989825
            }
         ],
         "download" : {
            "receiveFirst" : 217,
            "len" : 14228,
            "dns" : 0,
            "dnsEnd" : 23,
            "receiveHeadersEnd" : 400,
            "sslEnd" : -1,
            "connectEnd" : 183,
            "connectStart" : 0,
            "id" : "download_6",
            "receivedTime" : "799.820999993244",
            "sslStart" : -1,
            "dnsStart" : 23,
            "receiveLast" : 399.820999993244,
            "s_time" : 383.438999997452,
            "sendEnd" : 183,
            "sendStart" : 183,
            "type" : "text/css"
         }
      },
      {
         "when_comp_start" : -1,
         "url" : "http://original.testbed.localhost/fonts.googleapis.com/css%3Ffamily=Open+Sans+Condensed:700,300.css",
         "id" : "r8",
         "comps" : [
            {
               "s_time" : 824.356999990414,
               "time" : 1.587000006111,
               "type" : 4,
               "id" : "comp_6",
               "e_time" : 825.943999996525
            }
         ],
         "download" : {
            "receiveFirst" : 245,
            "len" : 573,
            "dns" : 0,
            "dnsEnd" : 25,
            "receiveHeadersEnd" : 427,
            "sslEnd" : -1,
            "connectEnd" : 181,
            "connectStart" : 0,
            "id" : "download_7",
            "receivedTime" : "822.311999989324",
            "sslStart" : -1,
            "dnsStart" : 25,
            "receiveLast" : 395.311999989324,
            "s_time" : 385.66699999501,
            "sendEnd" : 182,
            "sendStart" : 181,
            "type" : "text/css"
         }
      },
      {
         "when_comp_start" : -1,
         "url" : "http://original.testbed.localhost/maxcdn.bootstrapcdn.com/font-awesome/4.2.0/css/font-awesome.min.css",
         "id" : "r9",
         "comps" : [
            {
               "s_time" : 876.968999989913,
               "time" : 36.774000007426,
               "type" : 4,
               "id" : "comp_7",
               "e_time" : 913.742999997339
            }
         ],
         "download" : {
            "receiveFirst" : 154,
            "len" : 21958,
            "dns" : 0,
            "dnsEnd" : -1,
            "receiveHeadersEnd" : 462,
            "sslEnd" : -1,
            "connectEnd" : 307,
            "connectStart" : 0,
            "id" : "download_8",
            "receivedTime" : "875.992999994196",
            "sslStart" : -1,
            "dnsStart" : -1,
            "receiveLast" : 413.992999994196,
            "s_time" : 387.314999999944,
            "sendEnd" : 308,
            "sendStart" : 307,
            "type" : "text/css"
         }
      },
      {
         "when_comp_start" : -1,
         "url" : "http://original.testbed.localhost/d2n114696xot9z.cloudfront.net/sites/default/files/cdn/css/http/css_ohAT90v2W9f8js7JLkB0NiYvT--YeAtb1EbUkE6XQ3g.css",
         "id" : "r10",
         "comps" : [
            {
               "s_time" : 980.118999999831,
               "time" : 88.2869999913989,
               "type" : 4,
               "id" : "comp_8",
               "e_time" : 1068.40599999123
            }
         ],
         "download" : {
            "receiveFirst" : 157,
            "len" : 70425,
            "dns" : 0,
            "dnsEnd" : -1,
            "receiveHeadersEnd" : 515,
            "sslEnd" : -1,
            "connectEnd" : 358,
            "connectStart" : 0,
            "id" : "download_9",
            "receivedTime" : "978.836999987834",
            "sslStart" : -1,
            "dnsStart" : -1,
            "receiveLast" : 463.836999987834,
            "s_time" : 389.145999986795,
            "sendEnd" : 358,
            "sendStart" : 358,
            "type" : "text/css"
         }
      },
      {
         "when_comp_start" : -1,
         "url" : "http://original.testbed.localhost/d2n114696xot9z.cloudfront.net/sites/default/files/js/js_RC7d2_dhfBsqLAPQvLz26Tw_1pi8VuJA8XTLntJVGuM.js",
         "id" : "r11",
         "comps" : [
            {
               "s_time" : 1392.89899999858,
               "time" : 159.82099999383,
               "type" : 1,
               "id" : "comp_9",
               "e_time" : 1552.71999999241
            }
         ],
         "download" : {
            "receiveFirst" : 214,
            "len" : 81580,
            "dns" : 0,
            "dnsEnd" : -1,
            "receiveHeadersEnd" : 595,
            "sslEnd" : -1,
            "connectEnd" : 381,
            "connectStart" : 0,
            "id" : "download_10",
            "receivedTime" : "1391.6179999942",
            "sslStart" : -1,
            "dnsStart" : -1,
            "receiveLast" : 796.617999994196,
            "s_time" : 391.556999995373,
            "sendEnd" : 381,
            "sendStart" : 381,
            "type" : "application/javascript"
         }
      },
      {
         "when_comp_start" : -1,
         "url" : "http://original.testbed.localhost/www.googletagservices.com/tag/js/gpt.js",
         "id" : "r12",
         "comps" : [],
         "download" : {
            "receiveFirst" : 302,
            "len" : 2902,
            "dns" : 0,
            "dnsEnd" : -1,
            "receiveHeadersEnd" : 712,
            "sslEnd" : -1,
            "connectEnd" : 409,
            "connectStart" : 0,
            "id" : "download_11",
            "receivedTime" : "1129.04399998661",
            "sslStart" : -1,
            "dnsStart" : -1,
            "receiveLast" : 417.043999986607,
            "s_time" : 394.546999988961,
            "sendEnd" : 410,
            "sendStart" : 409,
            "type" : "application/javascript"
         }
      },
      {
         "when_comp_start" : -1,
         "url" : "http://original.testbed.localhost/d2n114696xot9z.cloudfront.net/sites/default/files/js/js_Cyc-lC6ixML6RkS4RmBegmTl-vUp8PtXmSZmSGOtAFQ.js",
         "id" : "r13",
         "comps" : [
            {
               "s_time" : 1582.38299998629,
               "time" : 12.2990000090799,
               "type" : 1,
               "id" : "comp_15",
               "e_time" : 1594.68199999537
            }
         ],
         "download" : {
            "receiveFirst" : 309,
            "len" : 14546,
            "dns" : 0,
            "dnsEnd" : -1,
            "receiveHeadersEnd" : 730,
            "sslEnd" : -1,
            "connectEnd" : 421,
            "connectStart" : 0,
            "id" : "download_12",
            "receivedTime" : "1161.33199998876",
            "sslStart" : -1,
            "dnsStart" : -1,
            "receiveLast" : 431.331999988761,
            "s_time" : 396.164999998291,
            "sendEnd" : 421,
            "sendStart" : 421,
            "type" : "application/javascript"
         }
      },
      {
         "when_comp_start" : -1,
         "url" : "http://original.testbed.localhost/d2n114696xot9z.cloudfront.net/sites/default/files/js/js_AM7E5tyyzPtiDtplXJhVu1DASU9wA9GIN0AGXQnscqY.js",
         "id" : "r14",
         "comps" : [
            {
               "s_time" : 1595.87199999078,
               "time" : 43.57900000468,
               "type" : 1,
               "id" : "comp_17",
               "e_time" : 1639.45099999546
            }
         ],
         "download" : {
            "receiveFirst" : 294,
            "len" : 50702,
            "dns" : 0,
            "dnsEnd" : -1,
            "receiveHeadersEnd" : 769,
            "sslEnd" : -1,
            "connectEnd" : 475,
            "connectStart" : 0,
            "id" : "download_13",
            "receivedTime" : "1276.71899998677",
            "sslStart" : -1,
            "dnsStart" : -1,
            "receiveLast" : 507.71899998677,
            "s_time" : 397.537999990163,
            "sendEnd" : 475,
            "sendStart" : 475,
            "type" : "application/javascript"
         }
      },
      {
         "when_comp_start" : -1,
         "url" : "http://original.testbed.localhost/d2n114696xot9z.cloudfront.net/sites/default/files/js/js_ycC2plc_QzxXSNIWiFjtQrMjj74856KfUT84pjzygHI.js",
         "id" : "r23",
         "comps" : [
            {
               "s_time" : 2514.14599998679,
               "time" : 132.11000000593,
               "type" : 1,
               "id" : "comp_26",
               "e_time" : 2646.25599999272
            }
         ],
         "download" : {
            "receiveFirst" : 160,
            "len" : 136870,
            "dns" : 0,
            "dnsEnd" : -1,
            "receiveHeadersEnd" : 168,
            "sslEnd" : -1,
            "connectEnd" : 8,
            "connectStart" : 0,
            "id" : "download_14",
            "receivedTime" : "2513.22999999684",
            "sslStart" : -1,
            "dnsStart" : -1,
            "receiveLast" : 2345.22999999684,
            "s_time" : 1577.43899998604,
            "sendEnd" : 8,
            "sendStart" : 8,
            "type" : "application/javascript"
         }
      },
      {
         "when_comp_start" : -1,
         "url" : "http://original.testbed.localhost/d2n114696xot9z.cloudfront.net/sites/default/files/js/js_RaJfFgFn_J0unRLEK9lfFC0wdAQRkXxvKUdzpY05-AI.js",
         "id" : "r24",
         "comps" : [
            {
               "s_time" : 2647.29399999487,
               "time" : 1.18999999541029,
               "type" : 1,
               "id" : "comp_29",
               "e_time" : 2648.48399999028
            }
         ],
         "download" : {
            "receiveFirst" : 215,
            "len" : 1468,
            "dns" : 0,
            "dnsEnd" : -1,
            "receiveHeadersEnd" : 229,
            "sslEnd" : -1,
            "connectEnd" : 14,
            "connectStart" : 0,
            "id" : "download_15",
            "receivedTime" : "1897.26299999165",
            "sslStart" : -1,
            "dnsStart" : -1,
            "receiveLast" : 1668.26299999165,
            "s_time" : 1661.4239999908,
            "sendEnd" : 14,
            "sendStart" : 14,
            "type" : "application/javascript"
         }
      },
      {
         "when_comp_start" : -1,
         "url" : "http://original.testbed.localhost/d2n114696xot9z.cloudfront.net/sites/default/files/js/js_P1J0pmzDlamb0qk2QKRueC8ossTXDDViLejXYn_l2xo.js",
         "id" : "r25",
         "comps" : [
            {
               "s_time" : 2649.97899999435,
               "time" : 21.6680000012198,
               "type" : 1,
               "id" : "comp_32",
               "e_time" : 2671.64699999557
            }
         ],
         "download" : {
            "receiveFirst" : 224,
            "len" : 52140,
            "dns" : 0,
            "dnsEnd" : -1,
            "receiveHeadersEnd" : 240,
            "sslEnd" : -1,
            "connectEnd" : 15,
            "connectStart" : 0,
            "id" : "download_16",
            "receivedTime" : "2495.40799998795",
            "sslStart" : -1,
            "dnsStart" : -1,
            "receiveLast" : 2255.40799998795,
            "s_time" : 1662.24699998565,
            "sendEnd" : 16,
            "sendStart" : 15,
            "type" : "application/javascript"
         }
      },
      {
         "when_comp_start" : -1,
         "url" : "http://original.testbed.localhost/d2n114696xot9z.cloudfront.net/sites/default/files/js/js_lJ4wCwu7WkM2DEXgroRevtcm3gduGHX1TfEa_4kQ9CY.js",
         "id" : "r26",
         "comps" : [
            {
               "s_time" : 2678.23899998621,
               "time" : 32.3790000111303,
               "type" : 1,
               "id" : "comp_37",
               "e_time" : 2710.61799999734
            }
         ],
         "download" : {
            "receiveFirst" : 341,
            "len" : 57223,
            "dns" : 0,
            "dnsEnd" : -1,
            "receiveHeadersEnd" : 359,
            "sslEnd" : -1,
            "connectEnd" : 18,
            "connectStart" : 0,
            "id" : "download_17",
            "receivedTime" : "2133.25599998643",
            "sslStart" : -1,
            "dnsStart" : -1,
            "receiveLast" : 1774.25599998643,
            "s_time" : 1663.04099999252,
            "sendEnd" : 18,
            "sendStart" : 18,
            "type" : "application/javascript"
         }
      },
      {
         "when_comp_start" : -1,
         "url" : "http://original.testbed.localhost/d2n114696xot9z.cloudfront.net/sites/all/themes/tft-new/logo.png",
         "id" : "r27",
         "comps" : [],
         "download" : {
            "receiveFirst" : 470,
            "len" : 8839,
            "dns" : 0,
            "dnsEnd" : -1,
            "receiveHeadersEnd" : 489,
            "sslEnd" : -1,
            "connectEnd" : 19,
            "connectStart" : 0,
            "id" : "download_18",
            "receivedTime" : "2212.38799999992",
            "sslStart" : -1,
            "dnsStart" : -1,
            "receiveLast" : 1723.38799999992,
            "s_time" : 1666.44399998768,
            "sendEnd" : 19,
            "sendStart" : 19,
            "type" : "image/png"
         }
      },
      {
         "when_comp_start" : -1,
         "url" : "http://original.testbed.localhost/launch.newsinc.com/js/embed.js",
         "id" : "r28",
         "comps" : [
            {
               "s_time" : 3574.29599999159,
               "time" : 230.80400000617,
               "type" : 3,
               "id" : "comp_57",
               "e_time" : 3805.09999999776
            }
         ],
         "download" : {
            "receiveFirst" : 530,
            "len" : 198292,
            "dns" : 0,
            "dnsEnd" : -1,
            "receiveHeadersEnd" : 551,
            "sslEnd" : -1,
            "connectEnd" : 21,
            "connectStart" : 0,
            "id" : "download_19",
            "receivedTime" : "3573.10599999619",
            "sslStart" : -1,
            "dnsStart" : -1,
            "receiveLast" : 3022.10599999619,
            "s_time" : 1664.23099998792,
            "sendEnd" : 21,
            "sendStart" : 21,
            "type" : "application/javascript"
         }
      },
      {
         "when_comp_start" : -1,
         "url" : "http://original.testbed.localhost/d2n114696xot9z.cloudfront.net/sites/all/themes/tft-new/images/shadow.png",
         "id" : "r32",
         "comps" : [],
         "download" : {
            "receiveFirst" : 154,
            "len" : 160,
            "dns" : 0,
            "dnsEnd" : -1,
            "receiveHeadersEnd" : 168,
            "sslEnd" : -1,
            "connectEnd" : 13,
            "connectStart" : 0,
            "id" : "download_20",
            "receivedTime" : "3023.88099998643",
            "sslStart" : -1,
            "dnsStart" : -1,
            "receiveLast" : 2855.88099998643,
            "s_time" : 2736.84799998591,
            "sendEnd" : 14,
            "sendStart" : 13,
            "type" : "image/png"
         }
      },
      {
         "when_comp_start" : -1,
         "url" : "http://original.testbed.localhost/d2n114696xot9z.cloudfront.net/sites/default/files/styles/dynamic_lead_single/public/articles/12142011_Hospital_sales_article.jpg%3Fitok=wWBFyZOh",
         "id" : "r33",
         "comps" : [],
         "download" : {
            "receiveFirst" : 154,
            "len" : 43072,
            "dns" : 0,
            "dnsEnd" : -1,
            "receiveHeadersEnd" : 177,
            "sslEnd" : -1,
            "connectEnd" : 23,
            "connectStart" : 0,
            "id" : "download_21",
            "receivedTime" : "5114.029999997",
            "sslStart" : -1,
            "dnsStart" : -1,
            "receiveLast" : 4937.029999997,
            "s_time" : 2765.27499999793,
            "sendEnd" : 23,
            "sendStart" : 23,
            "type" : "image/jpeg"
         }
      },
      {
         "when_comp_start" : -1,
         "url" : "http://original.testbed.localhost/d2n114696xot9z.cloudfront.net/sites/default/files/styles/dynamic_lead_single/public/articles/06182013_Obamacare_Tax_Stroke_article.jpg%3Fitok=NhIYdhul",
         "id" : "r34",
         "comps" : [],
         "download" : {
            "receiveFirst" : 456,
            "len" : 65984,
            "dns" : 0,
            "dnsEnd" : -1,
            "receiveHeadersEnd" : 484,
            "sslEnd" : -1,
            "connectEnd" : 28,
            "connectStart" : 0,
            "id" : "download_22",
            "receivedTime" : "5162.46099999989",
            "sslStart" : -1,
            "dnsStart" : -1,
            "receiveLast" : 4678.46099999989,
            "s_time" : 2766.52599999215,
            "sendEnd" : 28,
            "sendStart" : 28,
            "type" : "image/jpeg"
         }
      },
      {
         "when_comp_start" : -1,
         "url" : "http://original.testbed.localhost/d2n114696xot9z.cloudfront.net/sites/default/files/styles/dynamic_lead_single/public/reuters/usa-election-sanders_1.jpg%3Fitok=xK7prYff",
         "id" : "r35",
         "comps" : [],
         "download" : {
            "receiveFirst" : 454,
            "len" : 39921,
            "dns" : 0,
            "dnsEnd" : -1,
            "receiveHeadersEnd" : 483,
            "sslEnd" : -1,
            "connectEnd" : 29,
            "connectStart" : 0,
            "id" : "download_23",
            "receivedTime" : "5163.04099999252",
            "sslStart" : -1,
            "dnsStart" : -1,
            "receiveLast" : 4680.04099999252,
            "s_time" : 2768.61599998665,
            "sendEnd" : 29,
            "sendStart" : 29,
            "type" : "image/jpeg"
         }
      },
      {
         "when_comp_start" : -1,
         "url" : "http://original.testbed.localhost/d2n114696xot9z.cloudfront.net/sites/default/files/styles/carousel/public/articles/02152012_Wealth_article.jpg%3Fitok=Dy3YpFna",
         "id" : "r36",
         "comps" : [],
         "download" : {
            "receiveFirst" : 547,
            "len" : 11438,
            "dns" : 0,
            "dnsEnd" : -1,
            "receiveHeadersEnd" : 578,
            "sslEnd" : -1,
            "connectEnd" : 31,
            "connectStart" : 0,
            "id" : "download_24",
            "receivedTime" : "3449.11299999512",
            "sslStart" : -1,
            "dnsStart" : -1,
            "receiveLast" : 2871.11299999512,
            "s_time" : 2771.10399999947,
            "sendEnd" : 31,
            "sendStart" : 31,
            "type" : "image/jpeg"
         }
      },
      {
         "when_comp_start" : -1,
         "url" : "http://original.testbed.localhost/d2n114696xot9z.cloudfront.net/sites/default/files/styles/carousel/public/columns/09102015_Hillary_Clinton.jpg%3Fitok=8Qh7O2mW",
         "id" : "r37",
         "comps" : [],
         "download" : {
            "receiveFirst" : 577,
            "len" : 10157,
            "dns" : 0,
            "dnsEnd" : -1,
            "receiveHeadersEnd" : 713,
            "sslEnd" : -1,
            "connectEnd" : 136,
            "connectStart" : 0,
            "id" : "download_25",
            "receivedTime" : "3566.20899999689",
            "sslStart" : -1,
            "dnsStart" : -1,
            "receiveLast" : 2853.20899999689,
            "s_time" : 2772.3699999915,
            "sendEnd" : 136,
            "sendStart" : 136,
            "type" : "image/jpeg"
         }
      },
      {
         "when_comp_start" : -1,
         "url" : "http://original.testbed.localhost/d2n114696xot9z.cloudfront.net/sites/default/files/js/js_zZo99GktrkTSxMV1bbh5Gncd2k8yOAepFxY7tQlIHdU.js",
         "id" : "r53",
         "comps" : [
            {
               "s_time" : 4042.40500000014,
               "time" : 2.28899999638998,
               "type" : 1,
               "id" : "comp_59",
               "e_time" : 4044.69399999653
            }
         ],
         "download" : {
            "receiveFirst" : 590,
            "len" : 2687,
            "dns" : 0,
            "dnsEnd" : -1,
            "receiveHeadersEnd" : 1060,
            "sslEnd" : -1,
            "connectEnd" : 470,
            "connectStart" : 0,
            "id" : "download_26",
            "receivedTime" : "4041.67299999972",
            "sslStart" : -1,
            "dnsStart" : -1,
            "receiveLast" : 2981.67299999972,
            "s_time" : 2970.16999998596,
            "sendEnd" : 470,
            "sendStart" : 470,
            "type" : "application/javascript"
         }
      },
      {
         "when_comp_start" : -1,
         "url" : "http://original.testbed.localhost/maxcdn.bootstrapcdn.com/font-awesome/4.2.0/fonts/fontawesome-webfont.woff%3Fv=4.2.0",
         "id" : "r19",
         "comps" : [],
         "download" : {
            "receiveFirst" : 507,
            "len" : 65452,
            "dns" : 0,
            "dnsEnd" : -1,
            "receiveHeadersEnd" : 1099,
            "sslEnd" : -1,
            "connectEnd" : 592,
            "connectStart" : 0,
            "id" : "download_27",
            "receivedTime" : "5642.74699999078",
            "sslStart" : -1,
            "dnsStart" : -1,
            "receiveLast" : 4543.74699999078,
            "s_time" : 2976.01399999985,
            "sendEnd" : 592,
            "sendStart" : 592,
            "type" : "application/octet-stream"
         }
      },
      {
         "when_comp_start" : -1,
         "url" : "http://original.testbed.localhost/d2n114696xot9z.cloudfront.net/sites/default/files/styles/carousel/public/reuters/shopping-tips_1.jpg%3Fitok=YDDYKvWH",
         "id" : "r38",
         "comps" : [],
         "download" : {
            "receiveFirst" : 642,
            "len" : 10382,
            "dns" : 0,
            "dnsEnd" : -1,
            "receiveHeadersEnd" : 1443,
            "sslEnd" : -1,
            "connectEnd" : 800,
            "connectStart" : 0,
            "id" : "download_28",
            "receivedTime" : "5150.92499999446",
            "sslStart" : -1,
            "dnsStart" : -1,
            "receiveLast" : 3707.92499999446,
            "s_time" : 2773.62099998572,
            "sendEnd" : 801,
            "sendStart" : 800,
            "type" : "image/jpeg"
         }
      },
      {
         "when_comp_start" : -1,
         "url" : "http://original.testbed.localhost/d2n114696xot9z.cloudfront.net/sites/default/files/styles/carousel/public/articles/06182010_globe_article.jpg%3Fitok=AgspwyeM",
         "id" : "r39",
         "comps" : [],
         "download" : {
            "receiveFirst" : 548,
            "len" : 11506,
            "dns" : 0,
            "dnsEnd" : -1,
            "receiveHeadersEnd" : 1816,
            "sslEnd" : -1,
            "connectEnd" : 1268,
            "connectStart" : 0,
            "id" : "download_29",
            "receivedTime" : "5148.94199999981",
            "sslStart" : -1,
            "dnsStart" : -1,
            "receiveLast" : 3332.94199999981,
            "s_time" : 2774.8569999967,
            "sendEnd" : 1268,
            "sendStart" : 1268,
            "type" : "image/jpeg"
         }
      },
      {
         "when_comp_start" : -1,
         "url" : "http://original.testbed.localhost/d2n114696xot9z.cloudfront.net/sites/default/files/styles/thumbnail/public/reuters/usa-congress-boehner_2.jpg%3Fitok=ljxtN77i",
         "id" : "r40",
         "comps" : [],
         "download" : {
            "receiveFirst" : 553,
            "len" : 4956,
            "dns" : 0,
            "dnsEnd" : -1,
            "receiveHeadersEnd" : 2115,
            "sslEnd" : -1,
            "connectEnd" : 1562,
            "connectStart" : 0,
            "id" : "download_30",
            "receivedTime" : "5159.31799999089",
            "sslStart" : -1,
            "dnsStart" : -1,
            "receiveLast" : 3044.31799999089,
            "s_time" : 2789.41399999894,
            "sendEnd" : 1562,
            "sendStart" : 1562,
            "type" : "image/jpeg"
         }
      },
      {
         "when_comp_start" : -1,
         "url" : "http://original.testbed.localhost/d2n114696xot9z.cloudfront.net/sites/default/files/styles/thumbnail/public/media/09152015_Abandoned_Mine.JPG%3Fitok=YUjbF11Q",
         "id" : "r41",
         "comps" : [],
         "download" : {
            "receiveFirst" : 359,
            "len" : 9549,
            "dns" : 0,
            "dnsEnd" : -1,
            "receiveHeadersEnd" : 2257,
            "sslEnd" : -1,
            "connectEnd" : 1898,
            "connectStart" : 0,
            "id" : "download_31",
            "receivedTime" : "5195.93899999745",
            "sslStart" : -1,
            "dnsStart" : -1,
            "receiveLast" : 2938.93899999745,
            "s_time" : 2791.29099998681,
            "sendEnd" : 1898,
            "sendStart" : 1898,
            "type" : "image/jpeg"
         }
      },
      {
         "when_comp_start" : -1,
         "url" : "http://original.testbed.localhost/d2n114696xot9z.cloudfront.net/sites/default/files/styles/thumbnail/public/media/08052015_Bernie_Sanders.jpg%3Fitok=8-mhVuwu",
         "id" : "r42",
         "comps" : [],
         "download" : {
            "receiveFirst" : 332,
            "len" : 8969,
            "dns" : 0,
            "dnsEnd" : -1,
            "receiveHeadersEnd" : 2321,
            "sslEnd" : -1,
            "connectEnd" : 1989,
            "connectStart" : 0,
            "id" : "download_32",
            "receivedTime" : "5297.8679999942",
            "sslStart" : -1,
            "dnsStart" : -1,
            "receiveLast" : 2976.8679999942,
            "s_time" : 2907.69999999611,
            "sendEnd" : 1989,
            "sendStart" : 1989,
            "type" : "image/jpeg"
         }
      },
      {
         "when_comp_start" : -1,
         "url" : "http://original.testbed.localhost/d2n114696xot9z.cloudfront.net/sites/default/files/styles/thumbnail/public/media/Zarif.2.jpg%3Fitok=JIJ4LX7e",
         "id" : "r43",
         "comps" : [],
         "download" : {
            "receiveFirst" : 368,
            "len" : 8443,
            "dns" : 0,
            "dnsEnd" : -1,
            "receiveHeadersEnd" : 1864,
            "sslEnd" : -1,
            "connectEnd" : 1496,
            "connectStart" : 0,
            "id" : "download_33",
            "receivedTime" : "5376.63299999258",
            "sslStart" : -1,
            "dnsStart" : -1,
            "receiveLast" : 3512.63299999258,
            "s_time" : 3443.31399998919,
            "sendEnd" : 1496,
            "sendStart" : 1496,
            "type" : "image/jpeg"
         }
      },
      {
         "when_comp_start" : -1,
         "url" : "http://original.testbed.localhost/d2n114696xot9z.cloudfront.net/sites/default/files/styles/thumbnail/public/media/RTR3EU03.jpg%3Fitok=shOBx6mc",
         "id" : "r44",
         "comps" : [],
         "download" : {
            "receiveFirst" : 368,
            "len" : 8078,
            "dns" : 0,
            "dnsEnd" : -1,
            "receiveHeadersEnd" : 1819,
            "sslEnd" : -1,
            "connectEnd" : 1451,
            "connectStart" : 0,
            "id" : "download_34",
            "receivedTime" : "5443.86399998621",
            "sslStart" : -1,
            "dnsStart" : -1,
            "receiveLast" : 3624.86399998621,
            "s_time" : 3566.55899999896,
            "sendEnd" : 1451,
            "sendStart" : 1451,
            "type" : "image/jpeg"
         }
      },
      {
         "when_comp_start" : -1,
         "url" : "http://original.testbed.localhost/d2n114696xot9z.cloudfront.net/sites/default/files/styles/photo_of_the_day/public/dutch_royal_guard_potd.jpg%3Fitok=cB0FPvj8",
         "id" : "r45",
         "comps" : [],
         "download" : {
            "receiveFirst" : 449,
            "len" : 79641,
            "dns" : 0,
            "dnsEnd" : -1,
            "receiveHeadersEnd" : 1133,
            "sslEnd" : -1,
            "connectEnd" : 684,
            "connectStart" : 0,
            "id" : "download_35",
            "receivedTime" : "6908.92099999473",
            "sslStart" : -1,
            "dnsStart" : -1,
            "receiveLast" : 5775.92099999473,
            "s_time" : 4349.3199999939,
            "sendEnd" : 684,
            "sendStart" : 684,
            "type" : "image/jpeg"
         }
      },
      {
         "when_comp_start" : -1,
         "url" : "http://original.testbed.localhost/d2n114696xot9z.cloudfront.net/sites/default/files/styles/thumbnail/public/Syria_Russia.png%3Fitok=5RbgUNRe",
         "id" : "r47",
         "comps" : [],
         "download" : {
            "receiveFirst" : 351,
            "len" : 68408,
            "dns" : 0,
            "dnsEnd" : -1,
            "receiveHeadersEnd" : 758,
            "sslEnd" : -1,
            "connectEnd" : 407,
            "connectStart" : 0,
            "id" : "download_36",
            "receivedTime" : "7025.52899999137",
            "sslStart" : -1,
            "dnsStart" : -1,
            "receiveLast" : 6267.52899999137,
            "s_time" : 4893.8899999921,
            "sendEnd" : 407,
            "sendStart" : 407,
            "type" : "image/png"
         }
      },
      {
         "when_comp_start" : -1,
         "url" : "http://original.testbed.localhost/d2n114696xot9z.cloudfront.net/sites/default/files/styles/thumbnail/public/reuters/wpid-2013-10-16T194325Z_1_CBRE99F1ISO00_RTROPTP_2_USA-SEC-CUBAN.jpg%3Fitok=fyy7C63S",
         "id" : "r48",
         "comps" : [],
         "download" : {
            "receiveFirst" : 367,
            "len" : 6741,
            "dns" : 0,
            "dnsEnd" : -1,
            "receiveHeadersEnd" : 807,
            "sslEnd" : -1,
            "connectEnd" : 440,
            "connectStart" : 0,
            "id" : "download_37",
            "receivedTime" : "5793.80899999524",
            "sslStart" : -1,
            "dnsStart" : -1,
            "receiveLast" : 4986.80899999524,
            "s_time" : 4937.85099999513,
            "sendEnd" : 440,
            "sendStart" : 440,
            "type" : "image/jpeg"
         }
      },
      {
         "when_comp_start" : -1,
         "url" : "http://original.testbed.localhost/d2n114696xot9z.cloudfront.net/sites/default/files/styles/thumbnail/public/reuters/wpid-2012-12-20T163138Z_3_CBRE8BJ02AF00_RTROPTP_2_USA-BENGHAZI-CLINTON.jpg%3Fitok=tQwBLfyX",
         "id" : "r49",
         "comps" : [],
         "download" : {
            "receiveFirst" : 382,
            "len" : 5066,
            "dns" : 0,
            "dnsEnd" : -1,
            "receiveHeadersEnd" : 806,
            "sslEnd" : -1,
            "connectEnd" : 424,
            "connectStart" : 0,
            "id" : "download_38",
            "receivedTime" : "5843.09499998926",
            "sslStart" : -1,
            "dnsStart" : -1,
            "receiveLast" : 5037.09499998926,
            "s_time" : 5015.70199998969,
            "sendEnd" : 424,
            "sendStart" : 424,
            "type" : "image/jpeg"
         }
      },
      {
         "when_comp_start" : -1,
         "url" : "http://original.testbed.localhost/d2n114696xot9z.cloudfront.net/sites/default/files/styles/thumbnail/public/bernie_sanders.jpg%3Fitok=7yUCLWUO",
         "id" : "r50",
         "comps" : [],
         "download" : {
            "receiveFirst" : 343,
            "len" : 6331,
            "dns" : 0,
            "dnsEnd" : -1,
            "receiveHeadersEnd" : 951,
            "sslEnd" : -1,
            "connectEnd" : 608,
            "connectStart" : 0,
            "id" : "download_39",
            "receivedTime" : "6031.50999998616",
            "sslStart" : -1,
            "dnsStart" : -1,
            "receiveLast" : 5080.50999998616,
            "s_time" : 5030.80799999589,
            "sendEnd" : 608,
            "sendStart" : 608,
            "type" : "image/jpeg"
         }
      },
      {
         "when_comp_start" : -1,
         "url" : "http://original.testbed.localhost/pixel.quantserve.com/pixel/p-c4gb0ythXExpc.gif",
         "id" : "r51",
         "comps" : [],
         "download" : {
            "receiveFirst" : 361,
            "len" : 35,
            "dns" : 0,
            "dnsEnd" : -1,
            "receiveHeadersEnd" : 1035,
            "sslEnd" : -1,
            "connectEnd" : 674,
            "connectStart" : 0,
            "id" : "download_40",
            "receivedTime" : "6167.58799999661",
            "sslStart" : -1,
            "dnsStart" : -1,
            "receiveLast" : 5132.58799999661,
            "s_time" : 5118.95799999184,
            "sendEnd" : 674,
            "sendStart" : 674,
            "type" : "image/gif"
         }
      },
      {
         "when_comp_start" : -1,
         "url" : "http://original.testbed.localhost/d2n114696xot9z.cloudfront.net/sites/all/themes/tft-new/images/btn-lode-more-m.png",
         "id" : "r54",
         "comps" : [],
         "download" : {
            "receiveFirst" : 319,
            "len" : 595,
            "dns" : 0,
            "dnsEnd" : -1,
            "receiveHeadersEnd" : 859,
            "sslEnd" : -1,
            "connectEnd" : 540,
            "connectStart" : 0,
            "id" : "download_41",
            "receivedTime" : "6168.22899998806",
            "sslStart" : -1,
            "dnsStart" : -1,
            "receiveLast" : 5309.22899998806,
            "s_time" : 5298.27899999509,
            "sendEnd" : 540,
            "sendStart" : 540,
            "type" : "image/png"
         }
      },
      {
         "when_comp_start" : -1,
         "url" : "http://original.testbed.localhost/d2n114696xot9z.cloudfront.net/sites/all/themes/tft-new/images/logo-footer.png",
         "id" : "r55",
         "comps" : [],
         "download" : {
            "receiveFirst" : 275,
            "len" : 584,
            "dns" : 0,
            "dnsEnd" : -1,
            "receiveHeadersEnd" : 926,
            "sslEnd" : -1,
            "connectEnd" : 651,
            "connectStart" : 0,
            "id" : "download_42",
            "receivedTime" : "6305.4659999907",
            "sslStart" : -1,
            "dnsStart" : -1,
            "receiveLast" : 5379.4659999907,
            "s_time" : 5376.84699999227,
            "sendEnd" : 651,
            "sendStart" : 651,
            "type" : "image/png"
         }
      },
      {
         "when_comp_start" : -1,
         "url" : "http://original.testbed.localhost/d2n114696xot9z.cloudfront.net/misc/ui/images/ui-bg_flat_75_ffffff_40x100.png",
         "id" : "r59",
         "comps" : [],
         "download" : {
            "receiveFirst" : 276,
            "len" : 178,
            "dns" : 0,
            "dnsEnd" : -1,
            "receiveHeadersEnd" : 1001,
            "sslEnd" : -1,
            "connectEnd" : 725,
            "connectStart" : 0,
            "id" : "download_43",
            "receivedTime" : "6441.78899998951",
            "sslStart" : -1,
            "dnsStart" : -1,
            "receiveLast" : 5440.78899998951,
            "s_time" : 5438.36999998894,
            "sendEnd" : 725,
            "sendStart" : 725,
            "type" : "image/png"
         }
      },
      {
         "when_comp_start" : -1,
         "url" : "http://original.testbed.localhost/d2n114696xot9z.cloudfront.net/sites/all/themes/tft-new/images/spr-s907962eb82.png",
         "id" : "r60",
         "comps" : [],
         "download" : {
            "receiveFirst" : 301,
            "len" : 1445,
            "dns" : 0,
            "dnsEnd" : -1,
            "receiveHeadersEnd" : 677,
            "sslEnd" : -1,
            "connectEnd" : 376,
            "connectStart" : 0,
            "id" : "download_44",
            "receivedTime" : "6482.28499999095",
            "sslStart" : -1,
            "dnsStart" : -1,
            "receiveLast" : 5805.28499999095,
            "s_time" : 5791.48899999564,
            "sendEnd" : 376,
            "sendStart" : 376,
            "type" : "image/png"
         }
      },
      {
         "when_comp_start" : -1,
         "url" : "http://original.testbed.localhost/d2n114696xot9z.cloudfront.net/sites/default/files/styles/thumbnail/public/reuters/usa-politics-walker_1.jpg%3Fitok=nceI4VlT",
         "id" : "r46",
         "comps" : [],
         "download" : {
            "receiveFirst" : 1408,
            "len" : 4854,
            "dns" : 0,
            "dnsEnd" : -1,
            "receiveHeadersEnd" : 1845,
            "sslEnd" : -1,
            "connectEnd" : 433,
            "connectStart" : 0,
            "id" : "download_45",
            "receivedTime" : "6567.88699999743",
            "sslStart" : -1,
            "dnsStart" : -1,
            "receiveLast" : 4722.88699999743,
            "s_time" : 4687.86599999294,
            "sendEnd" : 437,
            "sendStart" : 433,
            "type" : "image/jpeg"
         }
      }
   ],
   "deps" : [
      {
         "a2" : "r1_c2",
         "time" : -1,
         "id" : "dep1",
         "a1" : "comp_9"
      },
      {
         "a2" : "r1_c3",
         "time" : -1,
         "id" : "dep2",
         "a1" : "comp_14"
      },
      {
         "a2" : "r1_c4",
         "time" : -1,
         "id" : "dep3",
         "a1" : "comp_15"
      },
      {
         "a2" : "r1_c5",
         "time" : -1,
         "id" : "dep4",
         "a1" : "comp_17"
      },
      {
         "a2" : "r1_c6",
         "time" : -1,
         "id" : "dep5",
         "a1" : "comp_26"
      },
      {
         "a2" : "r1_c7",
         "time" : -1,
         "id" : "dep6",
         "a1" : "comp_29"
      },
      {
         "a2" : "r1_c8",
         "time" : -1,
         "id" : "dep7",
         "a1" : "comp_32"
      },
      {
         "a2" : "r1_c9",
         "time" : -1,
         "id" : "dep8",
         "a1" : "comp_37"
      },
      {
         "a2" : "r1_c10",
         "time" : -1,
         "id" : "dep9",
         "a1" : "comp_59"
      },
      {
         "a2" : "comp_9",
         "time" : -1,
         "id" : "dep10",
         "a1" : "comp_0"
      },
      {
         "a2" : "comp_9",
         "time" : -1,
         "id" : "dep11",
         "a1" : "comp_1"
      },
      {
         "a2" : "comp_9",
         "time" : -1,
         "id" : "dep12",
         "a1" : "comp_2"
      },
      {
         "a2" : "comp_9",
         "time" : -1,
         "id" : "dep13",
         "a1" : "comp_3"
      },
      {
         "a2" : "comp_9",
         "time" : -1,
         "id" : "dep14",
         "a1" : "comp_4"
      },
      {
         "a2" : "comp_9",
         "time" : -1,
         "id" : "dep15",
         "a1" : "comp_5"
      },
      {
         "a2" : "comp_9",
         "time" : -1,
         "id" : "dep16",
         "a1" : "comp_6"
      },
      {
         "a2" : "comp_9",
         "time" : -1,
         "id" : "dep17",
         "a1" : "comp_7"
      },
      {
         "a2" : "comp_9",
         "time" : -1,
         "id" : "dep18",
         "a1" : "comp_8"
      },
      {
         "a2" : "comp_15",
         "time" : -1,
         "id" : "dep19",
         "a1" : "comp_14"
      },
      {
         "a2" : "comp_17",
         "time" : -1,
         "id" : "dep20",
         "a1" : "comp_15"
      },
      {
         "a2" : "download_45",
         "time" : 643.17199999641,
         "id" : "dep21",
         "a1" : "r1_c10"
      },
      {
         "a2" : "download_44",
         "time" : -1,
         "id" : "dep22",
         "a1" : "r1_c10"
      },
      {
         "a2" : "download_43",
         "time" : 1393.67599999241,
         "id" : "dep23",
         "a1" : "r1_c10"
      },
      {
         "a2" : "download_42",
         "time" : 1332.15299999574,
         "id" : "dep24",
         "a1" : "r1_c10"
      },
      {
         "a2" : "download_41",
         "time" : 1253.58499999856,
         "id" : "dep25",
         "a1" : "r1_c10"
      },
      {
         "a2" : "download_40",
         "time" : 1074.26399999531,
         "id" : "dep26",
         "a1" : "r1_c10"
      },
      {
         "a2" : "download_39",
         "time" : 986.11399999936,
         "id" : "dep27",
         "a1" : "r1_c10"
      },
      {
         "a2" : "download_38",
         "time" : 971.00799999316,
         "id" : "dep28",
         "a1" : "r1_c10"
      },
      {
         "a2" : "download_37",
         "time" : 893.1569999986,
         "id" : "dep29",
         "a1" : "r1_c10"
      },
      {
         "a2" : "download_36",
         "time" : 849.19599999557,
         "id" : "dep30",
         "a1" : "r1_c10"
      },
      {
         "a2" : "download_35",
         "time" : 304.62599999737,
         "id" : "dep31",
         "a1" : "r1_c10"
      },
      {
         "a2" : "download_34",
         "time" : -1,
         "id" : "dep32",
         "a1" : "r1_c9"
      },
      {
         "a2" : "download_33",
         "time" : 732.69599999185,
         "id" : "dep33",
         "a1" : "r1_c9"
      },
      {
         "a2" : "download_32",
         "time" : 197.08199999877,
         "id" : "dep34",
         "a1" : "r1_c9"
      },
      {
         "a2" : "download_31",
         "time" : 80.6729999894701,
         "id" : "dep35",
         "a1" : "r1_c9"
      },
      {
         "a2" : "download_30",
         "time" : 78.7960000016001,
         "id" : "dep36",
         "a1" : "r1_c9"
      },
      {
         "a2" : "download_29",
         "time" : 64.2389999993597,
         "id" : "dep37",
         "a1" : "r1_c9"
      },
      {
         "a2" : "download_28",
         "time" : 63.00299998838,
         "id" : "dep38",
         "a1" : "r1_c9"
      },
      {
         "a2" : "download_27",
         "time" : 265.39600000251,
         "id" : "dep39",
         "a1" : "r1_c9"
      },
      {
         "a2" : "download_26",
         "time" : 259.55199998862,
         "id" : "dep40",
         "a1" : "r1_c9"
      },
      {
         "a2" : "download_25",
         "time" : 61.7519999941601,
         "id" : "dep41",
         "a1" : "r1_c9"
      },
      {
         "a2" : "download_24",
         "time" : 60.4860000021299,
         "id" : "dep42",
         "a1" : "r1_c9"
      },
      {
         "a2" : "download_23",
         "time" : 57.9979999893098,
         "id" : "dep43",
         "a1" : "r1_c9"
      },
      {
         "a2" : "download_22",
         "time" : 55.9079999948099,
         "id" : "dep44",
         "a1" : "r1_c9"
      },
      {
         "a2" : "download_21",
         "time" : 54.65700000059,
         "id" : "dep45",
         "a1" : "r1_c9"
      },
      {
         "a2" : "download_20",
         "time" : 26.2299999885699,
         "id" : "dep46",
         "a1" : "r1_c9"
      },
      {
         "a2" : "download_19",
         "time" : -1,
         "id" : "dep47",
         "a1" : "r1_c5"
      },
      {
         "a2" : "download_19",
         "time" : 24.77999999246,
         "id" : "dep48",
         "a1" : "r1_c5"
      },
      {
         "a2" : "download_18",
         "time" : -1,
         "id" : "dep49",
         "a1" : "r1_c5"
      },
      {
         "a2" : "download_17",
         "time" : 23.58999999706,
         "id" : "dep50",
         "a1" : "r1_c5"
      },
      {
         "a2" : "download_17",
         "time" : 23.58999999706,
         "id" : "dep51",
         "a1" : "r1_c5"
      },
      {
         "a2" : "download_16",
         "time" : 22.79599999019,
         "id" : "dep52",
         "a1" : "r1_c5"
      },
      {
         "a2" : "download_16",
         "time" : 22.79599999019,
         "id" : "dep53",
         "a1" : "r1_c5"
      },
      {
         "a2" : "download_15",
         "time" : 21.9729999953399,
         "id" : "dep54",
         "a1" : "r1_c5"
      },
      {
         "a2" : "download_15",
         "time" : 21.9729999953399,
         "id" : "dep55",
         "a1" : "r1_c5"
      },
      {
         "a2" : "download_14",
         "time" : -1,
         "id" : "dep56",
         "a1" : "r1_c2"
      },
      {
         "a2" : "download_14",
         "time" : 24.71899999363,
         "id" : "dep57",
         "a1" : "r1_c2"
      },
      {
         "a2" : "download_13",
         "time" : -1,
         "id" : "dep58",
         "a1" : "r1_c1"
      },
      {
         "a2" : "download_13",
         "time" : 41.534000003594,
         "id" : "dep59",
         "a1" : "r1_c1"
      },
      {
         "a2" : "download_12",
         "time" : 40.161000011722,
         "id" : "dep60",
         "a1" : "r1_c1"
      },
      {
         "a2" : "download_12",
         "time" : 40.161000011722,
         "id" : "dep61",
         "a1" : "r1_c1"
      },
      {
         "a2" : "download_11",
         "time" : 38.543000002392,
         "id" : "dep62",
         "a1" : "r1_c1"
      },
      {
         "a2" : "download_11",
         "time" : 38.543000002392,
         "id" : "dep63",
         "a1" : "r1_c1"
      },
      {
         "a2" : "download_10",
         "time" : 35.553000008804,
         "id" : "dep64",
         "a1" : "r1_c1"
      },
      {
         "a2" : "download_9",
         "time" : 33.142000000226,
         "id" : "dep65",
         "a1" : "r1_c1"
      },
      {
         "a2" : "download_8",
         "time" : 31.311000013375,
         "id" : "dep66",
         "a1" : "r1_c1"
      },
      {
         "a2" : "download_7",
         "time" : 29.663000008441,
         "id" : "dep67",
         "a1" : "r1_c1"
      },
      {
         "a2" : "download_6",
         "time" : 27.435000010883,
         "id" : "dep68",
         "a1" : "r1_c1"
      },
      {
         "a2" : "download_5",
         "time" : 19.348000001628,
         "id" : "dep69",
         "a1" : "r1_c1"
      },
      {
         "a2" : "download_4",
         "time" : 17.974000002142,
         "id" : "dep70",
         "a1" : "r1_c1"
      },
      {
         "a2" : "download_3",
         "time" : 5.43200000538502,
         "id" : "dep71",
         "a1" : "r1_c1"
      },
      {
         "a2" : "download_2",
         "time" : 4.45500000205402,
         "id" : "dep72",
         "a1" : "r1_c1"
      },
      {
         "a2" : "download_1",
         "time" : 3.50900000194099,
         "id" : "dep73",
         "a1" : "r1_c1"
      }
   ]
}
