{
   "n_download_no_trigger" : 1,
   "start_activity" : "download_0",
   "name" : "original.testbed.localhost_www.denverpost.com_",
   "load_activity" : -1,
   "objs" : [
      {
         "when_comp_start" : 1,
         "url" : "http://original.testbed.localhost/www.denverpost.com/",
         "id" : "r1",
         "comps" : [
            {
               "s_time" : 128.99799994193,
               "time" : 21.912000025623,
               "id" : "r1_c1",
               "type" : "evalhtml",
               "e_time" : 150.909999967553
            },
            {
               "s_time" : 1587.7389999805,
               "time" : -762003474.634,
               "id" : "r1_c2",
               "type" : "evalhtml",
               "e_time" : -762001886.895
            },
            {
               "s_time" : 1597.87099994719,
               "time" : -762003484.766,
               "id" : "r1_c3",
               "type" : "evalhtml",
               "e_time" : -762001886.895
            },
            {
               "s_time" : 1607.78900003061,
               "time" : -762003494.684,
               "id" : "r1_c4",
               "type" : "evalhtml",
               "e_time" : -762001886.895
            },
            {
               "s_time" : 1609.55900000408,
               "time" : -762003496.454,
               "id" : "r1_c5",
               "type" : "evalhtml",
               "e_time" : -762001886.895
            },
            {
               "s_time" : 1614.25800004508,
               "time" : 17.2729999758299,
               "id" : "r1_c6",
               "type" : "evalhtml",
               "e_time" : 1631.53100002091
            },
            {
               "s_time" : 2329.25499998964,
               "time" : -762004216.15,
               "id" : "r1_c7",
               "type" : "evalhtml",
               "e_time" : -762001886.895
            },
            {
               "s_time" : 2364.13600004744,
               "time" : 1.67899997904988,
               "type" : "evalhtml",
               "id" : "r1_c8",
               "e_time" : 2365.81500002649
            }
         ],
         "download" : {
            "receiveFirst" : 10,
            "len" : 133176,
            "dns" : 0,
            "dnsEnd" : -1,
            "receiveHeadersEnd" : 15,
            "sslEnd" : -1,
            "connectEnd" : 5,
            "connectStart" : 0,
            "id" : "download_0",
            "receivedTime" : "291.809999966063",
            "sslStart" : -1,
            "dnsStart" : -1,
            "receiveLast" : 276.809999966063,
            "s_time" : 0,
            "sendEnd" : 5,
            "sendStart" : 5,
            "type" : "text/html"
         }
      },
      {
         "when_comp_start" : -1,
         "url" : "http://original.testbed.localhost/extras.mnginteractive.com/live/css/site67/bartertown.css",
         "id" : "r2",
         "comps" : [
            {
               "s_time" : 945.252000004984,
               "time" : 189.666999969636,
               "type" : 4,
               "id" : "comp_1",
               "e_time" : 1134.91899997462
            }
         ],
         "download" : {
            "receiveFirst" : 162,
            "len" : 211469,
            "dns" : 0,
            "dnsEnd" : -1,
            "receiveHeadersEnd" : 170,
            "sslEnd" : -1,
            "connectEnd" : 8,
            "connectStart" : 0,
            "id" : "download_1",
            "receivedTime" : "942.414000048302",
            "sslStart" : -1,
            "dnsStart" : -1,
            "receiveLast" : 772.414000048302,
            "s_time" : 129.670000053011,
            "sendEnd" : 8,
            "sendStart" : 8,
            "type" : "text/css"
         }
      },
      {
         "when_comp_start" : -1,
         "url" : "http://original.testbed.localhost/extras.mnginteractive.com/live/css/site67/bartertown-section.css",
         "id" : "r4",
         "comps" : [
            {
               "s_time" : 472.107999958098,
               "time" : 0.121999997646014,
               "type" : 4,
               "id" : "comp_0",
               "e_time" : 472.229999955744
            }
         ],
         "download" : {
            "receiveFirst" : 163,
            "len" : 5525,
            "dns" : 0,
            "dnsEnd" : -1,
            "receiveHeadersEnd" : 322,
            "sslEnd" : -1,
            "connectEnd" : 159,
            "connectStart" : 0,
            "id" : "download_2",
            "receivedTime" : "470.825999975204",
            "sslStart" : -1,
            "dnsStart" : -1,
            "receiveLast" : 148.825999975204,
            "s_time" : 130.982000031509,
            "sendEnd" : 159,
            "sendStart" : 159,
            "type" : "text/css"
         }
      },
      {
         "when_comp_start" : -1,
         "url" : "http://original.testbed.localhost/extras.denverpost.com/media/js/dputils-min.js%3Fv=7",
         "id" : "r5",
         "comps" : [
            {
               "s_time" : 1594.757999992,
               "time" : 3.11299995519016,
               "type" : 1,
               "id" : "comp_4",
               "e_time" : 1597.87099994719
            }
         ],
         "download" : {
            "receiveFirst" : 187,
            "len" : 5652,
            "dns" : 0,
            "dnsEnd" : 9,
            "receiveHeadersEnd" : 349,
            "sslEnd" : -1,
            "connectEnd" : 162,
            "connectStart" : 0,
            "id" : "download_3",
            "receivedTime" : "542.480999953113",
            "sslStart" : -1,
            "dnsStart" : 9,
            "receiveLast" : 193.480999953113,
            "s_time" : 131.348000024445,
            "sendEnd" : 162,
            "sendStart" : 162,
            "type" : "text/plain"
         }
      },
      {
         "when_comp_start" : -1,
         "url" : "http://original.testbed.localhost/extras.mnginteractive.com/live/js/metaRefresh.js",
         "id" : "r6",
         "comps" : [
            {
               "s_time" : 1618.56099998113,
               "time" : 3.78500006626996,
               "type" : 3,
               "id" : "comp_16",
               "e_time" : 1622.3460000474
            }
         ],
         "download" : {
            "receiveFirst" : 293,
            "len" : 1623,
            "dns" : 1,
            "dnsEnd" : 10,
            "receiveHeadersEnd" : 454,
            "sslEnd" : -1,
            "connectEnd" : 161,
            "connectStart" : 0,
            "id" : "download_4",
            "receivedTime" : "599.335000035353",
            "sslStart" : -1,
            "dnsStart" : 9,
            "receiveLast" : 145.335000035353,
            "s_time" : 132.538000005297,
            "sendEnd" : 161,
            "sendStart" : 161,
            "type" : "application/javascript"
         }
      },
      {
         "when_comp_start" : -1,
         "url" : "http://original.testbed.localhost/ajax.googleapis.com/ajax/libs/jquery/1/jquery.min.js",
         "id" : "r3",
         "comps" : [
            {
               "s_time" : 1337.31099998113,
               "time" : 250.42799999937,
               "type" : 1,
               "id" : "comp_2",
               "e_time" : 1587.7389999805
            }
         ],
         "download" : {
            "receiveFirst" : 305,
            "len" : 95786,
            "dns" : 0,
            "dnsEnd" : 9,
            "receiveHeadersEnd" : 469,
            "sslEnd" : -1,
            "connectEnd" : 164,
            "connectStart" : 0,
            "id" : "download_5",
            "receivedTime" : "1334.56500002649",
            "sslStart" : -1,
            "dnsStart" : 9,
            "receiveLast" : 865.565000026487,
            "s_time" : 130.52400003653,
            "sendEnd" : 164,
            "sendStart" : 164,
            "type" : "application/javascript"
         }
      },
      {
         "when_comp_start" : -1,
         "url" : "http://original.testbed.localhost/extras.mnginteractive.com/live/js/scriptwells/denverpost.js",
         "id" : "r7",
         "comps" : [
            {
               "s_time" : 1598.96900004242,
               "time" : 8.81999998818992,
               "type" : 1,
               "id" : "comp_6",
               "e_time" : 1607.78900003061
            }
         ],
         "download" : {
            "receiveFirst" : 541,
            "len" : 1128,
            "dns" : 0,
            "dnsEnd" : 9,
            "receiveHeadersEnd" : 854,
            "sslEnd" : -1,
            "connectEnd" : 313,
            "connectStart" : 0,
            "id" : "download_6",
            "receivedTime" : "1135.98699995782",
            "sslStart" : -1,
            "dnsStart" : 9,
            "receiveLast" : 281.986999957822,
            "s_time" : 132.966000004672,
            "sendEnd" : 313,
            "sendStart" : 313,
            "type" : "application/javascript"
         }
      },
      {
         "when_comp_start" : -1,
         "url" : "http://original.testbed.localhost/extras.mnginteractive.com/live/js/JOL/denverpostPressPlus.js",
         "id" : "r8",
         "comps" : [
            {
               "s_time" : 1608.36900002323,
               "time" : 1.18999998084996,
               "type" : 1,
               "id" : "comp_8",
               "e_time" : 1609.55900000408
            }
         ],
         "download" : {
            "receiveFirst" : 530,
            "len" : 1551,
            "dns" : 0,
            "dnsEnd" : -1,
            "receiveHeadersEnd" : 853,
            "sslEnd" : -1,
            "connectEnd" : 323,
            "connectStart" : 0,
            "id" : "download_7",
            "receivedTime" : "1139.13000002503",
            "sslStart" : -1,
            "dnsStart" : -1,
            "receiveLast" : 286.130000025034,
            "s_time" : 137.665000045672,
            "sendEnd" : 323,
            "sendStart" : 323,
            "type" : "application/javascript"
         }
      },
      {
         "when_comp_start" : -1,
         "url" : "http://original.testbed.localhost/launch.newsinc.com/js/embed.js",
         "id" : "r9",
         "comps" : [],
         "download" : {
            "receiveFirst" : 471,
            "len" : 152252,
            "dns" : 0,
            "dnsEnd" : -1,
            "receiveHeadersEnd" : 865,
            "sslEnd" : -1,
            "connectEnd" : 394,
            "connectStart" : 0,
            "id" : "download_8",
            "receivedTime" : "2433.19799995515",
            "sslStart" : -1,
            "dnsStart" : -1,
            "receiveLast" : 1568.19799995515,
            "s_time" : 149.2009999929,
            "sendEnd" : 394,
            "sendStart" : 394,
            "type" : "application/javascript"
         }
      },
      {
         "when_comp_start" : -1,
         "url" : "http://original.testbed.localhost/local.denverpost.com/assets/ga-site-datalayer.js",
         "id" : "r10",
         "comps" : [
            {
               "s_time" : 1611.11499997787,
               "time" : 3.1430000672101,
               "type" : 1,
               "id" : "comp_10",
               "e_time" : 1614.25800004508
            }
         ],
         "download" : {
            "receiveFirst" : 558,
            "len" : 2270,
            "dns" : 0,
            "dnsEnd" : -1,
            "receiveHeadersEnd" : 1003,
            "sslEnd" : -1,
            "connectEnd" : 445,
            "connectStart" : 0,
            "id" : "download_9",
            "receivedTime" : "1162.29300003033",
            "sslStart" : -1,
            "dnsStart" : -1,
            "receiveLast" : 159.293000030331,
            "s_time" : 149.902999983169,
            "sendEnd" : 445,
            "sendStart" : 445,
            "type" : "application/javascript"
         }
      },
      {
         "when_comp_start" : -1,
         "url" : "http://original.testbed.localhost/cdn.goroost.com/roostjs/4f5ae9e61c6b4b068705a1a2ff3821a4",
         "id" : "r11",
         "comps" : [],
         "download" : {
            "receiveFirst" : 406,
            "len" : 59097,
            "dns" : 0,
            "dnsEnd" : -1,
            "receiveHeadersEnd" : 1202,
            "sslEnd" : -1,
            "connectEnd" : 796,
            "connectStart" : 0,
            "id" : "download_10",
            "receivedTime" : "2305.75599998701",
            "sslStart" : -1,
            "dnsStart" : -1,
            "receiveLast" : 1103.75599998701,
            "s_time" : 150.909999967553,
            "sendEnd" : 796,
            "sendStart" : 796,
            "type" : "text/plain"
         }
      },
      {
         "when_comp_start" : -1,
         "url" : "http://original.testbed.localhost/extras.mnginteractive.com/live/js/mngiads/AdsInclude.js",
         "id" : "r13",
         "comps" : [
            {
               "s_time" : 2328.76699999906,
               "time" : 0.487999990580192,
               "type" : 1,
               "id" : "comp_18",
               "e_time" : 2329.25499998964
            }
         ],
         "download" : {
            "receiveFirst" : 672,
            "len" : 142,
            "dns" : 0,
            "dnsEnd" : -1,
            "receiveHeadersEnd" : 692,
            "sslEnd" : -1,
            "connectEnd" : 19,
            "connectStart" : 0,
            "id" : "download_11",
            "receivedTime" : "2326.84400002472",
            "sslStart" : -1,
            "dnsStart" : -1,
            "receiveLast" : 1634.84400002472,
            "s_time" : 1628.14399995841,
            "sendEnd" : 20,
            "sendStart" : 19,
            "type" : "application/javascript"
         }
      },
      {
         "when_comp_start" : -1,
         "url" : "http://original.testbed.localhost/extras.mnginteractive.com/live/js/otherinc/pop-window.js",
         "id" : "r14",
         "comps" : [
            {
               "s_time" : 2362.85499995574,
               "time" : 1.28100009170021,
               "type" : 1,
               "id" : "comp_20",
               "e_time" : 2364.13600004744
            }
         ],
         "download" : {
            "receiveFirst" : 699,
            "len" : 1290,
            "dns" : 0,
            "dnsEnd" : -1,
            "receiveHeadersEnd" : 718,
            "sslEnd" : -1,
            "connectEnd" : 19,
            "connectStart" : 0,
            "id" : "download_12",
            "receivedTime" : "2362.36599995755",
            "sslStart" : -1,
            "dnsStart" : -1,
            "receiveLast" : 1644.36599995755,
            "s_time" : 1628.9069999475,
            "sendEnd" : 19,
            "sendStart" : 19,
            "type" : "application/javascript"
         }
      },
      {
         "when_comp_start" : -1,
         "url" : "http://original.testbed.localhost/local.dailynews.com/common/dfm/assets/js/dfm-core-level1.min.js",
         "id" : "r15",
         "comps" : [],
         "download" : {
            "receiveFirst" : 714,
            "len" : 1572,
            "dns" : 0,
            "dnsEnd" : -1,
            "receiveHeadersEnd" : 734,
            "sslEnd" : -1,
            "connectEnd" : 20,
            "connectStart" : 0,
            "id" : "download_13",
            "receivedTime" : "2379.63900004979",
            "sslStart" : -1,
            "dnsStart" : -1,
            "receiveLast" : 1645.63900004979,
            "s_time" : 1629.70000004862,
            "sendEnd" : 20,
            "sendStart" : 20,
            "type" : "application/javascript"
         }
      },
      {
         "when_comp_start" : -1,
         "url" : "http://original.testbed.localhost/local.dailynews.com/common/dfm/assets/js/dfm-core-level2.min.js",
         "id" : "r16",
         "comps" : [],
         "download" : {
            "receiveFirst" : 727,
            "len" : 3800,
            "dns" : 0,
            "dnsEnd" : -1,
            "receiveHeadersEnd" : 747,
            "sslEnd" : -1,
            "connectEnd" : 20,
            "connectStart" : 0,
            "id" : "download_14",
            "receivedTime" : "2403.77900004387",
            "sslStart" : -1,
            "dnsStart" : -1,
            "receiveLast" : 1656.77900004387,
            "s_time" : 1631.53100002091,
            "sendEnd" : 20,
            "sendStart" : 20,
            "type" : "application/javascript"
         }
      }
   ],
   "deps" : [
      {
         "a2" : "r1_c2",
         "time" : -1,
         "id" : "dep1",
         "a1" : "comp_2"
      },
      {
         "a2" : "r1_c3",
         "time" : -1,
         "id" : "dep2",
         "a1" : "comp_4"
      },
      {
         "a2" : "r1_c4",
         "time" : -1,
         "id" : "dep3",
         "a1" : "comp_6"
      },
      {
         "a2" : "r1_c5",
         "time" : -1,
         "id" : "dep4",
         "a1" : "comp_8"
      },
      {
         "a2" : "r1_c6",
         "time" : -1,
         "id" : "dep5",
         "a1" : "comp_10"
      },
      {
         "a2" : "r1_c7",
         "time" : -1,
         "id" : "dep6",
         "a1" : "comp_18"
      },
      {
         "a2" : "r1_c8",
         "time" : -1,
         "id" : "dep7",
         "a1" : "comp_20"
      },
      {
         "a2" : "comp_2",
         "time" : -1,
         "id" : "dep8",
         "a1" : "comp_1"
      },
      {
         "a2" : "comp_4",
         "time" : -1,
         "id" : "dep9",
         "a1" : "comp_2"
      },
      {
         "a2" : "comp_4",
         "time" : -1,
         "id" : "dep10",
         "a1" : "comp_0"
      },
      {
         "a2" : "comp_6",
         "time" : -1,
         "id" : "dep11",
         "a1" : "comp_4"
      },
      {
         "a2" : "comp_8",
         "time" : -1,
         "id" : "dep12",
         "a1" : "comp_6"
      },
      {
         "a2" : "comp_10",
         "time" : -1,
         "id" : "dep13",
         "a1" : "comp_8"
      },
      {
         "a2" : "comp_20",
         "time" : -1,
         "id" : "dep14",
         "a1" : "comp_18"
      },
      {
         "a2" : "download_14",
         "time" : -1,
         "id" : "dep15",
         "a1" : "r1_c6"
      },
      {
         "a2" : "download_13",
         "time" : 15.44200000354,
         "id" : "dep16",
         "a1" : "r1_c6"
      },
      {
         "a2" : "download_13",
         "time" : 15.44200000354,
         "id" : "dep17",
         "a1" : "r1_c6"
      },
      {
         "a2" : "download_12",
         "time" : 14.64899990242,
         "id" : "dep18",
         "a1" : "r1_c6"
      },
      {
         "a2" : "download_12",
         "time" : 14.64899990242,
         "id" : "dep19",
         "a1" : "r1_c6"
      },
      {
         "a2" : "download_11",
         "time" : 13.8859999133299,
         "id" : "dep20",
         "a1" : "r1_c6"
      },
      {
         "a2" : "download_10",
         "time" : -1,
         "id" : "dep21",
         "a1" : "r1_c1"
      },
      {
         "a2" : "download_10",
         "time" : 21.912000025623,
         "id" : "dep22",
         "a1" : "r1_c1"
      },
      {
         "a2" : "download_9",
         "time" : 20.905000041239,
         "id" : "dep23",
         "a1" : "r1_c1"
      },
      {
         "a2" : "download_9",
         "time" : 20.905000041239,
         "id" : "dep24",
         "a1" : "r1_c1"
      },
      {
         "a2" : "download_8",
         "time" : 20.20300005097,
         "id" : "dep25",
         "a1" : "r1_c1"
      },
      {
         "a2" : "download_8",
         "time" : 20.20300005097,
         "id" : "dep26",
         "a1" : "r1_c1"
      },
      {
         "a2" : "download_7",
         "time" : 8.667000103742,
         "id" : "dep27",
         "a1" : "r1_c1"
      },
      {
         "a2" : "download_7",
         "time" : 8.667000103742,
         "id" : "dep28",
         "a1" : "r1_c1"
      },
      {
         "a2" : "download_6",
         "time" : 3.96800006274199,
         "id" : "dep29",
         "a1" : "r1_c1"
      },
      {
         "a2" : "download_6",
         "time" : 3.96800006274199,
         "id" : "dep30",
         "a1" : "r1_c1"
      },
      {
         "a2" : "download_5",
         "time" : 1.52600009459999,
         "id" : "dep31",
         "a1" : "r1_c1"
      },
      {
         "a2" : "download_4",
         "time" : 3.54000006336699,
         "id" : "dep32",
         "a1" : "r1_c1"
      },
      {
         "a2" : "download_4",
         "time" : 3.54000006336699,
         "id" : "dep33",
         "a1" : "r1_c1"
      },
      {
         "a2" : "download_3",
         "time" : 2.35000008251501,
         "id" : "dep34",
         "a1" : "r1_c1"
      },
      {
         "a2" : "download_3",
         "time" : 2.35000008251501,
         "id" : "dep35",
         "a1" : "r1_c1"
      },
      {
         "a2" : "download_2",
         "time" : 1.98400008957898,
         "id" : "dep36",
         "a1" : "r1_c1"
      },
      {
         "a2" : "download_2",
         "time" : 1.98400008957898,
         "id" : "dep37",
         "a1" : "r1_c1"
      },
      {
         "a2" : "download_1",
         "time" : 0.67200011108099,
         "id" : "dep38",
         "a1" : "r1_c1"
      }
   ]
}
