{
   "n_download_no_trigger" : 1,
   "start_activity" : "download_0",
   "name" : "original.testbed.localhost_www.sohu.com_",
   "load_activity" : -1,
   "objs" : [
      {
         "when_comp_start" : 1,
         "url" : "http://original.testbed.localhost/www.sohu.com/",
         "id" : "r1",
         "comps" : [
            {
               "s_time" : 162.537000025623,
               "time" : 9.33899998199101,
               "id" : "r1_c1",
               "type" : "evalhtml",
               "e_time" : 171.876000007614
            },
            {
               "s_time" : 1865.38800003473,
               "time" : -860542094.38,
               "id" : "r1_c2",
               "type" : "evalhtml",
               "e_time" : -860540228.992
            },
            {
               "s_time" : 1874.05500002205,
               "time" : -860542103.047,
               "id" : "r1_c3",
               "type" : "evalhtml",
               "e_time" : -860540228.992
            },
            {
               "s_time" : 1882.20300001558,
               "time" : 138.51900002919,
               "id" : "r1_c4",
               "type" : "evalhtml",
               "e_time" : 2020.72200004477
            },
            {
               "s_time" : 2043.85500005446,
               "time" : -860542272.847,
               "id" : "r1_c5",
               "type" : "evalhtml",
               "e_time" : -860540228.992
            },
            {
               "s_time" : 2113.7400000589,
               "time" : 68.84799990803,
               "id" : "r1_c6",
               "type" : "evalhtml",
               "e_time" : 2182.58799996693
            },
            {
               "s_time" : 2296.69300001115,
               "time" : 0.243999995289869,
               "type" : "evalhtml",
               "id" : "r1_c7",
               "e_time" : 2296.93700000644
            }
         ],
         "download" : {
            "receiveFirst" : 15,
            "len" : 432698,
            "dns" : 0,
            "dnsEnd" : -1,
            "receiveHeadersEnd" : 22,
            "sslEnd" : -1,
            "connectEnd" : 6,
            "connectStart" : 0,
            "id" : "download_0",
            "receivedTime" : "397.920000017621",
            "sslStart" : -1,
            "dnsStart" : -1,
            "receiveLast" : 375.920000017621,
            "s_time" : 0,
            "sendEnd" : 7,
            "sendStart" : 6,
            "type" : "text/html"
         }
      },
      {
         "when_comp_start" : -1,
         "url" : "http://txt.go.sohu.com/ip/soip",
         "id" : "r4",
         "comps" : [
            {
               "s_time" : 1876.16099999286,
               "time" : 6.04200002272,
               "type" : 1,
               "id" : "comp_10",
               "e_time" : 1882.20300001558
            }
         ],
         "download" : {
            "receiveFirst" : 553,
            "len" : 679,
            "dns" : 842,
            "dnsEnd" : 863,
            "receiveHeadersEnd" : 1421,
            "sslEnd" : -1,
            "connectEnd" : 868,
            "connectStart" : 0,
            "id" : "download_1",
            "receivedTime" : "1632.69100000616",
            "sslStart" : -1,
            "dnsStart" : 21,
            "receiveLast" : 211.691000006162,
            "s_time" : 167.236999957822,
            "sendEnd" : 868,
            "sendStart" : 868,
            "type" : "application/x-javascript"
         }
      },
      {
         "when_comp_start" : -1,
         "url" : "http://www.sohu.com/upload/style/global130716.css",
         "id" : "r5",
         "comps" : [
            {
               "s_time" : 1637.78800005093,
               "time" : 0.182999996470016,
               "type" : 4,
               "id" : "comp_1",
               "e_time" : 1637.9710000474
            }
         ],
         "download" : {
            "receiveFirst" : 412,
            "len" : 3872,
            "dns" : 752,
            "dnsEnd" : 764,
            "receiveHeadersEnd" : 1425,
            "sslEnd" : -1,
            "connectEnd" : 1012,
            "connectStart" : 0,
            "id" : "download_2",
            "receivedTime" : "1637.54400005564",
            "sslStart" : -1,
            "dnsStart" : 12,
            "receiveLast" : 212.544000055641,
            "s_time" : 167.664000065997,
            "sendEnd" : 1013,
            "sendStart" : 1012,
            "type" : "text/css"
         }
      },
      {
         "when_comp_start" : -1,
         "url" : "http://news.sohu.com/upload/itoolbar/index/itoolbar.2014071411.css",
         "id" : "r8",
         "comps" : [
            {
               "s_time" : 1673.79799997434,
               "time" : 0.51899999379998,
               "type" : 4,
               "id" : "comp_3",
               "e_time" : 1674.31699996814
            }
         ],
         "download" : {
            "receiveFirst" : 415,
            "len" : 27826,
            "dns" : 723,
            "dnsEnd" : 762,
            "receiveHeadersEnd" : 1424,
            "sslEnd" : -1,
            "connectEnd" : 1009,
            "connectStart" : 0,
            "id" : "download_3",
            "receivedTime" : "1672.94399999082",
            "sslStart" : -1,
            "dnsStart" : 39,
            "receiveLast" : 248.943999990821,
            "s_time" : 168.733000056818,
            "sendEnd" : 1009,
            "sendStart" : 1009,
            "type" : "text/css"
         }
      },
      {
         "when_comp_start" : -1,
         "url" : "http://www.sohu.com/upload/style/layout130716.css",
         "id" : "r6",
         "comps" : [
            {
               "s_time" : 1647.43100001942,
               "time" : 0.153000000869952,
               "type" : 4,
               "id" : "comp_2",
               "e_time" : 1647.58400002029
            }
         ],
         "download" : {
            "receiveFirst" : 412,
            "len" : 4081,
            "dns" : 742,
            "dnsEnd" : 764,
            "receiveHeadersEnd" : 1432,
            "sslEnd" : -1,
            "connectEnd" : 1019,
            "connectStart" : 0,
            "id" : "download_4",
            "receivedTime" : "1647.18700002413",
            "sslStart" : -1,
            "dnsStart" : 22,
            "receiveLast" : 215.187000024132,
            "s_time" : 168.031000066549,
            "sendEnd" : 1020,
            "sendStart" : 1019,
            "type" : "text/css"
         }
      },
      {
         "when_comp_start" : -1,
         "url" : "http://js.sohu.com/pv/pvclick1211071116.js",
         "id" : "r3",
         "comps" : [
            {
               "s_time" : 1867.18800000381,
               "time" : 6.86700001824011,
               "type" : 1,
               "id" : "comp_7",
               "e_time" : 1874.05500002205
            }
         ],
         "download" : {
            "receiveFirst" : 420,
            "len" : 5007,
            "dns" : 749,
            "dnsEnd" : 768,
            "receiveHeadersEnd" : 1440,
            "sslEnd" : -1,
            "connectEnd" : 1019,
            "connectStart" : 0,
            "id" : "download_5",
            "receivedTime" : "1648.59100000467",
            "sslStart" : -1,
            "dnsStart" : 19,
            "receiveLast" : 208.591000004672,
            "s_time" : 166.778999962844,
            "sendEnd" : 1020,
            "sendStart" : 1019,
            "type" : "application/x-javascript"
         }
      },
      {
         "when_comp_start" : 1,
         "url" : "http://images.sohu.com/saf/static/2/1000082.shtml",
         "id" : "r10",
         "comps" : [
            {
               "s_time" : 2109.16200000793,
               "time" : 4.57800005096988,
               "type" : 1,
               "id" : "comp_16",
               "e_time" : 2113.7400000589
            }
         ],
         "download" : {
            "receiveFirst" : 422,
            "len" : 13407,
            "dns" : 711,
            "dnsEnd" : 757,
            "receiveHeadersEnd" : 1436,
            "sslEnd" : -1,
            "connectEnd" : 1013,
            "connectStart" : 0,
            "id" : "download_6",
            "receivedTime" : "1652.83300005831",
            "sslStart" : -1,
            "dnsStart" : 46,
            "receiveLast" : 216.833000058308,
            "s_time" : 169.587000040337,
            "sendEnd" : 1014,
            "sendStart" : 1013,
            "type" : "text/html"
         }
      },
      {
         "when_comp_start" : -1,
         "url" : "http://news.sohu.com/upload/itoolbar/itoolbar.index.loader.20140923.js",
         "id" : "r9",
         "comps" : [
            {
               "s_time" : 1982.27000003681,
               "time" : 61.5850000176501,
               "type" : 1,
               "id" : "comp_12",
               "e_time" : 2043.85500005446
            }
         ],
         "download" : {
            "receiveFirst" : 422,
            "len" : 7192,
            "dns" : 719,
            "dnsEnd" : 761,
            "receiveHeadersEnd" : 1441,
            "sslEnd" : -1,
            "connectEnd" : 1019,
            "connectStart" : 0,
            "id" : "download_7",
            "receivedTime" : "1856.35500005446",
            "sslStart" : -1,
            "dnsStart" : 42,
            "receiveLast" : 415.355000054464,
            "s_time" : 169.099000049755,
            "sendEnd" : 1019,
            "sendStart" : 1019,
            "type" : "application/x-javascript"
         }
      },
      {
         "when_comp_start" : -1,
         "url" : "http://www.sohu.com/upload/style/style150302.css",
         "id" : "r7",
         "comps" : [
            {
               "s_time" : 1681.82499997783,
               "time" : 2.19700008166001,
               "type" : 4,
               "id" : "comp_4",
               "e_time" : 1684.02200005949
            }
         ],
         "download" : {
            "receiveFirst" : 425,
            "len" : 56254,
            "dns" : 735,
            "dnsEnd" : 762,
            "receiveHeadersEnd" : 1447,
            "sslEnd" : -1,
            "connectEnd" : 1022,
            "connectStart" : 0,
            "id" : "download_8",
            "receivedTime" : "1680.9399999911",
            "sslStart" : -1,
            "dnsStart" : 27,
            "receiveLast" : 233.939999991097,
            "s_time" : 168.397000059485,
            "sendEnd" : 1022,
            "sendStart" : 1022,
            "type" : "text/css"
         }
      },
      {
         "when_comp_start" : -1,
         "url" : "http://images.sohu.com/bill/s2012/gates/all/sohuad2012v15.js",
         "id" : "r11",
         "comps" : [
            {
               "s_time" : 2184.23500005156,
               "time" : 112.45799995959,
               "type" : 1,
               "id" : "comp_24",
               "e_time" : 2296.69300001115
            }
         ],
         "download" : {
            "receiveFirst" : 427,
            "len" : 11504,
            "dns" : 708,
            "dnsEnd" : 757,
            "receiveHeadersEnd" : 1447,
            "sslEnd" : -1,
            "connectEnd" : 1020,
            "connectStart" : 0,
            "id" : "download_9",
            "receivedTime" : "2183.96100006066",
            "sslStart" : -1,
            "dnsStart" : 49,
            "receiveLast" : 736.961000060663,
            "s_time" : 171.876000007614,
            "sendEnd" : 1020,
            "sendStart" : 1020,
            "type" : "application/x-javascript"
         }
      },
      {
         "when_comp_start" : -1,
         "url" : "http://www.sohu.com/sohuflash_1.js",
         "id" : "r2",
         "comps" : [
            {
               "s_time" : 1860.35199998878,
               "time" : 5.03600004595,
               "type" : 1,
               "id" : "comp_5",
               "e_time" : 1865.38800003473
            }
         ],
         "download" : {
            "receiveFirst" : 428,
            "len" : 7442,
            "dns" : 739,
            "dnsEnd" : 768,
            "receiveHeadersEnd" : 1461,
            "sslEnd" : -1,
            "connectEnd" : 1033,
            "connectStart" : 0,
            "id" : "download_10",
            "receivedTime" : "1859.52800000086",
            "sslStart" : -1,
            "dnsStart" : 29,
            "receiveLast" : 398.528000000864,
            "s_time" : 165.893999976106,
            "sendEnd" : 1033,
            "sendStart" : 1033,
            "type" : "application/x-javascript"
         }
      },
      {
         "when_comp_start" : -1,
         "url" : "http://news.sohu.com/upload/itoolbar/index/toolbar_logo.png",
         "id" : "r12",
         "comps" : [],
         "download" : {
            "receiveFirst" : 311,
            "len" : 2649,
            "dns" : 0,
            "dnsEnd" : -1,
            "receiveHeadersEnd" : 322,
            "sslEnd" : -1,
            "connectEnd" : 11,
            "connectStart" : 0,
            "id" : "download_11",
            "receivedTime" : "2331.72699995339",
            "sslStart" : -1,
            "dnsStart" : -1,
            "receiveLast" : 2009.72699995339,
            "s_time" : 1995.83500006702,
            "sendEnd" : 11,
            "sendStart" : 11,
            "type" : "image/png"
         }
      },
      {
         "when_comp_start" : -1,
         "url" : "http://news.sohu.com/upload/itoolbar/itoolbar.index.20140923.js",
         "id" : "r13",
         "comps" : [],
         "download" : {
            "receiveFirst" : 280,
            "len" : 35263,
            "dns" : 0,
            "dnsEnd" : -1,
            "receiveHeadersEnd" : 301,
            "sslEnd" : -1,
            "connectEnd" : 21,
            "connectStart" : 0,
            "id" : "download_12",
            "receivedTime" : "2349.64100003708",
            "sslStart" : -1,
            "dnsStart" : -1,
            "receiveLast" : 2048.64100003708,
            "s_time" : 2020.72200004477,
            "sendEnd" : 21,
            "sendStart" : 21,
            "type" : "application/x-javascript"
         }
      },
      {
         "when_comp_start" : -1,
         "url" : "http://www.sohu.com/upload/images20140108/sohulogo.png",
         "id" : "r17",
         "comps" : [],
         "download" : {
            "receiveFirst" : 252,
            "len" : 3431,
            "dns" : 0,
            "dnsEnd" : -1,
            "receiveHeadersEnd" : 258,
            "sslEnd" : -1,
            "connectEnd" : 6,
            "connectStart" : 0,
            "id" : "download_13",
            "receivedTime" : "2419.77000003681",
            "sslStart" : -1,
            "dnsStart" : -1,
            "receiveLast" : 2161.77000003681,
            "s_time" : 2154.00700003374,
            "sendEnd" : 6,
            "sendStart" : 6,
            "type" : "image/png"
         }
      },
      {
         "when_comp_start" : -1,
         "url" : "http://www.sohu.com/upload/images20130716/bg01.png",
         "id" : "r18",
         "comps" : [],
         "download" : {
            "receiveFirst" : 264,
            "len" : 614,
            "dns" : 0,
            "dnsEnd" : -1,
            "receiveHeadersEnd" : 269,
            "sslEnd" : -1,
            "connectEnd" : 5,
            "connectStart" : 0,
            "id" : "download_14",
            "receivedTime" : "2432.15999996755",
            "sslStart" : -1,
            "dnsStart" : -1,
            "receiveLast" : 2163.15999996755,
            "s_time" : 2158.60099997371,
            "sendEnd" : 5,
            "sendStart" : 5,
            "type" : "image/png"
         }
      },
      {
         "when_comp_start" : -1,
         "url" : "http://images.sohu.com/bill/default/sohu-require.js",
         "id" : "r19",
         "comps" : [],
         "download" : {
            "receiveFirst" : 266,
            "len" : 13076,
            "dns" : 0,
            "dnsEnd" : -1,
            "receiveHeadersEnd" : 276,
            "sslEnd" : -1,
            "connectEnd" : 10,
            "connectStart" : 0,
            "id" : "download_15",
            "receivedTime" : "2463.95999996457",
            "sslStart" : -1,
            "dnsStart" : -1,
            "receiveLast" : 2187.95999996457,
            "s_time" : 2182.58799996693,
            "sendEnd" : 10,
            "sendStart" : 10,
            "type" : "application/x-javascript"
         }
      }
   ],
   "deps" : [
      {
         "a2" : "r1_c2",
         "time" : -1,
         "id" : "dep1",
         "a1" : "comp_5"
      },
      {
         "a2" : "r1_c3",
         "time" : -1,
         "id" : "dep2",
         "a1" : "comp_7"
      },
      {
         "a2" : "r1_c4",
         "time" : -1,
         "id" : "dep3",
         "a1" : "comp_10"
      },
      {
         "a2" : "r1_c5",
         "time" : -1,
         "id" : "dep4",
         "a1" : "comp_12"
      },
      {
         "a2" : "r1_c6",
         "time" : -1,
         "id" : "dep5",
         "a1" : "comp_16"
      },
      {
         "a2" : "r1_c7",
         "time" : -1,
         "id" : "dep6",
         "a1" : "comp_24"
      },
      {
         "a2" : "comp_12",
         "time" : -1,
         "id" : "dep7",
         "a1" : "comp_10"
      },
      {
         "a2" : "comp_12",
         "time" : -1,
         "id" : "dep8",
         "a1" : "comp_1"
      },
      {
         "a2" : "comp_12",
         "time" : -1,
         "id" : "dep9",
         "a1" : "comp_2"
      },
      {
         "a2" : "comp_12",
         "time" : -1,
         "id" : "dep10",
         "a1" : "comp_4"
      },
      {
         "a2" : "comp_12",
         "time" : -1,
         "id" : "dep11",
         "a1" : "comp_3"
      },
      {
         "a2" : "comp_24",
         "time" : -1,
         "id" : "dep12",
         "a1" : "comp_16"
      },
      {
         "a2" : "download_15",
         "time" : -1,
         "id" : "dep13",
         "a1" : "r1_c6"
      },
      {
         "a2" : "download_15",
         "time" : 68.84799990803,
         "id" : "dep14",
         "a1" : "r1_c6"
      },
      {
         "a2" : "download_14",
         "time" : 44.8609999148098,
         "id" : "dep15",
         "a1" : "r1_c6"
      },
      {
         "a2" : "download_13",
         "time" : 40.26699997484,
         "id" : "dep16",
         "a1" : "r1_c6"
      },
      {
         "a2" : "download_12",
         "time" : -1,
         "id" : "dep17",
         "a1" : "r1_c4"
      },
      {
         "a2" : "download_11",
         "time" : 113.63200005144,
         "id" : "dep18",
         "a1" : "r1_c4"
      },
      {
         "a2" : "download_10",
         "time" : -1,
         "id" : "dep19",
         "a1" : "r1_c1"
      },
      {
         "a2" : "download_9",
         "time" : -1,
         "id" : "dep20",
         "a1" : "r1_c1"
      },
      {
         "a2" : "download_9",
         "time" : 9.33899998199101,
         "id" : "dep21",
         "a1" : "r1_c1"
      },
      {
         "a2" : "download_8",
         "time" : 5.86000003386201,
         "id" : "dep22",
         "a1" : "r1_c1"
      },
      {
         "a2" : "download_8",
         "time" : 5.86000003386201,
         "id" : "dep23",
         "a1" : "r1_c1"
      },
      {
         "a2" : "download_7",
         "time" : 6.562000024132,
         "id" : "dep24",
         "a1" : "r1_c1"
      },
      {
         "a2" : "download_7",
         "time" : 6.562000024132,
         "id" : "dep25",
         "a1" : "r1_c1"
      },
      {
         "a2" : "download_6",
         "time" : 7.05000001471399,
         "id" : "dep26",
         "a1" : "r1_c1"
      },
      {
         "a2" : "download_6",
         "time" : 7.05000001471399,
         "id" : "dep27",
         "a1" : "r1_c1"
      },
      {
         "a2" : "download_5",
         "time" : 4.24199993722101,
         "id" : "dep28",
         "a1" : "r1_c1"
      },
      {
         "a2" : "download_5",
         "time" : 4.24199993722101,
         "id" : "dep29",
         "a1" : "r1_c1"
      },
      {
         "a2" : "download_4",
         "time" : 5.49400004092601,
         "id" : "dep30",
         "a1" : "r1_c1"
      },
      {
         "a2" : "download_4",
         "time" : 5.49400004092601,
         "id" : "dep31",
         "a1" : "r1_c1"
      },
      {
         "a2" : "download_3",
         "time" : 6.19600003119501,
         "id" : "dep32",
         "a1" : "r1_c1"
      },
      {
         "a2" : "download_3",
         "time" : 6.19600003119501,
         "id" : "dep33",
         "a1" : "r1_c1"
      },
      {
         "a2" : "download_2",
         "time" : 5.12700004037399,
         "id" : "dep34",
         "a1" : "r1_c1"
      },
      {
         "a2" : "download_2",
         "time" : 5.12700004037399,
         "id" : "dep35",
         "a1" : "r1_c1"
      },
      {
         "a2" : "download_1",
         "time" : 4.69999993219901,
         "id" : "dep36",
         "a1" : "r1_c1"
      },
      {
         "a2" : "download_1",
         "time" : 4.69999993219901,
         "id" : "dep37",
         "a1" : "r1_c1"
      }
   ]
}
