{
   "n_download_no_trigger" : 1,
   "start_activity" : "download_0",
   "name" : "original.testbed.localhost_www.yandex.ru_",
   "load_activity" : -1,
   "objs" : [
      {
         "when_comp_start" : 1,
         "url" : "http://original.testbed.localhost/www.yandex.ru/",
         "id" : "r20",
         "comps" : [
            {
               "s_time" : 56.2589999753982,
               "time" : 98.1140000512828,
               "type" : "evalhtml",
               "id" : "r20_c1",
               "e_time" : 154.373000026681
            }
         ],
         "download" : {
            "receiveFirst" : 6,
            "len" : 32768,
            "dns" : 0,
            "dnsEnd" : -1,
            "receiveHeadersEnd" : 11,
            "sslEnd" : -1,
            "connectEnd" : 5,
            "connectStart" : 0,
            "id" : "download_0",
            "receivedTime" : "220.412999973632",
            "sslStart" : -1,
            "dnsStart" : -1,
            "receiveLast" : 209.412999973632,
            "s_time" : 0,
            "sendEnd" : 5,
            "sendStart" : 5,
            "type" : "text/html"
         }
      }
   ],
   "deps" : []
}
