{
   "name" : "original.testbed.localhost_www.msn.com_",
   "n_download_no_trigger" : 1,
   "deps" : [
      {
         "a2" : "r1_c2",
         "time" : -1,
         "a1" : "comp_4",
         "id" : "dep1"
      },
      {
         "a2" : "r1_c3",
         "time" : -1,
         "id" : "dep2",
         "a1" : "comp_6"
      },
      {
         "a1" : "comp_4",
         "time" : -1,
         "id" : "dep3",
         "a2" : "comp_6"
      },
      {
         "a2" : "download_23",
         "a1" : "r1_c2",
         "time" : -1,
         "id" : "dep4"
      },
      {
         "time" : -1,
         "id" : "dep5",
         "a1" : "r1_c3",
         "a2" : "download_22"
      },
      {
         "a2" : "download_21",
         "time" : 19.008000032045,
         "id" : "dep6",
         "a1" : "r1_c3"
      },
      {
         "a2" : "download_20",
         "id" : "dep7",
         "time" : 1.072999963071,
         "a1" : "r1_c2"
      },
      {
         "time" : 18.278000003193,
         "id" : "dep8",
         "a1" : "r1_c3",
         "a2" : "download_19"
      },
      {
         "a2" : "download_18",
         "a1" : "r1_c3",
         "time" : 18.085999996401,
         "id" : "dep9"
      },
      {
         "a2" : "download_17",
         "time" : 0.830999983008994,
         "id" : "dep10",
         "a1" : "r1_c2"
      },
      {
         "a2" : "download_16",
         "id" : "dep11",
         "time" : 14.10000002943,
         "a1" : "r1_c3"
      },
      {
         "a2" : "download_15",
         "a1" : "r1_c1",
         "time" : -1,
         "id" : "dep12"
      },
      {
         "a2" : "download_14",
         "a1" : "r1_c1",
         "time" : 48.1530000106431,
         "id" : "dep13"
      },
      {
         "a2" : "download_13",
         "time" : 48.0920000118203,
         "a1" : "r1_c1",
         "id" : "dep14"
      },
      {
         "time" : 48.0399999651126,
         "a1" : "r1_c1",
         "id" : "dep15",
         "a2" : "download_12"
      },
      {
         "a2" : "download_11",
         "time" : 47.9259999701753,
         "a1" : "r1_c1",
         "id" : "dep16"
      },
      {
         "a2" : "download_10",
         "id" : "dep17",
         "time" : 47.9949999717064,
         "a1" : "r1_c1"
      },
      {
         "time" : 47.8780000121332,
         "a1" : "r1_c1",
         "id" : "dep18",
         "a2" : "download_9"
      },
      {
         "a1" : "r1_c1",
         "time" : 47.7379999938421,
         "id" : "dep19",
         "a2" : "download_8"
      },
      {
         "a2" : "download_7",
         "time" : 47.7940000128001,
         "id" : "dep20",
         "a1" : "r1_c1"
      },
      {
         "id" : "dep21",
         "time" : 47.6419999613426,
         "a1" : "r1_c1",
         "a2" : "download_6"
      },
      {
         "a1" : "r1_c1",
         "time" : 43.7420000089332,
         "id" : "dep22",
         "a2" : "download_5"
      },
      {
         "a2" : "download_4",
         "time" : 0.609999988227997,
         "id" : "dep23",
         "a1" : "r1_c1"
      },
      {
         "a2" : "download_4",
         "time" : 0.609999988227997,
         "id" : "dep24",
         "a1" : "r1_c1"
      },
      {
         "a2" : "download_3",
         "id" : "dep25",
         "time" : 0.748999998904701,
         "a1" : "r1_c1"
      },
      {
         "a2" : "download_3",
         "time" : 0.748999998904701,
         "id" : "dep26",
         "a1" : "r1_c1"
      },
      {
         "a2" : "download_2",
         "time" : 0.528000004123896,
         "a1" : "r1_c1",
         "id" : "dep27"
      },
      {
         "time" : 0.528000004123896,
         "a1" : "r1_c1",
         "id" : "dep28",
         "a2" : "download_2"
      },
      {
         "a2" : "download_1",
         "time" : 0.408999971114099,
         "id" : "dep29",
         "a1" : "r1_c1"
      }
   ],
   "load_activity" : -1,
   "start_activity" : "download_0",
   "objs" : [
      {
         "comps" : [
            {
               "type" : "evalhtml",
               "s_time" : 33.8300000294112,
               "id" : "r1_c1",
               "time" : 65.2479999698698,
               "e_time" : 99.077999999281
            },
            {
               "type" : "evalhtml",
               "s_time" : 102.973000030033,
               "time" : 1.23599998187299,
               "id" : "r1_c2",
               "e_time" : 104.209000011906
            },
            {
               "s_time" : 105.666999996174,
               "type" : "evalhtml",
               "time" : 19.23600002192,
               "e_time" : 124.903000018094,
               "id" : "r1_c3"
            }
         ],
         "when_comp_start" : 1,
         "url" : "http://original.testbed.localhost/www.msn.com/",
         "id" : "r1",
         "download" : {
            "receiveLast" : 11.7300000246614,
            "dnsStart" : -1,
            "receiveFirst" : 22,
            "dnsEnd" : -1,
            "connectStart" : 0,
            "receiveHeadersEnd" : 22,
            "receivedTime" : "33.7300000246614",
            "connectEnd" : 0,
            "sendEnd" : 0,
            "type" : "text/html",
            "len" : 41693,
            "sendStart" : 0,
            "sslStart" : -1,
            "sslEnd" : -1,
            "s_time" : 0,
            "id" : "download_0",
            "dns" : 0
         }
      },
      {
         "download" : {
            "connectStart" : 0,
            "receiveHeadersEnd" : 23,
            "dnsStart" : -1,
            "receiveLast" : 34.9420000431128,
            "dnsEnd" : -1,
            "receiveFirst" : 21,
            "len" : 27817,
            "sendStart" : 2,
            "sslStart" : -1,
            "s_time" : 34.2390000005253,
            "sslEnd" : -1,
            "id" : "download_1",
            "dns" : 0,
            "connectEnd" : 2,
            "receivedTime" : "57.9420000431128",
            "sendEnd" : 2,
            "type" : "text/css"
         },
         "url" : "http://original.testbed.localhost/static-hp-cus-s-msn-com.akamaized.net/en-us/homepage/_sc/css/6670b51d-8b551b9/direction=ltr.locales=en-us.themes=start.dpi=resolution1x/22-8b3778-4e3b0a9b/d8-522cc0-ee5f2b10/ab-6aa96e-536df121/be-bfcb4e-f94d3276/e5-9490ae-a648eab2/1e-eed555-63b61fa3/3e-07643f-68ddb2",
         "id" : "r2",
         "comps" : [],
         "when_comp_start" : -1
      },
      {
         "download" : {
            "receivedTime" : "81.6240000422113",
            "connectEnd" : 2,
            "sendEnd" : 2,
            "type" : "application/javascript",
            "len" : 95786,
            "sendStart" : 2,
            "sslStart" : -1,
            "sslEnd" : -1,
            "s_time" : 34.3580000335351,
            "id" : "download_2",
            "dns" : 0,
            "receiveLast" : 55.6240000422113,
            "dnsStart" : -1,
            "receiveFirst" : 24,
            "dnsEnd" : -1,
            "connectStart" : 0,
            "receiveHeadersEnd" : 26
         },
         "url" : "http://original.testbed.localhost/static-hp-cus-s-msn-com.akamaized.net/_h/804ff984/webcore/externalscripts/jquery/jquery-1.11.1.min.js",
         "id" : "r3",
         "comps" : [
            {
               "type" : 1,
               "s_time" : 81.6709999926388,
               "time" : 21.3020000373942,
               "e_time" : 102.973000030033,
               "id" : "comp_4"
            }
         ],
         "when_comp_start" : -1
      },
      {
         "download" : {
            "connectStart" : 0,
            "receiveHeadersEnd" : 42,
            "dnsEnd" : 1,
            "receiveFirst" : 20,
            "dnsStart" : 1,
            "receiveLast" : 35.7390000293963,
            "sslEnd" : -1,
            "s_time" : 34.5790000283159,
            "id" : "download_3",
            "dns" : 0,
            "len" : 1177,
            "sendStart" : 22,
            "sslStart" : -1,
            "type" : "image/gif",
            "connectEnd" : 22,
            "receivedTime" : "77.7390000293963",
            "sendEnd" : 22
         },
         "id" : "r5",
         "url" : "http://original.testbed.localhost/static-hp-cus-s-msn-com.akamaized.net/sc/82/c22c7d.gif",
         "when_comp_start" : -1,
         "comps" : []
      },
      {
         "id" : "r4",
         "url" : "http://original.testbed.localhost/ads1.msads.net/library/8.4/dapmsn.js",
         "download" : {
            "connectStart" : 0,
            "receiveHeadersEnd" : 43,
            "dnsEnd" : 1,
            "receiveFirst" : 21,
            "receiveLast" : 35.9840000215918,
            "dnsStart" : 1,
            "sslEnd" : -1,
            "s_time" : 34.4400000176392,
            "dns" : 0,
            "id" : "download_4",
            "len" : 25578,
            "sslStart" : -1,
            "sendStart" : 22,
            "type" : "application/javascript",
            "connectEnd" : 22,
            "receivedTime" : "78.9840000215918",
            "sendEnd" : 22
         },
         "comps" : [
            {
               "type" : 1,
               "s_time" : 103.051999991294,
               "time" : 2.61500000488,
               "e_time" : 105.666999996174,
               "id" : "comp_6"
            }
         ],
         "when_comp_start" : -1
      },
      {
         "id" : "r6",
         "url" : "http://original.testbed.localhost/static-hp-cus-s-msn-com.akamaized.net/sc/6a/a62410.gif",
         "download" : {
            "type" : "image/gif",
            "sendEnd" : 0,
            "connectEnd" : 0,
            "receivedTime" : "146.936000033747",
            "id" : "download_5",
            "dns" : 0,
            "sslEnd" : -1,
            "s_time" : 77.5720000383444,
            "sendStart" : 0,
            "sslStart" : -1,
            "len" : 1258,
            "dnsEnd" : -1,
            "receiveFirst" : 21,
            "dnsStart" : -1,
            "receiveLast" : 125.936000033747,
            "receiveHeadersEnd" : 21,
            "connectStart" : 0
         },
         "when_comp_start" : -1,
         "comps" : []
      },
      {
         "id" : "r7",
         "url" : "http://original.testbed.localhost/static-hp-cus-s-msn-com.akamaized.net/sc/57/a49b8d.gif",
         "download" : {
            "s_time" : 81.4719999907538,
            "sslEnd" : -1,
            "dns" : 0,
            "id" : "download_6",
            "len" : 1125,
            "sslStart" : -1,
            "sendStart" : 1,
            "type" : "image/gif",
            "receivedTime" : "147.166000038851",
            "connectEnd" : 1,
            "sendEnd" : 1,
            "connectStart" : 0,
            "receiveHeadersEnd" : 22,
            "dnsEnd" : -1,
            "receiveFirst" : 21,
            "receiveLast" : 125.166000038851,
            "dnsStart" : -1
         },
         "when_comp_start" : -1,
         "comps" : []
      },
      {
         "id" : "r9",
         "url" : "http://original.testbed.localhost/img-s-msn-com.akamaized.net/tenant/amp/entityid/BBsL7li.img%3Fh=194&w=300&m=6&q=60&u=t&o=t&l=f&x=1242&y=652",
         "download" : {
            "len" : 8526,
            "sslStart" : -1,
            "sendStart" : 1,
            "sslEnd" : -1,
            "s_time" : 81.6240000422113,
            "dns" : 0,
            "id" : "download_7",
            "receivedTime" : "147.085000004154",
            "connectEnd" : 1,
            "sendEnd" : 1,
            "type" : "image/jpeg",
            "connectStart" : 0,
            "receiveHeadersEnd" : 21,
            "receiveLast" : 126.085000004154,
            "dnsStart" : -1,
            "dnsEnd" : -1,
            "receiveFirst" : 20
         },
         "comps" : [],
         "when_comp_start" : -1
      },
      {
         "when_comp_start" : -1,
         "comps" : [],
         "id" : "r8",
         "url" : "http://original.testbed.localhost/img-s-msn-com.akamaized.net/tenant/amp/entityid/BB8Mpuh.img%3Fm=6&o=true&u=true&n=true&w=40&h=40",
         "download" : {
            "s_time" : 81.5680000232533,
            "sslEnd" : -1,
            "id" : "download_8",
            "dns" : 0,
            "len" : 1093,
            "sendStart" : 1,
            "sslStart" : -1,
            "type" : "image/png",
            "receivedTime" : "147.256000025664",
            "connectEnd" : 1,
            "sendEnd" : 1,
            "connectStart" : 0,
            "receiveHeadersEnd" : 22,
            "dnsEnd" : -1,
            "receiveFirst" : 21,
            "dnsStart" : -1,
            "receiveLast" : 125.256000025664
         }
      },
      {
         "when_comp_start" : -1,
         "comps" : [],
         "download" : {
            "dnsEnd" : -1,
            "receiveFirst" : 20,
            "dnsStart" : -1,
            "receiveLast" : 110.408000018913,
            "receiveHeadersEnd" : 37,
            "connectStart" : 0,
            "type" : "image/jpeg",
            "sendEnd" : 17,
            "receivedTime" : "147.408000018913",
            "connectEnd" : 17,
            "dns" : 0,
            "id" : "download_9",
            "s_time" : 81.7080000415444,
            "sslEnd" : -1,
            "sslStart" : -1,
            "sendStart" : 17,
            "len" : 8103
         },
         "url" : "http://original.testbed.localhost/img-s-msn-com.akamaized.net/tenant/amp/entityid/BBsL2iR.img%3Fh=194&w=300&m=6&q=60&u=t&o=t&l=f&x=1005&y=884",
         "id" : "r10"
      },
      {
         "download" : {
            "receiveHeadersEnd" : 41,
            "connectStart" : 0,
            "dnsEnd" : 0,
            "receiveFirst" : 20,
            "dnsStart" : 0,
            "receiveLast" : 106.675000014715,
            "id" : "download_10",
            "dns" : 0,
            "sslEnd" : -1,
            "s_time" : 81.8250000011176,
            "sendStart" : 21,
            "sslStart" : -1,
            "len" : 45880,
            "type" : "image/gif",
            "sendEnd" : 21,
            "connectEnd" : 21,
            "receivedTime" : "147.675000014715"
         },
         "id" : "r12",
         "url" : "http://original.testbed.localhost/img-s-msn-com.akamaized.net/tenant/amp/entityid/BBsGk2J.img%3Fh=194&w=300&m=6&q=60&u=t&o=t&l=f&x=1523&y=500",
         "comps" : [],
         "when_comp_start" : -1
      },
      {
         "download" : {
            "type" : "image/jpeg",
            "sendEnd" : 21,
            "connectEnd" : 21,
            "receivedTime" : "147.60299999034",
            "dns" : 0,
            "id" : "download_11",
            "s_time" : 81.7559999995865,
            "sslEnd" : -1,
            "sslStart" : -1,
            "sendStart" : 21,
            "len" : 8751,
            "dnsEnd" : 0,
            "receiveFirst" : 20,
            "dnsStart" : 0,
            "receiveLast" : 106.60299999034,
            "receiveHeadersEnd" : 41,
            "connectStart" : 0
         },
         "url" : "http://original.testbed.localhost/img-s-msn-com.akamaized.net/tenant/amp/entityid/BBrmsWW.img%3Fh=194&w=300&m=6&q=60&u=t&o=t&l=f&x=779&y=779",
         "id" : "r11",
         "comps" : [],
         "when_comp_start" : -1
      },
      {
         "comps" : [],
         "when_comp_start" : -1,
         "download" : {
            "type" : "image/jpeg",
            "receivedTime" : "147.760000021663",
            "connectEnd" : 22,
            "sendEnd" : 22,
            "s_time" : 81.8699999945238,
            "sslEnd" : -1,
            "dns" : 0,
            "id" : "download_12",
            "len" : 9862,
            "sslStart" : -1,
            "sendStart" : 22,
            "dnsEnd" : -1,
            "receiveFirst" : 20,
            "dnsStart" : -1,
            "receiveLast" : 105.760000021663,
            "connectStart" : 0,
            "receiveHeadersEnd" : 42
         },
         "id" : "r13",
         "url" : "http://original.testbed.localhost/img-s-msn-com.akamaized.net/tenant/amp/entityid/BBsJ4UA.img%3Fh=194&w=300&m=6&q=60&u=t&o=t&l=f&x=470&y=298"
      },
      {
         "download" : {
            "sendStart" : 22,
            "sslStart" : -1,
            "len" : 9195,
            "id" : "download_13",
            "dns" : 0,
            "s_time" : 81.9220000412315,
            "sslEnd" : -1,
            "sendEnd" : 22,
            "connectEnd" : 22,
            "receivedTime" : "147.862000041641",
            "type" : "image/jpeg",
            "receiveHeadersEnd" : 42,
            "connectStart" : 0,
            "dnsStart" : -1,
            "receiveLast" : 105.862000041641,
            "receiveFirst" : 20,
            "dnsEnd" : -1
         },
         "id" : "r14",
         "url" : "http://original.testbed.localhost/img-s-msn-com.akamaized.net/tenant/amp/entityid/BBsKWpa.img%3Fh=194&w=300&m=6&q=60&u=t&o=t&l=f&x=1126&y=961",
         "comps" : [],
         "when_comp_start" : -1
      },
      {
         "id" : "r15",
         "url" : "http://original.testbed.localhost/img-s-msn-com.akamaized.net/tenant/amp/entityid/BBsiHOD.img%3Fh=194&w=300&m=6&q=60&u=t&o=t&l=f&x=1007&y=694",
         "download" : {
            "sendEnd" : 22,
            "receivedTime" : "147.965000011027",
            "connectEnd" : 22,
            "type" : "image/jpeg",
            "sendStart" : 22,
            "sslStart" : -1,
            "len" : 6580,
            "id" : "download_14",
            "dns" : 0,
            "sslEnd" : -1,
            "s_time" : 81.9830000400543,
            "receiveLast" : 105.965000011027,
            "dnsStart" : -1,
            "dnsEnd" : -1,
            "receiveFirst" : 20,
            "receiveHeadersEnd" : 42,
            "connectStart" : 0
         },
         "when_comp_start" : -1,
         "comps" : []
      },
      {
         "url" : "http://original.testbed.localhost/img-s-msn-com.akamaized.net/tenant/amp/entityid/BBsIma9.img%3Fh=194&w=300&m=6&q=60&u=t&o=t&l=f&x=1325&y=838",
         "id" : "r16",
         "download" : {
            "connectEnd" : 20,
            "receivedTime" : "148.057000013068",
            "sendEnd" : 20,
            "type" : "image/jpeg",
            "len" : 11426,
            "sslStart" : -1,
            "sendStart" : 20,
            "s_time" : 99.077999999281,
            "sslEnd" : -1,
            "dns" : 0,
            "id" : "download_15",
            "dnsStart" : -1,
            "receiveLast" : 107.057000013068,
            "dnsEnd" : -1,
            "receiveFirst" : 21,
            "connectStart" : 0,
            "receiveHeadersEnd" : 41
         },
         "comps" : [],
         "when_comp_start" : -1
      },
      {
         "id" : "r20",
         "url" : "http://original.testbed.localhost/img-s-msn-com.akamaized.net/tenant/amp/entityid/BBsJe6R.img%3Fh=194&w=300&m=6&q=60&u=t&o=t&l=f&x=506&y=334",
         "download" : {
            "dnsStart" : -1,
            "receiveLast" : 124.152000037953,
            "dnsEnd" : -1,
            "receiveFirst" : 21,
            "receiveHeadersEnd" : 24,
            "connectStart" : 0,
            "sendEnd" : 3,
            "receivedTime" : "148.152000037953",
            "connectEnd" : 3,
            "type" : "image/jpeg",
            "sslStart" : -1,
            "sendStart" : 3,
            "len" : 6787,
            "dns" : 0,
            "id" : "download_16",
            "s_time" : 119.767000025604,
            "sslEnd" : -1
         },
         "comps" : [],
         "when_comp_start" : -1
      },
      {
         "when_comp_start" : -1,
         "comps" : [],
         "url" : "http://original.testbed.localhost/img-s-msn-com.akamaized.net/tenant/amp/entityid/BBslzV0.img%3Fh=194&w=300&m=6&q=60&u=t&o=t&l=f&x=384&y=289",
         "id" : "r17",
         "download" : {
            "sslEnd" : -1,
            "s_time" : 103.804000013042,
            "id" : "download_17",
            "dns" : 0,
            "len" : 14562,
            "sendStart" : 19,
            "sslStart" : -1,
            "type" : "image/jpeg",
            "receivedTime" : "148.244999989402",
            "connectEnd" : 19,
            "sendEnd" : 19,
            "connectStart" : 0,
            "receiveHeadersEnd" : 40,
            "receiveFirst" : 21,
            "dnsEnd" : -1,
            "receiveLast" : 108.244999989402,
            "dnsStart" : -1
         }
      },
      {
         "download" : {
            "receiveLast" : 127.348000016995,
            "dnsStart" : -1,
            "receiveFirst" : 21,
            "dnsEnd" : -1,
            "connectStart" : 0,
            "receiveHeadersEnd" : 21,
            "connectEnd" : 0,
            "receivedTime" : "148.348000016995",
            "sendEnd" : 0,
            "type" : "image/jpeg",
            "len" : 9591,
            "sslStart" : -1,
            "sendStart" : 0,
            "s_time" : 123.752999992575,
            "sslEnd" : -1,
            "dns" : 0,
            "id" : "download_18"
         },
         "id" : "r21",
         "url" : "http://original.testbed.localhost/img-s-msn-com.akamaized.net/tenant/amp/entityid/BBsHaoE.img%3Fh=194&w=300&m=6&q=60&u=t&o=t&l=f",
         "comps" : [],
         "when_comp_start" : -1
      },
      {
         "id" : "r22",
         "url" : "http://original.testbed.localhost/c.msn.com/c.gif%3Fudc=true&rid=f674810ceb374538978eb3a6b7488ae5&rnd=635982758807524881&rf=&tp=http%25253A%25252F%25252Fwww.msn.com%25252F&di=340&lng=en-us&cv.product=prime&pn=startpage&activityId=f674810ceb374538978eb3a6b7488ae5&d.dgk=downlevel.pc&d.imd=0",
         "download" : {
            "sendEnd" : 1,
            "receivedTime" : "148.462000011932",
            "connectEnd" : 1,
            "type" : "image/gif",
            "sslStart" : -1,
            "sendStart" : 1,
            "len" : 42,
            "dns" : 0,
            "id" : "download_19",
            "s_time" : 123.944999999367,
            "sslEnd" : -1,
            "receiveLast" : 127.462000011932,
            "dnsStart" : -1,
            "receiveFirst" : 20,
            "dnsEnd" : -1,
            "receiveHeadersEnd" : 21,
            "connectStart" : 0
         },
         "when_comp_start" : -1,
         "comps" : []
      },
      {
         "comps" : [],
         "when_comp_start" : -1,
         "id" : "r18",
         "url" : "http://original.testbed.localhost/img-s-msn-com.akamaized.net/tenant/amp/entityid/BBsHK95.img%3Fh=194&w=300&m=6&q=60&u=t&o=t&l=f&x=496&y=381",
         "download" : {
            "connectEnd" : 21,
            "receivedTime" : "148.548000026494",
            "sendEnd" : 21,
            "type" : "image/jpeg",
            "len" : 8960,
            "sendStart" : 21,
            "sslStart" : -1,
            "s_time" : 104.045999993104,
            "sslEnd" : -1,
            "id" : "download_20",
            "dns" : 0,
            "receiveLast" : 107.548000026494,
            "dnsStart" : -1,
            "dnsEnd" : -1,
            "receiveFirst" : 20,
            "connectStart" : 0,
            "receiveHeadersEnd" : 41
         }
      },
      {
         "download" : {
            "dnsStart" : -1,
            "receiveLast" : 125.750000028405,
            "dnsEnd" : -1,
            "receiveFirst" : 21,
            "receiveHeadersEnd" : 36,
            "connectStart" : 0,
            "sendEnd" : 15,
            "receivedTime" : "161.750000028405",
            "connectEnd" : 15,
            "type" : "image/gif",
            "sslStart" : -1,
            "sendStart" : 15,
            "len" : 43,
            "dns" : 0,
            "id" : "download_21",
            "sslEnd" : -1,
            "s_time" : 124.675000028219
         },
         "id" : "r23",
         "url" : "http://original.testbed.localhost/b.scorecardresearch.com/p%3Fc1=2&c2=3000001&rn=635982758807524881&c7=http%25253A%25252F%25252Fwww.msn.com%25252F&c8=&c9=",
         "comps" : [],
         "when_comp_start" : -1
      },
      {
         "id" : "r24",
         "url" : "http://original.testbed.localhost/otf.msn.com/c.gif%3Fjs=0&evt=impr&di=340&pi=&ps=&su=http%25253A%25252F%25252Fwww.msn.com%25252F&pageid=startpage&mkt=en-us&pn=startpage&mv=15&pp=False&cv.product=prime&cv.partner=&cv.publcat=&st.dpt=&st.sdpt=&dv.Title1=&cts=635982758807524881&rf=&rid=f674810",
         "download" : {
            "receiveHeadersEnd" : 39,
            "connectStart" : 0,
            "receiveLast" : 126.294000005815,
            "dnsStart" : -1,
            "receiveFirst" : 20,
            "dnsEnd" : -1,
            "sslStart" : -1,
            "sendStart" : 19,
            "len" : 42,
            "dns" : 0,
            "id" : "download_22",
            "sslEnd" : -1,
            "s_time" : 124.903000018094,
            "sendEnd" : 19,
            "connectEnd" : 19,
            "receivedTime" : "165.294000005815",
            "type" : "image/gif"
         },
         "when_comp_start" : -1,
         "comps" : []
      },
      {
         "download" : {
            "type" : "image/jpeg",
            "sendEnd" : 40,
            "connectEnd" : 40,
            "receivedTime" : "165.410000015981",
            "id" : "download_23",
            "dns" : 0,
            "sslEnd" : -1,
            "s_time" : 104.209000011906,
            "sendStart" : 40,
            "sslStart" : -1,
            "len" : 7797,
            "receiveFirst" : 20,
            "dnsEnd" : -1,
            "receiveLast" : 105.410000015981,
            "dnsStart" : -1,
            "receiveHeadersEnd" : 60,
            "connectStart" : 0
         },
         "id" : "r19",
         "url" : "http://original.testbed.localhost/img-s-msn-com.akamaized.net/tenant/amp/entityid/BBsEtie.img%3Fh=194&w=300&m=6&q=60&u=t&o=t&l=f&x=844&y=1059",
         "when_comp_start" : -1,
         "comps" : []
      }
   ]
}
