{
   "load_activity" : -1,
   "n_download_no_trigger" : 1,
   "objs" : [
      {
         "when_comp_start" : 1,
         "id" : "r1",
         "comps" : [
            {
               "type" : "evalhtml",
               "s_time" : 36.3049999577925,
               "time" : 1.2410000199452,
               "e_time" : 37.5459999777377,
               "id" : "r1_c1"
            },
            {
               "type" : "evalhtml",
               "s_time" : 90.3410000028089,
               "id" : "r1_c2",
               "e_time" : -304119465.488,
               "time" : -304119555.829
            },
            {
               "s_time" : 133.288000011817,
               "type" : "evalhtml",
               "e_time" : -304119465.488,
               "time" : -304119598.776,
               "id" : "r1_c3"
            },
            {
               "id" : "r1_c4",
               "time" : 0.231000012717999,
               "e_time" : 135.009999969043,
               "type" : "evalhtml",
               "s_time" : 134.778999956325
            }
         ],
         "download" : {
            "receivedTime" : "36.16299998248",
            "receiveHeadersEnd" : 21,
            "id" : "download_0",
            "connectStart" : 0,
            "receiveFirst" : 21,
            "s_time" : 0,
            "type" : "text/html",
            "sendStart" : 0,
            "receiveLast" : 15.16299998248,
            "dnsEnd" : -1,
            "sslEnd" : -1,
            "sslStart" : -1,
            "dns" : 0,
            "dnsStart" : -1,
            "sendEnd" : 0,
            "connectEnd" : 0,
            "len" : 9976
         },
         "url" : "http://original.testbed.localhost/www.live.com/"
      },
      {
         "when_comp_start" : -1,
         "comps" : [
            {
               "type" : 1,
               "s_time" : 89.1379999811761,
               "e_time" : 90.3410000028089,
               "time" : 1.2030000216328,
               "id" : "comp_5"
            }
         ],
         "id" : "r3",
         "download" : {
            "connectStart" : 0,
            "receiveFirst" : 21,
            "type" : "application/javascript",
            "s_time" : 37.4539999756962,
            "dnsEnd" : -1,
            "receiveLast" : 38.516999986954,
            "sendStart" : 0,
            "sslEnd" : -1,
            "receiveHeadersEnd" : 21,
            "receivedTime" : "59.516999986954",
            "id" : "download_1",
            "dnsStart" : -1,
            "connectEnd" : 0,
            "len" : 9898,
            "sendEnd" : 0,
            "sslStart" : -1,
            "dns" : 0
         },
         "url" : "http://original.testbed.localhost/auth.gfx.ms/16.000.26267.00/DefaultLoginStrings1033.js"
      },
      {
         "url" : "http://original.testbed.localhost/auth.gfx.ms/16.000.26267.00/Default1033.css",
         "download" : {
            "id" : "download_2",
            "receiveHeadersEnd" : 22,
            "receivedTime" : "80.2549999789335",
            "receiveLast" : 58.2549999789335,
            "dnsEnd" : -1,
            "sendStart" : 0,
            "sslEnd" : -1,
            "s_time" : 37.1929999673739,
            "connectStart" : 0,
            "receiveFirst" : 22,
            "type" : "text/css",
            "sslStart" : -1,
            "dns" : 0,
            "connectEnd" : 0,
            "sendEnd" : 0,
            "len" : 73727,
            "dnsStart" : -1
         },
         "id" : "r2",
         "comps" : [
            {
               "id" : "comp_1",
               "time" : 10.065000038594,
               "e_time" : 90.3790000011213,
               "type" : 4,
               "s_time" : 80.3139999625273
            }
         ],
         "when_comp_start" : -1
      },
      {
         "when_comp_start" : -1,
         "url" : "http://original.testbed.localhost/auth.gfx.ms/16.000.26267.00/DefaultLogin_Core.js",
         "download" : {
            "receiveFirst" : 25,
            "connectStart" : 0,
            "type" : "application/javascript",
            "s_time" : 37.5459999777377,
            "sslEnd" : -1,
            "receiveLast" : 59.6210000058636,
            "dnsEnd" : 0,
            "sendStart" : 20,
            "receiveHeadersEnd" : 45,
            "receivedTime" : "104.621000005864",
            "id" : "download_3",
            "dnsStart" : 0,
            "sendEnd" : 20,
            "connectEnd" : 20,
            "len" : 125263,
            "dns" : 0,
            "sslStart" : -1
         },
         "comps" : [
            {
               "id" : "comp_8",
               "e_time" : 133.288000011817,
               "time" : 28.569000016433,
               "s_time" : 104.718999995384,
               "type" : 1
            }
         ],
         "id" : "r4"
      }
   ],
   "start_activity" : "download_0",
   "name" : "original.testbed.localhost_www.live.com_",
   "deps" : [
      {
         "a2" : "r1_c2",
         "a1" : "comp_5",
         "id" : "dep1",
         "time" : -1
      },
      {
         "time" : -1,
         "a1" : "comp_8",
         "id" : "dep2",
         "a2" : "r1_c3"
      },
      {
         "a1" : "comp_10",
         "id" : "dep3",
         "time" : -1,
         "a2" : "r1_c4"
      },
      {
         "id" : "dep4",
         "a1" : "comp_5",
         "time" : -1,
         "a2" : "comp_8"
      },
      {
         "a2" : "download_3",
         "time" : -1,
         "id" : "dep5",
         "a1" : "r1_c1"
      },
      {
         "a2" : "download_3",
         "time" : 1.2410000199452,
         "a1" : "r1_c1",
         "id" : "dep6"
      },
      {
         "a2" : "download_2",
         "id" : "dep7",
         "a1" : "r1_c1",
         "time" : 0.888000009581397
      },
      {
         "id" : "dep8",
         "a1" : "r1_c1",
         "time" : 1.1490000179037,
         "a2" : "download_1"
      },
      {
         "time" : 1.1490000179037,
         "id" : "dep9",
         "a1" : "r1_c1",
         "a2" : "download_1"
      }
   ]
}
