{
   "start_activity" : "download_0",
   "load_activity" : -1,
   "name" : "original.testbed.localhost_www.pbs.org_",
   "deps" : [
      {
         "a2" : "r1_c2",
         "id" : "dep1",
         "a1" : "comp_12",
         "time" : -1
      },
      {
         "a1" : "comp_18",
         "time" : -1,
         "a2" : "r1_c3",
         "id" : "dep2"
      },
      {
         "id" : "dep3",
         "a2" : "r1_c4",
         "time" : -1,
         "a1" : "comp_53"
      },
      {
         "time" : -1,
         "a1" : "comp_62",
         "id" : "dep4",
         "a2" : "r1_c5"
      },
      {
         "a2" : "r1_c6",
         "id" : "dep5",
         "a1" : "comp_64",
         "time" : -1
      },
      {
         "a1" : "comp_66",
         "time" : -1,
         "a2" : "r1_c7",
         "id" : "dep6"
      },
      {
         "a1" : "comp_18",
         "time" : -1,
         "a2" : "comp_53",
         "id" : "dep7"
      },
      {
         "time" : -1,
         "a1" : "comp_53",
         "id" : "dep8",
         "a2" : "comp_62"
      },
      {
         "a1" : "comp_62",
         "time" : -1,
         "a2" : "comp_64",
         "id" : "dep9"
      },
      {
         "a1" : "comp_64",
         "time" : -1,
         "a2" : "comp_66",
         "id" : "dep10"
      },
      {
         "time" : -1,
         "a1" : "r1_c3",
         "id" : "dep11",
         "a2" : "download_21"
      },
      {
         "time" : 31.245000020135,
         "a1" : "r1_c3",
         "id" : "dep12",
         "a2" : "download_21"
      },
      {
         "id" : "dep13",
         "a2" : "download_20",
         "time" : -1,
         "a1" : "r1_c3"
      },
      {
         "a1" : "r1_c3",
         "time" : 31.331999984104,
         "a2" : "download_20",
         "id" : "dep14"
      },
      {
         "a1" : "r1_c3",
         "time" : 31.115000019781,
         "a2" : "download_19",
         "id" : "dep15"
      },
      {
         "time" : 31.115000019781,
         "a1" : "r1_c3",
         "id" : "dep16",
         "a2" : "download_19"
      },
      {
         "a1" : "r1_c3",
         "time" : 0.247000018134997,
         "a2" : "download_18",
         "id" : "dep17"
      },
      {
         "a1" : "r1_c3",
         "time" : 5.730999982916,
         "a2" : "download_17",
         "id" : "dep18"
      },
      {
         "a2" : "download_16",
         "id" : "dep19",
         "a1" : "r1_c1",
         "time" : -1
      },
      {
         "time" : 52.4899999727495,
         "a1" : "r1_c1",
         "id" : "dep20",
         "a2" : "download_15"
      },
      {
         "a2" : "download_14",
         "id" : "dep21",
         "a1" : "r1_c1",
         "time" : 52.4110000114888
      },
      {
         "time" : 52.3469999898226,
         "a1" : "r1_c1",
         "id" : "dep22",
         "a2" : "download_13"
      },
      {
         "time" : 52.2819999605418,
         "a1" : "r1_c1",
         "id" : "dep23",
         "a2" : "download_12"
      },
      {
         "time" : 52.2049999563024,
         "a1" : "r1_c1",
         "id" : "dep24",
         "a2" : "download_11"
      },
      {
         "time" : 51.8600000068546,
         "a1" : "r1_c1",
         "id" : "dep25",
         "a2" : "download_10"
      },
      {
         "a2" : "download_9",
         "id" : "dep26",
         "a1" : "r1_c1",
         "time" : 52.1399999852293
      },
      {
         "time" : 52.0749999559485,
         "a1" : "r1_c1",
         "id" : "dep27",
         "a2" : "download_8"
      },
      {
         "time" : 52.0039999973961,
         "a1" : "r1_c1",
         "id" : "dep28",
         "a2" : "download_7"
      },
      {
         "time" : 10.8609999879264,
         "a1" : "r1_c1",
         "id" : "dep29",
         "a2" : "download_6"
      },
      {
         "id" : "dep30",
         "a2" : "download_6",
         "time" : 10.8609999879264,
         "a1" : "r1_c1"
      },
      {
         "a1" : "r1_c1",
         "time" : 12.7539999666624,
         "a2" : "download_5",
         "id" : "dep31"
      },
      {
         "id" : "dep32",
         "a2" : "download_5",
         "time" : 12.7539999666624,
         "a1" : "r1_c1"
      },
      {
         "a2" : "download_4",
         "id" : "dep33",
         "a1" : "r1_c1",
         "time" : 8.7709999643267
      },
      {
         "a1" : "r1_c1",
         "time" : 8.884999959264,
         "a2" : "download_3",
         "id" : "dep34"
      },
      {
         "a2" : "download_3",
         "id" : "dep35",
         "a1" : "r1_c1",
         "time" : 8.884999959264
      },
      {
         "a1" : "r1_c1",
         "time" : 8.4489999571816,
         "a2" : "download_2",
         "id" : "dep36"
      },
      {
         "time" : 8.65999999223281,
         "a1" : "r1_c1",
         "id" : "dep37",
         "a2" : "download_1"
      }
   ],
   "objs" : [
      {
         "comps" : [
            {
               "s_time" : 34.3780000112019,
               "time" : 53.5779999918305,
               "type" : "evalhtml",
               "e_time" : 87.9560000030324,
               "id" : "r1_c1"
            },
            {
               "e_time" : -299773207.032,
               "type" : "evalhtml",
               "id" : "r1_c2",
               "s_time" : 90.7700000097975,
               "time" : -299773297.802
            },
            {
               "s_time" : 103.845999983605,
               "time" : 31.331999984104,
               "type" : "evalhtml",
               "e_time" : 135.177999967709,
               "id" : "r1_c3"
            },
            {
               "type" : "evalhtml",
               "e_time" : -299773207.032,
               "id" : "r1_c4",
               "s_time" : 151.215000019874,
               "time" : -299773358.247
            },
            {
               "s_time" : 201.653999974951,
               "time" : -299773408.686,
               "e_time" : -299773207.032,
               "type" : "evalhtml",
               "id" : "r1_c5"
            },
            {
               "s_time" : 202.288999978919,
               "time" : -299773409.321,
               "e_time" : -299773207.032,
               "type" : "evalhtml",
               "id" : "r1_c6"
            },
            {
               "s_time" : 202.716999978293,
               "time" : 0.00800000270800183,
               "type" : "evalhtml",
               "e_time" : 202.724999981001,
               "id" : "r1_c7"
            }
         ],
         "url" : "http://original.testbed.localhost/www.pbs.org/",
         "when_comp_start" : 1,
         "download" : {
            "s_time" : 0,
            "receiveFirst" : 23,
            "dns" : 0,
            "receivedTime" : "45.776000013575",
            "type" : "text/html",
            "id" : "download_0",
            "connectStart" : 0,
            "receiveLast" : 22.776000013575,
            "sendEnd" : 0,
            "len" : 121833,
            "sendStart" : 0,
            "sslStart" : -1,
            "dnsStart" : -1,
            "dnsEnd" : -1,
            "receiveHeadersEnd" : 23,
            "connectEnd" : 0,
            "sslEnd" : -1
         },
         "id" : "r1"
      },
      {
         "when_comp_start" : -1,
         "id" : "r3",
         "download" : {
            "receiveLast" : 44.0260000149719,
            "len" : 6942,
            "sendEnd" : 1,
            "receiveFirst" : 21,
            "dns" : 0,
            "s_time" : 43.0380000034347,
            "receivedTime" : "66.0260000149719",
            "type" : "text/css",
            "id" : "download_1",
            "connectStart" : 0,
            "dnsEnd" : -1,
            "receiveHeadersEnd" : 22,
            "sslEnd" : -1,
            "connectEnd" : 1,
            "sendStart" : 1,
            "dnsStart" : -1,
            "sslStart" : -1
         },
         "comps" : [
            {
               "time" : 0.113999994937288,
               "s_time" : 66.0650000208989,
               "id" : "comp_4",
               "e_time" : 66.1790000158362,
               "type" : 4
            }
         ],
         "url" : "http://original.testbed.localhost/dl47xs20witg8.cloudfront.net/css/home.1f84629afc4a.css"
      },
      {
         "url" : "http://original.testbed.localhost/dl47xs20witg8.cloudfront.net/css/global.99b3b124539e.css",
         "comps" : [
            {
               "e_time" : 103.859999973793,
               "type" : 4,
               "id" : "comp_8",
               "s_time" : 86.3580000004731,
               "time" : 17.5019999733199
            }
         ],
         "id" : "r2",
         "download" : {
            "id" : "download_2",
            "connectStart" : 0,
            "type" : "text/css",
            "receivedTime" : "86.2670000060461",
            "dns" : 0,
            "receiveFirst" : 22,
            "s_time" : 42.8269999683835,
            "sendEnd" : 1,
            "len" : 15423,
            "receiveLast" : 63.2670000060461,
            "sslStart" : -1,
            "dnsStart" : -1,
            "sendStart" : 1,
            "connectEnd" : 1,
            "sslEnd" : -1,
            "receiveHeadersEnd" : 23,
            "dnsEnd" : -1
         },
         "when_comp_start" : -1
      },
      {
         "url" : "http://original.testbed.localhost/dl47xs20witg8.cloudfront.net/js/sponsorship.abb4c4f508c3.js",
         "comps" : [
            {
               "time" : 1.48300000000739,
               "s_time" : 89.2870000097901,
               "id" : "comp_12",
               "e_time" : 90.7700000097975,
               "type" : 1
            }
         ],
         "download" : {
            "type" : "application/javascript",
            "connectStart" : 0,
            "id" : "download_3",
            "dns" : 0,
            "receiveFirst" : 20,
            "s_time" : 43.2629999704659,
            "receivedTime" : "85.8729999745265",
            "sendEnd" : 21,
            "len" : 1630,
            "receiveLast" : 44.8729999745265,
            "sslStart" : -1,
            "dnsStart" : 0,
            "sendStart" : 21,
            "sslEnd" : -1,
            "connectEnd" : 21,
            "dnsEnd" : 0,
            "receiveHeadersEnd" : 41
         },
         "id" : "r5",
         "when_comp_start" : -1
      },
      {
         "comps" : [
            {
               "time" : 0.109000015072596,
               "s_time" : 86.0809999867342,
               "id" : "comp_6",
               "e_time" : 86.1900000018068,
               "type" : 4
            }
         ],
         "url" : "http://original.testbed.localhost/fonts.googleapis.com/css%3Ffamily=Arvo:700%257COpen+Sans:400,300,600,700.css",
         "when_comp_start" : -1,
         "download" : {
            "sslEnd" : -1,
            "connectEnd" : 21,
            "receiveHeadersEnd" : 42,
            "dnsEnd" : 0,
            "sslStart" : -1,
            "dnsStart" : 0,
            "sendStart" : 21,
            "sendEnd" : 21,
            "len" : 1210,
            "receiveLast" : 44.0530000063591,
            "connectStart" : 0,
            "id" : "download_4",
            "type" : "text/css",
            "receivedTime" : "86.0530000063591",
            "receiveFirst" : 21,
            "s_time" : 43.1489999755286,
            "dns" : 0
         },
         "id" : "r4"
      },
      {
         "url" : "http://original.testbed.localhost/www-tc.pbs.org/includes/localize.js.html",
         "comps" : [
            {
               "id" : "comp_18",
               "type" : 1,
               "e_time" : 103.845999983605,
               "time" : 5.6880000047386,
               "s_time" : 98.1579999788664
            }
         ],
         "download" : {
            "connectEnd" : 17,
            "sslEnd" : -1,
            "dnsEnd" : 0,
            "receiveHeadersEnd" : 38,
            "dnsStart" : 0,
            "sslStart" : -1,
            "sendStart" : 17,
            "len" : 2272,
            "sendEnd" : 17,
            "receiveLast" : 48.2159999669529,
            "type" : "text/html",
            "connectStart" : 0,
            "id" : "download_5",
            "dns" : 0,
            "receiveFirst" : 21,
            "s_time" : 47.1319999778643,
            "receivedTime" : "86.2159999669529"
         },
         "id" : "r18",
         "when_comp_start" : 1
      },
      {
         "comps" : [],
         "url" : "http://original.testbed.localhost/dl47xs20witg8.cloudfront.net/images/svg/pbs_logo.499bc264d7a0.svg",
         "when_comp_start" : -1,
         "id" : "r6",
         "download" : {
            "type" : "image/svg+xml",
            "connectStart" : 0,
            "id" : "download_6",
            "receiveFirst" : 21,
            "s_time" : 45.2389999991283,
            "dns" : 0,
            "receivedTime" : "129.108000022825",
            "sendEnd" : 20,
            "len" : 1261,
            "receiveLast" : 88.1080000228249,
            "sslStart" : -1,
            "dnsStart" : -1,
            "sendStart" : 20,
            "sslEnd" : -1,
            "connectEnd" : 20,
            "dnsEnd" : -1,
            "receiveHeadersEnd" : 41
         }
      },
      {
         "when_comp_start" : -1,
         "download" : {
            "sendStart" : 1,
            "sslStart" : -1,
            "dnsStart" : -1,
            "receiveHeadersEnd" : 22,
            "dnsEnd" : -1,
            "sslEnd" : -1,
            "connectEnd" : 1,
            "receivedTime" : "135.203999991063",
            "dns" : 0,
            "receiveFirst" : 21,
            "s_time" : 86.382000008598,
            "connectStart" : 0,
            "id" : "download_7",
            "type" : "image/svg+xml",
            "receiveLast" : 113.203999991063,
            "sendEnd" : 1,
            "len" : 140
         },
         "id" : "r8",
         "comps" : [],
         "url" : "http://original.testbed.localhost/dl47xs20witg8.cloudfront.net/images/svg/down.598254fb2678.svg"
      },
      {
         "comps" : [],
         "url" : "http://original.testbed.localhost/image.pbs.org/curate/199ebc06-ac0a-41b2-bbe4-a3bae461136a.jpg.focalcrop.767x431.50.10.jpg",
         "when_comp_start" : -1,
         "download" : {
            "receivedTime" : "143.785000022035",
            "receiveFirst" : 21,
            "dns" : 0,
            "s_time" : 86.4529999671504,
            "connectStart" : 0,
            "id" : "download_8",
            "type" : "image/jpeg",
            "receiveLast" : 121.785000022035,
            "sendEnd" : 1,
            "len" : 48319,
            "sendStart" : 1,
            "sslStart" : -1,
            "dnsStart" : -1,
            "receiveHeadersEnd" : 22,
            "dnsEnd" : -1,
            "connectEnd" : 1,
            "sslEnd" : -1
         },
         "id" : "r9"
      },
      {
         "when_comp_start" : -1,
         "id" : "r10",
         "download" : {
            "connectEnd" : 1,
            "sslEnd" : -1,
            "dnsEnd" : -1,
            "receiveHeadersEnd" : 22,
            "dnsStart" : -1,
            "sslStart" : -1,
            "sendStart" : 1,
            "len" : 11625,
            "sendEnd" : 1,
            "receiveLast" : 116.732000021264,
            "type" : "image/png",
            "connectStart" : 0,
            "id" : "download_9",
            "receiveFirst" : 21,
            "dns" : 0,
            "s_time" : 86.5179999964312,
            "receivedTime" : "138.732000021264"
         },
         "comps" : [],
         "url" : "http://original.testbed.localhost/image.pbs.org/contentchannels/33/sht28RnInnUUPlTmjKVeCg.png.resize.380x190.png"
      },
      {
         "when_comp_start" : -1,
         "id" : "r7",
         "download" : {
            "s_time" : 86.2380000180565,
            "receiveFirst" : 22,
            "dns" : 0,
            "receivedTime" : "138.88099999167",
            "type" : "image/svg+xml",
            "connectStart" : 0,
            "id" : "download_10",
            "receiveLast" : 115.88099999167,
            "len" : 1093,
            "sendEnd" : 1,
            "sendStart" : 1,
            "dnsStart" : -1,
            "sslStart" : -1,
            "dnsEnd" : -1,
            "receiveHeadersEnd" : 23,
            "sslEnd" : -1,
            "connectEnd" : 1
         },
         "comps" : [],
         "url" : "http://original.testbed.localhost/dl47xs20witg8.cloudfront.net/images/svg/passport_compass_rose.9f5c873b2593.svg"
      },
      {
         "download" : {
            "dnsStart" : -1,
            "sslStart" : -1,
            "sendStart" : 1,
            "connectEnd" : 1,
            "sslEnd" : -1,
            "receiveHeadersEnd" : 23,
            "dnsEnd" : -1,
            "connectStart" : 0,
            "id" : "download_11",
            "type" : "image/png",
            "receivedTime" : "143.49599997513",
            "dns" : 0,
            "receiveFirst" : 22,
            "s_time" : 86.5829999675043,
            "len" : 14624,
            "sendEnd" : 1,
            "receiveLast" : 120.49599997513
         },
         "id" : "r11",
         "when_comp_start" : -1,
         "url" : "http://original.testbed.localhost/image.pbs.org/contentchannels/2027/lvWkTyXcw56YztAlIzu2yg.png.resize.380x190.png",
         "comps" : []
      },
      {
         "comps" : [],
         "url" : "http://original.testbed.localhost/image.pbs.org/contentchannels/1127/Hd0cTQEaC9pBCguijAcHw.png.resize.380x190.png",
         "when_comp_start" : -1,
         "download" : {
            "sendEnd" : 1,
            "len" : 10011,
            "receiveLast" : 120.660000001546,
            "type" : "image/png",
            "connectStart" : 0,
            "id" : "download_12",
            "dns" : 0,
            "receiveFirst" : 22,
            "s_time" : 86.6599999717437,
            "receivedTime" : "143.660000001546",
            "connectEnd" : 1,
            "sslEnd" : -1,
            "dnsEnd" : -1,
            "receiveHeadersEnd" : 23,
            "sslStart" : -1,
            "dnsStart" : -1,
            "sendStart" : 1
         },
         "id" : "r12"
      },
      {
         "when_comp_start" : -1,
         "id" : "r13",
         "download" : {
            "sslEnd" : -1,
            "connectEnd" : 23,
            "receiveHeadersEnd" : 44,
            "dnsEnd" : -1,
            "dnsStart" : -1,
            "sslStart" : -1,
            "sendStart" : 23,
            "len" : 12954,
            "sendEnd" : 23,
            "receiveLast" : 100.075999967754,
            "connectStart" : 0,
            "id" : "download_13",
            "type" : "image/png",
            "receivedTime" : "144.075999967754",
            "s_time" : 86.7250000010245,
            "receiveFirst" : 21,
            "dns" : 0
         },
         "comps" : [],
         "url" : "http://original.testbed.localhost/image.pbs.org/curate/a21ddc93-980c-4e56-8e60-5ff270477927.png.resize.380x190.png"
      },
      {
         "when_comp_start" : -1,
         "download" : {
            "receiveLast" : 101.53799998248,
            "sendEnd" : 23,
            "len" : 5317,
            "receiveFirst" : 21,
            "dns" : 0,
            "s_time" : 86.7890000226907,
            "receivedTime" : "145.53799998248",
            "type" : "image/png",
            "id" : "download_14",
            "connectStart" : 0,
            "dnsEnd" : -1,
            "receiveHeadersEnd" : 44,
            "sslEnd" : -1,
            "connectEnd" : 23,
            "sendStart" : 23,
            "sslStart" : -1,
            "dnsStart" : -1
         },
         "id" : "r14",
         "comps" : [],
         "url" : "http://original.testbed.localhost/dl47xs20witg8.cloudfront.net/images/fpo/verticals/logo-pbs-kids.68a4a83d8cc9.png"
      },
      {
         "url" : "http://original.testbed.localhost/dl47xs20witg8.cloudfront.net/images/fpo/verticals/logo-pbs-learning-media.5ceff18af299.png",
         "comps" : [],
         "download" : {
            "len" : 2466,
            "sendEnd" : 23,
            "receiveLast" : 101.720999978948,
            "connectStart" : 0,
            "id" : "download_15",
            "type" : "image/png",
            "receivedTime" : "145.720999978948",
            "s_time" : 86.8679999839514,
            "receiveFirst" : 21,
            "dns" : 0,
            "connectEnd" : 23,
            "sslEnd" : -1,
            "receiveHeadersEnd" : 44,
            "dnsEnd" : -1,
            "dnsStart" : -1,
            "sslStart" : -1,
            "sendStart" : 23
         },
         "id" : "r15",
         "when_comp_start" : -1
      },
      {
         "comps" : [],
         "url" : "http://original.testbed.localhost/dl47xs20witg8.cloudfront.net/images/svg/pin.dff94662c2d3.svg",
         "when_comp_start" : -1,
         "download" : {
            "receiveHeadersEnd" : 43,
            "dnsEnd" : -1,
            "connectEnd" : 22,
            "sslEnd" : -1,
            "sendStart" : 22,
            "dnsStart" : -1,
            "sslStart" : -1,
            "receiveLast" : 102.856000017375,
            "len" : 2236,
            "sendEnd" : 22,
            "receivedTime" : "145.856000017375",
            "receiveFirst" : 21,
            "s_time" : 87.9560000030324,
            "dns" : 0,
            "connectStart" : 0,
            "id" : "download_16",
            "type" : "image/svg+xml"
         },
         "id" : "r16"
      },
      {
         "when_comp_start" : -1,
         "download" : {
            "receiveFirst" : 21,
            "s_time" : 109.576999966521,
            "dns" : 0,
            "receivedTime" : "150.810000021011",
            "type" : "image/png",
            "connectStart" : 0,
            "id" : "download_17",
            "receiveLast" : 128.810000021011,
            "len" : 6825,
            "sendEnd" : 1,
            "sendStart" : 1,
            "dnsStart" : -1,
            "sslStart" : -1,
            "dnsEnd" : -1,
            "receiveHeadersEnd" : 22,
            "sslEnd" : -1,
            "connectEnd" : 1
         },
         "id" : "r17",
         "comps" : [],
         "url" : "http://original.testbed.localhost/dl47xs20witg8.cloudfront.net/images/fpo/social-media/logo-pbs.faa8a2afcda6.png"
      },
      {
         "url" : "http://original.testbed.localhost/d2ok2u3bz752mp.cloudfront.net/js/localization.js",
         "comps" : [
            {
               "time" : 0.268000003416006,
               "s_time" : 150.947000016458,
               "id" : "comp_53",
               "e_time" : 151.215000019874,
               "type" : 1
            }
         ],
         "id" : "r27",
         "download" : {
            "sslStart" : -1,
            "dnsStart" : -1,
            "sendStart" : 6,
            "connectEnd" : 6,
            "sslEnd" : -1,
            "receiveHeadersEnd" : 28,
            "dnsEnd" : -1,
            "connectStart" : 0,
            "id" : "download_18",
            "type" : "application/javascript",
            "receivedTime" : "150.932000018656",
            "dns" : 0,
            "receiveFirst" : 22,
            "s_time" : 104.09300000174,
            "sendEnd" : 6,
            "len" : 6241,
            "receiveLast" : 122.932000018656
         },
         "when_comp_start" : -1
      },
      {
         "id" : "r28",
         "download" : {
            "dnsEnd" : -1,
            "receiveHeadersEnd" : 22,
            "connectEnd" : 1,
            "sslEnd" : -1,
            "sendStart" : 1,
            "dnsStart" : -1,
            "sslStart" : -1,
            "receiveLast" : 179.029999996535,
            "len" : 30657,
            "sendEnd" : 1,
            "s_time" : 134.961000003386,
            "receiveFirst" : 21,
            "dns" : 0,
            "receivedTime" : "201.029999996535",
            "type" : "application/javascript",
            "connectStart" : 0,
            "id" : "download_19"
         },
         "when_comp_start" : -1,
         "url" : "http://original.testbed.localhost/dl47xs20witg8.cloudfront.net/js/jquery.6f0f5984c2a1.js",
         "comps" : [
            {
               "time" : 0.575999962166009,
               "s_time" : 201.078000012785,
               "id" : "comp_62",
               "e_time" : 201.653999974951,
               "type" : 1
            }
         ]
      },
      {
         "comps" : [
            {
               "type" : 1,
               "e_time" : 202.716999978293,
               "id" : "comp_66",
               "s_time" : 202.339000010397,
               "time" : 0.377999967895988
            }
         ],
         "url" : "http://original.testbed.localhost/dl47xs20witg8.cloudfront.net/js/home.cb1bc8ba057e.js",
         "when_comp_start" : -1,
         "download" : {
            "sslEnd" : -1,
            "connectEnd" : 1,
            "receiveHeadersEnd" : 24,
            "dnsEnd" : -1,
            "dnsStart" : -1,
            "sslStart" : -1,
            "sendStart" : 1,
            "len" : 28184,
            "sendEnd" : 1,
            "receiveLast" : 177.813000021502,
            "connectStart" : 0,
            "id" : "download_20",
            "type" : "application/javascript",
            "receivedTime" : "201.813000021502",
            "s_time" : 135.177999967709,
            "receiveFirst" : 23,
            "dns" : 0
         },
         "id" : "r30"
      },
      {
         "comps" : [
            {
               "id" : "comp_64",
               "type" : 1,
               "e_time" : 202.288999978919,
               "time" : 0.391000008676997,
               "s_time" : 201.897999970242
            }
         ],
         "url" : "http://original.testbed.localhost/dl47xs20witg8.cloudfront.net/js/common.65289980be63.js",
         "when_comp_start" : -1,
         "id" : "r29",
         "download" : {
            "dnsStart" : -1,
            "sslStart" : -1,
            "sendStart" : 1,
            "connectEnd" : 1,
            "sslEnd" : -1,
            "receiveHeadersEnd" : 25,
            "dnsEnd" : -1,
            "id" : "download_21",
            "connectStart" : 0,
            "type" : "application/javascript",
            "receivedTime" : "201.87900000019",
            "s_time" : 135.09100000374,
            "receiveFirst" : 24,
            "dns" : 0,
            "len" : 28724,
            "sendEnd" : 1,
            "receiveLast" : 176.87900000019
         }
      }
   ],
   "n_download_no_trigger" : 1
}
