{
   "start_activity" : "download_0",
   "deps" : [
      {
         "time" : -1,
         "a2" : "r1_c2",
         "a1" : "comp_1",
         "id" : "dep1"
      },
      {
         "a2" : "r1_c3",
         "id" : "dep2",
         "a1" : "comp_2",
         "time" : -1
      },
      {
         "time" : -1,
         "a1" : "r1_c3",
         "id" : "dep3",
         "a2" : "download_4"
      },
      {
         "time" : 1.1730000260286,
         "a2" : "download_3",
         "id" : "dep4",
         "a1" : "r1_c3"
      },
      {
         "time" : 0.018000020645502,
         "a2" : "download_2",
         "a1" : "r1_c3",
         "id" : "dep5"
      },
      {
         "time" : -1,
         "a2" : "download_1",
         "a1" : "r1_c2",
         "id" : "dep6"
      }
   ],
   "n_download_no_trigger" : 1,
   "objs" : [
      {
         "download" : {
            "sslEnd" : -1,
            "len" : 7653,
            "connectStart" : 0,
            "sslStart" : -1,
            "sendStart" : 0,
            "id" : "download_0",
            "receivedTime" : "21.8330000061542",
            "receiveFirst" : 21,
            "receiveHeadersEnd" : 21,
            "s_time" : 0,
            "dns" : 0,
            "receiveLast" : 0.83300000615418,
            "dnsEnd" : -1,
            "sendEnd" : 0,
            "type" : "text/html",
            "dnsStart" : -1,
            "connectEnd" : 0
         },
         "id" : "r1",
         "when_comp_start" : 1,
         "comps" : [
            {
               "id" : "r1_c1",
               "s_time" : 36.6260000155307,
               "e_time" : -304543183.736,
               "time" : -304543220.362,
               "type" : "evalhtml"
            },
            {
               "e_time" : 39.1170000075363,
               "s_time" : 39.076000044588,
               "id" : "r1_c2",
               "type" : "evalhtml",
               "time" : 0.0409999629482982
            },
            {
               "type" : "evalhtml",
               "time" : 3.8160000112839,
               "id" : "r1_c3",
               "s_time" : 39.1700000036508,
               "e_time" : 42.9860000149347
            }
         ],
         "url" : "http://original.testbed.localhost/www.stihl.ch/"
      },
      {
         "comps" : [],
         "url" : "http://original.testbed.localhost/p/images/teaser/ch-de/vorschaltseite_vertrieb.jpg",
         "download" : {
            "receivedTime" : "60.7960000052117",
            "receiveFirst" : 21,
            "receiveHeadersEnd" : 21,
            "s_time" : 39.1170000075363,
            "dns" : 0,
            "receiveLast" : 39.7960000052117,
            "dnsEnd" : -1,
            "sendEnd" : 0,
            "type" : "text/html",
            "dnsStart" : -1,
            "connectEnd" : 0,
            "len" : 338,
            "sslEnd" : -1,
            "connectStart" : 0,
            "sslStart" : -1,
            "sendStart" : 0,
            "id" : "download_1"
         },
         "id" : "r9",
         "when_comp_start" : 1
      },
      {
         "id" : "r10",
         "download" : {
            "sslEnd" : -1,
            "len" : 334,
            "id" : "download_2",
            "connectStart" : 0,
            "sslStart" : -1,
            "sendStart" : 0,
            "s_time" : 39.1880000242963,
            "dns" : 0,
            "receivedTime" : "61.0330000054091",
            "receiveFirst" : 21,
            "receiveHeadersEnd" : 21,
            "dnsStart" : -1,
            "connectEnd" : 0,
            "dnsEnd" : -1,
            "receiveLast" : 40.0330000054091,
            "sendEnd" : 0,
            "type" : "text/html"
         },
         "when_comp_start" : 1,
         "comps" : [],
         "url" : "http://original.testbed.localhost/p/images/teaser/vorschaltseite_kettenwerk.jpg"
      },
      {
         "comps" : [],
         "url" : "http://original.testbed.localhost/p/images/background/fruehling_2012_overlay_1700x864.jpg",
         "id" : "r11",
         "download" : {
            "receivedTime" : "82.1330000180751",
            "receiveHeadersEnd" : 41,
            "receiveFirst" : 21,
            "s_time" : 40.3430000296794,
            "dns" : 0,
            "sendEnd" : 20,
            "receiveLast" : 41.1330000180751,
            "dnsEnd" : -1,
            "type" : "text/html",
            "dnsStart" : -1,
            "connectEnd" : 20,
            "len" : 344,
            "sslEnd" : -1,
            "sslStart" : -1,
            "connectStart" : 0,
            "sendStart" : 20,
            "id" : "download_3"
         },
         "when_comp_start" : 1
      },
      {
         "comps" : [],
         "url" : "http://original.testbed.localhost/p/media/flash/ch-de/teaser.jpg",
         "id" : "r12",
         "download" : {
            "id" : "download_4",
            "sendStart" : 18,
            "connectStart" : 0,
            "sslStart" : -1,
            "len" : 319,
            "sslEnd" : -1,
            "connectEnd" : 18,
            "dnsStart" : 0,
            "type" : "text/html",
            "receiveLast" : 44.2200000402518,
            "dnsEnd" : 0,
            "sendEnd" : 18,
            "dns" : 0,
            "s_time" : 42.9860000149347,
            "receiveFirst" : 20,
            "receiveHeadersEnd" : 38,
            "receivedTime" : "82.2200000402518"
         },
         "when_comp_start" : 1
      }
   ],
   "name" : "original.testbed.localhost_www.stihl.ch_",
   "load_activity" : -1
}
