{
   "n_download_no_trigger" : 1,
   "start_activity" : "download_0",
   "name" : "original.testbed.localhost_www.ap.org_",
   "load_activity" : -1,
   "objs" : [
      {
         "when_comp_start" : 1,
         "url" : "http://original.testbed.localhost/www.ap.org/",
         "id" : "r1",
         "comps" : [
            {
               "s_time" : 307.068000001891,
               "time" : 14.037999993889,
               "id" : "r1_c1",
               "type" : "evalhtml",
               "e_time" : 321.10599999578
            },
            {
               "s_time" : 836.181999999098,
               "time" : -53396745.529,
               "id" : "r1_c2",
               "type" : "evalhtml",
               "e_time" : -53395909.347
            },
            {
               "s_time" : 1234.43699999916,
               "time" : -53397143.784,
               "id" : "r1_c3",
               "type" : "evalhtml",
               "e_time" : -53395909.347
            },
            {
               "s_time" : 1553.58900000283,
               "time" : -53397462.936,
               "id" : "r1_c4",
               "type" : "evalhtml",
               "e_time" : -53395909.347
            },
            {
               "s_time" : 1555.75600000157,
               "time" : -53397465.103,
               "id" : "r1_c5",
               "type" : "evalhtml",
               "e_time" : -53395909.347
            },
            {
               "s_time" : 1568.60400000005,
               "time" : -53397477.951,
               "id" : "r1_c6",
               "type" : "evalhtml",
               "e_time" : -53395909.347
            },
            {
               "s_time" : 1692.2310000009,
               "time" : -53397601.578,
               "id" : "r1_c7",
               "type" : "evalhtml",
               "e_time" : -53395909.347
            },
            {
               "s_time" : 1707.8560000009,
               "time" : -53397617.203,
               "id" : "r1_c8",
               "type" : "evalhtml",
               "e_time" : -53395909.347
            },
            {
               "s_time" : 1710.41900000273,
               "time" : -53397619.766,
               "id" : "r1_c9",
               "type" : "evalhtml",
               "e_time" : -53395909.347
            },
            {
               "s_time" : 1722.65699999843,
               "time" : -53397632.004,
               "id" : "r1_c10",
               "type" : "evalhtml",
               "e_time" : -53395909.347
            },
            {
               "s_time" : 1725.12899999856,
               "time" : -53397634.476,
               "id" : "r1_c11",
               "type" : "evalhtml",
               "e_time" : -53395909.347
            },
            {
               "s_time" : 1736.17599999852,
               "time" : 668.18200000125,
               "type" : "evalhtml",
               "id" : "r1_c12",
               "e_time" : 2404.35799999977
            }
         ],
         "download" : {
            "receiveFirst" : 154,
            "len" : 30772,
            "dns" : 0,
            "dnsEnd" : -1,
            "receiveHeadersEnd" : 159,
            "sslEnd" : -1,
            "connectEnd" : 5,
            "connectStart" : 0,
            "id" : "download_0",
            "receivedTime" : "306.031000000075",
            "sslStart" : -1,
            "dnsStart" : -1,
            "receiveLast" : 147.031000000075,
            "s_time" : 0,
            "sendEnd" : 5,
            "sendStart" : 5,
            "type" : "text/html"
         }
      },
      {
         "when_comp_start" : -1,
         "url" : "http://original.testbed.localhost/www.ap.org/Content/grid_framework.css",
         "id" : "r2",
         "comps" : [
            {
               "s_time" : 512.847999998485,
               "time" : 2.380999998422,
               "type" : 4,
               "id" : "comp_0",
               "e_time" : 515.228999996907
            }
         ],
         "download" : {
            "receiveFirst" : 154,
            "len" : 1686,
            "dns" : 0,
            "dnsEnd" : -1,
            "receiveHeadersEnd" : 199,
            "sslEnd" : -1,
            "connectEnd" : 45,
            "connectStart" : 0,
            "id" : "download_1",
            "receivedTime" : "512.176999996882",
            "sslStart" : -1,
            "dnsStart" : -1,
            "receiveLast" : 313.176999996882,
            "s_time" : 309.235000000626,
            "sendEnd" : 45,
            "sendStart" : 45,
            "type" : "text/css"
         }
      },
      {
         "when_comp_start" : -1,
         "url" : "http://original.testbed.localhost/www.ap.org/Content/mobile_framework.css",
         "id" : "r3",
         "comps" : [
            {
               "s_time" : 522.857999996631,
               "time" : 0.366000000213035,
               "type" : 4,
               "id" : "comp_1",
               "e_time" : 523.223999996844
            }
         ],
         "download" : {
            "receiveFirst" : 160,
            "len" : 647,
            "dns" : 0,
            "dnsEnd" : -1,
            "receiveHeadersEnd" : 206,
            "sslEnd" : -1,
            "connectEnd" : 46,
            "connectStart" : 0,
            "id" : "download_2",
            "receivedTime" : "522.216999997909",
            "sslStart" : -1,
            "dnsStart" : -1,
            "receiveLast" : 316.216999997909,
            "s_time" : 309.907000002568,
            "sendEnd" : 46,
            "sendStart" : 46,
            "type" : "text/css"
         }
      },
      {
         "when_comp_start" : -1,
         "url" : "http://original.testbed.localhost/www.ap.org/Content/typography.css",
         "id" : "r4",
         "comps" : [
            {
               "s_time" : 672.485999995843,
               "time" : 3.54000000515896,
               "type" : 4,
               "id" : "comp_2",
               "e_time" : 676.026000001002
            }
         ],
         "download" : {
            "receiveFirst" : 155,
            "len" : 4543,
            "dns" : 0,
            "dnsEnd" : -1,
            "receiveHeadersEnd" : 353,
            "sslEnd" : -1,
            "connectEnd" : 198,
            "connectStart" : 0,
            "id" : "download_3",
            "receivedTime" : "671.203999998397",
            "sslStart" : -1,
            "dnsStart" : -1,
            "receiveLast" : 318.203999998397,
            "s_time" : 310.821999999462,
            "sendEnd" : 198,
            "sendStart" : 198,
            "type" : "text/css"
         }
      },
      {
         "when_comp_start" : -1,
         "url" : "http://original.testbed.localhost/www.ap.org/Content/ap_org_styles.css",
         "id" : "r5",
         "comps" : [
            {
               "s_time" : 754.486999998335,
               "time" : 50.047999997332,
               "type" : 4,
               "id" : "comp_4",
               "e_time" : 804.534999995667
            }
         ],
         "download" : {
            "receiveFirst" : 185,
            "len" : 23455,
            "dns" : 0,
            "dnsEnd" : 50,
            "receiveHeadersEnd" : 387,
            "sslEnd" : -1,
            "connectEnd" : 202,
            "connectStart" : 0,
            "id" : "download_4",
            "receivedTime" : "754.028999996081",
            "sslStart" : -1,
            "dnsStart" : 50,
            "receiveLast" : 367.028999996081,
            "s_time" : 311.799000002793,
            "sendEnd" : 202,
            "sendStart" : 202,
            "type" : "text/css"
         }
      },
      {
         "when_comp_start" : -1,
         "url" : "http://original.testbed.localhost/www.ap.org/Content/jquery.smartbanner.css",
         "id" : "r16",
         "comps" : [
            {
               "s_time" : 735.261000001628,
               "time" : 0.152000000526073,
               "type" : 4,
               "id" : "comp_3",
               "e_time" : 735.413000002154
            }
         ],
         "download" : {
            "receiveFirst" : 187,
            "len" : 2916,
            "dns" : 0,
            "dnsEnd" : -1,
            "receiveHeadersEnd" : 373,
            "sslEnd" : -1,
            "connectEnd" : 185,
            "connectStart" : 0,
            "id" : "download_5",
            "receivedTime" : "732.696999999462",
            "sslStart" : -1,
            "dnsStart" : -1,
            "receiveLast" : 359.696999999462,
            "s_time" : 320.37400000263,
            "sendEnd" : 186,
            "sendStart" : 185,
            "type" : "text/css"
         }
      },
      {
         "when_comp_start" : -1,
         "url" : "http://original.testbed.localhost/www.ap.org/Scripts/css3-mediaqueries.js",
         "id" : "r6",
         "comps" : [
            {
               "s_time" : 805.206999997608,
               "time" : 30.97500000149,
               "type" : 1,
               "id" : "comp_5",
               "e_time" : 836.181999999098
            }
         ],
         "download" : {
            "receiveFirst" : 191,
            "len" : 16018,
            "dns" : 0,
            "dnsEnd" : 50,
            "receiveHeadersEnd" : 393,
            "sslEnd" : -1,
            "connectEnd" : 202,
            "connectStart" : 0,
            "id" : "download_6",
            "receivedTime" : "804.779999998573",
            "sslStart" : -1,
            "dnsStart" : 50,
            "receiveLast" : 411.779999998573,
            "s_time" : 312.958000002254,
            "sendEnd" : 202,
            "sendStart" : 202,
            "type" : "application/javascript"
         }
      },
      {
         "when_comp_start" : -1,
         "url" : "http://original.testbed.localhost/www.ap.org/Scripts/jquery.min.js",
         "id" : "r7",
         "comps" : [
            {
               "s_time" : 996.308000001591,
               "time" : 238.128999997569,
               "type" : 1,
               "id" : "comp_8",
               "e_time" : 1234.43699999916
            }
         ],
         "download" : {
            "receiveFirst" : 215,
            "len" : 94020,
            "dns" : 0,
            "dnsEnd" : 52,
            "receiveHeadersEnd" : 418,
            "sslEnd" : -1,
            "connectEnd" : 203,
            "connectStart" : 0,
            "id" : "download_7",
            "receivedTime" : "994.964999998047",
            "sslStart" : -1,
            "dnsStart" : 52,
            "receiveLast" : 576.964999998047,
            "s_time" : 313.96500000119,
            "sendEnd" : 203,
            "sendStart" : 203,
            "type" : "application/javascript"
         }
      },
      {
         "when_comp_start" : -1,
         "url" : "http://original.testbed.localhost/ajax.googleapis.com/ajax/libs/jqueryui/1.9.2/jquery-ui.min.js",
         "id" : "r8",
         "comps" : [
            {
               "s_time" : 1300.26299999736,
               "time" : 253.32600000547,
               "type" : 1,
               "id" : "comp_14",
               "e_time" : 1553.58900000283
            }
         ],
         "download" : {
            "receiveFirst" : 216,
            "len" : 237734,
            "dns" : 0,
            "dnsEnd" : 54,
            "receiveHeadersEnd" : 421,
            "sslEnd" : -1,
            "connectEnd" : 205,
            "connectStart" : 0,
            "id" : "download_8",
            "receivedTime" : "1298.58499999682",
            "sslStart" : -1,
            "dnsStart" : 54,
            "receiveLast" : 877.58499999682,
            "s_time" : 314.698000001954,
            "sendEnd" : 205,
            "sendStart" : 205,
            "type" : "application/javascript"
         }
      },
      {
         "when_comp_start" : -1,
         "url" : "http://original.testbed.localhost/www.ap.org/Scripts/jquery_cookie.js",
         "id" : "r9",
         "comps" : [
            {
               "s_time" : 1554.65800000093,
               "time" : 1.09800000064001,
               "type" : 1,
               "id" : "comp_17",
               "e_time" : 1555.75600000157
            }
         ],
         "download" : {
            "receiveFirst" : 154,
            "len" : 4344,
            "dns" : 0,
            "dnsEnd" : -1,
            "receiveHeadersEnd" : 503,
            "sslEnd" : -1,
            "connectEnd" : 348,
            "connectStart" : 0,
            "id" : "download_9",
            "receivedTime" : "841.52300000278",
            "sslStart" : -1,
            "dnsStart" : -1,
            "receiveLast" : 338.52300000278,
            "s_time" : 315.368999996281,
            "sendEnd" : 349,
            "sendStart" : 348,
            "type" : "application/javascript"
         }
      },
      {
         "when_comp_start" : -1,
         "url" : "http://original.testbed.localhost/www.ap.org/Scripts/jsocial.js",
         "id" : "r10",
         "comps" : [
            {
               "s_time" : 1561.52399999701,
               "time" : 7.08000000304014,
               "type" : 1,
               "id" : "comp_19",
               "e_time" : 1568.60400000005
            }
         ],
         "download" : {
            "receiveFirst" : 153,
            "len" : 10019,
            "dns" : 0,
            "dnsEnd" : -1,
            "receiveHeadersEnd" : 560,
            "sslEnd" : -1,
            "connectEnd" : 407,
            "connectStart" : 0,
            "id" : "download_10",
            "receivedTime" : "892.151000000013",
            "sslStart" : -1,
            "dnsStart" : -1,
            "receiveLast" : 332.151000000013,
            "s_time" : 316.071000001102,
            "sendEnd" : 407,
            "sendStart" : 407,
            "type" : "application/javascript"
         }
      },
      {
         "when_comp_start" : -1,
         "url" : "http://original.testbed.localhost/www.ap.org/Scripts/modernizr-1.7.min.js",
         "id" : "r11",
         "comps" : [
            {
               "s_time" : 1569.3969999993,
               "time" : 122.8340000016,
               "type" : 1,
               "id" : "comp_21",
               "e_time" : 1692.2310000009
            }
         ],
         "download" : {
            "receiveFirst" : 154,
            "len" : 9413,
            "dns" : 0,
            "dnsEnd" : -1,
            "receiveHeadersEnd" : 578,
            "sslEnd" : -1,
            "connectEnd" : 424,
            "connectStart" : 0,
            "id" : "download_11",
            "receivedTime" : "911.102999998548",
            "sslStart" : -1,
            "dnsStart" : -1,
            "receiveLast" : 333.102999998548,
            "s_time" : 316.772999998648,
            "sendEnd" : 424,
            "sendStart" : 424,
            "type" : "application/javascript"
         }
      },
      {
         "when_comp_start" : -1,
         "url" : "http://original.testbed.localhost/www.ap.org/Scripts/jlib_ap.org.js",
         "id" : "r12",
         "comps" : [
            {
               "s_time" : 1696.50299999921,
               "time" : 11.3530000016899,
               "type" : 1,
               "id" : "comp_27",
               "e_time" : 1707.8560000009
            }
         ],
         "download" : {
            "receiveFirst" : 154,
            "len" : 7695,
            "dns" : 0,
            "dnsEnd" : -1,
            "receiveHeadersEnd" : 617,
            "sslEnd" : -1,
            "connectEnd" : 463,
            "connectStart" : 0,
            "id" : "download_12",
            "receivedTime" : "950.59300000139",
            "sslStart" : -1,
            "dnsStart" : -1,
            "receiveLast" : 333.59300000139,
            "s_time" : 317.383000001428,
            "sendEnd" : 463,
            "sendStart" : 463,
            "type" : "application/javascript"
         }
      },
      {
         "when_comp_start" : -1,
         "url" : "http://original.testbed.localhost/www.ap.org/Scripts/multiple_accordion.js",
         "id" : "r13",
         "comps" : [
            {
               "s_time" : 1708.86299999984,
               "time" : 1.55600000288996,
               "type" : 1,
               "id" : "comp_29",
               "e_time" : 1710.41900000273
            }
         ],
         "download" : {
            "receiveFirst" : 154,
            "len" : 2216,
            "dns" : 0,
            "dnsEnd" : -1,
            "receiveHeadersEnd" : 653,
            "sslEnd" : -1,
            "connectEnd" : 499,
            "connectStart" : 0,
            "id" : "download_13",
            "receivedTime" : "987.946000001102",
            "sslStart" : -1,
            "dnsStart" : -1,
            "receiveLast" : 334.946000001102,
            "s_time" : 318.420999996306,
            "sendEnd" : 499,
            "sendStart" : 499,
            "type" : "application/javascript"
         }
      },
      {
         "when_comp_start" : -1,
         "url" : "http://original.testbed.localhost/www.ap.org/Scripts/fancybox/jquery.fancybox-1.3.4.pack.js",
         "id" : "r14",
         "comps" : [
            {
               "s_time" : 1711.39599999879,
               "time" : 11.2609999996398,
               "type" : 1,
               "id" : "comp_31",
               "e_time" : 1722.65699999843
            }
         ],
         "download" : {
            "receiveFirst" : 154,
            "len" : 15624,
            "dns" : 0,
            "dnsEnd" : -1,
            "receiveHeadersEnd" : 712,
            "sslEnd" : -1,
            "connectEnd" : 558,
            "connectStart" : 0,
            "id" : "download_14",
            "receivedTime" : "1238.74000000069",
            "sslStart" : -1,
            "dnsStart" : -1,
            "receiveLast" : 526.740000000689,
            "s_time" : 319.091999997909,
            "sendEnd" : 558,
            "sendStart" : 558,
            "type" : "application/javascript"
         }
      },
      {
         "when_comp_start" : -1,
         "url" : "http://original.testbed.localhost/www.ap.org/Scripts/fancybox/jquery.mousewheel-3.0.4.pack.js",
         "id" : "r15",
         "comps" : [
            {
               "s_time" : 1723.69400000025,
               "time" : 1.43499999830988,
               "type" : 1,
               "id" : "comp_33",
               "e_time" : 1725.12899999856
            }
         ],
         "download" : {
            "receiveFirst" : 155,
            "len" : 1279,
            "dns" : 0,
            "dnsEnd" : -1,
            "receiveHeadersEnd" : 730,
            "sslEnd" : -1,
            "connectEnd" : 574,
            "connectStart" : 0,
            "id" : "download_15",
            "receivedTime" : "1239.86899999727",
            "sslStart" : -1,
            "dnsStart" : -1,
            "receiveLast" : 509.86899999727,
            "s_time" : 319.732999996631,
            "sendEnd" : 575,
            "sendStart" : 574,
            "type" : "application/javascript"
         }
      },
      {
         "when_comp_start" : -1,
         "url" : "http://original.testbed.localhost/www.ap.org/Scripts/jquery.smartbanner.js",
         "id" : "r17",
         "comps" : [
            {
               "s_time" : 1730.04200000287,
               "time" : 6.1339999956499,
               "type" : 1,
               "id" : "comp_35",
               "e_time" : 1736.17599999852
            }
         ],
         "download" : {
            "receiveFirst" : 154,
            "len" : 15104,
            "dns" : 0,
            "dnsEnd" : -1,
            "receiveHeadersEnd" : 767,
            "sslEnd" : -1,
            "connectEnd" : 613,
            "connectStart" : 0,
            "id" : "download_16",
            "receivedTime" : "1241.2719999993",
            "sslStart" : -1,
            "dnsStart" : -1,
            "receiveLast" : 474.271999999299,
            "s_time" : 321.10599999578,
            "sendEnd" : 613,
            "sendStart" : 613,
            "type" : "application/javascript"
         }
      },
      {
         "when_comp_start" : -1,
         "url" : "http://original.testbed.localhost/www.ap.org/Images/2015-espy-red-carpet.jpg",
         "id" : "r24",
         "comps" : [],
         "download" : {
            "receiveFirst" : 154,
            "len" : 52384,
            "dns" : 0,
            "dnsEnd" : -1,
            "receiveHeadersEnd" : 161,
            "sslEnd" : -1,
            "connectEnd" : 7,
            "connectStart" : 0,
            "id" : "download_17",
            "receivedTime" : "2482.85000000033",
            "sslStart" : -1,
            "dnsStart" : -1,
            "receiveLast" : 2321.85000000033,
            "s_time" : 1860.15400000178,
            "sendEnd" : 7,
            "sendStart" : 7,
            "type" : "image/jpeg"
         }
      },
      {
         "when_comp_start" : -1,
         "url" : "http://original.testbed.localhost/www.ap.org/content/images/shades/clear.gif",
         "id" : "r25",
         "comps" : [],
         "download" : {
            "receiveFirst" : 164,
            "len" : 1093,
            "dns" : 0,
            "dnsEnd" : -1,
            "receiveHeadersEnd" : 172,
            "sslEnd" : -1,
            "connectEnd" : 8,
            "connectStart" : 0,
            "id" : "download_18",
            "receivedTime" : "2291.32099999697",
            "sslStart" : -1,
            "dnsStart" : -1,
            "receiveLast" : 2119.32099999697,
            "s_time" : 1861.61800000264,
            "sendEnd" : 8,
            "sendStart" : 8,
            "type" : "image/gif"
         }
      },
      {
         "when_comp_start" : -1,
         "url" : "http://original.testbed.localhost/www.ap.org/Images/ap-further-expands-live.jpg",
         "id" : "r26",
         "comps" : [],
         "download" : {
            "receiveFirst" : 171,
            "len" : 37354,
            "dns" : 0,
            "dnsEnd" : -1,
            "receiveHeadersEnd" : 184,
            "sslEnd" : -1,
            "connectEnd" : 12,
            "connectStart" : 0,
            "id" : "download_19",
            "receivedTime" : "2428.61999999877",
            "sslStart" : -1,
            "dnsStart" : -1,
            "receiveLast" : 2244.61999999877,
            "s_time" : 1862.90000000008,
            "sendEnd" : 13,
            "sendStart" : 12,
            "type" : "image/jpeg"
         }
      },
      {
         "when_comp_start" : -1,
         "url" : "http://original.testbed.localhost/www.ap.org/Images/exit-poll.jpg",
         "id" : "r27",
         "comps" : [],
         "download" : {
            "receiveFirst" : 183,
            "len" : 34616,
            "dns" : 0,
            "dnsEnd" : -1,
            "receiveHeadersEnd" : 195,
            "sslEnd" : -1,
            "connectEnd" : 12,
            "connectStart" : 0,
            "id" : "download_20",
            "receivedTime" : "2429.53499999567",
            "sslStart" : -1,
            "dnsStart" : -1,
            "receiveLast" : 2234.53499999567,
            "s_time" : 1864.99100000219,
            "sendEnd" : 12,
            "sendStart" : 12,
            "type" : "image/jpeg"
         }
      },
      {
         "when_comp_start" : -1,
         "url" : "http://original.testbed.localhost/www.ap.org/Images/itunes-download-app-button.gif",
         "id" : "r29",
         "comps" : [],
         "download" : {
            "receiveFirst" : 187,
            "len" : 3578,
            "dns" : 0,
            "dnsEnd" : -1,
            "receiveHeadersEnd" : 194,
            "sslEnd" : -1,
            "connectEnd" : 7,
            "connectStart" : 0,
            "id" : "download_21",
            "receivedTime" : "2297.97400000098",
            "sslStart" : -1,
            "dnsStart" : -1,
            "receiveLast" : 2103.97400000098,
            "s_time" : 1873.33699999726,
            "sendEnd" : 7,
            "sendStart" : 7,
            "type" : "image/gif"
         }
      },
      {
         "when_comp_start" : -1,
         "url" : "http://original.testbed.localhost/www.ap.org/Images/google-play-download-button.gif",
         "id" : "r30",
         "comps" : [],
         "download" : {
            "receiveFirst" : 186,
            "len" : 3294,
            "dns" : 0,
            "dnsEnd" : -1,
            "receiveHeadersEnd" : 194,
            "sslEnd" : -1,
            "connectEnd" : 8,
            "connectStart" : 0,
            "id" : "download_22",
            "receivedTime" : "2298.52299999766",
            "sslStart" : -1,
            "dnsStart" : -1,
            "receiveLast" : 2104.52299999766,
            "s_time" : 1874.80099999812,
            "sendEnd" : 8,
            "sendStart" : 8,
            "type" : "image/gif"
         }
      },
      {
         "when_comp_start" : 1,
         "url" : "http://original.testbed.localhost/www.youtube.com/embed/mejGx32GCvs%3Frel=0&showinfo=0&controls=1&autohide=1%22.html",
         "id" : "r28",
         "comps" : [
            {
               "s_time" : 2391.14400000108,
               "time" : 84.01500000036,
               "id" : "r28_c1",
               "type" : "evalhtml",
               "e_time" : 2475.15900000144
            },
            {
               "s_time" : 3530.97600000183,
               "time" : -53399440.323,
               "id" : "r28_c2",
               "type" : "evalhtml",
               "e_time" : -53395909.347
            },
            {
               "s_time" : 5673.34000000119,
               "time" : 589.90500000073,
               "type" : "evalhtml",
               "id" : "r28_c3",
               "e_time" : 6263.24500000192
            }
         ],
         "download" : {
            "receiveFirst" : 178,
            "len" : 16578,
            "dns" : 0,
            "dnsEnd" : -1,
            "receiveHeadersEnd" : 350,
            "sslEnd" : -1,
            "connectEnd" : 172,
            "connectStart" : 0,
            "id" : "download_23",
            "receivedTime" : "2341.24799999699",
            "sslStart" : -1,
            "dnsStart" : -1,
            "receiveLast" : 1991.24799999699,
            "s_time" : 1876.8310000014,
            "sendEnd" : 172,
            "sendStart" : 172,
            "type" : "text/html"
         }
      },
      {
         "when_comp_start" : -1,
         "url" : "http://original.testbed.localhost/www.ap.org/Content/images/shades/tpHdrBg.png",
         "id" : "r31",
         "comps" : [],
         "download" : {
            "receiveFirst" : 163,
            "len" : 1001,
            "dns" : 0,
            "dnsEnd" : -1,
            "receiveHeadersEnd" : 352,
            "sslEnd" : -1,
            "connectEnd" : 189,
            "connectStart" : 0,
            "id" : "download_24",
            "receivedTime" : "2346.25299999607",
            "sslStart" : -1,
            "dnsStart" : -1,
            "receiveLast" : 1994.25299999607,
            "s_time" : 1898.26899999753,
            "sendEnd" : 189,
            "sendStart" : 189,
            "type" : "image/png"
         }
      },
      {
         "when_comp_start" : -1,
         "url" : "http://original.testbed.localhost/www.ap.org/Content/images/icons/AssociatedPress_logo.png",
         "id" : "r32",
         "comps" : [],
         "download" : {
            "receiveFirst" : 164,
            "len" : 2177,
            "dns" : 0,
            "dnsEnd" : -1,
            "receiveHeadersEnd" : 352,
            "sslEnd" : -1,
            "connectEnd" : 188,
            "connectStart" : 0,
            "id" : "download_25",
            "receivedTime" : "2357.17799999838",
            "sslStart" : -1,
            "dnsStart" : -1,
            "receiveLast" : 2005.17799999838,
            "s_time" : 1899.87300000212,
            "sendEnd" : 188,
            "sendStart" : 188,
            "type" : "image/png"
         }
      },
      {
         "when_comp_start" : -1,
         "url" : "http://original.testbed.localhost/www.ap.org/Content/images/icons/tpNvPointr.gif",
         "id" : "r33",
         "comps" : [],
         "download" : {
            "receiveFirst" : 154,
            "len" : 1296,
            "dns" : 0,
            "dnsEnd" : -1,
            "receiveHeadersEnd" : 483,
            "sslEnd" : -1,
            "connectEnd" : 329,
            "connectStart" : 0,
            "id" : "download_26",
            "receivedTime" : "2433.5940000019",
            "sslStart" : -1,
            "dnsStart" : -1,
            "receiveLast" : 1950.5940000019,
            "s_time" : 1901.53499999724,
            "sendEnd" : 329,
            "sendStart" : 329,
            "type" : "image/gif"
         }
      },
      {
         "when_comp_start" : -1,
         "url" : "http://original.testbed.localhost/www.ap.org/Content/images/shades/tpNvPp_bg.png",
         "id" : "r34",
         "comps" : [],
         "download" : {
            "receiveFirst" : 156,
            "len" : 921,
            "dns" : 0,
            "dnsEnd" : -1,
            "receiveHeadersEnd" : 511,
            "sslEnd" : -1,
            "connectEnd" : 355,
            "connectStart" : 0,
            "id" : "download_27",
            "receivedTime" : "2435.51699999807",
            "sslStart" : -1,
            "dnsStart" : -1,
            "receiveLast" : 1924.51699999807,
            "s_time" : 1902.67999999924,
            "sendEnd" : 355,
            "sendStart" : 355,
            "type" : "image/png"
         }
      },
      {
         "when_comp_start" : -1,
         "url" : "http://original.testbed.localhost/www.ap.org/Content/images/icons/Facebook-icon.png",
         "id" : "r35",
         "comps" : [],
         "download" : {
            "receiveFirst" : 166,
            "len" : 262,
            "dns" : 0,
            "dnsEnd" : -1,
            "receiveHeadersEnd" : 386,
            "sslEnd" : -1,
            "connectEnd" : 220,
            "connectStart" : 0,
            "id" : "download_28",
            "receivedTime" : "2436.86000000162",
            "sslStart" : -1,
            "dnsStart" : -1,
            "receiveLast" : 2050.86000000162,
            "s_time" : 2044.66300000058,
            "sendEnd" : 220,
            "sendStart" : 220,
            "type" : "image/png"
         }
      },
      {
         "when_comp_start" : -1,
         "url" : "http://original.testbed.localhost/www.ap.org/assets/GoodWeb-Book.woff",
         "id" : "r19",
         "comps" : [],
         "download" : {
            "receiveFirst" : 156,
            "len" : 33404,
            "dns" : 0,
            "dnsEnd" : -1,
            "receiveHeadersEnd" : 250,
            "sslEnd" : -1,
            "connectEnd" : 94,
            "connectStart" : 0,
            "id" : "download_29",
            "receivedTime" : "2816.55899999896",
            "sslStart" : -1,
            "dnsStart" : -1,
            "receiveLast" : 2566.55899999896,
            "s_time" : 2266.60199999606,
            "sendEnd" : 94,
            "sendStart" : 94,
            "type" : "application/octet-stream"
         }
      },
      {
         "when_comp_start" : -1,
         "url" : "http://original.testbed.localhost/www.ap.org/assets/GoodWeb-Bold.woff",
         "id" : "r20",
         "comps" : [],
         "download" : {
            "receiveFirst" : 154,
            "len" : 33836,
            "dns" : 0,
            "dnsEnd" : -1,
            "receiveHeadersEnd" : 257,
            "sslEnd" : -1,
            "connectEnd" : 102,
            "connectStart" : 0,
            "id" : "download_30",
            "receivedTime" : "2884.2169999989",
            "sslStart" : -1,
            "dnsStart" : -1,
            "receiveLast" : 2627.2169999989,
            "s_time" : 2267.54799999617,
            "sendEnd" : 103,
            "sendStart" : 102,
            "type" : "application/octet-stream"
         }
      },
      {
         "when_comp_start" : -1,
         "url" : "http://original.testbed.localhost/www.ap.org/assets/GoodWeb-CondBold.woff",
         "id" : "r18",
         "comps" : [],
         "download" : {
            "receiveFirst" : 160,
            "len" : 32696,
            "dns" : 0,
            "dnsEnd" : -1,
            "receiveHeadersEnd" : 282,
            "sslEnd" : -1,
            "connectEnd" : 120,
            "connectStart" : 0,
            "id" : "download_31",
            "receivedTime" : "2994.87399999634",
            "sslStart" : -1,
            "dnsStart" : -1,
            "receiveLast" : 2712.87399999634,
            "s_time" : 2268.31099999981,
            "sendEnd" : 122,
            "sendStart" : 120,
            "type" : "application/octet-stream"
         }
      },
      {
         "when_comp_start" : -1,
         "url" : "http://original.testbed.localhost/s.ytimg.com/yts/cssbin/www-embed-player-new-vfl5giJql.css",
         "id" : "r55",
         "comps" : [
            {
               "s_time" : 3111.72500000248,
               "time" : 188.84299999627,
               "type" : 4,
               "id" : "comp_90",
               "e_time" : 3300.56799999875
            }
         ],
         "download" : {
            "receiveFirst" : 159,
            "len" : 215308,
            "dns" : 0,
            "dnsEnd" : -1,
            "receiveHeadersEnd" : 179,
            "sslEnd" : -1,
            "connectEnd" : 20,
            "connectStart" : 0,
            "id" : "download_32",
            "receivedTime" : "3110.96199999884",
            "sslStart" : -1,
            "dnsStart" : -1,
            "receiveLast" : 2931.96199999884,
            "s_time" : 2397.4309999976,
            "sendEnd" : 20,
            "sendStart" : 20,
            "type" : "text/css"
         }
      },
      {
         "when_comp_start" : -1,
         "url" : "http://original.testbed.localhost/s.ytimg.com/yts/jsbin/www-embed-player-new-vflRnMsMv/www-embed-player-new.js",
         "id" : "r56",
         "comps" : [
            {
               "s_time" : 3317.68899999588,
               "time" : 213.28700000595,
               "type" : 1,
               "id" : "comp_94",
               "e_time" : 3530.97600000183
            }
         ],
         "download" : {
            "receiveFirst" : 161,
            "len" : 183099,
            "dns" : 0,
            "dnsEnd" : -1,
            "receiveHeadersEnd" : 193,
            "sslEnd" : -1,
            "connectEnd" : 32,
            "connectStart" : 0,
            "id" : "download_33",
            "receivedTime" : "3317.07800000004",
            "sslStart" : -1,
            "dnsStart" : -1,
            "receiveLast" : 3124.07800000004,
            "s_time" : 2400.48299999762,
            "sendEnd" : 32,
            "sendStart" : 32,
            "type" : "application/javascript"
         }
      },
      {
         "when_comp_start" : -1,
         "url" : "http://original.testbed.localhost/s.ytimg.com/yts/jsbin/html5player-new-en_US-vflhlPTtB/html5player-new.js",
         "id" : "r57",
         "comps" : [
            {
               "s_time" : 4806.97700000019,
               "time" : 866.363000001,
               "type" : 1,
               "id" : "comp_98",
               "e_time" : 5673.34000000119
            }
         ],
         "download" : {
            "receiveFirst" : 164,
            "len" : 1037844,
            "dns" : 0,
            "dnsEnd" : -1,
            "receiveHeadersEnd" : 236,
            "sslEnd" : -1,
            "connectEnd" : 71,
            "connectStart" : 0,
            "id" : "download_34",
            "receivedTime" : "4803.40599999909",
            "sslStart" : -1,
            "dnsStart" : -1,
            "receiveLast" : 4567.40599999909,
            "s_time" : 2404.35799999977,
            "sendEnd" : 72,
            "sendStart" : 71,
            "type" : "application/javascript"
         }
      },
      {
         "when_comp_start" : -1,
         "url" : "http://original.testbed.localhost/www.ap.org/Content/images/icons/in_logoIcn_small.png",
         "id" : "r36",
         "comps" : [],
         "download" : {
            "receiveFirst" : 153,
            "len" : 637,
            "dns" : 0,
            "dnsEnd" : -1,
            "receiveHeadersEnd" : 890,
            "sslEnd" : -1,
            "connectEnd" : 736,
            "connectStart" : 0,
            "id" : "download_35",
            "receivedTime" : "3064.42299999617",
            "sslStart" : -1,
            "dnsStart" : -1,
            "receiveLast" : 2174.42299999617,
            "s_time" : 2081.29899999767,
            "sendEnd" : 737,
            "sendStart" : 736,
            "type" : "image/png"
         }
      },
      {
         "when_comp_start" : -1,
         "url" : "http://original.testbed.localhost/www.ap.org/Content/images/icons/Twitter-icon.png",
         "id" : "r37",
         "comps" : [],
         "download" : {
            "receiveFirst" : 154,
            "len" : 273,
            "dns" : 0,
            "dnsEnd" : -1,
            "receiveHeadersEnd" : 899,
            "sslEnd" : -1,
            "connectEnd" : 744,
            "connectStart" : 0,
            "id" : "download_36",
            "receivedTime" : "3066.25399999757",
            "sslStart" : -1,
            "dnsStart" : -1,
            "receiveLast" : 2167.25399999757,
            "s_time" : 2086.04499999637,
            "sendEnd" : 745,
            "sendStart" : 744,
            "type" : "image/png"
         }
      },
      {
         "when_comp_start" : -1,
         "url" : "http://original.testbed.localhost/www.ap.org/Content/images/icons/srchGo.png",
         "id" : "r38",
         "comps" : [],
         "download" : {
            "receiveFirst" : 155,
            "len" : 1309,
            "dns" : 0,
            "dnsEnd" : -1,
            "receiveHeadersEnd" : 756,
            "sslEnd" : -1,
            "connectEnd" : 601,
            "connectStart" : 0,
            "id" : "download_37",
            "receivedTime" : "3068.23799999984",
            "sslStart" : -1,
            "dnsStart" : -1,
            "receiveLast" : 2312.23799999984,
            "s_time" : 2256.68399999995,
            "sendEnd" : 601,
            "sendStart" : 601,
            "type" : "image/png"
         }
      },
      {
         "when_comp_start" : -1,
         "url" : "http://original.testbed.localhost/www.ap.org/Images/south-korea-korean-war_tcm28-19542.jpg",
         "id" : "r39",
         "comps" : [],
         "download" : {
            "receiveFirst" : 158,
            "len" : 205151,
            "dns" : 0,
            "dnsEnd" : -1,
            "receiveHeadersEnd" : 872,
            "sslEnd" : -1,
            "connectEnd" : 714,
            "connectStart" : 0,
            "id" : "download_38",
            "receivedTime" : "4701.04999999603",
            "sslStart" : -1,
            "dnsStart" : -1,
            "receiveLast" : 3829.04999999603,
            "s_time" : 2262.05499999924,
            "sendEnd" : 714,
            "sendStart" : 714,
            "type" : "image/jpeg"
         }
      },
      {
         "when_comp_start" : -1,
         "url" : "http://original.testbed.localhost/www.ap.org/Content/images/shades/mainImgShade.png",
         "id" : "r40",
         "comps" : [],
         "download" : {
            "receiveFirst" : 152,
            "len" : 1090,
            "dns" : 0,
            "dnsEnd" : -1,
            "receiveHeadersEnd" : 788,
            "sslEnd" : -1,
            "connectEnd" : 635,
            "connectStart" : 0,
            "id" : "download_39",
            "receivedTime" : "3312.13399999979",
            "sslStart" : -1,
            "dnsStart" : -1,
            "receiveLast" : 2524.13399999979,
            "s_time" : 2358.7950000001,
            "sendEnd" : 636,
            "sendStart" : 635,
            "type" : "image/png"
         }
      },
      {
         "when_comp_start" : -1,
         "url" : "http://original.testbed.localhost/www.ap.org/Content/images/icons/priMvRt.gif",
         "id" : "r41",
         "comps" : [],
         "download" : {
            "receiveFirst" : 154,
            "len" : 1493,
            "dns" : 0,
            "dnsEnd" : -1,
            "receiveHeadersEnd" : 801,
            "sslEnd" : -1,
            "connectEnd" : 647,
            "connectStart" : 0,
            "id" : "download_40",
            "receivedTime" : "3314.48400000227",
            "sslStart" : -1,
            "dnsStart" : -1,
            "receiveLast" : 2513.48400000227,
            "s_time" : 2368.6830000006,
            "sendEnd" : 647,
            "sendStart" : 647,
            "type" : "image/gif"
         }
      },
      {
         "when_comp_start" : -1,
         "url" : "http://original.testbed.localhost/www.ap.org/Content/images/icons/f_logoIcn_lg.png",
         "id" : "r42",
         "comps" : [],
         "download" : {
            "receiveFirst" : 153,
            "len" : 355,
            "dns" : 0,
            "dnsEnd" : -1,
            "receiveHeadersEnd" : 796,
            "sslEnd" : -1,
            "connectEnd" : 643,
            "connectStart" : 0,
            "id" : "download_41",
            "receivedTime" : "3316.04099999822",
            "sslStart" : -1,
            "dnsStart" : -1,
            "receiveLast" : 2520.04099999822,
            "s_time" : 2387.95499999833,
            "sendEnd" : 643,
            "sendStart" : 643,
            "type" : "image/png"
         }
      },
      {
         "when_comp_start" : -1,
         "url" : "http://original.testbed.localhost/www.ap.org/Content/images/icons/in_logoIcn_lg.png",
         "id" : "r43",
         "comps" : [],
         "download" : {
            "receiveFirst" : 323,
            "len" : 1006,
            "dns" : 0,
            "dnsEnd" : -1,
            "receiveHeadersEnd" : 1056,
            "sslEnd" : -1,
            "connectEnd" : 733,
            "connectStart" : 0,
            "id" : "download_42",
            "receivedTime" : "3550.93399999896",
            "sslStart" : -1,
            "dnsStart" : -1,
            "receiveLast" : 2494.93399999896,
            "s_time" : 2416.96199999569,
            "sendEnd" : 733,
            "sendStart" : 733,
            "type" : "image/png"
         }
      },
      {
         "when_comp_start" : -1,
         "url" : "http://original.testbed.localhost/www.ap.org/Content/images/icons/twtIcn_bl_lg.png",
         "id" : "r44",
         "comps" : [],
         "download" : {
            "receiveFirst" : 300,
            "len" : 447,
            "dns" : 0,
            "dnsEnd" : -1,
            "receiveHeadersEnd" : 1041,
            "sslEnd" : -1,
            "connectEnd" : 740,
            "connectStart" : 0,
            "id" : "download_43",
            "receivedTime" : "3552.58199999662",
            "sslStart" : -1,
            "dnsStart" : -1,
            "receiveLast" : 2511.58199999662,
            "s_time" : 2432.9230000003,
            "sendEnd" : 741,
            "sendStart" : 740,
            "type" : "image/png"
         }
      },
      {
         "when_comp_start" : -1,
         "url" : "http://original.testbed.localhost/www.ap.org/Content/images/icons/youTbIcn.png",
         "id" : "r45",
         "comps" : [],
         "download" : {
            "receiveFirst" : 291,
            "len" : 2513,
            "dns" : 0,
            "dnsEnd" : -1,
            "receiveHeadersEnd" : 1004,
            "sslEnd" : -1,
            "connectEnd" : 712,
            "connectStart" : 0,
            "id" : "download_44",
            "receivedTime" : "3554.90199999622",
            "sslStart" : -1,
            "dnsStart" : -1,
            "receiveLast" : 2550.90199999622,
            "s_time" : 2475.15900000144,
            "sendEnd" : 713,
            "sendStart" : 712,
            "type" : "image/png"
         }
      }
   ],
   "deps" : [
      {
         "a2" : "r1_c2",
         "time" : -1,
         "id" : "dep1",
         "a1" : "comp_5"
      },
      {
         "a2" : "r1_c3",
         "time" : -1,
         "id" : "dep2",
         "a1" : "comp_8"
      },
      {
         "a2" : "r1_c4",
         "time" : -1,
         "id" : "dep3",
         "a1" : "comp_14"
      },
      {
         "a2" : "r1_c5",
         "time" : -1,
         "id" : "dep4",
         "a1" : "comp_17"
      },
      {
         "a2" : "r1_c6",
         "time" : -1,
         "id" : "dep5",
         "a1" : "comp_19"
      },
      {
         "a2" : "r1_c7",
         "time" : -1,
         "id" : "dep6",
         "a1" : "comp_21"
      },
      {
         "a2" : "r1_c8",
         "time" : -1,
         "id" : "dep7",
         "a1" : "comp_27"
      },
      {
         "a2" : "r1_c9",
         "time" : -1,
         "id" : "dep8",
         "a1" : "comp_29"
      },
      {
         "a2" : "r1_c10",
         "time" : -1,
         "id" : "dep9",
         "a1" : "comp_31"
      },
      {
         "a2" : "r1_c11",
         "time" : -1,
         "id" : "dep10",
         "a1" : "comp_33"
      },
      {
         "a2" : "r1_c12",
         "time" : -1,
         "id" : "dep11",
         "a1" : "comp_35"
      },
      {
         "a2" : "comp_5",
         "time" : -1,
         "id" : "dep12",
         "a1" : "comp_0"
      },
      {
         "a2" : "comp_5",
         "time" : -1,
         "id" : "dep13",
         "a1" : "comp_1"
      },
      {
         "a2" : "comp_5",
         "time" : -1,
         "id" : "dep14",
         "a1" : "comp_2"
      },
      {
         "a2" : "comp_5",
         "time" : -1,
         "id" : "dep15",
         "a1" : "comp_4"
      },
      {
         "a2" : "comp_8",
         "time" : -1,
         "id" : "dep16",
         "a1" : "comp_5"
      },
      {
         "a2" : "comp_14",
         "time" : -1,
         "id" : "dep17",
         "a1" : "comp_8"
      },
      {
         "a2" : "comp_17",
         "time" : -1,
         "id" : "dep18",
         "a1" : "comp_14"
      },
      {
         "a2" : "comp_19",
         "time" : -1,
         "id" : "dep19",
         "a1" : "comp_17"
      },
      {
         "a2" : "comp_21",
         "time" : -1,
         "id" : "dep20",
         "a1" : "comp_19"
      },
      {
         "a2" : "comp_27",
         "time" : -1,
         "id" : "dep21",
         "a1" : "comp_21"
      },
      {
         "a2" : "comp_29",
         "time" : -1,
         "id" : "dep22",
         "a1" : "comp_27"
      },
      {
         "a2" : "comp_31",
         "time" : -1,
         "id" : "dep23",
         "a1" : "comp_29"
      },
      {
         "a2" : "comp_33",
         "time" : -1,
         "id" : "dep24",
         "a1" : "comp_31"
      },
      {
         "a2" : "comp_35",
         "time" : -1,
         "id" : "dep25",
         "a1" : "comp_33"
      },
      {
         "a2" : "comp_35",
         "time" : -1,
         "id" : "dep26",
         "a1" : "comp_3"
      },
      {
         "a2" : "r28_c2",
         "time" : -1,
         "id" : "dep27",
         "a1" : "comp_94"
      },
      {
         "a2" : "r28_c3",
         "time" : -1,
         "id" : "dep28",
         "a1" : "comp_98"
      },
      {
         "a2" : "comp_98",
         "time" : -1,
         "id" : "dep29",
         "a1" : "comp_94"
      },
      {
         "a2" : "download_44",
         "time" : -1,
         "id" : "dep30",
         "a1" : "r28_c1"
      },
      {
         "a2" : "download_43",
         "time" : 41.7789999992201,
         "id" : "dep31",
         "a1" : "r28_c1"
      },
      {
         "a2" : "download_42",
         "time" : 25.8179999946101,
         "id" : "dep32",
         "a1" : "r28_c1"
      },
      {
         "a2" : "download_41",
         "time" : -1,
         "id" : "dep33",
         "a1" : "r1_c12"
      },
      {
         "a2" : "download_40",
         "time" : 632.50700000208,
         "id" : "dep34",
         "a1" : "r1_c12"
      },
      {
         "a2" : "download_39",
         "time" : 622.61900000158,
         "id" : "dep35",
         "a1" : "r1_c12"
      },
      {
         "a2" : "download_38",
         "time" : 525.87900000072,
         "id" : "dep36",
         "a1" : "r1_c12"
      },
      {
         "a2" : "download_37",
         "time" : 520.50800000143,
         "id" : "dep37",
         "a1" : "r1_c12"
      },
      {
         "a2" : "download_36",
         "time" : 349.86899999785,
         "id" : "dep38",
         "a1" : "r1_c12"
      },
      {
         "a2" : "download_35",
         "time" : 345.12299999915,
         "id" : "dep39",
         "a1" : "r1_c12"
      },
      {
         "a2" : "download_34",
         "time" : -1,
         "id" : "dep40",
         "a1" : "r1_c12"
      },
      {
         "a2" : "download_34",
         "time" : 13.2139999986903,
         "id" : "dep41",
         "a1" : "r28_c1"
      },
      {
         "a2" : "download_33",
         "time" : 664.3069999991,
         "id" : "dep42",
         "a1" : "r1_c12"
      },
      {
         "a2" : "download_33",
         "time" : 9.33899999654022,
         "id" : "dep43",
         "a1" : "r28_c1"
      },
      {
         "a2" : "download_32",
         "time" : 6.28699999652008,
         "id" : "dep44",
         "a1" : "r28_c1"
      },
      {
         "a2" : "download_31",
         "time" : 532.13500000129,
         "id" : "dep45",
         "a1" : "r1_c12"
      },
      {
         "a2" : "download_30",
         "time" : 531.37199999765,
         "id" : "dep46",
         "a1" : "r1_c12"
      },
      {
         "a2" : "download_29",
         "time" : 530.42599999754,
         "id" : "dep47",
         "a1" : "r1_c12"
      },
      {
         "a2" : "download_28",
         "time" : 308.48700000206,
         "id" : "dep48",
         "a1" : "r1_c12"
      },
      {
         "a2" : "download_27",
         "time" : 166.50400000072,
         "id" : "dep49",
         "a1" : "r1_c12"
      },
      {
         "a2" : "download_26",
         "time" : 165.35899999872,
         "id" : "dep50",
         "a1" : "r1_c12"
      },
      {
         "a2" : "download_25",
         "time" : 163.6970000036,
         "id" : "dep51",
         "a1" : "r1_c12"
      },
      {
         "a2" : "download_24",
         "time" : 162.09299999901,
         "id" : "dep52",
         "a1" : "r1_c12"
      },
      {
         "a2" : "download_23",
         "time" : 140.65500000288,
         "id" : "dep53",
         "a1" : "r1_c12"
      },
      {
         "a2" : "download_22",
         "time" : 138.6249999996,
         "id" : "dep54",
         "a1" : "r1_c12"
      },
      {
         "a2" : "download_21",
         "time" : 137.16099999874,
         "id" : "dep55",
         "a1" : "r1_c12"
      },
      {
         "a2" : "download_20",
         "time" : 128.81500000367,
         "id" : "dep56",
         "a1" : "r1_c12"
      },
      {
         "a2" : "download_19",
         "time" : 126.72400000156,
         "id" : "dep57",
         "a1" : "r1_c12"
      },
      {
         "a2" : "download_18",
         "time" : 125.44200000412,
         "id" : "dep58",
         "a1" : "r1_c12"
      },
      {
         "a2" : "download_17",
         "time" : 123.97800000326,
         "id" : "dep59",
         "a1" : "r1_c12"
      },
      {
         "a2" : "download_16",
         "time" : -1,
         "id" : "dep60",
         "a1" : "r1_c1"
      },
      {
         "a2" : "download_16",
         "time" : 14.037999993889,
         "id" : "dep61",
         "a1" : "r1_c1"
      },
      {
         "a2" : "download_15",
         "time" : 12.66499999474,
         "id" : "dep62",
         "a1" : "r1_c1"
      },
      {
         "a2" : "download_15",
         "time" : 12.66499999474,
         "id" : "dep63",
         "a1" : "r1_c1"
      },
      {
         "a2" : "download_14",
         "time" : 12.023999996018,
         "id" : "dep64",
         "a1" : "r1_c1"
      },
      {
         "a2" : "download_14",
         "time" : 12.023999996018,
         "id" : "dep65",
         "a1" : "r1_c1"
      },
      {
         "a2" : "download_13",
         "time" : 11.352999994415,
         "id" : "dep66",
         "a1" : "r1_c1"
      },
      {
         "a2" : "download_13",
         "time" : 11.352999994415,
         "id" : "dep67",
         "a1" : "r1_c1"
      },
      {
         "a2" : "download_12",
         "time" : 10.314999999537,
         "id" : "dep68",
         "a1" : "r1_c1"
      },
      {
         "a2" : "download_12",
         "time" : 10.314999999537,
         "id" : "dep69",
         "a1" : "r1_c1"
      },
      {
         "a2" : "download_11",
         "time" : 9.70499999675701,
         "id" : "dep70",
         "a1" : "r1_c1"
      },
      {
         "a2" : "download_11",
         "time" : 9.70499999675701,
         "id" : "dep71",
         "a1" : "r1_c1"
      },
      {
         "a2" : "download_10",
         "time" : 9.002999999211,
         "id" : "dep72",
         "a1" : "r1_c1"
      },
      {
         "a2" : "download_10",
         "time" : 9.002999999211,
         "id" : "dep73",
         "a1" : "r1_c1"
      },
      {
         "a2" : "download_9",
         "time" : 8.30099999439,
         "id" : "dep74",
         "a1" : "r1_c1"
      },
      {
         "a2" : "download_9",
         "time" : 8.30099999439,
         "id" : "dep75",
         "a1" : "r1_c1"
      },
      {
         "a2" : "download_8",
         "time" : 7.63000000006303,
         "id" : "dep76",
         "a1" : "r1_c1"
      },
      {
         "a2" : "download_8",
         "time" : 7.63000000006303,
         "id" : "dep77",
         "a1" : "r1_c1"
      },
      {
         "a2" : "download_7",
         "time" : 6.896999999299,
         "id" : "dep78",
         "a1" : "r1_c1"
      },
      {
         "a2" : "download_7",
         "time" : 6.896999999299,
         "id" : "dep79",
         "a1" : "r1_c1"
      },
      {
         "a2" : "download_6",
         "time" : 5.89000000036299,
         "id" : "dep80",
         "a1" : "r1_c1"
      },
      {
         "a2" : "download_5",
         "time" : 13.306000000739,
         "id" : "dep81",
         "a1" : "r1_c1"
      },
      {
         "a2" : "download_5",
         "time" : 13.306000000739,
         "id" : "dep82",
         "a1" : "r1_c1"
      },
      {
         "a2" : "download_4",
         "time" : 4.73100000090199,
         "id" : "dep83",
         "a1" : "r1_c1"
      },
      {
         "a2" : "download_3",
         "time" : 3.75399999757099,
         "id" : "dep84",
         "a1" : "r1_c1"
      },
      {
         "a2" : "download_2",
         "time" : 2.839000000677,
         "id" : "dep85",
         "a1" : "r1_c1"
      },
      {
         "a2" : "download_1",
         "time" : 2.16699999873498,
         "id" : "dep86",
         "a1" : "r1_c1"
      }
   ]
}
