{
   "n_download_no_trigger" : 1,
   "objs" : [
      {
         "when_comp_start" : 1,
         "comps" : [
            {
               "e_time" : -338014175.695,
               "id" : "r1_c1",
               "time" : -338014291.474,
               "s_time" : 115.779000043403,
               "type" : "evalhtml"
            },
            {
               "time" : -338014304.537,
               "id" : "r1_c2",
               "e_time" : -338014175.695,
               "type" : "evalhtml",
               "s_time" : 128.842000034638
            },
            {
               "s_time" : 128.93200002145,
               "type" : "evalhtml",
               "e_time" : -338014175.695,
               "id" : "r1_c3",
               "time" : -338014304.627
            },
            {
               "time" : -338014304.708,
               "e_time" : -338014175.695,
               "id" : "r1_c4",
               "type" : "evalhtml",
               "s_time" : 129.01299999794
            },
            {
               "s_time" : 129.129000008106,
               "type" : "evalhtml",
               "e_time" : -338014175.695,
               "id" : "r1_c5",
               "time" : -338014304.824
            },
            {
               "type" : "evalhtml",
               "s_time" : 130.682000017259,
               "time" : -338014306.377,
               "id" : "r1_c6",
               "e_time" : -338014175.695
            },
            {
               "s_time" : 130.796000012197,
               "type" : "evalhtml",
               "id" : "r1_c7",
               "e_time" : -338014175.695,
               "time" : -338014306.491
            },
            {
               "s_time" : 130.856000003405,
               "type" : "evalhtml",
               "e_time" : -338014175.695,
               "id" : "r1_c8",
               "time" : -338014306.551
            },
            {
               "time" : -338014306.632,
               "id" : "r1_c9",
               "e_time" : -338014175.695,
               "type" : "evalhtml",
               "s_time" : 130.937000038102
            },
            {
               "time" : -338014306.762,
               "id" : "r1_c10",
               "e_time" : -338014175.695,
               "type" : "evalhtml",
               "s_time" : 131.067000038456
            },
            {
               "type" : "evalhtml",
               "s_time" : 131.154000002425,
               "time" : -338014306.849,
               "id" : "r1_c11",
               "e_time" : -338014175.695
            },
            {
               "type" : "evalhtml",
               "s_time" : 132.913000008557,
               "time" : -338014308.608,
               "id" : "r1_c12",
               "e_time" : -338014175.695
            },
            {
               "time" : -338014308.856,
               "id" : "r1_c13",
               "e_time" : -338014175.695,
               "type" : "evalhtml",
               "s_time" : 133.161000034306
            },
            {
               "time" : -338014308.905,
               "e_time" : -338014175.695,
               "id" : "r1_c14",
               "type" : "evalhtml",
               "s_time" : 133.209999999963
            },
            {
               "e_time" : -338014175.695,
               "id" : "r1_c15",
               "time" : -338014309.563,
               "s_time" : 133.868000004441,
               "type" : "evalhtml"
            },
            {
               "type" : "evalhtml",
               "s_time" : 134.026999992784,
               "time" : -338014309.722,
               "e_time" : -338014175.695,
               "id" : "r1_c16"
            },
            {
               "e_time" : -338014175.695,
               "id" : "r1_c17",
               "time" : -338014310.766,
               "s_time" : 135.071000026073,
               "type" : "evalhtml"
            },
            {
               "time" : -338014310.906,
               "e_time" : -338014175.695,
               "id" : "r1_c18",
               "type" : "evalhtml",
               "s_time" : 135.211000044364
            },
            {
               "e_time" : -338014175.695,
               "id" : "r1_c19",
               "time" : -338014310.998,
               "s_time" : 135.302999988198,
               "type" : "evalhtml"
            },
            {
               "time" : -338014311.075,
               "e_time" : -338014175.695,
               "id" : "r1_c20",
               "type" : "evalhtml",
               "s_time" : 135.379999992438
            },
            {
               "time" : -338014311.634,
               "id" : "r1_c21",
               "e_time" : -338014175.695,
               "type" : "evalhtml",
               "s_time" : 135.93899999978
            },
            {
               "id" : "r1_c22",
               "e_time" : -338014175.695,
               "time" : -338014311.703,
               "s_time" : 136.008000001311,
               "type" : "evalhtml"
            },
            {
               "s_time" : 136.066000035498,
               "type" : "evalhtml",
               "id" : "r1_c23",
               "e_time" : -338014175.695,
               "time" : -338014311.761
            },
            {
               "id" : "r1_c24",
               "e_time" : -338014175.695,
               "time" : -338014312.575,
               "s_time" : 136.880000005476,
               "type" : "evalhtml"
            },
            {
               "s_time" : 136.965000012424,
               "type" : "evalhtml",
               "id" : "r1_c25",
               "e_time" : -338014175.695,
               "time" : -338014312.66
            },
            {
               "time" : -338014312.728,
               "e_time" : -338014175.695,
               "id" : "r1_c26",
               "type" : "evalhtml",
               "s_time" : 137.03300000634
            },
            {
               "e_time" : -338014175.695,
               "id" : "r1_c27",
               "time" : -338014315.18,
               "s_time" : 139.484999992419,
               "type" : "evalhtml"
            },
            {
               "time" : -338014315.337,
               "e_time" : -338014175.695,
               "id" : "r1_c28",
               "type" : "evalhtml",
               "s_time" : 139.642000023741
            },
            {
               "time" : -338014315.437,
               "e_time" : -338014175.695,
               "id" : "r1_c29",
               "type" : "evalhtml",
               "s_time" : 139.742000028491
            },
            {
               "s_time" : 169.089000031818,
               "type" : "evalhtml",
               "id" : "r1_c30",
               "e_time" : -338014175.695,
               "time" : -338014344.784
            },
            {
               "s_time" : 594.74000002956,
               "type" : "evalhtml",
               "id" : "r1_c31",
               "e_time" : -338014175.695,
               "time" : -338014770.435
            },
            {
               "e_time" : -338014175.695,
               "id" : "r1_c32",
               "time" : -338014771.062,
               "s_time" : 595.367000030819,
               "type" : "evalhtml"
            },
            {
               "time" : -338014771.839,
               "id" : "r1_c33",
               "e_time" : -338014175.695,
               "type" : "evalhtml",
               "s_time" : 596.144000010099
            },
            {
               "s_time" : 596.255000040401,
               "type" : "evalhtml",
               "id" : "r1_c34",
               "e_time" : -338014175.695,
               "time" : -338014771.95
            },
            {
               "time" : -338014774.21,
               "id" : "r1_c35",
               "e_time" : -338014175.695,
               "type" : "evalhtml",
               "s_time" : 598.515000019688
            },
            {
               "s_time" : 598.858000012115,
               "type" : "evalhtml",
               "e_time" : -338014175.695,
               "id" : "r1_c36",
               "time" : -338014774.553
            },
            {
               "s_time" : 598.900000040885,
               "type" : "evalhtml",
               "id" : "r1_c37",
               "e_time" : 599.193000001833,
               "time" : 0.292999960948009
            }
         ],
         "download" : {
            "receiveHeadersEnd" : 103,
            "len" : 101530,
            "receivedTime" : "220.091000024695",
            "s_time" : 0,
            "connectEnd" : 0,
            "sslStart" : -1,
            "sendStart" : 0,
            "connectStart" : 0,
            "dns" : 0,
            "receiveLast" : 117.091000024695,
            "receiveFirst" : 103,
            "id" : "download_0",
            "dnsEnd" : -1,
            "sslEnd" : -1,
            "sendEnd" : 0,
            "dnsStart" : -1,
            "type" : "text/html"
         },
         "url" : "http://original.testbed.localhost/www.webmarketingemprendedores.com/",
         "id" : "r1"
      }
   ],
   "load_activity" : -1,
   "deps" : [
      {
         "time" : -1,
         "a1" : "comp_22",
         "id" : "dep1",
         "a2" : "r1_c2"
      },
      {
         "time" : -1,
         "a1" : "comp_23",
         "id" : "dep2",
         "a2" : "r1_c3"
      },
      {
         "time" : -1,
         "a1" : "comp_24",
         "id" : "dep3",
         "a2" : "r1_c4"
      },
      {
         "time" : -1,
         "id" : "dep4",
         "a1" : "comp_25",
         "a2" : "r1_c5"
      },
      {
         "id" : "dep5",
         "a1" : "comp_26",
         "time" : -1,
         "a2" : "r1_c6"
      },
      {
         "a2" : "r1_c7",
         "id" : "dep6",
         "a1" : "comp_27",
         "time" : -1
      },
      {
         "time" : -1,
         "id" : "dep7",
         "a1" : "comp_28",
         "a2" : "r1_c8"
      },
      {
         "a2" : "r1_c9",
         "time" : -1,
         "a1" : "comp_29",
         "id" : "dep8"
      },
      {
         "a2" : "r1_c10",
         "a1" : "comp_30",
         "id" : "dep9",
         "time" : -1
      },
      {
         "a2" : "r1_c11",
         "id" : "dep10",
         "a1" : "comp_31",
         "time" : -1
      },
      {
         "a1" : "comp_32",
         "id" : "dep11",
         "time" : -1,
         "a2" : "r1_c12"
      },
      {
         "time" : -1,
         "id" : "dep12",
         "a1" : "comp_33",
         "a2" : "r1_c13"
      },
      {
         "id" : "dep13",
         "a1" : "comp_34",
         "time" : -1,
         "a2" : "r1_c14"
      },
      {
         "a2" : "r1_c15",
         "time" : -1,
         "a1" : "comp_35",
         "id" : "dep14"
      },
      {
         "a2" : "r1_c16",
         "id" : "dep15",
         "a1" : "comp_36",
         "time" : -1
      },
      {
         "a2" : "r1_c17",
         "time" : -1,
         "a1" : "comp_37",
         "id" : "dep16"
      },
      {
         "time" : -1,
         "a1" : "comp_38",
         "id" : "dep17",
         "a2" : "r1_c18"
      },
      {
         "a2" : "r1_c19",
         "time" : -1,
         "id" : "dep18",
         "a1" : "comp_39"
      },
      {
         "a2" : "r1_c20",
         "id" : "dep19",
         "a1" : "comp_40",
         "time" : -1
      },
      {
         "time" : -1,
         "a1" : "comp_42",
         "id" : "dep20",
         "a2" : "r1_c21"
      },
      {
         "a1" : "comp_43",
         "id" : "dep21",
         "time" : -1,
         "a2" : "r1_c22"
      },
      {
         "time" : -1,
         "a1" : "comp_44",
         "id" : "dep22",
         "a2" : "r1_c23"
      },
      {
         "a1" : "comp_45",
         "id" : "dep23",
         "time" : -1,
         "a2" : "r1_c24"
      },
      {
         "a1" : "comp_46",
         "id" : "dep24",
         "time" : -1,
         "a2" : "r1_c25"
      },
      {
         "time" : -1,
         "a1" : "comp_47",
         "id" : "dep25",
         "a2" : "r1_c26"
      },
      {
         "a2" : "r1_c27",
         "time" : -1,
         "id" : "dep26",
         "a1" : "comp_48"
      },
      {
         "a2" : "r1_c28",
         "time" : -1,
         "id" : "dep27",
         "a1" : "comp_49"
      },
      {
         "a2" : "r1_c29",
         "time" : -1,
         "a1" : "comp_50",
         "id" : "dep28"
      },
      {
         "a2" : "r1_c30",
         "id" : "dep29",
         "a1" : "comp_54",
         "time" : -1
      },
      {
         "time" : -1,
         "a1" : "comp_61",
         "id" : "dep30",
         "a2" : "r1_c31"
      },
      {
         "a2" : "r1_c32",
         "time" : -1,
         "a1" : "comp_64",
         "id" : "dep31"
      },
      {
         "a2" : "r1_c33",
         "time" : -1,
         "a1" : "comp_68",
         "id" : "dep32"
      },
      {
         "a2" : "r1_c34",
         "time" : -1,
         "id" : "dep33",
         "a1" : "comp_70"
      },
      {
         "a1" : "comp_72",
         "id" : "dep34",
         "time" : -1,
         "a2" : "r1_c35"
      },
      {
         "time" : -1,
         "a1" : "comp_74",
         "id" : "dep35",
         "a2" : "r1_c36"
      },
      {
         "a2" : "r1_c37",
         "time" : -1,
         "a1" : "comp_75",
         "id" : "dep36"
      }
   ],
   "start_activity" : "download_0",
   "name" : "original.testbed.localhost_www.webmarketingemprendedores.com_"
}
