{
   "start_activity" : "download_0",
   "n_download_no_trigger" : 1,
   "load_activity" : -1,
   "deps" : [
      {
         "a2" : "r1_c2",
         "a1" : "comp_9",
         "id" : "dep1",
         "time" : -1
      },
      {
         "time" : -1,
         "id" : "dep2",
         "a2" : "r1_c3",
         "a1" : "comp_20"
      },
      {
         "a2" : "r1_c4",
         "a1" : "comp_68",
         "id" : "dep3",
         "time" : -1
      },
      {
         "time" : -1,
         "id" : "dep4",
         "a2" : "r1_c5",
         "a1" : "comp_73"
      },
      {
         "a1" : "comp_76",
         "a2" : "r1_c6",
         "id" : "dep5",
         "time" : -1
      },
      {
         "time" : -1,
         "id" : "dep6",
         "a1" : "comp_90",
         "a2" : "r1_c7"
      },
      {
         "a1" : "comp_3",
         "a2" : "comp_9",
         "time" : -1,
         "id" : "dep7"
      },
      {
         "a2" : "comp_9",
         "a1" : "comp_8",
         "time" : -1,
         "id" : "dep8"
      },
      {
         "id" : "dep9",
         "time" : -1,
         "a2" : "comp_9",
         "a1" : "comp_24"
      },
      {
         "a2" : "comp_73",
         "a1" : "comp_68",
         "time" : -1,
         "id" : "dep10"
      },
      {
         "a2" : "comp_76",
         "a1" : "comp_73",
         "id" : "dep11",
         "time" : -1
      },
      {
         "a2" : "comp_90",
         "a1" : "comp_76",
         "time" : -1,
         "id" : "dep12"
      },
      {
         "time" : 46.6310000047101,
         "id" : "dep13",
         "a1" : "r1_c7",
         "a2" : "download_32"
      },
      {
         "a1" : "r1_c4",
         "a2" : "download_31",
         "time" : -1,
         "id" : "dep14"
      },
      {
         "time" : -1,
         "id" : "dep15",
         "a2" : "download_30",
         "a1" : "r1_c4"
      },
      {
         "id" : "dep16",
         "time" : 0.632999988740266,
         "a2" : "download_29",
         "a1" : "r1_c4"
      },
      {
         "time" : 0.872999953580347,
         "id" : "dep17",
         "a2" : "download_28",
         "a1" : "r1_c4"
      },
      {
         "time" : -1,
         "id" : "dep18",
         "a2" : "download_27",
         "a1" : "r1_c3"
      },
      {
         "id" : "dep19",
         "time" : 254.09800000488,
         "a1" : "r1_c3",
         "a2" : "download_27"
      },
      {
         "time" : 108.80000004545,
         "id" : "dep20",
         "a2" : "download_26",
         "a1" : "r1_c3"
      },
      {
         "a2" : "download_25",
         "a1" : "r1_c3",
         "id" : "dep21",
         "time" : 108.45300002256
      },
      {
         "a1" : "r1_c3",
         "a2" : "download_24",
         "id" : "dep22",
         "time" : 107.45000001043
      },
      {
         "id" : "dep23",
         "time" : 107.10800002562,
         "a2" : "download_23",
         "a1" : "r1_c3"
      },
      {
         "a2" : "download_22",
         "a1" : "r1_c3",
         "time" : 2.83000001218034,
         "id" : "dep24"
      },
      {
         "a1" : "r1_c3",
         "a2" : "download_21",
         "time" : 2.95000005280008,
         "id" : "dep25"
      },
      {
         "a1" : "r1_c3",
         "a2" : "download_20",
         "time" : 3.98200005293029,
         "id" : "dep26"
      },
      {
         "time" : 3.98200005293029,
         "id" : "dep27",
         "a2" : "download_20",
         "a1" : "r1_c3"
      },
      {
         "a1" : "r1_c3",
         "a2" : "download_19",
         "id" : "dep28",
         "time" : 2.59600003482001
      },
      {
         "a1" : "r1_c3",
         "a2" : "download_18",
         "time" : 2.48100003227,
         "id" : "dep29"
      },
      {
         "a2" : "download_17",
         "a1" : "r1_c3",
         "id" : "dep30",
         "time" : 4.07800002722024
      },
      {
         "a2" : "download_17",
         "a1" : "r1_c3",
         "id" : "dep31",
         "time" : 4.07800002722024
      },
      {
         "id" : "dep32",
         "time" : 3.81300004664035,
         "a2" : "download_16",
         "a1" : "r1_c3"
      },
      {
         "a2" : "download_16",
         "a1" : "r1_c3",
         "time" : 3.81300004664035,
         "id" : "dep33"
      },
      {
         "a1" : "r1_c3",
         "a2" : "download_15",
         "time" : 3.91400000080012,
         "id" : "dep34"
      },
      {
         "a2" : "download_15",
         "a1" : "r1_c3",
         "time" : 3.91400000080012,
         "id" : "dep35"
      },
      {
         "time" : 2.11400003172002,
         "id" : "dep36",
         "a2" : "download_14",
         "a1" : "r1_c3"
      },
      {
         "a2" : "download_13",
         "a1" : "r1_c3",
         "time" : 1.99700001394012,
         "id" : "dep37"
      },
      {
         "a2" : "download_12",
         "a1" : "r1_c3",
         "id" : "dep38",
         "time" : 1.76200002897031
      },
      {
         "time" : 1.43699999898035,
         "id" : "dep39",
         "a2" : "download_11",
         "a1" : "r1_c3"
      },
      {
         "time" : 1.6490000416502,
         "id" : "dep40",
         "a1" : "r1_c3",
         "a2" : "download_10"
      },
      {
         "time" : 1.33400002960025,
         "id" : "dep41",
         "a1" : "r1_c3",
         "a2" : "download_9"
      },
      {
         "a2" : "download_8",
         "a1" : "r1_c1",
         "time" : -1,
         "id" : "dep42"
      },
      {
         "time" : -1,
         "id" : "dep43",
         "a2" : "download_7",
         "a1" : "r1_c1"
      },
      {
         "a2" : "download_6",
         "a1" : "r1_c1",
         "id" : "dep44",
         "time" : 433.294999995269
      },
      {
         "a2" : "download_5",
         "a1" : "r1_c1",
         "id" : "dep45",
         "time" : 433.185999980197
      },
      {
         "a2" : "download_4",
         "a1" : "r1_c1",
         "time" : 3.515999997035,
         "id" : "dep46"
      },
      {
         "time" : 3.515999997035,
         "id" : "dep47",
         "a1" : "r1_c1",
         "a2" : "download_4"
      },
      {
         "id" : "dep48",
         "time" : 3.286999999546,
         "a2" : "download_3",
         "a1" : "r1_c1"
      },
      {
         "a1" : "r1_c1",
         "a2" : "download_2",
         "time" : 3.108999982942,
         "id" : "dep49"
      },
      {
         "id" : "dep50",
         "time" : 3.020000003744,
         "a1" : "r1_c1",
         "a2" : "download_1"
      }
   ],
   "name" : "original.testbed.localhost_www.examiner.com_",
   "objs" : [
      {
         "id" : "r1",
         "when_comp_start" : 1,
         "url" : "http://original.testbed.localhost/www.examiner.com/",
         "download" : {
            "dns" : 0,
            "s_time" : 0,
            "receiveFirst" : 103,
            "receivedTime" : "204.343000019435",
            "connectEnd" : 0,
            "id" : "download_0",
            "sendStart" : 0,
            "dnsStart" : -1,
            "sslStart" : -1,
            "len" : 97323,
            "dnsEnd" : -1,
            "receiveHeadersEnd" : 103,
            "receiveLast" : 101.343000019435,
            "sslEnd" : -1,
            "sendEnd" : 0,
            "connectStart" : 0,
            "type" : "text/html"
         },
         "comps" : [
            {
               "type" : "evalhtml",
               "e_time" : 547.96500003431,
               "s_time" : 114.592000027187,
               "id" : "r1_c1",
               "time" : 433.373000007123
            },
            {
               "type" : "evalhtml",
               "e_time" : -334322691.265,
               "s_time" : 560.858000011649,
               "id" : "r1_c2",
               "time" : -334323252.123
            },
            {
               "type" : "evalhtml",
               "e_time" : 3169.93400000501,
               "s_time" : 2915.83600000013,
               "id" : "r1_c3",
               "time" : 254.09800000488
            },
            {
               "time" : 1.10199995106041,
               "id" : "r1_c4",
               "type" : "evalhtml",
               "e_time" : 3271.55800000764,
               "s_time" : 3270.45600005658
            },
            {
               "id" : "r1_c5",
               "time" : -334326014.752,
               "type" : "evalhtml",
               "s_time" : 3323.48700001603,
               "e_time" : -334322691.265
            },
            {
               "time" : -334326020.37,
               "id" : "r1_c6",
               "e_time" : -334322691.265,
               "s_time" : 3329.10500001162,
               "type" : "evalhtml"
            },
            {
               "s_time" : 3344.23500002595,
               "e_time" : 3418.47900004359,
               "type" : "evalhtml",
               "time" : 74.2440000176402,
               "id" : "r1_c7"
            }
         ]
      },
      {
         "download" : {
            "receiveFirst" : 101,
            "s_time" : 117.612000030931,
            "dns" : 0,
            "len" : 415,
            "dnsEnd" : -1,
            "id" : "download_1",
            "connectEnd" : 1,
            "receivedTime" : "220.133000053465",
            "sslStart" : -1,
            "sendStart" : 1,
            "dnsStart" : -1,
            "receiveHeadersEnd" : 102,
            "type" : "text/css",
            "connectStart" : 0,
            "sslEnd" : -1,
            "receiveLast" : 118.133000053465,
            "sendEnd" : 1
         },
         "comps" : [
            {
               "time" : 0.12800004333198,
               "id" : "comp_3",
               "type" : 4,
               "e_time" : 220.300000044517,
               "s_time" : 220.172000001185
            }
         ],
         "url" : "http://original.testbed.localhost/cdn2-b.examiner.com/sites/default/files/css/css_WVI5b0NR7PNdLQAufIMULGKRaPVj7ZWSixaaqpQ8iR4_452_1.css",
         "when_comp_start" : -1,
         "id" : "r2"
      },
      {
         "comps" : [
            {
               "id" : "comp_8",
               "time" : 2367.89100000169,
               "s_time" : 547.961000003852,
               "e_time" : 2915.85200000554,
               "type" : 4
            }
         ],
         "download" : {
            "sslStart" : -1,
            "sendStart" : 86,
            "dnsStart" : -1,
            "id" : "download_2",
            "receivedTime" : "547.919000033289",
            "connectEnd" : 86,
            "dnsEnd" : -1,
            "len" : 131074,
            "dns" : 0,
            "s_time" : 117.701000010129,
            "receiveFirst" : 104,
            "sendEnd" : 86,
            "receiveLast" : 357.919000033289,
            "sslEnd" : -1,
            "type" : "text/css",
            "connectStart" : 0,
            "receiveHeadersEnd" : 190
         },
         "when_comp_start" : -1,
         "url" : "http://original.testbed.localhost/cdn2-b.examiner.com/sites/default/files/css/css_iM0e58F9UuXz9n7_NutmG7vEipuH3IgrlP8vGiwo9oA_452_1.css",
         "id" : "r3"
      },
      {
         "id" : "r5",
         "url" : "http://original.testbed.localhost/cdn2-b.examiner.com/sites/default/files/js/js_izMbklKled8Iz36tDzoCaxKTK2LGkVInrJgIP9SfR_g_453_1.js%3Fo6dj05",
         "when_comp_start" : -1,
         "download" : {
            "receiveHeadersEnd" : 201,
            "connectStart" : 0,
            "type" : "text/plain",
            "sendEnd" : 101,
            "sslEnd" : -1,
            "receiveLast" : 346.305000014603,
            "s_time" : 117.879000026733,
            "receiveFirst" : 100,
            "dns" : 0,
            "dnsEnd" : 0,
            "len" : 7899,
            "sendStart" : 101,
            "dnsStart" : 0,
            "sslStart" : -1,
            "receivedTime" : "547.305000014603",
            "connectEnd" : 101,
            "id" : "download_3"
         },
         "comps" : [
            {
               "s_time" : 556.397000036668,
               "e_time" : 560.858000011649,
               "type" : 1,
               "id" : "comp_9",
               "time" : 4.46099997498095
            }
         ]
      },
      {
         "comps" : [
            {
               "type" : 1,
               "e_time" : 2915.83600000013,
               "s_time" : 565.216000017244,
               "time" : 2350.61999998289,
               "id" : "comp_20"
            }
         ],
         "download" : {
            "len" : 126269,
            "dnsEnd" : 0,
            "receivedTime" : "547.804000030737",
            "connectEnd" : 100,
            "id" : "download_4",
            "sendStart" : 100,
            "dnsStart" : 0,
            "sslStart" : -1,
            "s_time" : 118.108000024222,
            "receiveFirst" : 101,
            "dns" : 0,
            "connectStart" : 0,
            "type" : "text/plain",
            "sslEnd" : -1,
            "receiveLast" : 346.804000030737,
            "sendEnd" : 100,
            "receiveHeadersEnd" : 201
         },
         "id" : "r9",
         "when_comp_start" : -1,
         "url" : "http://original.testbed.localhost/pshared.5min.com/Scripts/Thumbseed2.js%3FtextLocation=1&thumbnailSize=0&displayHeader=false&sid=1304&width=1000&height=200&headerTextColor=%2523000000&textFGColor=%2523000&textBGColor=%2523eeeeee&textBGColor_MO=%2523eeeeee&textFGColor_MO=%2523000&videoGroupID=156083"
      },
      {
         "comps" : [],
         "download" : {
            "len" : 4826,
            "dnsEnd" : -1,
            "connectEnd" : 0,
            "receivedTime" : "2920.81999999937",
            "id" : "download_5",
            "dnsStart" : -1,
            "sendStart" : 0,
            "sslStart" : -1,
            "receiveFirst" : 101,
            "s_time" : 547.778000007384,
            "dns" : 0,
            "type" : "image/png",
            "connectStart" : 0,
            "receiveLast" : 2819.81999999937,
            "sslEnd" : -1,
            "sendEnd" : 0,
            "receiveHeadersEnd" : 101
         },
         "url" : "http://original.testbed.localhost/cdn2-b.examiner.com/sites/all/themes/greyhound/assets/images/examiner-logo.png",
         "when_comp_start" : -1,
         "id" : "r6"
      },
      {
         "when_comp_start" : -1,
         "url" : "http://original.testbed.localhost/cdn2-b.examiner.com/sites/default/files/styles/hero_curated_large/hash/20/a5/20a5ff9be1cd2b0fedc8cba4504f76d0.jpg%3Fitok=UNApe7f2",
         "id" : "r7",
         "comps" : [],
         "download" : {
            "dns" : 0,
            "receiveFirst" : 101,
            "s_time" : 547.887000022456,
            "receivedTime" : "2920.98000005353",
            "connectEnd" : 0,
            "id" : "download_6",
            "sendStart" : 0,
            "dnsStart" : -1,
            "sslStart" : -1,
            "len" : 20225,
            "dnsEnd" : -1,
            "receiveHeadersEnd" : 101,
            "sslEnd" : -1,
            "receiveLast" : 2819.98000005353,
            "sendEnd" : 0,
            "type" : "image/jpeg",
            "connectStart" : 0
         }
      },
      {
         "url" : "http://original.testbed.localhost/cdn2-b.examiner.com/sites/default/files/styles/hero_curated_large/hash/bf/05/bf052290218a1e052fb4435d5d20f27b.jpg%3Fitok=_4DTIKBA",
         "when_comp_start" : -1,
         "id" : "r8",
         "comps" : [],
         "download" : {
            "sendEnd" : 0,
            "sslEnd" : -1,
            "receiveLast" : 2820.08500003815,
            "type" : "image/jpeg",
            "connectStart" : 0,
            "receiveHeadersEnd" : 101,
            "sendStart" : 0,
            "dnsStart" : -1,
            "sslStart" : -1,
            "connectEnd" : 0,
            "receivedTime" : "2921.08500003815",
            "id" : "download_7",
            "dnsEnd" : -1,
            "len" : 25256,
            "dns" : 0,
            "s_time" : 547.96500003431,
            "receiveFirst" : 101
         }
      },
      {
         "download" : {
            "receiveHeadersEnd" : 555,
            "receiveLast" : 2366.20700003579,
            "sslEnd" : -1,
            "sendEnd" : 101,
            "type" : "text/css",
            "connectStart" : 0,
            "dns" : 0,
            "receiveFirst" : 454,
            "s_time" : 117.808000009973,
            "connectEnd" : 101,
            "receivedTime" : "2921.20700003579",
            "id" : "download_8",
            "sendStart" : 101,
            "dnsStart" : 1,
            "sslStart" : -1,
            "len" : 4354,
            "dnsEnd" : 1
         },
         "comps" : [
            {
               "s_time" : 2921.21900001075,
               "e_time" : 2922.50400001649,
               "type" : 4,
               "time" : 1.28500000574013,
               "id" : "comp_24"
            }
         ],
         "id" : "r4",
         "when_comp_start" : -1,
         "url" : "http://original.testbed.localhost/cdn2-b.examiner.com/sites/default/files/css/css_-pOaQB6BsVmy1RffuEK02PxiDvG3CgnKQWUwLTx1FI8_452_1.css"
      },
      {
         "id" : "r32",
         "url" : "http://original.testbed.localhost/cdn2-b.examiner.com/sites/default/files/styles/hero_curated_large/hash/c9/ab/c9ab59d338b80599f1fc17add6a15f6d.jpg%3Fitok=KJEFIaTN",
         "when_comp_start" : -1,
         "comps" : [],
         "download" : {
            "connectStart" : 0,
            "type" : "image/jpeg",
            "sendEnd" : 4,
            "sslEnd" : -1,
            "receiveLast" : 3121.43700004462,
            "receiveHeadersEnd" : 104,
            "dnsEnd" : -1,
            "len" : 18880,
            "sendStart" : 4,
            "dnsStart" : -1,
            "sslStart" : -1,
            "connectEnd" : 4,
            "receivedTime" : "3225.43700004462",
            "id" : "download_9",
            "receiveFirst" : 100,
            "s_time" : 2917.17000002973,
            "dns" : 0
         }
      },
      {
         "comps" : [],
         "download" : {
            "connectStart" : 0,
            "type" : "image/jpeg",
            "sendEnd" : 4,
            "receiveLast" : 3121.65000003669,
            "sslEnd" : -1,
            "receiveHeadersEnd" : 104,
            "dnsEnd" : -1,
            "len" : 18554,
            "sslStart" : -1,
            "sendStart" : 4,
            "dnsStart" : -1,
            "id" : "download_10",
            "receivedTime" : "3225.65000003669",
            "connectEnd" : 4,
            "receiveFirst" : 100,
            "s_time" : 2917.48500004178,
            "dns" : 0
         },
         "id" : "r34",
         "when_comp_start" : -1,
         "url" : "http://original.testbed.localhost/cdn2-b.examiner.com/sites/default/files/styles/hero_curated_large/hash/d3/0a/d30a91ea67bd609a33ff0df5a34c70c5.jpg%3Fitok=5VSBxjc2"
      },
      {
         "download" : {
            "sendStart" : 4,
            "dnsStart" : -1,
            "sslStart" : -1,
            "receivedTime" : "3226.28000000259",
            "connectEnd" : 4,
            "id" : "download_11",
            "dnsEnd" : -1,
            "len" : 38810,
            "dns" : 0,
            "s_time" : 2917.27299999911,
            "receiveFirst" : 101,
            "sendEnd" : 4,
            "receiveLast" : 3121.28000000259,
            "sslEnd" : -1,
            "type" : "image/jpeg",
            "connectStart" : 0,
            "receiveHeadersEnd" : 105
         },
         "comps" : [],
         "id" : "r33",
         "url" : "http://original.testbed.localhost/cdn2-b.examiner.com/sites/default/files/styles/hero_curated_large/hash/08/35/08351a83e1ebb4b25bed36b4ce3de6f9.jpg%3Fitok=ov8ixChj",
         "when_comp_start" : -1
      },
      {
         "comps" : [],
         "download" : {
            "receiveHeadersEnd" : 105,
            "type" : "image/jpeg",
            "connectStart" : 0,
            "sendEnd" : 3,
            "receiveLast" : 3121.33400000632,
            "sslEnd" : -1,
            "receiveFirst" : 102,
            "s_time" : 2917.5980000291,
            "dns" : 0,
            "dnsEnd" : -1,
            "len" : 33338,
            "sendStart" : 3,
            "dnsStart" : -1,
            "sslStart" : -1,
            "receivedTime" : "3226.33400000632",
            "connectEnd" : 3,
            "id" : "download_12"
         },
         "when_comp_start" : -1,
         "url" : "http://original.testbed.localhost/cdn2-b.examiner.com/sites/default/files/styles/hero_curated_large/hash/5d/e5/5de5d6c7eb102a601c9f7dc3f44e7c76.jpg%3Fitok=7QUk0IVg",
         "id" : "r35"
      },
      {
         "comps" : [],
         "download" : {
            "receiveHeadersEnd" : 105,
            "sendEnd" : 4,
            "receiveLast" : 3121.03499999968,
            "sslEnd" : -1,
            "type" : "image/jpeg",
            "connectStart" : 0,
            "dns" : 0,
            "s_time" : 2917.83300001407,
            "receiveFirst" : 101,
            "sendStart" : 4,
            "dnsStart" : -1,
            "sslStart" : -1,
            "connectEnd" : 4,
            "receivedTime" : "3226.03499999968",
            "id" : "download_13",
            "dnsEnd" : -1,
            "len" : 32093
         },
         "url" : "http://original.testbed.localhost/cdn2-b.examiner.com/sites/default/files/styles/hero_curated_large/hash/97/5a/975a0f2e968527ab137106fb3204f7fb.jpg%3Fitok=pHMz6m9f",
         "when_comp_start" : -1,
         "id" : "r36"
      },
      {
         "comps" : [],
         "download" : {
            "connectEnd" : 4,
            "receivedTime" : "3226.19600000326",
            "id" : "download_14",
            "sendStart" : 4,
            "dnsStart" : -1,
            "sslStart" : -1,
            "len" : 30016,
            "dnsEnd" : -1,
            "dns" : 0,
            "s_time" : 2917.95000003185,
            "receiveFirst" : 101,
            "receiveLast" : 3121.19600000326,
            "sslEnd" : -1,
            "sendEnd" : 4,
            "type" : "image/jpeg",
            "connectStart" : 0,
            "receiveHeadersEnd" : 105
         },
         "id" : "r37",
         "when_comp_start" : -1,
         "url" : "http://original.testbed.localhost/cdn2-b.examiner.com/sites/default/files/styles/hero_curated_large/hash/e4/93/e493e3cb91da304ec536e65ce56fdadf.jpg%3Fitok=Ec5rau9M"
      },
      {
         "comps" : [
            {
               "time" : 0.998000032269829,
               "id" : "comp_68",
               "e_time" : 3270.45600005658,
               "s_time" : 3269.45800002431,
               "type" : 1
            }
         ],
         "download" : {
            "sendStart" : 104,
            "dnsStart" : -1,
            "sslStart" : -1,
            "receivedTime" : "3249.95600001421",
            "connectEnd" : 104,
            "id" : "download_15",
            "dnsEnd" : -1,
            "len" : 5463,
            "dns" : 0,
            "receiveFirst" : 100,
            "s_time" : 2919.75000000093,
            "sendEnd" : 104,
            "sslEnd" : -1,
            "receiveLast" : 3045.95600001421,
            "connectStart" : 0,
            "type" : "text/plain",
            "receiveHeadersEnd" : 204
         },
         "when_comp_start" : -1,
         "url" : "http://original.testbed.localhost/cdn2-b.examiner.com/sites/default/files/js/js_nCQ5nHRYiQ-6cTVFVyLSNp1fsTIBj2pbRuGiny4jTZs_453_1.js%3Fo6dj05",
         "id" : "r47"
      },
      {
         "id" : "r46",
         "url" : "http://original.testbed.localhost/cdn2-b.examiner.com/sites/default/files/js/js_2cBQ1DfFkt8zrbf_MtJPF7di7jwslFByQwZU63t57EE_453_1.js%3Fo6dj05",
         "when_comp_start" : -1,
         "comps" : [],
         "download" : {
            "dns" : 0,
            "s_time" : 2919.64900004677,
            "receiveFirst" : 100,
            "sslStart" : -1,
            "sendStart" : 104,
            "dnsStart" : -1,
            "id" : "download_16",
            "receivedTime" : "3250.75400003698",
            "connectEnd" : 104,
            "dnsEnd" : -1,
            "len" : 104377,
            "receiveHeadersEnd" : 204,
            "sendEnd" : 104,
            "receiveLast" : 3046.75400003698,
            "sslEnd" : -1,
            "connectStart" : 0,
            "type" : "text/plain"
         }
      },
      {
         "comps" : [
            {
               "id" : "comp_76",
               "time" : 5.55100000928996,
               "type" : 1,
               "e_time" : 3329.10500001162,
               "s_time" : 3323.55400000233
            }
         ],
         "download" : {
            "sslEnd" : -1,
            "receiveLast" : 3045.54700003238,
            "sendEnd" : 104,
            "type" : "text/plain",
            "connectStart" : 0,
            "receiveHeadersEnd" : 205,
            "id" : "download_17",
            "receivedTime" : "3250.54700003238",
            "connectEnd" : 104,
            "sslStart" : -1,
            "sendStart" : 104,
            "dnsStart" : -1,
            "len" : 52336,
            "dnsEnd" : -1,
            "dns" : 0,
            "receiveFirst" : 101,
            "s_time" : 2919.91400002735
         },
         "url" : "http://original.testbed.localhost/cdn2-b.examiner.com/sites/default/files/js/js_jd9MbK3K3XvvxdlsfYPlK6OAND4lK7SUM_KIBs2qENI_453_1.js%3Fo6dj05",
         "when_comp_start" : -1,
         "id" : "r49"
      },
      {
         "id" : "r38",
         "url" : "http://original.testbed.localhost/cdn2-b.examiner.com/sites/default/files/styles/hero_curated_large/hash/a8/6a/a86a252e1d4a311050ba9366620c2800.jpg%3Fitok=GZxorOpu",
         "when_comp_start" : -1,
         "download" : {
            "receiveFirst" : 101,
            "s_time" : 2918.3170000324,
            "dns" : 0,
            "len" : 27213,
            "dnsEnd" : -1,
            "id" : "download_18",
            "receivedTime" : "3250.40900002932",
            "connectEnd" : 106,
            "sslStart" : -1,
            "dnsStart" : -1,
            "sendStart" : 106,
            "receiveHeadersEnd" : 207,
            "type" : "image/jpeg",
            "connectStart" : 0,
            "sslEnd" : -1,
            "receiveLast" : 3043.40900002932,
            "sendEnd" : 106
         },
         "comps" : []
      },
      {
         "comps" : [],
         "download" : {
            "type" : "image/jpeg",
            "connectStart" : 0,
            "sendEnd" : 106,
            "sslEnd" : -1,
            "receiveLast" : 3043.67800004035,
            "receiveHeadersEnd" : 207,
            "dnsEnd" : -1,
            "len" : 15400,
            "sslStart" : -1,
            "dnsStart" : -1,
            "sendStart" : 106,
            "id" : "download_19",
            "connectEnd" : 106,
            "receivedTime" : "3250.67800004035",
            "receiveFirst" : 101,
            "s_time" : 2918.43200003495,
            "dns" : 0
         },
         "id" : "r39",
         "url" : "http://original.testbed.localhost/cdn2-b.examiner.com/sites/default/files/styles/hero_curated_large/hash/92/5e/925e195d6742aa235acadf55b5b9482f.jpg%3Fitok=wLUq4Zl4",
         "when_comp_start" : -1
      },
      {
         "id" : "r48",
         "when_comp_start" : -1,
         "url" : "http://original.testbed.localhost/adg.bzgint.com/pub/adg/data.js",
         "comps" : [
            {
               "type" : 1,
               "s_time" : 3303.9090000093,
               "e_time" : 3323.48700001603,
               "time" : 19.5780000067298,
               "id" : "comp_73"
            }
         ],
         "download" : {
            "sendEnd" : 104,
            "receiveLast" : 3096.86800004635,
            "sslEnd" : -1,
            "type" : "application/javascript",
            "connectStart" : 0,
            "receiveHeadersEnd" : 207,
            "sslStart" : -1,
            "sendStart" : 104,
            "dnsStart" : -1,
            "id" : "download_20",
            "receivedTime" : "3303.86800004635",
            "connectEnd" : 104,
            "dnsEnd" : -1,
            "len" : 68244,
            "dns" : 0,
            "s_time" : 2919.81800005306,
            "receiveFirst" : 103
         }
      },
      {
         "download" : {
            "id" : "download_21",
            "receivedTime" : "3303.33400005475",
            "connectEnd" : 206,
            "sslStart" : -1,
            "sendStart" : 206,
            "dnsStart" : -1,
            "len" : 40662,
            "dnsEnd" : -1,
            "dns" : 0,
            "receiveFirst" : 100,
            "s_time" : 2918.78600005293,
            "receiveLast" : 2997.33400005475,
            "sslEnd" : -1,
            "sendEnd" : 206,
            "type" : "image/jpeg",
            "connectStart" : 0,
            "receiveHeadersEnd" : 306
         },
         "comps" : [],
         "id" : "r41",
         "when_comp_start" : -1,
         "url" : "http://original.testbed.localhost/cdn2-b.examiner.com/sites/default/files/styles/hero_curated_large/hash/8f/3e/8f3eb8987fd189c2e2d258a8ba99b479.jpg%3Fitok=TBxgCF21"
      },
      {
         "comps" : [],
         "download" : {
            "dns" : 0,
            "s_time" : 2918.66600001231,
            "receiveFirst" : 100,
            "sslStart" : -1,
            "dnsStart" : -1,
            "sendStart" : 206,
            "id" : "download_22",
            "receivedTime" : "3303.43900003936",
            "connectEnd" : 206,
            "dnsEnd" : -1,
            "len" : 40596,
            "receiveHeadersEnd" : 306,
            "sendEnd" : 206,
            "receiveLast" : 2997.43900003936,
            "sslEnd" : -1,
            "connectStart" : 0,
            "type" : "image/jpeg"
         },
         "id" : "r40",
         "when_comp_start" : -1,
         "url" : "http://original.testbed.localhost/cdn2-b.examiner.com/sites/default/files/styles/hero_curated_large/hash/22/e1/22e1e52560b5b459b2d245e3b0540167.jpg%3Fitok=kp4llvG8"
      },
      {
         "id" : "r42",
         "when_comp_start" : -1,
         "url" : "http://original.testbed.localhost/cdn2-b.examiner.com/sites/default/files/styles/hero_curated_large/hash/48/e6/48e6fdfb5715f6f9a17186a2a8ded7b2.jpg%3Fitok=ZQN1CMS9",
         "download" : {
            "dnsEnd" : -1,
            "len" : 34330,
            "sslStart" : -1,
            "dnsStart" : -1,
            "sendStart" : 102,
            "id" : "download_23",
            "receivedTime" : "3303.65800001891",
            "connectEnd" : 102,
            "receiveFirst" : 101,
            "s_time" : 3022.94400002575,
            "dns" : 0,
            "type" : "image/jpeg",
            "connectStart" : 0,
            "sendEnd" : 102,
            "receiveLast" : 3100.65800001891,
            "sslEnd" : -1,
            "receiveHeadersEnd" : 203
         },
         "comps" : []
      },
      {
         "download" : {
            "receiveHeadersEnd" : 203,
            "type" : "image/jpeg",
            "connectStart" : 0,
            "sendEnd" : 102,
            "receiveLast" : 3100.79299999913,
            "sslEnd" : -1,
            "s_time" : 3023.28600001056,
            "receiveFirst" : 101,
            "dns" : 0,
            "dnsEnd" : -1,
            "len" : 15948,
            "dnsStart" : -1,
            "sendStart" : 102,
            "sslStart" : -1,
            "connectEnd" : 102,
            "receivedTime" : "3303.79299999913",
            "id" : "download_24"
         },
         "comps" : [],
         "url" : "http://original.testbed.localhost/cdn2-b.examiner.com/sites/default/files/styles/hero_curated_large/hash/61/36/6136d166d826cbfa435ea8e78f949a07.jpg%3Fitok=MGZzln94",
         "when_comp_start" : -1,
         "id" : "r43"
      },
      {
         "url" : "http://original.testbed.localhost/cdn2-b.examiner.com/sites/default/files/styles/hero_curated_large/hash/ba/73/ba736f2b11f1d7caf33641ebac6d3705.jpg%3Fitok=mUf7C_pL",
         "when_comp_start" : -1,
         "id" : "r44",
         "download" : {
            "sendStart" : 102,
            "dnsStart" : -1,
            "sslStart" : -1,
            "receivedTime" : "3329.39300005091",
            "connectEnd" : 102,
            "id" : "download_25",
            "dnsEnd" : -1,
            "len" : 11331,
            "dns" : 0,
            "receiveFirst" : 100,
            "s_time" : 3024.28900002269,
            "sendEnd" : 102,
            "sslEnd" : -1,
            "receiveLast" : 3127.39300005091,
            "type" : "image/jpeg",
            "connectStart" : 0,
            "receiveHeadersEnd" : 202
         },
         "comps" : []
      },
      {
         "download" : {
            "receiveHeadersEnd" : 301,
            "connectStart" : 0,
            "type" : "image/jpeg",
            "receiveLast" : 3035.81300003082,
            "sslEnd" : -1,
            "sendEnd" : 201,
            "s_time" : 3024.63600004558,
            "receiveFirst" : 100,
            "dns" : 0,
            "len" : 18826,
            "dnsEnd" : -1,
            "connectEnd" : 201,
            "receivedTime" : "3336.81300003082",
            "id" : "download_26",
            "dnsStart" : -1,
            "sendStart" : 201,
            "sslStart" : -1
         },
         "comps" : [],
         "id" : "r45",
         "url" : "http://original.testbed.localhost/cdn2-b.examiner.com/sites/default/files/styles/hero_curated_large/hash/4b/95/4b957dd8a13c24ea745c4f2709dd620b.jpg%3Fitok=e9_u0r72",
         "when_comp_start" : -1
      },
      {
         "download" : {
            "len" : 52783,
            "dnsEnd" : -1,
            "receivedTime" : "3337.04500005115",
            "connectEnd" : 55,
            "id" : "download_27",
            "sendStart" : 55,
            "dnsStart" : -1,
            "sslStart" : -1,
            "receiveFirst" : 100,
            "s_time" : 3169.93400000501,
            "dns" : 0,
            "type" : "text/plain",
            "connectStart" : 0,
            "receiveLast" : 3181.04500005115,
            "sslEnd" : -1,
            "sendEnd" : 56,
            "receiveHeadersEnd" : 156
         },
         "comps" : [
            {
               "id" : "comp_90",
               "time" : 7.15299998410001,
               "s_time" : 3337.08200004185,
               "e_time" : 3344.23500002595,
               "type" : 1
            }
         ],
         "url" : "http://original.testbed.localhost/cdn2-b.examiner.com/sites/default/files/js/js_4Jw9dzqoP-ppZQwODDGwFZiSQTIaIGbYrJwGLTf18-M_453_1.js%3Fo6dj05",
         "when_comp_start" : -1,
         "id" : "r51"
      },
      {
         "download" : {
            "sendEnd" : 1,
            "receiveLast" : 3392.92399999872,
            "sslEnd" : -1,
            "type" : "application/octet-stream",
            "connectStart" : 0,
            "receiveHeadersEnd" : 102,
            "sendStart" : 1,
            "dnsStart" : -1,
            "sslStart" : -1,
            "receivedTime" : "3494.92399999872",
            "connectEnd" : 1,
            "id" : "download_28",
            "dnsEnd" : -1,
            "len" : 28628,
            "dns" : 0,
            "s_time" : 3271.32900001016,
            "receiveFirst" : 101
         },
         "comps" : [],
         "id" : "r10",
         "url" : "http://original.testbed.localhost/cdn2-b.examiner.com/sites/all/themes/greyhound/assets/fonts/RobotoSlab-Bold-webfont.woff%3Fversion=452",
         "when_comp_start" : -1
      },
      {
         "url" : "http://original.testbed.localhost/cdn2-b.examiner.com/sites/all/themes/greyhound/assets/fonts/proximanova-light-webfont.woff%3Fversion=452",
         "when_comp_start" : -1,
         "id" : "r13",
         "download" : {
            "dns" : 0,
            "s_time" : 3271.08900004532,
            "receiveFirst" : 101,
            "sslStart" : -1,
            "sendStart" : 1,
            "dnsStart" : -1,
            "id" : "download_29",
            "receivedTime" : "3495.85200002184",
            "connectEnd" : 1,
            "dnsEnd" : -1,
            "len" : 24356,
            "receiveHeadersEnd" : 102,
            "sendEnd" : 1,
            "sslEnd" : -1,
            "receiveLast" : 3393.85200002184,
            "type" : "application/octet-stream",
            "connectStart" : 0
         },
         "comps" : []
      },
      {
         "comps" : [],
         "download" : {
            "receiveHeadersEnd" : 102,
            "type" : "application/octet-stream",
            "connectStart" : 0,
            "sslEnd" : -1,
            "receiveLast" : 3394.47200002801,
            "sendEnd" : 1,
            "s_time" : 3271.55800000764,
            "receiveFirst" : 101,
            "dns" : 0,
            "len" : 24720,
            "dnsEnd" : -1,
            "id" : "download_30",
            "receivedTime" : "3496.47200002801",
            "connectEnd" : 1,
            "sslStart" : -1,
            "sendStart" : 1,
            "dnsStart" : -1
         },
         "id" : "r16",
         "when_comp_start" : -1,
         "url" : "http://original.testbed.localhost/cdn2-b.examiner.com/sites/all/themes/greyhound/assets/fonts/proximanova-sbold-webfont.woff%3Fversion=452"
      },
      {
         "download" : {
            "receiveHeadersEnd" : 102,
            "sslEnd" : -1,
            "receiveLast" : 3395.09600000642,
            "sendEnd" : 1,
            "type" : "application/octet-stream",
            "connectStart" : 0,
            "dns" : 0,
            "s_time" : 3271.44200005569,
            "receiveFirst" : 101,
            "connectEnd" : 1,
            "receivedTime" : "3497.09600000642",
            "id" : "download_31",
            "sendStart" : 1,
            "dnsStart" : -1,
            "sslStart" : -1,
            "len" : 12184,
            "dnsEnd" : -1
         },
         "comps" : [],
         "id" : "r19",
         "url" : "http://original.testbed.localhost/cdn2-b.examiner.com/sites/all/themes/greyhound/assets/fonts/ExSymbolset.woff%3Fversion=452",
         "when_comp_start" : -1
      },
      {
         "comps" : [],
         "download" : {
            "sendStart" : 0,
            "dnsStart" : -1,
            "sslStart" : -1,
            "connectEnd" : 0,
            "receivedTime" : "3540.08300002897",
            "id" : "download_32",
            "dnsEnd" : -1,
            "len" : 302,
            "dns" : 0,
            "s_time" : 3390.86600003066,
            "receiveFirst" : 101,
            "sendEnd" : 0,
            "receiveLast" : 3439.08300002897,
            "sslEnd" : -1,
            "connectStart" : 0,
            "type" : "text/html",
            "receiveHeadersEnd" : 101
         },
         "id" : "r62",
         "when_comp_start" : 1,
         "url" : "http://original.testbed.localhost/misc/help.png"
      }
   ]
}
