{
   "n_download_no_trigger" : 1,
   "start_activity" : "download_0",
   "name" : "original.testbed.localhost_www.bisport.cz_",
   "load_activity" : -1,
   "objs" : [
      {
         "when_comp_start" : 1,
         "url" : "http://original.testbed.localhost/www.bisport.cz/",
         "id" : "r1",
         "comps" : [
            {
               "s_time" : 19.7409999673255,
               "time" : 267.263000016101,
               "id" : "r1_c1",
               "type" : "evalhtml",
               "e_time" : 287.003999983426
            },
            {
               "s_time" : 316.481999994721,
               "time" : -330012407.629,
               "id" : "r1_c2",
               "type" : "evalhtml",
               "e_time" : -330012091.147
            },
            {
               "s_time" : 318.33599996753,
               "time" : -330012409.483,
               "id" : "r1_c3",
               "type" : "evalhtml",
               "e_time" : -330012091.147
            },
            {
               "s_time" : 319.680999964476,
               "time" : -330012410.828,
               "id" : "r1_c4",
               "type" : "evalhtml",
               "e_time" : -330012091.147
            },
            {
               "s_time" : 320.70499996189,
               "time" : 29.195000010077,
               "type" : "evalhtml",
               "id" : "r1_c5",
               "e_time" : 349.899999971967
            }
         ],
         "download" : {
            "receiveFirst" : 5,
            "len" : 6693,
            "dns" : 0,
            "dnsEnd" : -1,
            "receiveHeadersEnd" : 5,
            "sslEnd" : -1,
            "connectEnd" : 0,
            "connectStart" : 0,
            "id" : "download_0",
            "receivedTime" : "5.61999995261431",
            "sslStart" : -1,
            "dnsStart" : -1,
            "receiveLast" : 0.619999952614307,
            "s_time" : 0,
            "sendEnd" : 0,
            "sendStart" : 0,
            "type" : "text/html"
         }
      },
      {
         "when_comp_start" : -1,
         "url" : "http://original.testbed.localhost/www.bisport.cz/style12.css",
         "id" : "r2",
         "comps" : [
            {
               "s_time" : 39.5469999639317,
               "time" : 1.8610000261106,
               "type" : 4,
               "id" : "comp_0",
               "e_time" : 41.4079999900423
            }
         ],
         "download" : {
            "receiveFirst" : 5,
            "len" : 16887,
            "dns" : 0,
            "dnsEnd" : -1,
            "receiveHeadersEnd" : 7,
            "sslEnd" : -1,
            "connectEnd" : 2,
            "connectStart" : 0,
            "id" : "download_1",
            "receivedTime" : "39.4719999749213",
            "sslStart" : -1,
            "dnsStart" : -1,
            "receiveLast" : 32.4719999749213,
            "s_time" : 20.3149999724701,
            "sendEnd" : 2,
            "sendStart" : 2,
            "type" : "text/css"
         }
      },
      {
         "when_comp_start" : -1,
         "url" : "http://original.testbed.localhost/www.bisport.cz/imgbox/slimbox/slimbox2.js",
         "id" : "r5",
         "comps" : [
            {
               "s_time" : 318.38799995603,
               "time" : 1.29300000844597,
               "type" : 1,
               "id" : "comp_12",
               "e_time" : 319.680999964476
            }
         ],
         "download" : {
            "receiveFirst" : 18,
            "len" : 4123,
            "dns" : 0,
            "dnsEnd" : -1,
            "receiveHeadersEnd" : 19,
            "sslEnd" : -1,
            "connectEnd" : 1,
            "connectStart" : 0,
            "id" : "download_2",
            "receivedTime" : "46.6329999617301",
            "sslStart" : -1,
            "dnsStart" : -1,
            "receiveLast" : 27.6329999617301,
            "s_time" : 20.8329999586567,
            "sendEnd" : 1,
            "sendStart" : 1,
            "type" : "application/javascript"
         }
      },
      {
         "when_comp_start" : -1,
         "url" : "http://original.testbed.localhost/www.bisport.cz/js/marquee2.js",
         "id" : "r4",
         "comps" : [
            {
               "s_time" : 316.548999981023,
               "time" : 1.786999986507,
               "type" : 1,
               "id" : "comp_10",
               "e_time" : 318.33599996753
            }
         ],
         "download" : {
            "receiveFirst" : 29,
            "len" : 7553,
            "dns" : 0,
            "dnsEnd" : -1,
            "receiveHeadersEnd" : 30,
            "sslEnd" : -1,
            "connectEnd" : 1,
            "connectStart" : 0,
            "id" : "download_3",
            "receivedTime" : "56.9249999825843",
            "sslStart" : -1,
            "dnsStart" : -1,
            "receiveLast" : 26.9249999825843,
            "s_time" : 20.6489999545738,
            "sendEnd" : 1,
            "sendStart" : 1,
            "type" : "application/javascript"
         }
      },
      {
         "when_comp_start" : -1,
         "url" : "http://original.testbed.localhost/www.bisport.cz/imgbox/slimbox/slimbox2.css",
         "id" : "r6",
         "comps" : [
            {
               "s_time" : 60.6209999532439,
               "time" : 0.00300002284349432,
               "type" : 4,
               "id" : "comp_1",
               "e_time" : 60.6239999760874
            }
         ],
         "download" : {
            "receiveFirst" : 38,
            "len" : 1277,
            "dns" : 0,
            "dnsEnd" : -1,
            "receiveHeadersEnd" : 39,
            "sslEnd" : -1,
            "connectEnd" : 1,
            "connectStart" : 0,
            "id" : "download_4",
            "receivedTime" : "60.5869999853894",
            "sslStart" : -1,
            "dnsStart" : -1,
            "receiveLast" : 21.5869999853894,
            "s_time" : 20.9679999970831,
            "sendEnd" : 1,
            "sendStart" : 1,
            "type" : "text/css"
         }
      },
      {
         "when_comp_start" : -1,
         "url" : "http://original.testbed.localhost/code.jquery.com/jquery-1.8.0.min.js",
         "id" : "r3",
         "comps" : [
            {
               "s_time" : 287.030999956187,
               "time" : 29.451000038534,
               "type" : 1,
               "id" : "comp_8",
               "e_time" : 316.481999994721
            }
         ],
         "download" : {
            "receiveFirst" : 41,
            "len" : 92555,
            "dns" : 0,
            "dnsEnd" : -1,
            "receiveHeadersEnd" : 43,
            "sslEnd" : -1,
            "connectEnd" : 2,
            "connectStart" : 0,
            "id" : "download_5",
            "receivedTime" : "286.928999994416",
            "sslStart" : -1,
            "dnsStart" : -1,
            "receiveLast" : 243.928999994416,
            "s_time" : 20.4809999559075,
            "sendEnd" : 2,
            "sendStart" : 2,
            "type" : "application/javascript"
         }
      },
      {
         "when_comp_start" : -1,
         "url" : "http://original.testbed.localhost/www.bisport.cz/js/nwin.js",
         "id" : "r7",
         "comps" : [
            {
               "s_time" : 320.365999999922,
               "time" : 0.338999961968,
               "type" : 1,
               "id" : "comp_14",
               "e_time" : 320.70499996189
            }
         ],
         "download" : {
            "receiveFirst" : 102,
            "len" : 1298,
            "dns" : 0,
            "dnsEnd" : -1,
            "receiveHeadersEnd" : 103,
            "sslEnd" : -1,
            "connectEnd" : 1,
            "connectStart" : 0,
            "id" : "download_6",
            "receivedTime" : "219.084999989718",
            "sslStart" : -1,
            "dnsStart" : -1,
            "receiveLast" : 116.084999989718,
            "s_time" : 21.1859999690205,
            "sendEnd" : 1,
            "sendStart" : 1,
            "type" : "application/javascript"
         }
      },
      {
         "when_comp_start" : -1,
         "url" : "http://original.testbed.localhost/www.bisport.cz/dopl/bisport-logo.png",
         "id" : "r8",
         "comps" : [],
         "download" : {
            "receiveFirst" : 89,
            "len" : 13358,
            "dns" : 0,
            "dnsEnd" : -1,
            "receiveHeadersEnd" : 107,
            "sslEnd" : -1,
            "connectEnd" : 18,
            "connectStart" : 0,
            "id" : "download_7",
            "receivedTime" : "219.367999990936",
            "sslStart" : -1,
            "dnsStart" : -1,
            "receiveLast" : 112.367999990936,
            "s_time" : 21.2269999901764,
            "sendEnd" : 18,
            "sendStart" : 18,
            "type" : "image/png"
         }
      },
      {
         "when_comp_start" : -1,
         "url" : "http://original.testbed.localhost/www.bisport.cz/dopl/kat/kat1-1.png",
         "id" : "r9",
         "comps" : [],
         "download" : {
            "receiveFirst" : 69,
            "len" : 8637,
            "dns" : 0,
            "dnsEnd" : -1,
            "receiveHeadersEnd" : 69,
            "sslEnd" : -1,
            "connectEnd" : 0,
            "connectStart" : 0,
            "id" : "download_8",
            "receivedTime" : "352.114999957848",
            "sslStart" : -1,
            "dnsStart" : -1,
            "receiveLast" : 283.114999957848,
            "s_time" : 218.491999956314,
            "sendEnd" : 0,
            "sendStart" : 0,
            "type" : "image/png"
         }
      },
      {
         "when_comp_start" : -1,
         "url" : "http://original.testbed.localhost/www.bisport.cz/dopl/kat/kat4-2.png",
         "id" : "r11",
         "comps" : [],
         "download" : {
            "receiveFirst" : 45,
            "len" : 17324,
            "dns" : 0,
            "dnsEnd" : -1,
            "receiveHeadersEnd" : 46,
            "sslEnd" : -1,
            "connectEnd" : 1,
            "connectStart" : 0,
            "id" : "download_9",
            "receivedTime" : "654.33099999791",
            "sslStart" : -1,
            "dnsStart" : -1,
            "receiveLast" : 608.33099999791,
            "s_time" : 286.708999949042,
            "sendEnd" : 1,
            "sendStart" : 1,
            "type" : "image/png"
         }
      },
      {
         "when_comp_start" : -1,
         "url" : "http://original.testbed.localhost/www.bisport.cz/dopl/kat/kat2-1.png",
         "id" : "r10",
         "comps" : [],
         "download" : {
            "receiveFirst" : 57,
            "len" : 8988,
            "dns" : 0,
            "dnsEnd" : -1,
            "receiveHeadersEnd" : 58,
            "sslEnd" : -1,
            "connectEnd" : 1,
            "connectStart" : 0,
            "id" : "download_10",
            "receivedTime" : "430.192999949213",
            "sslStart" : -1,
            "dnsStart" : -1,
            "receiveLast" : 372.192999949213,
            "s_time" : 286.532999947667,
            "sendEnd" : 1,
            "sendStart" : 1,
            "type" : "image/png"
         }
      },
      {
         "when_comp_start" : -1,
         "url" : "http://original.testbed.localhost/www.bisport.cz/dopl/kat/kat6-3.png",
         "id" : "r13",
         "comps" : [],
         "download" : {
            "receiveFirst" : 144,
            "len" : 12730,
            "dns" : 0,
            "dnsEnd" : -1,
            "receiveHeadersEnd" : 145,
            "sslEnd" : -1,
            "connectEnd" : 1,
            "connectStart" : 0,
            "id" : "download_11",
            "receivedTime" : "481.255999999121",
            "sslStart" : -1,
            "dnsStart" : -1,
            "receiveLast" : 336.255999999121,
            "s_time" : 286.919999984093,
            "sendEnd" : 1,
            "sendStart" : 1,
            "type" : "image/png"
         }
      },
      {
         "when_comp_start" : -1,
         "url" : "http://original.testbed.localhost/www.bisport.cz/dopl/kat/kat5-2.png",
         "id" : "r12",
         "comps" : [],
         "download" : {
            "receiveFirst" : 199,
            "len" : 11814,
            "dns" : 0,
            "dnsEnd" : -1,
            "receiveHeadersEnd" : 200,
            "sslEnd" : -1,
            "connectEnd" : 1,
            "connectStart" : 0,
            "id" : "download_12",
            "receivedTime" : "535.651999991387",
            "sslStart" : -1,
            "dnsStart" : -1,
            "receiveLast" : 335.651999991387,
            "s_time" : 286.805999989156,
            "sendEnd" : 1,
            "sendStart" : 1,
            "type" : "image/png"
         }
      },
      {
         "when_comp_start" : -1,
         "url" : "http://original.testbed.localhost/www.bisport.cz/dopl/kat/kat7-1.png",
         "id" : "r14",
         "comps" : [],
         "download" : {
            "receiveFirst" : 249,
            "len" : 11935,
            "dns" : 0,
            "dnsEnd" : -1,
            "receiveHeadersEnd" : 250,
            "sslEnd" : -1,
            "connectEnd" : 1,
            "connectStart" : 0,
            "id" : "download_13",
            "receivedTime" : "680.357999983244",
            "sslStart" : -1,
            "dnsStart" : -1,
            "receiveLast" : 430.357999983244,
            "s_time" : 287.003999983426,
            "sendEnd" : 1,
            "sendStart" : 1,
            "type" : "image/png"
         }
      },
      {
         "when_comp_start" : -1,
         "url" : "http://original.testbed.localhost/www.bisport.cz/dopl/modra.png",
         "id" : "r16",
         "comps" : [],
         "download" : {
            "receiveFirst" : 252,
            "len" : 968,
            "dns" : 0,
            "dnsEnd" : -1,
            "receiveHeadersEnd" : 252,
            "sslEnd" : -1,
            "connectEnd" : 0,
            "connectStart" : 0,
            "id" : "download_14",
            "receivedTime" : "577.691999962553",
            "sslStart" : -1,
            "dnsStart" : -1,
            "receiveLast" : 325.691999962553,
            "s_time" : 324.478999944404,
            "sendEnd" : 0,
            "sendStart" : 0,
            "type" : "image/png"
         }
      },
      {
         "when_comp_start" : -1,
         "url" : "http://www.google-analytics.com/ga.js",
         "id" : "r15",
         "comps" : [
            {
               "s_time" : 686.948999995366,
               "time" : 54.32599998312,
               "type" : null,
               "id" : "comp_41",
               "e_time" : 741.274999978486
            }
         ],
         "download" : {
            "receiveFirst" : 261,
            "len" : 41100,
            "dns" : 0,
            "dnsEnd" : -1,
            "receiveHeadersEnd" : 261,
            "sslEnd" : -1,
            "connectEnd" : 0,
            "connectStart" : 0,
            "id" : "download_15",
            "receivedTime" : "686.508999962825",
            "sslStart" : -1,
            "dnsStart" : -1,
            "receiveLast" : 425.508999962825,
            "s_time" : 321.793999988586,
            "sendEnd" : 0,
            "sendStart" : 0,
            "type" : "text/javascript"
         }
      },
      {
         "when_comp_start" : -1,
         "url" : "http://www.google-analytics.com/r/__utm.gif?utmwv=5.6.6&utms=1&utmn=1546916987&utmhn=original.testbed.localhost&utmcs=UTF-8&utmsr=1024x768&utmvp=1009x601&utmsc=24-bit&utmul=en-us&utmje=1&utmfl=-&utmdt=P%C5%AFj%C4%8Dovna%20lod%C3%AD%20a%20kol%2C%20ubytov%C3%A1n%C3%AD%20na%20s%C3%A1zav%C4%9B%20%7C%20B",
         "id" : "r17",
         "comps" : [],
         "download" : {
            "receiveFirst" : 22,
            "len" : 35,
            "dns" : 0,
            "dnsEnd" : -1,
            "receiveHeadersEnd" : 22,
            "sslEnd" : -1,
            "connectEnd" : 0,
            "connectStart" : 0,
            "id" : "download_16",
            "receivedTime" : "762.318999972194",
            "sslStart" : -1,
            "dnsStart" : -1,
            "receiveLast" : 740.318999972194,
            "s_time" : 739.236999943387,
            "sendEnd" : 0,
            "sendStart" : 0,
            "type" : "image/gif"
         }
      }
   ],
   "deps" : [
      {
         "a2" : "r1_c2",
         "time" : -1,
         "id" : "dep1",
         "a1" : "comp_8"
      },
      {
         "a2" : "r1_c3",
         "time" : -1,
         "id" : "dep2",
         "a1" : "comp_10"
      },
      {
         "a2" : "r1_c4",
         "time" : -1,
         "id" : "dep3",
         "a1" : "comp_12"
      },
      {
         "a2" : "r1_c5",
         "time" : -1,
         "id" : "dep4",
         "a1" : "comp_14"
      },
      {
         "a2" : "comp_8",
         "time" : -1,
         "id" : "dep5",
         "a1" : "comp_0"
      },
      {
         "a2" : "comp_10",
         "time" : -1,
         "id" : "dep6",
         "a1" : "comp_8"
      },
      {
         "a2" : "comp_12",
         "time" : -1,
         "id" : "dep7",
         "a1" : "comp_10"
      },
      {
         "a2" : "comp_14",
         "time" : -1,
         "id" : "dep8",
         "a1" : "comp_12"
      },
      {
         "a2" : "comp_14",
         "time" : -1,
         "id" : "dep9",
         "a1" : "comp_1"
      },
      {
         "a2" : "download_16",
         "time" : 52.287999948021,
         "id" : "dep10",
         "a1" : "comp_41"
      },
      {
         "a2" : "download_15",
         "time" : 1.089000026696,
         "id" : "dep11",
         "a1" : "r1_c5"
      },
      {
         "a2" : "download_14",
         "time" : 3.773999982514,
         "id" : "dep12",
         "a1" : "r1_c5"
      },
      {
         "a2" : "download_13",
         "time" : -1,
         "id" : "dep13",
         "a1" : "r1_c1"
      },
      {
         "a2" : "download_12",
         "time" : 267.065000021831,
         "id" : "dep14",
         "a1" : "r1_c1"
      },
      {
         "a2" : "download_11",
         "time" : 267.179000016768,
         "id" : "dep15",
         "a1" : "r1_c1"
      },
      {
         "a2" : "download_10",
         "time" : 266.791999980342,
         "id" : "dep16",
         "a1" : "r1_c1"
      },
      {
         "a2" : "download_9",
         "time" : 266.967999981717,
         "id" : "dep17",
         "a1" : "r1_c1"
      },
      {
         "a2" : "download_8",
         "time" : 198.750999988988,
         "id" : "dep18",
         "a1" : "r1_c1"
      },
      {
         "a2" : "download_7",
         "time" : 1.4860000228509,
         "id" : "dep19",
         "a1" : "r1_c1"
      },
      {
         "a2" : "download_7",
         "time" : 1.4860000228509,
         "id" : "dep20",
         "a1" : "r1_c1"
      },
      {
         "a2" : "download_6",
         "time" : 1.445000001695,
         "id" : "dep21",
         "a1" : "r1_c1"
      },
      {
         "a2" : "download_6",
         "time" : 1.445000001695,
         "id" : "dep22",
         "a1" : "r1_c1"
      },
      {
         "a2" : "download_5",
         "time" : 0.739999988581999,
         "id" : "dep23",
         "a1" : "r1_c1"
      },
      {
         "a2" : "download_4",
         "time" : 1.2270000297576,
         "id" : "dep24",
         "a1" : "r1_c1"
      },
      {
         "a2" : "download_4",
         "time" : 1.2270000297576,
         "id" : "dep25",
         "a1" : "r1_c1"
      },
      {
         "a2" : "download_3",
         "time" : 0.907999987248299,
         "id" : "dep26",
         "a1" : "r1_c1"
      },
      {
         "a2" : "download_3",
         "time" : 0.907999987248299,
         "id" : "dep27",
         "a1" : "r1_c1"
      },
      {
         "a2" : "download_2",
         "time" : 1.0919999913312,
         "id" : "dep28",
         "a1" : "r1_c1"
      },
      {
         "a2" : "download_2",
         "time" : 1.0919999913312,
         "id" : "dep29",
         "a1" : "r1_c1"
      },
      {
         "a2" : "download_1",
         "time" : 0.574000005144601,
         "id" : "dep30",
         "a1" : "r1_c1"
      }
   ]
}
