{
   "n_download_no_trigger" : 1,
   "start_activity" : "download_0",
   "name" : "modified.testbed.localhost_www.google.gr_",
   "load_activity" : -1,
   "objs" : [
      {
         "when_comp_start" : 1,
         "url" : "http://modified.testbed.localhost/www.google.gr/",
         "id" : "r1",
         "comps" : [
            {
               "s_time" : 94.9350000009872,
               "time" : 29.3749999837018,
               "type" : "evalhtml",
               "id" : "r1_c1",
               "e_time" : 124.309999984689
            }
         ],
         "download" : {
            "receiveFirst" : 23,
            "len" : 19055,
            "dns" : 0,
            "dnsEnd" : -1,
            "receiveHeadersEnd" : 23,
            "sslEnd" : -1,
            "connectEnd" : 0,
            "connectStart" : 0,
            "id" : "download_0",
            "receivedTime" : "94.2429999995511",
            "sslStart" : -1,
            "dnsStart" : -1,
            "receiveLast" : 71.2429999995511,
            "s_time" : 0,
            "sendEnd" : 0,
            "sendStart" : 0,
            "type" : "text/html"
         }
      },
      {
         "when_comp_start" : -1,
         "url" : "http://modified.testbed.localhost/www.google.gr/images/icons/product/chrome-48.png",
         "id" : "r2",
         "comps" : [],
         "download" : {
            "receiveFirst" : 24,
            "len" : 1834,
            "dns" : 0,
            "dnsEnd" : -1,
            "receiveHeadersEnd" : 24,
            "sslEnd" : -1,
            "connectEnd" : 0,
            "connectStart" : 0,
            "id" : "download_1",
            "receivedTime" : "128.280999982962",
            "sslStart" : -1,
            "dnsStart" : -1,
            "receiveLast" : 104.280999982962,
            "s_time" : 101.005000004079,
            "sendEnd" : 0,
            "sendStart" : 0,
            "type" : "image/png"
         }
      },
      {
         "when_comp_start" : -1,
         "url" : "http://modified.testbed.localhost/www.google.gr/textinputassistant/tia.png",
         "id" : "r3",
         "comps" : [],
         "download" : {
            "receiveFirst" : 23,
            "len" : 387,
            "dns" : 0,
            "dnsEnd" : -1,
            "receiveHeadersEnd" : 23,
            "sslEnd" : -1,
            "connectEnd" : 0,
            "connectStart" : 0,
            "id" : "download_2",
            "receivedTime" : "133.554000000004",
            "sslStart" : -1,
            "dnsStart" : -1,
            "receiveLast" : 110.554000000004,
            "s_time" : 109.421000001021,
            "sendEnd" : 0,
            "sendStart" : 0,
            "type" : "image/png"
         }
      },
      {
         "when_comp_start" : 1,
         "url" : "http://modified.testbed.localhost/client_204?&atyp=i&biw=1004&bih=673&ei=a3OWVaPGFoay-QGzkLT4BQ",
         "id" : "r4",
         "comps" : [],
         "download" : {
            "receiveFirst" : 25,
            "len" : 300,
            "dns" : 0,
            "dnsEnd" : -1,
            "receiveHeadersEnd" : 25,
            "sslEnd" : -1,
            "connectEnd" : 0,
            "connectStart" : 0,
            "id" : "download_3",
            "receivedTime" : "137.392999982694",
            "sslStart" : -1,
            "dnsStart" : -1,
            "receiveLast" : 112.392999982694,
            "s_time" : 111.541999998735,
            "sendEnd" : 0,
            "sendStart" : 0,
            "type" : "text/html"
         }
      },
      {
         "when_comp_start" : -1,
         "url" : "http://modified.testbed.localhost/www.google.gr/images/srpr/logo9w.png",
         "id" : "r5",
         "comps" : [],
         "download" : {
            "receiveFirst" : 25,
            "len" : 8228,
            "dns" : 0,
            "dnsEnd" : -1,
            "receiveHeadersEnd" : 25,
            "sslEnd" : -1,
            "connectEnd" : 0,
            "connectStart" : 0,
            "id" : "download_4",
            "receivedTime" : "142.426999984309",
            "sslStart" : -1,
            "dnsStart" : -1,
            "receiveLast" : 117.426999984309,
            "s_time" : 115.430999983801,
            "sendEnd" : 0,
            "sendStart" : 0,
            "type" : "image/png"
         }
      },
      {
         "when_comp_start" : -1,
         "url" : "http://modified.testbed.localhost/www.google.gr/images/srpr/nav_logo80.png",
         "id" : "r6",
         "comps" : [],
         "download" : {
            "receiveFirst" : 23,
            "len" : 35615,
            "dns" : 0,
            "dnsEnd" : -1,
            "receiveHeadersEnd" : 23,
            "sslEnd" : -1,
            "connectEnd" : 0,
            "connectStart" : 0,
            "id" : "download_5",
            "receivedTime" : "171.02700000396",
            "sslStart" : -1,
            "dnsStart" : -1,
            "receiveLast" : 148.02700000396,
            "s_time" : 122.188999986975,
            "sendEnd" : 0,
            "sendStart" : 0,
            "type" : "image/png"
         }
      }
   ],
   "deps" : [
      {
         "a2" : "download_5",
         "time" : 27.2539999859878,
         "id" : "dep1",
         "a1" : "r1_c1"
      },
      {
         "a2" : "download_4",
         "time" : 20.4959999828138,
         "id" : "dep2",
         "a1" : "r1_c1"
      },
      {
         "a2" : "download_3",
         "time" : 16.6069999977478,
         "id" : "dep3",
         "a1" : "r1_c1"
      },
      {
         "a2" : "download_2",
         "time" : 14.4860000000338,
         "id" : "dep4",
         "a1" : "r1_c1"
      },
      {
         "a2" : "download_1",
         "time" : 6.07000000309179,
         "id" : "dep5",
         "a1" : "r1_c1"
      }
   ]
}
