{
   "n_download_no_trigger" : 3,
   "start_activity" : "download_0",
   "name" : "original.testbed.localhost_www.yahoo.com_",
   "objs" : [
      {
         "download" : {
            "dnsEnd" : -1,
            "type" : "text/html",
            "sendStart" : 0,
            "id" : "download_0",
            "sslEnd" : -1,
            "sslStart" : -1,
            "len" : 506462,
            "s_time" : 0,
            "dns" : 0,
            "receivedTime" : "410.145000001648",
            "receiveFirst" : 108,
            "connectStart" : 0,
            "dnsStart" : -1,
            "connectEnd" : 0,
            "receiveHeadersEnd" : 108,
            "sendEnd" : 0,
            "receiveLast" : 302.145000001648
         },
         "comps" : [
            {
               "type" : "evalhtml",
               "e_time" : 669.057999999495,
               "s_time" : 117.348999992828,
               "id" : "r1_c1",
               "time" : 551.709000006667
            },
            {
               "id" : "r1_c2",
               "time" : 228.213000009419,
               "type" : "evalhtml",
               "e_time" : 926.544000001741,
               "s_time" : 698.330999992322
            },
            {
               "id" : "r1_c3",
               "time" : 57.4150000029401,
               "type" : "evalhtml",
               "e_time" : 1284.97199999401,
               "s_time" : 1227.55699999107
            },
            {
               "time" : 635.41699999769,
               "id" : "r1_c4",
               "s_time" : 1286.97299999476,
               "e_time" : 1922.38999999245,
               "type" : "evalhtml"
            }
         ],
         "url" : "http://original.testbed.localhost/www.yahoo.com/",
         "id" : "r1",
         "when_comp_start" : 1
      },
      {
         "download" : {
            "dnsEnd" : -1,
            "type" : "text/css",
            "sendStart" : 0,
            "sslEnd" : -1,
            "id" : "download_2",
            "len" : 62257,
            "sslStart" : -1,
            "s_time" : 118.265999990399,
            "dns" : 0,
            "receivedTime" : "322.955999989063",
            "receiveFirst" : 103,
            "connectStart" : 0,
            "dnsStart" : -1,
            "connectEnd" : 0,
            "receiveHeadersEnd" : 104,
            "sendEnd" : 1,
            "receiveLast" : 218.955999989063
         },
         "comps" : [
            {
               "type" : 4,
               "s_time" : 323.108999989927,
               "e_time" : 326.71599999594,
               "id" : "comp_0",
               "time" : 3.60700000601304
            }
         ],
         "url" : "http://original.testbed.localhost/s.yimg.com/os/fp/atomic-css.f7f3a421.css",
         "id" : "r2",
         "when_comp_start" : -1
      },
      {
         "url" : "http://original.testbed.localhost/s.yimg.com/zz/combo%3Fnn%252Flib%252Fmetro%252Fg%252Fmyy%252Fadvance_base_rc4_0.0.38.css&nn%252Flib%252Fmetro%252Fg%252Fmyy%252Ffont_rc4_0.0.37.css&nn%252Flib%252Fmetro%252Fg%252Fmyy%252Fyahoo20_grid_0.0.104.css&nn%252Flib%252Fmetro%252Fg%252Fmyy%252Fvideo_styles_0.",
         "comps" : [],
         "download" : {
            "receiveHeadersEnd" : 202,
            "sendEnd" : 100,
            "receiveLast" : 321.068999988027,
            "receiveFirst" : 102,
            "receivedTime" : "523.068999988027",
            "connectStart" : 0,
            "dnsStart" : -1,
            "connectEnd" : 100,
            "sendStart" : 100,
            "id" : "download_3",
            "sslEnd" : -1,
            "sslStart" : -1,
            "len" : 212347,
            "s_time" : 118.466999992961,
            "dns" : 0,
            "dnsEnd" : -1,
            "type" : "text/css"
         },
         "id" : "r3",
         "when_comp_start" : -1
      },
      {
         "id" : "r4",
         "comps" : [
            {
               "id" : "comp_3",
               "time" : 77.5509999948549,
               "type" : 1,
               "e_time" : 698.330999992322,
               "s_time" : 620.779999997467
            }
         ],
         "download" : {
            "dnsStart" : -1,
            "connectStart" : 0,
            "receivedTime" : "620.683999994071",
            "receiveFirst" : 106,
            "connectEnd" : 102,
            "receiveHeadersEnd" : 208,
            "receiveLast" : 412.683999994071,
            "sendEnd" : 102,
            "type" : "application/javascript",
            "dnsEnd" : -1,
            "len" : 191941,
            "sslStart" : -1,
            "id" : "download_4",
            "sslEnd" : -1,
            "sendStart" : 102,
            "dns" : 0,
            "s_time" : 209.095999991405
         },
         "url" : "http://original.testbed.localhost/s.yimg.com/rq/darla/2-9-9/js/g-r-min.js",
         "when_comp_start" : -1
      },
      {
         "url" : "http://original.testbed.localhost/s.yimg.com/uu/api/res/1.2/MBmU56Y.ioCbBnmD4QN.7g--/Zmk9c3RyaW07aD0yNzQ7cHlvZmY9MDtxPTk1O3c9NzAyO3NtPTE7YXBwaWQ9eXRhY2h5b24-/http:/l.yimg.com/nn/fp/rsz/050816/images/smush/london-khan_ipad_1462665741.jpg.cf.jpg",
         "comps" : [],
         "download" : {
            "s_time" : 559.685999993235,
            "dns" : 0,
            "len" : 55677,
            "sslStart" : -1,
            "sendStart" : 3,
            "sslEnd" : -1,
            "id" : "download_5",
            "type" : "image/jpeg",
            "dnsEnd" : -1,
            "receiveLast" : 772.503999999841,
            "sendEnd" : 3,
            "receiveHeadersEnd" : 104,
            "connectEnd" : 3,
            "connectStart" : 0,
            "dnsStart" : -1,
            "receiveFirst" : 101,
            "receivedTime" : "876.503999999841"
         },
         "id" : "r18",
         "when_comp_start" : -1
      },
      {
         "when_comp_start" : -1,
         "download" : {
            "dns" : 0,
            "s_time" : 560.005999999703,
            "id" : "download_6",
            "sslEnd" : -1,
            "sendStart" : 3,
            "sslStart" : -1,
            "len" : 9915,
            "dnsEnd" : -1,
            "type" : "image/jpeg",
            "sendEnd" : 3,
            "receiveLast" : 753.311999996658,
            "receiveHeadersEnd" : 105,
            "connectEnd" : 3,
            "receivedTime" : "858.311999996658",
            "receiveFirst" : 102,
            "dnsStart" : -1,
            "connectStart" : 0
         },
         "comps" : [],
         "url" : "http://original.testbed.localhost/s.yimg.com/uu/api/res/1.2/H2IJi07RmOmR.RdeG0oQtQ--/Zmk9c3RyaW07aD0xNjA7cHlvZmY9MDtxPTgwO3c9MzQwO3NtPTE7YXBwaWQ9eXRhY2h5b24-/http:/l.yimg.com/nn/fp/rsz/050716/images/smush/britney-prom-ipad_ipad_1462645187.jpg.cf.jpg",
         "id" : "r20"
      },
      {
         "id" : "r19",
         "comps" : [],
         "download" : {
            "dns" : 0,
            "s_time" : 559.855999992578,
            "sslStart" : -1,
            "len" : 21647,
            "sslEnd" : -1,
            "id" : "download_7",
            "sendStart" : 3,
            "type" : "image/jpeg",
            "dnsEnd" : -1,
            "receiveLast" : 768.225999996066,
            "sendEnd" : 3,
            "receiveHeadersEnd" : 105,
            "connectEnd" : 3,
            "dnsStart" : -1,
            "connectStart" : 0,
            "receiveFirst" : 102,
            "receivedTime" : "873.225999996066"
         },
         "url" : "http://original.testbed.localhost/s.yimg.com/uu/api/res/1.2/8QZxy1r2livExHN9qJOUnA--/Zmk9c3RyaW07aD0xNjA7cHlvZmY9MDtxPTgwO3c9MzQwO3NtPTE7YXBwaWQ9eXRhY2h5b24-/http:/l.yimg.com/nn/fp/rsz/050716/images/smush/kentucky-derby_ipad_1462662840.jpg.cf.jpg",
         "when_comp_start" : -1
      },
      {
         "url" : "http://original.testbed.localhost/s.yimg.com/uu/api/res/1.2/.9BW_zMrBwXFIB91K2UMRQ--/Zmk9c3RyaW07aD0xNjA7cHlvZmY9MDtxPTgwO3c9MzQwO3NtPTE7YXBwaWQ9eXRhY2h5b24-/http:/l.yimg.com/nn/fp/rsz/050716/images/smush/elchapo-transferred-ipad_ipad_1462647420.jpg.cf.jpg",
         "comps" : [],
         "download" : {
            "dnsEnd" : -1,
            "type" : "image/jpeg",
            "s_time" : 560.142999995151,
            "dns" : 0,
            "sendStart" : 60,
            "id" : "download_8",
            "sslEnd" : -1,
            "sslStart" : -1,
            "len" : 11999,
            "connectEnd" : 60,
            "receiveFirst" : 101,
            "receivedTime" : "875.805999996373",
            "connectStart" : 0,
            "dnsStart" : -1,
            "sendEnd" : 60,
            "receiveLast" : 714.805999996373,
            "receiveHeadersEnd" : 161
         },
         "id" : "r21",
         "when_comp_start" : -1
      },
      {
         "id" : "r22",
         "download" : {
            "connectEnd" : 102,
            "receivedTime" : "876.287999999477",
            "receiveFirst" : 101,
            "connectStart" : 0,
            "dnsStart" : -1,
            "sendEnd" : 102,
            "receiveLast" : 673.287999999477,
            "receiveHeadersEnd" : 203,
            "dnsEnd" : -1,
            "type" : "image/jpeg",
            "s_time" : 560.268000001088,
            "dns" : 0,
            "sendStart" : 102,
            "id" : "download_9",
            "sslEnd" : -1,
            "sslStart" : -1,
            "len" : 11816
         },
         "comps" : [],
         "url" : "http://original.testbed.localhost/s.yimg.com/uu/api/res/1.2/jXL8zdsws6rYU.O129xv4Q--/Zmk9c3RyaW07aD0xNjA7cHlvZmY9MDtxPTgwO3c9MzQwO3NtPTE7YXBwaWQ9eXRhY2h5b24-/http:/l.yimg.com/nn/fp/rsz/050716/images/smush/harry_potter_wedding_ipad_1462613348.jpg.cf.jpg",
         "when_comp_start" : -1
      },
      {
         "id" : "r23",
         "comps" : [],
         "download" : {
            "receiveHeadersEnd" : 203,
            "receiveLast" : 677.376000000979,
            "sendEnd" : 102,
            "connectStart" : 0,
            "dnsStart" : -1,
            "receivedTime" : "880.376000000979",
            "receiveFirst" : 101,
            "connectEnd" : 102,
            "sslStart" : -1,
            "len" : 26107,
            "sendStart" : 102,
            "sslEnd" : -1,
            "id" : "download_10",
            "s_time" : 560.388999991119,
            "dns" : 0,
            "type" : "image/jpeg",
            "dnsEnd" : -1
         },
         "url" : "http://original.testbed.localhost/s.yimg.com/uu/api/res/1.2/RTC6wKH_Nd55MYlFM6neew--/Zmk9c3RyaW07aD0zODA7cHlvZmY9MDtxPTgwO3c9MzgwO3NtPTE7YXBwaWQ9eXRhY2h5b24-/http:/media.zenfs.com/en-US/homerun/usmagazine.com/62657f759a412c3cfa859da303c534e9",
         "when_comp_start" : -1
      },
      {
         "comps" : [],
         "download" : {
            "connectEnd" : 106,
            "dnsStart" : -1,
            "connectStart" : 0,
            "receivedTime" : "876.73599999107",
            "receiveFirst" : 101,
            "receiveLast" : 669.73599999107,
            "sendEnd" : 106,
            "receiveHeadersEnd" : 207,
            "type" : "image/jpeg",
            "dnsEnd" : -1,
            "dns" : 0,
            "s_time" : 560.533999989275,
            "len" : 8091,
            "sslStart" : -1,
            "id" : "download_11",
            "sslEnd" : -1,
            "sendStart" : 106
         },
         "url" : "http://original.testbed.localhost/s.yimg.com/uu/api/res/1.2/_41MiESe6wfGIQOjtRH_XA--/Zmk9c3RyaW07aD0xNDA7cHlvZmY9MDtxPTkwO3c9MTQwO3NtPTE7YXBwaWQ9eXRhY2h5b24-/http:/media.zenfs.com/en-US/video/video.associatedpressfree.com/dc8748d25f552f6029a8793f999f264a",
         "id" : "r24",
         "when_comp_start" : -1
      },
      {
         "when_comp_start" : -1,
         "download" : {
            "receiveHeadersEnd" : 209,
            "sendEnd" : 108,
            "receiveLast" : 667.938000001246,
            "receivedTime" : "876.938000001246",
            "receiveFirst" : 101,
            "connectStart" : 0,
            "dnsStart" : -1,
            "connectEnd" : 108,
            "sendStart" : 108,
            "sslEnd" : -1,
            "id" : "download_12",
            "sslStart" : -1,
            "len" : 9300,
            "s_time" : 560.64699999115,
            "dns" : 0,
            "dnsEnd" : -1,
            "type" : "image/jpeg"
         },
         "comps" : [],
         "url" : "http://original.testbed.localhost/s.yimg.com/uu/api/res/1.2/C53fMkZF_TklIU0xlb2e2w--/Zmk9c3RyaW07aD0xNDA7cHlvZmY9MDtxPTkwO3c9MTQwO3NtPTE7YXBwaWQ9eXRhY2h5b24-/http:/media.zenfs.com/en-US/homerun/sbnation1.vox.com/3c6d50153068b4d87d8e543387e990f8",
         "id" : "r25"
      },
      {
         "when_comp_start" : -1,
         "url" : "http://original.testbed.localhost/s.yimg.com/uu/api/res/1.2/XAdkHYwELSm.bO8LQJm42w--/Zmk9c3RyaW07aD0yMTQ7cHlvZmY9MDtxPTgwO3c9MzgwO3NtPTE7YXBwaWQ9eXRhY2h5b24-/https:/s.yimg.com/av/moneyball/ads/1458635178074-402.jpg.cf.jpg",
         "comps" : [],
         "download" : {
            "dnsEnd" : -1,
            "type" : "image/jpeg",
            "dns" : 0,
            "s_time" : 560.788999995566,
            "id" : "download_13",
            "sslEnd" : -1,
            "sendStart" : 161,
            "len" : 14682,
            "sslStart" : -1,
            "connectEnd" : 161,
            "receivedTime" : "877.167999991798",
            "receiveFirst" : 101,
            "dnsStart" : -1,
            "connectStart" : 0,
            "sendEnd" : 161,
            "receiveLast" : 615.167999991798,
            "receiveHeadersEnd" : 262
         },
         "id" : "r26"
      },
      {
         "url" : "http://original.testbed.localhost/s.yimg.com/uu/api/res/1.2/fOKobA0LsLxuWuxcqC00WA--/Zmk9c3RyaW07aD0xNDA7cHlvZmY9MDtxPTkwO3c9MTQwO3NtPTE7YXBwaWQ9eXRhY2h5b24-/http:/slingstone.zenfs.com/offnetwork/e332b49699c17c84d8b6fbe22ee56755",
         "download" : {
            "receiveHeadersEnd" : 144,
            "sendEnd" : 43,
            "receiveLast" : 736.70599999628,
            "receivedTime" : "880.70599999628",
            "receiveFirst" : 101,
            "dnsStart" : -1,
            "connectStart" : 0,
            "connectEnd" : 43,
            "id" : "download_14",
            "sslEnd" : -1,
            "sendStart" : 43,
            "len" : 7423,
            "sslStart" : -1,
            "dns" : 0,
            "s_time" : 722.094999990077,
            "dnsEnd" : -1,
            "type" : "image/jpeg"
         },
         "comps" : [],
         "id" : "r30",
         "when_comp_start" : -1
      },
      {
         "when_comp_start" : -1,
         "id" : "r31",
         "download" : {
            "dnsEnd" : -1,
            "type" : "image/gif",
            "sendStart" : 1,
            "sslEnd" : -1,
            "id" : "download_15",
            "len" : 43,
            "sslStart" : -1,
            "s_time" : 765.28700000199,
            "dns" : 0,
            "receiveFirst" : 101,
            "receivedTime" : "880.859999990207",
            "connectStart" : 0,
            "dnsStart" : -1,
            "connectEnd" : 1,
            "receiveHeadersEnd" : 102,
            "sendEnd" : 1,
            "receiveLast" : 778.859999990207
         },
         "comps" : [],
         "url" : "http://original.testbed.localhost/s.yimg.com/os/mit/ape/m/81f43c2/t.gif"
      },
      {
         "when_comp_start" : -1,
         "url" : "http://original.testbed.localhost/s.yimg.com/uu/api/res/1.2/2sQKRw9wSuWPtj0ca.CFow--/Zmk9c3RyaW07aD0yMTQ7cHlvZmY9MDtxPTgwO3c9MzgwO3NtPTE7YXBwaWQ9eXRhY2h5b24-/https:/s.yimg.com/cd/resizer/2.0/FIT_TO_WIDTH-w540/b4d48e8fc750e1afb8c6e10c2f0ba5158607f8f2.jpg.cf.jpg",
         "download" : {
            "type" : "image/jpeg",
            "dnsEnd" : -1,
            "s_time" : 560.917999988305,
            "dns" : 0,
            "sslStart" : -1,
            "len" : 17138,
            "sendStart" : 207,
            "id" : "download_16",
            "sslEnd" : -1,
            "connectEnd" : 207,
            "connectStart" : 0,
            "dnsStart" : -1,
            "receivedTime" : "881.194999994477",
            "receiveFirst" : 101,
            "receiveLast" : 573.194999994477,
            "sendEnd" : 207,
            "receiveHeadersEnd" : 308
         },
         "comps" : [],
         "id" : "r27"
      },
      {
         "when_comp_start" : -1,
         "url" : "http://original.testbed.localhost/s.yimg.com/os/mit/ape/w/d8f6e02/dark/mostly_cloudy_day_night.png",
         "comps" : [],
         "download" : {
            "receiveHeadersEnd" : 102,
            "sendEnd" : 2,
            "receiveLast" : 779.354999990435,
            "receiveFirst" : 100,
            "receivedTime" : "881.354999990435",
            "dnsStart" : -1,
            "connectStart" : 0,
            "connectEnd" : 2,
            "sslEnd" : -1,
            "id" : "download_17",
            "sendStart" : 2,
            "sslStart" : -1,
            "len" : 1869,
            "dns" : 0,
            "s_time" : 768.335999993724,
            "dnsEnd" : -1,
            "type" : "image/png"
         },
         "id" : "r33"
      },
      {
         "id" : "r34",
         "download" : {
            "s_time" : 770.401000001584,
            "dns" : 0,
            "sendStart" : 53,
            "sslEnd" : -1,
            "id" : "download_19",
            "sslStart" : -1,
            "len" : 2322,
            "dnsEnd" : -1,
            "type" : "image/png",
            "sendEnd" : 53,
            "receiveLast" : 771.574999990407,
            "receiveHeadersEnd" : 155,
            "connectEnd" : 53,
            "receivedTime" : "926.574999990407",
            "receiveFirst" : 102,
            "connectStart" : 0,
            "dnsStart" : -1
         },
         "comps" : [],
         "url" : "http://original.testbed.localhost/s.yimg.com/os/mit/ape/w/d8f6e02/dark/scattered_showers_day_night.png",
         "when_comp_start" : -1
      },
      {
         "url" : "http://original.testbed.localhost/s.yimg.com/os/mit/ape/w/d8f6e02/dark/clear_day.png",
         "download" : {
            "receiveLast" : 825.059999995399,
            "sendEnd" : 40,
            "receiveHeadersEnd" : 142,
            "connectEnd" : 40,
            "connectStart" : 0,
            "dnsStart" : -1,
            "receivedTime" : "967.059999995399",
            "receiveFirst" : 102,
            "s_time" : 824.142999990727,
            "dns" : 0,
            "len" : 2268,
            "sslStart" : -1,
            "sendStart" : 40,
            "sslEnd" : -1,
            "id" : "download_20",
            "type" : "image/png",
            "dnsEnd" : -1
         },
         "comps" : [],
         "id" : "r35",
         "when_comp_start" : -1
      },
      {
         "comps" : [],
         "download" : {
            "type" : "image/png",
            "dnsEnd" : -1,
            "len" : 2512,
            "sslStart" : -1,
            "sendStart" : 2,
            "sslEnd" : -1,
            "id" : "download_21",
            "s_time" : 864.842999988468,
            "dns" : 0,
            "connectStart" : 0,
            "dnsStart" : -1,
            "receiveFirst" : 100,
            "receivedTime" : "968.410000001313",
            "connectEnd" : 2,
            "receiveHeadersEnd" : 102,
            "receiveLast" : 866.410000001313,
            "sendEnd" : 2
         },
         "url" : "http://original.testbed.localhost/s.yimg.com/os/mit/ape/w/d8f6e02/dark/partly_cloudy_day.png",
         "id" : "r36",
         "when_comp_start" : -1
      },
      {
         "when_comp_start" : -1,
         "comps" : [],
         "download" : {
            "dnsEnd" : -1,
            "type" : "image/jpeg",
            "dns" : 0,
            "s_time" : 866.89999999362,
            "sslEnd" : -1,
            "id" : "download_22",
            "sendStart" : 1,
            "len" : 21126,
            "sslStart" : -1,
            "connectEnd" : 1,
            "receiveFirst" : 101,
            "receivedTime" : "971.328999992693",
            "dnsStart" : -1,
            "connectStart" : 0,
            "sendEnd" : 1,
            "receiveLast" : 869.328999992693,
            "receiveHeadersEnd" : 102
         },
         "url" : "http://original.testbed.localhost/s.yimg.com/uu/api/res/1.2/cZhWNdpjwykAXsry_gmPrA--/Zmk9ZmlsbDtoPTQxNDtweW9mZj0wO3E9ODA7dz00MTQ7c209MTthcHBpZD15dGFjaHlvbg--/http:/l.yimg.com/dh/ap/default/160504/ai.jpg",
         "id" : "r37"
      },
      {
         "url" : "http://original.testbed.localhost/s.yimg.com/uu/api/res/1.2/KYSf3f5KvjcnDva06tC.YA--/Zmk9ZmlsbDtoPTQxNDtweW9mZj0wO3E9ODA7dz00MTQ7c209MTthcHBpZD15dGFjaHlvbg--/http:/l.yimg.com/dh/ap/default/160504/dogs-veterans.jpg",
         "comps" : [],
         "download" : {
            "dnsEnd" : -1,
            "type" : "image/jpeg",
            "sslEnd" : -1,
            "id" : "download_23",
            "sendStart" : 2,
            "len" : 30663,
            "sslStart" : -1,
            "dns" : 0,
            "s_time" : 868.078999992576,
            "receivedTime" : "974.026999989292",
            "receiveFirst" : 101,
            "dnsStart" : -1,
            "connectStart" : 0,
            "connectEnd" : 2,
            "receiveHeadersEnd" : 103,
            "sendEnd" : 2,
            "receiveLast" : 871.026999989292
         },
         "id" : "r38",
         "when_comp_start" : -1
      },
      {
         "when_comp_start" : -1,
         "download" : {
            "connectEnd" : 1,
            "connectStart" : 0,
            "dnsStart" : -1,
            "receivedTime" : "974.686000001384",
            "receiveFirst" : 102,
            "receiveLast" : 871.686000001384,
            "sendEnd" : 1,
            "receiveHeadersEnd" : 103,
            "type" : "image/gif",
            "dnsEnd" : -1,
            "s_time" : 870.429000002332,
            "dns" : 0,
            "len" : 42,
            "sslStart" : -1,
            "sendStart" : 1,
            "id" : "download_24",
            "sslEnd" : -1
         },
         "comps" : [],
         "url" : "http://original.testbed.localhost/bs.serving-sys.com/BurstingPipe/adServer.bs%3Fcn=tf&c=19&mc=imp&pli=16991760&PluID=0&ord=$%257BCACHEBUSTER%257D&rtu=-1",
         "id" : "r39"
      },
      {
         "download" : {
            "type" : "application/javascript",
            "dnsEnd" : -1,
            "len" : 514533,
            "sslStart" : -1,
            "sendStart" : 51,
            "sslEnd" : -1,
            "id" : "download_25",
            "s_time" : 875.807999997051,
            "dns" : 0,
            "connectStart" : 0,
            "dnsStart" : -1,
            "receivedTime" : "1139.98799999536",
            "receiveFirst" : 107,
            "connectEnd" : 51,
            "receiveHeadersEnd" : 158,
            "receiveLast" : 981.987999995355,
            "sendEnd" : 51
         },
         "comps" : [
            {
               "time" : 87.4970000004398,
               "id" : "comp_89",
               "e_time" : 1227.55699999107,
               "s_time" : 1140.05999999063,
               "type" : 1
            }
         ],
         "url" : "http://original.testbed.localhost/s.yimg.com/zz/combo%3Fyui:%252F3.18.0%252Fyui%252Fyui-min.js&%252Fss%252Frapid-3.29.1.js&%252Fos%252Fmit%252Ftd%252Faperollup-min-a1ca94d8_desktop_advance.js",
         "id" : "r43",
         "when_comp_start" : -1
      },
      {
         "when_comp_start" : -1,
         "id" : "r44",
         "download" : {
            "dns" : 0,
            "s_time" : 875.792999999248,
            "id" : "download_26",
            "sslEnd" : -1,
            "sendStart" : 91,
            "sslStart" : -1,
            "len" : 742119,
            "dnsEnd" : -1,
            "type" : "text/plain",
            "sendEnd" : 91,
            "receiveLast" : 1377.00599999062,
            "receiveHeadersEnd" : 192,
            "connectEnd" : 91,
            "receiveFirst" : 101,
            "receivedTime" : "1569.00599999062",
            "dnsStart" : -1,
            "connectStart" : 0
         },
         "comps" : [],
         "url" : "http://original.testbed.localhost/s.yimg.com/zz/combo%3F&&%252Fos%252Fmit%252Ftd%252Ftd-applet-stream-atomic-2.0.503%252Fr-min.js&%252Fos%252Fmit%252Ftd%252Ftd-applet-mega-header-1.0.216%252Fr-min.js&%252Fos%252Fmit%252Ftd%252Ftd-applet-viewer-0.1.2169%252Fr-min.js&%252Fos%252Fmit%252Ftd%252Ftd-appl"
      },
      {
         "when_comp_start" : -1,
         "download" : {
            "receiveHeadersEnd" : 194,
            "receiveLast" : 877.71199998993,
            "sendEnd" : 91,
            "dnsStart" : -1,
            "connectStart" : 0,
            "receivedTime" : "1071.71199998993",
            "receiveFirst" : 103,
            "connectEnd" : 91,
            "sslStart" : -1,
            "len" : 18078,
            "id" : "download_27",
            "sslEnd" : -1,
            "sendStart" : 91,
            "dns" : 0,
            "s_time" : 876.06299998879,
            "type" : "application/javascript",
            "dnsEnd" : -1
         },
         "comps" : [
            {
               "time" : 2.09500000346998,
               "id" : "comp_97",
               "e_time" : 1286.97299999476,
               "s_time" : 1284.87799999129,
               "type" : 1
            }
         ],
         "url" : "http://original.testbed.localhost/s.yimg.com/zz/combo%3F%252Fos%252Fyaft%252Fyaft-0.3.3.min.js&%252Fos%252Fyaft%252Fyaft-plugin-aftnoad-0.1.3.min.js&os%252Fyaft%252Fyaft-plugin-harbeacon-0.1.3.min.js",
         "id" : "r45"
      },
      {
         "when_comp_start" : -1,
         "id" : "r41",
         "comps" : [],
         "download" : {
            "connectStart" : 0,
            "dnsStart" : -1,
            "receivedTime" : "1073.46999998845",
            "receiveFirst" : 101,
            "connectEnd" : 99,
            "receiveHeadersEnd" : 200,
            "receiveLast" : 873.469999988447,
            "sendEnd" : 99,
            "type" : "image/gif",
            "dnsEnd" : -1,
            "sslStart" : -1,
            "len" : 20522,
            "sendStart" : 99,
            "sslEnd" : -1,
            "id" : "download_28",
            "s_time" : 871.805999995559,
            "dns" : 0
         },
         "url" : "http://original.testbed.localhost/s.yimg.com/dh/ap/default/160115/fuji-spinner-2.gif"
      },
      {
         "url" : "http://original.testbed.localhost/www.yahoo.com/sy/nn/lib/metro/300_250_Human_Touch_mail.jpg",
         "comps" : [],
         "download" : {
            "receiveHeadersEnd" : 148,
            "receiveLast" : 929.076000001398,
            "sendEnd" : 47,
            "dnsStart" : -1,
            "connectStart" : 0,
            "receivedTime" : "1077.0760000014",
            "receiveFirst" : 101,
            "connectEnd" : 47,
            "sslStart" : -1,
            "len" : 17305,
            "id" : "download_29",
            "sslEnd" : -1,
            "sendStart" : 47,
            "dns" : 0,
            "s_time" : 926.544000001741,
            "type" : "image/jpeg",
            "dnsEnd" : -1
         },
         "id" : "r42",
         "when_comp_start" : -1
      },
      {
         "when_comp_start" : -1,
         "download" : {
            "connectEnd" : 307,
            "connectStart" : 0,
            "dnsStart" : -1,
            "receivedTime" : "1081.48100000108",
            "receiveFirst" : 102,
            "receiveLast" : 672.481000001077,
            "sendEnd" : 307,
            "receiveHeadersEnd" : 409,
            "type" : "image/jpeg",
            "dnsEnd" : -1,
            "s_time" : 666.952999992645,
            "dns" : 0,
            "sslStart" : -1,
            "len" : 27136,
            "sendStart" : 307,
            "id" : "download_30",
            "sslEnd" : -1
         },
         "comps" : [],
         "url" : "http://original.testbed.localhost/s.yimg.com/uu/api/res/1.2/txf3nufOBgoOn6BhPEbflQ--/Zmk9c3RyaW07aD0zODA7cHlvZmY9MDtxPTgwO3c9MzgwO3NtPTE7YXBwaWQ9eXRhY2h5b24-/http:/media.zenfs.com/en_us/gma/us.abcnews.gma.com/ap_donald_trump_hillary_clinton_split_jc_160412_16x9_992.jpg.cf.jpg",
         "id" : "r28"
      },
      {
         "when_comp_start" : -1,
         "id" : "r29",
         "comps" : [],
         "download" : {
            "dns" : 0,
            "s_time" : 669.057999999495,
            "len" : 5187,
            "sslStart" : -1,
            "sslEnd" : -1,
            "id" : "download_31",
            "sendStart" : 402,
            "type" : "image/jpeg",
            "dnsEnd" : -1,
            "receiveLast" : 818.242999991635,
            "sendEnd" : 402,
            "receiveHeadersEnd" : 505,
            "connectEnd" : 402,
            "dnsStart" : -1,
            "connectStart" : 0,
            "receivedTime" : "1323.24299999163",
            "receiveFirst" : 103
         },
         "url" : "http://original.testbed.localhost/s.yimg.com/uu/api/res/1.2/XP4ISBTJtMfmqWxIK6tF1w--/Zmk9c3RyaW07aD0xNDA7cHlvZmY9MDtxPTkwO3c9MTQwO3NtPTE7YXBwaWQ9eXRhY2h5b24-/http:/media.zenfs.com/en-US/video/video.nowthis.com/71c24659019cd149dfd1a5cc399a87f3"
      },
      {
         "when_comp_start" : -1,
         "url" : "https://s.yimg.com/lq/lib/3pm/cs_0.2.js",
         "download" : {
            "dnsStart" : -1,
            "connectStart" : 0,
            "receiveFirst" : 105,
            "receivedTime" : "1710.92299999145",
            "connectEnd" : 320,
            "receiveHeadersEnd" : 425,
            "receiveLast" : 1285.92299999145,
            "sendEnd" : 320,
            "type" : "application/javascript",
            "dnsEnd" : -1,
            "len" : 1420,
            "sslStart" : 204,
            "id" : "download_32",
            "sslEnd" : 319,
            "sendStart" : 320,
            "dns" : 0,
            "s_time" : 1284.97199999401
         },
         "comps" : [
            {
               "id" : "comp_110",
               "time" : 3.21600001188995,
               "type" : null,
               "s_time" : 1711.08899998944,
               "e_time" : 1714.30500000133
            }
         ],
         "id" : "r46"
      },
      {
         "when_comp_start" : -1,
         "url" : "https://pclick.yahoo.com/p/s=1197775342&t=129871377320214367&szmk=3949376c-5678-4a89-bd14-9de93e439962-31",
         "download" : {
            "receiveLast" : 1445.54499999131,
            "sendEnd" : 456,
            "receiveHeadersEnd" : 571,
            "connectEnd" : 456,
            "connectStart" : 0,
            "dnsStart" : -1,
            "receiveFirst" : 115,
            "receivedTime" : "2016.54499999131",
            "s_time" : 1444.10500000231,
            "dns" : 0,
            "len" : 43,
            "sslStart" : 219,
            "sendStart" : 456,
            "id" : "download_33",
            "sslEnd" : 456,
            "type" : "image/gif",
            "dnsEnd" : -1
         },
         "comps" : [],
         "id" : "r32"
      },
      {
         "when_comp_start" : -1,
         "id" : "r47",
         "url" : "http://b.scorecardresearch.com/p2?c1=2&c2=7241469&c5=2023538075&c7=https%3A%2F%2Fwww.yahoo.com%2F&ns__t=1463291998824&ns_c=UTF-8",
         "download" : {
            "dnsEnd" : -1,
            "type" : "image/gif",
            "dns" : 0,
            "s_time" : 1922.38999999245,
            "id" : "download_34",
            "sslEnd" : -1,
            "sendStart" : 0,
            "sslStart" : -1,
            "len" : 43,
            "connectEnd" : 0,
            "receiveFirst" : 104,
            "receivedTime" : "2027.08999998868",
            "dnsStart" : -1,
            "connectStart" : 0,
            "sendEnd" : 0,
            "receiveLast" : 1923.08999998868,
            "receiveHeadersEnd" : 104
         },
         "comps" : []
      }
   ],
   "load_activity" : -1,
   "deps" : [
      {
         "id" : "dep1",
         "time" : -1,
         "a1" : "comp_3",
         "a2" : "r1_c2"
      },
      {
         "time" : -1,
         "id" : "dep2",
         "a2" : "r1_c3",
         "a1" : "comp_89"
      },
      {
         "a1" : "comp_97",
         "a2" : "r1_c4",
         "id" : "dep3",
         "time" : -1
      },
      {
         "id" : "dep4",
         "time" : -1,
         "a1" : "r1_c4",
         "a2" : "download_34"
      },
      {
         "id" : "dep5",
         "time" : 157.13200000755,
         "a1" : "r1_c4",
         "a2" : "download_33"
      },
      {
         "a1" : "r1_c3",
         "a2" : "download_32",
         "id" : "dep6",
         "time" : -1
      },
      {
         "a2" : "download_31",
         "a1" : "r1_c1",
         "time" : -1,
         "id" : "dep7"
      },
      {
         "id" : "dep8",
         "time" : 549.603999999817,
         "a1" : "r1_c1",
         "a2" : "download_30"
      },
      {
         "a2" : "download_29",
         "a1" : "r1_c2",
         "time" : -1,
         "id" : "dep9"
      },
      {
         "a2" : "download_28",
         "a1" : "r1_c2",
         "time" : 173.475000003237,
         "id" : "dep10"
      },
      {
         "a2" : "download_27",
         "a1" : "r1_c2",
         "time" : 177.731999996468,
         "id" : "dep11"
      },
      {
         "a2" : "download_27",
         "a1" : "r1_c2",
         "time" : 177.731999996468,
         "id" : "dep12"
      },
      {
         "a1" : "r1_c2",
         "a2" : "download_26",
         "id" : "dep13",
         "time" : 177.462000006926
      },
      {
         "id" : "dep14",
         "time" : 177.462000006926,
         "a1" : "r1_c2",
         "a2" : "download_26"
      },
      {
         "time" : 177.477000004729,
         "id" : "dep15",
         "a2" : "download_25",
         "a1" : "r1_c2"
      },
      {
         "a1" : "r1_c2",
         "a2" : "download_24",
         "id" : "dep16",
         "time" : 172.09800001001
      },
      {
         "id" : "dep17",
         "time" : 169.748000000254,
         "a1" : "r1_c2",
         "a2" : "download_23"
      },
      {
         "id" : "dep18",
         "time" : 168.569000001298,
         "a1" : "r1_c2",
         "a2" : "download_22"
      },
      {
         "time" : 166.511999996146,
         "id" : "dep19",
         "a2" : "download_21",
         "a1" : "r1_c2"
      },
      {
         "time" : 125.811999998405,
         "id" : "dep20",
         "a2" : "download_20",
         "a1" : "r1_c2"
      },
      {
         "a1" : "r1_c2",
         "a2" : "download_19",
         "id" : "dep21",
         "time" : 72.070000009262
      },
      {
         "a2" : "download_17",
         "a1" : "r1_c2",
         "time" : 70.0050000014021,
         "id" : "dep22"
      },
      {
         "id" : "dep23",
         "time" : 443.568999995477,
         "a1" : "r1_c1",
         "a2" : "download_16"
      },
      {
         "a2" : "download_16",
         "a1" : "r1_c1",
         "time" : 443.568999995477,
         "id" : "dep24"
      },
      {
         "a1" : "r1_c2",
         "a2" : "download_15",
         "id" : "dep25",
         "time" : 66.9560000096681
      },
      {
         "a2" : "download_14",
         "a1" : "r1_c2",
         "time" : 23.763999997755,
         "id" : "dep26"
      },
      {
         "id" : "dep27",
         "time" : 443.440000002738,
         "a1" : "r1_c1",
         "a2" : "download_13"
      },
      {
         "a2" : "download_13",
         "a1" : "r1_c1",
         "time" : 443.440000002738,
         "id" : "dep28"
      },
      {
         "a2" : "download_12",
         "a1" : "r1_c1",
         "time" : 443.297999998322,
         "id" : "dep29"
      },
      {
         "id" : "dep30",
         "time" : 443.297999998322,
         "a1" : "r1_c1",
         "a2" : "download_12"
      },
      {
         "time" : 443.184999996447,
         "id" : "dep31",
         "a2" : "download_11",
         "a1" : "r1_c1"
      },
      {
         "time" : 443.184999996447,
         "id" : "dep32",
         "a2" : "download_11",
         "a1" : "r1_c1"
      },
      {
         "time" : 443.039999998291,
         "id" : "dep33",
         "a2" : "download_10",
         "a1" : "r1_c1"
      },
      {
         "a1" : "r1_c1",
         "a2" : "download_10",
         "id" : "dep34",
         "time" : 443.039999998291
      },
      {
         "id" : "dep35",
         "time" : 442.91900000826,
         "a1" : "r1_c1",
         "a2" : "download_9"
      },
      {
         "a2" : "download_9",
         "a1" : "r1_c1",
         "time" : 442.91900000826,
         "id" : "dep36"
      },
      {
         "id" : "dep37",
         "time" : 442.794000002323,
         "a1" : "r1_c1",
         "a2" : "download_8"
      },
      {
         "time" : 442.794000002323,
         "id" : "dep38",
         "a2" : "download_8",
         "a1" : "r1_c1"
      },
      {
         "a2" : "download_7",
         "a1" : "r1_c1",
         "time" : 442.50699999975,
         "id" : "dep39"
      },
      {
         "a1" : "r1_c1",
         "a2" : "download_7",
         "id" : "dep40",
         "time" : 442.50699999975
      },
      {
         "id" : "dep41",
         "time" : 442.657000006875,
         "a1" : "r1_c1",
         "a2" : "download_6"
      },
      {
         "id" : "dep42",
         "time" : 442.657000006875,
         "a1" : "r1_c1",
         "a2" : "download_6"
      },
      {
         "a2" : "download_5",
         "a1" : "r1_c1",
         "time" : 442.337000000407,
         "id" : "dep43"
      },
      {
         "id" : "dep44",
         "time" : 442.337000000407,
         "a1" : "r1_c1",
         "a2" : "download_5"
      },
      {
         "a2" : "download_4",
         "a1" : "r1_c1",
         "time" : 91.746999998577,
         "id" : "dep45"
      },
      {
         "id" : "dep46",
         "time" : 91.746999998577,
         "a1" : "r1_c1",
         "a2" : "download_4"
      },
      {
         "time" : 1.11800000013299,
         "id" : "dep47",
         "a2" : "download_3",
         "a1" : "r1_c1"
      },
      {
         "a1" : "r1_c1",
         "a2" : "download_2",
         "id" : "dep48",
         "time" : 0.916999997570997
      }
   ]
}
