{
   "deps" : [
      {
         "a1" : "comp_4",
         "id" : "dep1",
         "time" : -1,
         "a2" : "r1_c2"
      },
      {
         "id" : "dep2",
         "a1" : "comp_7",
         "time" : -1,
         "a2" : "r1_c3"
      },
      {
         "time" : -1,
         "a2" : "r1_c4",
         "id" : "dep3",
         "a1" : "comp_8"
      },
      {
         "a1" : "comp_9",
         "id" : "dep4",
         "a2" : "r1_c5",
         "time" : -1
      },
      {
         "time" : -1,
         "a2" : "r1_c6",
         "a1" : "comp_10",
         "id" : "dep5"
      },
      {
         "id" : "dep6",
         "a1" : "comp_11",
         "time" : -1,
         "a2" : "r1_c7"
      },
      {
         "time" : -1,
         "a2" : "r1_c8",
         "id" : "dep7",
         "a1" : "comp_12"
      },
      {
         "a1" : "comp_13",
         "id" : "dep8",
         "time" : -1,
         "a2" : "r1_c9"
      },
      {
         "a1" : "comp_14",
         "id" : "dep9",
         "a2" : "r1_c10",
         "time" : -1
      },
      {
         "id" : "dep10",
         "a1" : "comp_15",
         "time" : -1,
         "a2" : "r1_c11"
      },
      {
         "a1" : "comp_3",
         "id" : "dep11",
         "time" : -1,
         "a2" : "comp_4"
      },
      {
         "time" : -1,
         "a2" : "comp_4",
         "a1" : "comp_0",
         "id" : "dep12"
      },
      {
         "id" : "dep13",
         "a1" : "comp_1",
         "a2" : "comp_4",
         "time" : -1
      },
      {
         "id" : "dep14",
         "a1" : "comp_2",
         "a2" : "comp_4",
         "time" : -1
      },
      {
         "id" : "dep15",
         "a1" : "r1_c11",
         "a2" : "download_10",
         "time" : -1
      },
      {
         "time" : -1,
         "a2" : "download_9",
         "a1" : "r1_c1",
         "id" : "dep16"
      },
      {
         "id" : "dep17",
         "a1" : "r1_c2",
         "time" : -1,
         "a2" : "download_8"
      },
      {
         "time" : 0.838000007207029,
         "a2" : "download_8",
         "a1" : "r1_c2",
         "id" : "dep18"
      },
      {
         "a1" : "r1_c1",
         "id" : "dep19",
         "time" : -1,
         "a2" : "download_7"
      },
      {
         "a1" : "r1_c1",
         "id" : "dep20",
         "time" : 611.877999996068,
         "a2" : "download_6"
      },
      {
         "a2" : "download_5",
         "time" : 611.705999996047,
         "a1" : "r1_c1",
         "id" : "dep21"
      },
      {
         "time" : 611.483000000589,
         "a2" : "download_4",
         "a1" : "r1_c1",
         "id" : "dep22"
      },
      {
         "a1" : "r1_c1",
         "id" : "dep23",
         "a2" : "download_3",
         "time" : 1.483000000007
      },
      {
         "a1" : "r1_c1",
         "id" : "dep24",
         "time" : 1.483000000007,
         "a2" : "download_3"
      },
      {
         "a1" : "r1_c1",
         "id" : "dep25",
         "a2" : "download_2",
         "time" : 1.27700000302801
      },
      {
         "a1" : "r1_c1",
         "id" : "dep26",
         "time" : 0.652999995509006,
         "a2" : "download_1"
      }
   ],
   "n_download_no_trigger" : 1,
   "start_activity" : "download_0",
   "load_activity" : -1,
   "objs" : [
      {
         "id" : "r1",
         "url" : "http://original.testbed.localhost/www.edufocus.co.uk/",
         "comps" : [
            {
               "s_time" : 110.543999995571,
               "id" : "r1_c1",
               "e_time" : 722.565000003669,
               "type" : "evalhtml",
               "time" : 612.021000008098
            },
            {
               "e_time" : 766.856000002008,
               "s_time" : 766.017999994801,
               "id" : "r1_c2",
               "time" : 0.838000007207029,
               "type" : "evalhtml"
            },
            {
               "time" : -90934171.268,
               "type" : "evalhtml",
               "e_time" : -90933403.099,
               "id" : "r1_c3",
               "s_time" : 768.169000002672
            },
            {
               "e_time" : -90933403.099,
               "id" : "r1_c4",
               "s_time" : 768.218999990495,
               "time" : -90934171.318,
               "type" : "evalhtml"
            },
            {
               "time" : -90934171.352,
               "type" : "evalhtml",
               "e_time" : -90933403.099,
               "id" : "r1_c5",
               "s_time" : 768.253000002005
            },
            {
               "time" : -90934171.385,
               "type" : "evalhtml",
               "e_time" : -90933403.099,
               "s_time" : 768.285999991349,
               "id" : "r1_c6"
            },
            {
               "s_time" : 768.314000000828,
               "id" : "r1_c7",
               "e_time" : -90933403.099,
               "type" : "evalhtml",
               "time" : -90934171.413
            },
            {
               "s_time" : 768.345000004047,
               "id" : "r1_c8",
               "e_time" : -90933403.099,
               "type" : "evalhtml",
               "time" : -90934171.444
            },
            {
               "time" : -90934171.471,
               "type" : "evalhtml",
               "e_time" : -90933403.099,
               "s_time" : 768.371999991359,
               "id" : "r1_c9"
            },
            {
               "type" : "evalhtml",
               "time" : -90934171.502,
               "s_time" : 768.402999994578,
               "id" : "r1_c10",
               "e_time" : -90933403.099
            },
            {
               "time" : 36.330999995698,
               "type" : "evalhtml",
               "e_time" : 911.056999990251,
               "id" : "r1_c11",
               "s_time" : 874.725999994553
            }
         ],
         "download" : {
            "sendEnd" : 0,
            "sslEnd" : -1,
            "sendStart" : 0,
            "connectEnd" : 0,
            "receiveLast" : 9.27999999350868,
            "connectStart" : 0,
            "dns" : 0,
            "type" : "text/html",
            "receiveFirst" : 101,
            "dnsEnd" : -1,
            "s_time" : 0,
            "len" : 21418,
            "receiveHeadersEnd" : 101,
            "receivedTime" : "110.279999993509",
            "sslStart" : -1,
            "id" : "download_0",
            "dnsStart" : -1
         },
         "when_comp_start" : 1
      },
      {
         "when_comp_start" : -1,
         "download" : {
            "id" : "download_1",
            "receiveHeadersEnd" : 204,
            "receivedTime" : "416.494999997667",
            "sslStart" : -1,
            "dnsStart" : -1,
            "connectEnd" : 103,
            "receiveLast" : 212.494999997667,
            "sendEnd" : 103,
            "sslEnd" : -1,
            "sendStart" : 103,
            "dnsEnd" : -1,
            "len" : 26711,
            "s_time" : 111.19699999108,
            "connectStart" : 0,
            "type" : "text/css",
            "dns" : 0,
            "receiveFirst" : 101
         },
         "comps" : [
            {
               "time" : 6.13800001156,
               "type" : 4,
               "e_time" : 422.718000001623,
               "id" : "comp_3",
               "s_time" : 416.579999990063
            }
         ],
         "id" : "r2",
         "url" : "http://maxcdn.bootstrapcdn.com/font-awesome/4.4.0/css/font-awesome.min.css"
      },
      {
         "comps" : [
            {
               "time" : 43.60699999961,
               "type" : 1,
               "e_time" : 766.017999994801,
               "id" : "comp_4",
               "s_time" : 722.410999995191
            }
         ],
         "url" : "http://code.jquery.com/jquery-1.11.3.js",
         "id" : "r6",
         "when_comp_start" : -1,
         "download" : {
            "receiveLast" : 518.280999994837,
            "connectEnd" : 103,
            "sendStart" : 103,
            "sslEnd" : -1,
            "sendEnd" : 103,
            "len" : 284394,
            "s_time" : 111.820999998599,
            "dnsEnd" : -1,
            "receiveFirst" : 101,
            "type" : "application/javascript",
            "dns" : 0,
            "connectStart" : 0,
            "id" : "download_2",
            "sslStart" : -1,
            "receivedTime" : "722.280999994837",
            "receiveHeadersEnd" : 204,
            "dnsStart" : -1
         }
      },
      {
         "download" : {
            "dnsStart" : -1,
            "id" : "download_3",
            "sslStart" : -1,
            "receivedTime" : "423.754999996163",
            "receiveHeadersEnd" : 309,
            "dnsEnd" : -1,
            "s_time" : 112.026999995578,
            "len" : 325,
            "connectStart" : 0,
            "receiveFirst" : 102,
            "dns" : 0,
            "type" : "text/html",
            "receiveLast" : 114.754999996163,
            "connectEnd" : 207,
            "sslEnd" : -1,
            "sendEnd" : 207,
            "sendStart" : 207
         },
         "when_comp_start" : 1,
         "id" : "r7",
         "url" : "http://original.testbed.localhost/assets/img/logos/edufocus-evolve.png",
         "comps" : []
      },
      {
         "download" : {
            "s_time" : 722.02699999616,
            "len" : 340,
            "dnsEnd" : -1,
            "receiveFirst" : 102,
            "type" : "text/html",
            "dns" : 0,
            "connectStart" : 0,
            "receiveLast" : 723.648000002024,
            "connectEnd" : 1,
            "sendStart" : 1,
            "sslEnd" : -1,
            "sendEnd" : 1,
            "dnsStart" : -1,
            "id" : "download_4",
            "sslStart" : -1,
            "receivedTime" : "826.648000002024",
            "receiveHeadersEnd" : 103
         },
         "when_comp_start" : 1,
         "id" : "r9",
         "url" : "http://original.testbed.localhost/assets/img/logos/customers/greenwood-dale-white.png",
         "comps" : []
      },
      {
         "comps" : [],
         "id" : "r10",
         "url" : "http://original.testbed.localhost/assets/img/customers/franklin-college-white.png",
         "when_comp_start" : 1,
         "download" : {
            "receiveFirst" : 102,
            "type" : "text/html",
            "dns" : 0,
            "connectStart" : 0,
            "s_time" : 722.249999991618,
            "len" : 336,
            "dnsEnd" : -1,
            "sendStart" : 1,
            "sslEnd" : -1,
            "sendEnd" : 1,
            "receiveLast" : 728.143999996129,
            "connectEnd" : 1,
            "dnsStart" : -1,
            "sslStart" : -1,
            "receivedTime" : "831.143999996129",
            "receiveHeadersEnd" : 103,
            "id" : "download_5"
         }
      },
      {
         "when_comp_start" : 1,
         "download" : {
            "dnsStart" : -1,
            "receivedTime" : "831.385999990744",
            "receiveHeadersEnd" : 103,
            "sslStart" : -1,
            "id" : "download_6",
            "dns" : 0,
            "type" : "text/html",
            "receiveFirst" : 102,
            "connectStart" : 0,
            "len" : 340,
            "s_time" : 722.421999991639,
            "dnsEnd" : -1,
            "sendStart" : 1,
            "sendEnd" : 1,
            "sslEnd" : -1,
            "connectEnd" : 1,
            "receiveLast" : 728.385999990744
         },
         "comps" : [],
         "id" : "r11",
         "url" : "http://original.testbed.localhost/assets/img/customers/essex-county-council-white.png"
      },
      {
         "download" : {
            "id" : "download_7",
            "sslStart" : -1,
            "receivedTime" : "831.942999997409",
            "receiveHeadersEnd" : 103,
            "dnsStart" : -1,
            "receiveLast" : 728.942999997409,
            "connectEnd" : 1,
            "sslEnd" : -1,
            "sendEnd" : 1,
            "sendStart" : 1,
            "dnsEnd" : -1,
            "len" : 321,
            "s_time" : 722.565000003669,
            "connectStart" : 0,
            "receiveFirst" : 102,
            "dns" : 0,
            "type" : "text/html"
         },
         "when_comp_start" : 1,
         "url" : "http://original.testbed.localhost/assets/img/logos/sims-footer.png",
         "id" : "r12",
         "comps" : []
      },
      {
         "when_comp_start" : 1,
         "download" : {
            "id" : "download_8",
            "sslStart" : -1,
            "receivedTime" : "869.508999996469",
            "receiveHeadersEnd" : 102,
            "dnsStart" : -1,
            "receiveLast" : 767.508999996469,
            "connectEnd" : 0,
            "sslEnd" : -1,
            "sendEnd" : 0,
            "sendStart" : 0,
            "dnsEnd" : -1,
            "len" : 325,
            "s_time" : 766.856000002008,
            "connectStart" : 0,
            "receiveFirst" : 102,
            "type" : "text/html",
            "dns" : 0
         },
         "comps" : [],
         "url" : "http://original.testbed.localhost/assets/img/logos/edufocus-evolve.png",
         "id" : "r24"
      },
      {
         "download" : {
            "dnsStart" : -1,
            "id" : "download_9",
            "sslStart" : -1,
            "receiveHeadersEnd" : 526,
            "receivedTime" : "949.252999998862",
            "len" : 1245,
            "s_time" : 421.535000001313,
            "dnsEnd" : -1,
            "receiveFirst" : 426,
            "type" : "text/html",
            "dns" : 0,
            "connectStart" : 0,
            "receiveLast" : 423.252999998862,
            "connectEnd" : 100,
            "sendStart" : 100,
            "sslEnd" : -1,
            "sendEnd" : 100
         },
         "when_comp_start" : 1,
         "id" : "r8",
         "url" : "http://dev.edufocus.co.uk/assets/img/logos/edufocus-evolve.png",
         "comps" : []
      },
      {
         "url" : "http://maxcdn.bootstrapcdn.com/font-awesome/4.4.0/fonts/fontawesome-webfont.woff?v=4.4.0",
         "id" : "r21",
         "comps" : [],
         "download" : {
            "s_time" : 911.056999990251,
            "len" : 81284,
            "dnsEnd" : -1,
            "receiveFirst" : 101,
            "dns" : 0,
            "type" : "application/font-woff",
            "connectStart" : 0,
            "receiveLast" : 1112.74300000025,
            "connectEnd" : 0,
            "sendStart" : 0,
            "sslEnd" : -1,
            "sendEnd" : 0,
            "dnsStart" : -1,
            "id" : "download_10",
            "sslStart" : -1,
            "receiveHeadersEnd" : 101,
            "receivedTime" : "1213.74300000025"
         },
         "when_comp_start" : -1
      }
   ],
   "name" : "original.testbed.localhost_www.edufocus.co.uk_"
}
