{
   "n_download_no_trigger" : 1,
   "start_activity" : "download_0",
   "name" : "original.testbed.localhost_www.intecnologia.net_",
   "load_activity" : -1,
   "objs" : [
      {
         "when_comp_start" : 1,
         "url" : "http://original.testbed.localhost/www.intecnologia.net/",
         "id" : "r1",
         "comps" : [
            {
               "s_time" : 24.1920000407845,
               "time" : 2.5649999734014,
               "id" : "r1_c1",
               "type" : "evalhtml",
               "e_time" : 26.7570000141859
            },
            {
               "s_time" : 230.949999997392,
               "time" : 1.578000141308,
               "id" : "r1_c2",
               "type" : "evalhtml",
               "e_time" : 232.5280001387
            },
            {
               "s_time" : 717.127999989316,
               "time" : -1080788348.813,
               "id" : "r1_c3",
               "type" : "evalhtml",
               "e_time" : -1080787631.685
            },
            {
               "s_time" : 718.075999990106,
               "time" : 1.06600020080805,
               "id" : "r1_c4",
               "type" : "evalhtml",
               "e_time" : 719.142000190914
            },
            {
               "s_time" : 1942.21000000834,
               "time" : -1080789573.895,
               "id" : "r1_c5",
               "type" : "evalhtml",
               "e_time" : -1080787631.685
            },
            {
               "s_time" : 1944.39000007696,
               "time" : -1080789576.075,
               "id" : "r1_c6",
               "type" : "evalhtml",
               "e_time" : -1080787631.685
            },
            {
               "s_time" : 1944.78100002743,
               "time" : -1080789576.466,
               "id" : "r1_c7",
               "type" : "evalhtml",
               "e_time" : -1080787631.685
            },
            {
               "s_time" : 1970.75300011784,
               "time" : -1080789602.438,
               "id" : "r1_c8",
               "type" : "evalhtml",
               "e_time" : -1080787631.685
            },
            {
               "s_time" : 1971.27400012687,
               "time" : 2.13399995117993,
               "id" : "r1_c9",
               "type" : "evalhtml",
               "e_time" : 1973.40800007805
            },
            {
               "s_time" : 2031.53900010511,
               "time" : -1080789663.224,
               "id" : "r1_c10",
               "type" : "evalhtml",
               "e_time" : -1080787631.685
            },
            {
               "s_time" : 2455.23500000127,
               "time" : -1080790086.92,
               "id" : "r1_c11",
               "type" : "evalhtml",
               "e_time" : -1080787631.685
            },
            {
               "s_time" : 2457.52400020137,
               "time" : 385.59699989856,
               "id" : "r1_c12",
               "type" : "evalhtml",
               "e_time" : 2843.12100009993
            },
            {
               "s_time" : 2860.79300008714,
               "time" : -1080790492.478,
               "id" : "r1_c13",
               "type" : "evalhtml",
               "e_time" : -1080787631.685
            },
            {
               "s_time" : 2862.07900010049,
               "time" : -1080790493.764,
               "id" : "r1_c14",
               "type" : "evalhtml",
               "e_time" : -1080787631.685
            },
            {
               "s_time" : 2862.97700018622,
               "time" : -1080790494.662,
               "id" : "r1_c15",
               "type" : "evalhtml",
               "e_time" : -1080787631.685
            },
            {
               "s_time" : 2864.13000011817,
               "time" : -1080790495.815,
               "id" : "r1_c16",
               "type" : "evalhtml",
               "e_time" : -1080787631.685
            },
            {
               "s_time" : 2864.83000009321,
               "time" : -1080790496.515,
               "id" : "r1_c17",
               "type" : "evalhtml",
               "e_time" : -1080787631.685
            },
            {
               "s_time" : 2865.36699999124,
               "time" : 5397.73200009949,
               "type" : "evalhtml",
               "id" : "r1_c18",
               "e_time" : 8263.09900009073
            }
         ],
         "download" : {
            "receiveFirst" : 7,
            "len" : 57546,
            "dns" : 0,
            "dnsEnd" : -1,
            "receiveHeadersEnd" : 7,
            "sslEnd" : -1,
            "connectEnd" : 0,
            "connectStart" : 0,
            "id" : "download_0",
            "receivedTime" : "67.6840001251549",
            "sslStart" : -1,
            "dnsStart" : -1,
            "receiveLast" : 60.6840001251549,
            "s_time" : 0,
            "sendEnd" : 0,
            "sendStart" : 0,
            "type" : "text/html"
         }
      },
      {
         "when_comp_start" : -1,
         "url" : "http://original.testbed.localhost/www.intecnologia.net/components/com_rsform/assets/css/front.css",
         "id" : "r3",
         "comps" : [
            {
               "s_time" : 105.153999989852,
               "time" : 1.356000080705,
               "type" : 4,
               "id" : "comp_0",
               "e_time" : 106.510000070557
            }
         ],
         "download" : {
            "receiveFirst" : 52,
            "len" : 19444,
            "dns" : 0,
            "dnsEnd" : -1,
            "receiveHeadersEnd" : 55,
            "sslEnd" : -1,
            "connectEnd" : 3,
            "connectStart" : 0,
            "id" : "download_1",
            "receivedTime" : "105.050000129268",
            "sslStart" : -1,
            "dnsStart" : -1,
            "receiveLast" : 50.0500001292676,
            "s_time" : 24.978999979794,
            "sendEnd" : 3,
            "sendStart" : 3,
            "type" : "text/css"
         }
      },
      {
         "when_comp_start" : -1,
         "url" : "http://original.testbed.localhost/www.intecnologia.net/modules/mod_smartcountdown/styles.css",
         "id" : "r4",
         "comps" : [
            {
               "s_time" : 111.84799997136,
               "time" : 0.256000086664997,
               "type" : 4,
               "id" : "comp_3",
               "e_time" : 112.104000058025
            }
         ],
         "download" : {
            "receiveFirst" : 82,
            "len" : 1428,
            "dns" : 0,
            "dnsEnd" : -1,
            "receiveHeadersEnd" : 85,
            "sslEnd" : -1,
            "connectEnd" : 3,
            "connectStart" : 0,
            "id" : "download_2",
            "receivedTime" : "111.762000015005",
            "sslStart" : -1,
            "dnsStart" : -1,
            "receiveLast" : 26.7620000150055,
            "s_time" : 25.1580001786351,
            "sendEnd" : 3,
            "sendStart" : 3,
            "type" : "text/css"
         }
      },
      {
         "when_comp_start" : -1,
         "url" : "http://original.testbed.localhost/www.intecnologia.net/components/com_rsform/assets/calendar/calendar.css",
         "id" : "r2",
         "comps" : [
            {
               "s_time" : 130.978000117466,
               "time" : 0.876999925821991,
               "type" : 4,
               "id" : "comp_4",
               "e_time" : 131.855000043288
            }
         ],
         "download" : {
            "receiveFirst" : 91,
            "len" : 5713,
            "dns" : 0,
            "dnsEnd" : -1,
            "receiveHeadersEnd" : 94,
            "sslEnd" : -1,
            "connectEnd" : 3,
            "connectStart" : 0,
            "id" : "download_3",
            "receivedTime" : "130.879000062123",
            "sslStart" : -1,
            "dnsStart" : -1,
            "receiveLast" : 36.8790000621229,
            "s_time" : 24.8120001051575,
            "sendEnd" : 3,
            "sendStart" : 3,
            "type" : "text/css"
         }
      },
      {
         "when_comp_start" : -1,
         "url" : "http://original.testbed.localhost/www.intecnologia.net/components/com_rsform/assets/js/script.js",
         "id" : "r5",
         "comps" : [
            {
               "s_time" : 229.557000100613,
               "time" : 1.392999896779,
               "type" : 1,
               "id" : "comp_7",
               "e_time" : 230.949999997392
            }
         ],
         "download" : {
            "receiveFirst" : 105,
            "len" : 20405,
            "dns" : 0,
            "dnsEnd" : -1,
            "receiveHeadersEnd" : 109,
            "sslEnd" : -1,
            "connectEnd" : 3,
            "connectStart" : 0,
            "id" : "download_4",
            "receivedTime" : "228.974000085145",
            "sslStart" : -1,
            "dnsStart" : -1,
            "receiveLast" : 119.974000085145,
            "s_time" : 25.3320001065731,
            "sendEnd" : 4,
            "sendStart" : 3,
            "type" : "application/javascript"
         }
      },
      {
         "when_comp_start" : -1,
         "url" : "http://original.testbed.localhost/www.intecnologia.net/media/system/js/mootools-core.js",
         "id" : "r6",
         "comps" : [
            {
               "s_time" : 629.572000121698,
               "time" : 87.555999867618,
               "type" : 1,
               "id" : "comp_9",
               "e_time" : 717.127999989316
            }
         ],
         "download" : {
            "receiveFirst" : 155,
            "len" : 83893,
            "dns" : 0,
            "dnsEnd" : -1,
            "receiveHeadersEnd" : 158,
            "sslEnd" : -1,
            "connectEnd" : 3,
            "connectStart" : 0,
            "id" : "download_5",
            "receivedTime" : "629.47200005874",
            "sslStart" : -1,
            "dnsStart" : -1,
            "receiveLast" : 471.47200005874,
            "s_time" : 25.4989999812096,
            "sendEnd" : 3,
            "sendStart" : 3,
            "type" : "application/javascript"
         }
      },
      {
         "when_comp_start" : -1,
         "url" : "http://original.testbed.localhost/www.intecnologia.net/media/system/js/core.js",
         "id" : "r7",
         "comps" : [
            {
               "s_time" : 717.283000005409,
               "time" : 0.792999984696962,
               "type" : 1,
               "id" : "comp_11",
               "e_time" : 718.075999990106
            }
         ],
         "download" : {
            "receiveFirst" : 237,
            "len" : 3956,
            "dns" : 0,
            "dnsEnd" : -1,
            "receiveHeadersEnd" : 279,
            "sslEnd" : -1,
            "connectEnd" : 42,
            "connectStart" : 0,
            "id" : "download_6",
            "receivedTime" : "317.555000074208",
            "sslStart" : -1,
            "dnsStart" : -1,
            "receiveLast" : 38.5550000742078,
            "s_time" : 25.6470001768321,
            "sendEnd" : 42,
            "sendStart" : 42,
            "type" : "application/javascript"
         }
      },
      {
         "when_comp_start" : -1,
         "url" : "http://original.testbed.localhost/www.intecnologia.net/media/system/js/mootools-more.js",
         "id" : "r8",
         "comps" : [
            {
               "s_time" : 1872.26300011389,
               "time" : 69.9469998944501,
               "type" : 1,
               "id" : "comp_15",
               "e_time" : 1942.21000000834
            }
         ],
         "download" : {
            "receiveFirst" : 218,
            "len" : 236825,
            "dns" : 0,
            "dnsEnd" : -1,
            "receiveHeadersEnd" : 296,
            "sslEnd" : -1,
            "connectEnd" : 78,
            "connectStart" : 0,
            "id" : "download_7",
            "receivedTime" : "1872.15800001286",
            "sslStart" : -1,
            "dnsStart" : -1,
            "receiveLast" : 1576.15800001286,
            "s_time" : 25.774999987334,
            "sendEnd" : 78,
            "sendStart" : 78,
            "type" : "application/javascript"
         }
      },
      {
         "when_comp_start" : -1,
         "url" : "http://original.testbed.localhost/www.intecnologia.net/modules/mod_smartcountdown/smartcdpro.js",
         "id" : "r9",
         "comps" : [
            {
               "s_time" : 1942.35300016589,
               "time" : 2.03699991106987,
               "type" : 1,
               "id" : "comp_17",
               "e_time" : 1944.39000007696
            }
         ],
         "download" : {
            "receiveFirst" : 330,
            "len" : 33187,
            "dns" : 0,
            "dnsEnd" : -1,
            "receiveHeadersEnd" : 415,
            "sslEnd" : -1,
            "connectEnd" : 85,
            "connectStart" : 0,
            "id" : "download_8",
            "receivedTime" : "514.495000010356",
            "sslStart" : -1,
            "dnsStart" : -1,
            "receiveLast" : 99.4950000103563,
            "s_time" : 25.9230001829565,
            "sendEnd" : 85,
            "sendStart" : 85,
            "type" : "application/javascript"
         }
      },
      {
         "when_comp_start" : -1,
         "url" : "http://original.testbed.localhost/www.intecnologia.net/modules/mod_smartcountdown/plural_js/plural.js",
         "id" : "r10",
         "comps" : [
            {
               "s_time" : 1944.47099999525,
               "time" : 0.310000032180142,
               "type" : 1,
               "id" : "comp_19",
               "e_time" : 1944.78100002743
            }
         ],
         "download" : {
            "receiveFirst" : 391,
            "len" : 322,
            "dns" : 0,
            "dnsEnd" : -1,
            "receiveHeadersEnd" : 495,
            "sslEnd" : -1,
            "connectEnd" : 104,
            "connectStart" : 0,
            "id" : "download_9",
            "receivedTime" : "523.039000108838",
            "sslStart" : -1,
            "dnsStart" : -1,
            "receiveLast" : 28.0390001088381,
            "s_time" : 26.0590000543743,
            "sendEnd" : 104,
            "sendStart" : 104,
            "type" : "application/javascript"
         }
      },
      {
         "when_comp_start" : -1,
         "url" : "http://original.testbed.localhost/www.intecnologia.net/media/jui/js/jquery.min.js",
         "id" : "r11",
         "comps" : [
            {
               "s_time" : 1944.84800007194,
               "time" : 25.9050000458999,
               "type" : 1,
               "id" : "comp_21",
               "e_time" : 1970.75300011784
            }
         ],
         "download" : {
            "receiveFirst" : 410,
            "len" : 95930,
            "dns" : 0,
            "dnsEnd" : -1,
            "receiveHeadersEnd" : 612,
            "sslEnd" : -1,
            "connectEnd" : 202,
            "connectStart" : 0,
            "id" : "download_10",
            "receivedTime" : "1557.41900019348",
            "sslStart" : -1,
            "dnsStart" : -1,
            "receiveLast" : 945.419000193477,
            "s_time" : 26.2100000400096,
            "sendEnd" : 202,
            "sendStart" : 202,
            "type" : "application/javascript"
         }
      },
      {
         "when_comp_start" : -1,
         "url" : "http://original.testbed.localhost/www.intecnologia.net/templates/yoo_nano3/css/bootstrap.css",
         "id" : "r16",
         "comps" : [
            {
               "s_time" : 1670.96600006334,
               "time" : 0.326999928809983,
               "type" : 4,
               "id" : "comp_14",
               "e_time" : 1671.29299999215
            }
         ],
         "download" : {
            "receiveFirst" : 503,
            "len" : 187215,
            "dns" : 0,
            "dnsEnd" : -1,
            "receiveHeadersEnd" : 588,
            "sslEnd" : -1,
            "connectEnd" : 85,
            "connectStart" : 0,
            "id" : "download_11",
            "receivedTime" : "1670.87000003085",
            "sslStart" : -1,
            "dnsStart" : -1,
            "receiveLast" : 1082.87000003085,
            "s_time" : 232.017999980599,
            "sendEnd" : 85,
            "sendStart" : 85,
            "type" : "text/css"
         }
      },
      {
         "when_comp_start" : -1,
         "url" : "http://original.testbed.localhost/www.intecnologia.net/templates/yoo_nano3/css/theme.css",
         "id" : "r17",
         "comps" : [
            {
               "s_time" : 2395.70700004697,
               "time" : 0.455999979750231,
               "type" : 4,
               "id" : "comp_27",
               "e_time" : 2396.16300002672
            }
         ],
         "download" : {
            "receiveFirst" : 695,
            "len" : 191240,
            "dns" : 0,
            "dnsEnd" : -1,
            "receiveHeadersEnd" : 977,
            "sslEnd" : -1,
            "connectEnd" : 282,
            "connectStart" : 0,
            "id" : "download_12",
            "receivedTime" : "2395.57000016794",
            "sslStart" : -1,
            "dnsStart" : -1,
            "receiveLast" : 1418.57000016794,
            "s_time" : 232.211000053212,
            "sendEnd" : 282,
            "sendStart" : 282,
            "type" : "text/css"
         }
      },
      {
         "when_comp_start" : -1,
         "url" : "http://original.testbed.localhost/www.intecnologia.net/templates/yoo_nano3/css/custom.css",
         "id" : "r18",
         "comps" : [
            {
               "s_time" : 1379.87300008535,
               "time" : 0.0259999651500493,
               "type" : 4,
               "id" : "comp_13",
               "e_time" : 1379.8990000505
            }
         ],
         "download" : {
            "receiveFirst" : 832,
            "len" : 10235,
            "dns" : 0,
            "dnsEnd" : -1,
            "receiveHeadersEnd" : 1122,
            "sslEnd" : -1,
            "connectEnd" : 290,
            "connectStart" : 0,
            "id" : "download_13",
            "receivedTime" : "1379.73799998872",
            "sslStart" : -1,
            "dnsStart" : -1,
            "receiveLast" : 257.73799998872,
            "s_time" : 232.373000122607,
            "sendEnd" : 290,
            "sendStart" : 290,
            "type" : "text/css"
         }
      },
      {
         "when_comp_start" : -1,
         "url" : "http://original.testbed.localhost/www.intecnologia.net/media/jui/js/jquery-noconflict.js",
         "id" : "r12",
         "comps" : [
            {
               "s_time" : 1970.86500003934,
               "time" : 0.409000087530103,
               "type" : 1,
               "id" : "comp_23",
               "e_time" : 1971.27400012687
            }
         ],
         "download" : {
            "receiveFirst" : 767,
            "len" : 21,
            "dns" : 0,
            "dnsEnd" : -1,
            "receiveHeadersEnd" : 1369,
            "sslEnd" : -1,
            "connectEnd" : 602,
            "connectStart" : 0,
            "id" : "download_14",
            "receivedTime" : "1396.70699997805",
            "sslStart" : -1,
            "dnsStart" : -1,
            "receiveLast" : 27.7069999780506,
            "s_time" : 26.3430001214147,
            "sendEnd" : 602,
            "sendStart" : 602,
            "type" : "application/javascript"
         }
      },
      {
         "when_comp_start" : -1,
         "url" : "http://original.testbed.localhost/www.intecnologia.net/media/jui/js/jquery-migrate.min.js",
         "id" : "r13",
         "comps" : [
            {
               "s_time" : 2027.82700001262,
               "time" : 3.71200009249014,
               "type" : 1,
               "id" : "comp_25",
               "e_time" : 2031.53900010511
            }
         ],
         "download" : {
            "receiveFirst" : 624,
            "len" : 7199,
            "dns" : 0,
            "dnsEnd" : -1,
            "receiveHeadersEnd" : 1976,
            "sslEnd" : -1,
            "connectEnd" : 1352,
            "connectStart" : 0,
            "id" : "download_15",
            "receivedTime" : "2027.76900003664",
            "sslStart" : -1,
            "dnsStart" : -1,
            "receiveLast" : 51.769000036642,
            "s_time" : 26.482000015676,
            "sendEnd" : 1352,
            "sendStart" : 1352,
            "type" : "application/javascript"
         }
      },
      {
         "when_comp_start" : -1,
         "url" : "http://original.testbed.localhost/www.intecnologia.net/cache/widgetkit/uikit-354b53e2.js",
         "id" : "r14",
         "comps" : [
            {
               "s_time" : 2431.21100007556,
               "time" : 24.0239999257096,
               "type" : 1,
               "id" : "comp_28",
               "e_time" : 2455.23500000127
            }
         ],
         "download" : {
            "receiveFirst" : 637,
            "len" : 97849,
            "dns" : 0,
            "dnsEnd" : -1,
            "receiveHeadersEnd" : 2006,
            "sslEnd" : -1,
            "connectEnd" : 1369,
            "connectStart" : 0,
            "id" : "download_16",
            "receivedTime" : "2431.09200010076",
            "sslStart" : -1,
            "dnsStart" : -1,
            "receiveLast" : 425.092000100762,
            "s_time" : 26.6240001656115,
            "sendEnd" : 1369,
            "sendStart" : 1369,
            "type" : "application/javascript"
         }
      },
      {
         "when_comp_start" : -1,
         "url" : "http://original.testbed.localhost/www.intecnologia.net/cache/widgetkit/wk-scripts-69723fbc.js",
         "id" : "r15",
         "comps" : [
            {
               "s_time" : 2455.3930000402,
               "time" : 2.13100016117005,
               "type" : 1,
               "id" : "comp_30",
               "e_time" : 2457.52400020137
            }
         ],
         "download" : {
            "receiveFirst" : 693,
            "len" : 14055,
            "dns" : 0,
            "dnsEnd" : -1,
            "receiveHeadersEnd" : 2223,
            "sslEnd" : -1,
            "connectEnd" : 1530,
            "connectStart" : 0,
            "id" : "download_17",
            "receivedTime" : "2287.88600000553",
            "sslStart" : -1,
            "dnsStart" : -1,
            "receiveLast" : 64.8860000055283,
            "s_time" : 26.7570000141859,
            "sendEnd" : 1530,
            "sendStart" : 1530,
            "type" : "application/javascript"
         }
      },
      {
         "when_comp_start" : -1,
         "url" : "http://original.testbed.localhost/www.intecnologia.net/templates/yoo_nano3/warp/vendor/uikit/js/uikit.js",
         "id" : "r19",
         "comps" : [
            {
               "s_time" : 2850.67800013348,
               "time" : 10.1149999536601,
               "type" : 1,
               "id" : "comp_34",
               "e_time" : 2860.79300008714
            }
         ],
         "download" : {
            "receiveFirst" : 620,
            "len" : 43150,
            "dns" : 0,
            "dnsEnd" : -1,
            "receiveHeadersEnd" : 2058,
            "sslEnd" : -1,
            "connectEnd" : 1438,
            "connectStart" : 0,
            "id" : "download_18",
            "receivedTime" : "2388.65000009537",
            "sslStart" : -1,
            "dnsStart" : -1,
            "receiveLast" : 330.650000095367,
            "s_time" : 232.5280001387,
            "sendEnd" : 1438,
            "sendStart" : 1438,
            "type" : "application/javascript"
         }
      },
      {
         "when_comp_start" : -1,
         "url" : "http://original.testbed.localhost/www.intecnologia.net/templates/yoo_nano3/warp/vendor/uikit/js/components/autocomplete.js",
         "id" : "r20",
         "comps" : [
            {
               "s_time" : 2860.93099997379,
               "time" : 1.14800012669957,
               "type" : 1,
               "id" : "comp_39",
               "e_time" : 2862.07900010049
            }
         ],
         "download" : {
            "receiveFirst" : 531,
            "len" : 4009,
            "dns" : 0,
            "dnsEnd" : -1,
            "receiveHeadersEnd" : 1684,
            "sslEnd" : -1,
            "connectEnd" : 1153,
            "connectStart" : 0,
            "id" : "download_19",
            "receivedTime" : "2415.18800007179",
            "sslStart" : -1,
            "dnsStart" : -1,
            "receiveLast" : 731.188000071794,
            "s_time" : 718.928000191227,
            "sendEnd" : 1153,
            "sendStart" : 1153,
            "type" : "application/javascript"
         }
      },
      {
         "when_comp_start" : -1,
         "url" : "http://original.testbed.localhost/www.intecnologia.net/templates/yoo_nano3/warp/vendor/uikit/js/components/search.js",
         "id" : "r21",
         "comps" : [
            {
               "s_time" : 2862.16900008731,
               "time" : 0.808000098909815,
               "type" : 1,
               "id" : "comp_41",
               "e_time" : 2862.97700018622
            }
         ],
         "download" : {
            "receiveFirst" : 393,
            "len" : 2715,
            "dns" : 0,
            "dnsEnd" : -1,
            "receiveHeadersEnd" : 1701,
            "sslEnd" : -1,
            "connectEnd" : 1308,
            "connectStart" : 0,
            "id" : "download_20",
            "receivedTime" : "2421.44200019538",
            "sslStart" : -1,
            "dnsStart" : -1,
            "receiveLast" : 720.442000195384,
            "s_time" : 719.142000190914,
            "sendEnd" : 1308,
            "sendStart" : 1308,
            "type" : "application/javascript"
         }
      },
      {
         "when_comp_start" : -1,
         "url" : "http://original.testbed.localhost/www.intecnologia.net/templates/yoo_nano3/warp/vendor/uikit/js/components/tooltip.js",
         "id" : "r22",
         "comps" : [
            {
               "s_time" : 2863.06800018065,
               "time" : 1.06199993751989,
               "type" : 1,
               "id" : "comp_43",
               "e_time" : 2864.13000011817
            }
         ],
         "download" : {
            "receiveFirst" : 145,
            "len" : 3380,
            "dns" : 0,
            "dnsEnd" : -1,
            "receiveHeadersEnd" : 460,
            "sslEnd" : -1,
            "connectEnd" : 315,
            "connectStart" : 0,
            "id" : "download_21",
            "receivedTime" : "2489.10900019109",
            "sslStart" : -1,
            "dnsStart" : -1,
            "receiveLast" : 2029.10900019109,
            "s_time" : 1972.79000002891,
            "sendEnd" : 315,
            "sendStart" : 315,
            "type" : "application/javascript"
         }
      },
      {
         "when_comp_start" : -1,
         "url" : "http://original.testbed.localhost/www.intecnologia.net/templates/yoo_nano3/warp/js/social.js",
         "id" : "r23",
         "comps" : [
            {
               "s_time" : 2864.22000010498,
               "time" : 0.609999988229902,
               "type" : 1,
               "id" : "comp_45",
               "e_time" : 2864.83000009321
            }
         ],
         "download" : {
            "receiveFirst" : 60,
            "len" : 1299,
            "dns" : 0,
            "dnsEnd" : -1,
            "receiveHeadersEnd" : 475,
            "sslEnd" : -1,
            "connectEnd" : 415,
            "connectStart" : 0,
            "id" : "download_22",
            "receivedTime" : "2489.44000015035",
            "sslStart" : -1,
            "dnsStart" : -1,
            "receiveLast" : 2014.44000015035,
            "s_time" : 1973.06500002742,
            "sendEnd" : 415,
            "sendStart" : 415,
            "type" : "application/javascript"
         }
      },
      {
         "when_comp_start" : -1,
         "url" : "http://original.testbed.localhost/www.intecnologia.net/templates/yoo_nano3/js/theme.js",
         "id" : "r24",
         "comps" : [
            {
               "s_time" : 2864.92400011048,
               "time" : 0.442999880759999,
               "type" : 1,
               "id" : "comp_47",
               "e_time" : 2865.36699999124
            }
         ],
         "download" : {
            "receiveFirst" : 62,
            "len" : 1154,
            "dns" : 0,
            "dnsEnd" : -1,
            "receiveHeadersEnd" : 484,
            "sslEnd" : -1,
            "connectEnd" : 422,
            "connectStart" : 0,
            "id" : "download_23",
            "receivedTime" : "2489.91700005718",
            "sslStart" : -1,
            "dnsStart" : -1,
            "receiveLast" : 2005.91700005718,
            "s_time" : 1973.22000004351,
            "sendEnd" : 422,
            "sendStart" : 422,
            "type" : "application/javascript"
         }
      },
      {
         "when_comp_start" : -1,
         "url" : "http://original.testbed.localhost/www.intecnologia.net/templates/yoo_nano3/images/logo-intecnologia.png",
         "id" : "r25",
         "comps" : [],
         "download" : {
            "receiveFirst" : 51,
            "len" : 18810,
            "dns" : 0,
            "dnsEnd" : -1,
            "receiveHeadersEnd" : 492,
            "sslEnd" : -1,
            "connectEnd" : 441,
            "connectStart" : 0,
            "id" : "download_24",
            "receivedTime" : "2623.16600000486",
            "sslStart" : -1,
            "dnsStart" : -1,
            "receiveLast" : 2131.16600000486,
            "s_time" : 1973.40800007805,
            "sendEnd" : 441,
            "sendStart" : 441,
            "type" : "image/png"
         }
      },
      {
         "when_comp_start" : -1,
         "url" : "http://original.testbed.localhost/www.intecnologia.net/cache/widgetkit/intecnologia-slideshow-09d79cb462.jpg",
         "id" : "r26",
         "comps" : [],
         "download" : {
            "receiveFirst" : 165,
            "len" : 24189,
            "dns" : 0,
            "dnsEnd" : -1,
            "receiveHeadersEnd" : 167,
            "sslEnd" : -1,
            "connectEnd" : 1,
            "connectStart" : 0,
            "id" : "download_25",
            "receivedTime" : "3405.91500001028",
            "sslStart" : -1,
            "dnsStart" : -1,
            "receiveLast" : 3238.91500001028,
            "s_time" : 2457.91600015946,
            "sendEnd" : 2,
            "sendStart" : 1,
            "type" : "image/jpeg"
         }
      },
      {
         "when_comp_start" : -1,
         "url" : "http://original.testbed.localhost/www.intecnologia.net/cache/widgetkit/orange-6b28b6bc68.jpg",
         "id" : "r27",
         "comps" : [],
         "download" : {
            "receiveFirst" : 299,
            "len" : 2059,
            "dns" : 0,
            "dnsEnd" : -1,
            "receiveHeadersEnd" : 300,
            "sslEnd" : -1,
            "connectEnd" : 1,
            "connectStart" : 0,
            "id" : "download_26",
            "receivedTime" : "2771.29500010051",
            "sslStart" : -1,
            "dnsStart" : -1,
            "receiveLast" : 2471.29500010051,
            "s_time" : 2458.14900007099,
            "sendEnd" : 1,
            "sendStart" : 1,
            "type" : "image/jpeg"
         }
      },
      {
         "when_comp_start" : -1,
         "url" : "http://original.testbed.localhost/www.intecnologia.net/cache/widgetkit/claro-c441fad084.jpg",
         "id" : "r28",
         "comps" : [],
         "download" : {
            "receiveFirst" : 319,
            "len" : 3283,
            "dns" : 0,
            "dnsEnd" : -1,
            "receiveHeadersEnd" : 320,
            "sslEnd" : -1,
            "connectEnd" : 1,
            "connectStart" : 0,
            "id" : "download_27",
            "receivedTime" : "2803.29100019298",
            "sslStart" : -1,
            "dnsStart" : -1,
            "receiveLast" : 2483.29100019298,
            "s_time" : 2458.35400000215,
            "sendEnd" : 1,
            "sendStart" : 1,
            "type" : "image/jpeg"
         }
      },
      {
         "when_comp_start" : -1,
         "url" : "http://original.testbed.localhost/www.intecnologia.net/cache/widgetkit/hub-marktspace-542b9ec7f9.jpg",
         "id" : "r30",
         "comps" : [],
         "download" : {
            "receiveFirst" : 355,
            "len" : 2882,
            "dns" : 0,
            "dnsEnd" : -1,
            "receiveHeadersEnd" : 356,
            "sslEnd" : -1,
            "connectEnd" : 1,
            "connectStart" : 0,
            "id" : "download_28",
            "receivedTime" : "2839.84200004488",
            "sslStart" : -1,
            "dnsStart" : -1,
            "receiveLast" : 2483.84200004488,
            "s_time" : 2458.60700006597,
            "sendEnd" : 1,
            "sendStart" : 1,
            "type" : "image/jpeg"
         }
      },
      {
         "when_comp_start" : -1,
         "url" : "http://original.testbed.localhost/fonts.googleapis.com/css%3Ffamily=Open+Sans:600,400,300.css",
         "id" : "r64",
         "comps" : [
            {
               "s_time" : 2843.27400010079,
               "time" : 516.87599997968,
               "type" : 2,
               "id" : "comp_33",
               "e_time" : 3360.15000008047
            }
         ],
         "download" : {
            "receiveFirst" : 219,
            "len" : 765,
            "dns" : 0,
            "dnsEnd" : -1,
            "receiveHeadersEnd" : 378,
            "sslEnd" : -1,
            "connectEnd" : 159,
            "connectStart" : 0,
            "id" : "download_29",
            "receivedTime" : "2843.12900016084",
            "sslStart" : -1,
            "dnsStart" : -1,
            "receiveLast" : 2465.12900016084,
            "s_time" : 2464.42900015973,
            "sendEnd" : 159,
            "sendStart" : 159,
            "type" : "text/css"
         }
      },
      {
         "when_comp_start" : -1,
         "url" : "http://original.testbed.localhost/www.intecnologia.net/cache/widgetkit/banesco-98aebc2d21.jpg",
         "id" : "r31",
         "comps" : [],
         "download" : {
            "receiveFirst" : 149,
            "len" : 1948,
            "dns" : 0,
            "dnsEnd" : -1,
            "receiveHeadersEnd" : 461,
            "sslEnd" : -1,
            "connectEnd" : 312,
            "connectStart" : 0,
            "id" : "download_30",
            "receivedTime" : "4745.61000009999",
            "sslStart" : -1,
            "dnsStart" : -1,
            "receiveLast" : 4284.61000009999,
            "s_time" : 2458.74300017022,
            "sendEnd" : 312,
            "sendStart" : 312,
            "type" : "image/jpeg"
         }
      },
      {
         "when_comp_start" : -1,
         "url" : "http://original.testbed.localhost/www.intecnologia.net/cache/widgetkit/cemex-f9d8ff9fa8.jpg",
         "id" : "r32",
         "comps" : [],
         "download" : {
            "receiveFirst" : 128,
            "len" : 1631,
            "dns" : 0,
            "dnsEnd" : -1,
            "receiveHeadersEnd" : 472,
            "sslEnd" : -1,
            "connectEnd" : 344,
            "connectStart" : 0,
            "id" : "download_31",
            "receivedTime" : "3406.83400002308",
            "sslStart" : -1,
            "dnsStart" : -1,
            "receiveLast" : 2934.83400002308,
            "s_time" : 2458.8540000841,
            "sendEnd" : 344,
            "sendStart" : 344,
            "type" : "image/jpeg"
         }
      },
      {
         "when_comp_start" : -1,
         "url" : "http://original.testbed.localhost/www.intecnologia.net/cache/widgetkit/livescribe-f8d248a7bc.jpg",
         "id" : "r33",
         "comps" : [],
         "download" : {
            "receiveFirst" : 109,
            "len" : 1352,
            "dns" : 0,
            "dnsEnd" : -1,
            "receiveHeadersEnd" : 489,
            "sslEnd" : -1,
            "connectEnd" : 380,
            "connectStart" : 0,
            "id" : "download_32",
            "receivedTime" : "3407.32100000605",
            "sslStart" : -1,
            "dnsStart" : -1,
            "receiveLast" : 2918.32100000605,
            "s_time" : 2458.98800017312,
            "sendEnd" : 380,
            "sendStart" : 380,
            "type" : "image/jpeg"
         }
      },
      {
         "when_comp_start" : -1,
         "url" : "http://original.testbed.localhost/www.intecnologia.net/cache/widgetkit/banreservas-637af03cf5.jpg",
         "id" : "r34",
         "comps" : [],
         "download" : {
            "receiveFirst" : 119,
            "len" : 2272,
            "dns" : 0,
            "dnsEnd" : -1,
            "receiveHeadersEnd" : 503,
            "sslEnd" : -1,
            "connectEnd" : 384,
            "connectStart" : 0,
            "id" : "download_33",
            "receivedTime" : "3407.67500014044",
            "sslStart" : -1,
            "dnsStart" : -1,
            "receiveLast" : 2904.67500014044,
            "s_time" : 2459.12300003693,
            "sendEnd" : 384,
            "sendStart" : 384,
            "type" : "image/jpeg"
         }
      },
      {
         "when_comp_start" : -1,
         "url" : "http://original.testbed.localhost/www.intecnologia.net/cache/widgetkit/cree_banreservas-458930b1b7.jpg",
         "id" : "r35",
         "comps" : [],
         "download" : {
            "receiveFirst" : 75,
            "len" : 2453,
            "dns" : 0,
            "dnsEnd" : -1,
            "receiveHeadersEnd" : 141,
            "sslEnd" : -1,
            "connectEnd" : 66,
            "connectStart" : 0,
            "id" : "download_34",
            "receivedTime" : "3408.04600017145",
            "sslStart" : -1,
            "dnsStart" : -1,
            "receiveLast" : 3267.04600017145,
            "s_time" : 2842.7190000657,
            "sendEnd" : 66,
            "sendStart" : 66,
            "type" : "image/jpeg"
         }
      },
      {
         "when_comp_start" : -1,
         "url" : "http://original.testbed.localhost/www.intecnologia.net/cache/widgetkit/esc-66b733b5e2.jpg",
         "id" : "r39",
         "comps" : [],
         "download" : {
            "receiveFirst" : 63,
            "len" : 1431,
            "dns" : 0,
            "dnsEnd" : -1,
            "receiveHeadersEnd" : 98,
            "sslEnd" : -1,
            "connectEnd" : 35,
            "connectStart" : 0,
            "id" : "download_35",
            "receivedTime" : "3408.55100005865",
            "sslStart" : -1,
            "dnsStart" : -1,
            "receiveLast" : 3310.55100005865,
            "s_time" : 2908.47800020128,
            "sendEnd" : 35,
            "sendStart" : 35,
            "type" : "image/jpeg"
         }
      },
      {
         "when_comp_start" : -1,
         "url" : "http://original.testbed.localhost/www.intecnologia.net/cache/widgetkit/cps-d7d96c1a7f.jpg",
         "id" : "r29",
         "comps" : [],
         "download" : {
            "receiveFirst" : 562,
            "len" : 1882,
            "dns" : 0,
            "dnsEnd" : -1,
            "receiveHeadersEnd" : 563,
            "sslEnd" : -1,
            "connectEnd" : 1,
            "connectStart" : 0,
            "id" : "download_36",
            "receivedTime" : "3409.00600003079",
            "sslStart" : -1,
            "dnsStart" : -1,
            "receiveLast" : 2846.00600003079,
            "s_time" : 2458.4970001597,
            "sendEnd" : 1,
            "sendStart" : 1,
            "type" : "image/jpeg"
         }
      },
      {
         "when_comp_start" : -1,
         "url" : "http://original.testbed.localhost/www.intecnologia.net/cache/widgetkit/asca-b9c703b29b.jpg",
         "id" : "r40",
         "comps" : [],
         "download" : {
            "receiveFirst" : 74,
            "len" : 2718,
            "dns" : 0,
            "dnsEnd" : -1,
            "receiveHeadersEnd" : 90,
            "sslEnd" : -1,
            "connectEnd" : 16,
            "connectStart" : 0,
            "id" : "download_37",
            "receivedTime" : "3409.58199999295",
            "sslStart" : -1,
            "dnsStart" : -1,
            "receiveLast" : 3319.58199999295,
            "s_time" : 2943.76400019974,
            "sendEnd" : 16,
            "sendStart" : 16,
            "type" : "image/jpeg"
         }
      },
      {
         "when_comp_start" : -1,
         "url" : "http://original.testbed.localhost/www.intecnologia.net/cache/widgetkit/hoy-20c7865aac.jpg",
         "id" : "r41",
         "comps" : [],
         "download" : {
            "receiveFirst" : 85,
            "len" : 2819,
            "dns" : 0,
            "dnsEnd" : -1,
            "receiveHeadersEnd" : 99,
            "sslEnd" : -1,
            "connectEnd" : 14,
            "connectStart" : 0,
            "id" : "download_38",
            "receivedTime" : "3410.12999997474",
            "sslStart" : -1,
            "dnsStart" : -1,
            "receiveLast" : 3311.12999997474,
            "s_time" : 2960.18699998967,
            "sendEnd" : 14,
            "sendStart" : 14,
            "type" : "image/jpeg"
         }
      },
      {
         "when_comp_start" : -1,
         "url" : "http://original.testbed.localhost/www.intecnologia.net/cache/widgetkit/club_suscriptores-537621efef.jpg",
         "id" : "r42",
         "comps" : [],
         "download" : {
            "receiveFirst" : 90,
            "len" : 2455,
            "dns" : 0,
            "dnsEnd" : -1,
            "receiveHeadersEnd" : 111,
            "sslEnd" : -1,
            "connectEnd" : 21,
            "connectStart" : 0,
            "id" : "download_39",
            "receivedTime" : "3410.70400015451",
            "sslStart" : -1,
            "dnsStart" : -1,
            "receiveLast" : 3299.70400015451,
            "s_time" : 2974.49300019071,
            "sendEnd" : 21,
            "sendStart" : 21,
            "type" : "image/jpeg"
         }
      },
      {
         "when_comp_start" : -1,
         "url" : "http://original.testbed.localhost/www.intecnologia.net/cache/widgetkit/dominos-c3c066c53e.jpg",
         "id" : "r43",
         "comps" : [],
         "download" : {
            "receiveFirst" : 90,
            "len" : 2650,
            "dns" : 0,
            "dnsEnd" : -1,
            "receiveHeadersEnd" : 113,
            "sslEnd" : -1,
            "connectEnd" : 23,
            "connectStart" : 0,
            "id" : "download_40",
            "receivedTime" : "3411.31300013512",
            "sslStart" : -1,
            "dnsStart" : -1,
            "receiveLast" : 3298.31300013512,
            "s_time" : 2996.01900018752,
            "sendEnd" : 23,
            "sendStart" : 23,
            "type" : "image/jpeg"
         }
      },
      {
         "when_comp_start" : -1,
         "url" : "http://original.testbed.localhost/www.intecnologia.net/cache/widgetkit/camusat-287a753c6f.jpg",
         "id" : "r44",
         "comps" : [],
         "download" : {
            "receiveFirst" : 112,
            "len" : 1699,
            "dns" : 0,
            "dnsEnd" : -1,
            "receiveHeadersEnd" : 115,
            "sslEnd" : -1,
            "connectEnd" : 3,
            "connectStart" : 0,
            "id" : "download_41",
            "receivedTime" : "3411.78000019863",
            "sslStart" : -1,
            "dnsStart" : -1,
            "receiveLast" : 3296.78000019863,
            "s_time" : 3019.09800013527,
            "sendEnd" : 3,
            "sendStart" : 3,
            "type" : "image/jpeg"
         }
      },
      {
         "when_comp_start" : -1,
         "url" : "http://original.testbed.localhost/www.intecnologia.net/cache/widgetkit/panam-2a4caa3b9a.jpg",
         "id" : "r45",
         "comps" : [],
         "download" : {
            "receiveFirst" : 93,
            "len" : 2228,
            "dns" : 0,
            "dnsEnd" : -1,
            "receiveHeadersEnd" : 129,
            "sslEnd" : -1,
            "connectEnd" : 36,
            "connectStart" : 0,
            "id" : "download_42",
            "receivedTime" : "3412.23600017838",
            "sslStart" : -1,
            "dnsStart" : -1,
            "receiveLast" : 3283.23600017838,
            "s_time" : 3022.10900001228,
            "sendEnd" : 36,
            "sendStart" : 36,
            "type" : "image/jpeg"
         }
      },
      {
         "when_comp_start" : -1,
         "url" : "http://original.testbed.localhost/www.intecnologia.net/cache/widgetkit/ademi-9a6eb4e4c6.jpg",
         "id" : "r46",
         "comps" : [],
         "download" : {
            "receiveFirst" : 89,
            "len" : 2056,
            "dns" : 0,
            "dnsEnd" : -1,
            "receiveHeadersEnd" : 114,
            "sslEnd" : -1,
            "connectEnd" : 25,
            "connectStart" : 0,
            "id" : "download_43",
            "receivedTime" : "3412.83000004478",
            "sslStart" : -1,
            "dnsStart" : -1,
            "receiveLast" : 3298.83000004478,
            "s_time" : 3058.12900001183,
            "sendEnd" : 25,
            "sendStart" : 25,
            "type" : "image/jpeg"
         }
      },
      {
         "when_comp_start" : -1,
         "url" : "http://original.testbed.localhost/www.intecnologia.net/cache/widgetkit/aquanet-e7938ca2c1.jpg",
         "id" : "r47",
         "comps" : [],
         "download" : {
            "receiveFirst" : 94,
            "len" : 1650,
            "dns" : 0,
            "dnsEnd" : -1,
            "receiveHeadersEnd" : 108,
            "sslEnd" : -1,
            "connectEnd" : 14,
            "connectStart" : 0,
            "id" : "download_44",
            "receivedTime" : "3413.38200005703",
            "sslStart" : -1,
            "dnsStart" : -1,
            "receiveLast" : 3305.38200005703,
            "s_time" : 3083.68000015616,
            "sendEnd" : 14,
            "sendStart" : 14,
            "type" : "image/jpeg"
         }
      },
      {
         "when_comp_start" : -1,
         "url" : "http://original.testbed.localhost/www.intecnologia.net/cache/widgetkit/wind-edbfdf80fa.jpg",
         "id" : "r48",
         "comps" : [],
         "download" : {
            "receiveFirst" : 75,
            "len" : 1982,
            "dns" : 0,
            "dnsEnd" : -1,
            "receiveHeadersEnd" : 110,
            "sslEnd" : -1,
            "connectEnd" : 35,
            "connectStart" : 0,
            "id" : "download_45",
            "receivedTime" : "3413.94100012258",
            "sslStart" : -1,
            "dnsStart" : -1,
            "receiveLast" : 3303.94100012258,
            "s_time" : 3098.07000006549,
            "sendEnd" : 35,
            "sendStart" : 35,
            "type" : "image/jpeg"
         }
      },
      {
         "when_comp_start" : -1,
         "url" : "http://original.testbed.localhost/www.intecnologia.net/cache/widgetkit/coca-cola-e95e12d9a3.jpg",
         "id" : "r49",
         "comps" : [],
         "download" : {
            "receiveFirst" : 81,
            "len" : 2127,
            "dns" : 0,
            "dnsEnd" : -1,
            "receiveHeadersEnd" : 94,
            "sslEnd" : -1,
            "connectEnd" : 13,
            "connectStart" : 0,
            "id" : "download_46",
            "receivedTime" : "3414.4980001729",
            "sslStart" : -1,
            "dnsStart" : -1,
            "receiveLast" : 3320.4980001729,
            "s_time" : 3133.25600000098,
            "sendEnd" : 13,
            "sendStart" : 13,
            "type" : "image/jpeg"
         }
      },
      {
         "when_comp_start" : -1,
         "url" : "http://original.testbed.localhost/www.intecnologia.net/images/zoo/uploads/galerias/2011/2011-1.jpg",
         "id" : "r51",
         "comps" : [],
         "download" : {
            "receiveFirst" : 64,
            "len" : 162444,
            "dns" : 0,
            "dnsEnd" : -1,
            "receiveHeadersEnd" : 85,
            "sslEnd" : -1,
            "connectEnd" : 21,
            "connectStart" : 0,
            "id" : "download_47",
            "receivedTime" : "7329.24200012349",
            "sslStart" : -1,
            "dnsStart" : -1,
            "receiveLast" : 7244.24200012349,
            "s_time" : 3163.36300014518,
            "sendEnd" : 21,
            "sendStart" : 21,
            "type" : "image/jpeg"
         }
      },
      {
         "when_comp_start" : -1,
         "url" : "http://original.testbed.localhost/www.intecnologia.net/images/zoo/uploads/galerias/2010/2010-1.jpg",
         "id" : "r52",
         "comps" : [],
         "download" : {
            "receiveFirst" : 298,
            "len" : 74403,
            "dns" : 0,
            "dnsEnd" : -1,
            "receiveHeadersEnd" : 318,
            "sslEnd" : -1,
            "connectEnd" : 20,
            "connectStart" : 0,
            "id" : "download_48",
            "receivedTime" : "6825.99800010212",
            "sslStart" : -1,
            "dnsStart" : -1,
            "receiveLast" : 6507.99800010212,
            "s_time" : 3184.59800002165,
            "sendEnd" : 20,
            "sendStart" : 20,
            "type" : "image/jpeg"
         }
      },
      {
         "when_comp_start" : -1,
         "url" : "http://original.testbed.localhost/www.intecnologia.net/cache/widgetkit/IMG-20150622-WA0011-47be294d6e.jpg",
         "id" : "r53",
         "comps" : [],
         "download" : {
            "receiveFirst" : 440,
            "len" : 8210,
            "dns" : 0,
            "dnsEnd" : -1,
            "receiveHeadersEnd" : 456,
            "sslEnd" : -1,
            "connectEnd" : 16,
            "connectStart" : 0,
            "id" : "download_49",
            "receivedTime" : "3724.02700013481",
            "sslStart" : -1,
            "dnsStart" : -1,
            "receiveLast" : 3268.02700013481,
            "s_time" : 3204.82500013895,
            "sendEnd" : 16,
            "sendStart" : 16,
            "type" : "image/jpeg"
         }
      },
      {
         "when_comp_start" : -1,
         "url" : "http://original.testbed.localhost/www.intecnologia.net/cache/widgetkit/image-430bab000e.png",
         "id" : "r54",
         "comps" : [],
         "download" : {
            "receiveFirst" : 491,
            "len" : 32523,
            "dns" : 0,
            "dnsEnd" : -1,
            "receiveHeadersEnd" : 510,
            "sslEnd" : -1,
            "connectEnd" : 19,
            "connectStart" : 0,
            "id" : "download_50",
            "receivedTime" : "4764.52500000596",
            "sslStart" : -1,
            "dnsStart" : -1,
            "receiveLast" : 4254.52500000596,
            "s_time" : 3221.39200009406,
            "sendEnd" : 19,
            "sendStart" : 19,
            "type" : "image/png"
         }
      },
      {
         "when_comp_start" : -1,
         "url" : "http://original.testbed.localhost/www.intecnologia.net/images/zoo/uploads/galerias/2013/2013-14.jpg",
         "id" : "r50",
         "comps" : [],
         "download" : {
            "receiveFirst" : 1143,
            "len" : 799711,
            "dns" : 0,
            "dnsEnd" : -1,
            "receiveHeadersEnd" : 1160,
            "sslEnd" : -1,
            "connectEnd" : 17,
            "connectStart" : 0,
            "id" : "download_51",
            "receivedTime" : "14965.7950000837",
            "sslStart" : -1,
            "dnsStart" : -1,
            "receiveLast" : 13805.7950000837,
            "s_time" : 3146.26400009729,
            "sendEnd" : 17,
            "sendStart" : 17,
            "type" : "image/jpeg"
         }
      },
      {
         "when_comp_start" : -1,
         "url" : "http://original.testbed.localhost/www.intecnologia.net/templates/yoo_nano3/warp/vendor/uikit/fonts/fontawesome-webfont.woff",
         "id" : "r73",
         "comps" : [],
         "download" : {
            "receiveFirst" : 757,
            "len" : 71508,
            "dns" : 0,
            "dnsEnd" : -1,
            "receiveHeadersEnd" : 1113,
            "sslEnd" : -1,
            "connectEnd" : 356,
            "connectStart" : 0,
            "id" : "download_52",
            "receivedTime" : "7826.01399999112",
            "sslStart" : -1,
            "dnsStart" : -1,
            "receiveLast" : 6713.01399999112,
            "s_time" : 3362.75500012562,
            "sendEnd" : 356,
            "sendStart" : 356,
            "type" : "application/octet-stream"
         }
      },
      {
         "when_comp_start" : -1,
         "url" : "http://original.testbed.localhost/www.intecnologia.net/cache/widgetkit/FILIT-3394518727.jpg",
         "id" : "r55",
         "comps" : [],
         "download" : {
            "receiveFirst" : 1086,
            "len" : 5222,
            "dns" : 0,
            "dnsEnd" : -1,
            "receiveHeadersEnd" : 2591,
            "sslEnd" : -1,
            "connectEnd" : 1505,
            "connectStart" : 0,
            "id" : "download_53",
            "receivedTime" : "5868.55500005186",
            "sslStart" : -1,
            "dnsStart" : -1,
            "receiveLast" : 3277.55500005186,
            "s_time" : 3240.64199998975,
            "sendEnd" : 1505,
            "sendStart" : 1505,
            "type" : "image/jpeg"
         }
      },
      {
         "when_comp_start" : -1,
         "url" : "http://original.testbed.localhost/www.intecnologia.net/cache/widgetkit/hydra-5364cdcf86.jpg",
         "id" : "r56",
         "comps" : [],
         "download" : {
            "receiveFirst" : 1114,
            "len" : 6425,
            "dns" : 0,
            "dnsEnd" : -1,
            "receiveHeadersEnd" : 2157,
            "sslEnd" : -1,
            "connectEnd" : 1043,
            "connectStart" : 0,
            "id" : "download_54",
            "receivedTime" : "5927.4120000191",
            "sslStart" : -1,
            "dnsStart" : -1,
            "receiveLast" : 3770.4120000191,
            "s_time" : 3721.34000016376,
            "sendEnd" : 1043,
            "sendStart" : 1043,
            "type" : "image/jpeg"
         }
      },
      {
         "when_comp_start" : -1,
         "url" : "https://fonts.gstatic.com/s/opensans/v13/cJZKeOuBrn4kERxqtaUH3aCWcynf_cDxXwCLxiixG1c.ttf",
         "id" : "r68",
         "comps" : [],
         "download" : {
            "receiveFirst" : 1196,
            "len" : 34156,
            "dns" : 0,
            "dnsEnd" : 1,
            "receiveHeadersEnd" : 2868,
            "sslEnd" : 1671,
            "connectEnd" : 1671,
            "connectStart" : 0,
            "id" : "download_55",
            "receivedTime" : "6426.18800001219",
            "sslStart" : 694,
            "dnsStart" : 1,
            "receiveLast" : 3558.18800001219,
            "s_time" : 3362.62300005183,
            "sendEnd" : 1672,
            "sendStart" : 1671,
            "type" : "font/ttf"
         }
      },
      {
         "when_comp_start" : -1,
         "url" : "https://fonts.gstatic.com/s/opensans/v13/MTP_ySUJH_bn48VBG8sNSonF5uFdDttMLvmWuJdhhgs.ttf",
         "id" : "r69",
         "comps" : [],
         "download" : {
            "receiveFirst" : 1381,
            "len" : 35240,
            "dns" : 0,
            "dnsEnd" : -1,
            "receiveHeadersEnd" : 3053,
            "sslEnd" : -1,
            "connectEnd" : 1671,
            "connectStart" : 0,
            "id" : "download_56",
            "receivedTime" : "7391.33000001311",
            "sslStart" : -1,
            "dnsStart" : -1,
            "receiveLast" : 4338.33000001311,
            "s_time" : 3362.91899997741,
            "sendEnd" : 1672,
            "sendStart" : 1671,
            "type" : "font/ttf"
         }
      },
      {
         "when_comp_start" : -1,
         "url" : "http://original.testbed.localhost/www.intecnologia.net/cache/widgetkit/envasadora-d679bc24b0.jpg",
         "id" : "r57",
         "comps" : [],
         "download" : {
            "receiveFirst" : 1334,
            "len" : 8665,
            "dns" : 0,
            "dnsEnd" : -1,
            "receiveHeadersEnd" : 2457,
            "sslEnd" : -1,
            "connectEnd" : 1123,
            "connectStart" : 0,
            "id" : "download_57",
            "receivedTime" : "7275.94700013287",
            "sslStart" : -1,
            "dnsStart" : -1,
            "receiveLast" : 4818.94700013287,
            "s_time" : 4745.72800006717,
            "sendEnd" : 1123,
            "sendStart" : 1123,
            "type" : "image/jpeg"
         }
      },
      {
         "when_comp_start" : -1,
         "url" : "http://original.testbed.localhost/www.intecnologia.net/cache/widgetkit/Sense-55412b48c3.jpg",
         "id" : "r58",
         "comps" : [],
         "download" : {
            "receiveFirst" : 1351,
            "len" : 4255,
            "dns" : 0,
            "dnsEnd" : -1,
            "receiveHeadersEnd" : 2514,
            "sslEnd" : -1,
            "connectEnd" : 1163,
            "connectStart" : 0,
            "id" : "download_58",
            "receivedTime" : "7314.97700000182",
            "sslStart" : -1,
            "dnsStart" : -1,
            "receiveLast" : 4800.97700000182,
            "s_time" : 4764.60900017992,
            "sendEnd" : 1163,
            "sendStart" : 1163,
            "type" : "image/jpeg"
         }
      },
      {
         "when_comp_start" : -1,
         "url" : "https://fonts.gstatic.com/s/opensans/v13/DXI1ORHCpsQm3Vp6mXoaTYnF5uFdDttMLvmWuJdhhgs.ttf",
         "id" : "r67",
         "comps" : [],
         "download" : {
            "receiveFirst" : 2354,
            "len" : 35340,
            "dns" : 0,
            "dnsEnd" : -1,
            "receiveHeadersEnd" : 4026,
            "sslEnd" : -1,
            "connectEnd" : 1671,
            "connectStart" : 0,
            "id" : "download_59",
            "receivedTime" : "7575.06800000556",
            "sslStart" : -1,
            "dnsStart" : -1,
            "receiveLast" : 3549.06800000556,
            "s_time" : 3363.0810000468,
            "sendEnd" : 1672,
            "sendStart" : 1671,
            "type" : "font/ttf"
         }
      },
      {
         "when_comp_start" : -1,
         "url" : "http://original.testbed.localhost/www.intecnologia.net/cache/widgetkit/xtrem-88688a11a2.jpg",
         "id" : "r59",
         "comps" : [],
         "download" : {
            "receiveFirst" : 777,
            "len" : 4219,
            "dns" : 0,
            "dnsEnd" : -1,
            "receiveHeadersEnd" : 1723,
            "sslEnd" : -1,
            "connectEnd" : 946,
            "connectStart" : 0,
            "id" : "download_60",
            "receivedTime" : "7627.94700008817",
            "sslStart" : -1,
            "dnsStart" : -1,
            "receiveLast" : 5904.94700008817,
            "s_time" : 5868.60699998215,
            "sendEnd" : 946,
            "sendStart" : 946,
            "type" : "image/jpeg"
         }
      },
      {
         "when_comp_start" : -1,
         "url" : "http://original.testbed.localhost/www.intecnologia.net/cache/widgetkit/mycooler-994d60c168.jpg",
         "id" : "r61",
         "comps" : [],
         "download" : {
            "receiveFirst" : 520,
            "len" : 4728,
            "dns" : 0,
            "dnsEnd" : -1,
            "receiveHeadersEnd" : 1020,
            "sslEnd" : -1,
            "connectEnd" : 500,
            "connectStart" : 0,
            "id" : "download_61",
            "receivedTime" : "7871.23500020243",
            "sslStart" : -1,
            "dnsStart" : -1,
            "receiveLast" : 6851.23500020243,
            "s_time" : 6814.69700019807,
            "sendEnd" : 500,
            "sendStart" : 500,
            "type" : "image/jpeg"
         }
      },
      {
         "when_comp_start" : -1,
         "url" : "http://original.testbed.localhost/www.intecnologia.net/cache/widgetkit/quanto-6f3283b43e.jpg",
         "id" : "r62",
         "comps" : [],
         "download" : {
            "receiveFirst" : 548,
            "len" : 3249,
            "dns" : 0,
            "dnsEnd" : -1,
            "receiveHeadersEnd" : 601,
            "sslEnd" : -1,
            "connectEnd" : 53,
            "connectStart" : 0,
            "id" : "download_62",
            "receivedTime" : "7901.41400019638",
            "sslStart" : -1,
            "dnsStart" : -1,
            "receiveLast" : 7300.41400019638,
            "s_time" : 7276.04799997061,
            "sendEnd" : 53,
            "sendStart" : 53,
            "type" : "image/jpeg"
         }
      },
      {
         "when_comp_start" : -1,
         "url" : "http://original.testbed.localhost/www.intecnologia.net/cache/widgetkit/brazo-angular-8c273d4d37.jpg",
         "id" : "r63",
         "comps" : [],
         "download" : {
            "receiveFirst" : 311,
            "len" : 6297,
            "dns" : 0,
            "dnsEnd" : -1,
            "receiveHeadersEnd" : 624,
            "sslEnd" : -1,
            "connectEnd" : 313,
            "connectStart" : 0,
            "id" : "download_63",
            "receivedTime" : "7987.62500006706",
            "sslStart" : -1,
            "dnsStart" : -1,
            "receiveLast" : 7363.62500006706,
            "s_time" : 7315.05100009963,
            "sendEnd" : 313,
            "sendStart" : 313,
            "type" : "image/jpeg"
         }
      },
      {
         "when_comp_start" : -1,
         "url" : "http://original.testbed.localhost/www.intecnologia.net/cache/widgetkit/el-tanque-18b0223305.jpg",
         "id" : "r65",
         "comps" : [],
         "download" : {
            "receiveFirst" : 388,
            "len" : 6222,
            "dns" : 0,
            "dnsEnd" : -1,
            "receiveHeadersEnd" : 885,
            "sslEnd" : -1,
            "connectEnd" : 497,
            "connectStart" : 0,
            "id" : "download_64",
            "receivedTime" : "8262.98000011593",
            "sslStart" : -1,
            "dnsStart" : -1,
            "receiveLast" : 7377.98000011593,
            "s_time" : 7329.27700015716,
            "sendEnd" : 497,
            "sendStart" : 497,
            "type" : "image/jpeg"
         }
      },
      {
         "when_comp_start" : -1,
         "url" : "http://original.testbed.localhost/www.intecnologia.net/templates/yoo_nano3/images/logo-intec-white.png",
         "id" : "r66",
         "comps" : [],
         "download" : {
            "receiveFirst" : 398,
            "len" : 4120,
            "dns" : 0,
            "dnsEnd" : -1,
            "receiveHeadersEnd" : 641,
            "sslEnd" : -1,
            "connectEnd" : 243,
            "connectStart" : 0,
            "id" : "download_65",
            "receivedTime" : "8305.64100015908",
            "sslStart" : -1,
            "dnsStart" : -1,
            "receiveLast" : 7664.64100015908,
            "s_time" : 7627.93800001964,
            "sendEnd" : 243,
            "sendStart" : 243,
            "type" : "image/png"
         }
      },
      {
         "when_comp_start" : -1,
         "url" : "http://original.testbed.localhost/www.intecnologia.net/templates/yoo_nano3/images/line-separator.png",
         "id" : "r75",
         "comps" : [],
         "download" : {
            "receiveFirst" : 406,
            "len" : 2898,
            "dns" : 0,
            "dnsEnd" : -1,
            "receiveHeadersEnd" : 436,
            "sslEnd" : -1,
            "connectEnd" : 30,
            "connectStart" : 0,
            "id" : "download_66",
            "receivedTime" : "8331.48200018331",
            "sslStart" : -1,
            "dnsStart" : -1,
            "receiveLast" : 7895.48200018331,
            "s_time" : 7871.27600004897,
            "sendEnd" : 30,
            "sendStart" : 30,
            "type" : "image/png"
         }
      },
      {
         "when_comp_start" : -1,
         "url" : "http://original.testbed.localhost/www.intecnologia.net/templates/yoo_nano3/images/line-gray-right.png",
         "id" : "r76",
         "comps" : [],
         "download" : {
            "receiveFirst" : 357,
            "len" : 2888,
            "dns" : 0,
            "dnsEnd" : -1,
            "receiveHeadersEnd" : 443,
            "sslEnd" : -1,
            "connectEnd" : 86,
            "connectStart" : 0,
            "id" : "download_67",
            "receivedTime" : "8369.59200003184",
            "sslStart" : -1,
            "dnsStart" : -1,
            "receiveLast" : 7926.59200003184,
            "s_time" : 7901.43500012346,
            "sendEnd" : 86,
            "sendStart" : 86,
            "type" : "image/png"
         }
      },
      {
         "when_comp_start" : -1,
         "url" : "http://original.testbed.localhost/www.intecnologia.net/templates/yoo_nano3/images/design-left.png",
         "id" : "r77",
         "comps" : [],
         "download" : {
            "receiveFirst" : 313,
            "len" : 4175,
            "dns" : 0,
            "dnsEnd" : -1,
            "receiveHeadersEnd" : 588,
            "sslEnd" : -1,
            "connectEnd" : 275,
            "connectStart" : 0,
            "id" : "download_68",
            "receivedTime" : "8612.29500011541",
            "sslStart" : -1,
            "dnsStart" : -1,
            "receiveLast" : 8024.29500011541,
            "s_time" : 7987.68300004303,
            "sendEnd" : 275,
            "sendStart" : 275,
            "type" : "image/png"
         }
      },
      {
         "when_comp_start" : -1,
         "url" : "http://original.testbed.localhost/www.intecnologia.net/templates/yoo_nano3/images/design-right.png",
         "id" : "r78",
         "comps" : [],
         "download" : {
            "receiveFirst" : 308,
            "len" : 1747,
            "dns" : 0,
            "dnsEnd" : -1,
            "receiveHeadersEnd" : 350,
            "sslEnd" : -1,
            "connectEnd" : 42,
            "connectStart" : 0,
            "id" : "download_69",
            "receivedTime" : "8625.99100009538",
            "sslStart" : -1,
            "dnsStart" : -1,
            "receiveLast" : 8275.99100009538,
            "s_time" : 8263.09900009073,
            "sendEnd" : 42,
            "sendStart" : 42,
            "type" : "image/png"
         }
      },
      {
         "when_comp_start" : -1,
         "url" : "http://original.testbed.localhost/www.intecnologia.net/cache/widgetkit/honda-cad2a88e41.jpg",
         "id" : "r36",
         "comps" : [],
         "download" : {
            "receiveFirst" : 300,
            "len" : 2440,
            "dns" : 0,
            "dnsEnd" : -1,
            "receiveHeadersEnd" : 5788,
            "sslEnd" : -1,
            "connectEnd" : 5488,
            "connectStart" : 0,
            "id" : "download_70",
            "receivedTime" : "8643.33300013095",
            "sslStart" : -1,
            "dnsStart" : -1,
            "receiveLast" : 2855.33300013095,
            "s_time" : 2842.87500008941,
            "sendEnd" : 5488,
            "sendStart" : 5488,
            "type" : "image/jpeg"
         }
      },
      {
         "when_comp_start" : -1,
         "url" : "http://original.testbed.localhost/www.intecnologia.net/cache/widgetkit/cne-5acecec6cb.jpg",
         "id" : "r37",
         "comps" : [],
         "download" : {
            "receiveFirst" : 284,
            "len" : 2002,
            "dns" : 0,
            "dnsEnd" : -1,
            "receiveHeadersEnd" : 5810,
            "sslEnd" : -1,
            "connectEnd" : 5526,
            "connectStart" : 0,
            "id" : "download_71",
            "receivedTime" : "8666.3450000342",
            "sslStart" : -1,
            "dnsStart" : -1,
            "receiveLast" : 2856.3450000342,
            "s_time" : 2843.03500014357,
            "sendEnd" : 5526,
            "sendStart" : 5526,
            "type" : "image/jpeg"
         }
      },
      {
         "when_comp_start" : -1,
         "url" : "http://original.testbed.localhost/www.intecnologia.net/cache/widgetkit/grupo-sid-93ec5eebd8.jpg",
         "id" : "r38",
         "comps" : [],
         "download" : {
            "receiveFirst" : 220,
            "len" : 2630,
            "dns" : 0,
            "dnsEnd" : -1,
            "receiveHeadersEnd" : 5989,
            "sslEnd" : -1,
            "connectEnd" : 5768,
            "connectStart" : 0,
            "id" : "download_72",
            "receivedTime" : "8856.83699999936",
            "sslStart" : -1,
            "dnsStart" : -1,
            "receiveLast" : 2867.83699999936,
            "s_time" : 2843.12100009993,
            "sendEnd" : 5769,
            "sendStart" : 5768,
            "type" : "image/jpeg"
         }
      },
      {
         "when_comp_start" : -1,
         "url" : "http://original.testbed.localhost/www.intecnologia.net/cache/widgetkit/tibbo-4f10717215.jpg",
         "id" : "r60",
         "comps" : [],
         "download" : {
            "receiveFirst" : 349,
            "len" : 4328,
            "dns" : 0,
            "dnsEnd" : -1,
            "receiveHeadersEnd" : 5683,
            "sslEnd" : -1,
            "connectEnd" : 5334,
            "connectStart" : 0,
            "id" : "download_73",
            "receivedTime" : "11647.1950002015",
            "sslStart" : -1,
            "dnsStart" : -1,
            "receiveLast" : 5964.19500020146,
            "s_time" : 5927.47700004838,
            "sendEnd" : 5334,
            "sendStart" : 5334,
            "type" : "image/jpeg"
         }
      }
   ],
   "deps" : [
      {
         "a2" : "r1_c2",
         "time" : -1,
         "id" : "dep1",
         "a1" : "comp_7"
      },
      {
         "a2" : "r1_c3",
         "time" : -1,
         "id" : "dep2",
         "a1" : "comp_9"
      },
      {
         "a2" : "r1_c4",
         "time" : -1,
         "id" : "dep3",
         "a1" : "comp_11"
      },
      {
         "a2" : "r1_c5",
         "time" : -1,
         "id" : "dep4",
         "a1" : "comp_15"
      },
      {
         "a2" : "r1_c6",
         "time" : -1,
         "id" : "dep5",
         "a1" : "comp_17"
      },
      {
         "a2" : "r1_c7",
         "time" : -1,
         "id" : "dep6",
         "a1" : "comp_19"
      },
      {
         "a2" : "r1_c8",
         "time" : -1,
         "id" : "dep7",
         "a1" : "comp_21"
      },
      {
         "a2" : "r1_c9",
         "time" : -1,
         "id" : "dep8",
         "a1" : "comp_23"
      },
      {
         "a2" : "r1_c10",
         "time" : -1,
         "id" : "dep9",
         "a1" : "comp_25"
      },
      {
         "a2" : "r1_c11",
         "time" : -1,
         "id" : "dep10",
         "a1" : "comp_28"
      },
      {
         "a2" : "r1_c12",
         "time" : -1,
         "id" : "dep11",
         "a1" : "comp_30"
      },
      {
         "a2" : "r1_c13",
         "time" : -1,
         "id" : "dep12",
         "a1" : "comp_34"
      },
      {
         "a2" : "r1_c14",
         "time" : -1,
         "id" : "dep13",
         "a1" : "comp_39"
      },
      {
         "a2" : "r1_c15",
         "time" : -1,
         "id" : "dep14",
         "a1" : "comp_41"
      },
      {
         "a2" : "r1_c16",
         "time" : -1,
         "id" : "dep15",
         "a1" : "comp_43"
      },
      {
         "a2" : "r1_c17",
         "time" : -1,
         "id" : "dep16",
         "a1" : "comp_45"
      },
      {
         "a2" : "r1_c18",
         "time" : -1,
         "id" : "dep17",
         "a1" : "comp_47"
      },
      {
         "a2" : "comp_7",
         "time" : -1,
         "id" : "dep18",
         "a1" : "comp_4"
      },
      {
         "a2" : "comp_7",
         "time" : -1,
         "id" : "dep19",
         "a1" : "comp_0"
      },
      {
         "a2" : "comp_7",
         "time" : -1,
         "id" : "dep20",
         "a1" : "comp_3"
      },
      {
         "a2" : "comp_9",
         "time" : -1,
         "id" : "dep21",
         "a1" : "comp_7"
      },
      {
         "a2" : "comp_11",
         "time" : -1,
         "id" : "dep22",
         "a1" : "comp_9"
      },
      {
         "a2" : "comp_15",
         "time" : -1,
         "id" : "dep23",
         "a1" : "comp_11"
      },
      {
         "a2" : "comp_17",
         "time" : -1,
         "id" : "dep24",
         "a1" : "comp_15"
      },
      {
         "a2" : "comp_19",
         "time" : -1,
         "id" : "dep25",
         "a1" : "comp_17"
      },
      {
         "a2" : "comp_21",
         "time" : -1,
         "id" : "dep26",
         "a1" : "comp_19"
      },
      {
         "a2" : "comp_23",
         "time" : -1,
         "id" : "dep27",
         "a1" : "comp_21"
      },
      {
         "a2" : "comp_25",
         "time" : -1,
         "id" : "dep28",
         "a1" : "comp_23"
      },
      {
         "a2" : "comp_28",
         "time" : -1,
         "id" : "dep29",
         "a1" : "comp_25"
      },
      {
         "a2" : "comp_30",
         "time" : -1,
         "id" : "dep30",
         "a1" : "comp_28"
      },
      {
         "a2" : "comp_34",
         "time" : -1,
         "id" : "dep31",
         "a1" : "comp_30"
      },
      {
         "a2" : "comp_34",
         "time" : -1,
         "id" : "dep32",
         "a1" : "comp_14"
      },
      {
         "a2" : "comp_34",
         "time" : -1,
         "id" : "dep33",
         "a1" : "comp_27"
      },
      {
         "a2" : "comp_34",
         "time" : -1,
         "id" : "dep34",
         "a1" : "comp_13"
      },
      {
         "a2" : "comp_39",
         "time" : -1,
         "id" : "dep35",
         "a1" : "comp_34"
      },
      {
         "a2" : "comp_41",
         "time" : -1,
         "id" : "dep36",
         "a1" : "comp_39"
      },
      {
         "a2" : "comp_43",
         "time" : -1,
         "id" : "dep37",
         "a1" : "comp_41"
      },
      {
         "a2" : "comp_45",
         "time" : -1,
         "id" : "dep38",
         "a1" : "comp_43"
      },
      {
         "a2" : "comp_47",
         "time" : -1,
         "id" : "dep39",
         "a1" : "comp_45"
      },
      {
         "a2" : "download_73",
         "time" : -1,
         "id" : "dep40",
         "a1" : "r1_c18"
      },
      {
         "a2" : "download_72",
         "time" : -1,
         "id" : "dep41",
         "a1" : "r1_c12"
      },
      {
         "a2" : "download_71",
         "time" : 385.5109999422,
         "id" : "dep42",
         "a1" : "r1_c12"
      },
      {
         "a2" : "download_70",
         "time" : 385.35099988804,
         "id" : "dep43",
         "a1" : "r1_c12"
      },
      {
         "a2" : "download_69",
         "time" : -1,
         "id" : "dep44",
         "a1" : "r1_c18"
      },
      {
         "a2" : "download_68",
         "time" : 5122.31600005179,
         "id" : "dep45",
         "a1" : "r1_c18"
      },
      {
         "a2" : "download_67",
         "time" : 5036.06800013222,
         "id" : "dep46",
         "a1" : "r1_c18"
      },
      {
         "a2" : "download_66",
         "time" : 5005.90900005773,
         "id" : "dep47",
         "a1" : "r1_c18"
      },
      {
         "a2" : "download_65",
         "time" : 4762.5710000284,
         "id" : "dep48",
         "a1" : "r1_c18"
      },
      {
         "a2" : "download_64",
         "time" : 4463.91000016592,
         "id" : "dep49",
         "a1" : "r1_c18"
      },
      {
         "a2" : "download_63",
         "time" : 4449.68400010839,
         "id" : "dep50",
         "a1" : "r1_c18"
      },
      {
         "a2" : "download_62",
         "time" : 4410.68099997937,
         "id" : "dep51",
         "a1" : "r1_c18"
      },
      {
         "a2" : "download_61",
         "time" : 3949.33000020683,
         "id" : "dep52",
         "a1" : "r1_c18"
      },
      {
         "a2" : "download_60",
         "time" : 3003.23999999091,
         "id" : "dep53",
         "a1" : "r1_c18"
      },
      {
         "a2" : "download_59",
         "time" : 497.71400005556,
         "id" : "dep54",
         "a1" : "r1_c18"
      },
      {
         "a2" : "download_58",
         "time" : 1899.24200018868,
         "id" : "dep55",
         "a1" : "r1_c18"
      },
      {
         "a2" : "download_57",
         "time" : 1880.36100007593,
         "id" : "dep56",
         "a1" : "r1_c18"
      },
      {
         "a2" : "download_56",
         "time" : 497.55199998617,
         "id" : "dep57",
         "a1" : "r1_c18"
      },
      {
         "a2" : "download_55",
         "time" : 497.25600006059,
         "id" : "dep58",
         "a1" : "r1_c18"
      },
      {
         "a2" : "download_54",
         "time" : 855.97300017252,
         "id" : "dep59",
         "a1" : "r1_c18"
      },
      {
         "a2" : "download_53",
         "time" : 375.27499999851,
         "id" : "dep60",
         "a1" : "r1_c18"
      },
      {
         "a2" : "download_52",
         "time" : 497.38800013438,
         "id" : "dep61",
         "a1" : "r1_c18"
      },
      {
         "a2" : "download_51",
         "time" : 280.89700010605,
         "id" : "dep62",
         "a1" : "r1_c18"
      },
      {
         "a2" : "download_50",
         "time" : 356.02500010282,
         "id" : "dep63",
         "a1" : "r1_c18"
      },
      {
         "a2" : "download_49",
         "time" : 339.45800014771,
         "id" : "dep64",
         "a1" : "r1_c18"
      },
      {
         "a2" : "download_48",
         "time" : 319.23100003041,
         "id" : "dep65",
         "a1" : "r1_c18"
      },
      {
         "a2" : "download_47",
         "time" : 297.99600015394,
         "id" : "dep66",
         "a1" : "r1_c18"
      },
      {
         "a2" : "download_46",
         "time" : 267.88900000974,
         "id" : "dep67",
         "a1" : "r1_c18"
      },
      {
         "a2" : "download_45",
         "time" : 232.70300007425,
         "id" : "dep68",
         "a1" : "r1_c18"
      },
      {
         "a2" : "download_44",
         "time" : 218.31300016492,
         "id" : "dep69",
         "a1" : "r1_c18"
      },
      {
         "a2" : "download_43",
         "time" : 192.76200002059,
         "id" : "dep70",
         "a1" : "r1_c18"
      },
      {
         "a2" : "download_42",
         "time" : 156.74200002104,
         "id" : "dep71",
         "a1" : "r1_c18"
      },
      {
         "a2" : "download_41",
         "time" : 153.73100014403,
         "id" : "dep72",
         "a1" : "r1_c18"
      },
      {
         "a2" : "download_40",
         "time" : 130.65200019628,
         "id" : "dep73",
         "a1" : "r1_c18"
      },
      {
         "a2" : "download_39",
         "time" : 109.12600019947,
         "id" : "dep74",
         "a1" : "r1_c18"
      },
      {
         "a2" : "download_38",
         "time" : 94.8199999984299,
         "id" : "dep75",
         "a1" : "r1_c18"
      },
      {
         "a2" : "download_37",
         "time" : 78.3970002085002,
         "id" : "dep76",
         "a1" : "r1_c18"
      },
      {
         "a2" : "download_36",
         "time" : 0.972999958329638,
         "id" : "dep77",
         "a1" : "r1_c12"
      },
      {
         "a2" : "download_35",
         "time" : 43.1110002100399,
         "id" : "dep78",
         "a1" : "r1_c18"
      },
      {
         "a2" : "download_34",
         "time" : 385.19499986433,
         "id" : "dep79",
         "a1" : "r1_c12"
      },
      {
         "a2" : "download_33",
         "time" : 1.59899983555988,
         "id" : "dep80",
         "a1" : "r1_c12"
      },
      {
         "a2" : "download_32",
         "time" : 1.46399997174967,
         "id" : "dep81",
         "a1" : "r1_c12"
      },
      {
         "a2" : "download_31",
         "time" : 1.32999988272968,
         "id" : "dep82",
         "a1" : "r1_c12"
      },
      {
         "a2" : "download_30",
         "time" : 1.21899996884986,
         "id" : "dep83",
         "a1" : "r1_c12"
      },
      {
         "a2" : "download_29",
         "time" : 6.90499995835989,
         "id" : "dep84",
         "a1" : "r1_c12"
      },
      {
         "a2" : "download_28",
         "time" : 1.08299986459997,
         "id" : "dep85",
         "a1" : "r1_c12"
      },
      {
         "a2" : "download_27",
         "time" : 0.82999980077966,
         "id" : "dep86",
         "a1" : "r1_c12"
      },
      {
         "a2" : "download_26",
         "time" : 0.624999869619842,
         "id" : "dep87",
         "a1" : "r1_c12"
      },
      {
         "a2" : "download_25",
         "time" : 0.391999958089855,
         "id" : "dep88",
         "a1" : "r1_c12"
      },
      {
         "a2" : "download_24",
         "time" : -1,
         "id" : "dep89",
         "a1" : "r1_c9"
      },
      {
         "a2" : "download_24",
         "time" : 2.13399995117993,
         "id" : "dep90",
         "a1" : "r1_c9"
      },
      {
         "a2" : "download_23",
         "time" : 1.94599991663995,
         "id" : "dep91",
         "a1" : "r1_c9"
      },
      {
         "a2" : "download_23",
         "time" : 1.94599991663995,
         "id" : "dep92",
         "a1" : "r1_c9"
      },
      {
         "a2" : "download_22",
         "time" : 1.79099990054988,
         "id" : "dep93",
         "a1" : "r1_c9"
      },
      {
         "a2" : "download_22",
         "time" : 1.79099990054988,
         "id" : "dep94",
         "a1" : "r1_c9"
      },
      {
         "a2" : "download_21",
         "time" : 1.51599990203999,
         "id" : "dep95",
         "a1" : "r1_c9"
      },
      {
         "a2" : "download_21",
         "time" : 1.51599990203999,
         "id" : "dep96",
         "a1" : "r1_c9"
      },
      {
         "a2" : "download_20",
         "time" : -1,
         "id" : "dep97",
         "a1" : "r1_c4"
      },
      {
         "a2" : "download_20",
         "time" : 1.06600020080805,
         "id" : "dep98",
         "a1" : "r1_c4"
      },
      {
         "a2" : "download_19",
         "time" : 0.852000201121086,
         "id" : "dep99",
         "a1" : "r1_c4"
      },
      {
         "a2" : "download_19",
         "time" : 0.852000201121086,
         "id" : "dep100",
         "a1" : "r1_c4"
      },
      {
         "a2" : "download_18",
         "time" : -1,
         "id" : "dep101",
         "a1" : "r1_c2"
      },
      {
         "a2" : "download_18",
         "time" : 1.578000141308,
         "id" : "dep102",
         "a1" : "r1_c2"
      },
      {
         "a2" : "download_17",
         "time" : -1,
         "id" : "dep103",
         "a1" : "r1_c1"
      },
      {
         "a2" : "download_16",
         "time" : 2.432000124827,
         "id" : "dep104",
         "a1" : "r1_c1"
      },
      {
         "a2" : "download_16",
         "time" : 2.432000124827,
         "id" : "dep105",
         "a1" : "r1_c1"
      },
      {
         "a2" : "download_15",
         "time" : 2.2899999748915,
         "id" : "dep106",
         "a1" : "r1_c1"
      },
      {
         "a2" : "download_15",
         "time" : 2.2899999748915,
         "id" : "dep107",
         "a1" : "r1_c1"
      },
      {
         "a2" : "download_14",
         "time" : 2.1510000806302,
         "id" : "dep108",
         "a1" : "r1_c1"
      },
      {
         "a2" : "download_14",
         "time" : 2.1510000806302,
         "id" : "dep109",
         "a1" : "r1_c1"
      },
      {
         "a2" : "download_13",
         "time" : 1.423000125215,
         "id" : "dep110",
         "a1" : "r1_c2"
      },
      {
         "a2" : "download_13",
         "time" : 1.423000125215,
         "id" : "dep111",
         "a1" : "r1_c2"
      },
      {
         "a2" : "download_12",
         "time" : 1.26100005581998,
         "id" : "dep112",
         "a1" : "r1_c2"
      },
      {
         "a2" : "download_12",
         "time" : 1.26100005581998,
         "id" : "dep113",
         "a1" : "r1_c2"
      },
      {
         "a2" : "download_11",
         "time" : 1.06799998320699,
         "id" : "dep114",
         "a1" : "r1_c2"
      },
      {
         "a2" : "download_11",
         "time" : 1.06799998320699,
         "id" : "dep115",
         "a1" : "r1_c2"
      },
      {
         "a2" : "download_10",
         "time" : 2.0179999992251,
         "id" : "dep116",
         "a1" : "r1_c1"
      },
      {
         "a2" : "download_10",
         "time" : 2.0179999992251,
         "id" : "dep117",
         "a1" : "r1_c1"
      },
      {
         "a2" : "download_9",
         "time" : 1.8670000135898,
         "id" : "dep118",
         "a1" : "r1_c1"
      },
      {
         "a2" : "download_9",
         "time" : 1.8670000135898,
         "id" : "dep119",
         "a1" : "r1_c1"
      },
      {
         "a2" : "download_8",
         "time" : 1.731000142172,
         "id" : "dep120",
         "a1" : "r1_c1"
      },
      {
         "a2" : "download_8",
         "time" : 1.731000142172,
         "id" : "dep121",
         "a1" : "r1_c1"
      },
      {
         "a2" : "download_7",
         "time" : 1.5829999465495,
         "id" : "dep122",
         "a1" : "r1_c1"
      },
      {
         "a2" : "download_7",
         "time" : 1.5829999465495,
         "id" : "dep123",
         "a1" : "r1_c1"
      },
      {
         "a2" : "download_6",
         "time" : 1.4550001360476,
         "id" : "dep124",
         "a1" : "r1_c1"
      },
      {
         "a2" : "download_6",
         "time" : 1.4550001360476,
         "id" : "dep125",
         "a1" : "r1_c1"
      },
      {
         "a2" : "download_5",
         "time" : 1.3069999404251,
         "id" : "dep126",
         "a1" : "r1_c1"
      },
      {
         "a2" : "download_5",
         "time" : 1.3069999404251,
         "id" : "dep127",
         "a1" : "r1_c1"
      },
      {
         "a2" : "download_4",
         "time" : 1.1400000657886,
         "id" : "dep128",
         "a1" : "r1_c1"
      },
      {
         "a2" : "download_3",
         "time" : 0.620000064373002,
         "id" : "dep129",
         "a1" : "r1_c1"
      },
      {
         "a2" : "download_2",
         "time" : 0.9660001378506,
         "id" : "dep130",
         "a1" : "r1_c1"
      },
      {
         "a2" : "download_1",
         "time" : 0.786999939009501,
         "id" : "dep131",
         "a1" : "r1_c1"
      }
   ]
}
