{
   "n_download_no_trigger" : 1,
   "start_activity" : "download_0",
   "name" : "original.testbed.localhost_www.google.es_",
   "load_activity" : -1,
   "objs" : [
      {
         "when_comp_start" : 1,
         "url" : "http://original.testbed.localhost/www.google.es/",
         "id" : "r1",
         "comps" : [
            {
               "s_time" : 185.575000010431,
               "time" : 549.384000012651,
               "type" : "evalhtml",
               "id" : "r1_c1",
               "e_time" : 734.959000023082
            }
         ],
         "download" : {
            "receiveFirst" : 166,
            "len" : 154528,
            "dns" : 0,
            "dnsEnd" : -1,
            "receiveHeadersEnd" : 170,
            "sslEnd" : -1,
            "connectEnd" : 4,
            "connectStart" : 0,
            "id" : "download_0",
            "receivedTime" : "733.981000026688",
            "sslStart" : -1,
            "dnsStart" : -1,
            "receiveLast" : 563.981000026688,
            "s_time" : 0,
            "sendEnd" : 4,
            "sendStart" : 4,
            "type" : "text/html"
         }
      },
      {
         "when_comp_start" : -1,
         "url" : "http://original.testbed.localhost/www.google.es/images/icons/product/chrome-48.png",
         "id" : "r2",
         "comps" : [],
         "download" : {
            "receiveFirst" : 222,
            "len" : 1834,
            "dns" : 0,
            "dnsEnd" : -1,
            "receiveHeadersEnd" : 222,
            "sslEnd" : -1,
            "connectEnd" : 0,
            "connectStart" : 0,
            "id" : "download_1",
            "receivedTime" : "433.447999879718",
            "sslStart" : -1,
            "dnsStart" : -1,
            "receiveLast" : 211.447999879718,
            "s_time" : 199.016999918967,
            "sendEnd" : 0,
            "sendStart" : 0,
            "type" : "image/png"
         }
      },
      {
         "when_comp_start" : -1,
         "url" : "http://original.testbed.localhost/www.google.es/images/branding/googlelogo/1x/googlelogo_white_background_color_272x92dp.png",
         "id" : "r3",
         "comps" : [],
         "download" : {
            "receiveFirst" : 268,
            "len" : 5482,
            "dns" : 0,
            "dnsEnd" : -1,
            "receiveHeadersEnd" : 268,
            "sslEnd" : -1,
            "connectEnd" : 0,
            "connectStart" : 0,
            "id" : "download_2",
            "receivedTime" : "527.372000040486",
            "sslStart" : -1,
            "dnsStart" : -1,
            "receiveLast" : 259.372000040486,
            "s_time" : 222.657999955118,
            "sendEnd" : 0,
            "sendStart" : 0,
            "type" : "image/png"
         }
      },
      {
         "when_comp_start" : -1,
         "url" : "http://original.testbed.localhost/www.google.es/images/srpr/nav_logo80.png",
         "id" : "r4",
         "comps" : [],
         "download" : {
            "receiveFirst" : 314,
            "len" : 35615,
            "dns" : 0,
            "dnsEnd" : -1,
            "receiveHeadersEnd" : 314,
            "sslEnd" : -1,
            "connectEnd" : 0,
            "connectStart" : 0,
            "id" : "download_3",
            "receivedTime" : "928.382999962196",
            "sslStart" : -1,
            "dnsStart" : -1,
            "receiveLast" : 614.382999962196,
            "s_time" : 225.252999924123,
            "sendEnd" : 0,
            "sendStart" : 0,
            "type" : "image/png"
         }
      },
      {
         "when_comp_start" : 1,
         "url" : "http://original.testbed.localhost/client_204?&atyp=i&biw=1024&bih=601&ei=y5X4VYeaBomt-AGIubfICw",
         "id" : "r5",
         "comps" : [],
         "download" : {
            "receiveFirst" : 172,
            "len" : 300,
            "dns" : 0,
            "dnsEnd" : -1,
            "receiveHeadersEnd" : 172,
            "sslEnd" : -1,
            "connectEnd" : 0,
            "connectStart" : 0,
            "id" : "download_4",
            "receivedTime" : "904.422000050545",
            "sslStart" : -1,
            "dnsStart" : -1,
            "receiveLast" : 732.422000050545,
            "s_time" : 731.788999866694,
            "sendEnd" : 0,
            "sendStart" : 0,
            "type" : "text/html"
         }
      }
   ],
   "deps" : [
      {
         "a2" : "download_4",
         "time" : 546.213999856263,
         "id" : "dep1",
         "a1" : "r1_c1"
      },
      {
         "a2" : "download_3",
         "time" : 39.677999913692,
         "id" : "dep2",
         "a1" : "r1_c1"
      },
      {
         "a2" : "download_2",
         "time" : 37.082999944687,
         "id" : "dep3",
         "a1" : "r1_c1"
      },
      {
         "a2" : "download_1",
         "time" : 13.441999908536,
         "id" : "dep4",
         "a1" : "r1_c1"
      }
   ]
}
