{
   "n_download_no_trigger" : 1,
   "start_activity" : "download_0",
   "name" : "original.testbed.localhost_www.hortjobs.com_",
   "load_activity" : -1,
   "objs" : [
      {
         "when_comp_start" : 1,
         "url" : "http://original.testbed.localhost/www.hortjobs.com/",
         "id" : "r1",
         "comps" : [
            {
               "s_time" : 22.8790000546724,
               "time" : 1232.07399994135,
               "type" : "evalhtml",
               "id" : "r1_c1",
               "e_time" : 1254.95299999602
            }
         ],
         "download" : {
            "receiveFirst" : 6,
            "len" : 6290,
            "dns" : 0,
            "dnsEnd" : -1,
            "receiveHeadersEnd" : 6,
            "sslEnd" : -1,
            "connectEnd" : 0,
            "connectStart" : 0,
            "id" : "download_0",
            "receivedTime" : "22.5349999964237",
            "sslStart" : -1,
            "dnsStart" : -1,
            "receiveLast" : 16.5349999964237,
            "s_time" : 0,
            "sendEnd" : 0,
            "sendStart" : 0,
            "type" : "text/html"
         }
      },
      {
         "when_comp_start" : -1,
         "url" : "http://original.testbed.localhost/www.hortjobs.com/style.css",
         "id" : "r2",
         "comps" : [
            {
               "s_time" : 43.8190000131726,
               "time" : 6.0629998333752,
               "type" : null,
               "id" : "comp_4",
               "e_time" : 49.8819998465478
            }
         ],
         "download" : {
            "receiveFirst" : 8,
            "len" : 10146,
            "dns" : 0,
            "dnsEnd" : -1,
            "receiveHeadersEnd" : 8,
            "sslEnd" : -1,
            "connectEnd" : 0,
            "connectStart" : 0,
            "id" : "download_1",
            "receivedTime" : "43.7620000448078",
            "sslStart" : -1,
            "dnsStart" : -1,
            "receiveLast" : 35.7620000448078,
            "s_time" : 23.3719998504966,
            "sendEnd" : 0,
            "sendStart" : 0,
            "type" : "text/css"
         }
      },
      {
         "when_comp_start" : -1,
         "url" : "http://original.testbed.localhost/www.hortjobs.com/images/header-image.png",
         "id" : "r4",
         "comps" : [],
         "download" : {
            "receiveFirst" : 31,
            "len" : 328664,
            "dns" : 0,
            "dnsEnd" : -1,
            "receiveHeadersEnd" : 31,
            "sslEnd" : -1,
            "connectEnd" : 0,
            "connectStart" : 0,
            "id" : "download_2",
            "receivedTime" : "5339.35999986716",
            "sslStart" : -1,
            "dnsStart" : -1,
            "receiveLast" : 5308.35999986716,
            "s_time" : 24.3470000568777,
            "sendEnd" : 0,
            "sendStart" : 0,
            "type" : "image/png"
         }
      },
      {
         "when_comp_start" : 1,
         "url" : "http://original.testbed.localhost/www.hortjobs.com/HORTJOBS_ad_iframe/Rotating_Banner_Ad.htm",
         "id" : "r3",
         "comps" : [
            {
               "s_time" : 183.116999920458,
               "time" : 8.27699992805699,
               "type" : "evalhtml",
               "id" : "r3_c1",
               "e_time" : 191.393999848515
            }
         ],
         "download" : {
            "receiveFirst" : 153,
            "len" : 2381,
            "dns" : 0,
            "dnsEnd" : -1,
            "receiveHeadersEnd" : 153,
            "sslEnd" : -1,
            "connectEnd" : 0,
            "connectStart" : 0,
            "id" : "download_3",
            "receivedTime" : "189.692999934778",
            "sslStart" : -1,
            "dnsStart" : -1,
            "receiveLast" : 36.6929999347776,
            "s_time" : 24.6500000357628,
            "sendEnd" : 0,
            "sendStart" : 0,
            "type" : "text/html"
         }
      },
      {
         "when_comp_start" : -1,
         "url" : "http://original.testbed.localhost/www.hortjobs.com/images/newspaper.png",
         "id" : "r5",
         "comps" : [],
         "download" : {
            "receiveFirst" : 300,
            "len" : 77581,
            "dns" : 0,
            "dnsEnd" : -1,
            "receiveHeadersEnd" : 300,
            "sslEnd" : -1,
            "connectEnd" : 0,
            "connectStart" : 0,
            "id" : "download_4",
            "receivedTime" : "2321.55100000091",
            "sslStart" : -1,
            "dnsStart" : -1,
            "receiveLast" : 2021.55100000091,
            "s_time" : 24.8990000691265,
            "sendEnd" : 0,
            "sendStart" : 0,
            "type" : "image/png"
         }
      },
      {
         "when_comp_start" : -1,
         "url" : "http://original.testbed.localhost/www.hortjobs.com/images/body-bg.gif",
         "id" : "r6",
         "comps" : [],
         "download" : {
            "receiveFirst" : 401,
            "len" : 833,
            "dns" : 0,
            "dnsEnd" : -1,
            "receiveHeadersEnd" : 401,
            "sslEnd" : -1,
            "connectEnd" : 0,
            "connectStart" : 0,
            "id" : "download_5",
            "receivedTime" : "447.160999989137",
            "sslStart" : -1,
            "dnsStart" : -1,
            "receiveLast" : 46.1609999891371,
            "s_time" : 45.293000061065,
            "sendEnd" : 0,
            "sendStart" : 0,
            "type" : "image/gif"
         }
      },
      {
         "when_comp_start" : -1,
         "url" : "http://original.testbed.localhost/www.hortjobs.com/images/outer-bg.jpg",
         "id" : "r7",
         "comps" : [],
         "download" : {
            "receiveFirst" : 410,
            "len" : 2987,
            "dns" : 0,
            "dnsEnd" : -1,
            "receiveHeadersEnd" : 410,
            "sslEnd" : -1,
            "connectEnd" : 0,
            "connectStart" : 0,
            "id" : "download_6",
            "receivedTime" : "481.920999940485",
            "sslStart" : -1,
            "dnsStart" : -1,
            "receiveLast" : 71.9209999404848,
            "s_time" : 47.3779998719692,
            "sendEnd" : 0,
            "sendStart" : 0,
            "type" : "image/jpeg"
         }
      },
      {
         "when_comp_start" : -1,
         "url" : "http://original.testbed.localhost/www.hortjobs.com/images/logo.png",
         "id" : "r8",
         "comps" : [],
         "download" : {
            "receiveFirst" : 437,
            "len" : 29968,
            "dns" : 0,
            "dnsEnd" : -1,
            "receiveHeadersEnd" : 438,
            "sslEnd" : -1,
            "connectEnd" : 1,
            "connectStart" : 0,
            "id" : "download_7",
            "receivedTime" : "1481.10700002871",
            "sslStart" : -1,
            "dnsStart" : -1,
            "receiveLast" : 1043.10700002871,
            "s_time" : 47.9409999679774,
            "sendEnd" : 1,
            "sendStart" : 1,
            "type" : "image/png"
         }
      },
      {
         "when_comp_start" : -1,
         "url" : "http://original.testbed.localhost/www.hortjobs.com/images/menu-bg.png",
         "id" : "r9",
         "comps" : [],
         "download" : {
            "receiveFirst" : 751,
            "len" : 1017,
            "dns" : 0,
            "dnsEnd" : -1,
            "receiveHeadersEnd" : 892,
            "sslEnd" : -1,
            "connectEnd" : 141,
            "connectStart" : 0,
            "id" : "download_8",
            "receivedTime" : "941.388000035658",
            "sslStart" : -1,
            "dnsStart" : -1,
            "receiveLast" : 49.3880000356585,
            "s_time" : 48.1080000754446,
            "sendEnd" : 141,
            "sendStart" : 141,
            "type" : "image/png"
         }
      },
      {
         "when_comp_start" : -1,
         "url" : "http://original.testbed.localhost/www.hortjobs.com/images/menu-rollover.gif",
         "id" : "r10",
         "comps" : [],
         "download" : {
            "receiveFirst" : 807,
            "len" : 265,
            "dns" : 0,
            "dnsEnd" : -1,
            "receiveHeadersEnd" : 1206,
            "sslEnd" : -1,
            "connectEnd" : 399,
            "connectStart" : 0,
            "id" : "download_9",
            "receivedTime" : "1254.90000005811",
            "sslStart" : -1,
            "dnsStart" : -1,
            "receiveLast" : 48.9000000581145,
            "s_time" : 48.2840000186116,
            "sendEnd" : 399,
            "sendStart" : 399,
            "type" : "image/gif"
         }
      },
      {
         "when_comp_start" : -1,
         "url" : "http://original.testbed.localhost/www.hortjobs.com/images/wrapper-bg.png",
         "id" : "r11",
         "comps" : [],
         "download" : {
            "receiveFirst" : 780,
            "len" : 68394,
            "dns" : 0,
            "dnsEnd" : -1,
            "receiveHeadersEnd" : 1213,
            "sslEnd" : -1,
            "connectEnd" : 433,
            "connectStart" : 0,
            "id" : "download_10",
            "receivedTime" : "4733.2869998645",
            "sslStart" : -1,
            "dnsStart" : -1,
            "receiveLast" : 3520.2869998645,
            "s_time" : 48.5119998920709,
            "sendEnd" : 433,
            "sendStart" : 433,
            "type" : "image/png"
         }
      },
      {
         "when_comp_start" : -1,
         "url" : "http://original.testbed.localhost/www.hortjobs.com/images/extra-bg.jpg",
         "id" : "r12",
         "comps" : [],
         "download" : {
            "receiveFirst" : 1023,
            "len" : 33929,
            "dns" : 0,
            "dnsEnd" : -1,
            "receiveHeadersEnd" : 1916,
            "sslEnd" : -1,
            "connectEnd" : 893,
            "connectStart" : 0,
            "id" : "download_11",
            "receivedTime" : "4006.00899988785",
            "sslStart" : -1,
            "dnsStart" : -1,
            "receiveLast" : 2090.00899988785,
            "s_time" : 48.7120000179857,
            "sendEnd" : 893,
            "sendStart" : 893,
            "type" : "image/jpeg"
         }
      },
      {
         "when_comp_start" : -1,
         "url" : "http://original.testbed.localhost/www.hortjobs.com/images/post-a-job.png",
         "id" : "r13",
         "comps" : [],
         "download" : {
            "receiveFirst" : 1089,
            "len" : 4867,
            "dns" : 0,
            "dnsEnd" : -1,
            "receiveHeadersEnd" : 2295,
            "sslEnd" : -1,
            "connectEnd" : 1206,
            "connectStart" : 0,
            "id" : "download_12",
            "receivedTime" : "2381.04299991392",
            "sslStart" : -1,
            "dnsStart" : -1,
            "receiveLast" : 86.042999913916,
            "s_time" : 48.9580000285059,
            "sendEnd" : 1206,
            "sendStart" : 1206,
            "type" : "image/png"
         }
      },
      {
         "when_comp_start" : -1,
         "url" : "http://original.testbed.localhost/www.hortjobs.com/images/find-a-job.png",
         "id" : "r14",
         "comps" : [],
         "download" : {
            "receiveFirst" : 1004,
            "len" : 4911,
            "dns" : 0,
            "dnsEnd" : -1,
            "receiveHeadersEnd" : 2038,
            "sslEnd" : -1,
            "connectEnd" : 1034,
            "connectStart" : 0,
            "id" : "download_13",
            "receivedTime" : "2521.80300001055",
            "sslStart" : -1,
            "dnsStart" : -1,
            "receiveLast" : 483.80300001055,
            "s_time" : 447.23100005649,
            "sendEnd" : 1034,
            "sendStart" : 1034,
            "type" : "image/png"
         }
      },
      {
         "when_comp_start" : -1,
         "url" : "http://original.testbed.localhost/www.hortjobs.com/images/footer-bg.gif",
         "id" : "r15",
         "comps" : [],
         "download" : {
            "receiveFirst" : 740,
            "len" : 334,
            "dns" : 0,
            "dnsEnd" : -1,
            "receiveHeadersEnd" : 2579,
            "sslEnd" : -1,
            "connectEnd" : 1839,
            "connectStart" : 0,
            "id" : "download_14",
            "receivedTime" : "3061.4849999547",
            "sslStart" : -1,
            "dnsStart" : -1,
            "receiveLast" : 482.4849999547,
            "s_time" : 481.964000035077,
            "sendEnd" : 1839,
            "sendStart" : 1839,
            "type" : "image/gif"
         }
      },
      {
         "when_comp_start" : -1,
         "url" : "http://original.testbed.localhost/www.hortjobs.com/images/twitter.png",
         "id" : "r16",
         "comps" : [],
         "download" : {
            "receiveFirst" : 710,
            "len" : 4486,
            "dns" : 0,
            "dnsEnd" : -1,
            "receiveHeadersEnd" : 2149,
            "sslEnd" : -1,
            "connectEnd" : 1439,
            "connectStart" : 0,
            "id" : "download_15",
            "receivedTime" : "3127.57000001147",
            "sslStart" : -1,
            "dnsStart" : -1,
            "receiveLast" : 978.570000011474,
            "s_time" : 941.432999912649,
            "sendEnd" : 1439,
            "sendStart" : 1439,
            "type" : "image/png"
         }
      },
      {
         "when_comp_start" : -1,
         "url" : "http://original.testbed.localhost/www.hortjobs.com/HORTJOBS_ad_iframe/banner_images/florasearch.jpg",
         "id" : "r17",
         "comps" : [],
         "download" : {
            "receiveFirst" : 707,
            "len" : 29999,
            "dns" : 0,
            "dnsEnd" : -1,
            "receiveHeadersEnd" : 1974,
            "sslEnd" : -1,
            "connectEnd" : 1267,
            "connectStart" : 0,
            "id" : "download_16",
            "receivedTime" : "4135.11499995366",
            "sslStart" : -1,
            "dnsStart" : -1,
            "receiveLast" : 2161.11499995366,
            "s_time" : 1254.95299999602,
            "sendEnd" : 1267,
            "sendStart" : 1267,
            "type" : "image/jpeg"
         }
      }
   ],
   "deps" : [
      {
         "a2" : "download_16",
         "time" : -1,
         "id" : "dep1",
         "a1" : "r1_c1"
      },
      {
         "a2" : "download_15",
         "time" : 918.553999857977,
         "id" : "dep2",
         "a1" : "r1_c1"
      },
      {
         "a2" : "download_14",
         "time" : 459.084999980405,
         "id" : "dep3",
         "a1" : "r1_c1"
      },
      {
         "a2" : "download_13",
         "time" : 424.352000001818,
         "id" : "dep4",
         "a1" : "r1_c1"
      },
      {
         "a2" : "download_12",
         "time" : 5.1390000153333,
         "id" : "dep5",
         "a1" : "comp_4"
      },
      {
         "a2" : "download_11",
         "time" : 4.8930000048131,
         "id" : "dep6",
         "a1" : "comp_4"
      },
      {
         "a2" : "download_10",
         "time" : 4.6929998788983,
         "id" : "dep7",
         "a1" : "comp_4"
      },
      {
         "a2" : "download_9",
         "time" : 4.465000005439,
         "id" : "dep8",
         "a1" : "comp_4"
      },
      {
         "a2" : "download_8",
         "time" : 4.289000062272,
         "id" : "dep9",
         "a1" : "comp_4"
      },
      {
         "a2" : "download_7",
         "time" : 4.1219999548048,
         "id" : "dep10",
         "a1" : "comp_4"
      },
      {
         "a2" : "download_6",
         "time" : 3.5589998587966,
         "id" : "dep11",
         "a1" : "comp_4"
      },
      {
         "a2" : "download_5",
         "time" : 1.4740000478924,
         "id" : "dep12",
         "a1" : "comp_4"
      },
      {
         "a2" : "download_4",
         "time" : 2.0200000144541,
         "id" : "dep13",
         "a1" : "r1_c1"
      },
      {
         "a2" : "download_3",
         "time" : 1.7709999810904,
         "id" : "dep14",
         "a1" : "r1_c1"
      },
      {
         "a2" : "download_2",
         "time" : 1.4680000022053,
         "id" : "dep15",
         "a1" : "r1_c1"
      },
      {
         "a2" : "download_1",
         "time" : 0.492999795824201,
         "id" : "dep16",
         "a1" : "r1_c1"
      }
   ]
}
