{
   "n_download_no_trigger" : 1,
   "start_activity" : "download_0",
   "name" : "original.testbed.localhost_www.meilende.com_",
   "load_activity" : -1,
   "objs" : [
      {
         "when_comp_start" : 1,
         "url" : "http://original.testbed.localhost/www.meilende.com/",
         "id" : "r1",
         "comps" : [
            {
               "s_time" : 162.912000203505,
               "time" : 2.14699981734202,
               "id" : "r1_c1",
               "type" : "evalhtml",
               "e_time" : 165.059000020847
            },
            {
               "s_time" : 322.606000117958,
               "time" : 0.666999956593031,
               "id" : "r1_c2",
               "type" : "evalhtml",
               "e_time" : 323.273000074551
            },
            {
               "s_time" : 490.9040001221,
               "time" : 1.31900003179902,
               "id" : "r1_c3",
               "type" : "evalhtml",
               "e_time" : 492.223000153899
            },
            {
               "s_time" : 1047.89300006814,
               "time" : -1094880678.658,
               "id" : "r1_c4",
               "type" : "evalhtml",
               "e_time" : -1094879630.765
            },
            {
               "s_time" : 1048.24700020254,
               "time" : -1094880679.012,
               "id" : "r1_c5",
               "type" : "evalhtml",
               "e_time" : -1094879630.765
            },
            {
               "s_time" : 1048.67200017907,
               "time" : -1094880679.437,
               "id" : "r1_c6",
               "type" : "evalhtml",
               "e_time" : -1094879630.765
            },
            {
               "s_time" : 1048.90900012106,
               "time" : -1094880679.674,
               "id" : "r1_c7",
               "type" : "evalhtml",
               "e_time" : -1094879630.765
            },
            {
               "s_time" : 1050.23600021377,
               "time" : 1394.77399992757,
               "id" : "r1_c8",
               "type" : "evalhtml",
               "e_time" : 2445.01000014134
            },
            {
               "s_time" : 2448.31700017676,
               "time" : 730.25799985043,
               "type" : "evalhtml",
               "id" : "r1_c9",
               "e_time" : 3178.57500002719
            }
         ],
         "download" : {
            "receiveFirst" : 151,
            "len" : 18714,
            "dns" : 0,
            "dnsEnd" : -1,
            "receiveHeadersEnd" : 151,
            "sslEnd" : -1,
            "connectEnd" : 0,
            "connectStart" : 0,
            "id" : "download_0",
            "receivedTime" : "162.585000041872",
            "sslStart" : -1,
            "dnsStart" : -1,
            "receiveLast" : 11.5850000418723,
            "s_time" : 0,
            "sendEnd" : 0,
            "sendStart" : 0,
            "type" : "text/html"
         }
      },
      {
         "when_comp_start" : -1,
         "url" : "http://original.testbed.localhost/www.meilende.com/public/dark2.css%3Fv=3.12.css",
         "id" : "r2",
         "comps" : [
            {
               "s_time" : 318.475000094622,
               "time" : 2.912000054494,
               "type" : 4,
               "id" : "comp_0",
               "e_time" : 321.387000149116
            }
         ],
         "download" : {
            "receiveFirst" : 151,
            "len" : 6069,
            "dns" : 0,
            "dnsEnd" : -1,
            "receiveHeadersEnd" : 153,
            "sslEnd" : -1,
            "connectEnd" : 2,
            "connectStart" : 0,
            "id" : "download_1",
            "receivedTime" : "318.392000161111",
            "sslStart" : -1,
            "dnsStart" : -1,
            "receiveLast" : 165.392000161111,
            "s_time" : 164.04000017792,
            "sendEnd" : 2,
            "sendStart" : 2,
            "type" : "text/css"
         }
      },
      {
         "when_comp_start" : -1,
         "url" : "http://original.testbed.localhost/www.meilende.com/public/tr.js",
         "id" : "r3",
         "comps" : [
            {
               "s_time" : 321.699000196531,
               "time" : 0.906999921426973,
               "type" : 1,
               "id" : "comp_1",
               "e_time" : 322.606000117958
            }
         ],
         "download" : {
            "receiveFirst" : 151,
            "len" : 1895,
            "dns" : 0,
            "dnsEnd" : -1,
            "receiveHeadersEnd" : 153,
            "sslEnd" : -1,
            "connectEnd" : 2,
            "connectStart" : 0,
            "id" : "download_2",
            "receivedTime" : "321.641000220552",
            "sslStart" : -1,
            "dnsStart" : -1,
            "receiveLast" : 168.641000220552,
            "s_time" : 164.267000043765,
            "sendEnd" : 2,
            "sendStart" : 2,
            "type" : "application/javascript"
         }
      },
      {
         "when_comp_start" : -1,
         "url" : "http://original.testbed.localhost/www.google.com/jsapi",
         "id" : "r5",
         "comps" : [
            {
               "s_time" : 484.935000073165,
               "time" : 5.96900004893502,
               "type" : 1,
               "id" : "comp_2",
               "e_time" : 490.9040001221
            }
         ],
         "download" : {
            "receiveFirst" : 153,
            "len" : 24350,
            "dns" : 0,
            "dnsEnd" : -1,
            "receiveHeadersEnd" : 154,
            "sslEnd" : -1,
            "connectEnd" : 1,
            "connectStart" : 0,
            "id" : "download_3",
            "receivedTime" : "484.854000154883",
            "sslStart" : -1,
            "dnsStart" : -1,
            "receiveLast" : 330.854000154883,
            "s_time" : 164.815000025555,
            "sendEnd" : 1,
            "sendStart" : 1,
            "type" : "text/plain"
         }
      },
      {
         "when_comp_start" : -1,
         "url" : "http://original.testbed.localhost/ajax.googleapis.com/ajax/libs/scriptaculous/1.9.0/scriptaculous.js",
         "id" : "r6",
         "comps" : [],
         "download" : {
            "receiveFirst" : 177,
            "len" : 2931,
            "dns" : 0,
            "dnsEnd" : -1,
            "receiveHeadersEnd" : 178,
            "sslEnd" : -1,
            "connectEnd" : 1,
            "connectStart" : 0,
            "id" : "download_4",
            "receivedTime" : "346.892000176013",
            "sslStart" : -1,
            "dnsStart" : -1,
            "receiveLast" : 168.892000176013,
            "s_time" : 165.059000020847,
            "sendEnd" : 1,
            "sendStart" : 1,
            "type" : "application/javascript"
         }
      },
      {
         "when_comp_start" : -1,
         "url" : "http://original.testbed.localhost/www.meilende.com/public/kb/keyboard.js",
         "id" : "r4",
         "comps" : [
            {
               "s_time" : 537.50400012359,
               "time" : 32.699000090361,
               "type" : 3,
               "id" : "comp_4",
               "e_time" : 570.203000213951
            }
         ],
         "download" : {
            "receiveFirst" : 187,
            "len" : 160995,
            "dns" : 0,
            "dnsEnd" : -1,
            "receiveHeadersEnd" : 188,
            "sslEnd" : -1,
            "connectEnd" : 1,
            "connectStart" : 0,
            "id" : "download_5",
            "receivedTime" : "537.2670001816",
            "sslStart" : -1,
            "dnsStart" : -1,
            "receiveLast" : 349.2670001816,
            "s_time" : 164.522000122815,
            "sendEnd" : 1,
            "sendStart" : 1,
            "type" : "application/javascript"
         }
      },
      {
         "when_comp_start" : -1,
         "url" : "http://original.testbed.localhost/pagead2.googlesyndication.com/pagead/js/adsbygoogle.js",
         "id" : "r7",
         "comps" : [
            {
               "s_time" : 1065.77300000936,
               "time" : 56.98300013318,
               "type" : 3,
               "id" : "comp_27",
               "e_time" : 1122.75600014254
            },
            {
               "s_time" : 1122.77000001632,
               "time" : 6.02199998684,
               "type" : 3,
               "id" : "comp_52",
               "e_time" : 1128.79200000316
            }
         ],
         "download" : {
            "receiveFirst" : 162,
            "len" : 35234,
            "dns" : 0,
            "dnsEnd" : -1,
            "receiveHeadersEnd" : 162,
            "sslEnd" : -1,
            "connectEnd" : 0,
            "connectStart" : 0,
            "id" : "download_6",
            "receivedTime" : "506.657000165433",
            "sslStart" : -1,
            "dnsStart" : -1,
            "receiveLast" : 344.657000165433,
            "s_time" : 323.273000074551,
            "sendEnd" : 0,
            "sendStart" : 0,
            "type" : "application/javascript"
         }
      },
      {
         "when_comp_start" : -1,
         "url" : "http://ajax.googleapis.com/ajax/libs/prototype/1.7.0.0/prototype.js",
         "id" : "r8",
         "comps" : [
            {
               "s_time" : 865.508000133559,
               "time" : 26.01999999024,
               "type" : 4,
               "id" : "comp_6",
               "e_time" : 891.528000123799
            }
         ],
         "download" : {
            "receiveFirst" : 167,
            "len" : 163313,
            "dns" : 0,
            "dnsEnd" : -1,
            "receiveHeadersEnd" : 167,
            "sslEnd" : -1,
            "connectEnd" : 0,
            "connectStart" : 0,
            "id" : "download_7",
            "receivedTime" : "865.437000058591",
            "sslStart" : -1,
            "dnsStart" : -1,
            "receiveLast" : 698.437000058591,
            "s_time" : 492.223000153899,
            "sendEnd" : 0,
            "sendStart" : 0,
            "type" : "text/javascript"
         }
      },
      {
         "when_comp_start" : -1,
         "url" : "http://original.testbed.localhost/www.meilende.com/public/flags/ko.png",
         "id" : "r17",
         "comps" : [],
         "download" : {
            "receiveFirst" : 151,
            "len" : 567,
            "dns" : 0,
            "dnsEnd" : -1,
            "receiveHeadersEnd" : 151,
            "sslEnd" : -1,
            "connectEnd" : 0,
            "connectStart" : 0,
            "id" : "download_8",
            "receivedTime" : "1203.39200017042",
            "sslStart" : -1,
            "dnsStart" : -1,
            "receiveLast" : 1052.39200017042,
            "s_time" : 1051.10500007868,
            "sendEnd" : 0,
            "sendStart" : 0,
            "type" : "image/png"
         }
      },
      {
         "when_comp_start" : -1,
         "url" : "http://original.testbed.localhost/www.meilende.com/public/flags/en.png",
         "id" : "r16",
         "comps" : [],
         "download" : {
            "receiveFirst" : 151,
            "len" : 210,
            "dns" : 0,
            "dnsEnd" : -1,
            "receiveHeadersEnd" : 152,
            "sslEnd" : -1,
            "connectEnd" : 1,
            "connectStart" : 0,
            "id" : "download_9",
            "receivedTime" : "1203.73900001869",
            "sslStart" : -1,
            "dnsStart" : -1,
            "receiveLast" : 1051.73900001869,
            "s_time" : 1050.87900022045,
            "sendEnd" : 1,
            "sendStart" : 1,
            "type" : "image/png"
         }
      },
      {
         "when_comp_start" : -1,
         "url" : "http://www.google-analytics.com/analytics.js",
         "id" : "r18",
         "comps" : [
            {
               "s_time" : 1219.24500004388,
               "time" : 54.32700016536,
               "type" : 2,
               "id" : "comp_70",
               "e_time" : 1273.57200020924
            }
         ],
         "download" : {
            "receiveFirst" : 154,
            "len" : 26303,
            "dns" : 0,
            "dnsEnd" : -1,
            "receiveHeadersEnd" : 154,
            "sslEnd" : -1,
            "connectEnd" : 0,
            "connectStart" : 0,
            "id" : "download_10",
            "receivedTime" : "1219.06600007787",
            "sslStart" : -1,
            "dnsStart" : -1,
            "receiveLast" : 1065.06600007787,
            "s_time" : 1052.51900013536,
            "sendEnd" : 0,
            "sendStart" : 0,
            "type" : "text/javascript"
         }
      },
      {
         "when_comp_start" : -1,
         "url" : "http://www.google-analytics.com/collect?v=1&_v=j39&a=1371883624&t=pageview&_s=1&dl=http%3A%2F%2Foriginal.testbed.localhost%2Fwww.meilende.com%2F&ul=en-us&de=UTF-8&dt=Global%20database%20of%20translators%20%7C%20meilende.com&sd=24-bit&sr=1024x768&vp=1009x601&je=1&_u=QGAAgEQ~&jid=1190928633&cid=654475",
         "id" : "r22",
         "comps" : [],
         "download" : {
            "receiveFirst" : 155,
            "len" : 35,
            "dns" : 0,
            "dnsEnd" : -1,
            "receiveHeadersEnd" : 155,
            "sslEnd" : -1,
            "connectEnd" : 0,
            "connectStart" : 0,
            "id" : "download_11",
            "receivedTime" : "1428.04300016724",
            "sslStart" : -1,
            "dnsStart" : -1,
            "receiveLast" : 1273.04300016724,
            "s_time" : 1271.99000003748,
            "sendEnd" : 0,
            "sendStart" : 0,
            "type" : "image/gif"
         }
      },
      {
         "when_comp_start" : -1,
         "url" : "https://pagead2.googlesyndication.com/pub-config/ca-pub-7647018814670339.js",
         "id" : "r19",
         "comps" : [
            {
               "s_time" : 1557.60300019756,
               "time" : 0.53699989802999,
               "type" : 2,
               "id" : "comp_74",
               "e_time" : 1558.14000009559
            }
         ],
         "download" : {
            "receiveFirst" : 227,
            "len" : 107,
            "dns" : 0,
            "dnsEnd" : -1,
            "receiveHeadersEnd" : 461,
            "sslEnd" : 233,
            "connectEnd" : 233,
            "connectStart" : 0,
            "id" : "download_12",
            "receivedTime" : "1557.45300021954",
            "sslStart" : 0,
            "dnsStart" : -1,
            "receiveLast" : 1096.45300021954,
            "s_time" : 1095.0460000895,
            "sendEnd" : 234,
            "sendStart" : 233,
            "type" : "text/javascript"
         }
      },
      {
         "when_comp_start" : -1,
         "url" : "http://pagead2.googlesyndication.com/pagead/js/r20150910/r20150820/show_ads_impl.js",
         "id" : "r21",
         "comps" : [
            {
               "s_time" : 2383.48900014535,
               "time" : 64.8280000314098,
               "type" : 1,
               "id" : "comp_94",
               "e_time" : 2448.31700017676
            },
            {
               "s_time" : 2292.49200015329,
               "time" : 85.3669999632998,
               "type" : null,
               "id" : "comp_82",
               "e_time" : 2377.85900011659
            }
         ],
         "download" : {
            "receiveFirst" : 254,
            "len" : 257843,
            "dns" : 0,
            "dnsEnd" : 0,
            "receiveHeadersEnd" : 481,
            "sslEnd" : -1,
            "connectEnd" : 227,
            "connectStart" : 0,
            "id" : "download_13",
            "receivedTime" : "2291.97800019756",
            "sslStart" : -1,
            "dnsStart" : 0,
            "receiveLast" : 1810.97800019756,
            "s_time" : 1109.19800004922,
            "sendEnd" : 227,
            "sendStart" : 227,
            "type" : "text/javascript"
         }
      },
      {
         "when_comp_start" : 1,
         "url" : "https://googleads.g.doubleclick.net/pagead/html/r20150910/r20150820/zrt_lookup.html",
         "id" : "r20",
         "comps" : [
            {
               "s_time" : 1822.70200015046,
               "time" : 3.47099988720993,
               "type" : "evalhtml",
               "id" : "r20_c1",
               "e_time" : 1826.17300003767
            }
         ],
         "download" : {
            "receiveFirst" : 228,
            "len" : 9009,
            "dns" : 0,
            "dnsEnd" : 0,
            "receiveHeadersEnd" : 706,
            "sslEnd" : 478,
            "connectEnd" : 478,
            "connectStart" : 0,
            "id" : "download_14",
            "receivedTime" : "1822.36800016835",
            "sslStart" : 225,
            "dnsStart" : 0,
            "receiveLast" : 1116.36800016835,
            "s_time" : 1109.74200000055,
            "sendEnd" : 478,
            "sendStart" : 478,
            "type" : "text/html"
         }
      },
      {
         "when_comp_start" : -1,
         "url" : "https://www.google.com/ads/ga-audiences?v=1&aip=1&t=sr&_r=4&tid=UA-56072670-1&cid=654475432.1442529675&jid=1190928633&_v=j39&z=443790625",
         "id" : "r23",
         "comps" : [],
         "download" : {
            "receiveFirst" : 207,
            "len" : 42,
            "dns" : 0,
            "dnsEnd" : -1,
            "receiveHeadersEnd" : 367,
            "sslEnd" : 159,
            "connectEnd" : 159,
            "connectStart" : 0,
            "id" : "download_15",
            "receivedTime" : "2119.51400013641",
            "sslStart" : 0,
            "dnsStart" : -1,
            "receiveLast" : 1752.51400013641,
            "s_time" : 1751.47400004789,
            "sendEnd" : 160,
            "sendStart" : 159,
            "type" : "image/gif"
         }
      },
      {
         "when_comp_start" : -1,
         "url" : "https://pagead2.googlesyndication.com/pagead/js/r20150910/r20150820/expansion_embed.js",
         "id" : "r25",
         "comps" : [
            {
               "s_time" : 2956.84900018387,
               "time" : 38.8159998692499,
               "type" : 2,
               "id" : "comp_108",
               "e_time" : 2995.66500005312
            },
            {
               "s_time" : 2995.68900000304,
               "time" : 33.7259999942003,
               "type" : 2,
               "id" : "comp_110",
               "e_time" : 3029.41499999724
            }
         ],
         "download" : {
            "receiveFirst" : 228,
            "len" : 172728,
            "dns" : 0,
            "dnsEnd" : -1,
            "receiveHeadersEnd" : 228,
            "sslEnd" : -1,
            "connectEnd" : 0,
            "connectStart" : 0,
            "id" : "download_16",
            "receivedTime" : "2956.54300018214",
            "sslStart" : -1,
            "dnsStart" : -1,
            "receiveLast" : 2728.54300018214,
            "s_time" : 2379.33400017209,
            "sendEnd" : 0,
            "sendStart" : 0,
            "type" : "text/javascript"
         }
      },
      {
         "when_comp_start" : 1,
         "url" : "https://googleads.g.doubleclick.net/pagead/ads?client=ca-pub-7647018814670339&format=728x180&output=html&h=180&slotname=3267443605&adk=699371006&w=728&lmt=1442544070&flash=0&url=http%3A%2F%2Foriginal.testbed.localhost%2Fwww.meilende.com%2F&wgl=1&dt=1442529674965&bpp=31&bdt=912&shv=r20150910&cbv=r201",
         "id" : "r24",
         "comps" : [
            {
               "s_time" : 2832.08600012586,
               "time" : 1094.32799997739,
               "type" : "evalhtml",
               "id" : "r24_c1",
               "e_time" : 3926.41400010325
            }
         ],
         "download" : {
            "receiveFirst" : 443,
            "len" : 153365,
            "dns" : 0,
            "dnsEnd" : -1,
            "receiveHeadersEnd" : 443,
            "sslEnd" : -1,
            "connectEnd" : 0,
            "connectStart" : 0,
            "id" : "download_17",
            "receivedTime" : "3169.21300021932",
            "sslStart" : -1,
            "dnsStart" : -1,
            "receiveLast" : 2726.21300021932,
            "s_time" : 2374.62900020182,
            "sendEnd" : 0,
            "sendStart" : 0,
            "type" : "text/html"
         }
      },
      {
         "when_comp_start" : -1,
         "url" : "https://pagead2.googlesyndication.com/pagead/osd.js",
         "id" : "r26",
         "comps" : [
            {
               "s_time" : 3196.86000002548,
               "time" : 16.5820000693197,
               "type" : 2,
               "id" : "comp_122",
               "e_time" : 3213.4420000948
            }
         ],
         "download" : {
            "receiveFirst" : 578,
            "len" : 58944,
            "dns" : 0,
            "dnsEnd" : -1,
            "receiveHeadersEnd" : 578,
            "sslEnd" : -1,
            "connectEnd" : 0,
            "connectStart" : 0,
            "id" : "download_18",
            "receivedTime" : "3178.23700001463",
            "sslStart" : -1,
            "dnsStart" : -1,
            "receiveLast" : 2600.23700001463,
            "s_time" : 2379.82900021598,
            "sendEnd" : 0,
            "sendStart" : 0,
            "type" : "text/javascript"
         }
      },
      {
         "when_comp_start" : 1,
         "url" : "https://googleads.g.doubleclick.net/pagead/ads?client=ca-pub-7647018814670339&format=970x90&output=html&h=90&slotname=4744176800&adk=3392596394&w=970&lmt=1442544070&loeid=17415661&flash=0&url=http%3A%2F%2Foriginal.testbed.localhost%2Fwww.meilende.com%2F&wgl=1&dt=1442529675001&bpp=13&bdt=948&shv=r201",
         "id" : "r28",
         "comps" : [
            {
               "s_time" : 3178.43500012532,
               "time" : 17.1199999749597,
               "id" : "r28_c1",
               "type" : "evalhtml",
               "e_time" : 3195.55500010028
            },
            {
               "s_time" : 3670.44100002386,
               "time" : 42.0050001703203,
               "type" : "evalhtml",
               "id" : "r28_c2",
               "e_time" : 3712.44600019418
            }
         ],
         "download" : {
            "receiveFirst" : 704,
            "len" : 173502,
            "dns" : 0,
            "dnsEnd" : -1,
            "receiveHeadersEnd" : 704,
            "sslEnd" : -1,
            "connectEnd" : 0,
            "connectStart" : 0,
            "id" : "download_19",
            "receivedTime" : "3174.98700018041",
            "sslStart" : -1,
            "dnsStart" : -1,
            "receiveLast" : 2470.98700018041,
            "s_time" : 2445.01000014134,
            "sendEnd" : 0,
            "sendStart" : 0,
            "type" : "text/html"
         }
      },
      {
         "when_comp_start" : -1,
         "url" : "https://tpc.googlesyndication.com/pagead/js/r20150915/r20110914/abg.js",
         "id" : "r32",
         "comps" : [
            {
               "s_time" : 3659.90700013936,
               "time" : 10.5339998844997,
               "type" : 1,
               "id" : "comp_128",
               "e_time" : 3670.44100002386
            },
            {
               "s_time" : 3714.57900013775,
               "time" : 6.89299986697006,
               "type" : null,
               "id" : "comp_144",
               "e_time" : 3721.47200000472
            }
         ],
         "download" : {
            "receiveFirst" : 154,
            "len" : 50713,
            "dns" : 0,
            "dnsEnd" : 0,
            "receiveHeadersEnd" : 471,
            "sslEnd" : 313,
            "connectEnd" : 313,
            "connectStart" : 0,
            "id" : "download_20",
            "receivedTime" : "3659.77000002749",
            "sslStart" : 154,
            "dnsStart" : 0,
            "receiveLast" : 3188.77000002749,
            "s_time" : 3163.24400017038,
            "sendEnd" : 317,
            "sendStart" : 313,
            "type" : "text/javascript"
         }
      },
      {
         "when_comp_start" : -1,
         "url" : "https://tpc.googlesyndication.com/pagead/images/nessie_icon_tiamat_white.png",
         "id" : "r31",
         "comps" : [],
         "download" : {
            "receiveFirst" : 179,
            "len" : 225,
            "dns" : 0,
            "dnsEnd" : -1,
            "receiveHeadersEnd" : 498,
            "sslEnd" : -1,
            "connectEnd" : 315,
            "connectStart" : 0,
            "id" : "download_21",
            "receivedTime" : "3746.70200003311",
            "sslStart" : -1,
            "dnsStart" : -1,
            "receiveLast" : 3248.70200003311,
            "s_time" : 3161.45000001416,
            "sendEnd" : 319,
            "sendStart" : 315,
            "type" : "image/png"
         }
      },
      {
         "when_comp_start" : -1,
         "url" : "http://www.google-analytics.com/collect?v=1&_v=j39&a=1371883624&t=event&_s=2&dl=http%3A%2F%2Foriginal.testbed.localhost%2Fwww.meilende.com%2F&ul=en-us&de=UTF-8&dt=Global%20database%20of%20translators%20%7C%20meilende.com&sd=24-bit&sr=1024x768&vp=1009x601&je=1&ec=Time&ea=2&_u=SGAAgEQ~&jid=&cid=654475",
         "id" : "r29",
         "comps" : [],
         "download" : {
            "receiveFirst" : 606,
            "len" : 35,
            "dns" : 0,
            "dnsEnd" : -1,
            "receiveHeadersEnd" : 606,
            "sslEnd" : -1,
            "connectEnd" : 0,
            "connectStart" : 0,
            "id" : "download_22",
            "receivedTime" : "3747.26000009105",
            "sslStart" : -1,
            "dnsStart" : -1,
            "receiveLast" : 3141.26000009105,
            "s_time" : 3056.61900015548,
            "sendEnd" : 0,
            "sendStart" : 0,
            "type" : "image/gif"
         }
      },
      {
         "when_comp_start" : -1,
         "url" : "https://encrypted-tbn3.gstatic.com/favicon?q=tbn:ANd9GcRlXBNMQG6eFglzbIPPvUKFns1x12exJR70AQFJAzEostmkxuwD5m4V40gzaAiWRchUIXh5uF1Tg8vdllRujpnanUJnHBwWKqx7_xxZSAvZjCB6pA",
         "id" : "r30",
         "comps" : [],
         "download" : {
            "receiveFirst" : 175,
            "len" : 289,
            "dns" : 0,
            "dnsEnd" : 1,
            "receiveHeadersEnd" : 503,
            "sslEnd" : 327,
            "connectEnd" : 328,
            "connectStart" : 0,
            "id" : "download_23",
            "receivedTime" : "3747.66600015573",
            "sslStart" : 161,
            "dnsStart" : 1,
            "receiveLast" : 3244.66600015573,
            "s_time" : 3161.17600002326,
            "sendEnd" : 328,
            "sendStart" : 328,
            "type" : "image/png"
         }
      },
      {
         "when_comp_start" : -1,
         "url" : "https://www.gstatic.com/images/branding/googlelogo/1x/googlelogo_color_112x36dp.png",
         "id" : "r33",
         "comps" : [],
         "download" : {
            "receiveFirst" : 160,
            "len" : 2449,
            "dns" : 0,
            "dnsEnd" : 2,
            "receiveHeadersEnd" : 489,
            "sslEnd" : 328,
            "connectEnd" : 329,
            "connectStart" : 0,
            "id" : "download_24",
            "receivedTime" : "3748.21100011468",
            "sslStart" : 160,
            "dnsStart" : 2,
            "receiveLast" : 3259.21100011468,
            "s_time" : 3178.57500002719,
            "sendEnd" : 329,
            "sendStart" : 329,
            "type" : "image/png"
         }
      },
      {
         "when_comp_start" : -1,
         "url" : "https://tpc.googlesyndication.com/pagead/images/x_button_blue2.png",
         "id" : "r36",
         "comps" : [],
         "download" : {
            "receiveFirst" : 155,
            "len" : 145,
            "dns" : 0,
            "dnsEnd" : -1,
            "receiveHeadersEnd" : 155,
            "sslEnd" : -1,
            "connectEnd" : 0,
            "connectStart" : 0,
            "id" : "download_25",
            "receivedTime" : "3870.65000017174",
            "sslStart" : -1,
            "dnsStart" : -1,
            "receiveLast" : 3715.65000017174,
            "s_time" : 3714.2490001861,
            "sendEnd" : 0,
            "sendStart" : 0,
            "type" : "image/png"
         }
      },
      {
         "when_comp_start" : 1,
         "url" : "https://googleads.g.doubleclick.net/pagead/drt/s?v=r20120211",
         "id" : "r35",
         "comps" : [
            {
               "s_time" : 3918.51200000383,
               "time" : 0.669000204649819,
               "type" : "evalhtml",
               "id" : "r35_c1",
               "e_time" : 3919.18100020848
            }
         ],
         "download" : {
            "receiveFirst" : 227,
            "len" : 143,
            "dns" : 0,
            "dnsEnd" : -1,
            "receiveHeadersEnd" : 228,
            "sslEnd" : -1,
            "connectEnd" : 0,
            "connectStart" : 0,
            "id" : "download_26",
            "receivedTime" : "3911.41500021331",
            "sslStart" : -1,
            "dnsStart" : -1,
            "receiveLast" : 3683.41500021331,
            "s_time" : 3682.67600005493,
            "sendEnd" : 1,
            "sendStart" : 0,
            "type" : "text/html"
         }
      },
      {
         "when_comp_start" : 1,
         "url" : "https://googleads.g.doubleclick.net/pagead/drt/s?v=r20120211",
         "id" : "r37",
         "comps" : [],
         "download" : {
            "receiveFirst" : 178,
            "len" : 143,
            "dns" : 0,
            "dnsEnd" : -1,
            "receiveHeadersEnd" : 178,
            "sslEnd" : -1,
            "connectEnd" : 0,
            "connectStart" : 0,
            "id" : "download_27",
            "receivedTime" : "3915.23800021969",
            "sslStart" : -1,
            "dnsStart" : -1,
            "receiveLast" : 3737.23800021969,
            "s_time" : 3732.79600008391,
            "sendEnd" : 0,
            "sendStart" : 0,
            "type" : "text/html"
         }
      },
      {
         "when_comp_start" : -1,
         "url" : "https://encrypted-tbn2.gstatic.com/favicon?q=tbn:ANd9GcS1CwmTV5UBOirwN-PB7l8fI2q0VcKgyDQ9PivC9w966ZF6Igj0GgMj7_3kVf7hjjF5S3-7Jjl_",
         "id" : "r34",
         "comps" : [],
         "download" : {
            "receiveFirst" : 170,
            "len" : 726,
            "dns" : 0,
            "dnsEnd" : -1,
            "receiveHeadersEnd" : 786,
            "sslEnd" : -1,
            "connectEnd" : 615,
            "connectStart" : 0,
            "id" : "download_28",
            "receivedTime" : "3982.84200020134",
            "sslStart" : -1,
            "dnsStart" : -1,
            "receiveLast" : 3196.84200020134,
            "s_time" : 3195.55500010028,
            "sendEnd" : 616,
            "sendStart" : 615,
            "type" : "image/png"
         }
      }
   ],
   "deps" : [
      {
         "a2" : "r1_c2",
         "time" : -1,
         "id" : "dep1",
         "a1" : "comp_1"
      },
      {
         "a2" : "r1_c3",
         "time" : -1,
         "id" : "dep2",
         "a1" : "comp_2"
      },
      {
         "a2" : "r1_c4",
         "time" : -1,
         "id" : "dep3",
         "a1" : "comp_11"
      },
      {
         "a2" : "r1_c5",
         "time" : -1,
         "id" : "dep4",
         "a1" : "comp_12"
      },
      {
         "a2" : "r1_c6",
         "time" : -1,
         "id" : "dep5",
         "a1" : "comp_13"
      },
      {
         "a2" : "r1_c7",
         "time" : -1,
         "id" : "dep6",
         "a1" : "comp_14"
      },
      {
         "a2" : "r1_c8",
         "time" : -1,
         "id" : "dep7",
         "a1" : "comp_15"
      },
      {
         "a2" : "r1_c9",
         "time" : -1,
         "id" : "dep8",
         "a1" : "comp_94"
      },
      {
         "a2" : "comp_1",
         "time" : -1,
         "id" : "dep9",
         "a1" : "comp_0"
      },
      {
         "a2" : "comp_2",
         "time" : -1,
         "id" : "dep10",
         "a1" : "comp_1"
      },
      {
         "a2" : "r28_c2",
         "time" : -1,
         "id" : "dep11",
         "a1" : "comp_128"
      },
      {
         "a2" : "download_28",
         "time" : -1,
         "id" : "dep12",
         "a1" : "r28_c1"
      },
      {
         "a2" : "download_28",
         "time" : 363.46899997442,
         "id" : "dep13",
         "a1" : "r24_c1"
      },
      {
         "a2" : "download_27",
         "time" : 900.70999995805,
         "id" : "dep14",
         "a1" : "r24_c1"
      },
      {
         "a2" : "download_26",
         "time" : 12.2350000310698,
         "id" : "dep15",
         "a1" : "r28_c2"
      },
      {
         "a2" : "download_26",
         "time" : 850.58999992907,
         "id" : "dep16",
         "a1" : "r24_c1"
      },
      {
         "a2" : "download_25",
         "time" : 882.16300006024,
         "id" : "dep17",
         "a1" : "r24_c1"
      },
      {
         "a2" : "download_24",
         "time" : -1,
         "id" : "dep18",
         "a1" : "r1_c9"
      },
      {
         "a2" : "download_24",
         "time" : 0.139999901869942,
         "id" : "dep19",
         "a1" : "r28_c1"
      },
      {
         "a2" : "download_24",
         "time" : 346.48899990133,
         "id" : "dep20",
         "a1" : "r24_c1"
      },
      {
         "a2" : "download_23",
         "time" : 329.0899998974,
         "id" : "dep21",
         "a1" : "r24_c1"
      },
      {
         "a2" : "download_22",
         "time" : 224.53300002962,
         "id" : "dep22",
         "a1" : "r24_c1"
      },
      {
         "a2" : "download_21",
         "time" : 329.3639998883,
         "id" : "dep23",
         "a1" : "r24_c1"
      },
      {
         "a2" : "download_20",
         "time" : 331.15800004452,
         "id" : "dep24",
         "a1" : "r24_c1"
      },
      {
         "a2" : "download_19",
         "time" : -1,
         "id" : "dep25",
         "a1" : "r1_c8"
      },
      {
         "a2" : "download_18",
         "time" : 1329.59300000221,
         "id" : "dep26",
         "a1" : "r1_c8"
      },
      {
         "a2" : "download_17",
         "time" : 82.1370000485299,
         "id" : "dep27",
         "a1" : "comp_82"
      },
      {
         "a2" : "download_16",
         "time" : 1329.09799995832,
         "id" : "dep28",
         "a1" : "r1_c8"
      },
      {
         "a2" : "download_15",
         "time" : 701.23799983412,
         "id" : "dep29",
         "a1" : "r1_c8"
      },
      {
         "a2" : "download_14",
         "time" : 59.50599978678,
         "id" : "dep30",
         "a1" : "r1_c8"
      },
      {
         "a2" : "download_13",
         "time" : 58.9619998354499,
         "id" : "dep31",
         "a1" : "r1_c8"
      },
      {
         "a2" : "download_13",
         "time" : 58.9619998354499,
         "id" : "dep32",
         "a1" : "r1_c8"
      },
      {
         "a2" : "download_12",
         "time" : 44.80999987573,
         "id" : "dep33",
         "a1" : "r1_c8"
      },
      {
         "a2" : "download_11",
         "time" : 221.75399982371,
         "id" : "dep34",
         "a1" : "r1_c8"
      },
      {
         "a2" : "download_10",
         "time" : 2.28299992159009,
         "id" : "dep35",
         "a1" : "r1_c8"
      },
      {
         "a2" : "download_9",
         "time" : 0.64300000668004,
         "id" : "dep36",
         "a1" : "r1_c8"
      },
      {
         "a2" : "download_9",
         "time" : 0.64300000668004,
         "id" : "dep37",
         "a1" : "r1_c8"
      },
      {
         "a2" : "download_8",
         "time" : 0.868999864909938,
         "id" : "dep38",
         "a1" : "r1_c8"
      },
      {
         "a2" : "download_8",
         "time" : 0.868999864909938,
         "id" : "dep39",
         "a1" : "r1_c8"
      },
      {
         "a2" : "download_7",
         "time" : -1,
         "id" : "dep40",
         "a1" : "r1_c3"
      },
      {
         "a2" : "download_7",
         "time" : 1.31900003179902,
         "id" : "dep41",
         "a1" : "r1_c3"
      },
      {
         "a2" : "download_6",
         "time" : -1,
         "id" : "dep42",
         "a1" : "r1_c2"
      },
      {
         "a2" : "download_6",
         "time" : 0.666999956593031,
         "id" : "dep43",
         "a1" : "r1_c2"
      },
      {
         "a2" : "download_5",
         "time" : -1,
         "id" : "dep44",
         "a1" : "r1_c1"
      },
      {
         "a2" : "download_5",
         "time" : 1.60999991931001,
         "id" : "dep45",
         "a1" : "r1_c1"
      },
      {
         "a2" : "download_4",
         "time" : -1,
         "id" : "dep46",
         "a1" : "r1_c1"
      },
      {
         "a2" : "download_3",
         "time" : 1.90299982205002,
         "id" : "dep47",
         "a1" : "r1_c1"
      },
      {
         "a2" : "download_2",
         "time" : 1.35499984026001,
         "id" : "dep48",
         "a1" : "r1_c1"
      },
      {
         "a2" : "download_1",
         "time" : 1.12799997441502,
         "id" : "dep49",
         "a1" : "r1_c1"
      }
   ]
}
