{
   "n_download_no_trigger" : 1,
   "start_activity" : "download_0",
   "name" : "original.testbed.localhost_www.tumblr.com_",
   "load_activity" : -1,
   "objs" : [
      {
         "when_comp_start" : 1,
         "url" : "http://original.testbed.localhost/www.tumblr.com/",
         "id" : "r1",
         "comps" : [
            {
               "s_time" : 172.729000012623,
               "time" : -146385841.568,
               "id" : "r1_c1",
               "type" : "evalhtml",
               "e_time" : -146385668.839
            },
            {
               "s_time" : 283.081000001403,
               "time" : -146385951.92,
               "id" : "r1_c2",
               "type" : "evalhtml",
               "e_time" : -146385668.839
            },
            {
               "s_time" : 289.672000013525,
               "time" : -146385958.511,
               "id" : "r1_c3",
               "type" : "evalhtml",
               "e_time" : -146385668.839
            },
            {
               "s_time" : 291.595000016969,
               "time" : -146385960.434,
               "id" : "r1_c4",
               "type" : "evalhtml",
               "e_time" : -146385668.839
            },
            {
               "s_time" : 293.548000016017,
               "time" : -146385962.387,
               "id" : "r1_c5",
               "type" : "evalhtml",
               "e_time" : -146385668.839
            },
            {
               "s_time" : 619.476000021677,
               "time" : -146386288.315,
               "id" : "r1_c6",
               "type" : "evalhtml",
               "e_time" : -146385668.839
            },
            {
               "s_time" : 623.443000018597,
               "time" : -146386292.282,
               "id" : "r1_c7",
               "type" : "evalhtml",
               "e_time" : -146385668.839
            },
            {
               "s_time" : 627.746000012849,
               "time" : -146386296.585,
               "id" : "r1_c8",
               "type" : "evalhtml",
               "e_time" : -146385668.839
            },
            {
               "s_time" : 711.975000012899,
               "time" : 1.831000001402,
               "type" : "evalhtml",
               "id" : "r1_c9",
               "e_time" : 713.806000014301
            }
         ],
         "download" : {
            "receiveFirst" : 54,
            "len" : 71654,
            "dns" : 0,
            "dnsEnd" : -1,
            "receiveHeadersEnd" : 62,
            "sslEnd" : -1,
            "connectEnd" : 8,
            "connectStart" : 0,
            "id" : "download_0",
            "receivedTime" : "171.874000021489",
            "sslStart" : -1,
            "dnsStart" : -1,
            "receiveLast" : 109.874000021489,
            "s_time" : 0,
            "sendEnd" : 8,
            "sendStart" : 8,
            "type" : "text/html"
         }
      }
   ],
   "deps" : [
      {
         "a2" : "r1_c2",
         "time" : -1,
         "id" : "dep1",
         "a1" : "comp_13"
      },
      {
         "a2" : "r1_c3",
         "time" : -1,
         "id" : "dep2",
         "a1" : "comp_16"
      },
      {
         "a2" : "r1_c4",
         "time" : -1,
         "id" : "dep3",
         "a1" : "comp_17"
      },
      {
         "a2" : "r1_c5",
         "time" : -1,
         "id" : "dep4",
         "a1" : "comp_18"
      },
      {
         "a2" : "r1_c6",
         "time" : -1,
         "id" : "dep5",
         "a1" : "comp_42"
      },
      {
         "a2" : "r1_c7",
         "time" : -1,
         "id" : "dep6",
         "a1" : "comp_45"
      },
      {
         "a2" : "r1_c8",
         "time" : -1,
         "id" : "dep7",
         "a1" : "comp_47"
      },
      {
         "a2" : "r1_c9",
         "time" : -1,
         "id" : "dep8",
         "a1" : "comp_60"
      }
   ]
}
