{
   "n_download_no_trigger" : 1,
   "start_activity" : "download_0",
   "name" : "original.testbed.localhost_www.timeinc.com_",
   "load_activity" : -1,
   "objs" : [
      {
         "when_comp_start" : 1,
         "url" : "http://original.testbed.localhost/www.timeinc.com/",
         "id" : "r1",
         "comps" : [
            {
               "s_time" : 162.628000005498,
               "time" : 303.085999999893,
               "id" : "r1_c1",
               "type" : "evalhtml",
               "e_time" : 465.714000005391
            },
            {
               "s_time" : 502.410999994026,
               "time" : 3.219999998692,
               "id" : "r1_c2",
               "type" : "evalhtml",
               "e_time" : 505.630999992718
            },
            {
               "s_time" : 529.32800000417,
               "time" : 55.3279999876399,
               "id" : "r1_c3",
               "type" : "evalhtml",
               "e_time" : 584.65599999181
            },
            {
               "s_time" : 645.873999994365,
               "time" : -71661286.331,
               "id" : "r1_c4",
               "type" : "evalhtml",
               "e_time" : -71660640.457
            },
            {
               "s_time" : 653.290000002016,
               "time" : 7.65899999532905,
               "id" : "r1_c5",
               "type" : "evalhtml",
               "e_time" : 660.948999997345
            },
            {
               "s_time" : 885.100999992574,
               "time" : 928.650000001656,
               "id" : "r1_c6",
               "type" : "evalhtml",
               "e_time" : 1813.75099999423
            },
            {
               "s_time" : 1893.70699999563,
               "time" : -71662534.164,
               "id" : "r1_c7",
               "type" : "evalhtml",
               "e_time" : -71660640.457
            },
            {
               "s_time" : 1979.88899999473,
               "time" : 183.74700000277,
               "id" : "r1_c8",
               "type" : "evalhtml",
               "e_time" : 2163.6359999975
            },
            {
               "s_time" : 2192.59700000111,
               "time" : -71662833.054,
               "id" : "r1_c9",
               "type" : "evalhtml",
               "e_time" : -71660640.457
            },
            {
               "s_time" : 2386.32200000575,
               "time" : 477.96599999128,
               "id" : "r1_c10",
               "type" : "evalhtml",
               "e_time" : 2864.28799999703
            },
            {
               "s_time" : 2868.43899999803,
               "time" : 256.01100000495,
               "type" : "evalhtml",
               "id" : "r1_c11",
               "e_time" : 3124.45000000298
            }
         ],
         "download" : {
            "receiveFirst" : 54,
            "len" : 48781,
            "dns" : 0,
            "dnsEnd" : -1,
            "receiveHeadersEnd" : 59,
            "sslEnd" : -1,
            "connectEnd" : 5,
            "connectStart" : 0,
            "id" : "download_0",
            "receivedTime" : "160.827999992762",
            "sslStart" : -1,
            "dnsStart" : -1,
            "receiveLast" : 101.827999992762,
            "s_time" : 0,
            "sendEnd" : 5,
            "sendStart" : 5,
            "type" : "text/html"
         }
      },
      {
         "when_comp_start" : -1,
         "url" : "http://original.testbed.localhost/fonts.timeinc.net/ism5ccm.js%3Fver=4.1.3",
         "id" : "r3",
         "comps" : [
            {
               "s_time" : 454.711999991559,
               "time" : 47.699000002467,
               "type" : 1,
               "id" : "comp_2",
               "e_time" : 502.410999994026
            }
         ],
         "download" : {
            "receiveFirst" : 55,
            "len" : 20738,
            "dns" : 0,
            "dnsEnd" : -1,
            "receiveHeadersEnd" : 77,
            "sslEnd" : -1,
            "connectEnd" : 22,
            "connectStart" : 0,
            "id" : "download_1",
            "receivedTime" : "319.610999998986",
            "sslStart" : -1,
            "dnsStart" : -1,
            "receiveLast" : 242.610999998986,
            "s_time" : 180.663999999524,
            "sendEnd" : 22,
            "sendStart" : 22,
            "type" : "text/plain"
         }
      },
      {
         "when_comp_start" : -1,
         "url" : "http://original.testbed.localhost/www.timeinc.com/wp-content/themes/timeincwp/style.css%3Fver=1.0.0.css",
         "id" : "r2",
         "comps" : [
            {
               "s_time" : 350.800000000163,
               "time" : 152.191000001039,
               "type" : 4,
               "id" : "comp_1",
               "e_time" : 502.991000001202
            }
         ],
         "download" : {
            "receiveFirst" : 84,
            "len" : 138808,
            "dns" : 0,
            "dnsEnd" : -1,
            "receiveHeadersEnd" : 108,
            "sslEnd" : -1,
            "connectEnd" : 23,
            "connectStart" : 0,
            "id" : "download_2",
            "receivedTime" : "349.944999994477",
            "sslStart" : -1,
            "dnsStart" : -1,
            "receiveLast" : 241.944999994477,
            "s_time" : 179.931999999098,
            "sendEnd" : 24,
            "sendStart" : 23,
            "type" : "text/css"
         }
      },
      {
         "when_comp_start" : -1,
         "url" : "http://original.testbed.localhost/www.timeinc.com/wp-content/themes/timeincwp/js/loadtypekit.js%3Fver=4.1.3",
         "id" : "r4",
         "comps" : [
            {
               "s_time" : 504.394999996293,
               "time" : 24.933000007877,
               "type" : 1,
               "id" : "comp_4",
               "e_time" : 529.32800000417
            }
         ],
         "download" : {
            "receiveFirst" : 73,
            "len" : 30,
            "dns" : 0,
            "dnsEnd" : 23,
            "receiveHeadersEnd" : 167,
            "sslEnd" : -1,
            "connectEnd" : 94,
            "connectStart" : 0,
            "id" : "download_3",
            "receivedTime" : "503.998000000138",
            "sslStart" : -1,
            "dnsStart" : 23,
            "receiveLast" : 336.998000000138,
            "s_time" : 181.702000001678,
            "sendEnd" : 94,
            "sendStart" : 94,
            "type" : "text/plain"
         }
      },
      {
         "when_comp_start" : -1,
         "url" : "http://original.testbed.localhost/www.timeinc.com/wp-content/themes/timeincwp/js/modernizr.js%3Fver=4.1.3",
         "id" : "r5",
         "comps" : [
            {
               "s_time" : 587.493999992148,
               "time" : 58.380000002217,
               "type" : 1,
               "id" : "comp_14",
               "e_time" : 645.873999994365
            }
         ],
         "download" : {
            "receiveFirst" : 53,
            "len" : 8301,
            "dns" : 1,
            "dnsEnd" : 24,
            "receiveHeadersEnd" : 176,
            "sslEnd" : -1,
            "connectEnd" : 122,
            "connectStart" : 0,
            "id" : "download_4",
            "receivedTime" : "532.531999997445",
            "sslStart" : -1,
            "dnsStart" : 23,
            "receiveLast" : 356.531999997445,
            "s_time" : 182.434000002104,
            "sendEnd" : 123,
            "sendStart" : 122,
            "type" : "text/plain"
         }
      },
      {
         "when_comp_start" : -1,
         "url" : "http://original.testbed.localhost/www.timeinc.com/wp-content/themes/timeincwp/js/respond.min.js%3Fver=4.1.3",
         "id" : "r6",
         "comps" : [
            {
               "s_time" : 647.003000005498,
               "time" : 6.28699999651792,
               "type" : 1,
               "id" : "comp_17",
               "e_time" : 653.290000002016
            }
         ],
         "download" : {
            "receiveFirst" : 67,
            "len" : 4535,
            "dns" : 0,
            "dnsEnd" : 25,
            "receiveHeadersEnd" : 189,
            "sslEnd" : -1,
            "connectEnd" : 122,
            "connectStart" : 0,
            "id" : "download_5",
            "receivedTime" : "534.392999994452",
            "sslStart" : -1,
            "dnsStart" : 25,
            "receiveLast" : 345.392999994452,
            "s_time" : 183.105999996769,
            "sendEnd" : 122,
            "sendStart" : 122,
            "type" : "text/plain"
         }
      },
      {
         "when_comp_start" : -1,
         "url" : "http://original.testbed.localhost/www.timeinc.com/wp-content/themes/timeincwp/js/jquery-2.1.0.min.js",
         "id" : "r20",
         "comps" : [
            {
               "s_time" : 701.172000000952,
               "time" : 183.928999991622,
               "type" : 1,
               "id" : "comp_21",
               "e_time" : 885.100999992574
            }
         ],
         "download" : {
            "receiveFirst" : 75,
            "len" : 83615,
            "dns" : 0,
            "dnsEnd" : 14,
            "receiveHeadersEnd" : 185,
            "sslEnd" : -1,
            "connectEnd" : 110,
            "connectStart" : 0,
            "id" : "download_6",
            "receivedTime" : "541.411999991396",
            "sslStart" : -1,
            "dnsStart" : 14,
            "receiveLast" : 356.411999991396,
            "s_time" : 196.228000000701,
            "sendEnd" : 110,
            "sendStart" : 110,
            "type" : "application/javascript"
         }
      },
      {
         "when_comp_start" : -1,
         "url" : "http://original.testbed.localhost/img5.timeinc.net/keynote/above_the_fold_1x1.gif",
         "id" : "r7",
         "comps" : [],
         "download" : {
            "receiveFirst" : 87,
            "len" : 807,
            "dns" : 0,
            "dnsEnd" : -1,
            "receiveHeadersEnd" : 213,
            "sslEnd" : -1,
            "connectEnd" : 126,
            "connectStart" : 0,
            "id" : "download_7",
            "receivedTime" : "538.421999997809",
            "sslStart" : -1,
            "dnsStart" : -1,
            "receiveLast" : 325.421999997809,
            "s_time" : 189.46799999685,
            "sendEnd" : 126,
            "sendStart" : 126,
            "type" : "image/gif"
         }
      },
      {
         "when_comp_start" : -1,
         "url" : "http://original.testbed.localhost/www.timeinc.com/wp-content/uploads/2014/03/timeinc_logo.svg",
         "id" : "r8",
         "comps" : [],
         "download" : {
            "receiveFirst" : 86,
            "len" : 5093,
            "dns" : 0,
            "dnsEnd" : -1,
            "receiveHeadersEnd" : 94,
            "sslEnd" : -1,
            "connectEnd" : 8,
            "connectStart" : 0,
            "id" : "download_8",
            "receivedTime" : "544.708000001265",
            "sslStart" : -1,
            "dnsStart" : -1,
            "receiveLast" : 450.708000001265,
            "s_time" : 404.983000000357,
            "sendEnd" : 8,
            "sendStart" : 8,
            "type" : "image/svg+xml"
         }
      },
      {
         "when_comp_start" : -1,
         "url" : "http://original.testbed.localhost/www.timeinc.com/wp-content/uploads/2015/06/ote_still_vertical.jpg",
         "id" : "r9",
         "comps" : [],
         "download" : {
            "receiveFirst" : 70,
            "len" : 316875,
            "dns" : 0,
            "dnsEnd" : -1,
            "receiveHeadersEnd" : 93,
            "sslEnd" : -1,
            "connectEnd" : 23,
            "connectStart" : 0,
            "id" : "download_9",
            "receivedTime" : "2198.88300000457",
            "sslStart" : -1,
            "dnsStart" : -1,
            "receiveLast" : 2105.88300000457,
            "s_time" : 450.972999999067,
            "sendEnd" : 23,
            "sendStart" : 23,
            "type" : "image/jpeg"
         }
      },
      {
         "when_comp_start" : -1,
         "url" : "http://original.testbed.localhost/www.timeinc.com/wp-content/uploads/2015/06/ote_still_horizontal.jpg",
         "id" : "r10",
         "comps" : [],
         "download" : {
            "receiveFirst" : 92,
            "len" : 508332,
            "dns" : 0,
            "dnsEnd" : -1,
            "receiveHeadersEnd" : 116,
            "sslEnd" : -1,
            "connectEnd" : 24,
            "connectStart" : 0,
            "id" : "download_10",
            "receivedTime" : "6854.7980000003",
            "sslStart" : -1,
            "dnsStart" : -1,
            "receiveLast" : 6738.7980000003,
            "s_time" : 452.498999991803,
            "sendEnd" : 24,
            "sendStart" : 24,
            "type" : "image/jpeg"
         }
      },
      {
         "when_comp_start" : -1,
         "url" : "http://original.testbed.localhost/www.timeinc.com/wp-content/uploads/2015/06/Time_Inc_Screenshot_1920x1080_v01.png",
         "id" : "r11",
         "comps" : [],
         "download" : {
            "receiveFirst" : 114,
            "len" : 2914973,
            "dns" : 0,
            "dnsEnd" : -1,
            "receiveHeadersEnd" : 143,
            "sslEnd" : -1,
            "connectEnd" : 29,
            "connectStart" : 0,
            "id" : "download_11",
            "receivedTime" : "14940.0329999917",
            "sslStart" : -1,
            "dnsStart" : -1,
            "receiveLast" : 14797.0329999917,
            "s_time" : 454.131000005873,
            "sendEnd" : 29,
            "sendStart" : 29,
            "type" : "image/png"
         }
      },
      {
         "when_comp_start" : -1,
         "url" : "http://original.testbed.localhost/www.timeinc.com/wp-content/uploads/2015/06/homepage_featuredimages_830x525_DIY.png",
         "id" : "r12",
         "comps" : [],
         "download" : {
            "receiveFirst" : 130,
            "len" : 949633,
            "dns" : 0,
            "dnsEnd" : -1,
            "receiveHeadersEnd" : 159,
            "sslEnd" : -1,
            "connectEnd" : 29,
            "connectStart" : 0,
            "id" : "download_12",
            "receivedTime" : "7287.17100000358",
            "sslStart" : -1,
            "dnsStart" : -1,
            "receiveLast" : 7128.17100000358,
            "s_time" : 456.389999992098,
            "sendEnd" : 29,
            "sendStart" : 29,
            "type" : "image/png"
         }
      },
      {
         "when_comp_start" : -1,
         "url" : "http://original.testbed.localhost/www.timeinc.com/wp-content/uploads/2014/02/timeinc_logo_wht.svg",
         "id" : "r13",
         "comps" : [],
         "download" : {
            "receiveFirst" : 152,
            "len" : 5066,
            "dns" : 0,
            "dnsEnd" : -1,
            "receiveHeadersEnd" : 182,
            "sslEnd" : -1,
            "connectEnd" : 30,
            "connectStart" : 0,
            "id" : "download_13",
            "receivedTime" : "1584.07599999919",
            "sslStart" : -1,
            "dnsStart" : -1,
            "receiveLast" : 1402.07599999919,
            "s_time" : 458.327999993344,
            "sendEnd" : 30,
            "sendStart" : 30,
            "type" : "image/svg+xml"
         }
      },
      {
         "when_comp_start" : -1,
         "url" : "http://original.testbed.localhost/www.timeinc.com/wp-content/uploads/2015/08/Q2-2015-invest_earnings__400x210corpsite-350x185.jpg",
         "id" : "r14",
         "comps" : [],
         "download" : {
            "receiveFirst" : 141,
            "len" : 30330,
            "dns" : 0,
            "dnsEnd" : -1,
            "receiveHeadersEnd" : 191,
            "sslEnd" : -1,
            "connectEnd" : 50,
            "connectStart" : 0,
            "id" : "download_14",
            "receivedTime" : "1738.64799999865",
            "sslStart" : -1,
            "dnsStart" : -1,
            "receiveLast" : 1547.64799999865,
            "s_time" : 460.158999994746,
            "sendEnd" : 50,
            "sendStart" : 50,
            "type" : "image/jpeg"
         }
      },
      {
         "when_comp_start" : -1,
         "url" : "http://original.testbed.localhost/www.timeinc.com/wp-content/themes/timeincwp/js/popcornjs.js",
         "id" : "r28",
         "comps" : [
            {
               "s_time" : 1740.05100000068,
               "time" : 153.65599999495,
               "type" : 1,
               "id" : "comp_100",
               "e_time" : 1893.70699999563
            }
         ],
         "download" : {
            "receiveFirst" : 244,
            "len" : 112802,
            "dns" : 0,
            "dnsEnd" : -1,
            "receiveHeadersEnd" : 348,
            "sslEnd" : -1,
            "connectEnd" : 104,
            "connectStart" : 0,
            "id" : "download_15",
            "receivedTime" : "1739.41100000229",
            "sslStart" : -1,
            "dnsStart" : -1,
            "receiveLast" : 1391.41100000229,
            "s_time" : 543.090999999549,
            "sendEnd" : 104,
            "sendStart" : 104,
            "type" : "application/javascript"
         }
      },
      {
         "when_comp_start" : -1,
         "url" : "http://original.testbed.localhost/img.timeinc.net/tii/omniture/h/config/timeinc_s_code.js",
         "id" : "r29",
         "comps" : [
            {
               "s_time" : 1920.83800000546,
               "time" : 59.0509999892702,
               "type" : 1,
               "id" : "comp_102",
               "e_time" : 1979.88899999473
            }
         ],
         "download" : {
            "receiveFirst" : 262,
            "len" : 40323,
            "dns" : 0,
            "dnsEnd" : -1,
            "receiveHeadersEnd" : 891,
            "sslEnd" : -1,
            "connectEnd" : 629,
            "connectStart" : 0,
            "id" : "download_16",
            "receivedTime" : "1920.34899999271",
            "sslStart" : -1,
            "dnsStart" : -1,
            "receiveLast" : 1029.34899999271,
            "s_time" : 584.65599999181,
            "sendEnd" : 629,
            "sendStart" : 629,
            "type" : "application/javascript"
         }
      },
      {
         "when_comp_start" : -1,
         "url" : "http://original.testbed.localhost/www.timeinc.com/wp-content/uploads/2015/07/inVNT_Challenge_Everything_Reg_Marks_8-30-13-400x210-350x185.jpg",
         "id" : "r15",
         "comps" : [],
         "download" : {
            "receiveFirst" : 296,
            "len" : 9303,
            "dns" : 0,
            "dnsEnd" : -1,
            "receiveHeadersEnd" : 1050,
            "sslEnd" : -1,
            "connectEnd" : 753,
            "connectStart" : 0,
            "id" : "download_17",
            "receivedTime" : "2051.91100000229",
            "sslStart" : -1,
            "dnsStart" : -1,
            "receiveLast" : 1001.91100000229,
            "s_time" : 461.960999993607,
            "sendEnd" : 754,
            "sendStart" : 753,
            "type" : "image/jpeg"
         }
      },
      {
         "when_comp_start" : -1,
         "url" : "http://original.testbed.localhost/www.timeinc.com/wp-content/themes/timeincwp/images/bg_gray_pattern.png",
         "id" : "r30",
         "comps" : [],
         "download" : {
            "receiveFirst" : 270,
            "len" : 3917,
            "dns" : 0,
            "dnsEnd" : -1,
            "receiveHeadersEnd" : 557,
            "sslEnd" : -1,
            "connectEnd" : 287,
            "connectStart" : 0,
            "id" : "download_18",
            "receivedTime" : "2115.26500000036",
            "sslStart" : -1,
            "dnsStart" : -1,
            "receiveLast" : 1558.26500000036,
            "s_time" : 1212.67599999555,
            "sendEnd" : 287,
            "sendStart" : 287,
            "type" : "image/png"
         }
      },
      {
         "when_comp_start" : -1,
         "url" : "http://original.testbed.localhost/www.timeinc.com/wp-content/uploads/2015/07/the-drive-ig-hed-2015-400x210-350x185.jpg",
         "id" : "r16",
         "comps" : [],
         "download" : {
            "receiveFirst" : 272,
            "len" : 22474,
            "dns" : 0,
            "dnsEnd" : -1,
            "receiveHeadersEnd" : 1328,
            "sslEnd" : -1,
            "connectEnd" : 1055,
            "connectStart" : 0,
            "id" : "download_19",
            "receivedTime" : "2120.63599999237",
            "sslStart" : -1,
            "dnsStart" : -1,
            "receiveLast" : 792.635999992373,
            "s_time" : 463.774999996531,
            "sendEnd" : 1056,
            "sendStart" : 1055,
            "type" : "image/jpeg"
         }
      },
      {
         "when_comp_start" : -1,
         "url" : "http://original.testbed.localhost/www.timeinc.com/wp-content/themes/timeincwp/js/stache.js%3Fver=1.0.0",
         "id" : "r33",
         "comps" : [
            {
               "s_time" : 2183.47200000426,
               "time" : 9.12499999684997,
               "type" : 1,
               "id" : "comp_129",
               "e_time" : 2192.59700000111
            }
         ],
         "download" : {
            "receiveFirst" : 286,
            "len" : 16468,
            "dns" : 0,
            "dnsEnd" : -1,
            "receiveHeadersEnd" : 409,
            "sslEnd" : -1,
            "connectEnd" : 123,
            "connectStart" : 0,
            "id" : "download_20",
            "receivedTime" : "2182.9230000003",
            "sslStart" : -1,
            "dnsStart" : -1,
            "receiveLast" : 1773.9230000003,
            "s_time" : 1651.88599999237,
            "sendEnd" : 123,
            "sendStart" : 123,
            "type" : "text/plain"
         }
      },
      {
         "when_comp_start" : -1,
         "url" : "http://original.testbed.localhost/www.timeinc.com/wp-content/themes/timeincwp/js/jquery.easing.1.3.js%3Fver=1.0.0",
         "id" : "r34",
         "comps" : [
            {
               "s_time" : 2381.59200000518,
               "time" : 4.73000000056982,
               "type" : 1,
               "id" : "comp_134",
               "e_time" : 2386.32200000575
            }
         ],
         "download" : {
            "receiveFirst" : 280,
            "len" : 8097,
            "dns" : 0,
            "dnsEnd" : -1,
            "receiveHeadersEnd" : 434,
            "sslEnd" : -1,
            "connectEnd" : 154,
            "connectStart" : 0,
            "id" : "download_21",
            "receivedTime" : "2380.70700000389",
            "sslStart" : -1,
            "dnsStart" : -1,
            "receiveLast" : 1946.70700000389,
            "s_time" : 1660.00400000485,
            "sendEnd" : 154,
            "sendStart" : 154,
            "type" : "text/plain"
         }
      },
      {
         "when_comp_start" : -1,
         "url" : "http://original.testbed.localhost/www.timeinc.com/wp-content/themes/timeincwp/js/init.js%3Fver=1.0.0",
         "id" : "r35",
         "comps" : [
            {
               "s_time" : 2736.26700000023,
               "time" : 132.1719999978,
               "type" : 1,
               "id" : "comp_138",
               "e_time" : 2868.43899999803
            }
         ],
         "download" : {
            "receiveFirst" : 201,
            "len" : 53884,
            "dns" : 0,
            "dnsEnd" : -1,
            "receiveHeadersEnd" : 623,
            "sslEnd" : -1,
            "connectEnd" : 422,
            "connectStart" : 0,
            "id" : "download_22",
            "receivedTime" : "2734.64999999851",
            "sslStart" : -1,
            "dnsStart" : -1,
            "receiveLast" : 2111.64999999851,
            "s_time" : 1664.73400000541,
            "sendEnd" : 422,
            "sendStart" : 422,
            "type" : "text/plain"
         }
      },
      {
         "when_comp_start" : -1,
         "url" : "http://original.testbed.localhost/www.timeinc.com/wp-content/themes/timeincwp/fonts/icon.woff%3F-mn8612",
         "id" : "r21",
         "comps" : [],
         "download" : {
            "receiveFirst" : 441,
            "len" : 11572,
            "dns" : 0,
            "dnsEnd" : -1,
            "receiveHeadersEnd" : 508,
            "sslEnd" : -1,
            "connectEnd" : 67,
            "connectStart" : 0,
            "id" : "download_23",
            "receivedTime" : "2592.46800000255",
            "sslStart" : -1,
            "dnsStart" : -1,
            "receiveLast" : 2084.46800000255,
            "s_time" : 2063.17199999467,
            "sendEnd" : 67,
            "sendStart" : 67,
            "type" : "application/octet-stream"
         }
      },
      {
         "when_comp_start" : -1,
         "url" : "http://original.testbed.localhost/www.timeinc.com/wp-content/themes/timeincwp/images/bg_pattern_chevron_green.png",
         "id" : "r31",
         "comps" : [],
         "download" : {
            "receiveFirst" : 224,
            "len" : 2512,
            "dns" : 0,
            "dnsEnd" : -1,
            "receiveHeadersEnd" : 1085,
            "sslEnd" : -1,
            "connectEnd" : 861,
            "connectStart" : 0,
            "id" : "download_24",
            "receivedTime" : "2620.36099999386",
            "sslStart" : -1,
            "dnsStart" : -1,
            "receiveLast" : 1535.36099999386,
            "s_time" : 1518.85999999649,
            "sendEnd" : 861,
            "sendStart" : 861,
            "type" : "image/png"
         }
      },
      {
         "when_comp_start" : -1,
         "url" : "http://original.testbed.localhost/www.timeinc.com/wp-content/themes/timeincwp/images/bg_pattern_ignite_orange.png",
         "id" : "r32",
         "comps" : [],
         "download" : {
            "receiveFirst" : 187,
            "len" : 7713,
            "dns" : 0,
            "dnsEnd" : -1,
            "receiveHeadersEnd" : 1007,
            "sslEnd" : -1,
            "connectEnd" : 820,
            "connectStart" : 0,
            "id" : "download_25",
            "receivedTime" : "3135.5590000021",
            "sslStart" : -1,
            "dnsStart" : -1,
            "receiveLast" : 2128.5590000021,
            "s_time" : 1773.46799999941,
            "sendEnd" : 820,
            "sendStart" : 820,
            "type" : "image/png"
         }
      },
      {
         "when_comp_start" : -1,
         "url" : "http://original.testbed.localhost/www.timeinc.com/wp-content/uploads/2015/04/AW-Cover-Globe-homepage-350x185.jpg",
         "id" : "r17",
         "comps" : [],
         "download" : {
            "receiveFirst" : 200,
            "len" : 15615,
            "dns" : 0,
            "dnsEnd" : -1,
            "receiveHeadersEnd" : 2341,
            "sslEnd" : -1,
            "connectEnd" : 2141,
            "connectStart" : 0,
            "id" : "download_26",
            "receivedTime" : "3143.43300000473",
            "sslStart" : -1,
            "dnsStart" : -1,
            "receiveLast" : 802.433000004734,
            "s_time" : 465.714000005391,
            "sendEnd" : 2141,
            "sendStart" : 2141,
            "type" : "image/jpeg"
         }
      },
      {
         "when_comp_start" : -1,
         "url" : "http://original.testbed.localhost/www.timeinc.com/wp-content/uploads/2014/02/homepage_featuredimages_830x525_Punk.png",
         "id" : "r18",
         "comps" : [],
         "download" : {
            "receiveFirst" : 202,
            "len" : 537326,
            "dns" : 0,
            "dnsEnd" : -1,
            "receiveHeadersEnd" : 2431,
            "sslEnd" : -1,
            "connectEnd" : 2229,
            "connectStart" : 0,
            "id" : "download_27",
            "receivedTime" : "6597.259999995",
            "sslStart" : -1,
            "dnsStart" : -1,
            "receiveLast" : 4166.259999995,
            "s_time" : 505.630999992718,
            "sendEnd" : 2229,
            "sendStart" : 2229,
            "type" : "image/png"
         }
      },
      {
         "when_comp_start" : -1,
         "url" : "http://original.testbed.localhost/www.timeinc.com/wp-content/uploads/2014/03/career_home.jpg",
         "id" : "r19",
         "comps" : [],
         "download" : {
            "receiveFirst" : 221,
            "len" : 446422,
            "dns" : 0,
            "dnsEnd" : -1,
            "receiveHeadersEnd" : 2355,
            "sslEnd" : -1,
            "connectEnd" : 2134,
            "connectStart" : 0,
            "id" : "download_28",
            "receivedTime" : "6474.91499999887",
            "sslStart" : -1,
            "dnsStart" : -1,
            "receiveLast" : 4119.91499999887,
            "s_time" : 660.948999997345,
            "sendEnd" : 2134,
            "sendStart" : 2134,
            "type" : "image/jpeg"
         }
      },
      {
         "when_comp_start" : -1,
         "url" : "http://original.testbed.localhost/www.timeinc.com/wp-content/themes/timeincwp/images/ajax-loader-light.gif",
         "id" : "r36",
         "comps" : [],
         "download" : {
            "receiveFirst" : 274,
            "len" : 1849,
            "dns" : 0,
            "dnsEnd" : -1,
            "receiveHeadersEnd" : 1289,
            "sslEnd" : -1,
            "connectEnd" : 1015,
            "connectStart" : 0,
            "id" : "download_29",
            "receivedTime" : "3179.2909999931",
            "sslStart" : -1,
            "dnsStart" : -1,
            "receiveLast" : 1890.2909999931,
            "s_time" : 1813.75099999423,
            "sendEnd" : 1015,
            "sendStart" : 1015,
            "type" : "image/gif"
         }
      },
      {
         "when_comp_start" : 1,
         "url" : "http://original.testbed.localhost/wp-content/uploads/feeds/network-trending.json",
         "id" : "r40",
         "comps" : [],
         "download" : {
            "receiveFirst" : 266,
            "len" : 336,
            "dns" : 0,
            "dnsEnd" : -1,
            "receiveHeadersEnd" : 513,
            "sslEnd" : -1,
            "connectEnd" : 246,
            "connectStart" : 0,
            "id" : "download_30",
            "receivedTime" : "3386.47499999206",
            "sslStart" : -1,
            "dnsStart" : -1,
            "receiveLast" : 2873.47499999206,
            "s_time" : 2864.28799999703,
            "sendEnd" : 247,
            "sendStart" : 246,
            "type" : "text/html"
         }
      },
      {
         "when_comp_start" : 1,
         "url" : "http://original.testbed.localhost/wp-content/uploads/2015/06/OTE3.json",
         "id" : "r41",
         "comps" : [],
         "download" : {
            "receiveFirst" : 427,
            "len" : 326,
            "dns" : 0,
            "dnsEnd" : -1,
            "receiveHeadersEnd" : 853,
            "sslEnd" : -1,
            "connectEnd" : 425,
            "connectStart" : 0,
            "id" : "download_31",
            "receivedTime" : "3828.55199999176",
            "sslStart" : -1,
            "dnsStart" : -1,
            "receiveLast" : 2975.55199999176,
            "s_time" : 2959.1070000024,
            "sendEnd" : 426,
            "sendStart" : 425,
            "type" : "text/html"
         }
      },
      {
         "when_comp_start" : -1,
         "url" : "http://original.testbed.localhost/www.timeinc.com/wp-content/themes/timeincwp/fonts/icomoon.woff%3Fmkbnca",
         "id" : "r24",
         "comps" : [],
         "download" : {
            "receiveFirst" : 233,
            "len" : 2688,
            "dns" : 0,
            "dnsEnd" : -1,
            "receiveHeadersEnd" : 935,
            "sslEnd" : -1,
            "connectEnd" : 702,
            "connectStart" : 0,
            "id" : "download_32",
            "receivedTime" : "4063.6899999954",
            "sslStart" : -1,
            "dnsStart" : -1,
            "receiveLast" : 3128.6899999954,
            "s_time" : 3124.45000000298,
            "sendEnd" : 702,
            "sendStart" : 702,
            "type" : "application/octet-stream"
         }
      },
      {
         "when_comp_start" : -1,
         "url" : "http://original.testbed.localhost/www.timeinc.com/wp-content/themes/timeincwp/images/icon_footer_facebook.png",
         "id" : "r42",
         "comps" : [],
         "download" : {
            "receiveFirst" : 216,
            "len" : 1489,
            "dns" : 0,
            "dnsEnd" : -1,
            "receiveHeadersEnd" : 1241,
            "sslEnd" : -1,
            "connectEnd" : 1025,
            "connectStart" : 0,
            "id" : "download_33",
            "receivedTime" : "4295.53200000373",
            "sslStart" : -1,
            "dnsStart" : -1,
            "receiveLast" : 3054.53200000373,
            "s_time" : 3038.97100000177,
            "sendEnd" : 1025,
            "sendStart" : 1025,
            "type" : "image/png"
         }
      },
      {
         "when_comp_start" : -1,
         "url" : "http://original.testbed.localhost/www.timeinc.com/wp-content/themes/timeincwp/images/icon_footer_twitter.png",
         "id" : "r43",
         "comps" : [],
         "download" : {
            "receiveFirst" : 216,
            "len" : 1673,
            "dns" : 0,
            "dnsEnd" : -1,
            "receiveHeadersEnd" : 1468,
            "sslEnd" : -1,
            "connectEnd" : 1252,
            "connectStart" : 0,
            "id" : "download_34",
            "receivedTime" : "4531.92199999467",
            "sslStart" : -1,
            "dnsStart" : -1,
            "receiveLast" : 3063.92199999467,
            "s_time" : 3040.84699999657,
            "sendEnd" : 1252,
            "sendStart" : 1252,
            "type" : "image/png"
         }
      },
      {
         "when_comp_start" : -1,
         "url" : "http://original.testbed.localhost/www.timeinc.com/wp-content/themes/timeincwp/images/icon_footer_linkedin.png",
         "id" : "r44",
         "comps" : [],
         "download" : {
            "receiveFirst" : 206,
            "len" : 1539,
            "dns" : 0,
            "dnsEnd" : -1,
            "receiveHeadersEnd" : 1694,
            "sslEnd" : -1,
            "connectEnd" : 1487,
            "connectStart" : 0,
            "id" : "download_35",
            "receivedTime" : "4751.92300000344",
            "sslStart" : -1,
            "dnsStart" : -1,
            "receiveLast" : 3057.92300000344,
            "s_time" : 3042.8319999919,
            "sendEnd" : 1488,
            "sendStart" : 1487,
            "type" : "image/png"
         }
      },
      {
         "when_comp_start" : -1,
         "url" : "http://original.testbed.localhost/www.timeinc.com/wp-content/uploads/2014/10/map_footer_oct2014.png",
         "id" : "r37",
         "comps" : [],
         "download" : {
            "receiveFirst" : 215,
            "len" : 55261,
            "dns" : 0,
            "dnsEnd" : -1,
            "receiveHeadersEnd" : 2802,
            "sslEnd" : -1,
            "connectEnd" : 2587,
            "connectStart" : 0,
            "id" : "download_36",
            "receivedTime" : "5521.8809999933",
            "sslStart" : -1,
            "dnsStart" : -1,
            "receiveLast" : 2719.8809999933,
            "s_time" : 2163.6359999975,
            "sendEnd" : 2587,
            "sendStart" : 2587,
            "type" : "image/png"
         }
      }
   ],
   "deps" : [
      {
         "a2" : "r1_c2",
         "time" : -1,
         "id" : "dep1",
         "a1" : "comp_2"
      },
      {
         "a2" : "r1_c3",
         "time" : -1,
         "id" : "dep2",
         "a1" : "comp_4"
      },
      {
         "a2" : "r1_c4",
         "time" : -1,
         "id" : "dep3",
         "a1" : "comp_14"
      },
      {
         "a2" : "r1_c5",
         "time" : -1,
         "id" : "dep4",
         "a1" : "comp_17"
      },
      {
         "a2" : "r1_c6",
         "time" : -1,
         "id" : "dep5",
         "a1" : "comp_21"
      },
      {
         "a2" : "r1_c7",
         "time" : -1,
         "id" : "dep6",
         "a1" : "comp_100"
      },
      {
         "a2" : "r1_c8",
         "time" : -1,
         "id" : "dep7",
         "a1" : "comp_102"
      },
      {
         "a2" : "r1_c9",
         "time" : -1,
         "id" : "dep8",
         "a1" : "comp_129"
      },
      {
         "a2" : "r1_c10",
         "time" : -1,
         "id" : "dep9",
         "a1" : "comp_134"
      },
      {
         "a2" : "r1_c11",
         "time" : -1,
         "id" : "dep10",
         "a1" : "comp_138"
      },
      {
         "a2" : "comp_2",
         "time" : -1,
         "id" : "dep11",
         "a1" : "comp_1"
      },
      {
         "a2" : "comp_4",
         "time" : -1,
         "id" : "dep12",
         "a1" : "comp_2"
      },
      {
         "a2" : "comp_14",
         "time" : -1,
         "id" : "dep13",
         "a1" : "comp_4"
      },
      {
         "a2" : "comp_17",
         "time" : -1,
         "id" : "dep14",
         "a1" : "comp_14"
      },
      {
         "a2" : "comp_100",
         "time" : -1,
         "id" : "dep15",
         "a1" : "comp_21"
      },
      {
         "a2" : "comp_102",
         "time" : -1,
         "id" : "dep16",
         "a1" : "comp_100"
      },
      {
         "a2" : "comp_134",
         "time" : -1,
         "id" : "dep17",
         "a1" : "comp_129"
      },
      {
         "a2" : "comp_138",
         "time" : -1,
         "id" : "dep18",
         "a1" : "comp_134"
      },
      {
         "a2" : "download_36",
         "time" : -1,
         "id" : "dep19",
         "a1" : "r1_c8"
      },
      {
         "a2" : "download_35",
         "time" : -1,
         "id" : "dep20",
         "a1" : "r1_c11"
      },
      {
         "a2" : "download_34",
         "time" : 172.40799999854,
         "id" : "dep21",
         "a1" : "r1_c11"
      },
      {
         "a2" : "download_33",
         "time" : 170.53200000374,
         "id" : "dep22",
         "a1" : "r1_c11"
      },
      {
         "a2" : "download_32",
         "time" : -1,
         "id" : "dep23",
         "a1" : "r1_c11"
      },
      {
         "a2" : "download_31",
         "time" : 90.6680000043702,
         "id" : "dep24",
         "a1" : "r1_c11"
      },
      {
         "a2" : "download_30",
         "time" : -1,
         "id" : "dep25",
         "a1" : "r1_c10"
      },
      {
         "a2" : "download_29",
         "time" : -1,
         "id" : "dep26",
         "a1" : "r1_c6"
      },
      {
         "a2" : "download_28",
         "time" : -1,
         "id" : "dep27",
         "a1" : "r1_c5"
      },
      {
         "a2" : "download_27",
         "time" : -1,
         "id" : "dep28",
         "a1" : "r1_c2"
      },
      {
         "a2" : "download_26",
         "time" : -1,
         "id" : "dep29",
         "a1" : "r1_c1"
      },
      {
         "a2" : "download_25",
         "time" : 888.367000006836,
         "id" : "dep30",
         "a1" : "r1_c6"
      },
      {
         "a2" : "download_24",
         "time" : 633.759000003916,
         "id" : "dep31",
         "a1" : "r1_c6"
      },
      {
         "a2" : "download_23",
         "time" : 83.2829999999399,
         "id" : "dep32",
         "a1" : "r1_c8"
      },
      {
         "a2" : "download_22",
         "time" : 779.633000012836,
         "id" : "dep33",
         "a1" : "r1_c6"
      },
      {
         "a2" : "download_22",
         "time" : 779.633000012836,
         "id" : "dep34",
         "a1" : "r1_c6"
      },
      {
         "a2" : "download_21",
         "time" : 774.903000012276,
         "id" : "dep35",
         "a1" : "r1_c6"
      },
      {
         "a2" : "download_21",
         "time" : 774.903000012276,
         "id" : "dep36",
         "a1" : "r1_c6"
      },
      {
         "a2" : "download_20",
         "time" : 766.784999999796,
         "id" : "dep37",
         "a1" : "r1_c6"
      },
      {
         "a2" : "download_20",
         "time" : 766.784999999796,
         "id" : "dep38",
         "a1" : "r1_c6"
      },
      {
         "a2" : "download_19",
         "time" : 301.146999991033,
         "id" : "dep39",
         "a1" : "r1_c1"
      },
      {
         "a2" : "download_18",
         "time" : 327.575000002976,
         "id" : "dep40",
         "a1" : "r1_c6"
      },
      {
         "a2" : "download_17",
         "time" : 299.332999988109,
         "id" : "dep41",
         "a1" : "r1_c1"
      },
      {
         "a2" : "download_16",
         "time" : -1,
         "id" : "dep42",
         "a1" : "r1_c3"
      },
      {
         "a2" : "download_16",
         "time" : 55.3279999876399,
         "id" : "dep43",
         "a1" : "r1_c3"
      },
      {
         "a2" : "download_15",
         "time" : 13.762999995379,
         "id" : "dep44",
         "a1" : "r1_c3"
      },
      {
         "a2" : "download_15",
         "time" : 13.762999995379,
         "id" : "dep45",
         "a1" : "r1_c3"
      },
      {
         "a2" : "download_14",
         "time" : 297.530999989248,
         "id" : "dep46",
         "a1" : "r1_c1"
      },
      {
         "a2" : "download_13",
         "time" : 295.699999987846,
         "id" : "dep47",
         "a1" : "r1_c1"
      },
      {
         "a2" : "download_12",
         "time" : 293.7619999866,
         "id" : "dep48",
         "a1" : "r1_c1"
      },
      {
         "a2" : "download_11",
         "time" : 291.503000000375,
         "id" : "dep49",
         "a1" : "r1_c1"
      },
      {
         "a2" : "download_10",
         "time" : 289.870999986305,
         "id" : "dep50",
         "a1" : "r1_c1"
      },
      {
         "a2" : "download_9",
         "time" : 288.344999993569,
         "id" : "dep51",
         "a1" : "r1_c1"
      },
      {
         "a2" : "download_8",
         "time" : 242.354999994859,
         "id" : "dep52",
         "a1" : "r1_c1"
      },
      {
         "a2" : "download_7",
         "time" : 26.839999991352,
         "id" : "dep53",
         "a1" : "r1_c1"
      },
      {
         "a2" : "download_6",
         "time" : 33.599999995203,
         "id" : "dep54",
         "a1" : "r1_c1"
      },
      {
         "a2" : "download_6",
         "time" : 33.599999995203,
         "id" : "dep55",
         "a1" : "r1_c1"
      },
      {
         "a2" : "download_5",
         "time" : 20.477999991271,
         "id" : "dep56",
         "a1" : "r1_c1"
      },
      {
         "a2" : "download_5",
         "time" : 20.477999991271,
         "id" : "dep57",
         "a1" : "r1_c1"
      },
      {
         "a2" : "download_4",
         "time" : 19.805999996606,
         "id" : "dep58",
         "a1" : "r1_c1"
      },
      {
         "a2" : "download_4",
         "time" : 19.805999996606,
         "id" : "dep59",
         "a1" : "r1_c1"
      },
      {
         "a2" : "download_3",
         "time" : 19.07399999618,
         "id" : "dep60",
         "a1" : "r1_c1"
      },
      {
         "a2" : "download_3",
         "time" : 19.07399999618,
         "id" : "dep61",
         "a1" : "r1_c1"
      },
      {
         "a2" : "download_2",
         "time" : 17.3039999936,
         "id" : "dep62",
         "a1" : "r1_c1"
      },
      {
         "a2" : "download_1",
         "time" : 18.035999994026,
         "id" : "dep63",
         "a1" : "r1_c1"
      }
   ]
}
