{
   "objs" : [
      {
         "download" : {
            "sslStart" : -1,
            "sendStart" : 87,
            "receiveLast" : 201.624000002048,
            "s_time" : 0,
            "sslEnd" : -1,
            "type" : "text/html",
            "connectEnd" : 87,
            "connectStart" : 0,
            "receiveHeadersEnd" : 290,
            "len" : 58160,
            "sendEnd" : 87,
            "dns" : 0,
            "id" : "download_0",
            "receivedTime" : "491.624000002048",
            "dnsStart" : 0,
            "dnsEnd" : 0,
            "receiveFirst" : 203
         },
         "id" : "r1",
         "comps" : [
            {
               "type" : "evalhtml",
               "e_time" : 749.549000000115,
               "time" : 450.489000009838,
               "s_time" : 299.059999990277,
               "id" : "r1_c1"
            },
            {
               "s_time" : 920.74099999445,
               "id" : "r1_c2",
               "time" : -128667586.35,
               "type" : "evalhtml",
               "e_time" : -128666665.609
            },
            {
               "e_time" : -128666665.609,
               "type" : "evalhtml",
               "time" : -128668085.183,
               "id" : "r1_c3",
               "s_time" : 1419.57399999956
            },
            {
               "time" : 40537.9979999998,
               "id" : "r1_c4",
               "s_time" : 1503.73899999249,
               "type" : "evalhtml",
               "e_time" : 42041.7369999923
            }
         ],
         "url" : "http://original.testbed.localhost/www.yandex.ru/",
         "when_comp_start" : 1
      },
      {
         "download" : {
            "dnsStart" : -1,
            "dnsEnd" : -1,
            "receiveFirst" : 206,
            "receivedTime" : "715.992999990704",
            "id" : "download_1",
            "dns" : 0,
            "len" : 174556,
            "receiveHeadersEnd" : 208,
            "sendEnd" : 2,
            "connectEnd" : 1,
            "connectStart" : 0,
            "sslEnd" : -1,
            "type" : "text/css",
            "sendStart" : 1,
            "receiveLast" : 507.992999990704,
            "s_time" : 304.3650000036,
            "sslStart" : -1
         },
         "id" : "r2",
         "url" : "http://original.testbed.localhost/yastatic.net/www/_/W/h/JpUEsoew7n29f5ZIJTrVoDt8o.css",
         "comps" : [
            {
               "time" : 33.9130000065779,
               "s_time" : 716.05799999088,
               "id" : "comp_7",
               "e_time" : 749.970999997458,
               "type" : 4
            }
         ],
         "when_comp_start" : -1
      },
      {
         "when_comp_start" : -1,
         "id" : "r5",
         "download" : {
            "sslStart" : -1,
            "sendStart" : 183,
            "receiveLast" : 510.927999995067,
            "s_time" : 308.584999991581,
            "sslEnd" : -1,
            "type" : "application/javascript",
            "connectEnd" : 183,
            "connectStart" : 0,
            "len" : 93637,
            "receiveHeadersEnd" : 388,
            "sendEnd" : 183,
            "dns" : 0,
            "id" : "download_2",
            "receivedTime" : "898.927999995067",
            "dnsStart" : -1,
            "dnsEnd" : -1,
            "receiveFirst" : 205
         },
         "comps" : [
            {
               "e_time" : 920.74099999445,
               "type" : 1,
               "id" : "comp_18",
               "s_time" : 899.020999990171,
               "time" : 21.720000004279
            }
         ],
         "url" : "http://original.testbed.localhost/yastatic.net/jquery/1.8.3/jquery.min.js"
      },
      {
         "download" : {
            "dns" : 0,
            "id" : "download_3",
            "sendEnd" : 203,
            "len" : 43,
            "receiveHeadersEnd" : 404,
            "receiveFirst" : 201,
            "dnsStart" : 2,
            "dnsEnd" : 2,
            "receivedTime" : "712.79499999946",
            "receiveLast" : 308.79499999946,
            "s_time" : 306.683000002522,
            "sendStart" : 203,
            "sslStart" : -1,
            "connectStart" : 0,
            "connectEnd" : 203,
            "sslEnd" : -1,
            "type" : "image/gif"
         },
         "id" : "r3",
         "comps" : [],
         "url" : "http://original.testbed.localhost/yastatic.net/lego/_/La6qi18Z8LwgnZdsAr1qy1GwCwo.gif",
         "when_comp_start" : -1
      },
      {
         "download" : {
            "receivedTime" : "713.220999998157",
            "receiveFirst" : 201,
            "dnsStart" : 1,
            "dnsEnd" : 1,
            "sendEnd" : 203,
            "len" : 2006,
            "receiveHeadersEnd" : 404,
            "id" : "download_4",
            "dns" : 0,
            "sslEnd" : -1,
            "type" : "image/png",
            "connectStart" : 0,
            "connectEnd" : 203,
            "sslStart" : -1,
            "receiveLast" : 309.220999998157,
            "s_time" : 306.933999992907,
            "sendStart" : 203
         },
         "id" : "r4",
         "comps" : [],
         "url" : "http://original.testbed.localhost/yabs.yandex.ru/count/BJ0AtbmI5h040000gPA088wwS-jo1L6L0fi6QLg8k0Rn2WUcXGcAfOGlQwe2fPOOPDq1tf0az96yq4ba1fELAWT1hlBh02vY8_ea0h41ig0000Ax-hDDyD-ZgkC5mV__________3yMF3zB__________m_J__________yFs_hpfcFdewhZ1T-LAWTu4000",
         "when_comp_start" : -1
      },
      {
         "when_comp_start" : -1,
         "id" : "r7",
         "download" : {
            "len" : 67566,
            "receiveHeadersEnd" : 404,
            "sendEnd" : 199,
            "dns" : 0,
            "id" : "download_5",
            "receivedTime" : "921.017000000575",
            "dnsStart" : 0,
            "dnsEnd" : 0,
            "receiveFirst" : 205,
            "sslStart" : -1,
            "sendStart" : 199,
            "receiveLast" : 517.017000000575,
            "s_time" : 309.958999991068,
            "sslEnd" : -1,
            "type" : "application/javascript",
            "connectEnd" : 199,
            "connectStart" : 0
         },
         "comps" : [
            {
               "id" : "comp_64",
               "s_time" : 1492.43600000045,
               "time" : 11.3029999920402,
               "e_time" : 1503.73899999249,
               "type" : 1
            }
         ],
         "url" : "http://original.testbed.localhost/mc.yandex.ru/metrika/watch.js"
      },
      {
         "download" : {
            "receivedTime" : "1324.49899999483",
            "receiveFirst" : 208,
            "dnsEnd" : 0,
            "dnsStart" : 0,
            "sendEnd" : 200,
            "len" : 524175,
            "receiveHeadersEnd" : 408,
            "id" : "download_6",
            "dns" : 0,
            "type" : "application/javascript",
            "sslEnd" : -1,
            "connectStart" : 0,
            "connectEnd" : 200,
            "sslStart" : -1,
            "s_time" : 308.756999991601,
            "receiveLast" : 916.49899999483,
            "sendStart" : 200
         },
         "id" : "r6",
         "url" : "http://original.testbed.localhost/yastatic.net/www/2.773/white/pages/bender/_bender.ru.js",
         "comps" : [
            {
               "time" : 94.9640000035301,
               "s_time" : 1324.60999999603,
               "id" : "comp_52",
               "e_time" : 1419.57399999956,
               "type" : 1
            }
         ],
         "when_comp_start" : -1
      },
      {
         "download" : {
            "id" : "download_7",
            "dns" : 0,
            "receiveHeadersEnd" : 202,
            "len" : 165,
            "sendEnd" : 0,
            "dnsStart" : -1,
            "dnsEnd" : -1,
            "receiveFirst" : 202,
            "receivedTime" : "939.998000001651",
            "sendStart" : 0,
            "receiveLast" : 737.998000001651,
            "s_time" : 737.150999993901,
            "sslStart" : -1,
            "connectEnd" : 0,
            "connectStart" : 0,
            "sslEnd" : -1,
            "type" : "image/svg+xml"
         },
         "id" : "r9",
         "url" : "http://original.testbed.localhost/yastatic.net/www/_/B/8/eOwa4HB-JnzSOAZiWnu0hWGAk.svg",
         "comps" : [],
         "when_comp_start" : -1
      },
      {
         "when_comp_start" : -1,
         "id" : "r10",
         "download" : {
            "id" : "download_8",
            "dns" : 0,
            "sendEnd" : 0,
            "len" : 150,
            "receiveHeadersEnd" : 202,
            "receiveFirst" : 202,
            "dnsStart" : -1,
            "dnsEnd" : -1,
            "receivedTime" : "944.554000001517",
            "s_time" : 737.892999997712,
            "receiveLast" : 742.554000001517,
            "sendStart" : 0,
            "sslStart" : -1,
            "connectStart" : 0,
            "connectEnd" : 0,
            "sslEnd" : -1,
            "type" : "image/svg+xml"
         },
         "comps" : [],
         "url" : "http://original.testbed.localhost/yastatic.net/www/_/p/k/Ukz467obo_3uDombR0JDzV0ao.svg"
      },
      {
         "when_comp_start" : -1,
         "comps" : [],
         "url" : "http://original.testbed.localhost/yastatic.net/morda-logo/i/bender/logo.svg",
         "download" : {
            "sslEnd" : -1,
            "type" : "image/svg+xml",
            "connectStart" : 0,
            "connectEnd" : 0,
            "sslStart" : -1,
            "receiveLast" : 746.564999994938,
            "s_time" : 739.594999991823,
            "sendStart" : 0,
            "receivedTime" : "947.564999994938",
            "receiveFirst" : 201,
            "dnsStart" : -1,
            "dnsEnd" : -1,
            "sendEnd" : 0,
            "len" : 1667,
            "receiveHeadersEnd" : 201,
            "id" : "download_9",
            "dns" : 0
         },
         "id" : "r11"
      },
      {
         "when_comp_start" : -1,
         "download" : {
            "dnsStart" : -1,
            "dnsEnd" : -1,
            "receiveFirst" : 201,
            "receivedTime" : "1100.8029999939",
            "dns" : 0,
            "id" : "download_10",
            "receiveHeadersEnd" : 357,
            "len" : 169,
            "sendEnd" : 156,
            "connectEnd" : 156,
            "connectStart" : 0,
            "sslEnd" : -1,
            "type" : "image/svg+xml",
            "sendStart" : 156,
            "receiveLast" : 743.802999993903,
            "s_time" : 742.58700000064,
            "sslStart" : -1
         },
         "id" : "r12",
         "comps" : [],
         "url" : "http://original.testbed.localhost/yastatic.net/www/_/e/S/-nxtWWJ1LfBWLfd096swuFjH4.svg"
      },
      {
         "when_comp_start" : -1,
         "url" : "http://original.testbed.localhost/yastatic.net/www/_/f/E/N0Wcq_xMyOcvQaeQ2yi3uUJtM.svg",
         "comps" : [],
         "id" : "r13",
         "download" : {
            "sslStart" : -1,
            "sendStart" : 167,
            "receiveLast" : 749.178999997326,
            "s_time" : 748.511999991024,
            "type" : "image/svg+xml",
            "sslEnd" : -1,
            "connectEnd" : 167,
            "connectStart" : 0,
            "receiveHeadersEnd" : 369,
            "len" : 438,
            "sendEnd" : 167,
            "dns" : 0,
            "id" : "download_11",
            "receivedTime" : "1118.17899999733",
            "dnsEnd" : -1,
            "dnsStart" : -1,
            "receiveFirst" : 202
         }
      },
      {
         "id" : "r14",
         "download" : {
            "id" : "download_12",
            "dns" : 0,
            "sendEnd" : 191,
            "len" : 20136,
            "receiveHeadersEnd" : 392,
            "receiveFirst" : 201,
            "dnsEnd" : -1,
            "dnsStart" : -1,
            "receivedTime" : "1144.64800000133",
            "s_time" : 749.24399999145,
            "receiveLast" : 752.648000001325,
            "sendStart" : 190,
            "sslStart" : -1,
            "connectStart" : 0,
            "connectEnd" : 190,
            "type" : "image/png",
            "sslEnd" : -1
         },
         "url" : "http://original.testbed.localhost/yastatic.net/www/_/w/I/BX8CA8KM38KQeLwNhKogm-YvY.png",
         "comps" : [],
         "when_comp_start" : -1
      },
      {
         "when_comp_start" : -1,
         "comps" : [],
         "url" : "http://original.testbed.localhost/yastatic.net/morda-logo/i/disaster/hockey2016_flags_white.png",
         "download" : {
            "sendStart" : 191,
            "s_time" : 749.549000000115,
            "receiveLast" : 41612.3029999981,
            "sslStart" : -1,
            "connectEnd" : 191,
            "connectStart" : 0,
            "sslEnd" : -1,
            "type" : "image/png",
            "id" : "download_13",
            "dns" : 0,
            "len" : 15788,
            "receiveHeadersEnd" : 393,
            "sendEnd" : 191,
            "dnsStart" : -1,
            "dnsEnd" : -1,
            "receiveFirst" : 202,
            "receivedTime" : "42005.3029999981"
         },
         "id" : "r15"
      },
      {
         "id" : "r22",
         "download" : {
            "sslEnd" : -1,
            "type" : "image/gif",
            "connectEnd" : 201,
            "connectStart" : 0,
            "sslStart" : -1,
            "sendStart" : 201,
            "receiveLast" : 42021.1210000037,
            "s_time" : 42019.6679999935,
            "receivedTime" : "42424.1210000037",
            "dnsStart" : 0,
            "dnsEnd" : 0,
            "receiveFirst" : 202,
            "receiveHeadersEnd" : 403,
            "len" : 43,
            "sendEnd" : 201,
            "dns" : 0,
            "id" : "download_14"
         },
         "url" : "http://original.testbed.localhost/yabs.yandex.ru/count/BJ0AtlHKoKG40000gOA0Zhfpwt85KP6yq4ba1fELAWUkyki0Bc8Z-YG2k_gpJV3VewhZ1S7__________m_R-lEcO-UZgkC5V0S0=Uj74OvK2cmPfMegbX2zhfPOOP8Yu1l4A1wQ52Tq1tf0azB41ig0000B5Zm_I__________yFq___________3y80tvKg1te8%3Fwmode=0",
         "comps" : [],
         "when_comp_start" : -1
      },
      {
         "when_comp_start" : -1,
         "download" : {
            "sslStart" : -1,
            "receiveLast" : 42029.1809999965,
            "s_time" : 42027.8099999996,
            "sendStart" : 201,
            "sslEnd" : -1,
            "type" : "image/gif",
            "connectStart" : 0,
            "connectEnd" : 201,
            "sendEnd" : 201,
            "len" : 43,
            "receiveHeadersEnd" : 403,
            "dns" : 0,
            "id" : "download_15",
            "receivedTime" : "42432.1809999965",
            "receiveFirst" : 202,
            "dnsStart" : 0,
            "dnsEnd" : 0
         },
         "id" : "r23",
         "url" : "http://original.testbed.localhost/www.tns-counter.ru/V13a**ee5909af320772dd40b91c9721c358ab**yandex_ru/ru/CP1251/tmsec=yandex_main/0",
         "comps" : []
      }
   ],
   "start_activity" : "download_0",
   "n_download_no_trigger" : 1,
   "deps" : [
      {
         "id" : "dep1",
         "a2" : "r1_c2",
         "time" : -1,
         "a1" : "comp_18"
      },
      {
         "a1" : "comp_52",
         "id" : "dep2",
         "time" : -1,
         "a2" : "r1_c3"
      },
      {
         "a1" : "comp_64",
         "time" : -1,
         "a2" : "r1_c4",
         "id" : "dep3"
      },
      {
         "a1" : "comp_7",
         "time" : -1,
         "a2" : "comp_18",
         "id" : "dep4"
      },
      {
         "a1" : "comp_18",
         "time" : -1,
         "a2" : "comp_52",
         "id" : "dep5"
      },
      {
         "id" : "dep6",
         "time" : 40524.0710000071,
         "a2" : "download_15",
         "a1" : "r1_c4"
      },
      {
         "a1" : "r1_c4",
         "a2" : "download_14",
         "time" : 40515.929000001,
         "id" : "dep7"
      },
      {
         "id" : "dep8",
         "a2" : "download_13",
         "time" : -1,
         "a1" : "r1_c1"
      },
      {
         "a1" : "r1_c1",
         "a2" : "download_12",
         "time" : 450.184000001173,
         "id" : "dep9"
      },
      {
         "id" : "dep10",
         "time" : 449.452000000747,
         "a2" : "download_11",
         "a1" : "r1_c1"
      },
      {
         "a1" : "r1_c1",
         "id" : "dep11",
         "time" : 443.527000010363,
         "a2" : "download_10"
      },
      {
         "time" : 440.535000001546,
         "a2" : "download_9",
         "id" : "dep12",
         "a1" : "r1_c1"
      },
      {
         "a2" : "download_8",
         "time" : 438.833000007435,
         "id" : "dep13",
         "a1" : "r1_c1"
      },
      {
         "a1" : "r1_c1",
         "time" : 438.091000003624,
         "a2" : "download_7",
         "id" : "dep14"
      },
      {
         "id" : "dep15",
         "time" : 9.697000001324,
         "a2" : "download_6",
         "a1" : "r1_c1"
      },
      {
         "a2" : "download_6",
         "time" : 9.697000001324,
         "id" : "dep16",
         "a1" : "r1_c1"
      },
      {
         "id" : "dep17",
         "a2" : "download_5",
         "time" : 10.899000000791,
         "a1" : "r1_c1"
      },
      {
         "a1" : "r1_c1",
         "a2" : "download_5",
         "time" : 10.899000000791,
         "id" : "dep18"
      },
      {
         "time" : 7.87400000263,
         "a2" : "download_4",
         "id" : "dep19",
         "a1" : "r1_c1"
      },
      {
         "time" : 7.62300001224503,
         "a2" : "download_3",
         "id" : "dep20",
         "a1" : "r1_c1"
      },
      {
         "time" : 9.52500000130402,
         "a2" : "download_2",
         "id" : "dep21",
         "a1" : "r1_c1"
      },
      {
         "time" : 5.30500001332302,
         "a2" : "download_1",
         "id" : "dep22",
         "a1" : "r1_c1"
      }
   ],
   "load_activity" : -1,
   "name" : "original.testbed.localhost_www.yandex.ru_"
}
