{
   "load_activity" : -1,
   "start_activity" : "download_0",
   "deps" : [
      {
         "a1" : "comp_5",
         "id" : "dep1",
         "time" : -1,
         "a2" : "r1_c2"
      },
      {
         "time" : -1,
         "id" : "dep2",
         "a2" : "r1_c3",
         "a1" : "comp_25"
      },
      {
         "a2" : "r1_c4",
         "id" : "dep3",
         "time" : -1,
         "a1" : "comp_37"
      },
      {
         "a1" : "comp_41",
         "a2" : "r1_c5",
         "time" : -1,
         "id" : "dep4"
      },
      {
         "a2" : "r1_c6",
         "time" : -1,
         "id" : "dep5",
         "a1" : "comp_43"
      },
      {
         "a2" : "r1_c7",
         "id" : "dep6",
         "time" : -1,
         "a1" : "comp_46"
      },
      {
         "a1" : "comp_1",
         "a2" : "comp_5",
         "id" : "dep7",
         "time" : -1
      },
      {
         "a2" : "comp_5",
         "time" : -1,
         "id" : "dep8",
         "a1" : "comp_3"
      },
      {
         "a2" : "comp_5",
         "id" : "dep9",
         "time" : -1,
         "a1" : "comp_16"
      },
      {
         "a1" : "comp_41",
         "id" : "dep10",
         "time" : -1,
         "a2" : "comp_43"
      },
      {
         "id" : "dep11",
         "time" : -1,
         "a2" : "comp_46",
         "a1" : "comp_43"
      },
      {
         "a2" : "download_32",
         "id" : "dep12",
         "time" : 874.9259999895,
         "a1" : "r1_c7"
      },
      {
         "a1" : "r1_c7",
         "a2" : "download_31",
         "id" : "dep13",
         "time" : 0.453000000597967
      },
      {
         "a2" : "download_30",
         "id" : "dep14",
         "time" : -1,
         "a1" : "r1_c2"
      },
      {
         "id" : "dep15",
         "time" : 825.045999998107,
         "a2" : "download_29",
         "a1" : "r1_c2"
      },
      {
         "a1" : "r1_c2",
         "a2" : "download_28",
         "id" : "dep16",
         "time" : 514.408999995797
      },
      {
         "a1" : "r1_c2",
         "a2" : "download_27",
         "time" : 512.113999997387,
         "id" : "dep17"
      },
      {
         "time" : 411.008000010047,
         "id" : "dep18",
         "a2" : "download_26",
         "a1" : "r1_c2"
      },
      {
         "a1" : "r1_c2",
         "id" : "dep19",
         "time" : 214.7399999958,
         "a2" : "download_25"
      },
      {
         "time" : 196.187000008649,
         "id" : "dep20",
         "a2" : "download_24",
         "a1" : "r1_c2"
      },
      {
         "id" : "dep21",
         "time" : 106.419999996433,
         "a2" : "download_23",
         "a1" : "r1_c2"
      },
      {
         "a1" : "r1_c2",
         "id" : "dep22",
         "time" : 106.419999996433,
         "a2" : "download_23"
      },
      {
         "a1" : "r1_c2",
         "a2" : "download_22",
         "id" : "dep23",
         "time" : 106.322999999975
      },
      {
         "a1" : "r1_c2",
         "a2" : "download_22",
         "id" : "dep24",
         "time" : 106.322999999975
      },
      {
         "a2" : "download_21",
         "time" : 106.194000007236,
         "id" : "dep25",
         "a1" : "r1_c2"
      },
      {
         "a1" : "r1_c2",
         "id" : "dep26",
         "time" : 106.194000007236,
         "a2" : "download_21"
      },
      {
         "a2" : "download_20",
         "time" : 106.09800000384,
         "id" : "dep27",
         "a1" : "r1_c2"
      },
      {
         "a1" : "r1_c2",
         "time" : 106.09800000384,
         "id" : "dep28",
         "a2" : "download_20"
      },
      {
         "a2" : "download_19",
         "id" : "dep29",
         "time" : 105.999999999767,
         "a1" : "r1_c2"
      },
      {
         "a2" : "download_19",
         "id" : "dep30",
         "time" : 105.999999999767,
         "a1" : "r1_c2"
      },
      {
         "a1" : "r1_c2",
         "id" : "dep31",
         "time" : 165.548000004492,
         "a2" : "download_18"
      },
      {
         "a1" : "r1_c2",
         "a2" : "download_17",
         "id" : "dep32",
         "time" : 165.434000009554
      },
      {
         "id" : "dep33",
         "time" : 165.317000006326,
         "a2" : "download_16",
         "a1" : "r1_c2"
      },
      {
         "a1" : "r1_c2",
         "a2" : "download_15",
         "id" : "dep34",
         "time" : 165.20699999819
      },
      {
         "id" : "dep35",
         "time" : 107.084000002942,
         "a2" : "download_14",
         "a1" : "r1_c2"
      },
      {
         "a2" : "download_14",
         "id" : "dep36",
         "time" : 107.084000002942,
         "a1" : "r1_c2"
      },
      {
         "a1" : "r1_c2",
         "id" : "dep37",
         "time" : 107.239000004483,
         "a2" : "download_13"
      },
      {
         "a1" : "r1_c2",
         "time" : 107.239000004483,
         "id" : "dep38",
         "a2" : "download_13"
      },
      {
         "a1" : "r1_c2",
         "time" : 106.890000010026,
         "id" : "dep39",
         "a2" : "download_12"
      },
      {
         "a1" : "r1_c2",
         "a2" : "download_12",
         "time" : 106.890000010026,
         "id" : "dep40"
      },
      {
         "time" : 106.973000001744,
         "id" : "dep41",
         "a2" : "download_11",
         "a1" : "r1_c2"
      },
      {
         "a1" : "r1_c2",
         "a2" : "download_11",
         "id" : "dep42",
         "time" : 106.973000001744
      },
      {
         "a2" : "download_10",
         "id" : "dep43",
         "time" : 105.844999998226,
         "a1" : "r1_c2"
      },
      {
         "a1" : "r1_c2",
         "id" : "dep44",
         "time" : 105.844999998226,
         "a2" : "download_10"
      },
      {
         "a1" : "r1_c2",
         "a2" : "download_9",
         "id" : "dep45",
         "time" : 105.750000002445
      },
      {
         "a2" : "download_9",
         "time" : 105.750000002445,
         "id" : "dep46",
         "a1" : "r1_c2"
      },
      {
         "a1" : "r1_c2",
         "a2" : "download_8",
         "time" : 6.86799999675691,
         "id" : "dep47"
      },
      {
         "a2" : "download_7",
         "time" : 7.00199999846495,
         "id" : "dep48",
         "a1" : "r1_c2"
      },
      {
         "a1" : "r1_c1",
         "a2" : "download_6",
         "id" : "dep49",
         "time" : -1
      },
      {
         "a2" : "download_5",
         "time" : 4.98100000550096,
         "id" : "dep50",
         "a1" : "r1_c1"
      },
      {
         "time" : 5.65000000642596,
         "id" : "dep51",
         "a2" : "download_4",
         "a1" : "r1_c1"
      },
      {
         "time" : 5.65000000642596,
         "id" : "dep52",
         "a2" : "download_4",
         "a1" : "r1_c1"
      },
      {
         "a1" : "r1_c1",
         "id" : "dep53",
         "time" : 5.166000002646,
         "a2" : "download_3"
      },
      {
         "a2" : "download_2",
         "time" : 4.815000007511,
         "id" : "dep54",
         "a1" : "r1_c1"
      },
      {
         "a1" : "r1_c1",
         "time" : 4.56100000883498,
         "id" : "dep55",
         "a2" : "download_1"
      }
   ],
   "objs" : [
      {
         "download" : {
            "receiveFirst" : 204,
            "receiveLast" : 202.361999993213,
            "connectEnd" : 102,
            "dns" : 0,
            "sslEnd" : -1,
            "sslStart" : -1,
            "id" : "download_0",
            "sendStart" : 102,
            "type" : "text/html",
            "dnsEnd" : 0,
            "sendEnd" : 102,
            "dnsStart" : 0,
            "receiveHeadersEnd" : 306,
            "len" : 97323,
            "s_time" : 0,
            "receivedTime" : "508.361999993213",
            "connectStart" : 0
         },
         "id" : "r1",
         "when_comp_start" : 1,
         "comps" : [
            {
               "e_time" : 726.472999987891,
               "s_time" : 315.099999992526,
               "id" : "r1_c1",
               "time" : 411.372999995365,
               "type" : "evalhtml"
            },
            {
               "type" : "evalhtml",
               "s_time" : 732.479999991483,
               "e_time" : 1652.87999999418,
               "id" : "r1_c2",
               "time" : 920.400000002697
            },
            {
               "type" : "evalhtml",
               "time" : -118877114.153,
               "id" : "r1_c3",
               "s_time" : 41953.2869999966,
               "e_time" : -118835160.866
            },
            {
               "time" : -118877179.579,
               "id" : "r1_c4",
               "s_time" : 42018.7129999977,
               "e_time" : -118835160.866,
               "type" : "evalhtml"
            },
            {
               "type" : "evalhtml",
               "e_time" : -118835160.866,
               "s_time" : 42020.3419999889,
               "id" : "r1_c5",
               "time" : -118877181.208
            },
            {
               "type" : "evalhtml",
               "s_time" : 42045.7369999931,
               "e_time" : -118835160.866,
               "time" : -118877206.603,
               "id" : "r1_c6"
            },
            {
               "time" : 912.691999998096,
               "id" : "r1_c7",
               "e_time" : 42964.2929999973,
               "s_time" : 42051.6009999992,
               "type" : "evalhtml"
            }
         ],
         "url" : "http://original.testbed.localhost/www.examiner.com/"
      },
      {
         "download" : {
            "receivedTime" : "524.697000000742",
            "s_time" : 319.661000001361,
            "receiveHeadersEnd" : 204,
            "len" : 415,
            "connectStart" : 0,
            "sendEnd" : 2,
            "dnsStart" : -1,
            "id" : "download_1",
            "sslStart" : -1,
            "dnsEnd" : -1,
            "type" : "text/css",
            "sendStart" : 2,
            "receiveFirst" : 202,
            "receiveLast" : 320.697000000742,
            "connectEnd" : 2,
            "dns" : 0,
            "sslEnd" : -1
         },
         "id" : "r2",
         "when_comp_start" : -1,
         "comps" : [
            {
               "e_time" : 524.879999997211,
               "s_time" : 524.745999995503,
               "id" : "comp_1",
               "time" : 0.134000001708046,
               "type" : 4
            }
         ],
         "url" : "http://original.testbed.localhost/cdn2-b.examiner.com/sites/default/files/css/css_WVI5b0NR7PNdLQAufIMULGKRaPVj7ZWSixaaqpQ8iR4_452_1.css"
      },
      {
         "url" : "http://original.testbed.localhost/cdn2-b.examiner.com/sites/default/files/css/css_iM0e58F9UuXz9n7_NutmG7vEipuH3IgrlP8vGiwo9oA_452_1.css",
         "comps" : [
            {
               "type" : 4,
               "e_time" : 724.093999990146,
               "s_time" : 714.837999999872,
               "id" : "comp_3",
               "time" : 9.25599999027406
            }
         ],
         "when_comp_start" : -1,
         "id" : "r3",
         "download" : {
            "id" : "download_2",
            "sslStart" : -1,
            "dnsEnd" : -1,
            "type" : "text/css",
            "sendStart" : 188,
            "receiveFirst" : 205,
            "receiveLast" : 321.780999987852,
            "connectEnd" : 188,
            "sslEnd" : -1,
            "dns" : 0,
            "receivedTime" : "714.780999987852",
            "s_time" : 319.915000000037,
            "len" : 131074,
            "receiveHeadersEnd" : 393,
            "connectStart" : 0,
            "sendEnd" : 188,
            "dnsStart" : -1
         }
      },
      {
         "download" : {
            "len" : 7899,
            "receiveHeadersEnd" : 404,
            "s_time" : 320.265999995172,
            "receivedTime" : "725.984999997308",
            "connectStart" : 0,
            "sendEnd" : 202,
            "dnsStart" : 1,
            "sslStart" : -1,
            "id" : "download_3",
            "sendStart" : 202,
            "type" : "text/plain",
            "dnsEnd" : 1,
            "receiveLast" : 321.984999997308,
            "receiveFirst" : 202,
            "dns" : 0,
            "connectEnd" : 202,
            "sslEnd" : -1
         },
         "id" : "r5",
         "when_comp_start" : -1,
         "comps" : [
            {
               "type" : 1,
               "id" : "comp_5",
               "time" : 6.44499999180005,
               "s_time" : 726.034999999683,
               "e_time" : 732.479999991483
            }
         ],
         "url" : "http://original.testbed.localhost/cdn2-b.examiner.com/sites/default/files/js/js_izMbklKled8Iz36tDzoCaxKTK2LGkVInrJgIP9SfR_g_453_1.js%3Fo6dj05"
      },
      {
         "url" : "http://original.testbed.localhost/pshared.5min.com/Scripts/Thumbseed2.js%3FtextLocation=1&thumbnailSize=0&displayHeader=false&sid=1304&width=1000&height=200&headerTextColor=%2523000000&textFGColor=%2523000&textBGColor=%2523eeeeee&textBGColor_MO=%2523eeeeee&textFGColor_MO=%2523000&videoGroupID=156083",
         "download" : {
            "dnsStart" : 0,
            "sendEnd" : 202,
            "connectStart" : 0,
            "receiveHeadersEnd" : 403,
            "len" : 126269,
            "s_time" : 320.749999998952,
            "receivedTime" : "1329.7559999919",
            "sslEnd" : -1,
            "connectEnd" : 202,
            "dns" : 0,
            "receiveFirst" : 201,
            "receiveLast" : 926.755999991903,
            "sendStart" : 202,
            "type" : "text/plain",
            "dnsEnd" : 0,
            "sslStart" : -1,
            "id" : "download_4"
         },
         "id" : "r9",
         "when_comp_start" : -1,
         "comps" : [
            {
               "id" : "comp_25",
               "time" : 40623.3760000032,
               "e_time" : 41953.2869999966,
               "s_time" : 1329.91099999344,
               "type" : 1
            }
         ]
      },
      {
         "download" : {
            "dnsStart" : 1,
            "sendEnd" : 203,
            "connectStart" : 0,
            "receivedTime" : "834.905999989132",
            "s_time" : 320.080999998027,
            "receiveHeadersEnd" : 406,
            "len" : 4354,
            "connectEnd" : 203,
            "sslEnd" : -1,
            "dns" : 0,
            "receiveLast" : 428.905999989132,
            "receiveFirst" : 203,
            "dnsEnd" : 1,
            "type" : "text/css",
            "sendStart" : 203,
            "id" : "download_5",
            "sslStart" : -1
         },
         "id" : "r4",
         "when_comp_start" : -1,
         "comps" : [
            {
               "time" : 2.95100000221305,
               "id" : "comp_16",
               "e_time" : 837.885000000824,
               "s_time" : 834.933999998611,
               "type" : 4
            }
         ],
         "url" : "http://original.testbed.localhost/cdn2-b.examiner.com/sites/default/files/css/css_-pOaQB6BsVmy1RffuEK02PxiDvG3CgnKQWUwLTx1FI8_452_1.css"
      },
      {
         "url" : "http://original.testbed.localhost/cdn2-b.examiner.com/sites/all/themes/greyhound/assets/images/examiner-logo.png",
         "when_comp_start" : -1,
         "comps" : [],
         "download" : {
            "receiveFirst" : 201,
            "receiveLast" : 728.214999996475,
            "sslEnd" : -1,
            "connectEnd" : 0,
            "dns" : 0,
            "id" : "download_6",
            "sslStart" : -1,
            "dnsEnd" : -1,
            "sendStart" : 0,
            "type" : "image/png",
            "sendEnd" : 0,
            "dnsStart" : -1,
            "receivedTime" : "929.214999996475",
            "len" : 4826,
            "receiveHeadersEnd" : 201,
            "s_time" : 726.472999987891,
            "connectStart" : 0
         },
         "id" : "r6"
      },
      {
         "url" : "http://original.testbed.localhost/cdn2-b.examiner.com/sites/default/files/styles/hero_curated_large/hash/bf/05/bf052290218a1e052fb4435d5d20f27b.jpg%3Fitok=_4DTIKBA",
         "download" : {
            "sslEnd" : -1,
            "connectEnd" : 1,
            "dns" : 0,
            "receiveLast" : 751.836999993655,
            "receiveFirst" : 201,
            "sendStart" : 1,
            "type" : "image/jpeg",
            "dnsEnd" : -1,
            "sslStart" : -1,
            "id" : "download_7",
            "dnsStart" : -1,
            "sendEnd" : 1,
            "connectStart" : 0,
            "receiveHeadersEnd" : 202,
            "len" : 25256,
            "s_time" : 739.481999989948,
            "receivedTime" : "953.836999993655"
         },
         "id" : "r8",
         "when_comp_start" : -1,
         "comps" : []
      },
      {
         "url" : "http://original.testbed.localhost/cdn2-b.examiner.com/sites/default/files/styles/hero_curated_large/hash/20/a5/20a5ff9be1cd2b0fedc8cba4504f76d0.jpg%3Fitok=UNApe7f2",
         "id" : "r7",
         "download" : {
            "sendEnd" : 1,
            "dnsStart" : -1,
            "receivedTime" : "1143.96299999498",
            "len" : 20225,
            "receiveHeadersEnd" : 203,
            "s_time" : 739.34799998824,
            "connectStart" : 0,
            "receiveFirst" : 202,
            "receiveLast" : 940.962999994983,
            "sslEnd" : -1,
            "connectEnd" : 1,
            "dns" : 0,
            "id" : "download_8",
            "sslStart" : -1,
            "dnsEnd" : -1,
            "sendStart" : 1,
            "type" : "image/jpeg"
         },
         "comps" : [],
         "when_comp_start" : -1
      },
      {
         "url" : "http://original.testbed.localhost/cdn2-b.examiner.com/sites/default/files/styles/hero_curated_large/hash/c9/ab/c9ab59d338b80599f1fc17add6a15f6d.jpg%3Fitok=KJEFIaTN",
         "download" : {
            "sslEnd" : -1,
            "connectEnd" : 3,
            "dns" : 0,
            "receiveLast" : 1039.9409999972,
            "receiveFirst" : 202,
            "dnsEnd" : -1,
            "sendStart" : 3,
            "type" : "image/jpeg",
            "id" : "download_9",
            "sslStart" : -1,
            "dnsStart" : -1,
            "sendEnd" : 3,
            "connectStart" : 0,
            "receivedTime" : "1244.9409999972",
            "receiveHeadersEnd" : 205,
            "len" : 18880,
            "s_time" : 838.229999993928
         },
         "id" : "r26",
         "when_comp_start" : -1,
         "comps" : []
      },
      {
         "url" : "http://original.testbed.localhost/cdn2-b.examiner.com/sites/default/files/styles/hero_curated_large/hash/08/35/08351a83e1ebb4b25bed36b4ce3de6f9.jpg%3Fitok=ov8ixChj",
         "when_comp_start" : -1,
         "comps" : [],
         "download" : {
            "connectStart" : 0,
            "s_time" : 838.324999989709,
            "len" : 38810,
            "receiveHeadersEnd" : 205,
            "receivedTime" : "1247.31799999427",
            "dnsStart" : -1,
            "sendEnd" : 3,
            "type" : "image/jpeg",
            "sendStart" : 3,
            "dnsEnd" : -1,
            "sslStart" : -1,
            "id" : "download_10",
            "connectEnd" : 3,
            "dns" : 0,
            "sslEnd" : -1,
            "receiveFirst" : 202,
            "receiveLast" : 1042.31799999427
         },
         "id" : "r27"
      },
      {
         "id" : "r41",
         "download" : {
            "sslStart" : -1,
            "id" : "download_11",
            "type" : "text/plain",
            "sendStart" : 89,
            "dnsEnd" : -1,
            "receiveFirst" : 202,
            "receiveLast" : 841.192999997642,
            "connectEnd" : 89,
            "dns" : 0,
            "sslEnd" : -1,
            "s_time" : 839.452999993227,
            "receiveHeadersEnd" : 291,
            "len" : 5463,
            "receivedTime" : "1132.19299999764",
            "connectStart" : 0,
            "sendEnd" : 89,
            "dnsStart" : -1
         },
         "comps" : [
            {
               "s_time" : 42019.2749999987,
               "e_time" : 42020.3419999889,
               "time" : 1.06699999020202,
               "id" : "comp_41",
               "type" : 1
            }
         ],
         "when_comp_start" : -1,
         "url" : "http://original.testbed.localhost/cdn2-b.examiner.com/sites/default/files/js/js_nCQ5nHRYiQ-6cTVFVyLSNp1fsTIBj2pbRuGiny4jTZs_453_1.js%3Fo6dj05"
      },
      {
         "comps" : [
            {
               "s_time" : 41993.4569999896,
               "e_time" : 42018.7129999977,
               "time" : 25.2560000080994,
               "id" : "comp_37",
               "type" : 1
            }
         ],
         "when_comp_start" : -1,
         "id" : "r40",
         "download" : {
            "connectEnd" : 108,
            "sslEnd" : -1,
            "dns" : 0,
            "receiveLast" : 41653.4619999997,
            "receiveFirst" : 202,
            "dnsEnd" : -1,
            "sendStart" : 108,
            "type" : "text/plain",
            "id" : "download_12",
            "sslStart" : -1,
            "dnsStart" : -1,
            "sendEnd" : 108,
            "connectStart" : 0,
            "receivedTime" : "41963.4619999997",
            "len" : 104377,
            "receiveHeadersEnd" : 310,
            "s_time" : 839.370000001509
         },
         "url" : "http://original.testbed.localhost/cdn2-b.examiner.com/sites/default/files/js/js_2cBQ1DfFkt8zrbf_MtJPF7di7jwslFByQwZU63t57EE_453_1.js%3Fo6dj05"
      },
      {
         "url" : "http://original.testbed.localhost/cdn2-b.examiner.com/sites/default/files/js/js_jd9MbK3K3XvvxdlsfYPlK6OAND4lK7SUM_KIBs2qENI_453_1.js%3Fo6dj05",
         "comps" : [
            {
               "type" : 1,
               "s_time" : 42045.8069999877,
               "e_time" : 42051.6009999992,
               "id" : "comp_46",
               "time" : 5.79400001150498
            }
         ],
         "when_comp_start" : -1,
         "id" : "r43",
         "download" : {
            "connectEnd" : 292,
            "sslEnd" : -1,
            "dns" : 0,
            "receiveFirst" : 201,
            "receiveLast" : 41476.7840000008,
            "sendStart" : 292,
            "type" : "text/plain",
            "dnsEnd" : -1,
            "sslStart" : -1,
            "id" : "download_13",
            "dnsStart" : -1,
            "sendEnd" : 292,
            "connectStart" : 0,
            "len" : 52336,
            "receiveHeadersEnd" : 493,
            "s_time" : 839.718999995966,
            "receivedTime" : "41969.7840000008"
         }
      },
      {
         "url" : "http://original.testbed.localhost/adg.bzgint.com/pub/adg/data.js",
         "comps" : [
            {
               "id" : "comp_43",
               "time" : 25.3479999956035,
               "e_time" : 42045.7369999931,
               "s_time" : 42020.3889999975,
               "type" : 1
            }
         ],
         "when_comp_start" : -1,
         "id" : "r42",
         "download" : {
            "sslStart" : -1,
            "id" : "download_14",
            "type" : "application/javascript",
            "sendStart" : 304,
            "dnsEnd" : -1,
            "receiveLast" : 41451.4919999945,
            "receiveFirst" : 204,
            "sslEnd" : -1,
            "connectEnd" : 304,
            "dns" : 0,
            "s_time" : 839.563999994425,
            "receiveHeadersEnd" : 508,
            "len" : 68244,
            "receivedTime" : "41959.4919999945",
            "connectStart" : 0,
            "sendEnd" : 304,
            "dnsStart" : -1
         }
      },
      {
         "url" : "http://original.testbed.localhost/cdn2-b.examiner.com/sites/all/themes/greyhound/assets/fonts/proximanova-light-webfont.woff%3Fversion=452",
         "when_comp_start" : -1,
         "comps" : [],
         "download" : {
            "receiveFirst" : 201,
            "receiveLast" : 41414.9249999891,
            "connectEnd" : 348,
            "sslEnd" : -1,
            "dns" : 0,
            "id" : "download_15",
            "sslStart" : -1,
            "dnsEnd" : -1,
            "sendStart" : 348,
            "type" : "application/octet-stream",
            "sendEnd" : 348,
            "dnsStart" : -1,
            "receivedTime" : "41963.9249999891",
            "receiveHeadersEnd" : 549,
            "len" : 24356,
            "s_time" : 897.686999989673,
            "connectStart" : 0
         },
         "id" : "r13"
      },
      {
         "when_comp_start" : -1,
         "comps" : [],
         "download" : {
            "sendEnd" : 349,
            "dnsStart" : -1,
            "receiveHeadersEnd" : 551,
            "len" : 28628,
            "s_time" : 897.796999997809,
            "receivedTime" : "41965.2539999952",
            "connectStart" : 0,
            "receiveLast" : 41414.2539999952,
            "receiveFirst" : 202,
            "sslEnd" : -1,
            "connectEnd" : 349,
            "dns" : 0,
            "sslStart" : -1,
            "id" : "download_16",
            "sendStart" : 349,
            "type" : "application/octet-stream",
            "dnsEnd" : -1
         },
         "id" : "r10",
         "url" : "http://original.testbed.localhost/cdn2-b.examiner.com/sites/all/themes/greyhound/assets/fonts/RobotoSlab-Bold-webfont.woff%3Fversion=452"
      },
      {
         "url" : "http://original.testbed.localhost/cdn2-b.examiner.com/sites/all/themes/greyhound/assets/fonts/ExSymbolset.woff%3Fversion=452",
         "when_comp_start" : -1,
         "comps" : [],
         "download" : {
            "connectStart" : 0,
            "receivedTime" : "41966.5009999881",
            "len" : 12184,
            "receiveHeadersEnd" : 633,
            "s_time" : 897.914000001037,
            "dnsStart" : -1,
            "sendEnd" : 432,
            "dnsEnd" : -1,
            "sendStart" : 432,
            "type" : "application/octet-stream",
            "id" : "download_17",
            "sslStart" : -1,
            "sslEnd" : -1,
            "connectEnd" : 432,
            "dns" : 0,
            "receiveFirst" : 201,
            "receiveLast" : 41333.5009999881
         },
         "id" : "r19"
      },
      {
         "url" : "http://original.testbed.localhost/cdn2-b.examiner.com/sites/all/themes/greyhound/assets/fonts/proximanova-sbold-webfont.woff%3Fversion=452",
         "download" : {
            "sendEnd" : 451,
            "dnsStart" : -1,
            "receivedTime" : "41967.220999999",
            "s_time" : 898.027999995975,
            "len" : 24720,
            "receiveHeadersEnd" : 653,
            "connectStart" : 0,
            "receiveFirst" : 202,
            "receiveLast" : 41314.220999999,
            "sslEnd" : -1,
            "connectEnd" : 451,
            "dns" : 0,
            "id" : "download_18",
            "sslStart" : -1,
            "dnsEnd" : -1,
            "type" : "application/octet-stream",
            "sendStart" : 451
         },
         "id" : "r16",
         "when_comp_start" : -1,
         "comps" : []
      },
      {
         "when_comp_start" : -1,
         "comps" : [],
         "download" : {
            "len" : 18554,
            "receiveHeadersEnd" : 718,
            "s_time" : 838.47999999125,
            "receivedTime" : "41968.2759999996",
            "connectStart" : 0,
            "sendEnd" : 516,
            "dnsStart" : -1,
            "sslStart" : -1,
            "id" : "download_19",
            "sendStart" : 516,
            "type" : "image/jpeg",
            "dnsEnd" : -1,
            "receiveLast" : 41250.2759999996,
            "receiveFirst" : 202,
            "connectEnd" : 516,
            "sslEnd" : -1,
            "dns" : 0
         },
         "id" : "r28",
         "url" : "http://original.testbed.localhost/cdn2-b.examiner.com/sites/default/files/styles/hero_curated_large/hash/d3/0a/d30a91ea67bd609a33ff0df5a34c70c5.jpg%3Fitok=5VSBxjc2"
      },
      {
         "id" : "r29",
         "download" : {
            "sslStart" : -1,
            "id" : "download_20",
            "sendStart" : 610,
            "type" : "image/jpeg",
            "dnsEnd" : -1,
            "receiveFirst" : 202,
            "receiveLast" : 41156.7520000007,
            "connectEnd" : 610,
            "sslEnd" : -1,
            "dns" : 0,
            "len" : 33338,
            "receiveHeadersEnd" : 812,
            "s_time" : 838.577999995323,
            "receivedTime" : "41968.7520000007",
            "connectStart" : 0,
            "sendEnd" : 610,
            "dnsStart" : -1
         },
         "comps" : [],
         "when_comp_start" : -1,
         "url" : "http://original.testbed.localhost/cdn2-b.examiner.com/sites/default/files/styles/hero_curated_large/hash/5d/e5/5de5d6c7eb102a601c9f7dc3f44e7c76.jpg%3Fitok=7QUk0IVg"
      },
      {
         "url" : "http://original.testbed.localhost/cdn2-b.examiner.com/sites/default/files/styles/hero_curated_large/hash/97/5a/975a0f2e968527ab137106fb3204f7fb.jpg%3Fitok=pHMz6m9f",
         "download" : {
            "dnsStart" : -1,
            "sendEnd" : 612,
            "connectStart" : 0,
            "s_time" : 838.673999998719,
            "len" : 32093,
            "receiveHeadersEnd" : 815,
            "receivedTime" : "41969.2050000012",
            "sslEnd" : -1,
            "connectEnd" : 612,
            "dns" : 0,
            "receiveFirst" : 203,
            "receiveLast" : 41154.2050000012,
            "type" : "image/jpeg",
            "sendStart" : 612,
            "dnsEnd" : -1,
            "sslStart" : -1,
            "id" : "download_21"
         },
         "id" : "r30",
         "when_comp_start" : -1,
         "comps" : []
      },
      {
         "when_comp_start" : -1,
         "comps" : [],
         "download" : {
            "receivedTime" : "41969.6579999872",
            "len" : 30016,
            "receiveHeadersEnd" : 895,
            "s_time" : 838.802999991458,
            "connectStart" : 0,
            "sendEnd" : 693,
            "dnsStart" : -1,
            "id" : "download_22",
            "sslStart" : -1,
            "dnsEnd" : -1,
            "sendStart" : 693,
            "type" : "image/jpeg",
            "receiveLast" : 41074.6579999872,
            "receiveFirst" : 202,
            "sslEnd" : -1,
            "connectEnd" : 693,
            "dns" : 0
         },
         "id" : "r31",
         "url" : "http://original.testbed.localhost/cdn2-b.examiner.com/sites/default/files/styles/hero_curated_large/hash/e4/93/e493e3cb91da304ec536e65ce56fdadf.jpg%3Fitok=Ec5rau9M"
      },
      {
         "download" : {
            "receiveHeadersEnd" : 916,
            "len" : 27213,
            "s_time" : 838.899999987916,
            "receivedTime" : "41970.2189999953",
            "connectStart" : 0,
            "sendEnd" : 714,
            "dnsStart" : -1,
            "sslStart" : -1,
            "id" : "download_23",
            "sendStart" : 714,
            "type" : "image/jpeg",
            "dnsEnd" : -1,
            "receiveFirst" : 202,
            "receiveLast" : 41054.2189999953,
            "sslEnd" : -1,
            "connectEnd" : 714,
            "dns" : 0
         },
         "id" : "r32",
         "when_comp_start" : -1,
         "comps" : [],
         "url" : "http://original.testbed.localhost/cdn2-b.examiner.com/sites/default/files/styles/hero_curated_large/hash/a8/6a/a86a252e1d4a311050ba9366620c2800.jpg%3Fitok=GZxorOpu"
      },
      {
         "url" : "http://original.testbed.localhost/cdn2-b.examiner.com/sites/default/files/styles/hero_curated_large/hash/92/5e/925e195d6742aa235acadf55b5b9482f.jpg%3Fitok=wLUq4Zl4",
         "download" : {
            "connectStart" : 0,
            "receivedTime" : "41970.5749999994",
            "s_time" : 928.667000000132,
            "receiveHeadersEnd" : 831,
            "len" : 15400,
            "dnsStart" : -1,
            "sendEnd" : 629,
            "dnsEnd" : -1,
            "type" : "image/jpeg",
            "sendStart" : 629,
            "id" : "download_24",
            "sslStart" : -1,
            "sslEnd" : -1,
            "connectEnd" : 629,
            "dns" : 0,
            "receiveFirst" : 202,
            "receiveLast" : 41139.5749999994
         },
         "id" : "r33",
         "when_comp_start" : -1,
         "comps" : []
      },
      {
         "url" : "http://original.testbed.localhost/cdn2-b.examiner.com/sites/default/files/styles/hero_curated_large/hash/22/e1/22e1e52560b5b459b2d245e3b0540167.jpg%3Fitok=kp4llvG8",
         "comps" : [],
         "when_comp_start" : -1,
         "id" : "r34",
         "download" : {
            "connectStart" : 0,
            "len" : 40596,
            "receiveHeadersEnd" : 908,
            "s_time" : 947.219999987283,
            "receivedTime" : "41971.0439999908",
            "dnsStart" : -1,
            "sendEnd" : 706,
            "sendStart" : 706,
            "type" : "image/jpeg",
            "dnsEnd" : -1,
            "sslStart" : -1,
            "id" : "download_25",
            "connectEnd" : 706,
            "sslEnd" : -1,
            "dns" : 0,
            "receiveLast" : 41063.0439999908,
            "receiveFirst" : 202
         }
      },
      {
         "url" : "http://original.testbed.localhost/cdn2-b.examiner.com/sites/default/files/styles/hero_curated_large/hash/8f/3e/8f3eb8987fd189c2e2d258a8ba99b479.jpg%3Fitok=TBxgCF21",
         "comps" : [],
         "when_comp_start" : -1,
         "id" : "r35",
         "download" : {
            "receiveLast" : 41256.5259999939,
            "receiveFirst" : 203,
            "connectEnd" : 512,
            "sslEnd" : -1,
            "dns" : 0,
            "sslStart" : -1,
            "id" : "download_26",
            "type" : "image/jpeg",
            "sendStart" : 512,
            "dnsEnd" : -1,
            "sendEnd" : 512,
            "dnsStart" : -1,
            "s_time" : 1143.48800000153,
            "receiveHeadersEnd" : 715,
            "len" : 40662,
            "receivedTime" : "41971.5259999939",
            "connectStart" : 0
         }
      },
      {
         "url" : "http://original.testbed.localhost/cdn2-b.examiner.com/sites/default/files/styles/hero_curated_large/hash/48/e6/48e6fdfb5715f6f9a17186a2a8ded7b2.jpg%3Fitok=ZQN1CMS9",
         "download" : {
            "connectStart" : 0,
            "s_time" : 1244.59399998887,
            "len" : 34330,
            "receiveHeadersEnd" : 693,
            "receivedTime" : "41971.9749999931",
            "dnsStart" : -1,
            "sendEnd" : 491,
            "type" : "image/jpeg",
            "sendStart" : 491,
            "dnsEnd" : -1,
            "sslStart" : -1,
            "id" : "download_27",
            "sslEnd" : -1,
            "connectEnd" : 491,
            "dns" : 0,
            "receiveLast" : 41278.9749999931,
            "receiveFirst" : 202
         },
         "id" : "r36",
         "when_comp_start" : -1,
         "comps" : []
      },
      {
         "when_comp_start" : -1,
         "comps" : [],
         "download" : {
            "receiveHeadersEnd" : 694,
            "len" : 15948,
            "s_time" : 1246.88899998728,
            "receivedTime" : "41972.3189999931",
            "connectStart" : 0,
            "sendEnd" : 490,
            "dnsStart" : -1,
            "sslStart" : -1,
            "id" : "download_28",
            "sendStart" : 490,
            "type" : "image/jpeg",
            "dnsEnd" : -1,
            "receiveLast" : 41278.3189999931,
            "receiveFirst" : 204,
            "connectEnd" : 490,
            "sslEnd" : -1,
            "dns" : 0
         },
         "id" : "r37",
         "url" : "http://original.testbed.localhost/cdn2-b.examiner.com/sites/default/files/styles/hero_curated_large/hash/61/36/6136d166d826cbfa435ea8e78f949a07.jpg%3Fitok=MGZzln94"
      },
      {
         "download" : {
            "receivedTime" : "41972.6410000003",
            "receiveHeadersEnd" : 401,
            "len" : 11331,
            "s_time" : 1557.52599998959,
            "connectStart" : 0,
            "sendEnd" : 199,
            "dnsStart" : -1,
            "id" : "download_29",
            "sslStart" : -1,
            "dnsEnd" : -1,
            "sendStart" : 199,
            "type" : "image/jpeg",
            "receiveFirst" : 202,
            "receiveLast" : 41571.6410000003,
            "connectEnd" : 199,
            "dns" : 0,
            "sslEnd" : -1
         },
         "id" : "r38",
         "when_comp_start" : -1,
         "comps" : [],
         "url" : "http://original.testbed.localhost/cdn2-b.examiner.com/sites/default/files/styles/hero_curated_large/hash/ba/73/ba736f2b11f1d7caf33641ebac6d3705.jpg%3Fitok=mUf7C_pL"
      },
      {
         "url" : "http://original.testbed.localhost/cdn2-b.examiner.com/sites/default/files/styles/hero_curated_large/hash/4b/95/4b957dd8a13c24ea745c4f2709dd620b.jpg%3Fitok=e9_u0r72",
         "comps" : [],
         "when_comp_start" : -1,
         "id" : "r39",
         "download" : {
            "receivedTime" : "41973.0080000008",
            "s_time" : 1652.87999999418,
            "receiveHeadersEnd" : 309,
            "len" : 18826,
            "connectStart" : 0,
            "sendEnd" : 107,
            "dnsStart" : -1,
            "id" : "download_30",
            "sslStart" : -1,
            "dnsEnd" : -1,
            "type" : "image/jpeg",
            "sendStart" : 107,
            "receiveLast" : 41664.0080000008,
            "receiveFirst" : 202,
            "connectEnd" : 107,
            "sslEnd" : -1,
            "dns" : 0
         }
      },
      {
         "id" : "r57",
         "download" : {
            "dnsStart" : 0,
            "sendEnd" : 201,
            "connectStart" : 0,
            "s_time" : 42052.0539999998,
            "len" : 52783,
            "receiveHeadersEnd" : 403,
            "receivedTime" : "42858.1399999966",
            "connectEnd" : 201,
            "sslEnd" : -1,
            "dns" : 0,
            "receiveFirst" : 202,
            "receiveLast" : 42455.1399999966,
            "type" : "text/plain",
            "sendStart" : 201,
            "dnsEnd" : 0,
            "sslStart" : -1,
            "id" : "download_31"
         },
         "comps" : [],
         "when_comp_start" : -1,
         "url" : "http://original.testbed.localhost/cdn2-b.examiner.com/sites/default/files/js/js_4Jw9dzqoP-ppZQwODDGwFZiSQTIaIGbYrJwGLTf18-M_453_1.js%3Fo6dj05"
      },
      {
         "url" : "http://original.testbed.localhost/misc/help.png",
         "when_comp_start" : 1,
         "comps" : [],
         "download" : {
            "connectEnd" : 0,
            "sslEnd" : -1,
            "dns" : 0,
            "receiveLast" : 42927.2829999875,
            "receiveFirst" : 202,
            "dnsEnd" : -1,
            "sendStart" : 0,
            "type" : "text/html",
            "id" : "download_32",
            "sslStart" : -1,
            "dnsStart" : -1,
            "sendEnd" : 0,
            "connectStart" : 0,
            "receivedTime" : "43129.2829999875",
            "receiveHeadersEnd" : 202,
            "len" : 302,
            "s_time" : 42926.5269999887
         },
         "id" : "r63"
      }
   ],
   "name" : "original.testbed.localhost_www.examiner.com_",
   "n_download_no_trigger" : 1
}
