{
   "start_activity" : "download_0",
   "n_download_no_trigger" : 1,
   "name" : "original.testbed.localhost_www.imdb.com_",
   "objs" : [
      {
         "when_comp_start" : 1,
         "comps" : [
            {
               "type" : "evalhtml",
               "time" : 1504.87099999737,
               "id" : "r1_c1",
               "s_time" : 287.11600000679,
               "e_time" : 1791.98700000416
            },
            {
               "id" : "r1_c2",
               "time" : -130385178.722,
               "type" : "evalhtml",
               "e_time" : -130383269.057,
               "s_time" : 1909.66499999922
            },
            {
               "time" : -130385180.494,
               "type" : "evalhtml",
               "id" : "r1_c3",
               "s_time" : 1911.43700000248,
               "e_time" : -130383269.057
            },
            {
               "s_time" : 1916.04799999914,
               "e_time" : -130383269.057,
               "time" : -130385185.105,
               "type" : "evalhtml",
               "id" : "r1_c4"
            },
            {
               "s_time" : 1919.45300000953,
               "e_time" : 2601.9440000091,
               "type" : "evalhtml",
               "time" : 682.49099999957,
               "id" : "r1_c5"
            }
         ],
         "id" : "r1",
         "url" : "http://original.testbed.localhost/www.imdb.com/",
         "download" : {
            "id" : "download_0",
            "receiveHeadersEnd" : 276,
            "len" : 155804,
            "connectStart" : 0,
            "sendStart" : 72,
            "connectEnd" : 72,
            "type" : "text/html",
            "sslStart" : -1,
            "receiveLast" : 202.415000005043,
            "dnsStart" : 0,
            "dns" : 0,
            "s_time" : 0,
            "sslEnd" : -1,
            "receivedTime" : "478.415000005043",
            "sendEnd" : 72,
            "dnsEnd" : 0,
            "receiveFirst" : 204
         }
      },
      {
         "comps" : [
            {
               "s_time" : 703.191000007791,
               "e_time" : 731.530000004568,
               "time" : 28.338999996777,
               "type" : 4,
               "id" : "comp_14"
            }
         ],
         "when_comp_start" : -1,
         "download" : {
            "len" : 144004,
            "id" : "download_1",
            "receiveHeadersEnd" : 208,
            "type" : "text/css",
            "connectEnd" : 2,
            "sendStart" : 2,
            "connectStart" : 0,
            "receiveLast" : 495.078999998979,
            "sslStart" : -1,
            "dnsStart" : -1,
            "receivedTime" : "703.078999998979",
            "sslEnd" : -1,
            "s_time" : 293.338999996195,
            "dns" : 0,
            "sendEnd" : 2,
            "receiveFirst" : 206,
            "dnsEnd" : -1
         },
         "id" : "r3",
         "url" : "http://original.testbed.localhost/ia.media-imdb.com/images/G/01/imdb/css/collections/pagelayout-flat-903233829._CB298432192_.css"
      },
      {
         "when_comp_start" : -1,
         "comps" : [
            {
               "time" : 1.46699999458997,
               "type" : 4,
               "id" : "comp_10",
               "s_time" : 681.935000000522,
               "e_time" : 683.401999995112
            }
         ],
         "url" : "http://original.testbed.localhost/ia.media-imdb.com/images/G/01/imdb/css/site/consumer-navbar-mega-3796876714._CB298540748_.css",
         "id" : "r4",
         "download" : {
            "sslStart" : -1,
            "receiveLast" : 294.875000009313,
            "connectStart" : 0,
            "type" : "text/css",
            "connectEnd" : 185,
            "sendStart" : 185,
            "id" : "download_2",
            "receiveHeadersEnd" : 387,
            "len" : 10006,
            "dnsEnd" : -1,
            "receiveFirst" : 202,
            "sendEnd" : 185,
            "dns" : 0,
            "s_time" : 293.514000004507,
            "receivedTime" : "681.875000009313",
            "sslEnd" : -1,
            "dnsStart" : -1
         }
      },
      {
         "when_comp_start" : -1,
         "comps" : [],
         "url" : "http://original.testbed.localhost/ia.media-imdb.com/images/G/01/imdb/images/navbar/imdbpro_logo_nb-720143162._CB306318304_.png",
         "id" : "r8",
         "download" : {
            "sendEnd" : 202,
            "dnsEnd" : 1,
            "receiveFirst" : 202,
            "dnsStart" : 1,
            "dns" : 0,
            "s_time" : 294.087999995099,
            "receivedTime" : "699.359999998705",
            "sslEnd" : -1,
            "connectStart" : 0,
            "type" : "image/png",
            "connectEnd" : 202,
            "sendStart" : 202,
            "sslStart" : -1,
            "receiveLast" : 295.359999998705,
            "id" : "download_3",
            "receiveHeadersEnd" : 404,
            "len" : 1340
         }
      },
      {
         "url" : "http://original.testbed.localhost/ia.media-imdb.com/images/G/01/imdb/css/collections/starbarwidget-2454701167._CB293329573_.css",
         "id" : "r5",
         "download" : {
            "connectStart" : 0,
            "sendStart" : 202,
            "connectEnd" : 202,
            "type" : "text/css",
            "sslStart" : -1,
            "receiveLast" : 295.735000001965,
            "receiveHeadersEnd" : 404,
            "id" : "download_4",
            "len" : 3602,
            "sendEnd" : 202,
            "dnsEnd" : 1,
            "receiveFirst" : 202,
            "dnsStart" : 1,
            "dns" : 0,
            "s_time" : 293.640999996569,
            "sslEnd" : -1,
            "receivedTime" : "699.735000001965"
         },
         "when_comp_start" : -1,
         "comps" : [
            {
               "id" : "comp_11",
               "time" : 0.417000002925988,
               "type" : 4,
               "e_time" : 700.200000006589,
               "s_time" : 699.783000003663
            }
         ]
      },
      {
         "comps" : [
            {
               "s_time" : 700.326000005589,
               "e_time" : 701.010999997379,
               "time" : 0.68499999179005,
               "type" : 4,
               "id" : "comp_12"
            }
         ],
         "when_comp_start" : -1,
         "download" : {
            "dnsEnd" : 1,
            "receiveFirst" : 202,
            "sendEnd" : 202,
            "s_time" : 293.755999999121,
            "dns" : 0,
            "receivedTime" : "700.265000006766",
            "sslEnd" : -1,
            "dnsStart" : 1,
            "receiveLast" : 296.265000006766,
            "sslStart" : -1,
            "type" : "text/css",
            "connectEnd" : 202,
            "sendStart" : 202,
            "connectStart" : 0,
            "id" : "download_5",
            "receiveHeadersEnd" : 404,
            "len" : 7470
         },
         "id" : "r6",
         "url" : "http://original.testbed.localhost/ia.media-imdb.com/images/G/01/imdb/css/collections/watchlistButton-2508181169._CB288096406_.css"
      },
      {
         "download" : {
            "sendEnd" : 202,
            "receiveFirst" : 203,
            "dnsEnd" : 1,
            "dnsStart" : 1,
            "sslEnd" : -1,
            "receivedTime" : "701.060999999754",
            "s_time" : 293.890000000829,
            "dns" : 0,
            "sendStart" : 202,
            "connectEnd" : 202,
            "type" : "text/css",
            "connectStart" : 0,
            "receiveLast" : 296.060999999754,
            "sslStart" : -1,
            "len" : 7361,
            "receiveHeadersEnd" : 405,
            "id" : "download_6"
         },
         "id" : "r7",
         "url" : "http://original.testbed.localhost/ia.media-imdb.com/images/G/01/imdb/css/collections/recommendations-3988610918._CB289934424_.css",
         "comps" : [
            {
               "s_time" : 701.107000000775,
               "e_time" : 701.817000008305,
               "type" : 4,
               "time" : 0.71000000752997,
               "id" : "comp_13"
            }
         ],
         "when_comp_start" : -1
      },
      {
         "download" : {
            "len" : 41408,
            "id" : "download_7",
            "receiveHeadersEnd" : 202,
            "receiveLast" : 956.915000007255,
            "sslStart" : -1,
            "sendStart" : 0,
            "connectEnd" : 0,
            "type" : "image/png",
            "connectStart" : 0,
            "sslEnd" : -1,
            "receivedTime" : "1158.91500000726",
            "s_time" : 755.579999997281,
            "dns" : 0,
            "dnsStart" : -1,
            "receiveFirst" : 202,
            "dnsEnd" : -1,
            "sendEnd" : 0
         },
         "url" : "http://original.testbed.localhost/ia.media-imdb.com/images/G/01/imdb/images/navbar/navbar_sprite-580289297._V_.png",
         "id" : "r9",
         "comps" : [],
         "when_comp_start" : -1
      },
      {
         "comps" : [],
         "when_comp_start" : -1,
         "download" : {
            "receiveHeadersEnd" : 202,
            "id" : "download_8",
            "len" : 1024,
            "connectEnd" : 0,
            "sendStart" : 0,
            "type" : "image/png",
            "connectStart" : 0,
            "receiveLast" : 777.909000001498,
            "sslStart" : -1,
            "dnsStart" : -1,
            "s_time" : 776.952000000165,
            "dns" : 0,
            "receivedTime" : "979.909000001498",
            "sslEnd" : -1,
            "sendEnd" : 0,
            "dnsEnd" : -1,
            "receiveFirst" : 202
         },
         "id" : "r10",
         "url" : "http://original.testbed.localhost/ia.media-imdb.com/images/G/01/imdb/images/navbar/imdbpro_logo_menu-2185879182._CB306318245_.png"
      },
      {
         "download" : {
            "dns" : 0,
            "s_time" : 779.061000008369,
            "sslEnd" : -1,
            "receivedTime" : "982.426999995369",
            "dnsStart" : -1,
            "dnsEnd" : -1,
            "receiveFirst" : 201,
            "sendEnd" : 1,
            "id" : "download_9",
            "receiveHeadersEnd" : 202,
            "len" : 1872,
            "sslStart" : -1,
            "receiveLast" : 780.426999995369,
            "connectStart" : 0,
            "connectEnd" : 1,
            "sendStart" : 1,
            "type" : "image/png"
         },
         "id" : "r12",
         "url" : "http://original.testbed.localhost/ia.media-imdb.com/images/G/01/IMDb/icon/play-button._CB318667375_.png",
         "comps" : [],
         "when_comp_start" : -1
      },
      {
         "comps" : [],
         "when_comp_start" : -1,
         "download" : {
            "len" : 24014,
            "id" : "download_10",
            "receiveHeadersEnd" : 203,
            "sslStart" : -1,
            "receiveLast" : 984.823000000208,
            "connectStart" : 0,
            "sendStart" : 1,
            "connectEnd" : 1,
            "type" : "image/jpeg",
            "receivedTime" : "1187.82300000021",
            "sslEnd" : -1,
            "dns" : 0,
            "s_time" : 778.850000002421,
            "dnsStart" : -1,
            "receiveFirst" : 202,
            "dnsEnd" : -1,
            "sendEnd" : 1
         },
         "url" : "http://original.testbed.localhost/ia.media-imdb.com/images/M/MV5BMTcyMDQ1OTE3MF5BMl5BanBnXkFtZTgwNjE3Nzk0ODE@._V1_SY298_CR4,0,201,298_AL_.jpg",
         "id" : "r11"
      },
      {
         "id" : "r13",
         "url" : "http://original.testbed.localhost/ia.media-imdb.com/images/G/01/IMDb/icon/play-button-hover._CB318667374_.png",
         "download" : {
            "id" : "download_11",
            "receiveHeadersEnd" : 203,
            "len" : 1902,
            "receiveLast" : 787.025999999489,
            "sslStart" : -1,
            "sendStart" : 1,
            "connectEnd" : 1,
            "type" : "image/png",
            "connectStart" : 0,
            "s_time" : 779.198999996879,
            "dns" : 0,
            "sslEnd" : -1,
            "receivedTime" : "990.025999999489",
            "dnsStart" : -1,
            "dnsEnd" : -1,
            "receiveFirst" : 202,
            "sendEnd" : 1
         },
         "when_comp_start" : -1,
         "comps" : []
      },
      {
         "comps" : [],
         "when_comp_start" : -1,
         "download" : {
            "receivedTime" : "990.3900000063",
            "sslEnd" : -1,
            "dns" : 0,
            "s_time" : 779.424000007566,
            "dnsStart" : -1,
            "receiveFirst" : 202,
            "dnsEnd" : -1,
            "sendEnd" : 1,
            "len" : 11615,
            "receiveHeadersEnd" : 203,
            "id" : "download_12",
            "sslStart" : -1,
            "receiveLast" : 787.3900000063,
            "connectStart" : 0,
            "connectEnd" : 1,
            "sendStart" : 1,
            "type" : "image/jpeg"
         },
         "id" : "r14",
         "url" : "http://original.testbed.localhost/ia.media-imdb.com/images/M/MV5BMTQ3NzYwNjIxOF5BMl5BanBnXkFtZTgwODU1NzE4ODE@._V1_SX201_CR0,0,201,298_AL_.jpg"
      },
      {
         "when_comp_start" : 1,
         "comps" : [
            {
               "s_time" : 1192.01300000714,
               "e_time" : 1603.16900000907,
               "time" : 411.15600000193,
               "type" : "evalhtml",
               "id" : "r51_c1"
            }
         ],
         "id" : "r51",
         "url" : "http://original.testbed.localhost/ia.media-imdb.com/images/G/01/imdb/html/twitter-3626940295._CB298540565_.html%3Fconfig=%257B%2522width%2522%253A%2522300px%2522%252C%2522height%2522%253A%2522500px%2522%252C%2522href%2522%253A%2522https%253A%252F%252Ftwitter.com%252FIMDb%2522%252C%2522heading%2522%2",
         "download" : {
            "receiveHeadersEnd" : 333,
            "id" : "download_13",
            "len" : 1996,
            "connectStart" : 0,
            "sendStart" : 131,
            "connectEnd" : 131,
            "type" : "text/html",
            "sslStart" : -1,
            "receiveLast" : 849.605000009062,
            "dnsStart" : -1,
            "dns" : 0,
            "s_time" : 848.95700000925,
            "sslEnd" : -1,
            "receivedTime" : "1182.60500000906",
            "sendEnd" : 131,
            "dnsEnd" : -1,
            "receiveFirst" : 202
         }
      },
      {
         "download" : {
            "sendEnd" : 133,
            "receiveFirst" : 201,
            "dnsEnd" : -1,
            "dnsStart" : -1,
            "sslEnd" : -1,
            "receivedTime" : "1188.11000000278",
            "dns" : 0,
            "s_time" : 849.807000005967,
            "connectStart" : 0,
            "type" : "text/html",
            "connectEnd" : 132,
            "sendStart" : 132,
            "sslStart" : -1,
            "receiveLast" : 854.11000000278,
            "len" : 840,
            "id" : "download_14",
            "receiveHeadersEnd" : 334
         },
         "id" : "r52",
         "url" : "http://original.testbed.localhost/ia.media-imdb.com/images/G/01/imdb/html/facebook-869486875._CB313935095_.html",
         "comps" : [
            {
               "e_time" : 1200.78500000818,
               "s_time" : 1199.1149999958,
               "id" : "r52_c1",
               "time" : 1.67000001238011,
               "type" : "evalhtml"
            }
         ],
         "when_comp_start" : 1
      },
      {
         "when_comp_start" : -1,
         "comps" : [
            {
               "type" : 1,
               "time" : 29.3549999914801,
               "id" : "comp_114",
               "s_time" : 1880.31000000774,
               "e_time" : 1909.66499999922
            }
         ],
         "id" : "r55",
         "url" : "http://original.testbed.localhost/ia.media-imdb.com/images/G/01/imdb/js/collections/pagelayout-1236922041._CB274690342_.js",
         "download" : {
            "sendEnd" : 121,
            "dnsEnd" : -1,
            "receiveFirst" : 204,
            "dnsStart" : -1,
            "s_time" : 862.691000002087,
            "dns" : 0,
            "sslEnd" : -1,
            "receivedTime" : "1198.65500000014",
            "sendStart" : 121,
            "connectEnd" : 121,
            "type" : "application/javascript",
            "connectStart" : 0,
            "receiveLast" : 873.655000000144,
            "sslStart" : -1,
            "id" : "download_15",
            "receiveHeadersEnd" : 325,
            "len" : 88198
         }
      },
      {
         "download" : {
            "sendStart" : 121,
            "connectEnd" : 121,
            "type" : "application/javascript",
            "connectStart" : 0,
            "receiveLast" : 1467.18200000166,
            "sslStart" : -1,
            "len" : 366484,
            "id" : "download_16",
            "receiveHeadersEnd" : 328,
            "sendEnd" : 121,
            "receiveFirst" : 207,
            "dnsEnd" : -1,
            "dnsStart" : -1,
            "sslEnd" : -1,
            "receivedTime" : "1795.18200000166",
            "s_time" : 862.460999996983,
            "dns" : 0
         },
         "url" : "http://original.testbed.localhost/ia.media-imdb.com/images/G/01/imdb/js/collections/common-1944661907._CB274936654_.js",
         "id" : "r54",
         "comps" : [
            {
               "id" : "comp_112",
               "time" : 84.9129999987799,
               "type" : null,
               "e_time" : 1880.19300000451,
               "s_time" : 1795.28000000573
            }
         ],
         "when_comp_start" : -1
      },
      {
         "download" : {
            "connectEnd" : 296,
            "sendStart" : 296,
            "type" : "application/javascript",
            "connectStart" : 0,
            "receiveLast" : 863.870000007912,
            "sslStart" : -1,
            "len" : 5726,
            "id" : "download_17",
            "receiveHeadersEnd" : 498,
            "sendEnd" : 296,
            "receiveFirst" : 202,
            "dnsEnd" : -1,
            "dnsStart" : -1,
            "sslEnd" : -1,
            "receivedTime" : "1361.87000000791",
            "s_time" : 862.833000006503,
            "dns" : 0
         },
         "id" : "r56",
         "url" : "http://original.testbed.localhost/ia.media-imdb.com/images/G/01/imdb/js/collections/starbarwidget-335260898._CB289148898_.js",
         "comps" : [
            {
               "e_time" : 1911.43700000248,
               "s_time" : 1909.76700000465,
               "id" : "comp_121",
               "time" : 1.66999999783002,
               "type" : 1
            }
         ],
         "when_comp_start" : -1
      },
      {
         "when_comp_start" : -1,
         "comps" : [
            {
               "time" : 4.52400000359012,
               "type" : 1,
               "id" : "comp_124",
               "s_time" : 1911.52399999555,
               "e_time" : 1916.04799999914
            }
         ],
         "id" : "r57",
         "url" : "http://original.testbed.localhost/ia.media-imdb.com/images/G/01/imdb/js/collections/watchlistButton-194820129._CB286493173_.js",
         "download" : {
            "receiveHeadersEnd" : 521,
            "id" : "download_18",
            "len" : 23976,
            "connectStart" : 0,
            "type" : "application/javascript",
            "connectEnd" : 319,
            "sendStart" : 319,
            "sslStart" : -1,
            "receiveLast" : 865.244000008446,
            "dnsStart" : -1,
            "dns" : 0,
            "s_time" : 862.966000000597,
            "receivedTime" : "1386.24400000845",
            "sslEnd" : -1,
            "sendEnd" : 319,
            "dnsEnd" : -1,
            "receiveFirst" : 202
         }
      },
      {
         "when_comp_start" : -1,
         "comps" : [
            {
               "e_time" : 1919.45300000953,
               "s_time" : 1916.16900000372,
               "id" : "comp_127",
               "time" : 3.28400000580996,
               "type" : 1
            }
         ],
         "id" : "r58",
         "url" : "http://original.testbed.localhost/ia.media-imdb.com/images/G/01/imdb/js/collections/recommendations-2126106747._CB289323193_.js",
         "download" : {
            "receivedTime" : "1387.13499999722",
            "sslEnd" : -1,
            "dns" : 0,
            "s_time" : 863.064999997732,
            "dnsStart" : -1,
            "receiveFirst" : 203,
            "dnsEnd" : -1,
            "sendEnd" : 320,
            "len" : 18979,
            "receiveHeadersEnd" : 523,
            "id" : "download_19",
            "sslStart" : -1,
            "receiveLast" : 864.134999997215,
            "connectStart" : 0,
            "connectEnd" : 320,
            "type" : "application/javascript",
            "sendStart" : 320
         }
      },
      {
         "comps" : [],
         "when_comp_start" : -1,
         "download" : {
            "type" : "image/jpeg",
            "connectEnd" : 405,
            "sendStart" : 405,
            "connectStart" : 0,
            "receiveLast" : 1003.14099999738,
            "sslStart" : -1,
            "receiveHeadersEnd" : 607,
            "id" : "download_20",
            "len" : 15771,
            "sendEnd" : 405,
            "dnsEnd" : -1,
            "receiveFirst" : 202,
            "dnsStart" : -1,
            "s_time" : 779.722000006586,
            "dns" : 0,
            "sslEnd" : -1,
            "receivedTime" : "1610.14099999738"
         },
         "id" : "r15",
         "url" : "http://original.testbed.localhost/ia.media-imdb.com/images/M/MV5BMjA1MTA4MzU4Ml5BMl5BanBnXkFtZTgwNjUxNjczODE@._V1_SY298_CR0,0,201,298_AL_.jpg"
      },
      {
         "id" : "r16",
         "url" : "http://original.testbed.localhost/ia.media-imdb.com/images/M/MV5BZjgzZTFkMmQtM2JjZS00MmIyLWFmNWItZmNiODBiNTFhNzlhXkEyXkFqcGdeQXVyNjUwNzk3NDc@._UY460_CR190,0,614,460_SY230_SX307_AL_.jpg",
         "download" : {
            "receiveHeadersEnd" : 611,
            "id" : "download_21",
            "len" : 12603,
            "sslStart" : -1,
            "receiveLast" : 783.551000004867,
            "connectStart" : 0,
            "connectEnd" : 409,
            "type" : "image/jpeg",
            "sendStart" : 409,
            "dns" : 0,
            "s_time" : 780.78600000299,
            "receivedTime" : "1394.55100000487",
            "sslEnd" : -1,
            "dnsStart" : -1,
            "dnsEnd" : -1,
            "receiveFirst" : 202,
            "sendEnd" : 409
         },
         "when_comp_start" : -1,
         "comps" : []
      },
      {
         "when_comp_start" : -1,
         "comps" : [
            {
               "s_time" : 1569.16400000046,
               "e_time" : 1603.12600000179,
               "time" : 33.9620000013301,
               "type" : null,
               "id" : "comp_94"
            }
         ],
         "url" : "http://original.testbed.localhost/platform.twitter.com/widgets.js",
         "id" : "r59",
         "download" : {
            "receiveLast" : 1197.08800000383,
            "sslStart" : -1,
            "sendStart" : 167,
            "connectEnd" : 167,
            "type" : "application/javascript",
            "connectStart" : 0,
            "id" : "download_22",
            "receiveHeadersEnd" : 372,
            "len" : 95204,
            "dnsEnd" : -1,
            "receiveFirst" : 205,
            "sendEnd" : 167,
            "s_time" : 1194.41500000539,
            "dns" : 0,
            "sslEnd" : -1,
            "receivedTime" : "1569.08800000383",
            "dnsStart" : -1
         }
      },
      {
         "download" : {
            "sslStart" : -1,
            "receiveLast" : 803.700000004726,
            "connectStart" : 0,
            "connectEnd" : 605,
            "sendStart" : 605,
            "type" : "image/jpeg",
            "receiveHeadersEnd" : 807,
            "id" : "download_23",
            "len" : 14399,
            "dnsEnd" : -1,
            "receiveFirst" : 202,
            "sendEnd" : 605,
            "dns" : 0,
            "s_time" : 781.096000006073,
            "sslEnd" : -1,
            "receivedTime" : "1610.70000000473",
            "dnsStart" : -1
         },
         "id" : "r17",
         "url" : "http://original.testbed.localhost/ia.media-imdb.com/images/M/MV5BMTA0OTQwMDc1NTReQTJeQWpwZ15BbWU3MDg4MzA5NzI@._UX614_CR0,84,614,460_SY230_SX307_AL_.jpg",
         "comps" : [],
         "when_comp_start" : -1
      },
      {
         "download" : {
            "len" : 9998,
            "id" : "download_24",
            "receiveHeadersEnd" : 807,
            "receiveLast" : 804.040999996476,
            "sslStart" : -1,
            "sendStart" : 605,
            "connectEnd" : 605,
            "type" : "image/jpeg",
            "connectStart" : 0,
            "receivedTime" : "1611.04099999648",
            "sslEnd" : -1,
            "s_time" : 781.973000004655,
            "dns" : 0,
            "dnsStart" : -1,
            "receiveFirst" : 202,
            "dnsEnd" : -1,
            "sendEnd" : 605
         },
         "id" : "r18",
         "url" : "http://original.testbed.localhost/ia.media-imdb.com/images/M/MV5BMjExMzQxNTMxMl5BMl5BanBnXkFtZTgwMDY1NzE4ODE@._UX1500_CR540,60,402,402_SY201_SX201_AL_.jpg",
         "comps" : [],
         "when_comp_start" : -1
      },
      {
         "id" : "r19",
         "url" : "http://original.testbed.localhost/ia.media-imdb.com/images/M/MV5BMTk3NTA2MjE0N15BMl5BanBnXkFtZTgwNzU1NzE4ODE@._UX500_CR70,60,402,402_SY201_SX201_AL_.jpg",
         "download" : {
            "receiveFirst" : 202,
            "dnsEnd" : -1,
            "sendEnd" : 414,
            "sslEnd" : -1,
            "receivedTime" : "1611.73699999927",
            "s_time" : 979.759000008926,
            "dns" : 0,
            "dnsStart" : -1,
            "receiveLast" : 995.736999999266,
            "sslStart" : -1,
            "connectEnd" : 414,
            "sendStart" : 414,
            "type" : "image/jpeg",
            "connectStart" : 0,
            "len" : 8485,
            "id" : "download_25",
            "receiveHeadersEnd" : 616
         },
         "when_comp_start" : -1,
         "comps" : []
      },
      {
         "when_comp_start" : -1,
         "comps" : [],
         "id" : "r20",
         "url" : "http://original.testbed.localhost/ia.media-imdb.com/images/M/MV5BMTg5NzI0NTI0OF5BMl5BanBnXkFtZTgwNjU1NzE4ODE@._UY402_CR70,0,402,402_SY201_SX201_AL_.jpg",
         "download" : {
            "connectEnd" : 587,
            "sendStart" : 587,
            "type" : "image/jpeg",
            "connectStart" : 0,
            "receiveLast" : 983.636999998009,
            "sslStart" : -1,
            "receiveHeadersEnd" : 788,
            "id" : "download_26",
            "len" : 9366,
            "sendEnd" : 587,
            "dnsEnd" : -1,
            "receiveFirst" : 201,
            "dnsStart" : -1,
            "s_time" : 982.34400000365,
            "dns" : 0,
            "sslEnd" : -1,
            "receivedTime" : "1771.63699999801"
         }
      },
      {
         "comps" : [],
         "when_comp_start" : -1,
         "download" : {
            "sendStart" : 604,
            "connectEnd" : 604,
            "type" : "image/jpeg",
            "connectStart" : 0,
            "receiveLast" : 984.504999997211,
            "sslStart" : -1,
            "len" : 6963,
            "receiveHeadersEnd" : 806,
            "id" : "download_27",
            "sendEnd" : 604,
            "receiveFirst" : 202,
            "dnsEnd" : -1,
            "dnsStart" : -1,
            "sslEnd" : -1,
            "receivedTime" : "1790.50499999721",
            "s_time" : 983.516000007512,
            "dns" : 0
         },
         "url" : "http://original.testbed.localhost/ia.media-imdb.com/images/M/MV5BMjQ0MTgyNjAxMV5BMl5BanBnXkFtZTgwNjUzMDkyODE@._V1_SY150_CR0,0,101,150_AL_.jpg",
         "id" : "r21"
      },
      {
         "when_comp_start" : -1,
         "comps" : [],
         "url" : "http://original.testbed.localhost/ia.media-imdb.com/images/M/MV5BNzQxMzA3NzQzM15BMl5BanBnXkFtZTcwMTQxMDc3MQ@@._V1_SY150_CR2,0,101,150_AL_.jpg",
         "id" : "r22",
         "download" : {
            "receiveFirst" : 201,
            "dnsEnd" : -1,
            "sendEnd" : 605,
            "receivedTime" : "1791.30799999984",
            "sslEnd" : -1,
            "dns" : 0,
            "s_time" : 984.142000001157,
            "dnsStart" : -1,
            "sslStart" : -1,
            "receiveLast" : 985.307999999844,
            "connectStart" : 0,
            "connectEnd" : 605,
            "sendStart" : 605,
            "type" : "image/jpeg",
            "len" : 4392,
            "id" : "download_28",
            "receiveHeadersEnd" : 806
         }
      },
      {
         "comps" : [],
         "when_comp_start" : -1,
         "download" : {
            "len" : 4642,
            "receiveHeadersEnd" : 632,
            "id" : "download_29",
            "connectStart" : 0,
            "sendStart" : 431,
            "connectEnd" : 431,
            "type" : "image/jpeg",
            "sslStart" : -1,
            "receiveLast" : 1160.02599999553,
            "dnsStart" : -1,
            "receivedTime" : "1792.02599999553",
            "sslEnd" : -1,
            "dns" : 0,
            "s_time" : 1158.96899999643,
            "sendEnd" : 431,
            "receiveFirst" : 201,
            "dnsEnd" : -1
         },
         "url" : "http://original.testbed.localhost/ia.media-imdb.com/images/M/MV5BOTMxMjEwNDk2NF5BMl5BanBnXkFtZTcwMDY1MjE2Mw@@._V1_SX101_AL_.jpg",
         "id" : "r23"
      },
      {
         "when_comp_start" : -1,
         "comps" : [],
         "url" : "http://original.testbed.localhost/ia.media-imdb.com/images/M/MV5BMjIwMjUyODExOV5BMl5BanBnXkFtZTgwMjE0NDM4ODE@._UX402_CR0,150,402,402_SY201_SX201_AL_.jpg",
         "id" : "r24",
         "download" : {
            "dnsEnd" : -1,
            "receiveFirst" : 201,
            "sendEnd" : 414,
            "s_time" : 1183.32399999781,
            "dns" : 0,
            "receivedTime" : "1967.57599999546",
            "sslEnd" : -1,
            "dnsStart" : -1,
            "receiveLast" : 1352.57599999546,
            "sslStart" : -1,
            "sendStart" : 413,
            "connectEnd" : 413,
            "type" : "image/jpeg",
            "connectStart" : 0,
            "id" : "download_30",
            "receiveHeadersEnd" : 615,
            "len" : 12147
         }
      },
      {
         "comps" : [],
         "when_comp_start" : -1,
         "download" : {
            "receiveLast" : 1395.42600000068,
            "sslStart" : -1,
            "sendStart" : 378,
            "connectEnd" : 378,
            "type" : "image/jpeg",
            "connectStart" : 0,
            "id" : "download_31",
            "receiveHeadersEnd" : 579,
            "len" : 11577,
            "dnsEnd" : -1,
            "receiveFirst" : 201,
            "sendEnd" : 378,
            "s_time" : 1393.52800000052,
            "dns" : 0,
            "sslEnd" : -1,
            "receivedTime" : "1974.42600000068",
            "dnsStart" : -1
         },
         "id" : "r25",
         "url" : "http://original.testbed.localhost/ia.media-imdb.com/images/M/MV5BOTk1MjQ2OTI5M15BMl5BanBnXkFtZTgwMzU3NDM4ODE@._V1_SY201_CR54,0,201,201_AL_.jpg"
      },
      {
         "id" : "r26",
         "url" : "http://original.testbed.localhost/ia.media-imdb.com/images/M/MV5BMTcyMjcxNTc3M15BMl5BanBnXkFtZTgwMTcxNTM4ODE@._UX404_CR2,10,402,402_SY201_SX201_AL_.jpg",
         "download" : {
            "dnsStart" : -1,
            "receivedTime" : "1992.94300000474",
            "sslEnd" : -1,
            "s_time" : 1587.57600000536,
            "dns" : 0,
            "sendEnd" : 203,
            "receiveFirst" : 201,
            "dnsEnd" : -1,
            "len" : 10315,
            "receiveHeadersEnd" : 404,
            "id" : "download_32",
            "connectEnd" : 203,
            "type" : "image/jpeg",
            "sendStart" : 203,
            "connectStart" : 0,
            "receiveLast" : 1588.94300000474,
            "sslStart" : -1
         },
         "when_comp_start" : -1,
         "comps" : []
      },
      {
         "comps" : [],
         "when_comp_start" : -1,
         "download" : {
            "dnsStart" : -1,
            "receivedTime" : "1999.03500000073",
            "sslEnd" : -1,
            "dns" : 0,
            "s_time" : 1589.11800000351,
            "sendEnd" : 202,
            "receiveFirst" : 202,
            "dnsEnd" : -1,
            "len" : 5525,
            "receiveHeadersEnd" : 404,
            "id" : "download_33",
            "connectStart" : 0,
            "sendStart" : 202,
            "connectEnd" : 202,
            "type" : "image/jpeg",
            "sslStart" : -1,
            "receiveLast" : 1595.03500000073
         },
         "url" : "http://original.testbed.localhost/ia.media-imdb.com/images/M/MV5BMjI1ODUyMDg2Nl5BMl5BanBnXkFtZTgwNTcwNTU1NTE@._V1_SY172_CR28,0,116,172_AL_.jpg",
         "id" : "r27"
      },
      {
         "url" : "http://original.testbed.localhost/ia.media-imdb.com/images/M/MV5BMTI4OTY5Nzg5NV5BMl5BanBnXkFtZTcwMzM0ODEyMw@@._V1_SY172_CR71,0,116,172_AL_.jpg",
         "id" : "r28",
         "download" : {
            "sslStart" : -1,
            "receiveLast" : 1595.15099999635,
            "connectStart" : 0,
            "sendStart" : 202,
            "connectEnd" : 202,
            "type" : "image/jpeg",
            "id" : "download_34",
            "receiveHeadersEnd" : 404,
            "len" : 4981,
            "dnsEnd" : -1,
            "receiveFirst" : 202,
            "sendEnd" : 202,
            "dns" : 0,
            "s_time" : 1589.82500000275,
            "receivedTime" : "1999.15099999635",
            "sslEnd" : -1,
            "dnsStart" : -1
         },
         "when_comp_start" : -1,
         "comps" : []
      },
      {
         "when_comp_start" : -1,
         "comps" : [],
         "url" : "http://original.testbed.localhost/ia.media-imdb.com/images/M/MV5BNzU4MzE3NTc4M15BMl5BanBnXkFtZTgwNjcxODY3NzE@._V1_SY172_CR6,0,116,172_AL_.jpg",
         "id" : "r29",
         "download" : {
            "sendEnd" : 198,
            "receiveFirst" : 201,
            "dnsEnd" : -1,
            "dnsStart" : -1,
            "receivedTime" : "1999.39399999857",
            "sslEnd" : -1,
            "dns" : 0,
            "s_time" : 1597.04200000851,
            "connectStart" : 0,
            "sendStart" : 198,
            "connectEnd" : 198,
            "type" : "image/jpeg",
            "sslStart" : -1,
            "receiveLast" : 1600.39399999857,
            "len" : 5793,
            "id" : "download_35",
            "receiveHeadersEnd" : 399
         }
      },
      {
         "comps" : [],
         "when_comp_start" : -1,
         "download" : {
            "receiveLast" : 1775.91600000532,
            "sslStart" : -1,
            "connectEnd" : 28,
            "sendStart" : 28,
            "type" : "image/jpeg",
            "connectStart" : 0,
            "len" : 4480,
            "id" : "download_36",
            "receiveHeadersEnd" : 229,
            "receiveFirst" : 201,
            "dnsEnd" : -1,
            "sendEnd" : 28,
            "receivedTime" : "2004.91600000532",
            "sslEnd" : -1,
            "s_time" : 1771.66300000681,
            "dns" : 0,
            "dnsStart" : -1
         },
         "url" : "http://original.testbed.localhost/ia.media-imdb.com/images/M/MV5BNjg3OTc2MTA3NV5BMl5BanBnXkFtZTcwODc0MTU0NQ@@._V1_SY172_CR6,0,116,172_AL_.jpg",
         "id" : "r30"
      },
      {
         "when_comp_start" : 1,
         "comps" : [],
         "url" : "http://original.testbed.localhost/widget/recommendations/recs",
         "id" : "r63",
         "download" : {
            "receiveLast" : 1939.6409999982,
            "sslStart" : -1,
            "connectEnd" : 36,
            "type" : "text/html",
            "sendStart" : 36,
            "connectStart" : 0,
            "receiveHeadersEnd" : 237,
            "id" : "download_37",
            "len" : 316,
            "dnsEnd" : -1,
            "receiveFirst" : 201,
            "sendEnd" : 36,
            "s_time" : 1938.61500000639,
            "dns" : 0,
            "sslEnd" : -1,
            "receivedTime" : "2176.6409999982",
            "dnsStart" : -1
         }
      },
      {
         "download" : {
            "dns" : 0,
            "s_time" : 1790.42600000685,
            "sslEnd" : -1,
            "receivedTime" : "2195.98099999712",
            "dnsStart" : -1,
            "dnsEnd" : -1,
            "receiveFirst" : 201,
            "sendEnd" : 203,
            "id" : "download_38",
            "receiveHeadersEnd" : 404,
            "len" : 4895,
            "sslStart" : -1,
            "receiveLast" : 1791.98099999712,
            "connectStart" : 0,
            "sendStart" : 203,
            "connectEnd" : 203,
            "type" : "image/jpeg"
         },
         "url" : "http://original.testbed.localhost/ia.media-imdb.com/images/M/MV5BMTUyMjI1MDEyN15BMl5BanBnXkFtZTYwNzkwNjI2._V1_SY172_CR1,0,116,172_AL_.jpg",
         "id" : "r31",
         "comps" : [],
         "when_comp_start" : -1
      },
      {
         "comps" : [],
         "when_comp_start" : -1,
         "download" : {
            "dnsStart" : -1,
            "receivedTime" : "2203.93200000399",
            "sslEnd" : -1,
            "s_time" : 1791.26600000018,
            "dns" : 0,
            "sendEnd" : 203,
            "receiveFirst" : 202,
            "dnsEnd" : -1,
            "len" : 12741,
            "id" : "download_39",
            "receiveHeadersEnd" : 405,
            "type" : "image/jpeg",
            "connectEnd" : 203,
            "sendStart" : 203,
            "connectStart" : 0,
            "receiveLast" : 1798.93200000399,
            "sslStart" : -1
         },
         "url" : "http://original.testbed.localhost/ia.media-imdb.com/images/M/MV5BMTc1ODQ0MTg5N15BMl5BanBnXkFtZTgwOTg1Mzg2ODE@._V1_SY230_CR52,0,307,230_AL_.jpg",
         "id" : "r32"
      },
      {
         "comps" : [],
         "when_comp_start" : -1,
         "download" : {
            "connectStart" : 0,
            "sendStart" : 203,
            "connectEnd" : 203,
            "type" : "image/jpeg",
            "sslStart" : -1,
            "receiveLast" : 1798.40000000235,
            "id" : "download_40",
            "receiveHeadersEnd" : 406,
            "len" : 10773,
            "sendEnd" : 203,
            "dnsEnd" : -1,
            "receiveFirst" : 203,
            "dnsStart" : -1,
            "dns" : 0,
            "s_time" : 1791.98700000416,
            "receivedTime" : "2204.40000000235",
            "sslEnd" : -1
         },
         "url" : "http://original.testbed.localhost/ia.media-imdb.com/images/M/MV5BNjE4MjcyMDAxN15BMl5BanBnXkFtZTgwNzA2NTA1NDE@._V1_SX307_CR0,0,307,230_AL_.jpg",
         "id" : "r33"
      },
      {
         "when_comp_start" : -1,
         "comps" : [],
         "id" : "r34",
         "url" : "http://original.testbed.localhost/ia.media-imdb.com/images/M/MV5BMjIzMDIwOTA1OF5BMl5BanBnXkFtZTcwMjk0NjM5NA@@._V1_SX201_CR0,0,201,201_AL_.jpg",
         "download" : {
            "sendEnd" : 198,
            "dnsEnd" : -1,
            "receiveFirst" : 201,
            "dnsStart" : -1,
            "dns" : 0,
            "s_time" : 1799.47500000708,
            "receivedTime" : "2204.73199999833",
            "sslEnd" : -1,
            "connectStart" : 0,
            "connectEnd" : 198,
            "sendStart" : 198,
            "type" : "image/jpeg",
            "sslStart" : -1,
            "receiveLast" : 1805.73199999833,
            "receiveHeadersEnd" : 399,
            "id" : "download_41",
            "len" : 9363
         }
      },
      {
         "when_comp_start" : -1,
         "comps" : [],
         "id" : "r35",
         "url" : "http://original.testbed.localhost/ia.media-imdb.com/images/M/MV5BMjA0ODIzMTcxN15BMl5BanBnXkFtZTgwNjU5MDE1MTE@._UY450_CR40,47,402,402_SY201_SX201_AL_.jpg",
         "download" : {
            "sendStart" : 28,
            "connectEnd" : 28,
            "type" : "image/jpeg",
            "connectStart" : 0,
            "receiveLast" : 1977.17800000764,
            "sslStart" : -1,
            "len" : 11107,
            "receiveHeadersEnd" : 229,
            "id" : "download_42",
            "sendEnd" : 28,
            "receiveFirst" : 201,
            "dnsEnd" : -1,
            "dnsStart" : -1,
            "receivedTime" : "2206.17800000764",
            "sslEnd" : -1,
            "s_time" : 1974.21600000234,
            "dns" : 0
         }
      },
      {
         "url" : "http://original.testbed.localhost/ia.media-imdb.com/images/M/MV5BMjE0NjY4OTEwNl5BMl5BanBnXkFtZTgwMTE0OTIwMjE@._V1_SY201_CR55,0,201,201_AL_.jpg",
         "id" : "r36",
         "download" : {
            "receivedTime" : "2379.55300000613",
            "sslEnd" : -1,
            "s_time" : 1992.89100000169,
            "dns" : 0,
            "dnsStart" : -1,
            "receiveFirst" : 201,
            "dnsEnd" : -1,
            "sendEnd" : 184,
            "len" : 11127,
            "receiveHeadersEnd" : 385,
            "id" : "download_43",
            "receiveLast" : 1994.55300000613,
            "sslStart" : -1,
            "type" : "image/jpeg",
            "connectEnd" : 183,
            "sendStart" : 183,
            "connectStart" : 0
         },
         "when_comp_start" : -1,
         "comps" : []
      },
      {
         "url" : "http://original.testbed.localhost/ia.media-imdb.com/images/M/MV5BNDE0NTQwODM5M15BMl5BanBnXkFtZTYwNzQ2Nzk5._V1_SX116_CR0,0,116,172_AL_.jpg",
         "id" : "r37",
         "download" : {
            "receiveHeadersEnd" : 403,
            "id" : "download_44",
            "len" : 7391,
            "sslStart" : -1,
            "receiveLast" : 1996.04600000591,
            "connectStart" : 0,
            "connectEnd" : 202,
            "type" : "image/jpeg",
            "sendStart" : 202,
            "dns" : 0,
            "s_time" : 1994.4930000056,
            "sslEnd" : -1,
            "receivedTime" : "2399.04600000591",
            "dnsStart" : -1,
            "dnsEnd" : -1,
            "receiveFirst" : 201,
            "sendEnd" : 202
         },
         "when_comp_start" : -1,
         "comps" : []
      },
      {
         "download" : {
            "receivedTime" : "2407.48599999642",
            "sslEnd" : -1,
            "s_time" : 1994.8080000031,
            "dns" : 0,
            "dnsStart" : -1,
            "receiveFirst" : 202,
            "dnsEnd" : -1,
            "sendEnd" : 203,
            "len" : 637,
            "receiveHeadersEnd" : 405,
            "id" : "download_45",
            "receiveLast" : 2002.48599999642,
            "sslStart" : -1,
            "type" : "image/png",
            "connectEnd" : 203,
            "sendStart" : 203,
            "connectStart" : 0
         },
         "id" : "r38",
         "url" : "http://original.testbed.localhost/ia.media-imdb.com/images/G/01/IMDb/icon/external-button._CB304896345_.png",
         "comps" : [],
         "when_comp_start" : -1
      },
      {
         "comps" : [],
         "when_comp_start" : -1,
         "download" : {
            "dnsStart" : -1,
            "dns" : 0,
            "s_time" : 1997.32700000459,
            "receivedTime" : "2408.03500000038",
            "sslEnd" : -1,
            "sendEnd" : 201,
            "dnsEnd" : -1,
            "receiveFirst" : 202,
            "id" : "download_46",
            "receiveHeadersEnd" : 403,
            "len" : 631,
            "connectStart" : 0,
            "connectEnd" : 201,
            "sendStart" : 201,
            "type" : "image/png",
            "sslStart" : -1,
            "receiveLast" : 2005.03500000038
         },
         "id" : "r39",
         "url" : "http://original.testbed.localhost/ia.media-imdb.com/images/G/01/IMDb/icon/external-button-hover._CB304896345_.png"
      },
      {
         "download" : {
            "dnsStart" : -1,
            "receivedTime" : "2408.54699999909",
            "sslEnd" : -1,
            "s_time" : 2001.86899999972,
            "dns" : 0,
            "sendEnd" : 198,
            "receiveFirst" : 202,
            "dnsEnd" : -1,
            "len" : 7902,
            "receiveHeadersEnd" : 400,
            "id" : "download_47",
            "connectEnd" : 198,
            "type" : "image/jpeg",
            "sendStart" : 198,
            "connectStart" : 0,
            "receiveLast" : 2008.54699999909,
            "sslStart" : -1
         },
         "id" : "r40",
         "url" : "http://original.testbed.localhost/ia.media-imdb.com/images/M/MV5BMTI4ODIzMDYxN15BMl5BanBnXkFtZTcwOTY2NzMyMQ@@._V1_SY172_CR2,0,116,172_AL_.jpg",
         "comps" : [],
         "when_comp_start" : -1
      },
      {
         "download" : {
            "len" : 7022,
            "receiveHeadersEnd" : 210,
            "id" : "download_48",
            "connectStart" : 0,
            "type" : "image/jpeg",
            "connectEnd" : 9,
            "sendStart" : 9,
            "sslStart" : -1,
            "receiveLast" : 2198.94399999524,
            "dnsStart" : -1,
            "receivedTime" : "2408.94399999524",
            "sslEnd" : -1,
            "dns" : 0,
            "s_time" : 2195.97200000135,
            "sendEnd" : 9,
            "receiveFirst" : 201,
            "dnsEnd" : -1
         },
         "url" : "http://original.testbed.localhost/ia.media-imdb.com/images/M/MV5BMjEzOTE3ODM3OF5BMl5BanBnXkFtZTcwMzYyODI4Mg@@._V1_SX116_CR0,0,116,172_AL_.jpg",
         "id" : "r41",
         "comps" : [],
         "when_comp_start" : -1
      },
      {
         "when_comp_start" : -1,
         "comps" : [],
         "url" : "http://original.testbed.localhost/ia.media-imdb.com/images/M/MV5BMTI3OTM0MzY3M15BMl5BanBnXkFtZTcwNzY3NzQyMw@@._V1._CR28,1,298,465_SX116_CR0,0,116,172_AL_.jpg",
         "id" : "r42",
         "download" : {
            "receiveHeadersEnd" : 384,
            "id" : "download_49",
            "len" : 8138,
            "sslStart" : -1,
            "receiveLast" : 2198.54899999883,
            "connectStart" : 0,
            "type" : "image/jpeg",
            "connectEnd" : 182,
            "sendStart" : 182,
            "dns" : 0,
            "s_time" : 2197.61899999867,
            "sslEnd" : -1,
            "receivedTime" : "2582.54899999883",
            "dnsStart" : -1,
            "dnsEnd" : -1,
            "receiveFirst" : 202,
            "sendEnd" : 182
         }
      },
      {
         "id" : "r43",
         "url" : "http://original.testbed.localhost/ia.media-imdb.com/images/M/MV5BMTI2OTk4MDk3OF5BMl5BanBnXkFtZTcwMTY3NTc3Mg@@._V1_SX116_CR0,0,116,172_AL_.jpg",
         "download" : {
            "receiveHeadersEnd" : 402,
            "id" : "download_50",
            "len" : 7162,
            "connectStart" : 0,
            "connectEnd" : 201,
            "sendStart" : 201,
            "type" : "image/jpeg",
            "sslStart" : -1,
            "receiveLast" : 2199.9959999976,
            "dnsStart" : -1,
            "dns" : 0,
            "s_time" : 2198.56000000436,
            "receivedTime" : "2601.9959999976",
            "sslEnd" : -1,
            "sendEnd" : 201,
            "dnsEnd" : -1,
            "receiveFirst" : 201
         },
         "when_comp_start" : -1,
         "comps" : []
      },
      {
         "comps" : [],
         "when_comp_start" : -1,
         "download" : {
            "len" : 5096,
            "receiveHeadersEnd" : 402,
            "id" : "download_51",
            "sslStart" : -1,
            "receiveLast" : 2202.34099999839,
            "connectStart" : 0,
            "connectEnd" : 201,
            "type" : "image/jpeg",
            "sendStart" : 201,
            "receivedTime" : "2604.34099999839",
            "sslEnd" : -1,
            "dns" : 0,
            "s_time" : 2199.71699999587,
            "dnsStart" : -1,
            "receiveFirst" : 201,
            "dnsEnd" : -1,
            "sendEnd" : 201
         },
         "id" : "r44",
         "url" : "http://original.testbed.localhost/ia.media-imdb.com/images/M/MV5BODYzMjc5NDEzNF5BMl5BanBnXkFtZTgwMzI3ODcyODE@._V1_SY132_CR0,0,89,132_AL_.jpg"
      },
      {
         "comps" : [],
         "when_comp_start" : -1,
         "download" : {
            "sendEnd" : 197,
            "receiveFirst" : 202,
            "dnsEnd" : -1,
            "dnsStart" : -1,
            "receivedTime" : "2604.62600000028",
            "sslEnd" : -1,
            "dns" : 0,
            "s_time" : 2204.55399999628,
            "connectStart" : 0,
            "connectEnd" : 197,
            "sendStart" : 197,
            "type" : "image/jpeg",
            "sslStart" : -1,
            "receiveLast" : 2205.62600000028,
            "len" : 5035,
            "receiveHeadersEnd" : 399,
            "id" : "download_52"
         },
         "url" : "http://original.testbed.localhost/ia.media-imdb.com/images/M/MV5BMTkyODMxNDUyNl5BMl5BanBnXkFtZTcwMjcxOTcxNA@@._V1_SY207_CR85,0,140,207_AL_.jpg",
         "id" : "r45"
      },
      {
         "comps" : [],
         "when_comp_start" : -1,
         "download" : {
            "connectStart" : 0,
            "type" : "image/jpeg",
            "connectEnd" : 24,
            "sendStart" : 24,
            "sslStart" : -1,
            "receiveLast" : 2380.66100000869,
            "id" : "download_53",
            "receiveHeadersEnd" : 225,
            "len" : 7808,
            "sendEnd" : 24,
            "dnsEnd" : -1,
            "receiveFirst" : 201,
            "dnsStart" : -1,
            "dns" : 0,
            "s_time" : 2379.49600000866,
            "receivedTime" : "2605.66100000869",
            "sslEnd" : -1
         },
         "id" : "r46",
         "url" : "http://original.testbed.localhost/ia.media-imdb.com/images/M/MV5BNzA4NjU3ODA0OV5BMl5BanBnXkFtZTcwMTY3NDc4MQ@@._V1_SX140_CR0,0,140,207_AL_.jpg"
      },
      {
         "url" : "http://original.testbed.localhost/ia.media-imdb.com/images/M/MV5BZjI0YzgxY2UtMjc1OS00ZTJiLTg2NWMtN2E5OWQ3NGRlN2RlXkEyXkFqcGdeQXVyNjUwNzk3NDc@._V1_SY207_CR173,0,140,207_AL_.jpg",
         "id" : "r47",
         "download" : {
            "sslStart" : -1,
            "receiveLast" : 2402.61399999785,
            "connectStart" : 0,
            "sendStart" : 9,
            "connectEnd" : 9,
            "type" : "image/jpeg",
            "id" : "download_54",
            "receiveHeadersEnd" : 210,
            "len" : 4721,
            "dnsEnd" : -1,
            "receiveFirst" : 201,
            "sendEnd" : 9,
            "dns" : 0,
            "s_time" : 2398.95400000387,
            "sslEnd" : -1,
            "receivedTime" : "2612.61399999785",
            "dnsStart" : -1
         },
         "when_comp_start" : -1,
         "comps" : []
      },
      {
         "download" : {
            "receiveLast" : 2401.79900000477,
            "sslStart" : -1,
            "connectEnd" : 182,
            "type" : "image/jpeg",
            "sendStart" : 182,
            "connectStart" : 0,
            "len" : 5423,
            "receiveHeadersEnd" : 384,
            "id" : "download_55",
            "receiveFirst" : 202,
            "dnsEnd" : -1,
            "sendEnd" : 182,
            "sslEnd" : -1,
            "receivedTime" : "2785.79900000477",
            "s_time" : 2400.53300000727,
            "dns" : 0,
            "dnsStart" : -1
         },
         "id" : "r48",
         "url" : "http://original.testbed.localhost/ia.media-imdb.com/images/M/MV5BMTEwNTAyNjgxNjheQTJeQWpwZ15BbWU3MDAzMzU1Mjc@._V1_SY207_CR114,0,140,207_AL_.jpg",
         "comps" : [],
         "when_comp_start" : -1
      },
      {
         "comps" : [],
         "when_comp_start" : -1,
         "download" : {
            "id" : "download_56",
            "receiveHeadersEnd" : 402,
            "len" : 6730,
            "sslStart" : -1,
            "receiveLast" : 2403.52000000898,
            "connectStart" : 0,
            "connectEnd" : 200,
            "type" : "image/jpeg",
            "sendStart" : 200,
            "dns" : 0,
            "s_time" : 2401.93300000101,
            "sslEnd" : -1,
            "receivedTime" : "2805.52000000898",
            "dnsStart" : -1,
            "dnsEnd" : -1,
            "receiveFirst" : 202,
            "sendEnd" : 200
         },
         "url" : "http://original.testbed.localhost/ia.media-imdb.com/images/M/MV5BMTAzNzg4MDcyMDFeQTJeQWpwZ15BbWU3MDExNDQ1NzU@._V1_SY207_CR6,0,140,207_AL_.jpg",
         "id" : "r49"
      },
      {
         "when_comp_start" : -1,
         "comps" : [],
         "id" : "r50",
         "url" : "http://original.testbed.localhost/ia.media-imdb.com/images/M/MV5BMTExNTA2MDQ2MTdeQTJeQWpwZ15BbWU4MDU0MzAyODMx._V1_CR0,47,500,281_AL_.jpg",
         "download" : {
            "sendEnd" : 199,
            "receiveFirst" : 202,
            "dnsEnd" : -1,
            "dnsStart" : -1,
            "sslEnd" : -1,
            "receivedTime" : "3005.96199999563",
            "s_time" : 2403.29800000472,
            "dns" : 0,
            "sendStart" : 199,
            "connectEnd" : 199,
            "type" : "image/jpeg",
            "connectStart" : 0,
            "receiveLast" : 2604.96199999563,
            "sslStart" : -1,
            "len" : 39923,
            "id" : "download_57",
            "receiveHeadersEnd" : 401
         }
      },
      {
         "when_comp_start" : -1,
         "comps" : [],
         "url" : "http://original.testbed.localhost/ia.media-imdb.com/images/M/MV5BMTQ3NTA1NTIyMF5BMl5BanBnXkFtZTgwOTc4MDM1ODE@._V1_SY230_CR19,0,307,230_AL_.jpg",
         "id" : "r53",
         "download" : {
            "receiveHeadersEnd" : 399,
            "id" : "download_58",
            "len" : 11257,
            "sendStart" : 196,
            "connectEnd" : 196,
            "type" : "image/jpeg",
            "connectStart" : 0,
            "receiveLast" : 2409.4380000073,
            "sslStart" : -1,
            "dnsStart" : -1,
            "s_time" : 2407.51000000455,
            "dns" : 0,
            "sslEnd" : -1,
            "receivedTime" : "2808.4380000073",
            "sendEnd" : 196,
            "dnsEnd" : -1,
            "receiveFirst" : 203
         }
      },
      {
         "id" : "r62",
         "url" : "http://original.testbed.localhost/ia.media-imdb.com/images/G/01/imdb/images/lb/overlay-1511558127._V_.png",
         "download" : {
            "dnsStart" : -1,
            "receivedTime" : "2811.82000000263",
            "sslEnd" : -1,
            "s_time" : 2582.51100000052,
            "dns" : 0,
            "sendEnd" : 23,
            "receiveFirst" : 202,
            "dnsEnd" : -1,
            "len" : 47963,
            "id" : "download_59",
            "receiveHeadersEnd" : 225,
            "sendStart" : 23,
            "connectEnd" : 23,
            "type" : "image/png",
            "connectStart" : 0,
            "receiveLast" : 2586.82000000263,
            "sslStart" : -1
         },
         "when_comp_start" : -1,
         "comps" : []
      },
      {
         "when_comp_start" : -1,
         "comps" : [],
         "url" : "http://original.testbed.localhost/ia.media-imdb.com/images/G/01/imdb/images/jquery/plugins/watchlist-ribbon-sprite-sm-771043870._V_.png",
         "id" : "r64",
         "download" : {
            "receiveLast" : 2609.11399999808,
            "sslStart" : -1,
            "type" : "image/png",
            "connectEnd" : 8,
            "sendStart" : 8,
            "connectStart" : 0,
            "id" : "download_60",
            "receiveHeadersEnd" : 210,
            "len" : 932,
            "dnsEnd" : -1,
            "receiveFirst" : 202,
            "sendEnd" : 8,
            "s_time" : 2601.9440000091,
            "dns" : 0,
            "sslEnd" : -1,
            "receivedTime" : "2819.11399999808",
            "dnsStart" : -1
         }
      }
   ],
   "load_activity" : -1,
   "deps" : [
      {
         "id" : "dep1",
         "time" : -1,
         "a2" : "r1_c2",
         "a1" : "comp_114"
      },
      {
         "a1" : "comp_121",
         "a2" : "r1_c3",
         "time" : -1,
         "id" : "dep2"
      },
      {
         "a1" : "comp_124",
         "a2" : "r1_c4",
         "time" : -1,
         "id" : "dep3"
      },
      {
         "a1" : "comp_127",
         "id" : "dep4",
         "time" : -1,
         "a2" : "r1_c5"
      },
      {
         "a1" : "comp_114",
         "a2" : "comp_121",
         "id" : "dep5",
         "time" : -1
      },
      {
         "time" : -1,
         "id" : "dep6",
         "a2" : "comp_124",
         "a1" : "comp_121"
      },
      {
         "a1" : "comp_124",
         "time" : -1,
         "id" : "dep7",
         "a2" : "comp_127"
      },
      {
         "a1" : "r1_c5",
         "id" : "dep8",
         "time" : -1,
         "a2" : "download_60"
      },
      {
         "a2" : "download_59",
         "time" : 663.05799999099,
         "id" : "dep9",
         "a1" : "r1_c5"
      },
      {
         "a2" : "download_58",
         "time" : 488.05699999502,
         "id" : "dep10",
         "a1" : "r1_c5"
      },
      {
         "a1" : "r1_c5",
         "id" : "dep11",
         "time" : 483.84499999519,
         "a2" : "download_57"
      },
      {
         "a1" : "r1_c5",
         "time" : 482.47999999148,
         "id" : "dep12",
         "a2" : "download_56"
      },
      {
         "a1" : "r1_c5",
         "a2" : "download_55",
         "time" : 481.07999999774,
         "id" : "dep13"
      },
      {
         "a2" : "download_54",
         "id" : "dep14",
         "time" : 479.50099999434,
         "a1" : "r1_c5"
      },
      {
         "a2" : "download_53",
         "id" : "dep15",
         "time" : 460.04299999913,
         "a1" : "r1_c5"
      },
      {
         "a2" : "download_52",
         "id" : "dep16",
         "time" : 285.10099998675,
         "a1" : "r1_c5"
      },
      {
         "a1" : "r1_c5",
         "a2" : "download_51",
         "time" : 280.26399998634,
         "id" : "dep17"
      },
      {
         "a2" : "download_50",
         "time" : 279.10699999483,
         "id" : "dep18",
         "a1" : "r1_c5"
      },
      {
         "time" : 278.16599998914,
         "id" : "dep19",
         "a2" : "download_49",
         "a1" : "r1_c5"
      },
      {
         "a1" : "r1_c5",
         "a2" : "download_48",
         "time" : 276.51899999182,
         "id" : "dep20"
      },
      {
         "id" : "dep21",
         "time" : 82.4159999901901,
         "a2" : "download_47",
         "a1" : "r1_c5"
      },
      {
         "id" : "dep22",
         "time" : 77.8739999950601,
         "a2" : "download_46",
         "a1" : "r1_c5"
      },
      {
         "time" : 75.3549999935701,
         "id" : "dep23",
         "a2" : "download_45",
         "a1" : "r1_c5"
      },
      {
         "a1" : "r1_c5",
         "time" : 75.03999999607,
         "id" : "dep24",
         "a2" : "download_44"
      },
      {
         "id" : "dep25",
         "time" : 73.43799999216,
         "a2" : "download_43",
         "a1" : "r1_c5"
      },
      {
         "a1" : "r1_c5",
         "time" : 54.7629999928101,
         "id" : "dep26",
         "a2" : "download_42"
      },
      {
         "a2" : "download_41",
         "id" : "dep27",
         "time" : 4.19500000135008,
         "a1" : "comp_112"
      },
      {
         "a1" : "r1_c1",
         "time" : -1,
         "id" : "dep28",
         "a2" : "download_40"
      },
      {
         "a1" : "r1_c1",
         "a2" : "download_39",
         "time" : 1504.14999999339,
         "id" : "dep29"
      },
      {
         "a2" : "download_38",
         "id" : "dep30",
         "time" : 1503.31000000006,
         "a1" : "r1_c1"
      },
      {
         "a1" : "r1_c5",
         "time" : 19.16199999686,
         "id" : "dep31",
         "a2" : "download_37"
      },
      {
         "a1" : "r1_c1",
         "a2" : "download_36",
         "time" : 1484.54700000002,
         "id" : "dep32"
      },
      {
         "a1" : "comp_94",
         "id" : "dep33",
         "time" : 27.8780000080501,
         "a2" : "download_35"
      },
      {
         "a2" : "download_34",
         "id" : "dep34",
         "time" : 20.6610000022899,
         "a1" : "comp_94"
      },
      {
         "time" : 19.9540000030499,
         "id" : "dep35",
         "a2" : "download_33",
         "a1" : "comp_94"
      },
      {
         "a1" : "comp_94",
         "a2" : "download_32",
         "id" : "dep36",
         "time" : 18.4120000048999
      },
      {
         "time" : 201.51499999338,
         "id" : "dep37",
         "a2" : "download_31",
         "a1" : "r51_c1"
      },
      {
         "a1" : "r1_c1",
         "id" : "dep38",
         "time" : 1106.41199999373,
         "a2" : "download_31"
      },
      {
         "a2" : "download_30",
         "time" : 896.20799999102,
         "id" : "dep39",
         "a1" : "r1_c1"
      },
      {
         "a1" : "r1_c1",
         "a2" : "download_29",
         "id" : "dep40",
         "time" : 871.85299998964
      },
      {
         "a2" : "download_28",
         "time" : 697.025999994367,
         "id" : "dep41",
         "a1" : "r1_c1"
      },
      {
         "a1" : "r1_c1",
         "time" : 696.400000000722,
         "id" : "dep42",
         "a2" : "download_27"
      },
      {
         "a1" : "r1_c1",
         "a2" : "download_26",
         "time" : 695.22799999686,
         "id" : "dep43"
      },
      {
         "a2" : "download_25",
         "time" : 692.643000002136,
         "id" : "dep44",
         "a1" : "r1_c1"
      },
      {
         "a1" : "r1_c1",
         "a2" : "download_24",
         "time" : 494.856999997865,
         "id" : "dep45"
      },
      {
         "a1" : "r1_c1",
         "a2" : "download_23",
         "time" : 493.979999999283,
         "id" : "dep46"
      },
      {
         "a1" : "r51_c1",
         "time" : 2.40199999825018,
         "id" : "dep47",
         "a2" : "download_22"
      },
      {
         "id" : "dep48",
         "time" : 907.2989999986,
         "a2" : "download_22",
         "a1" : "r1_c1"
      },
      {
         "time" : 493.6699999962,
         "id" : "dep49",
         "a2" : "download_21",
         "a1" : "r1_c1"
      },
      {
         "a1" : "r1_c1",
         "a2" : "download_20",
         "id" : "dep50",
         "time" : 492.605999999796
      },
      {
         "a1" : "r1_c1",
         "a2" : "download_19",
         "id" : "dep51",
         "time" : 575.948999990942
      },
      {
         "a1" : "r1_c1",
         "id" : "dep52",
         "time" : 575.948999990942,
         "a2" : "download_19"
      },
      {
         "time" : 575.849999993807,
         "id" : "dep53",
         "a2" : "download_18",
         "a1" : "r1_c1"
      },
      {
         "a2" : "download_18",
         "time" : 575.849999993807,
         "id" : "dep54",
         "a1" : "r1_c1"
      },
      {
         "a1" : "r1_c1",
         "id" : "dep55",
         "time" : 575.716999999713,
         "a2" : "download_17"
      },
      {
         "a1" : "r1_c1",
         "a2" : "download_17",
         "id" : "dep56",
         "time" : 575.716999999713
      },
      {
         "time" : 575.344999990193,
         "id" : "dep57",
         "a2" : "download_16",
         "a1" : "r1_c1"
      },
      {
         "time" : 575.574999995297,
         "id" : "dep58",
         "a2" : "download_15",
         "a1" : "r1_c1"
      },
      {
         "time" : 575.574999995297,
         "id" : "dep59",
         "a2" : "download_15",
         "a1" : "r1_c1"
      },
      {
         "a2" : "download_14",
         "time" : 562.690999999177,
         "id" : "dep60",
         "a1" : "r1_c1"
      },
      {
         "a2" : "download_13",
         "time" : 561.84100000246,
         "id" : "dep61",
         "a1" : "r1_c1"
      },
      {
         "id" : "dep62",
         "time" : 492.308000000776,
         "a2" : "download_12",
         "a1" : "r1_c1"
      },
      {
         "a1" : "r1_c1",
         "id" : "dep63",
         "time" : 492.082999990089,
         "a2" : "download_11"
      },
      {
         "a1" : "r1_c1",
         "time" : 491.733999995631,
         "id" : "dep64",
         "a2" : "download_10"
      },
      {
         "id" : "dep65",
         "time" : 491.945000001579,
         "a2" : "download_9",
         "a1" : "r1_c1"
      },
      {
         "a2" : "download_8",
         "time" : 489.835999993375,
         "id" : "dep66",
         "a1" : "r1_c1"
      },
      {
         "a1" : "r1_c1",
         "id" : "dep67",
         "time" : 468.463999990491,
         "a2" : "download_7"
      },
      {
         "a1" : "r1_c1",
         "time" : 6.773999994039,
         "id" : "dep68",
         "a2" : "download_6"
      },
      {
         "a1" : "r1_c1",
         "a2" : "download_5",
         "time" : 6.63999999233101,
         "id" : "dep69"
      },
      {
         "id" : "dep70",
         "time" : 6.52499998977902,
         "a2" : "download_4",
         "a1" : "r1_c1"
      },
      {
         "a1" : "r1_c1",
         "a2" : "download_3",
         "id" : "dep71",
         "time" : 6.97199998830899
      },
      {
         "a1" : "r1_c1",
         "a2" : "download_3",
         "time" : 6.97199998830899,
         "id" : "dep72"
      },
      {
         "a2" : "download_2",
         "id" : "dep73",
         "time" : 6.39799999771702,
         "a1" : "r1_c1"
      },
      {
         "a1" : "r1_c1",
         "id" : "dep74",
         "time" : 6.22299998940503,
         "a2" : "download_1"
      }
   ]
}
