{
   "deps" : [
      {
         "a2" : "r1_c2",
         "id" : "dep1",
         "a1" : "comp_16",
         "time" : -1
      },
      {
         "time" : -1,
         "id" : "dep2",
         "a1" : "comp_21",
         "a2" : "r1_c3"
      },
      {
         "time" : -1,
         "a2" : "comp_16",
         "id" : "dep3",
         "a1" : "comp_1"
      },
      {
         "time" : -1,
         "a2" : "comp_21",
         "a1" : "comp_16",
         "id" : "dep4"
      },
      {
         "a2" : "download_21",
         "a1" : "r1_c3",
         "id" : "dep5",
         "time" : 0.698999996530119
      },
      {
         "a2" : "download_20",
         "a1" : "r1_c1",
         "id" : "dep6",
         "time" : -1
      },
      {
         "time" : 3.92399998963799,
         "id" : "dep7",
         "a1" : "r1_c1",
         "a2" : "download_20"
      },
      {
         "a2" : "download_19",
         "id" : "dep8",
         "a1" : "r1_c1",
         "time" : 3.824999992502
      },
      {
         "time" : 3.824999992502,
         "a1" : "r1_c1",
         "id" : "dep9",
         "a2" : "download_19"
      },
      {
         "time" : 3.60899999213802,
         "a2" : "download_18",
         "a1" : "r1_c1",
         "id" : "dep10"
      },
      {
         "a2" : "download_18",
         "a1" : "r1_c1",
         "id" : "dep11",
         "time" : 3.60899999213802
      },
      {
         "id" : "dep12",
         "a1" : "r1_c1",
         "a2" : "download_17",
         "time" : 3.52800000109698
      },
      {
         "time" : 3.52800000109698,
         "a2" : "download_17",
         "a1" : "r1_c1",
         "id" : "dep13"
      },
      {
         "time" : 3.449999989243,
         "a2" : "download_16",
         "id" : "dep14",
         "a1" : "r1_c1"
      },
      {
         "time" : 3.449999989243,
         "a1" : "r1_c1",
         "id" : "dep15",
         "a2" : "download_16"
      },
      {
         "time" : 3.02800000644993,
         "a2" : "download_15",
         "a1" : "r29_c1",
         "id" : "dep16"
      },
      {
         "time" : 61.01499999931,
         "a2" : "download_15",
         "a1" : "r1_c3",
         "id" : "dep17"
      },
      {
         "id" : "dep18",
         "a1" : "r1_c3",
         "a2" : "download_14",
         "time" : 0.56699999549005
      },
      {
         "time" : -1,
         "a1" : "r1_c1",
         "id" : "dep19",
         "a2" : "download_13"
      },
      {
         "a1" : "r1_c1",
         "id" : "dep20",
         "a2" : "download_12",
         "time" : 456.426999997347
      },
      {
         "time" : 421.700999999302,
         "a1" : "r1_c1",
         "id" : "dep21",
         "a2" : "download_11"
      },
      {
         "time" : 439.079999996465,
         "id" : "dep22",
         "a1" : "r1_c1",
         "a2" : "download_10"
      },
      {
         "time" : 3.33300000056602,
         "id" : "dep23",
         "a1" : "r1_c1",
         "a2" : "download_9"
      },
      {
         "time" : 3.33300000056602,
         "id" : "dep24",
         "a1" : "r1_c1",
         "a2" : "download_9"
      },
      {
         "id" : "dep25",
         "a1" : "r1_c1",
         "a2" : "download_8",
         "time" : 3.247000000556
      },
      {
         "a2" : "download_8",
         "id" : "dep26",
         "a1" : "r1_c1",
         "time" : 3.247000000556
      },
      {
         "a2" : "download_7",
         "id" : "dep27",
         "a1" : "r1_c1",
         "time" : 3.15799999225402
      },
      {
         "time" : 3.15799999225402,
         "a2" : "download_7",
         "a1" : "r1_c1",
         "id" : "dep28"
      },
      {
         "time" : 195.139999996172,
         "a2" : "download_6",
         "id" : "dep29",
         "a1" : "r1_c1"
      },
      {
         "time" : 195.139999996172,
         "a2" : "download_6",
         "id" : "dep30",
         "a1" : "r1_c1"
      },
      {
         "a2" : "download_5",
         "id" : "dep31",
         "a1" : "r1_c1",
         "time" : 194.77299999562
      },
      {
         "time" : 194.77299999562,
         "a1" : "r1_c1",
         "id" : "dep32",
         "a2" : "download_5"
      },
      {
         "id" : "dep33",
         "a1" : "r1_c1",
         "a2" : "download_4",
         "time" : 2.62299999303599
      },
      {
         "time" : 194.956999999703,
         "id" : "dep34",
         "a1" : "r1_c1",
         "a2" : "download_3"
      },
      {
         "a1" : "r1_c1",
         "id" : "dep35",
         "a2" : "download_3",
         "time" : 194.956999999703
      },
      {
         "a2" : "download_2",
         "a1" : "r1_c1",
         "id" : "dep36",
         "time" : 3.70999998995103
      },
      {
         "a1" : "r1_c1",
         "id" : "dep37",
         "a2" : "download_2",
         "time" : 3.70999998995103
      },
      {
         "a1" : "r1_c1",
         "id" : "dep38",
         "a2" : "download_1",
         "time" : 2.40399999893202
      }
   ],
   "n_download_no_trigger" : 1,
   "start_activity" : "download_0",
   "load_activity" : -1,
   "objs" : [
      {
         "url" : "http://original.testbed.localhost/www.ebay.com/",
         "comps" : [
            {
               "time" : 598.801999993156,
               "s_time" : 326.828000004753,
               "e_time" : 925.629999997909,
               "id" : "r1_c1",
               "type" : "evalhtml"
            },
            {
               "e_time" : -128573673.895,
               "id" : "r1_c2",
               "type" : "evalhtml",
               "time" : -128574738.845,
               "s_time" : 1064.94999999995
            },
            {
               "id" : "r1_c3",
               "e_time" : 1760.31599999988,
               "type" : "evalhtml",
               "time" : 685.05099999311,
               "s_time" : 1075.26500000677
            }
         ],
         "id" : "r1",
         "download" : {
            "receivedTime" : "519.994000002043",
            "receiveHeadersEnd" : 318,
            "dns" : 0,
            "s_time" : 0,
            "id" : "download_0",
            "receiveLast" : 201.994000002043,
            "receiveFirst" : 207,
            "sslStart" : -1,
            "sslEnd" : -1,
            "sendEnd" : 111,
            "dnsEnd" : 0,
            "connectEnd" : 111,
            "connectStart" : 0,
            "len" : 184424,
            "type" : "text/html",
            "dnsStart" : 0,
            "sendStart" : 111
         },
         "when_comp_start" : 1
      },
      {
         "download" : {
            "receivedTime" : "736.692999998922",
            "receiveHeadersEnd" : 206,
            "dns" : 0,
            "s_time" : 329.232000003685,
            "id" : "download_1",
            "receiveLast" : 530.692999998922,
            "receiveFirst" : 206,
            "sslStart" : -1,
            "sslEnd" : -1,
            "sendEnd" : 0,
            "dnsEnd" : -1,
            "len" : 124350,
            "connectEnd" : 0,
            "connectStart" : 0,
            "type" : "text/css",
            "dnsStart" : -1,
            "sendStart" : 0
         },
         "when_comp_start" : -1,
         "id" : "r2",
         "comps" : [
            {
               "id" : "comp_2",
               "e_time" : 778.004000007058,
               "type" : 4,
               "time" : 41.1510000121771,
               "s_time" : 736.852999994881
            }
         ],
         "url" : "http://original.testbed.localhost/ir.ebaystatic.com/rs/v/divhf1v0iy2djotkvuhgyihbsu2.css%3Fproc=DU:N.css"
      },
      {
         "when_comp_start" : -1,
         "download" : {
            "sslStart" : -1,
            "receiveFirst" : 202,
            "sslEnd" : -1,
            "sendEnd" : 189,
            "connectEnd" : 189,
            "connectStart" : 0,
            "len" : 10845,
            "dnsEnd" : -1,
            "type" : "text/css",
            "sendStart" : 189,
            "dnsStart" : -1,
            "receivedTime" : "723.314999995637",
            "receiveHeadersEnd" : 391,
            "s_time" : 330.537999994704,
            "dns" : 0,
            "id" : "download_2",
            "receiveLast" : 332.314999995637
         },
         "comps" : [
            {
               "id" : "comp_1",
               "e_time" : 723.442000002251,
               "type" : 4,
               "time" : 0.0209999998329522,
               "s_time" : 723.421000002418
            }
         ],
         "id" : "r10",
         "url" : "http://original.testbed.localhost/rtm.ebaystatic.com/0/Rtm/Css/test_deals_20151231_2.css"
      },
      {
         "comps" : [
            {
               "e_time" : 1075.26500000677,
               "id" : "comp_21",
               "type" : 1,
               "time" : 10.2210000041,
               "s_time" : 1065.04400000267
            }
         ],
         "id" : "r14",
         "url" : "http://original.testbed.localhost/ir.ebaystatic.com/rs/v/xv1wcuzedq4g5elyftufl5ijcuz.js",
         "download" : {
            "connectEnd" : 10,
            "connectStart" : 0,
            "len" : 47465,
            "dnsEnd" : 0,
            "type" : "application/javascript",
            "sendStart" : 10,
            "dnsStart" : 0,
            "receiveFirst" : 205,
            "sslStart" : -1,
            "sslEnd" : -1,
            "sendEnd" : 10,
            "id" : "download_3",
            "receiveLast" : 824.392999999109,
            "receivedTime" : "1039.39299999911",
            "receiveHeadersEnd" : 215,
            "s_time" : 521.785000004456,
            "dns" : 0
         },
         "when_comp_start" : -1
      },
      {
         "download" : {
            "receivedTime" : "778.655999994953",
            "receiveHeadersEnd" : 408,
            "s_time" : 329.450999997789,
            "dns" : 0,
            "id" : "download_4",
            "receiveLast" : 370.655999994953,
            "sslStart" : -1,
            "receiveFirst" : 205,
            "sslEnd" : -1,
            "sendEnd" : 203,
            "len" : 4820,
            "connectEnd" : 203,
            "connectStart" : 0,
            "dnsEnd" : 2,
            "type" : "image/png",
            "sendStart" : 203,
            "dnsStart" : 2
         },
         "when_comp_start" : -1,
         "url" : "http://original.testbed.localhost/ir.ebaystatic.com/rs/v/fxxj3ttftm5ltcqnto1o4baovyl.png",
         "id" : "r3",
         "comps" : []
      },
      {
         "url" : "http://original.testbed.localhost/ir.ebaystatic.com/rs/v/jmalt0eyvq1k1k2ezqntv51k5mo.js",
         "comps" : [
            {
               "e_time" : 1064.94999999995,
               "id" : "comp_16",
               "type" : 1,
               "time" : 24.5319999958101,
               "s_time" : 1040.41800000414
            }
         ],
         "id" : "r13",
         "when_comp_start" : -1,
         "download" : {
            "receiveFirst" : 208,
            "sslStart" : -1,
            "sslEnd" : -1,
            "sendEnd" : 9,
            "len" : 94037,
            "connectEnd" : 9,
            "connectStart" : 0,
            "dnsEnd" : 0,
            "type" : "application/javascript",
            "sendStart" : 9,
            "dnsStart" : 0,
            "receivedTime" : "1040.36199999973",
            "receiveHeadersEnd" : 217,
            "s_time" : 521.601000000373,
            "dns" : 0,
            "id" : "download_5",
            "receiveLast" : 823.361999999732
         }
      },
      {
         "id" : "r15",
         "comps" : [
            {
               "type" : null,
               "e_time" : 1591.65899999789,
               "id" : "comp_47",
               "s_time" : 1554.51200000243,
               "time" : 37.14699999546
            }
         ],
         "url" : "http://original.testbed.localhost/ir.ebaystatic.com/rs/v/qhaspvzfq2343iebhvj35bmldyi.js",
         "download" : {
            "sendEnd" : 10,
            "receiveFirst" : 207,
            "sslStart" : -1,
            "sslEnd" : -1,
            "dnsStart" : 0,
            "sendStart" : 10,
            "dnsEnd" : 0,
            "len" : 187864,
            "connectEnd" : 10,
            "connectStart" : 0,
            "type" : "application/javascript",
            "dns" : 0,
            "s_time" : 521.968000000925,
            "receivedTime" : "1554.44000000716",
            "receiveHeadersEnd" : 217,
            "receiveLast" : 1337.44000000716,
            "id" : "download_6"
         },
         "when_comp_start" : -1
      },
      {
         "id" : "r4",
         "comps" : [],
         "url" : "http://original.testbed.localhost/ir.ebaystatic.com/pictures/aw/mops/2016_Doodles/00697MomDood_phase2small.png",
         "when_comp_start" : -1,
         "download" : {
            "dns" : 0,
            "s_time" : 329.985999997007,
            "receivedTime" : "1039.27300000214",
            "receiveHeadersEnd" : 595,
            "receiveLast" : 444.27300000214,
            "id" : "download_7",
            "sendEnd" : 393,
            "receiveFirst" : 202,
            "sslStart" : -1,
            "sslEnd" : -1,
            "dnsStart" : -1,
            "sendStart" : 393,
            "dnsEnd" : -1,
            "connectEnd" : 393,
            "connectStart" : 0,
            "len" : 3969,
            "type" : "image/png"
         }
      },
      {
         "url" : "http://original.testbed.localhost/ir.ebaystatic.com/pictures/aw/cmp/img/imgThrobberGrey_30x30.gif",
         "id" : "r5",
         "comps" : [],
         "download" : {
            "sslEnd" : -1,
            "sslStart" : -1,
            "receiveFirst" : 202,
            "sendEnd" : 406,
            "type" : "image/gif",
            "dnsEnd" : -1,
            "connectEnd" : 406,
            "connectStart" : 0,
            "len" : 2373,
            "dnsStart" : -1,
            "sendStart" : 406,
            "receiveHeadersEnd" : 608,
            "receivedTime" : "1039.69499999948",
            "dns" : 0,
            "s_time" : 330.075000005309,
            "id" : "download_8",
            "receiveLast" : 431.694999999483
         },
         "when_comp_start" : -1
      },
      {
         "url" : "http://original.testbed.localhost/rtm.ebaystatic.com/0/RTMS/Image/00709MomDls2_HPBB-Dynamic_Small.jpg",
         "comps" : [],
         "id" : "r6",
         "when_comp_start" : -1,
         "download" : {
            "dnsStart" : -1,
            "sendStart" : 408,
            "type" : "image/jpeg",
            "dnsEnd" : -1,
            "connectStart" : 0,
            "connectEnd" : 408,
            "len" : 31487,
            "sendEnd" : 408,
            "sslEnd" : -1,
            "receiveFirst" : 202,
            "sslStart" : -1,
            "receiveLast" : 536.739999996498,
            "id" : "download_9",
            "dns" : 0,
            "s_time" : 330.161000005319,
            "receiveHeadersEnd" : 610,
            "receivedTime" : "1146.7399999965"
         }
      },
      {
         "when_comp_start" : 1,
         "download" : {
            "receiveLast" : 770.230000002892,
            "id" : "download_10",
            "dns" : 0,
            "s_time" : 765.908000001218,
            "receiveHeadersEnd" : 362,
            "receivedTime" : "1132.23000000289",
            "dnsStart" : -1,
            "sendStart" : 160,
            "type" : "text/html",
            "dnsEnd" : -1,
            "connectEnd" : 160,
            "connectStart" : 0,
            "len" : 22998,
            "sendEnd" : 160,
            "sslEnd" : -1,
            "receiveFirst" : 202,
            "sslStart" : -1
         },
         "comps" : [
            {
               "type" : "evalhtml",
               "e_time" : 1138.67499999469,
               "id" : "r29_c1",
               "s_time" : 1133.25199999963,
               "time" : 5.42299999506008
            }
         ],
         "id" : "r29",
         "url" : "http://original.testbed.localhost/ad.doubleclick.net/N6245/adi/ebay.ebayus.homepage.cchp/cchp%3Bitems=%3Bice=%3Bccode=%3Bsz=300x250%3Bu=i_5253372778451477905%7Cm_496329%3B%3Bdcopt=ist%3Btile=1%3Beb_trk=496329%3Bord=1462679350101%3B.html"
      },
      {
         "when_comp_start" : -1,
         "download" : {
            "receiveFirst" : 202,
            "sslStart" : -1,
            "sslEnd" : -1,
            "sendEnd" : 189,
            "dnsEnd" : -1,
            "connectStart" : 0,
            "connectEnd" : 189,
            "len" : 1392,
            "type" : "image/jpeg",
            "dnsStart" : -1,
            "sendStart" : 189,
            "receivedTime" : "1142.52500000293",
            "receiveHeadersEnd" : 391,
            "dns" : 0,
            "s_time" : 748.529000004055,
            "id" : "download_11",
            "receiveLast" : 751.525000002934
         },
         "url" : "http://original.testbed.localhost/p.ebaystatic.com/aw/pics/cmp/ds3/imgbg.jpg",
         "id" : "r28",
         "comps" : []
      },
      {
         "when_comp_start" : -1,
         "download" : {
            "id" : "download_12",
            "receiveLast" : 989.202999993693,
            "receivedTime" : "1346.20299999369",
            "receiveHeadersEnd" : 357,
            "dns" : 0,
            "s_time" : 783.2550000021,
            "dnsEnd" : -1,
            "connectEnd" : 155,
            "connectStart" : 0,
            "len" : 54009,
            "type" : "image/png",
            "dnsStart" : -1,
            "sendStart" : 155,
            "sslStart" : -1,
            "receiveFirst" : 202,
            "sslEnd" : -1,
            "sendEnd" : 155
         },
         "id" : "r30",
         "comps" : [],
         "url" : "http://original.testbed.localhost/ir.ebaystatic.com/pictures/aw/home/feed/sprite_201505141202_opt.png"
      },
      {
         "download" : {
            "connectEnd" : 16,
            "len" : 64120,
            "connectStart" : 0,
            "dnsEnd" : -1,
            "type" : "image/png",
            "sendStart" : 16,
            "dnsStart" : -1,
            "sslStart" : -1,
            "receiveFirst" : 203,
            "sslEnd" : -1,
            "sendEnd" : 16,
            "id" : "download_13",
            "receiveLast" : 1135.16299999633,
            "receivedTime" : "1354.16299999633",
            "receiveHeadersEnd" : 219,
            "s_time" : 925.629999997909,
            "dns" : 0
         },
         "when_comp_start" : -1,
         "url" : "http://original.testbed.localhost/ir.ebaystatic.com/pictures/aw/pics/cmp/ds3/sprds3_18.png",
         "comps" : [],
         "id" : "r31"
      },
      {
         "when_comp_start" : -1,
         "download" : {
            "sendEnd" : 53,
            "sslEnd" : -1,
            "sslStart" : -1,
            "receiveFirst" : 202,
            "sendStart" : 53,
            "dnsStart" : -1,
            "type" : "application/x-font-woff",
            "connectStart" : 0,
            "connectEnd" : 53,
            "len" : 43116,
            "dnsEnd" : -1,
            "s_time" : 1075.83200000226,
            "dns" : 0,
            "receiveHeadersEnd" : 255,
            "receivedTime" : "1333.76100000169",
            "receiveLast" : 1078.76100000169,
            "id" : "download_14"
         },
         "url" : "http://original.testbed.localhost/ir.ebaystatic.com/rs/v/rtxsscrl0i5hxibz1wk5e1iehqd.woff",
         "comps" : [],
         "id" : "r16"
      },
      {
         "when_comp_start" : -1,
         "download" : {
            "s_time" : 1136.28000000608,
            "dns" : 0,
            "receivedTime" : "1353.26099999656",
            "receiveHeadersEnd" : 210,
            "receiveLast" : 1143.26099999656,
            "id" : "download_15",
            "sendEnd" : 8,
            "sslStart" : -1,
            "receiveFirst" : 202,
            "sslEnd" : -1,
            "sendStart" : 8,
            "dnsStart" : -1,
            "connectEnd" : 8,
            "connectStart" : 0,
            "len" : 13608,
            "dnsEnd" : -1,
            "type" : "image/jpeg"
         },
         "url" : "http://original.testbed.localhost/pagead2.googlesyndication.com/simgad/1993507096142375675",
         "id" : "r32",
         "comps" : []
      },
      {
         "download" : {
            "dns" : 0,
            "s_time" : 330.277999993996,
            "receiveHeadersEnd" : 1205,
            "receivedTime" : "1537.89599999436",
            "receiveLast" : 332.895999994362,
            "id" : "download_16",
            "sendEnd" : 1003,
            "sslEnd" : -1,
            "sslStart" : -1,
            "receiveFirst" : 202,
            "dnsStart" : -1,
            "sendStart" : 1003,
            "type" : "image/jpeg",
            "dnsEnd" : -1,
            "connectStart" : 0,
            "connectEnd" : 1003,
            "len" : 16360
         },
         "when_comp_start" : -1,
         "url" : "http://original.testbed.localhost/i.ebayimg.com/00/s/Nzg0WDc4NA==/z/~DEAAOSwe7BWxI9M/$_35.JPG",
         "comps" : [],
         "id" : "r7"
      },
      {
         "when_comp_start" : -1,
         "download" : {
            "sslEnd" : -1,
            "sslStart" : -1,
            "receiveFirst" : 202,
            "sendEnd" : 1011,
            "type" : "image/jpeg",
            "dnsEnd" : -1,
            "connectStart" : 0,
            "connectEnd" : 1011,
            "len" : 12345,
            "dnsStart" : -1,
            "sendStart" : 1011,
            "receiveHeadersEnd" : 1213,
            "receivedTime" : "1544.90999999689",
            "dns" : 0,
            "s_time" : 330.35600000585,
            "id" : "download_17",
            "receiveLast" : 331.909999996889
         },
         "id" : "r8",
         "comps" : [],
         "url" : "http://original.testbed.localhost/i.ebayimg.com/00/s/MTIwMFgxMjAw/z/UI4AAOSw~bFWMTq2/$_35.JPG"
      },
      {
         "comps" : [],
         "id" : "r9",
         "url" : "http://original.testbed.localhost/i.ebayimg.com/00/s/MTYwMFg1NjM=/z/wG8AAOSwT6pV6Irz/$_35.JPG",
         "when_comp_start" : -1,
         "download" : {
            "type" : "image/jpeg",
            "dnsEnd" : -1,
            "connectEnd" : 1016,
            "connectStart" : 0,
            "len" : 5506,
            "dnsStart" : -1,
            "sendStart" : 1016,
            "sslEnd" : -1,
            "receiveFirst" : 202,
            "sslStart" : -1,
            "sendEnd" : 1016,
            "id" : "download_18",
            "receiveLast" : 331.614000003203,
            "receiveHeadersEnd" : 1218,
            "receivedTime" : "1549.6140000032",
            "dns" : 0,
            "s_time" : 330.436999996891
         }
      },
      {
         "url" : "http://original.testbed.localhost/srx.main.ebayrtm.com/rtm%3FRtmIt&ite=1&m=496329&pg=2057337&y=3FwEhaFRRfjVQAH1pBFIsPQMHKgMFUS9RVAB4DlcAeFUIA3hWXVtcNG45XDhuOVw8&uf=0&ord=1462679350132&ts=1462679350132&aii=5253372778451477905",
         "comps" : [],
         "id" : "r11",
         "when_comp_start" : -1,
         "download" : {
            "receiveFirst" : 202,
            "sslStart" : -1,
            "sslEnd" : -1,
            "sendEnd" : 1017,
            "connectStart" : 0,
            "connectEnd" : 1017,
            "len" : 43,
            "dnsEnd" : -1,
            "type" : "image/gif",
            "sendStart" : 1017,
            "dnsStart" : -1,
            "receivedTime" : "1550.67399999825",
            "receiveHeadersEnd" : 1219,
            "s_time" : 330.652999997255,
            "dns" : 0,
            "id" : "download_19",
            "receiveLast" : 331.673999998253
         }
      },
      {
         "comps" : [],
         "id" : "r12",
         "url" : "http://original.testbed.localhost/rtm.ebaystatic.com/0/RTMS/Image/00683_DlsMom1_AREC-70.jpg",
         "when_comp_start" : -1,
         "download" : {
            "dnsStart" : -1,
            "sendStart" : 1205,
            "dnsEnd" : -1,
            "connectStart" : 0,
            "connectEnd" : 1205,
            "len" : 11464,
            "type" : "image/jpeg",
            "sendEnd" : 1205,
            "receiveFirst" : 202,
            "sslStart" : -1,
            "sslEnd" : -1,
            "receiveLast" : 375.166000004509,
            "id" : "download_20",
            "dns" : 0,
            "s_time" : 330.751999994391,
            "receivedTime" : "1782.16600000451",
            "receiveHeadersEnd" : 1407
         }
      },
      {
         "download" : {
            "sendEnd" : 64,
            "sslEnd" : -1,
            "sslStart" : -1,
            "receiveFirst" : 706,
            "sendStart" : 64,
            "dnsStart" : -1,
            "type" : "application/x-font-woff",
            "len" : 41708,
            "connectEnd" : 64,
            "connectStart" : 0,
            "dnsEnd" : -1,
            "s_time" : 1075.9640000033,
            "dns" : 0,
            "receiveHeadersEnd" : 770,
            "receivedTime" : "2055.10100000538",
            "receiveLast" : 1285.10100000538,
            "id" : "download_21"
         },
         "when_comp_start" : -1,
         "url" : "http://original.testbed.localhost/ir.ebaystatic.com/rs/v/lc2fgjax3uzdrkskrcqryvxhvye.woff",
         "comps" : [],
         "id" : "r20"
      }
   ],
   "name" : "original.testbed.localhost_www.ebay.com_"
}
