{
   "start_activity" : "download_0",
   "n_download_no_trigger" : 1,
   "load_activity" : -1,
   "objs" : [
      {
         "id" : "r1",
         "url" : "http://original.testbed.localhost/www.webmarketingemprendedores.com/",
         "when_comp_start" : 1,
         "download" : {
            "id" : "download_0",
            "sendStart" : 86,
            "connectStart" : 0,
            "sendEnd" : 86,
            "receiveHeadersEnd" : 289,
            "sslEnd" : -1,
            "dnsStart" : 0,
            "type" : "text/html",
            "sslStart" : -1,
            "receiveLast" : 202.811999992933,
            "receiveFirst" : 203,
            "len" : 101530,
            "dns" : 0,
            "s_time" : 0,
            "dnsEnd" : 0,
            "connectEnd" : 86,
            "receivedTime" : "491.811999992933"
         },
         "comps" : [
            {
               "type" : "evalhtml",
               "id" : "r1_c1",
               "s_time" : 301.837999984855,
               "e_time" : -134404473.058,
               "time" : -134404774.896
            },
            {
               "time" : -134404790.752,
               "e_time" : -134404473.058,
               "type" : "evalhtml",
               "id" : "r1_c2",
               "s_time" : 317.693999997573
            },
            {
               "time" : -134404790.904,
               "e_time" : -134404473.058,
               "id" : "r1_c3",
               "type" : "evalhtml",
               "s_time" : 317.845999990823
            },
            {
               "id" : "r1_c4",
               "type" : "evalhtml",
               "s_time" : 317.934999999125,
               "e_time" : -134404473.058,
               "time" : -134404790.993
            },
            {
               "s_time" : 318.005999986781,
               "id" : "r1_c5",
               "type" : "evalhtml",
               "e_time" : -134404473.058,
               "time" : -134404791.064
            },
            {
               "time" : -134404791.135,
               "e_time" : -134404473.058,
               "id" : "r1_c6",
               "type" : "evalhtml",
               "s_time" : 318.077000003541
            },
            {
               "s_time" : 318.148999998812,
               "type" : "evalhtml",
               "id" : "r1_c7",
               "e_time" : -134404473.058,
               "time" : -134404791.207
            },
            {
               "e_time" : -134404473.058,
               "time" : -134404791.279,
               "s_time" : 318.220999994082,
               "id" : "r1_c8",
               "type" : "evalhtml"
            },
            {
               "type" : "evalhtml",
               "id" : "r1_c9",
               "s_time" : 318.287000001874,
               "time" : -134404791.345,
               "e_time" : -134404473.058
            },
            {
               "type" : "evalhtml",
               "id" : "r1_c10",
               "s_time" : 318.368999985978,
               "time" : -134404791.427,
               "e_time" : -134404473.058
            },
            {
               "e_time" : -134404473.058,
               "time" : -134404795.88,
               "type" : "evalhtml",
               "id" : "r1_c11",
               "s_time" : 322.821999987355
            },
            {
               "s_time" : 323.04399998975,
               "id" : "r1_c12",
               "type" : "evalhtml",
               "time" : -134404796.102,
               "e_time" : -134404473.058
            },
            {
               "e_time" : -134404473.058,
               "time" : -134404796.326,
               "s_time" : 323.268000007374,
               "type" : "evalhtml",
               "id" : "r1_c13"
            },
            {
               "s_time" : 323.436000006041,
               "id" : "r1_c14",
               "type" : "evalhtml",
               "e_time" : -134404473.058,
               "time" : -134404796.494
            },
            {
               "time" : -134404797.814,
               "e_time" : -134404473.058,
               "s_time" : 324.755999987246,
               "id" : "r1_c15",
               "type" : "evalhtml"
            },
            {
               "time" : -134404799.043,
               "e_time" : -134404473.058,
               "id" : "r1_c16",
               "type" : "evalhtml",
               "s_time" : 325.985000003129
            },
            {
               "s_time" : 326.398000004701,
               "type" : "evalhtml",
               "id" : "r1_c17",
               "time" : -134404799.456,
               "e_time" : -134404473.058
            },
            {
               "id" : "r1_c18",
               "type" : "evalhtml",
               "s_time" : 328.023000009125,
               "e_time" : -134404473.058,
               "time" : -134404801.081
            },
            {
               "s_time" : 328.187000006437,
               "type" : "evalhtml",
               "id" : "r1_c19",
               "e_time" : -134404473.058,
               "time" : -134404801.245
            },
            {
               "time" : -134404801.311,
               "e_time" : -134404473.058,
               "s_time" : 328.252999985125,
               "type" : "evalhtml",
               "id" : "r1_c20"
            },
            {
               "type" : "evalhtml",
               "id" : "r1_c21",
               "s_time" : 329.194999998435,
               "time" : -134404802.253,
               "e_time" : -134404473.058
            },
            {
               "e_time" : -134404473.058,
               "time" : -134404802.356,
               "type" : "evalhtml",
               "id" : "r1_c22",
               "s_time" : 329.297999996925
            },
            {
               "e_time" : -134404473.058,
               "time" : -134404802.438,
               "type" : "evalhtml",
               "id" : "r1_c23",
               "s_time" : 329.380000010133
            },
            {
               "e_time" : -134404473.058,
               "time" : -134404802.771,
               "type" : "evalhtml",
               "id" : "r1_c24",
               "s_time" : 329.712999984622
            },
            {
               "time" : -134404803.302,
               "e_time" : -134404473.058,
               "id" : "r1_c25",
               "type" : "evalhtml",
               "s_time" : 330.243999982486
            },
            {
               "s_time" : 330.394999997225,
               "type" : "evalhtml",
               "id" : "r1_c26",
               "e_time" : -134404473.058,
               "time" : -134404803.453
            },
            {
               "s_time" : 331.676000001607,
               "id" : "r1_c27",
               "type" : "evalhtml",
               "time" : -134404804.734,
               "e_time" : -134404473.058
            },
            {
               "e_time" : -134404473.058,
               "time" : -134404806.331,
               "s_time" : 333.272999996552,
               "type" : "evalhtml",
               "id" : "r1_c28"
            },
            {
               "s_time" : 333.462000009604,
               "id" : "r1_c29",
               "type" : "evalhtml",
               "e_time" : -134404473.058,
               "time" : -134404806.52
            },
            {
               "e_time" : -134404473.058,
               "time" : -134404829.818,
               "id" : "r1_c30",
               "type" : "evalhtml",
               "s_time" : 356.75999999512
            },
            {
               "e_time" : -134404473.058,
               "time" : -134404971.95,
               "id" : "r1_c31",
               "type" : "evalhtml",
               "s_time" : 498.892000003252
            },
            {
               "e_time" : -134404473.058,
               "time" : -134404973.142,
               "s_time" : 500.083999999333,
               "type" : "evalhtml",
               "id" : "r1_c32"
            },
            {
               "id" : "r1_c33",
               "type" : "evalhtml",
               "s_time" : 501.476999983424,
               "time" : -134404974.535,
               "e_time" : -134404473.058
            },
            {
               "e_time" : -134404473.058,
               "time" : -134404974.775,
               "s_time" : 501.717000006465,
               "type" : "evalhtml",
               "id" : "r1_c34"
            },
            {
               "type" : "evalhtml",
               "id" : "r1_c35",
               "s_time" : 504.106000007596,
               "time" : -134404977.164,
               "e_time" : -134404473.058
            },
            {
               "id" : "r1_c36",
               "type" : "evalhtml",
               "s_time" : 504.723999998532,
               "time" : -134404977.782,
               "e_time" : -134404473.058
            },
            {
               "s_time" : 504.83799999347,
               "id" : "r1_c37",
               "type" : "evalhtml",
               "time" : 0.545000017154962,
               "e_time" : 505.383000010625
            }
         ]
      }
   ],
   "deps" : [
      {
         "a2" : "r1_c2",
         "a1" : "comp_22",
         "id" : "dep1",
         "time" : -1
      },
      {
         "time" : -1,
         "a2" : "r1_c3",
         "a1" : "comp_23",
         "id" : "dep2"
      },
      {
         "time" : -1,
         "a1" : "comp_24",
         "a2" : "r1_c4",
         "id" : "dep3"
      },
      {
         "a1" : "comp_25",
         "a2" : "r1_c5",
         "id" : "dep4",
         "time" : -1
      },
      {
         "time" : -1,
         "id" : "dep5",
         "a2" : "r1_c6",
         "a1" : "comp_26"
      },
      {
         "time" : -1,
         "a2" : "r1_c7",
         "a1" : "comp_27",
         "id" : "dep6"
      },
      {
         "time" : -1,
         "id" : "dep7",
         "a1" : "comp_28",
         "a2" : "r1_c8"
      },
      {
         "time" : -1,
         "id" : "dep8",
         "a1" : "comp_29",
         "a2" : "r1_c9"
      },
      {
         "time" : -1,
         "id" : "dep9",
         "a1" : "comp_30",
         "a2" : "r1_c10"
      },
      {
         "time" : -1,
         "id" : "dep10",
         "a2" : "r1_c11",
         "a1" : "comp_31"
      },
      {
         "a2" : "r1_c12",
         "a1" : "comp_32",
         "id" : "dep11",
         "time" : -1
      },
      {
         "time" : -1,
         "id" : "dep12",
         "a2" : "r1_c13",
         "a1" : "comp_33"
      },
      {
         "id" : "dep13",
         "a1" : "comp_34",
         "a2" : "r1_c14",
         "time" : -1
      },
      {
         "id" : "dep14",
         "a1" : "comp_35",
         "a2" : "r1_c15",
         "time" : -1
      },
      {
         "time" : -1,
         "id" : "dep15",
         "a1" : "comp_36",
         "a2" : "r1_c16"
      },
      {
         "id" : "dep16",
         "a1" : "comp_37",
         "a2" : "r1_c17",
         "time" : -1
      },
      {
         "time" : -1,
         "id" : "dep17",
         "a1" : "comp_38",
         "a2" : "r1_c18"
      },
      {
         "time" : -1,
         "id" : "dep18",
         "a2" : "r1_c19",
         "a1" : "comp_39"
      },
      {
         "id" : "dep19",
         "a2" : "r1_c20",
         "a1" : "comp_40",
         "time" : -1
      },
      {
         "a2" : "r1_c21",
         "a1" : "comp_42",
         "id" : "dep20",
         "time" : -1
      },
      {
         "time" : -1,
         "a1" : "comp_43",
         "a2" : "r1_c22",
         "id" : "dep21"
      },
      {
         "a2" : "r1_c23",
         "a1" : "comp_44",
         "id" : "dep22",
         "time" : -1
      },
      {
         "a1" : "comp_45",
         "a2" : "r1_c24",
         "id" : "dep23",
         "time" : -1
      },
      {
         "time" : -1,
         "id" : "dep24",
         "a2" : "r1_c25",
         "a1" : "comp_46"
      },
      {
         "id" : "dep25",
         "a1" : "comp_47",
         "a2" : "r1_c26",
         "time" : -1
      },
      {
         "time" : -1,
         "id" : "dep26",
         "a1" : "comp_48",
         "a2" : "r1_c27"
      },
      {
         "id" : "dep27",
         "a1" : "comp_49",
         "a2" : "r1_c28",
         "time" : -1
      },
      {
         "id" : "dep28",
         "a1" : "comp_50",
         "a2" : "r1_c29",
         "time" : -1
      },
      {
         "time" : -1,
         "a1" : "comp_54",
         "a2" : "r1_c30",
         "id" : "dep29"
      },
      {
         "id" : "dep30",
         "a1" : "comp_56",
         "a2" : "r1_c31",
         "time" : -1
      },
      {
         "a1" : "comp_59",
         "a2" : "r1_c32",
         "id" : "dep31",
         "time" : -1
      },
      {
         "id" : "dep32",
         "a1" : "comp_63",
         "a2" : "r1_c33",
         "time" : -1
      },
      {
         "time" : -1,
         "a1" : "comp_65",
         "a2" : "r1_c34",
         "id" : "dep33"
      },
      {
         "a2" : "r1_c35",
         "a1" : "comp_66",
         "id" : "dep34",
         "time" : -1
      },
      {
         "a2" : "r1_c36",
         "a1" : "comp_68",
         "id" : "dep35",
         "time" : -1
      },
      {
         "a2" : "r1_c37",
         "a1" : "comp_69",
         "id" : "dep36",
         "time" : -1
      }
   ],
   "name" : "original.testbed.localhost_www.webmarketingemprendedores.com_"
}
