{
   "n_download_no_trigger" : 1,
   "start_activity" : "download_0",
   "name" : "original.testbed.localhost_www.tubestation.uk_",
   "load_activity" : -1,
   "objs" : [
      {
         "when_comp_start" : 1,
         "url" : "http://original.testbed.localhost/www.tubestation.uk/",
         "id" : "r1",
         "comps" : [
            {
               "s_time" : 163.380000041798,
               "time" : 471.17600007914,
               "id" : "r1_c1",
               "type" : "evalhtml",
               "e_time" : 634.556000120938
            },
            {
               "s_time" : 668.553000083193,
               "time" : -1100587211.595,
               "id" : "r1_c2",
               "type" : "evalhtml",
               "e_time" : -1100586543.042
            },
            {
               "s_time" : 669.389000162482,
               "time" : -1100587212.431,
               "id" : "r1_c3",
               "type" : "evalhtml",
               "e_time" : -1100586543.042
            },
            {
               "s_time" : 670.229000039399,
               "time" : -1100587213.271,
               "id" : "r1_c4",
               "type" : "evalhtml",
               "e_time" : -1100586543.042
            },
            {
               "s_time" : 673.205000115559,
               "time" : 32.15799992904,
               "id" : "r1_c5",
               "type" : "evalhtml",
               "e_time" : 705.363000044599
            },
            {
               "s_time" : 705.728000029922,
               "time" : 12.156000128015,
               "id" : "r1_c6",
               "type" : "evalhtml",
               "e_time" : 717.884000157937
            },
            {
               "s_time" : 872.496000025421,
               "time" : 2526.56899997965,
               "type" : "evalhtml",
               "id" : "r1_c7",
               "e_time" : 3399.06500000507
            }
         ],
         "download" : {
            "receiveFirst" : 152,
            "len" : 46930,
            "dns" : 0,
            "dnsEnd" : -1,
            "receiveHeadersEnd" : 152,
            "sslEnd" : -1,
            "connectEnd" : 0,
            "connectStart" : 0,
            "id" : "download_0",
            "receivedTime" : "162.997000152245",
            "sslStart" : -1,
            "dnsStart" : -1,
            "receiveLast" : 10.9970001522452,
            "s_time" : 0,
            "sendEnd" : 0,
            "sendStart" : 0,
            "type" : "text/html"
         }
      },
      {
         "when_comp_start" : -1,
         "url" : "http://original.testbed.localhost/www.popstr.com/_scripts/lib3/meta1/meta1.css",
         "id" : "r2",
         "comps" : [
            {
               "s_time" : 319.699000101537,
               "time" : 0.249000033362961,
               "type" : 4,
               "id" : "comp_0",
               "e_time" : 319.9480001349
            }
         ],
         "download" : {
            "receiveFirst" : 151,
            "len" : 1225,
            "dns" : 0,
            "dnsEnd" : -1,
            "receiveHeadersEnd" : 154,
            "sslEnd" : -1,
            "connectEnd" : 3,
            "connectStart" : 0,
            "id" : "download_1",
            "receivedTime" : "319.618000183254",
            "sslStart" : -1,
            "dnsStart" : -1,
            "receiveLast" : 165.618000183254,
            "s_time" : 163.838000036776,
            "sendEnd" : 3,
            "sendStart" : 3,
            "type" : "text/css"
         }
      },
      {
         "when_comp_start" : -1,
         "url" : "http://original.testbed.localhost/www.popstr.com/_scripts/lib3/bus/trans/tfl/tfl.css",
         "id" : "r4",
         "comps" : [
            {
               "s_time" : 321.248000022024,
               "time" : 0.12500002048904,
               "type" : 4,
               "id" : "comp_1",
               "e_time" : 321.373000042513
            }
         ],
         "download" : {
            "receiveFirst" : 153,
            "len" : 1059,
            "dns" : 0,
            "dnsEnd" : -1,
            "receiveHeadersEnd" : 156,
            "sslEnd" : -1,
            "connectEnd" : 3,
            "connectStart" : 0,
            "id" : "download_2",
            "receivedTime" : "321.158000035211",
            "sslStart" : -1,
            "dnsStart" : -1,
            "receiveLast" : 165.158000035211,
            "s_time" : 164.139000000432,
            "sendEnd" : 3,
            "sendStart" : 3,
            "type" : "text/css"
         }
      },
      {
         "when_comp_start" : -1,
         "url" : "http://original.testbed.localhost/www.tubestation.uk/_sites/tubestationuk/site.css",
         "id" : "r3",
         "comps" : [
            {
               "s_time" : 322.311999974772,
               "time" : 0.456000212580022,
               "type" : 4,
               "id" : "comp_2",
               "e_time" : 322.768000187352
            }
         ],
         "download" : {
            "receiveFirst" : 153,
            "len" : 6428,
            "dns" : 0,
            "dnsEnd" : -1,
            "receiveHeadersEnd" : 156,
            "sslEnd" : -1,
            "connectEnd" : 3,
            "connectStart" : 0,
            "id" : "download_3",
            "receivedTime" : "322.266000090167",
            "sslStart" : -1,
            "dnsStart" : -1,
            "receiveLast" : 166.266000090167,
            "s_time" : 163.981000194326,
            "sendEnd" : 3,
            "sendStart" : 3,
            "type" : "text/css"
         }
      },
      {
         "when_comp_start" : -1,
         "url" : "http://original.testbed.localhost/www.popstr.com/_scripts/lib3/site/nav/ajax/ajaxinput/ajaxinput.css",
         "id" : "r5",
         "comps" : [
            {
               "s_time" : 322.881000116467,
               "time" : 0.0650000292809523,
               "type" : 4,
               "id" : "comp_3",
               "e_time" : 322.946000145748
            }
         ],
         "download" : {
            "receiveFirst" : 153,
            "len" : 748,
            "dns" : 0,
            "dnsEnd" : -1,
            "receiveHeadersEnd" : 156,
            "sslEnd" : -1,
            "connectEnd" : 3,
            "connectStart" : 0,
            "id" : "download_4",
            "receivedTime" : "322.822000132874",
            "sslStart" : -1,
            "dnsStart" : -1,
            "receiveLast" : 166.822000132874,
            "s_time" : 164.300000062212,
            "sendEnd" : 3,
            "sendStart" : 3,
            "type" : "text/css"
         }
      },
      {
         "when_comp_start" : -1,
         "url" : "http://original.testbed.localhost/www.tubestation.uk/_sites/tubestationuk/desktop.css",
         "id" : "r7",
         "comps" : [
            {
               "s_time" : 323.078999994323,
               "time" : 0.0650000292799859,
               "type" : 4,
               "id" : "comp_4",
               "e_time" : 323.144000023603
            }
         ],
         "download" : {
            "receiveFirst" : 153,
            "len" : 1012,
            "dns" : 0,
            "dnsEnd" : -1,
            "receiveHeadersEnd" : 156,
            "sslEnd" : -1,
            "connectEnd" : 3,
            "connectStart" : 0,
            "id" : "download_5",
            "receivedTime" : "323.022000025958",
            "sslStart" : -1,
            "dnsStart" : -1,
            "receiveLast" : 167.022000025958,
            "s_time" : 164.616000140086,
            "sendEnd" : 3,
            "sendStart" : 3,
            "type" : "text/css"
         }
      },
      {
         "when_comp_start" : -1,
         "url" : "http://original.testbed.localhost/www.tubestation.uk/_sites/tubestationuk/desktopAndTablet.css",
         "id" : "r6",
         "comps" : [
            {
               "s_time" : 323.260999983177,
               "time" : 3.393999999389,
               "type" : 4,
               "id" : "comp_5",
               "e_time" : 326.654999982566
            }
         ],
         "download" : {
            "receiveFirst" : 154,
            "len" : 2200,
            "dns" : 0,
            "dnsEnd" : -1,
            "receiveHeadersEnd" : 157,
            "sslEnd" : -1,
            "connectEnd" : 3,
            "connectStart" : 0,
            "id" : "download_6",
            "receivedTime" : "323.205000022426",
            "sslStart" : -1,
            "dnsStart" : -1,
            "receiveLast" : 166.205000022426,
            "s_time" : 164.460000116378,
            "sendEnd" : 3,
            "sendStart" : 3,
            "type" : "text/css"
         }
      },
      {
         "when_comp_start" : -1,
         "url" : "http://original.testbed.localhost/www.popstr.com/_scripts/cs/meta1/sys.js",
         "id" : "r9",
         "comps" : [
            {
               "s_time" : 668.632999993861,
               "time" : 0.756000168621085,
               "type" : 1,
               "id" : "comp_8",
               "e_time" : 669.389000162482
            }
         ],
         "download" : {
            "receiveFirst" : 151,
            "len" : 4552,
            "dns" : 0,
            "dnsEnd" : -1,
            "receiveHeadersEnd" : 309,
            "sslEnd" : -1,
            "connectEnd" : 158,
            "connectStart" : 0,
            "id" : "download_7",
            "receivedTime" : "475.141000002623",
            "sslStart" : -1,
            "dnsStart" : -1,
            "receiveLast" : 166.141000002623,
            "s_time" : 165.02399998717,
            "sendEnd" : 158,
            "sendStart" : 158,
            "type" : "application/javascript"
         }
      },
      {
         "when_comp_start" : -1,
         "url" : "http://original.testbed.localhost/www.popstr.com/_scripts/lib3/site/nav/ajax/ajaxinput/ajaxinput.js",
         "id" : "r10",
         "comps" : [
            {
               "s_time" : 669.44000008516,
               "time" : 0.788999954238989,
               "type" : 1,
               "id" : "comp_10",
               "e_time" : 670.229000039399
            }
         ],
         "download" : {
            "receiveFirst" : 151,
            "len" : 5108,
            "dns" : 0,
            "dnsEnd" : -1,
            "receiveHeadersEnd" : 309,
            "sslEnd" : -1,
            "connectEnd" : 158,
            "connectStart" : 0,
            "id" : "download_8",
            "receivedTime" : "475.741000147536",
            "sslStart" : -1,
            "dnsStart" : -1,
            "receiveLast" : 166.741000147536,
            "s_time" : 165.216000052169,
            "sendEnd" : 158,
            "sendStart" : 158,
            "type" : "application/javascript"
         }
      },
      {
         "when_comp_start" : -1,
         "url" : "http://original.testbed.localhost/www.tubestation.uk/_sites/tubestationuk/sitemeta1.js",
         "id" : "r11",
         "comps" : [
            {
               "s_time" : 670.296000083908,
               "time" : 2.90900003165098,
               "type" : 1,
               "id" : "comp_12",
               "e_time" : 673.205000115559
            }
         ],
         "download" : {
            "receiveFirst" : 152,
            "len" : 27258,
            "dns" : 0,
            "dnsEnd" : -1,
            "receiveHeadersEnd" : 310,
            "sslEnd" : -1,
            "connectEnd" : 158,
            "connectStart" : 0,
            "id" : "download_9",
            "receivedTime" : "476.821999996901",
            "sslStart" : -1,
            "dnsStart" : -1,
            "receiveLast" : 166.821999996901,
            "s_time" : 165.369000053033,
            "sendEnd" : 158,
            "sendStart" : 158,
            "type" : "application/javascript"
         }
      },
      {
         "when_comp_start" : -1,
         "url" : "http://original.testbed.localhost/www.popstr.com/_scripts/cs/jquery/jquery/1.8.1/jquery-1.8.1.min.js",
         "id" : "r8",
         "comps" : [
            {
               "s_time" : 634.987000143155,
               "time" : 33.565999940038,
               "type" : 1,
               "id" : "comp_6",
               "e_time" : 668.553000083193
            }
         ],
         "download" : {
            "receiveFirst" : 157,
            "len" : 92792,
            "dns" : 0,
            "dnsEnd" : -1,
            "receiveHeadersEnd" : 312,
            "sslEnd" : -1,
            "connectEnd" : 155,
            "connectStart" : 0,
            "id" : "download_10",
            "receivedTime" : "634.893000125885",
            "sslStart" : -1,
            "dnsStart" : -1,
            "receiveLast" : 322.893000125885,
            "s_time" : 164.859000127763,
            "sendEnd" : 155,
            "sendStart" : 155,
            "type" : "application/javascript"
         }
      },
      {
         "when_comp_start" : -1,
         "url" : "http://original.testbed.localhost/www.popstr.com/_content/images/sites/tubestationuk/logo/logo160.jpg",
         "id" : "r12",
         "comps" : [],
         "download" : {
            "receiveFirst" : 160,
            "len" : 3229,
            "dns" : 0,
            "dnsEnd" : -1,
            "receiveHeadersEnd" : 317,
            "sslEnd" : -1,
            "connectEnd" : 157,
            "connectStart" : 0,
            "id" : "download_11",
            "receivedTime" : "484.605000121519",
            "sslStart" : -1,
            "dnsStart" : -1,
            "receiveLast" : 167.605000121519,
            "s_time" : 165.632000193,
            "sendEnd" : 157,
            "sendStart" : 157,
            "type" : "image/jpeg"
         }
      },
      {
         "when_comp_start" : -1,
         "url" : "http://original.testbed.localhost/pagead2.googlesyndication.com/pagead/show_ads.js",
         "id" : "r16",
         "comps" : [
            {
               "s_time" : 679.744000080973,
               "time" : 25.983999948949,
               "type" : 1,
               "id" : "comp_16",
               "e_time" : 705.728000029922
            }
         ],
         "download" : {
            "receiveFirst" : 162,
            "len" : 27555,
            "dns" : 0,
            "dnsEnd" : -1,
            "receiveHeadersEnd" : 319,
            "sslEnd" : -1,
            "connectEnd" : 157,
            "connectStart" : 0,
            "id" : "download_12",
            "receivedTime" : "489.099000114948",
            "sslStart" : -1,
            "dnsStart" : -1,
            "receiveLast" : 170.099000114948,
            "s_time" : 166.118000168353,
            "sendEnd" : 157,
            "sendStart" : 157,
            "type" : "application/javascript"
         }
      },
      {
         "when_comp_start" : -1,
         "url" : "http://original.testbed.localhost/www.popstr.com/_content/images/a1p/icon/slider/left_13_00c000.png",
         "id" : "r13",
         "comps" : [],
         "download" : {
            "receiveFirst" : 150,
            "len" : 185,
            "dns" : 0,
            "dnsEnd" : -1,
            "receiveHeadersEnd" : 151,
            "sslEnd" : -1,
            "connectEnd" : 1,
            "connectStart" : 0,
            "id" : "download_13",
            "receivedTime" : "715.925000142306",
            "sslStart" : -1,
            "dnsStart" : -1,
            "receiveLast" : 564.925000142306,
            "s_time" : 484.215000178665,
            "sendEnd" : 1,
            "sendStart" : 1,
            "type" : "image/png"
         }
      },
      {
         "when_comp_start" : -1,
         "url" : "http://original.testbed.localhost/www.popstr.com/_content/images/bus/web/wiki/wiki.ico",
         "id" : "r15",
         "comps" : [],
         "download" : {
            "receiveFirst" : 151,
            "len" : 318,
            "dns" : 0,
            "dnsEnd" : -1,
            "receiveHeadersEnd" : 151,
            "sslEnd" : -1,
            "connectEnd" : 0,
            "connectStart" : 0,
            "id" : "download_14",
            "receivedTime" : "787.061000009999",
            "sslStart" : -1,
            "dnsStart" : -1,
            "receiveLast" : 636.061000009999,
            "s_time" : 634.556000120938,
            "sendEnd" : 0,
            "sendStart" : 0,
            "type" : "image/x-icon"
         }
      },
      {
         "when_comp_start" : -1,
         "url" : "http://original.testbed.localhost/www.popstr.com/_content/images/bus/trans/tfl/wikistations/478_360/4014.jpg",
         "id" : "r14",
         "comps" : [],
         "download" : {
            "receiveFirst" : 151,
            "len" : 257036,
            "dns" : 0,
            "dnsEnd" : -1,
            "receiveHeadersEnd" : 152,
            "sslEnd" : -1,
            "connectEnd" : 1,
            "connectStart" : 0,
            "id" : "download_15",
            "receivedTime" : "1845.73200019076",
            "sslStart" : -1,
            "dnsStart" : -1,
            "receiveLast" : 1693.73200019076,
            "s_time" : 634.381000185385,
            "sendEnd" : 1,
            "sendStart" : 1,
            "type" : "image/jpeg"
         }
      },
      {
         "when_comp_start" : -1,
         "url" : "http://original.testbed.localhost/kobbles.com/_content/images/gen/modal/modal.gif",
         "id" : "r20",
         "comps" : [],
         "download" : {
            "receiveFirst" : 150,
            "len" : 2608,
            "dns" : 0,
            "dnsEnd" : -1,
            "receiveHeadersEnd" : 150,
            "sslEnd" : -1,
            "connectEnd" : 0,
            "connectStart" : 0,
            "id" : "download_16",
            "receivedTime" : "859.604000113904",
            "sslStart" : -1,
            "dnsStart" : -1,
            "receiveLast" : 709.604000113904,
            "s_time" : 708.113000029698,
            "sendEnd" : 0,
            "sendStart" : 0,
            "type" : "image/gif"
         }
      },
      {
         "when_comp_start" : -1,
         "url" : "http://original.testbed.localhost/www.tubestation.uk/favicon.ico",
         "id" : "r21",
         "comps" : [],
         "download" : {
            "receiveFirst" : 151,
            "len" : 1150,
            "dns" : 0,
            "dnsEnd" : -1,
            "receiveHeadersEnd" : 152,
            "sslEnd" : -1,
            "connectEnd" : 1,
            "connectStart" : 0,
            "id" : "download_17",
            "receivedTime" : "869.773000013083",
            "sslStart" : -1,
            "dnsStart" : -1,
            "receiveLast" : 717.773000013083,
            "s_time" : 716.47600014694,
            "sendEnd" : 1,
            "sendStart" : 1,
            "type" : "image/x-icon"
         }
      },
      {
         "when_comp_start" : -1,
         "url" : "http://original.testbed.localhost/www.popstr.com/_content/images/a1p/icon/a1p/A1.ico",
         "id" : "r22",
         "comps" : [],
         "download" : {
            "receiveFirst" : 151,
            "len" : 1150,
            "dns" : 0,
            "dnsEnd" : -1,
            "receiveHeadersEnd" : 152,
            "sslEnd" : -1,
            "connectEnd" : 1,
            "connectStart" : 0,
            "id" : "download_18",
            "receivedTime" : "870.187000138685",
            "sslStart" : -1,
            "dnsStart" : -1,
            "receiveLast" : 718.187000138685,
            "s_time" : 716.715000104159,
            "sendEnd" : 1,
            "sendStart" : 1,
            "type" : "image/x-icon"
         }
      },
      {
         "when_comp_start" : -1,
         "url" : "http://original.testbed.localhost/s3.amazonaws.com/cc.silktide.com/cookieconsent.latest.min.js",
         "id" : "r24",
         "comps" : [
            {
               "s_time" : 870.959999971092,
               "time" : 1.53600005432907,
               "type" : 1,
               "id" : "comp_35",
               "e_time" : 872.496000025421
            }
         ],
         "download" : {
            "receiveFirst" : 152,
            "len" : 4499,
            "dns" : 0,
            "dnsEnd" : -1,
            "receiveHeadersEnd" : 152,
            "sslEnd" : -1,
            "connectEnd" : 0,
            "connectStart" : 0,
            "id" : "download_19",
            "receivedTime" : "870.896000182256",
            "sslStart" : -1,
            "dnsStart" : -1,
            "receiveLast" : 718.896000182256,
            "s_time" : 717.884000157937,
            "sendEnd" : 0,
            "sendStart" : 0,
            "type" : "application/javascript"
         }
      },
      {
         "when_comp_start" : -1,
         "url" : "http://www.google-analytics.com/analytics.js",
         "id" : "r23",
         "comps" : [
            {
               "s_time" : 905.59700015001,
               "time" : 53.291999967769,
               "type" : 2,
               "id" : "comp_51",
               "e_time" : 958.889000117779
            }
         ],
         "download" : {
            "receiveFirst" : 155,
            "len" : 26303,
            "dns" : 0,
            "dnsEnd" : -1,
            "receiveHeadersEnd" : 156,
            "sslEnd" : -1,
            "connectEnd" : 1,
            "connectStart" : 0,
            "id" : "download_20",
            "receivedTime" : "905.220000073314",
            "sslStart" : -1,
            "dnsStart" : -1,
            "receiveLast" : 749.220000073314,
            "s_time" : 717.337000183761,
            "sendEnd" : 1,
            "sendStart" : 1,
            "type" : "text/javascript"
         }
      },
      {
         "when_comp_start" : -1,
         "url" : "http://www.google-analytics.com/r/collect?v=1&_v=j39&a=270206931&t=pageview&_s=1&dl=http%3A%2F%2Foriginal.testbed.localhost%2Fwww.tubestation.uk%2F&ul=en-us&de=UTF-8&dt=Tubestation&sd=24-bit&sr=1024x768&vp=1024x601&je=1&_u=AEAAAEQAI~&jid=1872578877&cid=503031056.1442535382&tid=UA-59743403-5&_r=1&z=2",
         "id" : "r25",
         "comps" : [],
         "download" : {
            "receiveFirst" : 174,
            "len" : 35,
            "dns" : 0,
            "dnsEnd" : -1,
            "receiveHeadersEnd" : 174,
            "sslEnd" : -1,
            "connectEnd" : 0,
            "connectStart" : 0,
            "id" : "download_21",
            "receivedTime" : "1133.69600009173",
            "sslStart" : -1,
            "dnsStart" : -1,
            "receiveLast" : 959.696000091732,
            "s_time" : 958.41299998574,
            "sendEnd" : 0,
            "sendStart" : 0,
            "type" : "image/gif"
         }
      },
      {
         "when_comp_start" : 1,
         "url" : "https://googleads.g.doubleclick.net/pagead/html/r20150910/r20150820/zrt_lookup.html",
         "id" : "r18",
         "comps" : [
            {
               "s_time" : 1189.38800017349,
               "time" : 3.54800000787009,
               "type" : "evalhtml",
               "id" : "r18_c1",
               "e_time" : 1192.93600018136
            }
         ],
         "download" : {
            "receiveFirst" : 157,
            "len" : 9009,
            "dns" : 0,
            "dnsEnd" : 0,
            "receiveHeadersEnd" : 477,
            "sslEnd" : 320,
            "connectEnd" : 320,
            "connectStart" : 0,
            "id" : "download_22",
            "receivedTime" : "1189.10900014453",
            "sslStart" : 153,
            "dnsStart" : 0,
            "receiveLast" : 712.109000144526,
            "s_time" : 705.833000130951,
            "sendEnd" : 320,
            "sendStart" : 320,
            "type" : "text/html"
         }
      },
      {
         "when_comp_start" : -1,
         "url" : "http://pagead2.googlesyndication.com/pagead/js/r20150910/r20150820/show_ads_impl.js",
         "id" : "r19",
         "comps" : [
            {
               "s_time" : 1902.81200013123,
               "time" : 73.78900004551,
               "type" : null,
               "id" : "comp_64",
               "e_time" : 1976.60100017674
            }
         ],
         "download" : {
            "receiveFirst" : 255,
            "len" : 257842,
            "dns" : 0,
            "dnsEnd" : 0,
            "receiveHeadersEnd" : 492,
            "sslEnd" : -1,
            "connectEnd" : 237,
            "connectStart" : 0,
            "id" : "download_23",
            "receivedTime" : "1902.71600009874",
            "sslStart" : -1,
            "dnsStart" : 0,
            "receiveLast" : 1410.71600009874,
            "s_time" : 705.363000044599,
            "sendEnd" : 237,
            "sendStart" : 237,
            "type" : "text/javascript"
         }
      },
      {
         "when_comp_start" : -1,
         "url" : "https://pagead2.googlesyndication.com/pub-config/ca-pub-9902583931129722.js",
         "id" : "r17",
         "comps" : [
            {
               "s_time" : 1606.3870000653,
               "time" : 0.506999902419921,
               "type" : null,
               "id" : "comp_61",
               "e_time" : 1606.89399996772
            }
         ],
         "download" : {
            "receiveFirst" : 230,
            "len" : 107,
            "dns" : 0,
            "dnsEnd" : 0,
            "receiveHeadersEnd" : 914,
            "sslEnd" : 683,
            "connectEnd" : 684,
            "connectStart" : 0,
            "id" : "download_24",
            "receivedTime" : "1606.22100019827",
            "sslStart" : 0,
            "dnsStart" : 0,
            "receiveLast" : 692.221000198275,
            "s_time" : 691.100000170991,
            "sendEnd" : 684,
            "sendStart" : 684,
            "type" : "text/javascript"
         }
      },
      {
         "when_comp_start" : -1,
         "url" : "https://pagead2.googlesyndication.com/pagead/js/r20150910/r20150820/expansion_embed.js",
         "id" : "r27",
         "comps" : [
            {
               "s_time" : 2441.07800000347,
               "time" : 53.6540001630797,
               "type" : 2,
               "id" : "comp_75",
               "e_time" : 2494.73200016655
            }
         ],
         "download" : {
            "receiveFirst" : 229,
            "len" : 172728,
            "dns" : 0,
            "dnsEnd" : -1,
            "receiveHeadersEnd" : 229,
            "sslEnd" : -1,
            "connectEnd" : 0,
            "connectStart" : 0,
            "id" : "download_25",
            "receivedTime" : "2440.75100007467",
            "sslStart" : -1,
            "dnsStart" : -1,
            "receiveLast" : 2211.75100007467,
            "s_time" : 1977.48500015587,
            "sendEnd" : 0,
            "sendStart" : 0,
            "type" : "text/javascript"
         }
      },
      {
         "when_comp_start" : 1,
         "url" : "https://googleads.g.doubleclick.net/pagead/ads?client=ca-pub-9902583931129722&output=html&h=125&slotname=3081234326&adk=3519004764&w=125&lmt=1442549777&loeid=453848130&color_bg=ffffff&color_border=ffffff&color_link=000000&color_text=000000&color_url=00a000&flash=0&url=http%3A%2F%2Foriginal.testbed.l",
         "id" : "r26",
         "comps" : [
            {
               "s_time" : 2424.71699998714,
               "time" : 744.66400011443,
               "id" : "r26_c1",
               "type" : "evalhtml",
               "e_time" : 3169.38100010157
            },
            {
               "s_time" : 3367.3280000221,
               "time" : 29.9530001357202,
               "type" : "evalhtml",
               "id" : "r26_c2",
               "e_time" : 3397.28100015782
            }
         ],
         "download" : {
            "receiveFirst" : 447,
            "len" : 150189,
            "dns" : 0,
            "dnsEnd" : -1,
            "receiveHeadersEnd" : 447,
            "sslEnd" : -1,
            "connectEnd" : 0,
            "connectStart" : 0,
            "id" : "download_26",
            "receivedTime" : "2571.85299997218",
            "sslStart" : -1,
            "dnsStart" : -1,
            "receiveLast" : 2124.85299997218,
            "s_time" : 1970.69000010379,
            "sendEnd" : 0,
            "sendStart" : 0,
            "type" : "text/html"
         }
      },
      {
         "when_comp_start" : -1,
         "url" : "https://pagead2.googlesyndication.com/pagead/osd.js",
         "id" : "r28",
         "comps" : [
            {
               "s_time" : 2495.55500014685,
               "time" : 16.2100000307,
               "type" : 2,
               "id" : "comp_77",
               "e_time" : 2511.76500017755
            }
         ],
         "download" : {
            "receiveFirst" : 461,
            "len" : 58944,
            "dns" : 0,
            "dnsEnd" : -1,
            "receiveHeadersEnd" : 461,
            "sslEnd" : -1,
            "connectEnd" : 0,
            "connectStart" : 0,
            "id" : "download_27",
            "receivedTime" : "2495.23000000045",
            "sslStart" : -1,
            "dnsStart" : -1,
            "receiveLast" : 2034.23000000045,
            "s_time" : 1981.33900016546,
            "sendEnd" : 0,
            "sendStart" : 0,
            "type" : "text/javascript"
         }
      },
      {
         "when_comp_start" : -1,
         "url" : "https://tpc.googlesyndication.com/pagead/js/r20150917/r20110914/abg.js",
         "id" : "r30",
         "comps" : [
            {
               "s_time" : 3358.32000011578,
               "time" : 9.00799990631958,
               "type" : 1,
               "id" : "comp_89",
               "e_time" : 3367.3280000221
            }
         ],
         "download" : {
            "receiveFirst" : 231,
            "len" : 50719,
            "dns" : 0,
            "dnsEnd" : 0,
            "receiveHeadersEnd" : 690,
            "sslEnd" : 458,
            "connectEnd" : 459,
            "connectStart" : 0,
            "id" : "download_28",
            "receivedTime" : "3358.18500001915",
            "sslStart" : 227,
            "dnsStart" : 0,
            "receiveLast" : 2668.18500001915,
            "s_time" : 2435.52300008014,
            "sendEnd" : 459,
            "sendStart" : 459,
            "type" : "text/javascript"
         }
      },
      {
         "when_comp_start" : -1,
         "url" : "https://fonts.googleapis.com/css?family=Roboto:300&lang=en",
         "id" : "r29",
         "comps" : [
            {
               "s_time" : 3142.17600016855,
               "time" : 20.5589998513396,
               "type" : 4,
               "id" : "comp_79",
               "e_time" : 3162.73500001989
            }
         ],
         "download" : {
            "receiveFirst" : 237,
            "len" : 244,
            "dns" : 0,
            "dnsEnd" : 0,
            "receiveHeadersEnd" : 716,
            "sslEnd" : 478,
            "connectEnd" : 478,
            "connectStart" : 0,
            "id" : "download_29",
            "receivedTime" : "3141.99500018731",
            "sslStart" : 235,
            "dnsStart" : 0,
            "receiveLast" : 2425.99500018731,
            "s_time" : 2425.23799999617,
            "sendEnd" : 479,
            "sendStart" : 478,
            "type" : "text/css"
         }
      },
      {
         "when_comp_start" : 1,
         "url" : "https://googleads.g.doubleclick.net/pagead/drt/s?v=r20120211",
         "id" : "r33",
         "comps" : [
            {
               "s_time" : 3543.16200013272,
               "time" : 0.072999857369723,
               "type" : "evalhtml",
               "id" : "r33_c1",
               "e_time" : 3543.23499999009
            }
         ],
         "download" : {
            "receiveFirst" : 154,
            "len" : 143,
            "dns" : 0,
            "dnsEnd" : -1,
            "receiveHeadersEnd" : 155,
            "sslEnd" : -1,
            "connectEnd" : 0,
            "connectStart" : 0,
            "id" : "download_30",
            "receivedTime" : "3538.41900010593",
            "sslStart" : -1,
            "dnsStart" : -1,
            "receiveLast" : 3383.41900010593,
            "s_time" : 3382.34200002626,
            "sendEnd" : 1,
            "sendStart" : 0,
            "type" : "text/html"
         }
      },
      {
         "when_comp_start" : -1,
         "url" : "https://tpc.googlesyndication.com/pagead/images/x_button_blue2.png",
         "id" : "r34",
         "comps" : [],
         "download" : {
            "receiveFirst" : 227,
            "len" : 145,
            "dns" : 0,
            "dnsEnd" : -1,
            "receiveHeadersEnd" : 228,
            "sslEnd" : -1,
            "connectEnd" : 0,
            "connectStart" : 0,
            "id" : "download_31",
            "receivedTime" : "3628.15500004217",
            "sslStart" : -1,
            "dnsStart" : -1,
            "receiveLast" : 3400.15500004217,
            "s_time" : 3399.06500000507,
            "sendEnd" : 1,
            "sendStart" : 0,
            "type" : "image/png"
         }
      },
      {
         "when_comp_start" : -1,
         "url" : "https://fonts.gstatic.com/s/roboto/v15/Hgo13k-tfSpn0qi1SFdUfT8E0i7KZn-EPnyo3HZu7kw.woff",
         "id" : "r31",
         "comps" : [],
         "download" : {
            "receiveFirst" : 155,
            "len" : 18520,
            "dns" : 0,
            "dnsEnd" : 0,
            "receiveHeadersEnd" : 477,
            "sslEnd" : 317,
            "connectEnd" : 317,
            "connectStart" : 0,
            "id" : "download_32",
            "receivedTime" : "3654.2840001639",
            "sslStart" : 154,
            "dnsStart" : 0,
            "receiveLast" : 3177.2840001639,
            "s_time" : 3169.38100010157,
            "sendEnd" : 322,
            "sendStart" : 317,
            "type" : "font/woff"
         }
      },
      {
         "when_comp_start" : -1,
         "url" : "https://www.gstatic.com/images/branding/googlelogo/1x/googlelogo_color_112x36dp.png",
         "id" : "r32",
         "comps" : [],
         "download" : {
            "receiveFirst" : 161,
            "len" : 2449,
            "dns" : 0,
            "dnsEnd" : -1,
            "receiveHeadersEnd" : 485,
            "sslEnd" : -1,
            "connectEnd" : 324,
            "connectStart" : 0,
            "id" : "download_33",
            "receivedTime" : "3656.39400016516",
            "sslStart" : -1,
            "dnsStart" : -1,
            "receiveLast" : 3171.39400016516,
            "s_time" : 3168.78000018187,
            "sendEnd" : 324,
            "sendStart" : 324,
            "type" : "image/png"
         }
      }
   ],
   "deps" : [
      {
         "a2" : "r1_c2",
         "time" : -1,
         "id" : "dep1",
         "a1" : "comp_6"
      },
      {
         "a2" : "r1_c3",
         "time" : -1,
         "id" : "dep2",
         "a1" : "comp_8"
      },
      {
         "a2" : "r1_c4",
         "time" : -1,
         "id" : "dep3",
         "a1" : "comp_10"
      },
      {
         "a2" : "r1_c5",
         "time" : -1,
         "id" : "dep4",
         "a1" : "comp_12"
      },
      {
         "a2" : "r1_c6",
         "time" : -1,
         "id" : "dep5",
         "a1" : "comp_16"
      },
      {
         "a2" : "r1_c7",
         "time" : -1,
         "id" : "dep6",
         "a1" : "comp_35"
      },
      {
         "a2" : "comp_6",
         "time" : -1,
         "id" : "dep7",
         "a1" : "comp_0"
      },
      {
         "a2" : "comp_6",
         "time" : -1,
         "id" : "dep8",
         "a1" : "comp_2"
      },
      {
         "a2" : "comp_6",
         "time" : -1,
         "id" : "dep9",
         "a1" : "comp_1"
      },
      {
         "a2" : "comp_6",
         "time" : -1,
         "id" : "dep10",
         "a1" : "comp_3"
      },
      {
         "a2" : "comp_6",
         "time" : -1,
         "id" : "dep11",
         "a1" : "comp_5"
      },
      {
         "a2" : "comp_6",
         "time" : -1,
         "id" : "dep12",
         "a1" : "comp_4"
      },
      {
         "a2" : "comp_8",
         "time" : -1,
         "id" : "dep13",
         "a1" : "comp_6"
      },
      {
         "a2" : "comp_10",
         "time" : -1,
         "id" : "dep14",
         "a1" : "comp_8"
      },
      {
         "a2" : "comp_12",
         "time" : -1,
         "id" : "dep15",
         "a1" : "comp_10"
      },
      {
         "a2" : "r26_c2",
         "time" : -1,
         "id" : "dep16",
         "a1" : "comp_89"
      },
      {
         "a2" : "download_33",
         "time" : -1,
         "id" : "dep17",
         "a1" : "r1_c7"
      },
      {
         "a2" : "download_33",
         "time" : -1,
         "id" : "dep18",
         "a1" : "r26_c1"
      },
      {
         "a2" : "download_32",
         "time" : -1,
         "id" : "dep19",
         "a1" : "r26_c1"
      },
      {
         "a2" : "download_31",
         "time" : -1,
         "id" : "dep20",
         "a1" : "r1_c7"
      },
      {
         "a2" : "download_30",
         "time" : 15.0140000041602,
         "id" : "dep21",
         "a1" : "r26_c2"
      },
      {
         "a2" : "download_29",
         "time" : 0.521000009030104,
         "id" : "dep22",
         "a1" : "r26_c1"
      },
      {
         "a2" : "download_28",
         "time" : 1563.02700005472,
         "id" : "dep23",
         "a1" : "r1_c7"
      },
      {
         "a2" : "download_28",
         "time" : 10.806000093,
         "id" : "dep24",
         "a1" : "r26_c1"
      },
      {
         "a2" : "download_27",
         "time" : 1108.84300014004,
         "id" : "dep25",
         "a1" : "r1_c7"
      },
      {
         "a2" : "download_26",
         "time" : 67.87799997256,
         "id" : "dep26",
         "a1" : "comp_64"
      },
      {
         "a2" : "download_25",
         "time" : 1104.98900013045,
         "id" : "dep27",
         "a1" : "r1_c7"
      },
      {
         "a2" : "download_24",
         "time" : -1,
         "id" : "dep28",
         "a1" : "r1_c5"
      },
      {
         "a2" : "download_23",
         "time" : -1,
         "id" : "dep29",
         "a1" : "r1_c5"
      },
      {
         "a2" : "download_23",
         "time" : 32.15799992904,
         "id" : "dep30",
         "a1" : "r1_c5"
      },
      {
         "a2" : "download_22",
         "time" : -1,
         "id" : "dep31",
         "a1" : "r1_c6"
      },
      {
         "a2" : "download_21",
         "time" : 85.916999960319,
         "id" : "dep32",
         "a1" : "r1_c7"
      },
      {
         "a2" : "download_20",
         "time" : -1,
         "id" : "dep33",
         "a1" : "r1_c6"
      },
      {
         "a2" : "download_19",
         "time" : -1,
         "id" : "dep34",
         "a1" : "r1_c6"
      },
      {
         "a2" : "download_18",
         "time" : 10.987000074237,
         "id" : "dep35",
         "a1" : "r1_c6"
      },
      {
         "a2" : "download_17",
         "time" : 10.748000117018,
         "id" : "dep36",
         "a1" : "r1_c6"
      },
      {
         "a2" : "download_16",
         "time" : 2.38499999977603,
         "id" : "dep37",
         "a1" : "r1_c6"
      },
      {
         "a2" : "download_15",
         "time" : -1,
         "id" : "dep38",
         "a1" : "r1_c1"
      },
      {
         "a2" : "download_14",
         "time" : -1,
         "id" : "dep39",
         "a1" : "r1_c1"
      },
      {
         "a2" : "download_13",
         "time" : 320.835000136867,
         "id" : "dep40",
         "a1" : "r1_c1"
      },
      {
         "a2" : "download_12",
         "time" : 2.73800012655499,
         "id" : "dep41",
         "a1" : "r1_c1"
      },
      {
         "a2" : "download_12",
         "time" : 2.73800012655499,
         "id" : "dep42",
         "a1" : "r1_c1"
      },
      {
         "a2" : "download_11",
         "time" : 2.252000151202,
         "id" : "dep43",
         "a1" : "r1_c1"
      },
      {
         "a2" : "download_11",
         "time" : 2.252000151202,
         "id" : "dep44",
         "a1" : "r1_c1"
      },
      {
         "a2" : "download_10",
         "time" : 1.479000085965,
         "id" : "dep45",
         "a1" : "r1_c1"
      },
      {
         "a2" : "download_9",
         "time" : 1.98900001123499,
         "id" : "dep46",
         "a1" : "r1_c1"
      },
      {
         "a2" : "download_9",
         "time" : 1.98900001123499,
         "id" : "dep47",
         "a1" : "r1_c1"
      },
      {
         "a2" : "download_8",
         "time" : 1.83600001037098,
         "id" : "dep48",
         "a1" : "r1_c1"
      },
      {
         "a2" : "download_8",
         "time" : 1.83600001037098,
         "id" : "dep49",
         "a1" : "r1_c1"
      },
      {
         "a2" : "download_7",
         "time" : 1.64399994537197,
         "id" : "dep50",
         "a1" : "r1_c1"
      },
      {
         "a2" : "download_7",
         "time" : 1.64399994537197,
         "id" : "dep51",
         "a1" : "r1_c1"
      },
      {
         "a2" : "download_6",
         "time" : 1.08000007458,
         "id" : "dep52",
         "a1" : "r1_c1"
      },
      {
         "a2" : "download_5",
         "time" : 1.23600009828797,
         "id" : "dep53",
         "a1" : "r1_c1"
      },
      {
         "a2" : "download_4",
         "time" : 0.920000020413994,
         "id" : "dep54",
         "a1" : "r1_c1"
      },
      {
         "a2" : "download_3",
         "time" : 0.601000152527973,
         "id" : "dep55",
         "a1" : "r1_c1"
      },
      {
         "a2" : "download_2",
         "time" : 0.758999958633979,
         "id" : "dep56",
         "a1" : "r1_c1"
      },
      {
         "a2" : "download_1",
         "time" : 0.457999994977996,
         "id" : "dep57",
         "a1" : "r1_c1"
      }
   ]
}
