{
   "n_download_no_trigger" : 1,
   "start_activity" : "download_0",
   "name" : "original.testbed.localhost_www.bisport.cz_",
   "load_activity" : -1,
   "objs" : [
      {
         "when_comp_start" : 1,
         "url" : "http://original.testbed.localhost/www.bisport.cz/",
         "id" : "r1",
         "comps" : [
            {
               "s_time" : 166.037000017241,
               "time" : 467.566000064835,
               "id" : "r1_c1",
               "type" : "evalhtml",
               "e_time" : 633.603000082076
            },
            {
               "s_time" : 666.989000048488,
               "time" : -1106234823.023,
               "id" : "r1_c2",
               "type" : "evalhtml",
               "e_time" : -1106234156.034
            },
            {
               "s_time" : 668.992999941111,
               "time" : -1106234825.027,
               "id" : "r1_c3",
               "type" : "evalhtml",
               "e_time" : -1106234156.034
            },
            {
               "s_time" : 670.424000127241,
               "time" : -1106234826.458,
               "id" : "r1_c4",
               "type" : "evalhtml",
               "e_time" : -1106234156.034
            },
            {
               "s_time" : 671.604000031948,
               "time" : 31.0009999666361,
               "type" : "evalhtml",
               "id" : "r1_c5",
               "e_time" : 702.604999998584
            }
         ],
         "download" : {
            "receiveFirst" : 151,
            "len" : 6673,
            "dns" : 0,
            "dnsEnd" : -1,
            "receiveHeadersEnd" : 151,
            "sslEnd" : -1,
            "connectEnd" : 0,
            "connectStart" : 0,
            "id" : "download_0",
            "receivedTime" : "152.339000022039",
            "sslStart" : -1,
            "dnsStart" : -1,
            "receiveLast" : 1.33900002203882,
            "s_time" : 0,
            "sendEnd" : 0,
            "sendStart" : 0,
            "type" : "text/html"
         }
      },
      {
         "when_comp_start" : -1,
         "url" : "http://original.testbed.localhost/www.bisport.cz/style12.css",
         "id" : "r2",
         "comps" : [
            {
               "s_time" : 322.074000025168,
               "time" : 5.73000009171699,
               "type" : 4,
               "id" : "comp_0",
               "e_time" : 327.804000116885
            }
         ],
         "download" : {
            "receiveFirst" : 152,
            "len" : 16887,
            "dns" : 0,
            "dnsEnd" : -1,
            "receiveHeadersEnd" : 154,
            "sslEnd" : -1,
            "connectEnd" : 2,
            "connectStart" : 0,
            "id" : "download_1",
            "receivedTime" : "321.922000031918",
            "sslStart" : -1,
            "dnsStart" : -1,
            "receiveLast" : 167.922000031918,
            "s_time" : 166.679000016302,
            "sendEnd" : 2,
            "sendStart" : 2,
            "type" : "text/css"
         }
      },
      {
         "when_comp_start" : -1,
         "url" : "http://original.testbed.localhost/www.bisport.cz/imgbox/slimbox/slimbox2.css",
         "id" : "r6",
         "comps" : [
            {
               "s_time" : 328.850999940187,
               "time" : 0.00400003045797348,
               "type" : 4,
               "id" : "comp_1",
               "e_time" : 328.854999970645
            }
         ],
         "download" : {
            "receiveFirst" : 155,
            "len" : 1277,
            "dns" : 0,
            "dnsEnd" : -1,
            "receiveHeadersEnd" : 157,
            "sslEnd" : -1,
            "connectEnd" : 2,
            "connectStart" : 0,
            "id" : "download_2",
            "receivedTime" : "328.650000039488",
            "sslStart" : -1,
            "dnsStart" : -1,
            "receiveLast" : 171.650000039488,
            "s_time" : 167.465999955311,
            "sendEnd" : 2,
            "sendStart" : 2,
            "type" : "text/css"
         }
      },
      {
         "when_comp_start" : -1,
         "url" : "http://original.testbed.localhost/www.bisport.cz/js/marquee2.js",
         "id" : "r4",
         "comps" : [
            {
               "s_time" : 667.076000012457,
               "time" : 1.91699992865392,
               "type" : 1,
               "id" : "comp_4",
               "e_time" : 668.992999941111
            }
         ],
         "download" : {
            "receiveFirst" : 156,
            "len" : 7553,
            "dns" : 0,
            "dnsEnd" : -1,
            "receiveHeadersEnd" : 158,
            "sslEnd" : -1,
            "connectEnd" : 2,
            "connectStart" : 0,
            "id" : "download_3",
            "receivedTime" : "329.018000047654",
            "sslStart" : -1,
            "dnsStart" : -1,
            "receiveLast" : 171.018000047654,
            "s_time" : 167.080000042915,
            "sendEnd" : 2,
            "sendStart" : 2,
            "type" : "application/javascript"
         }
      },
      {
         "when_comp_start" : -1,
         "url" : "http://original.testbed.localhost/www.bisport.cz/imgbox/slimbox/slimbox2.js",
         "id" : "r5",
         "comps" : [
            {
               "s_time" : 669.051999924704,
               "time" : 1.37200020253704,
               "type" : 1,
               "id" : "comp_6",
               "e_time" : 670.424000127241
            }
         ],
         "download" : {
            "receiveFirst" : 158,
            "len" : 4123,
            "dns" : 0,
            "dnsEnd" : -1,
            "receiveHeadersEnd" : 160,
            "sslEnd" : -1,
            "connectEnd" : 2,
            "connectStart" : 0,
            "id" : "download_4",
            "receivedTime" : "329.927999991924",
            "sslStart" : -1,
            "dnsStart" : -1,
            "receiveLast" : 169.927999991924,
            "s_time" : 167.275000130758,
            "sendEnd" : 2,
            "sendStart" : 2,
            "type" : "application/javascript"
         }
      },
      {
         "when_comp_start" : -1,
         "url" : "http://original.testbed.localhost/www.bisport.cz/js/nwin.js",
         "id" : "r7",
         "comps" : [
            {
               "s_time" : 671.216000104323,
               "time" : 0.387999927624946,
               "type" : 1,
               "id" : "comp_8",
               "e_time" : 671.604000031948
            }
         ],
         "download" : {
            "receiveFirst" : 158,
            "len" : 1298,
            "dns" : 0,
            "dnsEnd" : -1,
            "receiveHeadersEnd" : 160,
            "sslEnd" : -1,
            "connectEnd" : 2,
            "connectStart" : 0,
            "id" : "download_5",
            "receivedTime" : "330.12400008738",
            "sslStart" : -1,
            "dnsStart" : -1,
            "receiveLast" : 170.12400008738,
            "s_time" : 167.657000012696,
            "sendEnd" : 2,
            "sendStart" : 2,
            "type" : "application/javascript"
         }
      },
      {
         "when_comp_start" : -1,
         "url" : "http://original.testbed.localhost/code.jquery.com/jquery-1.8.0.min.js",
         "id" : "r3",
         "comps" : [
            {
               "s_time" : 633.047000039369,
               "time" : 33.9420000091191,
               "type" : 1,
               "id" : "comp_2",
               "e_time" : 666.989000048488
            }
         ],
         "download" : {
            "receiveFirst" : 159,
            "len" : 92555,
            "dns" : 0,
            "dnsEnd" : -1,
            "receiveHeadersEnd" : 161,
            "sslEnd" : -1,
            "connectEnd" : 2,
            "connectStart" : 0,
            "id" : "download_6",
            "receivedTime" : "632.955000037327",
            "sslStart" : -1,
            "dnsStart" : -1,
            "receiveLast" : 471.955000037327,
            "s_time" : 166.877000126988,
            "sendEnd" : 2,
            "sendStart" : 2,
            "type" : "application/javascript"
         }
      },
      {
         "when_comp_start" : -1,
         "url" : "http://original.testbed.localhost/www.bisport.cz/dopl/bisport-logo.png",
         "id" : "r8",
         "comps" : [],
         "download" : {
            "receiveFirst" : 151,
            "len" : 13358,
            "dns" : 0,
            "dnsEnd" : -1,
            "receiveHeadersEnd" : 305,
            "sslEnd" : -1,
            "connectEnd" : 154,
            "connectStart" : 0,
            "id" : "download_7",
            "receivedTime" : "477.776000043377",
            "sslStart" : -1,
            "dnsStart" : -1,
            "receiveLast" : 172.776000043377,
            "s_time" : 167.893999954686,
            "sendEnd" : 154,
            "sendStart" : 154,
            "type" : "image/png"
         }
      },
      {
         "when_comp_start" : -1,
         "url" : "http://original.testbed.localhost/www.bisport.cz/dopl/kat/kat1-2.png",
         "id" : "r9",
         "comps" : [],
         "download" : {
            "receiveFirst" : 151,
            "len" : 8321,
            "dns" : 0,
            "dnsEnd" : -1,
            "receiveHeadersEnd" : 151,
            "sslEnd" : -1,
            "connectEnd" : 0,
            "connectStart" : 0,
            "id" : "download_8",
            "receivedTime" : "631.750999949872",
            "sslStart" : -1,
            "dnsStart" : -1,
            "receiveLast" : 480.750999949872,
            "s_time" : 477.705999976024,
            "sendEnd" : 0,
            "sendStart" : 0,
            "type" : "image/png"
         }
      },
      {
         "when_comp_start" : -1,
         "url" : "http://original.testbed.localhost/www.bisport.cz/dopl/kat/kat2-2.png",
         "id" : "r10",
         "comps" : [],
         "download" : {
            "receiveFirst" : 151,
            "len" : 11545,
            "dns" : 0,
            "dnsEnd" : -1,
            "receiveHeadersEnd" : 151,
            "sslEnd" : -1,
            "connectEnd" : 0,
            "connectStart" : 0,
            "id" : "download_9",
            "receivedTime" : "787.306000012904",
            "sslStart" : -1,
            "dnsStart" : -1,
            "receiveLast" : 636.306000012904,
            "s_time" : 631.725999992341,
            "sendEnd" : 0,
            "sendStart" : 0,
            "type" : "image/png"
         }
      },
      {
         "when_comp_start" : -1,
         "url" : "http://original.testbed.localhost/www.bisport.cz/dopl/kat/kat4-2.png",
         "id" : "r11",
         "comps" : [],
         "download" : {
            "receiveFirst" : 153,
            "len" : 17324,
            "dns" : 0,
            "dnsEnd" : -1,
            "receiveHeadersEnd" : 154,
            "sslEnd" : -1,
            "connectEnd" : 1,
            "connectStart" : 0,
            "id" : "download_10",
            "receivedTime" : "938.467999920249",
            "sslStart" : -1,
            "dnsStart" : -1,
            "receiveLast" : 784.467999920249,
            "s_time" : 632.978999987245,
            "sendEnd" : 1,
            "sendStart" : 1,
            "type" : "image/png"
         }
      },
      {
         "when_comp_start" : -1,
         "url" : "http://original.testbed.localhost/www.bisport.cz/dopl/kat/kat5-1.png",
         "id" : "r12",
         "comps" : [],
         "download" : {
            "receiveFirst" : 159,
            "len" : 10366,
            "dns" : 0,
            "dnsEnd" : -1,
            "receiveHeadersEnd" : 160,
            "sslEnd" : -1,
            "connectEnd" : 1,
            "connectStart" : 0,
            "id" : "download_11",
            "receivedTime" : "797.525000059977",
            "sslStart" : -1,
            "dnsStart" : -1,
            "receiveLast" : 637.525000059977,
            "s_time" : 633.199000032619,
            "sendEnd" : 1,
            "sendStart" : 1,
            "type" : "image/png"
         }
      },
      {
         "when_comp_start" : -1,
         "url" : "http://original.testbed.localhost/www.bisport.cz/dopl/kat/kat6-2.png",
         "id" : "r13",
         "comps" : [],
         "download" : {
            "receiveFirst" : 163,
            "len" : 10479,
            "dns" : 0,
            "dnsEnd" : -1,
            "receiveHeadersEnd" : 164,
            "sslEnd" : -1,
            "connectEnd" : 1,
            "connectStart" : 0,
            "id" : "download_12",
            "receivedTime" : "801.994000095874",
            "sslStart" : -1,
            "dnsStart" : -1,
            "receiveLast" : 637.994000095874,
            "s_time" : 633.391000097618,
            "sendEnd" : 1,
            "sendStart" : 1,
            "type" : "image/png"
         }
      },
      {
         "when_comp_start" : -1,
         "url" : "http://original.testbed.localhost/www.bisport.cz/dopl/kat/kat7-3.png",
         "id" : "r14",
         "comps" : [],
         "download" : {
            "receiveFirst" : 167,
            "len" : 12176,
            "dns" : 0,
            "dnsEnd" : -1,
            "receiveHeadersEnd" : 168,
            "sslEnd" : -1,
            "connectEnd" : 1,
            "connectStart" : 0,
            "id" : "download_13",
            "receivedTime" : "807.104000123218",
            "sslStart" : -1,
            "dnsStart" : -1,
            "receiveLast" : 639.104000123218,
            "s_time" : 633.603000082076,
            "sendEnd" : 1,
            "sendStart" : 1,
            "type" : "image/png"
         }
      },
      {
         "when_comp_start" : -1,
         "url" : "http://original.testbed.localhost/www.bisport.cz/dopl/modra.png",
         "id" : "r16",
         "comps" : [],
         "download" : {
            "receiveFirst" : 151,
            "len" : 968,
            "dns" : 0,
            "dnsEnd" : -1,
            "receiveHeadersEnd" : 151,
            "sslEnd" : -1,
            "connectEnd" : 0,
            "connectStart" : 0,
            "id" : "download_14",
            "receivedTime" : "826.564999995753",
            "sslStart" : -1,
            "dnsStart" : -1,
            "receiveLast" : 675.564999995753,
            "s_time" : 675.004000077024,
            "sendEnd" : 0,
            "sendStart" : 0,
            "type" : "image/png"
         }
      },
      {
         "when_comp_start" : -1,
         "url" : "http://www.google-analytics.com/ga.js",
         "id" : "r15",
         "comps" : [
            {
               "s_time" : 982.078999979421,
               "time" : 58.5730001330389,
               "type" : null,
               "id" : "comp_33",
               "e_time" : 1040.65200011246
            }
         ],
         "download" : {
            "receiveFirst" : 155,
            "len" : 43082,
            "dns" : 0,
            "dnsEnd" : -1,
            "receiveHeadersEnd" : 155,
            "sslEnd" : -1,
            "connectEnd" : 0,
            "connectStart" : 0,
            "id" : "download_15",
            "receivedTime" : "981.671999907121",
            "sslStart" : -1,
            "dnsStart" : -1,
            "receiveLast" : 826.671999907121,
            "s_time" : 672.804000088945,
            "sendEnd" : 0,
            "sendStart" : 0,
            "type" : "text/javascript"
         }
      },
      {
         "when_comp_start" : -1,
         "url" : "http://www.google-analytics.com/r/__utm.gif?utmwv=5.6.7&utms=1&utmn=132858424&utmhn=original.testbed.localhost&utmcs=UTF-8&utmsr=1024x768&utmvp=1009x601&utmsc=24-bit&utmul=en-us&utmje=1&utmfl=-&utmdt=P%C5%AFj%C4%8Dovna%20lod%C3%AD%20a%20kol%2C%20ubytov%C3%A1n%C3%AD%20na%20s%C3%A1zav%C4%9B%20%7C%20Bi",
         "id" : "r17",
         "comps" : [],
         "download" : {
            "receiveFirst" : 190,
            "len" : 35,
            "dns" : 0,
            "dnsEnd" : -1,
            "receiveHeadersEnd" : 191,
            "sslEnd" : -1,
            "connectEnd" : 1,
            "connectStart" : 0,
            "id" : "download_16",
            "receivedTime" : "1230.74900009669",
            "sslStart" : -1,
            "dnsStart" : -1,
            "receiveLast" : 1039.74900009669,
            "s_time" : 1038.4170000907,
            "sendEnd" : 1,
            "sendStart" : 1,
            "type" : "image/gif"
         }
      }
   ],
   "deps" : [
      {
         "a2" : "r1_c2",
         "time" : -1,
         "id" : "dep1",
         "a1" : "comp_2"
      },
      {
         "a2" : "r1_c3",
         "time" : -1,
         "id" : "dep2",
         "a1" : "comp_4"
      },
      {
         "a2" : "r1_c4",
         "time" : -1,
         "id" : "dep3",
         "a1" : "comp_6"
      },
      {
         "a2" : "r1_c5",
         "time" : -1,
         "id" : "dep4",
         "a1" : "comp_8"
      },
      {
         "a2" : "comp_2",
         "time" : -1,
         "id" : "dep5",
         "a1" : "comp_0"
      },
      {
         "a2" : "comp_4",
         "time" : -1,
         "id" : "dep6",
         "a1" : "comp_2"
      },
      {
         "a2" : "comp_6",
         "time" : -1,
         "id" : "dep7",
         "a1" : "comp_4"
      },
      {
         "a2" : "comp_8",
         "time" : -1,
         "id" : "dep8",
         "a1" : "comp_6"
      },
      {
         "a2" : "comp_8",
         "time" : -1,
         "id" : "dep9",
         "a1" : "comp_1"
      },
      {
         "a2" : "download_16",
         "time" : 56.3380001112789,
         "id" : "dep10",
         "a1" : "comp_33"
      },
      {
         "a2" : "download_15",
         "time" : 1.20000005699706,
         "id" : "dep11",
         "a1" : "r1_c5"
      },
      {
         "a2" : "download_14",
         "time" : 3.40000004507601,
         "id" : "dep12",
         "a1" : "r1_c5"
      },
      {
         "a2" : "download_13",
         "time" : -1,
         "id" : "dep13",
         "a1" : "r1_c1"
      },
      {
         "a2" : "download_12",
         "time" : 467.354000080377,
         "id" : "dep14",
         "a1" : "r1_c1"
      },
      {
         "a2" : "download_11",
         "time" : 467.162000015378,
         "id" : "dep15",
         "a1" : "r1_c1"
      },
      {
         "a2" : "download_10",
         "time" : 466.941999970004,
         "id" : "dep16",
         "a1" : "r1_c1"
      },
      {
         "a2" : "download_9",
         "time" : 465.6889999751,
         "id" : "dep17",
         "a1" : "r1_c1"
      },
      {
         "a2" : "download_8",
         "time" : 311.668999958783,
         "id" : "dep18",
         "a1" : "r1_c1"
      },
      {
         "a2" : "download_7",
         "time" : 1.85699993744498,
         "id" : "dep19",
         "a1" : "r1_c1"
      },
      {
         "a2" : "download_7",
         "time" : 1.85699993744498,
         "id" : "dep20",
         "a1" : "r1_c1"
      },
      {
         "a2" : "download_6",
         "time" : 0.840000109746995,
         "id" : "dep21",
         "a1" : "r1_c1"
      },
      {
         "a2" : "download_5",
         "time" : 1.61999999545498,
         "id" : "dep22",
         "a1" : "r1_c1"
      },
      {
         "a2" : "download_5",
         "time" : 1.61999999545498,
         "id" : "dep23",
         "a1" : "r1_c1"
      },
      {
         "a2" : "download_4",
         "time" : 1.23800011351699,
         "id" : "dep24",
         "a1" : "r1_c1"
      },
      {
         "a2" : "download_4",
         "time" : 1.23800011351699,
         "id" : "dep25",
         "a1" : "r1_c1"
      },
      {
         "a2" : "download_3",
         "time" : 1.04300002567399,
         "id" : "dep26",
         "a1" : "r1_c1"
      },
      {
         "a2" : "download_3",
         "time" : 1.04300002567399,
         "id" : "dep27",
         "a1" : "r1_c1"
      },
      {
         "a2" : "download_2",
         "time" : 1.42899993806998,
         "id" : "dep28",
         "a1" : "r1_c1"
      },
      {
         "a2" : "download_2",
         "time" : 1.42899993806998,
         "id" : "dep29",
         "a1" : "r1_c1"
      },
      {
         "a2" : "download_1",
         "time" : 0.641999999060999,
         "id" : "dep30",
         "a1" : "r1_c1"
      }
   ]
}
