{
   "start_activity" : "download_0",
   "load_activity" : -1,
   "name" : "original.testbed.localhost_www.vk.com_",
   "deps" : [
      {
         "a1" : "comp_10",
         "time" : -1,
         "id" : "dep1",
         "a2" : "r1_c2"
      },
      {
         "id" : "dep2",
         "time" : -1,
         "a1" : "comp_12",
         "a2" : "r1_c3"
      },
      {
         "id" : "dep3",
         "time" : -1,
         "a1" : "comp_14",
         "a2" : "r1_c4"
      },
      {
         "a1" : "comp_16",
         "time" : -1,
         "id" : "dep4",
         "a2" : "r1_c5"
      },
      {
         "a2" : "r1_c6",
         "a1" : "comp_18",
         "time" : -1,
         "id" : "dep5"
      },
      {
         "a2" : "r1_c7",
         "a1" : "comp_20",
         "time" : -1,
         "id" : "dep6"
      },
      {
         "a2" : "r1_c8",
         "a1" : "comp_22",
         "time" : -1,
         "id" : "dep7"
      },
      {
         "a2" : "comp_10",
         "a1" : "comp_9",
         "time" : -1,
         "id" : "dep8"
      },
      {
         "a1" : "comp_7",
         "time" : -1,
         "id" : "dep9",
         "a2" : "comp_10"
      },
      {
         "a1" : "comp_8",
         "time" : -1,
         "id" : "dep10",
         "a2" : "comp_10"
      },
      {
         "a2" : "comp_12",
         "id" : "dep11",
         "time" : -1,
         "a1" : "comp_10"
      },
      {
         "id" : "dep12",
         "time" : -1,
         "a1" : "comp_12",
         "a2" : "comp_14"
      },
      {
         "id" : "dep13",
         "time" : -1,
         "a1" : "comp_14",
         "a2" : "comp_16"
      },
      {
         "time" : -1,
         "id" : "dep14",
         "a1" : "comp_16",
         "a2" : "comp_18"
      },
      {
         "a1" : "comp_18",
         "id" : "dep15",
         "time" : -1,
         "a2" : "comp_20"
      },
      {
         "a1" : "comp_20",
         "id" : "dep16",
         "time" : -1,
         "a2" : "comp_22"
      },
      {
         "time" : 23.2350000296701,
         "id" : "dep17",
         "a1" : "r1_c8",
         "a2" : "download_18"
      },
      {
         "a1" : "r1_c8",
         "id" : "dep18",
         "time" : 12.21100002294,
         "a2" : "download_17"
      },
      {
         "time" : 12.4700000160401,
         "id" : "dep19",
         "a1" : "r1_c8",
         "a2" : "download_16"
      },
      {
         "a1" : "r1_c8",
         "id" : "dep20",
         "time" : 8.58100003096979,
         "a2" : "download_15"
      },
      {
         "a2" : "download_14",
         "time" : -1,
         "id" : "dep21",
         "a1" : "r1_c1"
      },
      {
         "a2" : "download_13",
         "time" : 448.475999990479,
         "id" : "dep22",
         "a1" : "r1_c1"
      },
      {
         "time" : 4.729999986012,
         "id" : "dep23",
         "a1" : "r1_c1",
         "a2" : "download_12"
      },
      {
         "a2" : "download_12",
         "time" : 4.729999986012,
         "id" : "dep24",
         "a1" : "r1_c1"
      },
      {
         "a2" : "download_11",
         "a1" : "r1_c1",
         "time" : 4.619999963325,
         "id" : "dep25"
      },
      {
         "a2" : "download_11",
         "time" : 4.619999963325,
         "id" : "dep26",
         "a1" : "r1_c1"
      },
      {
         "a2" : "download_10",
         "a1" : "r1_c1",
         "time" : 4.53999999445,
         "id" : "dep27"
      },
      {
         "time" : 4.53999999445,
         "id" : "dep28",
         "a1" : "r1_c1",
         "a2" : "download_10"
      },
      {
         "time" : 4.45499998750201,
         "id" : "dep29",
         "a1" : "r1_c1",
         "a2" : "download_9"
      },
      {
         "a2" : "download_9",
         "id" : "dep30",
         "time" : 4.45499998750201,
         "a1" : "r1_c1"
      },
      {
         "time" : 4.396999953315,
         "id" : "dep31",
         "a1" : "r1_c1",
         "a2" : "download_8"
      },
      {
         "time" : 4.396999953315,
         "id" : "dep32",
         "a1" : "r1_c1",
         "a2" : "download_8"
      },
      {
         "a2" : "download_7",
         "time" : 4.290999961086,
         "id" : "dep33",
         "a1" : "r1_c1"
      },
      {
         "a2" : "download_7",
         "a1" : "r1_c1",
         "time" : 4.290999961086,
         "id" : "dep34"
      },
      {
         "a1" : "r1_c1",
         "id" : "dep35",
         "time" : 3.985999966972,
         "a2" : "download_6"
      },
      {
         "a1" : "r1_c1",
         "time" : 3.89100000029501,
         "id" : "dep36",
         "a2" : "download_5"
      },
      {
         "time" : 4.08199999947099,
         "id" : "dep37",
         "a1" : "r1_c1",
         "a2" : "download_4"
      },
      {
         "a2" : "download_3",
         "a1" : "r1_c1",
         "id" : "dep38",
         "time" : 4.213999956847
      },
      {
         "a1" : "r1_c1",
         "time" : 4.213999956847,
         "id" : "dep39",
         "a2" : "download_3"
      },
      {
         "a2" : "download_2",
         "id" : "dep40",
         "time" : 3.77299997489901,
         "a1" : "r1_c1"
      },
      {
         "a2" : "download_1",
         "a1" : "r1_c1",
         "time" : 3.574999980629,
         "id" : "dep41"
      }
   ],
   "n_download_no_trigger" : 1,
   "objs" : [
      {
         "when_comp_start" : 1,
         "id" : "r1",
         "url" : "http://original.testbed.localhost/www.vk.com/",
         "download" : {
            "connectEnd" : 0,
            "id" : "download_0",
            "receivedTime" : "112.552999984473",
            "dnsStart" : -1,
            "s_time" : 0,
            "receiveFirst" : 102,
            "sendEnd" : 0,
            "dnsEnd" : -1,
            "sslEnd" : -1,
            "type" : "text/html",
            "len" : 17981,
            "dns" : 0,
            "sendStart" : 0,
            "sslStart" : -1,
            "receiveHeadersEnd" : 102,
            "receiveLast" : 10.552999984473,
            "connectStart" : 0
         },
         "comps" : [
            {
               "id" : "r1_c1",
               "time" : 551.142999960576,
               "s_time" : 112.70500003593,
               "e_time" : 663.847999996506,
               "type" : "evalhtml"
            },
            {
               "type" : "evalhtml",
               "time" : -277306819.933,
               "id" : "r1_c2",
               "s_time" : 2794.51700003119,
               "e_time" : -277304025.416
            },
            {
               "type" : "evalhtml",
               "s_time" : 2812.12299998151,
               "e_time" : -277304025.416,
               "time" : -277306837.539,
               "id" : "r1_c3"
            },
            {
               "time" : -277306837.824,
               "id" : "r1_c4",
               "s_time" : 2812.40799999796,
               "e_time" : -277304025.416,
               "type" : "evalhtml"
            },
            {
               "type" : "evalhtml",
               "s_time" : 2812.73300002795,
               "e_time" : -277304025.416,
               "id" : "r1_c5",
               "time" : -277306838.149
            },
            {
               "type" : "evalhtml",
               "time" : -277306838.317,
               "id" : "r1_c6",
               "e_time" : -277304025.416,
               "s_time" : 2812.90100002661
            },
            {
               "s_time" : 2813.54100001045,
               "e_time" : -277304025.416,
               "id" : "r1_c7",
               "time" : -277306838.957,
               "type" : "evalhtml"
            },
            {
               "type" : "evalhtml",
               "time" : 35.77499999665,
               "id" : "r1_c8",
               "s_time" : 2818.92799999332,
               "e_time" : 2854.70299998997
            }
         ]
      },
      {
         "when_comp_start" : -1,
         "url" : "http://original.testbed.localhost/vk.com/js/3rdparty/rbadman-html5.js",
         "id" : "r2",
         "download" : {
            "type" : "application/javascript",
            "len" : 32674,
            "sslEnd" : -1,
            "dnsEnd" : -1,
            "sslStart" : -1,
            "receiveHeadersEnd" : 103,
            "receiveLast" : 156.389000013471,
            "connectStart" : 0,
            "dns" : 0,
            "sendStart" : 2,
            "receivedTime" : "259.389000013471",
            "dnsStart" : -1,
            "connectEnd" : 2,
            "id" : "download_1",
            "sendEnd" : 2,
            "receiveFirst" : 101,
            "s_time" : 116.280000016559
         },
         "comps" : [
            {
               "type" : 3,
               "e_time" : 2783.83199998643,
               "s_time" : 259.56000003498,
               "time" : 2524.27199995145,
               "id" : "comp_5"
            }
         ]
      },
      {
         "id" : "r3",
         "url" : "http://original.testbed.localhost/vk.com/css/al/common.css%3F513.css",
         "when_comp_start" : -1,
         "comps" : [
            {
               "id" : "comp_9",
               "time" : 6.81300001451973,
               "s_time" : 2787.78100002091,
               "e_time" : 2794.59400003543,
               "type" : 4
            }
         ],
         "download" : {
            "s_time" : 116.478000010829,
            "receiveFirst" : 103,
            "sendEnd" : 2,
            "connectEnd" : 2,
            "id" : "download_2",
            "receivedTime" : "2787.72500000196",
            "dnsStart" : -1,
            "dns" : 0,
            "sendStart" : 2,
            "receiveHeadersEnd" : 105,
            "receiveLast" : 2682.72500000196,
            "sslStart" : -1,
            "connectStart" : 0,
            "dnsEnd" : -1,
            "sslEnd" : -1,
            "type" : "text/css",
            "len" : 76945
         }
      },
      {
         "id" : "r7",
         "url" : "http://original.testbed.localhost/vk.com/js/al/common.js%3F1132_195",
         "when_comp_start" : -1,
         "comps" : [
            {
               "time" : 13.9719999860999,
               "id" : "comp_12",
               "s_time" : 2798.15099999541,
               "e_time" : 2812.12299998151,
               "type" : 1
            }
         ],
         "download" : {
            "id" : "download_3",
            "connectEnd" : 101,
            "receivedTime" : "2798.0979999993",
            "dnsStart" : 1,
            "receiveFirst" : 101,
            "sendEnd" : 101,
            "s_time" : 116.918999992777,
            "sslEnd" : -1,
            "type" : "text/plain",
            "len" : 263555,
            "dnsEnd" : 1,
            "sslStart" : -1,
            "receiveHeadersEnd" : 202,
            "receiveLast" : 2596.0979999993,
            "connectStart" : 0,
            "dns" : 0,
            "sendStart" : 101
         }
      },
      {
         "download" : {
            "s_time" : 116.787000035401,
            "sendEnd" : 101,
            "receiveFirst" : 102,
            "receivedTime" : "2785.05300002871",
            "dnsStart" : 1,
            "id" : "download_4",
            "connectEnd" : 101,
            "dns" : 0,
            "sendStart" : 101,
            "sslStart" : -1,
            "receiveLast" : 2582.05300002871,
            "receiveHeadersEnd" : 203,
            "connectStart" : 0,
            "dnsEnd" : 1,
            "type" : "application/javascript",
            "len" : 3530,
            "sslEnd" : -1
         },
         "comps" : [
            {
               "id" : "comp_10",
               "time" : 0.48400001832988,
               "e_time" : 2794.51700003119,
               "s_time" : 2794.03300001286,
               "type" : 1
            }
         ],
         "when_comp_start" : -1,
         "id" : "r6",
         "url" : "http://original.testbed.localhost/vk.com/js/loader_nav19305_3.js"
      },
      {
         "url" : "http://original.testbed.localhost/vk.com/css/al/index.css%3F27.css",
         "id" : "r4",
         "when_comp_start" : -1,
         "comps" : [
            {
               "type" : 4,
               "s_time" : 2785.23600002518,
               "e_time" : 2785.80599999987,
               "id" : "comp_7",
               "time" : 0.569999974689836
            }
         ],
         "download" : {
            "receiveLast" : 2581.19399999641,
            "sslStart" : -1,
            "receiveHeadersEnd" : 204,
            "connectStart" : 0,
            "dns" : 0,
            "sendStart" : 101,
            "sslEnd" : -1,
            "type" : "text/css",
            "len" : 6173,
            "dnsEnd" : 1,
            "receiveFirst" : 103,
            "sendEnd" : 101,
            "s_time" : 116.596000036225,
            "id" : "download_5",
            "connectEnd" : 101,
            "receivedTime" : "2785.19399999641",
            "dnsStart" : 1
         }
      },
      {
         "comps" : [
            {
               "time" : 1.73000001813989,
               "id" : "comp_8",
               "s_time" : 2785.95200000564,
               "e_time" : 2787.68200002378,
               "type" : 4
            }
         ],
         "download" : {
            "receiveFirst" : 103,
            "sendEnd" : 101,
            "s_time" : 116.691000002902,
            "connectEnd" : 101,
            "id" : "download_6",
            "receivedTime" : "2785.91400000732",
            "dnsStart" : 1,
            "sslStart" : -1,
            "receiveHeadersEnd" : 204,
            "receiveLast" : 2581.91400000732,
            "connectStart" : 0,
            "dns" : 0,
            "sendStart" : 101,
            "sslEnd" : -1,
            "type" : "text/css",
            "len" : 24193,
            "dnsEnd" : 1
         },
         "id" : "r5",
         "url" : "http://original.testbed.localhost/vk.com/css/ui_controls.css%3F66.css",
         "when_comp_start" : -1
      },
      {
         "when_comp_start" : -1,
         "id" : "r8",
         "url" : "http://original.testbed.localhost/vk.com/js/lang3_0.js%3F3587",
         "download" : {
            "sendEnd" : 142,
            "receiveFirst" : 101,
            "s_time" : 116.995999997016,
            "receivedTime" : "2794.76900002919",
            "dnsStart" : -1,
            "id" : "download_7",
            "connectEnd" : 142,
            "receiveLast" : 2551.76900002919,
            "sslStart" : -1,
            "receiveHeadersEnd" : 243,
            "connectStart" : 0,
            "dns" : 0,
            "sendStart" : 142,
            "type" : "application/x-gzip",
            "len" : 8940,
            "sslEnd" : -1,
            "dnsEnd" : -1
         },
         "comps" : [
            {
               "e_time" : 2812.40799999796,
               "s_time" : 2812.19100003364,
               "id" : "comp_14",
               "time" : 0.216999964319712,
               "type" : 1
            }
         ]
      },
      {
         "id" : "r9",
         "url" : "http://original.testbed.localhost/vk.com/js/lib/px.js%3Fch=1",
         "when_comp_start" : -1,
         "comps" : [
            {
               "type" : 1,
               "id" : "comp_16",
               "time" : 0.294000026769936,
               "e_time" : 2812.73300002795,
               "s_time" : 2812.43900000118
            }
         ],
         "download" : {
            "type" : "text/plain",
            "len" : 347,
            "sslEnd" : -1,
            "dnsEnd" : -1,
            "receiveLast" : 2491.13799998676,
            "receiveHeadersEnd" : 304,
            "sslStart" : -1,
            "connectStart" : 0,
            "dns" : 0,
            "sendStart" : 203,
            "receivedTime" : "2795.13799998676",
            "dnsStart" : -1,
            "connectEnd" : 203,
            "id" : "download_8",
            "sendEnd" : 203,
            "receiveFirst" : 101,
            "s_time" : 117.101999989245
         }
      },
      {
         "download" : {
            "connectStart" : 0,
            "sslStart" : -1,
            "receiveHeadersEnd" : 304,
            "receiveLast" : 2491.2369999839,
            "sendStart" : 203,
            "dns" : 0,
            "sslEnd" : -1,
            "len" : 347,
            "type" : "text/plain",
            "dnsEnd" : -1,
            "receiveFirst" : 101,
            "sendEnd" : 203,
            "s_time" : 117.160000023432,
            "connectEnd" : 203,
            "id" : "download_9",
            "dnsStart" : -1,
            "receivedTime" : "2795.2369999839"
         },
         "comps" : [
            {
               "id" : "comp_18",
               "time" : 0.136999995439965,
               "s_time" : 2812.76400003117,
               "e_time" : 2812.90100002661,
               "type" : 1
            }
         ],
         "when_comp_start" : -1,
         "id" : "r10",
         "url" : "http://original.testbed.localhost/vk.com/js/lib/px.js%3Fch=2"
      },
      {
         "comps" : [
            {
               "type" : 1,
               "id" : "comp_20",
               "time" : 0.579999992629837,
               "e_time" : 2813.54100001045,
               "s_time" : 2812.96100001782
            }
         ],
         "download" : {
            "s_time" : 117.24500003038,
            "receiveFirst" : 101,
            "sendEnd" : 203,
            "connectEnd" : 203,
            "id" : "download_10",
            "dnsStart" : -1,
            "receivedTime" : "2796.91500001354",
            "sendStart" : 203,
            "dns" : 0,
            "connectStart" : 0,
            "sslStart" : -1,
            "receiveHeadersEnd" : 304,
            "receiveLast" : 2492.91500001354,
            "dnsEnd" : -1,
            "sslEnd" : -1,
            "len" : 20324,
            "type" : "text/plain"
         },
         "id" : "r11",
         "url" : "http://original.testbed.localhost/vk.com/js/al/index.js%3F33",
         "when_comp_start" : -1
      },
      {
         "comps" : [
            {
               "type" : 1,
               "time" : 5.35699998727023,
               "id" : "comp_22",
               "s_time" : 2813.57100000605,
               "e_time" : 2818.92799999332
            }
         ],
         "download" : {
            "dnsEnd" : -1,
            "sslEnd" : -1,
            "len" : 129739,
            "type" : "text/plain",
            "sendStart" : 204,
            "dns" : 0,
            "connectStart" : 0,
            "sslStart" : -1,
            "receiveHeadersEnd" : 305,
            "receiveLast" : 2492.75999998674,
            "id" : "download_11",
            "connectEnd" : 204,
            "dnsStart" : -1,
            "receivedTime" : "2797.75999998674",
            "s_time" : 117.324999999255,
            "receiveFirst" : 101,
            "sendEnd" : 204
         },
         "url" : "http://original.testbed.localhost/vk.com/js/lib/ui_controls.js%3F192",
         "id" : "r12",
         "when_comp_start" : -1
      },
      {
         "id" : "r13",
         "url" : "http://original.testbed.localhost/vk.com/images/join/prof_vk_m.png%3F4",
         "when_comp_start" : -1,
         "comps" : [],
         "download" : {
            "dnsStart" : -1,
            "receivedTime" : "2797.09900001762",
            "connectEnd" : 243,
            "id" : "download_12",
            "sendEnd" : 243,
            "receiveFirst" : 100,
            "s_time" : 117.435000021942,
            "len" : 24393,
            "type" : "image/png",
            "sslEnd" : -1,
            "dnsEnd" : -1,
            "connectStart" : 0,
            "sslStart" : -1,
            "receiveHeadersEnd" : 343,
            "receiveLast" : 2454.09900001762,
            "sendStart" : 243,
            "dns" : 0
         }
      },
      {
         "url" : "http://original.testbed.localhost/vk.com/images/join/news_vk_m.png%3F4",
         "id" : "r14",
         "when_comp_start" : -1,
         "comps" : [],
         "download" : {
            "s_time" : 561.181000026409,
            "receiveFirst" : 101,
            "sendEnd" : 0,
            "connectEnd" : 0,
            "id" : "download_13",
            "receivedTime" : "2797.57500003325",
            "dnsStart" : -1,
            "dns" : 0,
            "sendStart" : 0,
            "sslStart" : -1,
            "receiveHeadersEnd" : 101,
            "receiveLast" : 2696.57500003325,
            "connectStart" : 0,
            "dnsEnd" : -1,
            "sslEnd" : -1,
            "type" : "image/png",
            "len" : 20981
         }
      },
      {
         "download" : {
            "id" : "download_14",
            "connectEnd" : 0,
            "dnsStart" : -1,
            "receivedTime" : "2798.0090000201",
            "receiveFirst" : 100,
            "sendEnd" : 0,
            "s_time" : 663.847999996506,
            "sslEnd" : -1,
            "len" : 18599,
            "type" : "image/png",
            "dnsEnd" : -1,
            "connectStart" : 0,
            "sslStart" : -1,
            "receiveHeadersEnd" : 100,
            "receiveLast" : 2698.0090000201,
            "sendStart" : 0,
            "dns" : 0
         },
         "comps" : [],
         "when_comp_start" : -1,
         "url" : "http://original.testbed.localhost/vk.com/images/join/dial_vk_m.png%3F4",
         "id" : "r15"
      },
      {
         "download" : {
            "dns" : 0,
            "sendStart" : 0,
            "sslStart" : -1,
            "receiveHeadersEnd" : 101,
            "receiveLast" : 2828.26200001966,
            "connectStart" : 0,
            "dnsEnd" : -1,
            "sslEnd" : -1,
            "type" : "text/html",
            "len" : 450,
            "s_time" : 2827.50900002429,
            "receiveFirst" : 101,
            "sendEnd" : 0,
            "connectEnd" : 0,
            "id" : "download_15",
            "receivedTime" : "2929.26200001966",
            "dnsStart" : -1
         },
         "comps" : [
            {
               "s_time" : 2930.05100003211,
               "e_time" : 2930.12899998575,
               "id" : "r16_c1",
               "time" : 0.0779999536398464,
               "type" : "evalhtml"
            }
         ],
         "when_comp_start" : 1,
         "url" : "http://original.testbed.localhost/login.vk.com/index.html%3Frole=al_frame&_origin=http:%252F%252Fvk.com&ip_h=e18929bfb18a0459b2.html",
         "id" : "r16"
      },
      {
         "id" : "r18",
         "url" : "http://original.testbed.localhost/vk.com/images/backlink.gif%3F4",
         "when_comp_start" : -1,
         "comps" : [],
         "download" : {
            "s_time" : 2831.39800000936,
            "sendEnd" : 0,
            "receiveFirst" : 101,
            "receivedTime" : "2933.21600003401",
            "dnsStart" : -1,
            "connectEnd" : 0,
            "id" : "download_16",
            "dns" : 0,
            "sendStart" : 0,
            "sslStart" : -1,
            "receiveLast" : 2832.21600003401,
            "receiveHeadersEnd" : 101,
            "connectStart" : 0,
            "dnsEnd" : -1,
            "type" : "image/gif",
            "len" : 963,
            "sslEnd" : -1
         }
      },
      {
         "download" : {
            "s_time" : 2831.13900001626,
            "sendEnd" : 0,
            "receiveFirst" : 101,
            "dnsStart" : -1,
            "receivedTime" : "2933.38800000492",
            "connectEnd" : 0,
            "id" : "download_17",
            "sendStart" : 0,
            "dns" : 0,
            "connectStart" : 0,
            "receiveHeadersEnd" : 101,
            "sslStart" : -1,
            "receiveLast" : 2832.38800000492,
            "dnsEnd" : -1,
            "len" : 1798,
            "type" : "image/gif",
            "sslEnd" : -1
         },
         "comps" : [],
         "when_comp_start" : -1,
         "url" : "http://original.testbed.localhost/vk.com/images/hatf_vk.gif%3F1",
         "id" : "r17"
      },
      {
         "url" : "http://original.testbed.localhost/vk.com/images/upload.gif",
         "id" : "r19",
         "when_comp_start" : -1,
         "comps" : [],
         "download" : {
            "connectStart" : 0,
            "receiveHeadersEnd" : 101,
            "sslStart" : -1,
            "receiveLast" : 2842.65800003288,
            "sendStart" : 0,
            "dns" : 0,
            "len" : 265,
            "type" : "image/gif",
            "sslEnd" : -1,
            "dnsEnd" : -1,
            "sendEnd" : 0,
            "receiveFirst" : 101,
            "s_time" : 2842.16300002299,
            "dnsStart" : -1,
            "receivedTime" : "2943.65800003288",
            "id" : "download_18",
            "connectEnd" : 0
         }
      }
   ]
}
