{
   "n_download_no_trigger" : 1,
   "start_activity" : "download_0",
   "name" : "cache.send.microad.jp_js_cookie_enabled_get.html",
   "load_activity" : -1,
   "objs" : [
      {
         "when_comp_start" : 1,
         "url" : "http://cache.send.microad.jp/js/cookie_enabled_get.html",
         "id" : "r243",
         "comps" : [
            {
               "s_time" : 633.422999992035,
               "time" : 5.55500003974896,
               "type" : "evalhtml",
               "id" : "r243_c1",
               "e_time" : 638.978000031784
            }
         ],
         "download" : {
            "receiveFirst" : 216,
            "len" : 989,
            "dns" : 158,
            "dnsEnd" : 158,
            "receiveHeadersEnd" : 559,
            "sslEnd" : -1,
            "connectEnd" : 343,
            "connectStart" : 0,
            "id" : "download_0",
            "receivedTime" : "573.609000071883",
            "sslStart" : -1,
            "dnsStart" : 0,
            "receiveLast" : 14.6090000718832,
            "s_time" : 0,
            "sendEnd" : 343,
            "sendStart" : 343,
            "type" : "text/html"
         }
      }
   ],
   "deps" : []
}
