{
   "n_download_no_trigger" : 1,
   "start_activity" : "download_0",
   "name" : "original.testbed.localhost_www.airfreshing.com_",
   "load_activity" : -1,
   "objs" : [
      {
         "when_comp_start" : 1,
         "url" : "http://original.testbed.localhost/www.airfreshing.com/",
         "id" : "r1",
         "comps" : [
            {
               "s_time" : 163.316000020131,
               "time" : 2167.52700001234,
               "id" : "r1_c1",
               "type" : "evalhtml",
               "e_time" : 2330.84300003247
            },
            {
               "s_time" : 2367.64200002654,
               "time" : 8.23400000808033,
               "id" : "r1_c2",
               "type" : "evalhtml",
               "e_time" : 2375.87600003462
            },
            {
               "s_time" : 2443.48100002389,
               "time" : 7489.92600000929,
               "type" : "evalhtml",
               "id" : "r1_c3",
               "e_time" : 9933.40700003318
            }
         ],
         "download" : {
            "receiveFirst" : 153,
            "len" : 85717,
            "dns" : 0,
            "dnsEnd" : -1,
            "receiveHeadersEnd" : 153,
            "sslEnd" : -1,
            "connectEnd" : 0,
            "connectStart" : 0,
            "id" : "download_0",
            "receivedTime" : "201.25400001416",
            "sslStart" : -1,
            "dnsStart" : -1,
            "receiveLast" : 48.2540000141598,
            "s_time" : 0,
            "sendEnd" : 0,
            "sendStart" : 0,
            "type" : "text/html"
         }
      },
      {
         "when_comp_start" : -1,
         "url" : "http://original.testbed.localhost/www.airfreshing.com/wp-content/themes/airfreshing2013/js/fancybox2/jquery.fancybox.css",
         "id" : "r3",
         "comps" : [
            {
               "s_time" : 319.07600001432,
               "time" : 0.415000016801002,
               "type" : 4,
               "id" : "comp_0",
               "e_time" : 319.491000031121
            }
         ],
         "download" : {
            "receiveFirst" : 151,
            "len" : 3678,
            "dns" : 0,
            "dnsEnd" : -1,
            "receiveHeadersEnd" : 154,
            "sslEnd" : -1,
            "connectEnd" : 3,
            "connectStart" : 0,
            "id" : "download_1",
            "receivedTime" : "319.000000017695",
            "sslStart" : -1,
            "dnsStart" : -1,
            "receiveLast" : 165.000000017695,
            "s_time" : 164.168999996036,
            "sendEnd" : 3,
            "sendStart" : 3,
            "type" : "text/css"
         }
      },
      {
         "when_comp_start" : -1,
         "url" : "http://original.testbed.localhost/www.airfreshing.com/wp-content/themes/airfreshing2013/bootstrap/css/bootstrap-responsive.css",
         "id" : "r5",
         "comps" : [
            {
               "s_time" : 336.800999997649,
               "time" : 1.22600002214301,
               "type" : 4,
               "id" : "comp_1",
               "e_time" : 338.027000019792
            }
         ],
         "download" : {
            "receiveFirst" : 151,
            "len" : 22111,
            "dns" : 0,
            "dnsEnd" : -1,
            "receiveHeadersEnd" : 154,
            "sslEnd" : -1,
            "connectEnd" : 3,
            "connectStart" : 0,
            "id" : "download_2",
            "receivedTime" : "336.661999986973",
            "sslStart" : -1,
            "dnsStart" : -1,
            "receiveLast" : 182.661999986973,
            "s_time" : 164.533000031952,
            "sendEnd" : 3,
            "sendStart" : 3,
            "type" : "text/css"
         }
      },
      {
         "when_comp_start" : -1,
         "url" : "http://original.testbed.localhost/www.airfreshing.com/wp-content/plugins/bwp-minify/cache/minify-b1--905d3989b5e51b563624b5273a35ad75.css%3Fver=1437638565.css",
         "id" : "r4",
         "comps" : [
            {
               "s_time" : 356.159000017215,
               "time" : 1.73299998277798,
               "type" : 4,
               "id" : "comp_2",
               "e_time" : 357.891999999993
            }
         ],
         "download" : {
            "receiveFirst" : 171,
            "len" : 17822,
            "dns" : 0,
            "dnsEnd" : -1,
            "receiveHeadersEnd" : 174,
            "sslEnd" : -1,
            "connectEnd" : 3,
            "connectStart" : 0,
            "id" : "download_3",
            "receivedTime" : "356.070000038017",
            "sslStart" : -1,
            "dnsStart" : -1,
            "receiveLast" : 182.070000038017,
            "s_time" : 164.346000005025,
            "sendEnd" : 3,
            "sendStart" : 3,
            "type" : "text/css"
         }
      },
      {
         "when_comp_start" : -1,
         "url" : "http://original.testbed.localhost/www.airfreshing.com/wp-content/themes/airfreshing2013/bootstrap/css/bootstrap.css",
         "id" : "r2",
         "comps" : [
            {
               "s_time" : 613.706000032835,
               "time" : 22.7409999934019,
               "type" : 4,
               "id" : "comp_5",
               "e_time" : 636.447000026237
            }
         ],
         "download" : {
            "receiveFirst" : 191,
            "len" : 127247,
            "dns" : 0,
            "dnsEnd" : -1,
            "receiveHeadersEnd" : 194,
            "sslEnd" : -1,
            "connectEnd" : 3,
            "connectStart" : 0,
            "id" : "download_4",
            "receivedTime" : "613.581000012346",
            "sslStart" : -1,
            "dnsStart" : -1,
            "receiveLast" : 419.581000012346,
            "s_time" : 163.943000021391,
            "sendEnd" : 3,
            "sendStart" : 3,
            "type" : "text/css"
         }
      },
      {
         "when_comp_start" : -1,
         "url" : "http://original.testbed.localhost/www.airfreshing.com/wp-content/themes/airfreshing2013/font-awesome-4.1.0/css/font-awesome.min.css",
         "id" : "r6",
         "comps" : [
            {
               "s_time" : 437.881999998353,
               "time" : 2.12399999145498,
               "type" : 4,
               "id" : "comp_3",
               "e_time" : 440.005999989808
            }
         ],
         "download" : {
            "receiveFirst" : 251,
            "len" : 20740,
            "dns" : 0,
            "dnsEnd" : -1,
            "receiveHeadersEnd" : 254,
            "sslEnd" : -1,
            "connectEnd" : 3,
            "connectStart" : 0,
            "id" : "download_5",
            "receivedTime" : "437.786000024062",
            "sslStart" : -1,
            "dnsStart" : -1,
            "receiveLast" : 183.786000024062,
            "s_time" : 164.698000007775,
            "sendEnd" : 3,
            "sendStart" : 3,
            "type" : "text/css"
         }
      },
      {
         "when_comp_start" : -1,
         "url" : "http://original.testbed.localhost/www.airfreshing.com/wp-content/plugins/bwp-minify/cache/minify-b1-yarppWidgetCss-cf8d717922443470864933e5d3248a09.css%3Fver=1437638565.css",
         "id" : "r7",
         "comps" : [
            {
               "s_time" : 446.921000024304,
               "time" : 0.0310000032179687,
               "type" : 4,
               "id" : "comp_4",
               "e_time" : 446.952000027522
            }
         ],
         "download" : {
            "receiveFirst" : 239,
            "len" : 10132,
            "dns" : 0,
            "dnsEnd" : -1,
            "receiveHeadersEnd" : 275,
            "sslEnd" : -1,
            "connectEnd" : 36,
            "connectStart" : 0,
            "id" : "download_6",
            "receivedTime" : "446.869000035804",
            "sslStart" : -1,
            "dnsStart" : -1,
            "receiveLast" : 171.869000035804,
            "s_time" : 165.015000035055,
            "sendEnd" : 36,
            "sendStart" : 36,
            "type" : "text/css"
         }
      },
      {
         "when_comp_start" : -1,
         "url" : "http://original.testbed.localhost/www.airfreshing.com/wp-content/plugins/bwp-minify/cache/minify-b1-jquery-658116fc2672f58067bd69e86a39f92c.js%3Fver=1437638565",
         "id" : "r8",
         "comps" : [
            {
               "s_time" : 2326.7310000374,
               "time" : 40.9109999891398,
               "type" : 1,
               "id" : "comp_25",
               "e_time" : 2367.64200002654
            }
         ],
         "download" : {
            "receiveFirst" : 151,
            "len" : 190417,
            "dns" : 0,
            "dnsEnd" : -1,
            "receiveHeadersEnd" : 304,
            "sslEnd" : -1,
            "connectEnd" : 153,
            "connectStart" : 0,
            "id" : "download_7",
            "receivedTime" : "2326.56499999575",
            "sslStart" : -1,
            "dnsStart" : -1,
            "receiveLast" : 2022.56499999575,
            "s_time" : 165.202000003774,
            "sendEnd" : 153,
            "sendStart" : 153,
            "type" : "text/plain"
         }
      },
      {
         "when_comp_start" : -1,
         "url" : "http://original.testbed.localhost/www.airfreshing.com/wp-content/plugins/bwp-minify/cache/minify-b1-twoclick-social-media-buttons-jquery-d6d779232ba0b63d634119ed5abe5166.js%3Fver=1437638565",
         "id" : "r44",
         "comps" : [
            {
               "s_time" : 2376.07300002128,
               "time" : 67.4080000026097,
               "type" : 1,
               "id" : "comp_29",
               "e_time" : 2443.48100002389
            }
         ],
         "download" : {
            "receiveFirst" : 191,
            "len" : 113888,
            "dns" : 0,
            "dnsEnd" : -1,
            "receiveHeadersEnd" : 333,
            "sslEnd" : -1,
            "connectEnd" : 142,
            "connectStart" : 0,
            "id" : "download_8",
            "receivedTime" : "1725.0060000224",
            "sslStart" : -1,
            "dnsStart" : -1,
            "receiveLast" : 1392.0060000224,
            "s_time" : 195.733000000473,
            "sendEnd" : 142,
            "sendStart" : 142,
            "type" : "text/plain"
         }
      },
      {
         "when_comp_start" : -1,
         "url" : "http://original.testbed.localhost/www.airfreshing.com/wp-content/themes/airfreshing2013/images/airfreshing_2013_500.png",
         "id" : "r9",
         "comps" : [],
         "download" : {
            "receiveFirst" : 234,
            "len" : 2458,
            "dns" : 0,
            "dnsEnd" : -1,
            "receiveHeadersEnd" : 424,
            "sslEnd" : -1,
            "connectEnd" : 190,
            "connectStart" : 0,
            "id" : "download_9",
            "receivedTime" : "595.901000022423",
            "sslStart" : -1,
            "dnsStart" : -1,
            "receiveLast" : 171.901000022423,
            "s_time" : 165.422999998555,
            "sendEnd" : 190,
            "sendStart" : 190,
            "type" : "image/png"
         }
      },
      {
         "when_comp_start" : -1,
         "url" : "http://original.testbed.localhost/www.airfreshing.com/wp-content/themes/airfreshing2013/images/airfreshing_logo_symbol_optimized.svg",
         "id" : "r10",
         "comps" : [],
         "download" : {
            "receiveFirst" : 242,
            "len" : 23721,
            "dns" : 0,
            "dnsEnd" : -1,
            "receiveHeadersEnd" : 242,
            "sslEnd" : -1,
            "connectEnd" : 0,
            "connectStart" : 0,
            "id" : "download_10",
            "receivedTime" : "1176.29199998919",
            "sslStart" : -1,
            "dnsStart" : -1,
            "receiveLast" : 934.291999989189,
            "s_time" : 595.571000012569,
            "sendEnd" : 0,
            "sendStart" : 0,
            "type" : "image/svg+xml"
         }
      },
      {
         "when_comp_start" : -1,
         "url" : "http://www.airfreshing.com/wp-includes/js/wp-emoji-release.min.js",
         "id" : "r48",
         "comps" : [
            {
               "s_time" : 1032.83199999714,
               "time" : 2.26800004020993,
               "type" : 2,
               "id" : "comp_11",
               "e_time" : 1035.10000003735
            }
         ],
         "download" : {
            "receiveFirst" : 386,
            "len" : 15930,
            "dns" : 0,
            "dnsEnd" : -1,
            "receiveHeadersEnd" : 386,
            "sslEnd" : -1,
            "connectEnd" : 0,
            "connectStart" : 0,
            "id" : "download_11",
            "receivedTime" : "1032.67099999357",
            "sslStart" : -1,
            "dnsStart" : -1,
            "receiveLast" : 646.67099999357,
            "s_time" : 634.377000038512,
            "sendEnd" : 0,
            "sendStart" : 0,
            "type" : "application/javascript"
         }
      },
      {
         "when_comp_start" : -1,
         "url" : "http://original.testbed.localhost/www.airfreshing.com/wp-content/themes/airfreshing2013/images/airfreshing_logo_text_optimized.svg",
         "id" : "r11",
         "comps" : [],
         "download" : {
            "receiveFirst" : 246,
            "len" : 47393,
            "dns" : 0,
            "dnsEnd" : -1,
            "receiveHeadersEnd" : 246,
            "sslEnd" : -1,
            "connectEnd" : 0,
            "connectStart" : 0,
            "id" : "download_12",
            "receivedTime" : "1814.8570000194",
            "sslStart" : -1,
            "dnsStart" : -1,
            "receiveLast" : 1568.8570000194,
            "s_time" : 1176.02300003637,
            "sendEnd" : 0,
            "sendStart" : 0,
            "type" : "image/svg+xml"
         }
      },
      {
         "when_comp_start" : -1,
         "url" : "http://original.testbed.localhost/www.airfreshing.com/bilder/2015/08/airfreshing_2015_Testbericht_MTB-Einstieg_Beitragsbild2-672x400.jpg",
         "id" : "r12",
         "comps" : [],
         "download" : {
            "receiveFirst" : 150,
            "len" : 106642,
            "dns" : 0,
            "dnsEnd" : -1,
            "receiveHeadersEnd" : 151,
            "sslEnd" : -1,
            "connectEnd" : 0,
            "connectStart" : 0,
            "id" : "download_13",
            "receivedTime" : "3001.75200001104",
            "sslStart" : -1,
            "dnsStart" : -1,
            "receiveLast" : 2850.75200001104,
            "s_time" : 1817.87000002805,
            "sendEnd" : 1,
            "sendStart" : 0,
            "type" : "image/jpeg"
         }
      },
      {
         "when_comp_start" : -1,
         "url" : "http://original.testbed.localhost/www.airfreshing.com/bilder/2015/08/airfreshing_2015_MTB-Einstieg-leicht-gemacht_Imagebild-600x400.jpg",
         "id" : "r13",
         "comps" : [],
         "download" : {
            "receiveFirst" : 154,
            "len" : 64756,
            "dns" : 0,
            "dnsEnd" : -1,
            "receiveHeadersEnd" : 156,
            "sslEnd" : -1,
            "connectEnd" : 2,
            "connectStart" : 0,
            "id" : "download_14",
            "receivedTime" : "3256.24700001208",
            "sslStart" : -1,
            "dnsStart" : -1,
            "receiveLast" : 3100.24700001208,
            "s_time" : 2329.8810000415,
            "sendEnd" : 2,
            "sendStart" : 2,
            "type" : "image/jpeg"
         }
      },
      {
         "when_comp_start" : -1,
         "url" : "http://original.testbed.localhost/www.airfreshing.com/bilder/2015/08/airFreshing_2015_Karwendelmarsch1-601x400.jpeg",
         "id" : "r14",
         "comps" : [],
         "download" : {
            "receiveFirst" : 293,
            "len" : 87554,
            "dns" : 0,
            "dnsEnd" : -1,
            "receiveHeadersEnd" : 295,
            "sslEnd" : -1,
            "connectEnd" : 2,
            "connectStart" : 0,
            "id" : "download_15",
            "receivedTime" : "4596.84499999275",
            "sslStart" : -1,
            "dnsStart" : -1,
            "receiveLast" : 4301.84499999275,
            "s_time" : 2330.09200001834,
            "sendEnd" : 2,
            "sendStart" : 2,
            "type" : "image/jpeg"
         }
      },
      {
         "when_comp_start" : -1,
         "url" : "http://original.testbed.localhost/www.airfreshing.com/bilder/2015/08/airFreshing_2015_Salewa_Pedroc_Hybrid_DST_Jacket-533x400.jpg",
         "id" : "r15",
         "comps" : [],
         "download" : {
            "receiveFirst" : 354,
            "len" : 85348,
            "dns" : 0,
            "dnsEnd" : -1,
            "receiveHeadersEnd" : 356,
            "sslEnd" : -1,
            "connectEnd" : 2,
            "connectStart" : 0,
            "id" : "download_16",
            "receivedTime" : "4797.49700002139",
            "sslStart" : -1,
            "dnsStart" : -1,
            "receiveLast" : 4441.49700002139,
            "s_time" : 2330.1480000373,
            "sendEnd" : 2,
            "sendStart" : 2,
            "type" : "image/jpeg"
         }
      },
      {
         "when_comp_start" : -1,
         "url" : "http://original.testbed.localhost/www.airfreshing.com/bilder/2015/08/airFreshing_2015_Testbericht_Icebreaker_Sommerkollektion_CoolLite-Strike-SS_Crewe_Back-599x400.jpg",
         "id" : "r16",
         "comps" : [],
         "download" : {
            "receiveFirst" : 414,
            "len" : 43115,
            "dns" : 0,
            "dnsEnd" : -1,
            "receiveHeadersEnd" : 416,
            "sslEnd" : -1,
            "connectEnd" : 2,
            "connectStart" : 0,
            "id" : "download_17",
            "receivedTime" : "4216.44899999956",
            "sslStart" : -1,
            "dnsStart" : -1,
            "receiveLast" : 3800.44899999956,
            "s_time" : 2330.26900002733,
            "sendEnd" : 2,
            "sendStart" : 2,
            "type" : "image/jpeg"
         }
      },
      {
         "when_comp_start" : -1,
         "url" : "http://platform.twitter.com/widgets.js",
         "id" : "r49",
         "comps" : [
            {
               "s_time" : 3752.66599998577,
               "time" : 78.67000001715,
               "type" : null,
               "id" : "comp_207",
               "e_time" : 3831.33600000292
            }
         ],
         "download" : {
            "receiveFirst" : 504,
            "len" : 133974,
            "dns" : 0,
            "dnsEnd" : -1,
            "receiveHeadersEnd" : 504,
            "sslEnd" : -1,
            "connectEnd" : 0,
            "connectStart" : 0,
            "id" : "download_18",
            "receivedTime" : "3752.38600000739",
            "sslStart" : -1,
            "dnsStart" : -1,
            "receiveLast" : 3248.38600000739,
            "s_time" : 2375.87600003462,
            "sendEnd" : 0,
            "sendStart" : 0,
            "type" : "application/javascript"
         }
      },
      {
         "when_comp_start" : -1,
         "url" : "http://www.google-analytics.com/ga.js",
         "id" : "r56",
         "comps" : [
            {
               "s_time" : 3887.63900002232,
               "time" : 18.7690000166199,
               "type" : null,
               "id" : "comp_223",
               "e_time" : 3906.40800003894
            }
         ],
         "download" : {
            "receiveFirst" : 562,
            "len" : 41100,
            "dns" : 0,
            "dnsEnd" : -1,
            "receiveHeadersEnd" : 562,
            "sslEnd" : -1,
            "connectEnd" : 0,
            "connectStart" : 0,
            "id" : "download_19",
            "receivedTime" : "3887.44800002314",
            "sslStart" : -1,
            "dnsStart" : -1,
            "receiveLast" : 3325.44800002314,
            "s_time" : 2444.97200002661,
            "sendEnd" : 0,
            "sendStart" : 0,
            "type" : "text/javascript"
         }
      },
      {
         "when_comp_start" : -1,
         "url" : "http://www.airfreshing.com/piwik/piwik.js",
         "id" : "r55",
         "comps" : [
            {
               "s_time" : 3906.93500003545,
               "time" : 45.5689999507704,
               "type" : null,
               "id" : "comp_225",
               "e_time" : 3952.50399998622
            }
         ],
         "download" : {
            "receiveFirst" : 684,
            "len" : 43388,
            "dns" : 0,
            "dnsEnd" : -1,
            "receiveHeadersEnd" : 684,
            "sslEnd" : -1,
            "connectEnd" : 0,
            "connectStart" : 0,
            "id" : "download_20",
            "receivedTime" : "3906.44900000188",
            "sslStart" : -1,
            "dnsStart" : -1,
            "receiveLast" : 3222.44900000188,
            "s_time" : 2444.22400003532,
            "sendEnd" : 0,
            "sendStart" : 0,
            "type" : "application/javascript"
         }
      },
      {
         "when_comp_start" : -1,
         "url" : "http://original.testbed.localhost/www.airfreshing.com/bilder/2015/05/20150527_Patagonia_Kletteroutfit_001-533x400.jpg",
         "id" : "r17",
         "comps" : [],
         "download" : {
            "receiveFirst" : 1268,
            "len" : 62838,
            "dns" : 0,
            "dnsEnd" : -1,
            "receiveHeadersEnd" : 1270,
            "sslEnd" : -1,
            "connectEnd" : 2,
            "connectStart" : 0,
            "id" : "download_21",
            "receivedTime" : "5962.73800003109",
            "sslStart" : -1,
            "dnsStart" : -1,
            "receiveLast" : 4692.73800003109,
            "s_time" : 2330.3409999935,
            "sendEnd" : 2,
            "sendStart" : 2,
            "type" : "image/jpeg"
         }
      },
      {
         "when_comp_start" : -1,
         "url" : "http://original.testbed.localhost/www.airfreshing.com/bilder/2015/08/airfreshing_2015_Testbericht_MTB-Einstieg_Beitragsbild2-360x214.jpg",
         "id" : "r18",
         "comps" : [],
         "download" : {
            "receiveFirst" : 752,
            "len" : 33204,
            "dns" : 0,
            "dnsEnd" : -1,
            "receiveHeadersEnd" : 1423,
            "sslEnd" : -1,
            "connectEnd" : 671,
            "connectStart" : 0,
            "id" : "download_22",
            "receivedTime" : "4344.11800000817",
            "sslStart" : -1,
            "dnsStart" : -1,
            "receiveLast" : 2921.11800000817,
            "s_time" : 2330.46800002921,
            "sendEnd" : 671,
            "sendStart" : 671,
            "type" : "image/jpeg"
         }
      },
      {
         "when_comp_start" : -1,
         "url" : "http://original.testbed.localhost/www.airfreshing.com/bilder/2015/08/airFreshing_2015_Karwendelmarsch1-360x239.jpeg",
         "id" : "r22",
         "comps" : [],
         "download" : {
            "receiveFirst" : 642,
            "len" : 33795,
            "dns" : 0,
            "dnsEnd" : -1,
            "receiveHeadersEnd" : 896,
            "sslEnd" : -1,
            "connectEnd" : 254,
            "connectStart" : 0,
            "id" : "download_23",
            "receivedTime" : "4037.42900001816",
            "sslStart" : -1,
            "dnsStart" : -1,
            "receiveLast" : 3141.42900001816,
            "s_time" : 3001.35199999204,
            "sendEnd" : 254,
            "sendStart" : 254,
            "type" : "image/jpeg"
         }
      },
      {
         "when_comp_start" : -1,
         "url" : "http://original.testbed.localhost/www.airfreshing.com/bilder/2015/08/airFreshing_2015_Karwendelmarsch1-480x319.jpeg",
         "id" : "r23",
         "comps" : [],
         "download" : {
            "receiveFirst" : 335,
            "len" : 57966,
            "dns" : 0,
            "dnsEnd" : -1,
            "receiveHeadersEnd" : 1116,
            "sslEnd" : -1,
            "connectEnd" : 781,
            "connectStart" : 0,
            "id" : "download_24",
            "receivedTime" : "5044.28999999072",
            "sslStart" : -1,
            "dnsStart" : -1,
            "receiveLast" : 3928.28999999072,
            "s_time" : 3255.85200003115,
            "sendEnd" : 781,
            "sendStart" : 781,
            "type" : "image/jpeg"
         }
      },
      {
         "when_comp_start" : -1,
         "url" : "http://original.testbed.localhost/www.airfreshing.com/bilder/2015/08/airFreshing_2015_Salewa_Pedroc_Hybrid_DST_Jacket-360x270.jpg",
         "id" : "r24",
         "comps" : [],
         "download" : {
            "receiveFirst" : 433,
            "len" : 41802,
            "dns" : 0,
            "dnsEnd" : -1,
            "receiveHeadersEnd" : 612,
            "sslEnd" : -1,
            "connectEnd" : 179,
            "connectStart" : 0,
            "id" : "download_25",
            "receivedTime" : "5221.03600000264",
            "sslStart" : -1,
            "dnsStart" : -1,
            "receiveLast" : 4609.03600000264,
            "s_time" : 4037.08400001051,
            "sendEnd" : 179,
            "sendStart" : 179,
            "type" : "image/jpeg"
         }
      },
      {
         "when_comp_start" : -1,
         "url" : "http://original.testbed.localhost/www.airfreshing.com/bilder/2015/08/airFreshing_2015_Salewa_Pedroc_Hybrid_DST_Jacket-480x360.jpg",
         "id" : "r25",
         "comps" : [],
         "download" : {
            "receiveFirst" : 503,
            "len" : 70026,
            "dns" : 0,
            "dnsEnd" : -1,
            "receiveHeadersEnd" : 631,
            "sslEnd" : -1,
            "connectEnd" : 128,
            "connectStart" : 0,
            "id" : "download_26",
            "receivedTime" : "6027.08500000881",
            "sslStart" : -1,
            "dnsStart" : -1,
            "receiveLast" : 5396.08500000881,
            "s_time" : 4216.05899999849,
            "sendEnd" : 128,
            "sendStart" : 128,
            "type" : "image/jpeg"
         }
      },
      {
         "when_comp_start" : -1,
         "url" : "https://syndication.twitter.com/i/jot/syndication?l=%7B%22_category_%22%3A%22syndicated_impression%22%2C%22triggered_on%22%3A1440891533234%2C%22dnt%22%3Afalse%2C%22event_namespace%22%3A%7B%22client%22%3A%22tfw%22%2C%22page%22%3A%22timeline%22%2C%22action%22%3A%22impression%22%7D%7D",
         "id" : "r64",
         "comps" : [],
         "download" : {
            "receiveFirst" : 623,
            "len" : 43,
            "dns" : 0,
            "dnsEnd" : -1,
            "receiveHeadersEnd" : 1142,
            "sslEnd" : 518,
            "connectEnd" : 519,
            "connectStart" : 0,
            "id" : "download_27",
            "receivedTime" : "4974.65099999681",
            "sslStart" : 0,
            "dnsStart" : -1,
            "receiveLast" : 3832.65099999681,
            "s_time" : 3829.14099999471,
            "sendEnd" : 519,
            "sendStart" : 519,
            "type" : "image/gif"
         }
      },
      {
         "when_comp_start" : -1,
         "url" : "https://cdn.syndication.twimg.com/widgets/timelines/285718595915366400?callback=__twttr.callbacks.tl_285718595915366400_i0&dnt=false&domain=original.testbed.localhost&lang=de&suppress_response_codes=true&t=1600990",
         "id" : "r65",
         "comps" : [
            {
               "s_time" : 5651.58700000029,
               "time" : 20.6210000324099,
               "type" : null,
               "id" : "comp_275",
               "e_time" : 5672.2080000327
            }
         ],
         "download" : {
            "receiveFirst" : 681,
            "len" : 122844,
            "dns" : 0,
            "dnsEnd" : -1,
            "receiveHeadersEnd" : 1217,
            "sslEnd" : 536,
            "connectEnd" : 536,
            "connectStart" : 0,
            "id" : "download_28",
            "receivedTime" : "5651.40500001144",
            "sslStart" : 0,
            "dnsStart" : -1,
            "receiveLast" : 4434.40500001144,
            "s_time" : 3830.99600003334,
            "sendEnd" : 536,
            "sendStart" : 536,
            "type" : "application/javascript"
         }
      },
      {
         "when_comp_start" : -1,
         "url" : "http://original.testbed.localhost/www.airfreshing.com/bilder/2015/08/airFreshing_2015_Testbericht_Icebreaker_Sommerkollektion_CoolLite-Strike-SS_Crewe_Back-360x240.jpg",
         "id" : "r26",
         "comps" : [],
         "download" : {
            "receiveFirst" : 485,
            "len" : 18212,
            "dns" : 0,
            "dnsEnd" : -1,
            "receiveHeadersEnd" : 738,
            "sslEnd" : -1,
            "connectEnd" : 253,
            "connectStart" : 0,
            "id" : "download_29",
            "receivedTime" : "5155.35900002578",
            "sslStart" : -1,
            "dnsStart" : -1,
            "receiveLast" : 4417.35900002578,
            "s_time" : 4343.76100002555,
            "sendEnd" : 253,
            "sendStart" : 253,
            "type" : "image/jpeg"
         }
      },
      {
         "when_comp_start" : -1,
         "url" : "http://original.testbed.localhost/www.airfreshing.com/bilder/2015/08/airFreshing_2015_Testbericht_Icebreaker_Sommerkollektion_CoolLite-Strike-SS_Crewe_Back-480x320.jpg",
         "id" : "r27",
         "comps" : [],
         "download" : {
            "receiveFirst" : 436,
            "len" : 29594,
            "dns" : 0,
            "dnsEnd" : -1,
            "receiveHeadersEnd" : 637,
            "sslEnd" : -1,
            "connectEnd" : 201,
            "connectStart" : 0,
            "id" : "download_30",
            "receivedTime" : "5952.80800003093",
            "sslStart" : -1,
            "dnsStart" : -1,
            "receiveLast" : 5315.80800003093,
            "s_time" : 4596.43100004178,
            "sendEnd" : 201,
            "sendStart" : 201,
            "type" : "image/jpeg"
         }
      },
      {
         "when_comp_start" : -1,
         "url" : "http://original.testbed.localhost/www.airfreshing.com/bilder/2015/05/20150527_Patagonia_Kletteroutfit_001-360x270.jpg",
         "id" : "r28",
         "comps" : [],
         "download" : {
            "receiveFirst" : 478,
            "len" : 29965,
            "dns" : 0,
            "dnsEnd" : -1,
            "receiveHeadersEnd" : 726,
            "sslEnd" : -1,
            "connectEnd" : 248,
            "connectStart" : 0,
            "id" : "download_31",
            "receivedTime" : "5645.40899998974",
            "sslStart" : -1,
            "dnsStart" : -1,
            "receiveLast" : 4919.40899998974,
            "s_time" : 4797.10100003285,
            "sendEnd" : 248,
            "sendStart" : 248,
            "type" : "image/jpeg"
         }
      },
      {
         "when_comp_start" : -1,
         "url" : "http://original.testbed.localhost/www.airfreshing.com/bilder/2015/05/20150527_Patagonia_Kletteroutfit_001-480x360.jpg",
         "id" : "r29",
         "comps" : [],
         "download" : {
            "receiveFirst" : 500,
            "len" : 51116,
            "dns" : 0,
            "dnsEnd" : -1,
            "receiveHeadersEnd" : 611,
            "sslEnd" : -1,
            "connectEnd" : 111,
            "connectStart" : 0,
            "id" : "download_32",
            "receivedTime" : "6370.46900001587",
            "sslStart" : -1,
            "dnsStart" : -1,
            "receiveLast" : 5759.46900001587,
            "s_time" : 5043.85700001149,
            "sendEnd" : 111,
            "sendStart" : 111,
            "type" : "image/jpeg"
         }
      },
      {
         "when_comp_start" : -1,
         "url" : "http://original.testbed.localhost/www.airfreshing.com/bilder/2015/07/airFreshing_2015_Gore_Bikewear_Jubilaeum_30Y_Anniversary_Collection-480x320.jpeg",
         "id" : "r30",
         "comps" : [],
         "download" : {
            "receiveFirst" : 610,
            "len" : 31497,
            "dns" : 0,
            "dnsEnd" : -1,
            "receiveHeadersEnd" : 676,
            "sslEnd" : -1,
            "connectEnd" : 66,
            "connectStart" : 0,
            "id" : "download_33",
            "receivedTime" : "6371.14800000563",
            "sslStart" : -1,
            "dnsStart" : -1,
            "receiveLast" : 5695.14800000563,
            "s_time" : 5154.91600002861,
            "sendEnd" : 66,
            "sendStart" : 66,
            "type" : "image/jpeg"
         }
      },
      {
         "when_comp_start" : -1,
         "url" : "http://original.testbed.localhost/www.airfreshing.com/bilder/2015/07/airFreshing_2015_Ternua_Hiking_Woman_Kollektion-480x360.jpg",
         "id" : "r31",
         "comps" : [],
         "download" : {
            "receiveFirst" : 386,
            "len" : 60073,
            "dns" : 0,
            "dnsEnd" : -1,
            "receiveHeadersEnd" : 810,
            "sslEnd" : -1,
            "connectEnd" : 424,
            "connectStart" : 0,
            "id" : "download_34",
            "receivedTime" : "6720.27500002878",
            "sslStart" : -1,
            "dnsStart" : -1,
            "receiveLast" : 5910.27500002878,
            "s_time" : 5220.52999999141,
            "sendEnd" : 424,
            "sendStart" : 424,
            "type" : "image/jpeg"
         }
      },
      {
         "when_comp_start" : -1,
         "url" : "http://platform.twitter.com/embed/timeline.93933550310288c77a13ff57ab42950b.default.css",
         "id" : "r75",
         "comps" : [],
         "download" : {
            "receiveFirst" : 576,
            "len" : 38593,
            "dns" : 0,
            "dnsEnd" : -1,
            "receiveHeadersEnd" : 576,
            "sslEnd" : -1,
            "connectEnd" : 0,
            "connectStart" : 0,
            "id" : "download_35",
            "receivedTime" : "6310.29699998908",
            "sslStart" : -1,
            "dnsStart" : -1,
            "receiveLast" : 5734.29699998908,
            "s_time" : 5673.04900003364,
            "sendEnd" : 0,
            "sendStart" : 0,
            "type" : "text/css"
         }
      },
      {
         "when_comp_start" : -1,
         "url" : "https://syndication.twitter.com/i/jot?l=%7B%22widget_origin%22%3A%22http%3A%2F%2Foriginal.testbed.localhost%2Fwww.airfreshing.com%2Findex.html%22%2C%22widget_frame%22%3Afalse%2C%22widget_id%22%3A%22285718595915366400%22%2C%22message%22%3Anull%2C%22query%22%3Anull%2C%22profile_id%22%3A%2228183905%22%",
         "id" : "r74",
         "comps" : [],
         "download" : {
            "receiveFirst" : 673,
            "len" : 43,
            "dns" : 0,
            "dnsEnd" : -1,
            "receiveHeadersEnd" : 674,
            "sslEnd" : -1,
            "connectEnd" : 0,
            "connectStart" : 0,
            "id" : "download_36",
            "receivedTime" : "6371.00099999225",
            "sslStart" : -1,
            "dnsStart" : -1,
            "receiveLast" : 5697.00099999225,
            "s_time" : 5672.57400002563,
            "sendEnd" : 1,
            "sendStart" : 0,
            "type" : "image/gif"
         }
      },
      {
         "when_comp_start" : -1,
         "url" : "http://original.testbed.localhost/www.airfreshing.com/bilder/2015/07/airFreshing_2015_Skylotec_Klettersteigset_SkysafeII_Rueckruf-480x345.jpeg",
         "id" : "r32",
         "comps" : [],
         "download" : {
            "receiveFirst" : 422,
            "len" : 22770,
            "dns" : 0,
            "dnsEnd" : -1,
            "receiveHeadersEnd" : 729,
            "sslEnd" : -1,
            "connectEnd" : 307,
            "connectStart" : 0,
            "id" : "download_37",
            "receivedTime" : "6467.17399999034",
            "sslStart" : -1,
            "dnsStart" : -1,
            "receiveLast" : 5738.17399999034,
            "s_time" : 5644.9830000056,
            "sendEnd" : 307,
            "sendStart" : 307,
            "type" : "image/jpeg"
         }
      },
      {
         "when_comp_start" : -1,
         "url" : "http://original.testbed.localhost/www.airfreshing.com/bilder/2015/05/20150527_Patagonia_CragSmith_35L_001-480x360.jpg",
         "id" : "r33",
         "comps" : [],
         "download" : {
            "receiveFirst" : 509,
            "len" : 50321,
            "dns" : 0,
            "dnsEnd" : -1,
            "receiveHeadersEnd" : 519,
            "sslEnd" : -1,
            "connectEnd" : 10,
            "connectStart" : 0,
            "id" : "download_38",
            "receivedTime" : "8628.12000000849",
            "sslStart" : -1,
            "dnsStart" : -1,
            "receiveLast" : 8109.12000000849,
            "s_time" : 5952.35700003104,
            "sendEnd" : 10,
            "sendStart" : 10,
            "type" : "image/jpeg"
         }
      },
      {
         "when_comp_start" : -1,
         "url" : "http://original.testbed.localhost/www.airfreshing.com/bilder/2015/05/20150527_Salewa_Ergo_Belay_007-480x360.jpg",
         "id" : "r34",
         "comps" : [],
         "download" : {
            "receiveFirst" : 505,
            "len" : 44777,
            "dns" : 0,
            "dnsEnd" : -1,
            "receiveHeadersEnd" : 569,
            "sslEnd" : -1,
            "connectEnd" : 64,
            "connectStart" : 0,
            "id" : "download_39",
            "receivedTime" : "7277.15999999782",
            "sslStart" : -1,
            "dnsStart" : -1,
            "receiveLast" : 6708.15999999782,
            "s_time" : 5962.25300000515,
            "sendEnd" : 64,
            "sendStart" : 64,
            "type" : "image/jpeg"
         }
      },
      {
         "when_comp_start" : -1,
         "url" : "http://original.testbed.localhost/www.airfreshing.com/bilder/2015/06/airFreshing_2015_News_Ueli_Steck_Michi_Wohlleben_82Summits_Web-480x245.jpg",
         "id" : "r35",
         "comps" : [],
         "download" : {
            "receiveFirst" : 381,
            "len" : 39192,
            "dns" : 0,
            "dnsEnd" : -1,
            "receiveHeadersEnd" : 697,
            "sslEnd" : -1,
            "connectEnd" : 316,
            "connectStart" : 0,
            "id" : "download_40",
            "receivedTime" : "6888.36600002833",
            "sslStart" : -1,
            "dnsStart" : -1,
            "receiveLast" : 6191.36600002833,
            "s_time" : 6026.62000001874,
            "sendEnd" : 316,
            "sendStart" : 316,
            "type" : "image/jpeg"
         }
      },
      {
         "when_comp_start" : -1,
         "url" : "http://original.testbed.localhost/www.airfreshing.com/bilder/2015/08/airFreshing_2015_Event_EOFT_Poster11-480x311.jpg",
         "id" : "r36",
         "comps" : [],
         "download" : {
            "receiveFirst" : 523,
            "len" : 51780,
            "dns" : 0,
            "dnsEnd" : -1,
            "receiveHeadersEnd" : 549,
            "sslEnd" : -1,
            "connectEnd" : 26,
            "connectStart" : 0,
            "id" : "download_41",
            "receivedTime" : "7726.70400002971",
            "sslStart" : -1,
            "dnsStart" : -1,
            "receiveLast" : 7177.70400002971,
            "s_time" : 6343.34500000114,
            "sendEnd" : 26,
            "sendStart" : 26,
            "type" : "image/jpeg"
         }
      },
      {
         "when_comp_start" : -1,
         "url" : "http://original.testbed.localhost/www.airfreshing.com/bilder/2015/08/airfreshing_2015_Event_Guidefinder_MTB_Trail_Tour_Tirol_Trail2-480x320.jpg",
         "id" : "r37",
         "comps" : [],
         "download" : {
            "receiveFirst" : 562,
            "len" : 62231,
            "dns" : 0,
            "dnsEnd" : -1,
            "receiveHeadersEnd" : 659,
            "sslEnd" : -1,
            "connectEnd" : 97,
            "connectStart" : 0,
            "id" : "download_42",
            "receivedTime" : "7860.39200000232",
            "sslStart" : -1,
            "dnsStart" : -1,
            "receiveLast" : 7201.39200000232,
            "s_time" : 6369.70500001917,
            "sendEnd" : 97,
            "sendStart" : 97,
            "type" : "image/jpeg"
         }
      },
      {
         "when_comp_start" : -1,
         "url" : "http://original.testbed.localhost/www.airfreshing.com/bilder/2015/05/airFreshing_2015_Hauser_Exkursionen_Alpe_Adria_Trail_Dobrovo_in_Goriska_Brda1-480x320.jpg",
         "id" : "r38",
         "comps" : [],
         "download" : {
            "receiveFirst" : 558,
            "len" : 47630,
            "dns" : 0,
            "dnsEnd" : -1,
            "receiveHeadersEnd" : 812,
            "sslEnd" : -1,
            "connectEnd" : 254,
            "connectStart" : 0,
            "id" : "download_43",
            "receivedTime" : "7477.96799999196",
            "sslStart" : -1,
            "dnsStart" : -1,
            "receiveLast" : 6665.96799999196,
            "s_time" : 6466.28699998837,
            "sendEnd" : 254,
            "sendStart" : 254,
            "type" : "image/jpeg"
         }
      },
      {
         "when_comp_start" : -1,
         "url" : "http://original.testbed.localhost/www.airfreshing.com/bilder/2015/04/airFreshing_2015_Nepal_Trip_Tag7_Annapurna_South2-480x360.jpg",
         "id" : "r39",
         "comps" : [],
         "download" : {
            "receiveFirst" : 591,
            "len" : 39836,
            "dns" : 0,
            "dnsEnd" : -1,
            "receiveHeadersEnd" : 760,
            "sslEnd" : -1,
            "connectEnd" : 168,
            "connectStart" : 0,
            "id" : "download_44",
            "receivedTime" : "7643.59900000272",
            "sslStart" : -1,
            "dnsStart" : -1,
            "receiveLast" : 6883.59900000272,
            "s_time" : 6720.33899999224,
            "sendEnd" : 169,
            "sendStart" : 168,
            "type" : "image/jpeg"
         }
      },
      {
         "when_comp_start" : -1,
         "url" : "http://original.testbed.localhost/www.airfreshing.com/bilder/2015/03/airfreshing_2015_Ziele_Skigebiet_Lech_Zuers_Skigebiet-480x270.jpg",
         "id" : "r40",
         "comps" : [],
         "download" : {
            "receiveFirst" : 656,
            "len" : 38370,
            "dns" : 0,
            "dnsEnd" : -1,
            "receiveHeadersEnd" : 1046,
            "sslEnd" : -1,
            "connectEnd" : 389,
            "connectStart" : 0,
            "id" : "download_45",
            "receivedTime" : "8707.09899999201",
            "sslStart" : -1,
            "dnsStart" : -1,
            "receiveLast" : 7661.09899999201,
            "s_time" : 6888.46400001785,
            "sendEnd" : 390,
            "sendStart" : 389,
            "type" : "image/jpeg"
         }
      },
      {
         "when_comp_start" : -1,
         "url" : "http://original.testbed.localhost/www.airfreshing.com/bilder/2015/07/airFreshing_2015_Webtipp_Mammut_360_Project_Plattform_JThompson-480x320.jpg",
         "id" : "r41",
         "comps" : [],
         "download" : {
            "receiveFirst" : 595,
            "len" : 53311,
            "dns" : 0,
            "dnsEnd" : -1,
            "receiveHeadersEnd" : 797,
            "sslEnd" : -1,
            "connectEnd" : 202,
            "connectStart" : 0,
            "id" : "download_46",
            "receivedTime" : "8298.49399998784",
            "sslStart" : -1,
            "dnsStart" : -1,
            "receiveLast" : 7501.49399998784,
            "s_time" : 7277.2770000156,
            "sendEnd" : 202,
            "sendStart" : 202,
            "type" : "image/jpeg"
         }
      },
      {
         "when_comp_start" : -1,
         "url" : "http://original.testbed.localhost/www.airfreshing.com/bilder/2015/07/airFreshing_2015_webtipp_Guidefinder_app1-480x293.jpg",
         "id" : "r42",
         "comps" : [],
         "download" : {
            "receiveFirst" : 656,
            "len" : 35973,
            "dns" : 0,
            "dnsEnd" : -1,
            "receiveHeadersEnd" : 822,
            "sslEnd" : -1,
            "connectEnd" : 166,
            "connectStart" : 0,
            "id" : "download_47",
            "receivedTime" : "8451.62400003755",
            "sslStart" : -1,
            "dnsStart" : -1,
            "receiveLast" : 7629.62400003755,
            "s_time" : 7478.14399999334,
            "sendEnd" : 166,
            "sendStart" : 166,
            "type" : "image/jpeg"
         }
      },
      {
         "when_comp_start" : -1,
         "url" : "http://original.testbed.localhost/www.airfreshing.com/bilder/2015/07/airFreshing_2015_Webtipp_SchlafsackNET_Tipps_Schlafsackkauf_Zelt-480x360.jpg",
         "id" : "r43",
         "comps" : [],
         "download" : {
            "receiveFirst" : 726,
            "len" : 44038,
            "dns" : 0,
            "dnsEnd" : -1,
            "receiveHeadersEnd" : 809,
            "sslEnd" : -1,
            "connectEnd" : 83,
            "connectStart" : 0,
            "id" : "download_48",
            "receivedTime" : "8775.16600000672",
            "sslStart" : -1,
            "dnsStart" : -1,
            "receiveLast" : 7966.16600000672,
            "s_time" : 7643.62899999833,
            "sendEnd" : 83,
            "sendStart" : 83,
            "type" : "image/jpeg"
         }
      },
      {
         "when_comp_start" : -1,
         "url" : "http://original.testbed.localhost/www.airfreshing.com/wp-content/themes/airfreshing2013/bootstrap/img/glyphicons-halflings.png",
         "id" : "r50",
         "comps" : [],
         "download" : {
            "receiveFirst" : 773,
            "len" : 12762,
            "dns" : 0,
            "dnsEnd" : -1,
            "receiveHeadersEnd" : 907,
            "sslEnd" : -1,
            "connectEnd" : 134,
            "connectStart" : 0,
            "id" : "download_49",
            "receivedTime" : "8688.15800000448",
            "sslStart" : -1,
            "dnsStart" : -1,
            "receiveLast" : 7781.15800000448,
            "s_time" : 7726.77700000349,
            "sendEnd" : 134,
            "sendStart" : 134,
            "type" : "image/png"
         }
      },
      {
         "when_comp_start" : -1,
         "url" : "http://original.testbed.localhost/www.airfreshing.com/wp-content/themes/airfreshing2013/bootstrap/img/glyphicons-halflings-white.png",
         "id" : "r51",
         "comps" : [],
         "download" : {
            "receiveFirst" : 412,
            "len" : 8777,
            "dns" : 0,
            "dnsEnd" : -1,
            "receiveHeadersEnd" : 851,
            "sslEnd" : -1,
            "connectEnd" : 439,
            "connectStart" : 0,
            "id" : "download_50",
            "receivedTime" : "8748.09800001094",
            "sslStart" : -1,
            "dnsStart" : -1,
            "receiveLast" : 7897.09800001094,
            "s_time" : 7860.54100003093,
            "sendEnd" : 439,
            "sendStart" : 439,
            "type" : "image/png"
         }
      },
      {
         "when_comp_start" : -1,
         "url" : "http://original.testbed.localhost/www.airfreshing.com/wp-content/themes/airfreshing2013/images/af_menu_gradients.png",
         "id" : "r52",
         "comps" : [],
         "download" : {
            "receiveFirst" : 314,
            "len" : 274,
            "dns" : 0,
            "dnsEnd" : -1,
            "receiveHeadersEnd" : 468,
            "sslEnd" : -1,
            "connectEnd" : 153,
            "connectStart" : 0,
            "id" : "download_51",
            "receivedTime" : "8767.60100002866",
            "sslStart" : -1,
            "dnsStart" : -1,
            "receiveLast" : 8299.60100002866,
            "s_time" : 8298.82700002054,
            "sendEnd" : 154,
            "sendStart" : 153,
            "type" : "image/png"
         }
      },
      {
         "when_comp_start" : -1,
         "url" : "http://original.testbed.localhost/www.airfreshing.com/wp-content/themes/airfreshing2013/images/af_pfeil_ressorts.png",
         "id" : "r53",
         "comps" : [],
         "download" : {
            "receiveFirst" : 151,
            "len" : 800,
            "dns" : 0,
            "dnsEnd" : -1,
            "receiveHeadersEnd" : 327,
            "sslEnd" : -1,
            "connectEnd" : 176,
            "connectStart" : 0,
            "id" : "download_52",
            "receivedTime" : "8780.28599999379",
            "sslStart" : -1,
            "dnsStart" : -1,
            "receiveLast" : 8453.28599999379,
            "s_time" : 8451.69000001624,
            "sendEnd" : 176,
            "sendStart" : 176,
            "type" : "image/png"
         }
      },
      {
         "when_comp_start" : -1,
         "url" : "http://original.testbed.localhost/www.airfreshing.com/wp-content/themes/airfreshing2013/images/supermassivecsspriteicons.png",
         "id" : "r54",
         "comps" : [],
         "download" : {
            "receiveFirst" : 151,
            "len" : 157213,
            "dns" : 0,
            "dnsEnd" : -1,
            "receiveHeadersEnd" : 212,
            "sslEnd" : -1,
            "connectEnd" : 61,
            "connectStart" : 0,
            "id" : "download_53",
            "receivedTime" : "10111.7650000378",
            "sslStart" : -1,
            "dnsStart" : -1,
            "receiveLast" : 9899.76500003785,
            "s_time" : 8627.88099999307,
            "sendEnd" : 61,
            "sendStart" : 61,
            "type" : "image/png"
         }
      },
      {
         "when_comp_start" : -1,
         "url" : "http://original.testbed.localhost/www.airfreshing.com/wp-content/themes/airfreshing2013/images/1280_8_10_10.png",
         "id" : "r57",
         "comps" : [],
         "download" : {
            "receiveFirst" : 296,
            "len" : 734,
            "dns" : 0,
            "dnsEnd" : -1,
            "receiveHeadersEnd" : 315,
            "sslEnd" : -1,
            "connectEnd" : 19,
            "connectStart" : 0,
            "id" : "download_54",
            "receivedTime" : "9004.85800002934",
            "sslStart" : -1,
            "dnsStart" : -1,
            "receiveLast" : 8689.85800002934,
            "s_time" : 8688.3820000221,
            "sendEnd" : 19,
            "sendStart" : 19,
            "type" : "image/png"
         }
      },
      {
         "when_comp_start" : -1,
         "url" : "http://original.testbed.localhost/www.airfreshing.com/wp-content/themes/airfreshing2013/images/cursors/cursor_arrow_left.png",
         "id" : "r58",
         "comps" : [],
         "download" : {
            "receiveFirst" : 259,
            "len" : 178,
            "dns" : 0,
            "dnsEnd" : -1,
            "receiveHeadersEnd" : 300,
            "sslEnd" : -1,
            "connectEnd" : 41,
            "connectStart" : 0,
            "id" : "download_55",
            "receivedTime" : "9008.91000003321",
            "sslStart" : -1,
            "dnsStart" : -1,
            "receiveLast" : 8708.91000003321,
            "s_time" : 8707.21500000218,
            "sendEnd" : 41,
            "sendStart" : 41,
            "type" : "image/png"
         }
      },
      {
         "when_comp_start" : 1,
         "url" : "http://original.testbed.localhost/www.airfreshing.com/wp-content/themes/airfreshing2013/images/cursors/cursor_arrow_left.cur.html",
         "id" : "r59",
         "comps" : [],
         "download" : {
            "receiveFirst" : 242,
            "len" : 4286,
            "dns" : 0,
            "dnsEnd" : -1,
            "receiveHeadersEnd" : 262,
            "sslEnd" : -1,
            "connectEnd" : 20,
            "connectStart" : 0,
            "id" : "download_56",
            "receivedTime" : "9011.72700000461",
            "sslStart" : -1,
            "dnsStart" : -1,
            "receiveLast" : 8749.72700000461,
            "s_time" : 8748.22000000859,
            "sendEnd" : 20,
            "sendStart" : 20,
            "type" : "text/html"
         }
      },
      {
         "when_comp_start" : -1,
         "url" : "http://original.testbed.localhost/www.airfreshing.com/wp-content/themes/airfreshing2013/images/big_transparent.gif",
         "id" : "r60",
         "comps" : [],
         "download" : {
            "receiveFirst" : 238,
            "len" : 806,
            "dns" : 0,
            "dnsEnd" : -1,
            "receiveHeadersEnd" : 246,
            "sslEnd" : -1,
            "connectEnd" : 8,
            "connectStart" : 0,
            "id" : "download_57",
            "receivedTime" : "9014.36100003775",
            "sslStart" : -1,
            "dnsStart" : -1,
            "receiveLast" : 8768.36100003775,
            "s_time" : 8767.62900000904,
            "sendEnd" : 8,
            "sendStart" : 8,
            "type" : "image/gif"
         }
      },
      {
         "when_comp_start" : -1,
         "url" : "http://original.testbed.localhost/www.airfreshing.com/wp-content/themes/airfreshing2013/images/cursors/cursor_arrow_right.png",
         "id" : "r61",
         "comps" : [],
         "download" : {
            "receiveFirst" : 238,
            "len" : 157,
            "dns" : 0,
            "dnsEnd" : -1,
            "receiveHeadersEnd" : 243,
            "sslEnd" : -1,
            "connectEnd" : 5,
            "connectStart" : 0,
            "id" : "download_58",
            "receivedTime" : "9020.81200003158",
            "sslStart" : -1,
            "dnsStart" : -1,
            "receiveLast" : 8777.81200003158,
            "s_time" : 8775.25599999353,
            "sendEnd" : 5,
            "sendStart" : 5,
            "type" : "image/png"
         }
      },
      {
         "when_comp_start" : 1,
         "url" : "http://original.testbed.localhost/www.airfreshing.com/wp-content/themes/airfreshing2013/images/cursors/cursor_arrow_right.cur.html",
         "id" : "r62",
         "comps" : [],
         "download" : {
            "receiveFirst" : 221,
            "len" : 4286,
            "dns" : 0,
            "dnsEnd" : -1,
            "receiveHeadersEnd" : 446,
            "sslEnd" : -1,
            "connectEnd" : 225,
            "connectStart" : 0,
            "id" : "download_59",
            "receivedTime" : "9227.62600000715",
            "sslStart" : -1,
            "dnsStart" : -1,
            "receiveLast" : 8781.62600000715,
            "s_time" : 8780.39100003662,
            "sendEnd" : 225,
            "sendStart" : 225,
            "type" : "text/html"
         }
      },
      {
         "when_comp_start" : -1,
         "url" : "http://original.testbed.localhost/www.airfreshing.com/wp-content/themes/airfreshing2013/images/afspecial-weiss.png",
         "id" : "r63",
         "comps" : [],
         "download" : {
            "receiveFirst" : 220,
            "len" : 508,
            "dns" : 0,
            "dnsEnd" : -1,
            "receiveHeadersEnd" : 224,
            "sslEnd" : -1,
            "connectEnd" : 4,
            "connectStart" : 0,
            "id" : "download_60",
            "receivedTime" : "9230.20799999358",
            "sslStart" : -1,
            "dnsStart" : -1,
            "receiveLast" : 9006.20799999358,
            "s_time" : 9004.86600003205,
            "sendEnd" : 4,
            "sendStart" : 4,
            "type" : "image/png"
         }
      },
      {
         "when_comp_start" : -1,
         "url" : "http://original.testbed.localhost/www.airfreshing.com/bilder/2015/08/airfreshing_2015_Testbericht_MTB-Einstieg_Beitragsbild2-480x286.jpg",
         "id" : "r19",
         "comps" : [],
         "download" : {
            "receiveFirst" : 220,
            "len" : 57179,
            "dns" : 0,
            "dnsEnd" : -1,
            "receiveHeadersEnd" : 6901,
            "sslEnd" : -1,
            "connectEnd" : 6681,
            "connectStart" : 0,
            "id" : "download_61",
            "receivedTime" : "9927.83000000054",
            "sslStart" : -1,
            "dnsStart" : -1,
            "receiveLast" : 3026.83000000054,
            "s_time" : 2330.58000000892,
            "sendEnd" : 6681,
            "sendStart" : 6681,
            "type" : "image/jpeg"
         }
      },
      {
         "when_comp_start" : -1,
         "url" : "http://original.testbed.localhost/www.airfreshing.com/bilder/2015/08/airfreshing_2015_MTB-Einstieg-leicht-gemacht_Imagebild-360x240.jpg",
         "id" : "r20",
         "comps" : [],
         "download" : {
            "receiveFirst" : 429,
            "len" : 25058,
            "dns" : 0,
            "dnsEnd" : -1,
            "receiveHeadersEnd" : 7113,
            "sslEnd" : -1,
            "connectEnd" : 6683,
            "connectStart" : 0,
            "id" : "download_62",
            "receivedTime" : "9547.01800004113",
            "sslStart" : -1,
            "dnsStart" : -1,
            "receiveLast" : 2434.01800004113,
            "s_time" : 2330.71700000437,
            "sendEnd" : 6684,
            "sendStart" : 6683,
            "type" : "image/jpeg"
         }
      },
      {
         "when_comp_start" : -1,
         "url" : "http://original.testbed.localhost/www.airfreshing.com/bilder/2015/08/airfreshing_2015_MTB-Einstieg-leicht-gemacht_Imagebild-480x320.jpg",
         "id" : "r21",
         "comps" : [],
         "download" : {
            "receiveFirst" : 531,
            "len" : 42027,
            "dns" : 0,
            "dnsEnd" : -1,
            "receiveHeadersEnd" : 7219,
            "sslEnd" : -1,
            "connectEnd" : 6688,
            "connectStart" : 0,
            "id" : "download_63",
            "receivedTime" : "10040.9199999995",
            "sslStart" : -1,
            "dnsStart" : -1,
            "receiveLast" : 2821.91999999946,
            "s_time" : 2330.84300003247,
            "sendEnd" : 6688,
            "sendStart" : 6688,
            "type" : "image/jpeg"
         }
      },
      {
         "when_comp_start" : -1,
         "url" : "http://platform.twitter.com/embed/timeline.93933550310288c77a13ff57ab42950b.default.css",
         "id" : "r76",
         "comps" : [],
         "download" : {
            "receiveFirst" : 1,
            "len" : 38593,
            "dns" : 0,
            "dnsEnd" : -1,
            "receiveHeadersEnd" : 1,
            "sslEnd" : -1,
            "connectEnd" : 0,
            "connectStart" : 0,
            "id" : "download_64",
            "receivedTime" : "9936.07200001134",
            "sslStart" : -1,
            "dnsStart" : -1,
            "receiveLast" : 9935.07200001134,
            "s_time" : 9933.40700003318,
            "sendEnd" : 0,
            "sendStart" : 0,
            "type" : "text/css"
         }
      }
   ],
   "deps" : [
      {
         "a2" : "r1_c2",
         "time" : -1,
         "id" : "dep1",
         "a1" : "comp_25"
      },
      {
         "a2" : "r1_c3",
         "time" : -1,
         "id" : "dep2",
         "a1" : "comp_29"
      },
      {
         "a2" : "comp_25",
         "time" : -1,
         "id" : "dep3",
         "a1" : "comp_4"
      },
      {
         "a2" : "download_64",
         "time" : -1,
         "id" : "dep4",
         "a1" : "r1_c3"
      },
      {
         "a2" : "download_63",
         "time" : -1,
         "id" : "dep5",
         "a1" : "r1_c1"
      },
      {
         "a2" : "download_62",
         "time" : 2167.40099998424,
         "id" : "dep6",
         "a1" : "r1_c1"
      },
      {
         "a2" : "download_61",
         "time" : 2167.26399998879,
         "id" : "dep7",
         "a1" : "r1_c1"
      },
      {
         "a2" : "download_60",
         "time" : 6561.38500000816,
         "id" : "dep8",
         "a1" : "r1_c3"
      },
      {
         "a2" : "download_59",
         "time" : 6336.91000001273,
         "id" : "dep9",
         "a1" : "r1_c3"
      },
      {
         "a2" : "download_58",
         "time" : 6331.77499996964,
         "id" : "dep10",
         "a1" : "r1_c3"
      },
      {
         "a2" : "download_57",
         "time" : 6324.14799998515,
         "id" : "dep11",
         "a1" : "r1_c3"
      },
      {
         "a2" : "download_56",
         "time" : 6304.7389999847,
         "id" : "dep12",
         "a1" : "r1_c3"
      },
      {
         "a2" : "download_55",
         "time" : 6263.73399997829,
         "id" : "dep13",
         "a1" : "r1_c3"
      },
      {
         "a2" : "download_54",
         "time" : 6244.90099999821,
         "id" : "dep14",
         "a1" : "r1_c3"
      },
      {
         "a2" : "download_53",
         "time" : 6184.39999996918,
         "id" : "dep15",
         "a1" : "r1_c3"
      },
      {
         "a2" : "download_52",
         "time" : 6008.20899999235,
         "id" : "dep16",
         "a1" : "r1_c3"
      },
      {
         "a2" : "download_51",
         "time" : 5855.34599999665,
         "id" : "dep17",
         "a1" : "r1_c3"
      },
      {
         "a2" : "download_50",
         "time" : 5417.06000000704,
         "id" : "dep18",
         "a1" : "r1_c3"
      },
      {
         "a2" : "download_49",
         "time" : 5283.2959999796,
         "id" : "dep19",
         "a1" : "r1_c3"
      },
      {
         "a2" : "download_48",
         "time" : 5200.14799997444,
         "id" : "dep20",
         "a1" : "r1_c3"
      },
      {
         "a2" : "download_47",
         "time" : 5034.66299996945,
         "id" : "dep21",
         "a1" : "r1_c3"
      },
      {
         "a2" : "download_46",
         "time" : 4833.79599999171,
         "id" : "dep22",
         "a1" : "r1_c3"
      },
      {
         "a2" : "download_45",
         "time" : 4444.98299999396,
         "id" : "dep23",
         "a1" : "r1_c3"
      },
      {
         "a2" : "download_44",
         "time" : 4276.85799996835,
         "id" : "dep24",
         "a1" : "r1_c3"
      },
      {
         "a2" : "download_43",
         "time" : 4022.80599996448,
         "id" : "dep25",
         "a1" : "r1_c3"
      },
      {
         "a2" : "download_42",
         "time" : 3926.22399999528,
         "id" : "dep26",
         "a1" : "r1_c3"
      },
      {
         "a2" : "download_41",
         "time" : 3899.86399997725,
         "id" : "dep27",
         "a1" : "r1_c3"
      },
      {
         "a2" : "download_40",
         "time" : 3583.13899999485,
         "id" : "dep28",
         "a1" : "r1_c3"
      },
      {
         "a2" : "download_39",
         "time" : 3518.77199998126,
         "id" : "dep29",
         "a1" : "r1_c3"
      },
      {
         "a2" : "download_38",
         "time" : 3508.87600000715,
         "id" : "dep30",
         "a1" : "r1_c3"
      },
      {
         "a2" : "download_37",
         "time" : 3201.50199998171,
         "id" : "dep31",
         "a1" : "r1_c3"
      },
      {
         "a2" : "download_36",
         "time" : 3229.09300000174,
         "id" : "dep32",
         "a1" : "r1_c3"
      },
      {
         "a2" : "download_35",
         "time" : 3229.56800000975,
         "id" : "dep33",
         "a1" : "r1_c3"
      },
      {
         "a2" : "download_34",
         "time" : 2777.04899996752,
         "id" : "dep34",
         "a1" : "r1_c3"
      },
      {
         "a2" : "download_33",
         "time" : 2711.43500000472,
         "id" : "dep35",
         "a1" : "r1_c3"
      },
      {
         "a2" : "download_32",
         "time" : 2600.3759999876,
         "id" : "dep36",
         "a1" : "r1_c3"
      },
      {
         "a2" : "download_31",
         "time" : 2353.62000000896,
         "id" : "dep37",
         "a1" : "r1_c3"
      },
      {
         "a2" : "download_30",
         "time" : 2152.95000001789,
         "id" : "dep38",
         "a1" : "r1_c3"
      },
      {
         "a2" : "download_29",
         "time" : 1900.28000000166,
         "id" : "dep39",
         "a1" : "r1_c3"
      },
      {
         "a2" : "download_28",
         "time" : 78.3300000475697,
         "id" : "dep40",
         "a1" : "comp_207"
      },
      {
         "a2" : "download_27",
         "time" : 76.4750000089398,
         "id" : "dep41",
         "a1" : "comp_207"
      },
      {
         "a2" : "download_26",
         "time" : 1772.5779999746,
         "id" : "dep42",
         "a1" : "r1_c3"
      },
      {
         "a2" : "download_25",
         "time" : 1593.60299998662,
         "id" : "dep43",
         "a1" : "r1_c3"
      },
      {
         "a2" : "download_24",
         "time" : 812.37100000726,
         "id" : "dep44",
         "a1" : "r1_c3"
      },
      {
         "a2" : "download_23",
         "time" : 557.87099996815,
         "id" : "dep45",
         "a1" : "r1_c3"
      },
      {
         "a2" : "download_22",
         "time" : 2167.15200000908,
         "id" : "dep46",
         "a1" : "r1_c1"
      },
      {
         "a2" : "download_21",
         "time" : 2167.02499997337,
         "id" : "dep47",
         "a1" : "r1_c1"
      },
      {
         "a2" : "download_20",
         "time" : 0.743000011430013,
         "id" : "dep48",
         "a1" : "r1_c3"
      },
      {
         "a2" : "download_19",
         "time" : 1.49100000272028,
         "id" : "dep49",
         "a1" : "r1_c3"
      },
      {
         "a2" : "download_18",
         "time" : -1,
         "id" : "dep50",
         "a1" : "r1_c2"
      },
      {
         "a2" : "download_17",
         "time" : 2166.9530000072,
         "id" : "dep51",
         "a1" : "r1_c1"
      },
      {
         "a2" : "download_16",
         "time" : 2166.83200001717,
         "id" : "dep52",
         "a1" : "r1_c1"
      },
      {
         "a2" : "download_15",
         "time" : 2166.77599999821,
         "id" : "dep53",
         "a1" : "r1_c1"
      },
      {
         "a2" : "download_14",
         "time" : 2166.56500002137,
         "id" : "dep54",
         "a1" : "r1_c1"
      },
      {
         "a2" : "download_13",
         "time" : 1654.55400000792,
         "id" : "dep55",
         "a1" : "r1_c1"
      },
      {
         "a2" : "download_12",
         "time" : 1012.70700001624,
         "id" : "dep56",
         "a1" : "r1_c1"
      },
      {
         "a2" : "download_11",
         "time" : 471.061000018381,
         "id" : "dep57",
         "a1" : "r1_c1"
      },
      {
         "a2" : "download_10",
         "time" : 432.254999992438,
         "id" : "dep58",
         "a1" : "r1_c1"
      },
      {
         "a2" : "download_9",
         "time" : 2.106999978424,
         "id" : "dep59",
         "a1" : "r1_c1"
      },
      {
         "a2" : "download_9",
         "time" : 2.106999978424,
         "id" : "dep60",
         "a1" : "r1_c1"
      },
      {
         "a2" : "download_8",
         "time" : 32.416999980342,
         "id" : "dep61",
         "a1" : "r1_c1"
      },
      {
         "a2" : "download_8",
         "time" : 32.416999980342,
         "id" : "dep62",
         "a1" : "r1_c1"
      },
      {
         "a2" : "download_7",
         "time" : 1.88599998364299,
         "id" : "dep63",
         "a1" : "r1_c1"
      },
      {
         "a2" : "download_7",
         "time" : 1.88599998364299,
         "id" : "dep64",
         "a1" : "r1_c1"
      },
      {
         "a2" : "download_6",
         "time" : 1.699000014924,
         "id" : "dep65",
         "a1" : "r1_c1"
      },
      {
         "a2" : "download_6",
         "time" : 1.699000014924,
         "id" : "dep66",
         "a1" : "r1_c1"
      },
      {
         "a2" : "download_5",
         "time" : 1.38199998764398,
         "id" : "dep67",
         "a1" : "r1_c1"
      },
      {
         "a2" : "download_4",
         "time" : 0.627000001259972,
         "id" : "dep68",
         "a1" : "r1_c1"
      },
      {
         "a2" : "download_3",
         "time" : 1.02999998489398,
         "id" : "dep69",
         "a1" : "r1_c1"
      },
      {
         "a2" : "download_2",
         "time" : 1.217000011821,
         "id" : "dep70",
         "a1" : "r1_c1"
      },
      {
         "a2" : "download_1",
         "time" : 0.852999975904993,
         "id" : "dep71",
         "a1" : "r1_c1"
      }
   ]
}
