{
   "objs" : [
      {
         "comps" : [
            {
               "s_time" : 5.55900001199916,
               "e_time" : 5.65900000219699,
               "time" : 0.0999999901978299,
               "id" : "r32_c1",
               "type" : "evalhtml"
            }
         ],
         "download" : {
            "receiveLast" : 5.2070000092499,
            "dnsEnd" : -1,
            "receiveFirst" : 0,
            "receivedTime" : "5.2070000092499",
            "connectEnd" : 0,
            "type" : "text/html",
            "connectStart" : 0,
            "sslStart" : -1,
            "dns" : 0,
            "s_time" : 0,
            "len" : 36422,
            "receiveHeadersEnd" : 0,
            "dnsStart" : -1,
            "sendStart" : 0,
            "id" : "download_0",
            "sslEnd" : -1,
            "sendEnd" : 0
         },
         "id" : "r32",
         "when_comp_start" : 1,
         "url" : "https://staticxx.facebook.com/connect/xd_arbiter.php?version=42#cb=f2e7236374&domain=www.readytoforex.com&origin=http%3A%2F%2Fwww.readytoforex.com%2Ff17b78311c&relation=parent&error=unknown_user"
      }
   ],
   "deps" : [],
   "load_activity" : -1,
   "n_download_no_trigger" : 1,
   "start_activity" : "download_0",
   "name" : "staticxx.facebook.com_connect_xd_arbiter.php?version=42#cb=f2e7236374&domain=www.readytoforex.com&origin=http%3A%2F%2Fwww.readytoforex.com%2Ff17b78311c&relation=parent&error=unknown_user"
}
