{
   "n_download_no_trigger" : 1,
   "start_activity" : "download_0",
   "objs" : [
      {
         "id" : "r1",
         "url" : "http://www.nbc.com/",
         "download" : {
            "receiveLast" : 26.3109999998705,
            "len" : 476114,
            "sendEnd" : 1,
            "sendStart" : 1,
            "connectStart" : 0,
            "type" : "text/html",
            "dnsEnd" : -1,
            "connectEnd" : 1,
            "dnsStart" : -1,
            "receiveFirst" : 27,
            "receivedTime" : "54.3109999998705",
            "sslEnd" : -1,
            "receiveHeadersEnd" : 28,
            "s_time" : 0,
            "sslStart" : -1,
            "dns" : 0,
            "id" : "download_0"
         },
         "comps" : [
            {
               "s_time" : 39.3780000013066,
               "time" : 1.18300000031019,
               "type" : "evalhtml",
               "id" : "r1_c1",
               "e_time" : 40.5610000016168
            },
            {
               "s_time" : 76.1840000050142,
               "time" : 46.2340000085538,
               "type" : "evalhtml",
               "e_time" : 122.418000013568,
               "id" : "r1_c2"
            },
            {
               "s_time" : 126.12000000081,
               "time" : 140.359000011813,
               "type" : "evalhtml",
               "e_time" : 266.479000012623,
               "id" : "r1_c3"
            },
            {
               "e_time" : 3228.81100000814,
               "id" : "r1_c4",
               "type" : "evalhtml",
               "time" : 2816.42899999861,
               "s_time" : 412.382000009529
            },
            {
               "id" : "r1_c5",
               "e_time" : 4025.20700001332,
               "type" : "evalhtml",
               "time" : 796.13000000244,
               "s_time" : 3229.07700001088
            }
         ],
         "when_comp_start" : 1
      },
      {
         "id" : "r2",
         "url" : "http://www.nbc.com/generetic/generated/generetic.css?v2.11.122",
         "comps" : [
            {
               "type" : 4,
               "id" : "comp_2",
               "e_time" : 73.9580000081332,
               "s_time" : 65.1610000059009,
               "time" : 8.79700000223229
            }
         ],
         "when_comp_start" : -1,
         "download" : {
            "receiveHeadersEnd" : 15,
            "s_time" : 39.7260000027018,
            "sslStart" : -1,
            "dns" : 0,
            "id" : "download_1",
            "sendEnd" : 1,
            "len" : 110769,
            "receiveLast" : 50.0390000082552,
            "sendStart" : 1,
            "connectStart" : 0,
            "dnsEnd" : -1,
            "type" : "text/css",
            "dnsStart" : -1,
            "connectEnd" : 1,
            "sslEnd" : -1,
            "receiveFirst" : 14,
            "receivedTime" : "65.0390000082552"
         }
      },
      {
         "when_comp_start" : -1,
         "comps" : [
            {
               "s_time" : 74.2360000003828,
               "time" : 1.9480000046314,
               "type" : 1,
               "e_time" : 76.1840000050142,
               "id" : "comp_3"
            }
         ],
         "download" : {
            "sslEnd" : 22,
            "receiveFirst" : 10,
            "receivedTime" : "74.1500000003725",
            "dnsStart" : -1,
            "connectEnd" : 23,
            "connectStart" : 0,
            "type" : "application/octet-stream",
            "dnsEnd" : -1,
            "len" : 16614,
            "sendEnd" : 23,
            "receiveLast" : 41.1500000003725,
            "sendStart" : 23,
            "id" : "download_2",
            "sslStart" : 10,
            "dns" : 0,
            "receiveHeadersEnd" : 33,
            "s_time" : 39.8680000071181
         },
         "url" : "https://www.nbc.com/dy/8766572/api_dynamic.js",
         "id" : "r3"
      },
      {
         "id" : "r5",
         "url" : "https://www.nbc.com/sites/nbcunbc/files/files/styles/nbc_news_sports/public/news-feeds/4344c3f2750b66f7230629241e40c744.jpg?itok=oMCPCBbD",
         "comps" : [],
         "when_comp_start" : -1,
         "download" : {
            "sendStart" : 25,
            "sendEnd" : 25,
            "len" : 36624,
            "receiveLast" : 47.4680000077933,
            "type" : "image/jpeg",
            "dnsEnd" : -1,
            "connectStart" : 0,
            "connectEnd" : 25,
            "dnsStart" : -1,
            "sslEnd" : 25,
            "receiveFirst" : 10,
            "receivedTime" : "82.4680000077933",
            "s_time" : 40.5610000016168,
            "receiveHeadersEnd" : 35,
            "dns" : 0,
            "sslStart" : 10,
            "id" : "download_3"
         }
      },
      {
         "download" : {
            "receiveHeadersEnd" : 36,
            "s_time" : 39.957000000868,
            "sslStart" : 9,
            "dns" : 0,
            "id" : "download_4",
            "len" : 128371,
            "sendEnd" : 25,
            "receiveLast" : 54.8870000130264,
            "sendStart" : 23,
            "connectStart" : 0,
            "type" : "application/octet-stream",
            "dnsEnd" : -1,
            "connectEnd" : 23,
            "dnsStart" : -1,
            "sslEnd" : 23,
            "receivedTime" : "90.8870000130264",
            "receiveFirst" : 11
         },
         "comps" : [
            {
               "type" : 1,
               "id" : "comp_5",
               "e_time" : 126.12000000081,
               "s_time" : 90.9730000130367,
               "time" : 35.1469999877733
            }
         ],
         "when_comp_start" : -1,
         "id" : "r4",
         "url" : "https://www.nbc.com/dy/8766572/api_static.js"
      },
      {
         "when_comp_start" : -1,
         "comps" : [],
         "download" : {
            "receiveHeadersEnd" : 12,
            "s_time" : 81.1190000094939,
            "sslStart" : -1,
            "dns" : 0,
            "id" : "download_5",
            "len" : 52340,
            "sendEnd" : 0,
            "receiveLast" : 115.739000003203,
            "sendStart" : 0,
            "connectStart" : 0,
            "dnsEnd" : -1,
            "type" : "image/jpeg",
            "dnsStart" : -1,
            "connectEnd" : 0,
            "sslEnd" : -1,
            "receiveFirst" : 12,
            "receivedTime" : "127.739000003203"
         },
         "url" : "https://www.nbc.com/sites/nbcunbc/files/files/styles/nbc_news_sports/public/news-feeds/dc4e8efc41248716d8f8f40bc4a548e2.jpg?itok=qMMyCEy1",
         "id" : "r6"
      },
      {
         "download" : {
            "sslStart" : -1,
            "dns" : 0,
            "id" : "download_6",
            "receiveHeadersEnd" : 13,
            "s_time" : 90.2150000038091,
            "dnsStart" : -1,
            "connectEnd" : 2,
            "sslEnd" : -1,
            "receiveFirst" : 10,
            "receivedTime" : "128.20200000715",
            "len" : 42448,
            "sendEnd" : 3,
            "receiveLast" : 115.20200000715,
            "sendStart" : 2,
            "connectStart" : 0,
            "dnsEnd" : -1,
            "type" : "image/jpeg"
         },
         "when_comp_start" : -1,
         "comps" : [],
         "url" : "https://www.nbc.com/sites/nbcunbc/files/files/styles/nbc_news_sports/public/news-feeds/55b0bd61c7bf141c6df782adf35c8ea4.jpg?itok=I-0kh8HF",
         "id" : "r7"
      },
      {
         "comps" : [],
         "when_comp_start" : -1,
         "download" : {
            "dnsEnd" : -1,
            "type" : "image/jpeg",
            "connectStart" : 0,
            "sendStart" : 2,
            "sendEnd" : 2,
            "len" : 26585,
            "receiveLast" : 114.40000000142,
            "sslEnd" : -1,
            "receiveFirst" : 12,
            "receivedTime" : "128.40000000142",
            "dnsStart" : -1,
            "connectEnd" : 2,
            "s_time" : 90.5620000121417,
            "receiveHeadersEnd" : 14,
            "id" : "download_7",
            "dns" : 0,
            "sslStart" : -1
         },
         "id" : "r8",
         "url" : "https://www.nbc.com/sites/nbcunbc/files/files/styles/nbc_news_sports/public/news-feeds/2ba08258a9614e8572d037bddbe6335a.jpg?itok=zp25Fpcb"
      },
      {
         "id" : "r9",
         "url" : "https://www.nbc.com/sites/nbcunbc/files/files/styles/200x113/public/images/2015/12/02/Access_Hollywood_200x113.png?itok=1RxOWpVd",
         "comps" : [],
         "when_comp_start" : -1,
         "download" : {
            "s_time" : 90.7210000004852,
            "receiveHeadersEnd" : 18,
            "dns" : 0,
            "sslStart" : -1,
            "id" : "download_8",
            "sendStart" : 5,
            "receiveLast" : 110.528000001097,
            "sendEnd" : 5,
            "len" : 27170,
            "dnsEnd" : -1,
            "type" : "image/png",
            "connectStart" : 0,
            "dnsStart" : -1,
            "connectEnd" : 5,
            "receiveFirst" : 13,
            "receivedTime" : "128.528000001097",
            "sslEnd" : -1
         }
      },
      {
         "id" : "r10",
         "url" : "https://www.nbc.com/sites/nbcunbc/files/files/styles/200x113/public/images/2015/12/02/local-stations_200x113.jpg?itok=Zu7mskWA",
         "comps" : [],
         "when_comp_start" : -1,
         "download" : {
            "connectStart" : 0,
            "dnsEnd" : -1,
            "type" : "image/jpeg",
            "sendEnd" : 17,
            "len" : 9612,
            "receiveLast" : 103.68600001093,
            "sendStart" : 17,
            "sslEnd" : -1,
            "receiveFirst" : 8,
            "receivedTime" : "128.68600001093",
            "dnsStart" : -1,
            "connectEnd" : 17,
            "receiveHeadersEnd" : 25,
            "s_time" : 90.8420000050683,
            "id" : "download_9",
            "sslStart" : -1,
            "dns" : 0
         }
      },
      {
         "when_comp_start" : -1,
         "comps" : [],
         "download" : {
            "sslEnd" : -1,
            "receiveFirst" : 10,
            "receivedTime" : "128.860000011628",
            "dnsStart" : -1,
            "connectEnd" : 19,
            "dnsEnd" : -1,
            "type" : "image/jpeg",
            "connectStart" : 0,
            "sendStart" : 19,
            "len" : 7565,
            "sendEnd" : 19,
            "receiveLast" : 99.8600000116276,
            "id" : "download_10",
            "dns" : 0,
            "sslStart" : -1,
            "s_time" : 90.9620000020368,
            "receiveHeadersEnd" : 29
         },
         "url" : "https://www.nbc.com/sites/nbcunbc/files/files/styles/200x113/public/images/2015/12/02/logo-theweatherchannel_200x113.jpg?itok=WfOaWdus",
         "id" : "r11"
      },
      {
         "url" : "https://www.nbc.com/sites/nbcunbc/files/files/styles/350x197/public/images/2016/5/15/160506_3032039_May_14___Drake.jpg?itok=trObUI79",
         "id" : "r14",
         "download" : {
            "sslStart" : 9,
            "dns" : 0,
            "id" : "download_11",
            "receiveHeadersEnd" : 29,
            "s_time" : 91.3860000000568,
            "connectEnd" : 19,
            "dnsStart" : -1,
            "receivedTime" : "129.022000008263",
            "receiveFirst" : 10,
            "sslEnd" : 19,
            "receiveLast" : 100.022000008263,
            "len" : 15342,
            "sendEnd" : 19,
            "sendStart" : 19,
            "connectStart" : 0,
            "dnsEnd" : -1,
            "type" : "image/jpeg"
         },
         "when_comp_start" : -1,
         "comps" : []
      },
      {
         "url" : "https://www.nbc.com/sites/nbcunbc/files/files/styles/480x384/public/images/2016/5/11/2016-0514-SNL-Drake-Slide-Responsive-1114x891-KO.jpg?itok=2EfckzNW",
         "id" : "r12",
         "download" : {
            "sslStart" : 9,
            "dns" : 0,
            "id" : "download_12",
            "receiveHeadersEnd" : 31,
            "s_time" : 91.0190000140574,
            "dnsStart" : -1,
            "connectEnd" : 19,
            "sslEnd" : 19,
            "receivedTime" : "140.716000008979",
            "receiveFirst" : 12,
            "sendEnd" : 19,
            "len" : 78669,
            "receiveLast" : 109.716000008979,
            "sendStart" : 19,
            "connectStart" : 0,
            "type" : "image/jpeg",
            "dnsEnd" : -1
         },
         "when_comp_start" : -1,
         "comps" : []
      },
      {
         "when_comp_start" : -1,
         "comps" : [],
         "download" : {
            "sendStart" : 19,
            "receiveLast" : 95.8700000081444,
            "len" : 30706,
            "sendEnd" : 19,
            "type" : "image/jpeg",
            "dnsEnd" : -1,
            "connectStart" : 0,
            "connectEnd" : 19,
            "dnsStart" : -1,
            "receiveFirst" : 16,
            "receivedTime" : "130.870000008144",
            "sslEnd" : -1,
            "s_time" : 91.5660000027856,
            "receiveHeadersEnd" : 35,
            "dns" : 0,
            "sslStart" : -1,
            "id" : "download_13"
         },
         "url" : "https://www.nbc.com/sites/nbcunbc/files/files/styles/350x197/public/images/2016/5/15/160509_3032672_Saturday_Night_Mystery__Internal_Affairs.jpg?itok=EoOw-vWY",
         "id" : "r15"
      },
      {
         "id" : "r13",
         "url" : "https://www.nbc.com/sites/nbcunbc/files/files/styles/1024x576/public/images/2016/5/11/2016-0514-SNL-Drake-Slide-Responsive-1920x1080-KO.jpg?itok=mGJqxmLw",
         "download" : {
            "dns" : 0,
            "sslStart" : 9,
            "id" : "download_14",
            "s_time" : 91.2570000073174,
            "receiveHeadersEnd" : 35,
            "connectEnd" : 19,
            "dnsStart" : -1,
            "receivedTime" : "144.602000000305",
            "receiveFirst" : 16,
            "sslEnd" : 19,
            "sendStart" : 19,
            "receiveLast" : 109.602000000305,
            "len" : 87962,
            "sendEnd" : 19,
            "type" : "image/jpeg",
            "dnsEnd" : -1,
            "connectStart" : 0
         },
         "comps" : [],
         "when_comp_start" : -1
      },
      {
         "url" : "https://www.nbc.com/sites/nbcunbc/files/files/styles/350x197/public/images/2016/5/13/160506_3032047_Bad_Night.jpg?itok=ubnOKI4k",
         "id" : "r16",
         "download" : {
            "id" : "download_15",
            "dns" : 0,
            "sslStart" : -1,
            "s_time" : 95.9410000068601,
            "receiveHeadersEnd" : 33,
            "receiveFirst" : 12,
            "receivedTime" : "131.135000003269",
            "sslEnd" : -1,
            "dnsStart" : -1,
            "connectEnd" : 21,
            "type" : "image/jpeg",
            "dnsEnd" : -1,
            "connectStart" : 0,
            "sendStart" : 21,
            "receiveLast" : 98.1350000032689,
            "sendEnd" : 21,
            "len" : 19716
         },
         "when_comp_start" : -1,
         "comps" : []
      },
      {
         "download" : {
            "id" : "download_16",
            "sslStart" : -1,
            "dns" : 0,
            "receiveHeadersEnd" : 29,
            "s_time" : 107.723000008264,
            "sslEnd" : -1,
            "receiveFirst" : 16,
            "receivedTime" : "137.624000009964",
            "connectEnd" : 13,
            "dnsStart" : -1,
            "connectStart" : 0,
            "dnsEnd" : -1,
            "type" : "image/jpeg",
            "len" : 22085,
            "sendEnd" : 13,
            "receiveLast" : 108.624000009964,
            "sendStart" : 13
         },
         "when_comp_start" : -1,
         "comps" : [],
         "url" : "https://www.nbc.com/sites/nbcunbc/files/files/styles/350x197/public/images/2016/5/12/160506_3031913_Into_the_Black.jpg?itok=0dnxodcw",
         "id" : "r17"
      },
      {
         "url" : "https://www.nbc.com/sites/nbcunbc/files/files/styles/350x197/public/images/2016/5/12/160506_3032004_Alexander_Kirk.jpg?itok=H0sO1y8-",
         "id" : "r18",
         "download" : {
            "s_time" : 110.01900001429,
            "receiveHeadersEnd" : 31,
            "id" : "download_17",
            "dns" : 0,
            "sslStart" : -1,
            "type" : "image/jpeg",
            "dnsEnd" : -1,
            "connectStart" : 0,
            "sendStart" : 11,
            "receiveLast" : 111.00800000981,
            "len" : 18082,
            "sendEnd" : 11,
            "receiveFirst" : 20,
            "receivedTime" : "142.00800000981",
            "sslEnd" : -1,
            "dnsStart" : -1,
            "connectEnd" : 11
         },
         "when_comp_start" : -1,
         "comps" : []
      },
      {
         "id" : "r19",
         "url" : "https://www.nbc.com/sites/nbcunbc/files/files/styles/350x197/public/images/2016/5/14/160515_3036116_Donald_Trump_Chris_Christie_Cold_Open.jpg?itok=MGDsVPJd",
         "download" : {
            "id" : "download_18",
            "dns" : 0,
            "sslStart" : -1,
            "s_time" : 110.936000011861,
            "receiveHeadersEnd" : 32,
            "sslEnd" : -1,
            "receivedTime" : "143.911000006483",
            "receiveFirst" : 15,
            "connectEnd" : 17,
            "dnsStart" : -1,
            "type" : "image/jpeg",
            "dnsEnd" : -1,
            "connectStart" : 0,
            "sendStart" : 17,
            "sendEnd" : 17,
            "len" : 21976,
            "receiveLast" : 111.911000006483
         },
         "comps" : [],
         "when_comp_start" : -1
      },
      {
         "download" : {
            "sslStart" : -1,
            "dns" : 0,
            "id" : "download_19",
            "receiveHeadersEnd" : 28,
            "s_time" : 117.01400000311,
            "connectEnd" : 13,
            "dnsStart" : -1,
            "receiveFirst" : 15,
            "receivedTime" : "146.710000000894",
            "sslEnd" : -1,
            "receiveLast" : 118.710000000894,
            "sendEnd" : 13,
            "len" : 22980,
            "sendStart" : 13,
            "connectStart" : 0,
            "dnsEnd" : -1,
            "type" : "image/jpeg"
         },
         "when_comp_start" : -1,
         "comps" : [],
         "url" : "https://www.nbc.com/sites/nbcunbc/files/files/styles/350x197/public/images/2016/5/14/160515_3036117_Drake_More_Than_a_Meme_Monologue.jpg?itok=__vaQCZo",
         "id" : "r20"
      },
      {
         "url" : "https://www.nbc.com/sites/nbcunbc/files/files/styles/350x197/public/images/2016/5/14/160515_3036119_American_Ninja_Warrior.jpg?itok=UzUE0YLg",
         "id" : "r21",
         "download" : {
            "s_time" : 120.627000011154,
            "receiveHeadersEnd" : 27,
            "dns" : 0,
            "sslStart" : -1,
            "id" : "download_20",
            "sendStart" : 17,
            "receiveLast" : 121.981000005733,
            "len" : 28275,
            "sendEnd" : 17,
            "dnsEnd" : -1,
            "type" : "image/jpeg",
            "connectStart" : 0,
            "dnsStart" : -1,
            "connectEnd" : 17,
            "receivedTime" : "148.981000005733",
            "receiveFirst" : 10,
            "sslEnd" : -1
         },
         "when_comp_start" : -1,
         "comps" : []
      },
      {
         "when_comp_start" : -1,
         "comps" : [],
         "download" : {
            "id" : "download_21",
            "dns" : 0,
            "sslStart" : -1,
            "s_time" : 121.457000001101,
            "receiveHeadersEnd" : 29,
            "sslEnd" : -1,
            "receivedTime" : "151.521000007051",
            "receiveFirst" : 10,
            "dnsStart" : -1,
            "connectEnd" : 19,
            "dnsEnd" : -1,
            "type" : "image/jpeg",
            "connectStart" : 0,
            "sendStart" : 19,
            "sendEnd" : 19,
            "len" : 29284,
            "receiveLast" : 122.521000007051
         },
         "url" : "https://www.nbc.com/sites/nbcunbc/files/files/styles/350x197/public/images/2016/5/14/160515_3036118_Rental_Car.jpg?itok=xdWw-y3l",
         "id" : "r22"
      },
      {
         "id" : "r53",
         "url" : "http://www.nbc.com/generetic/generated/generetic-responsive.js?v2.11.122",
         "download" : {
            "sslStart" : -1,
            "dns" : 0,
            "id" : "download_22",
            "receiveHeadersEnd" : 24,
            "s_time" : 130.597000010312,
            "dnsStart" : -1,
            "connectEnd" : 0,
            "sslEnd" : -1,
            "receiveFirst" : 24,
            "receivedTime" : "232.026000012411",
            "len" : 1423441,
            "sendEnd" : 0,
            "receiveLast" : 208.026000012411,
            "sendStart" : 0,
            "connectStart" : 0,
            "type" : "application/javascript",
            "dnsEnd" : -1
         },
         "comps" : [
            {
               "id" : "comp_44",
               "e_time" : 3229.07700001088,
               "type" : 1,
               "time" : 2816.57599999745,
               "s_time" : 412.501000013435
            }
         ],
         "when_comp_start" : -1
      },
      {
         "url" : "https://www.nbc.com/sites/nbcunbc/files/files/styles/350x197/public/images/2016/5/14/160515_3036129_Drake_s_Beef_anvver_1.jpg?itok=ymJnAoL6",
         "id" : "r23",
         "when_comp_start" : -1,
         "comps" : [],
         "download" : {
            "sslEnd" : -1,
            "receiveFirst" : 11,
            "receivedTime" : "164.390000005369",
            "dnsStart" : -1,
            "connectEnd" : 0,
            "connectStart" : 0,
            "type" : "image/jpeg",
            "dnsEnd" : -1,
            "sendEnd" : 0,
            "len" : 27854,
            "receiveLast" : 153.390000005369,
            "sendStart" : 0,
            "id" : "download_23",
            "sslStart" : -1,
            "dns" : 0,
            "receiveHeadersEnd" : 11,
            "s_time" : 151.537000012468
         }
      },
      {
         "id" : "r51",
         "url" : "https://mps.nbcuni.com/fetch/ext/load-nbc-web.js",
         "comps" : [],
         "when_comp_start" : -1,
         "download" : {
            "sslEnd" : 34,
            "receiveFirst" : 11,
            "receivedTime" : "172.837000005529",
            "dnsStart" : -1,
            "connectEnd" : 34,
            "type" : "application/javascript",
            "dnsEnd" : -1,
            "connectStart" : 0,
            "sendStart" : 34,
            "sendEnd" : 34,
            "len" : 65093,
            "receiveLast" : 127.837000005529,
            "id" : "download_24",
            "dns" : 0,
            "sslStart" : 21,
            "s_time" : 127.107000007527,
            "receiveHeadersEnd" : 45
         }
      },
      {
         "url" : "https://www.nbc.com/sites/nbcunbc/files/files/styles/350x197/public/images/2016/5/14/160515_3036128_Black_Jeopardy_with_Drake_anvver_1.jpg?itok=hRNxbnLG",
         "id" : "r24",
         "download" : {
            "id" : "download_25",
            "sslStart" : -1,
            "dns" : 0,
            "receiveHeadersEnd" : 11,
            "s_time" : 164.355000000796,
            "receiveFirst" : 11,
            "receivedTime" : "179.287000006298",
            "sslEnd" : -1,
            "dnsStart" : -1,
            "connectEnd" : 0,
            "connectStart" : 0,
            "dnsEnd" : -1,
            "type" : "image/jpeg",
            "receiveLast" : 168.287000006298,
            "sendEnd" : 0,
            "len" : 25998,
            "sendStart" : 0
         },
         "when_comp_start" : -1,
         "comps" : []
      },
      {
         "when_comp_start" : -1,
         "comps" : [],
         "download" : {
            "dnsStart" : -1,
            "connectEnd" : 0,
            "receiveFirst" : 11,
            "receivedTime" : "191.769000011845",
            "sslEnd" : -1,
            "receiveLast" : 180.769000011845,
            "len" : 49709,
            "sendEnd" : 0,
            "sendStart" : 0,
            "connectStart" : 0,
            "type" : "image/jpeg",
            "dnsEnd" : -1,
            "sslStart" : -1,
            "dns" : 0,
            "id" : "download_26",
            "receiveHeadersEnd" : 11,
            "s_time" : 177.65500000678
         },
         "url" : "https://www.nbc.com/sites/nbcunbc/files/files/styles/350x350/public/images/2016/5/02/agt_ssn11_key-art.jpg?itok=hay4eT_9",
         "id" : "r25"
      },
      {
         "when_comp_start" : -1,
         "comps" : [],
         "download" : {
            "dnsStart" : -1,
            "connectEnd" : 2,
            "receivedTime" : "212.078000011388",
            "receiveFirst" : 11,
            "sslEnd" : -1,
            "sendStart" : 2,
            "receiveLast" : 199.078000011388,
            "sendEnd" : 2,
            "len" : 78310,
            "dnsEnd" : -1,
            "type" : "application/javascript",
            "connectStart" : 0,
            "dns" : 0,
            "sslStart" : -1,
            "id" : "download_27",
            "s_time" : 178.919000012684,
            "receiveHeadersEnd" : 13
         },
         "url" : "http://mps.nbcuni.com/request/page/jsonp?CALLBACK=mpsCallback&cat=homepage&site=nbc-web&type=homepage&path=%2F&title=NBC%20TV%20Network%20-%20Shows%20Episodes%20Schedule&cag%5Bsubdomains%5D=www&cag%5Btopdomain%5D=nbc.com&field%5Bpageurl%5D=www.nbc.com&NOLOAD=mpstools",
         "id" : "r54"
      },
      {
         "id" : "r26",
         "url" : "https://www.nbc.com/sites/nbcunbc/files/files/styles/350x350/public/images/2016/5/11/red-nose_charity.jpg?itok=phH4NpgS",
         "download" : {
            "sendStart" : 0,
            "sendEnd" : 0,
            "len" : 18523,
            "receiveLast" : 198.603000011877,
            "type" : "image/jpeg",
            "dnsEnd" : -1,
            "connectStart" : 0,
            "connectEnd" : 0,
            "dnsStart" : -1,
            "sslEnd" : -1,
            "receivedTime" : "217.603000011877",
            "receiveFirst" : 19,
            "s_time" : 191.718000001856,
            "receiveHeadersEnd" : 19,
            "dns" : 0,
            "sslStart" : -1,
            "id" : "download_28"
         },
         "comps" : [],
         "when_comp_start" : -1
      },
      {
         "url" : "http://www.nbcudigitaladops.com/hosted/global_header.js",
         "id" : "r55",
         "when_comp_start" : -1,
         "comps" : [],
         "download" : {
            "receivedTime" : "225.139000001946",
            "receiveFirst" : 5,
            "sslEnd" : -1,
            "connectEnd" : 3,
            "dnsStart" : -1,
            "type" : "application/x-javascript",
            "dnsEnd" : -1,
            "connectStart" : 0,
            "sendStart" : 3,
            "receiveLast" : 217.139000001946,
            "sendEnd" : 3,
            "len" : 2878,
            "id" : "download_29",
            "dns" : 0,
            "sslStart" : -1,
            "s_time" : 216.613000011421,
            "receiveHeadersEnd" : 8
         }
      },
      {
         "comps" : [],
         "when_comp_start" : -1,
         "download" : {
            "s_time" : 212.64000001247,
            "receiveHeadersEnd" : 19,
            "id" : "download_30",
            "dns" : 0,
            "sslStart" : -1,
            "type" : "image/jpeg",
            "dnsEnd" : -1,
            "connectStart" : 0,
            "sendStart" : 0,
            "receiveLast" : 214.192000014242,
            "len" : 36355,
            "sendEnd" : 0,
            "receiveFirst" : 19,
            "receivedTime" : "233.192000014242",
            "sslEnd" : -1,
            "connectEnd" : 0,
            "dnsStart" : -1
         },
         "id" : "r27",
         "url" : "https://www.nbc.com/sites/nbcunbc/files/files/styles/350x350/public/images/2016/4/29/lbs_casting-2.jpg?itok=_qibyJ_s"
      },
      {
         "comps" : [],
         "when_comp_start" : -1,
         "download" : {
            "dnsStart" : -1,
            "connectEnd" : 2,
            "receivedTime" : "235.04800000228",
            "receiveFirst" : 51,
            "sslEnd" : -1,
            "sendStart" : 2,
            "receiveLast" : 182.04800000228,
            "sendEnd" : 2,
            "len" : 18875,
            "dnsEnd" : -1,
            "type" : "application/javascript",
            "connectStart" : 0,
            "dns" : 0,
            "sslStart" : -1,
            "id" : "download_31",
            "s_time" : 179.366000011214,
            "receiveHeadersEnd" : 53
         },
         "id" : "r52",
         "url" : "http://pdk.theplatform.com/5.6.11/pdk/tpPdkController.js"
      },
      {
         "download" : {
            "connectStart" : 0,
            "type" : "image/jpeg",
            "dnsEnd" : -1,
            "len" : 46910,
            "sendEnd" : 0,
            "receiveLast" : 236.20700000762,
            "sendStart" : 0,
            "sslEnd" : -1,
            "receivedTime" : "247.20700000762",
            "receiveFirst" : 11,
            "connectEnd" : 0,
            "dnsStart" : -1,
            "receiveHeadersEnd" : 11,
            "s_time" : 233.156000002054,
            "id" : "download_32",
            "sslStart" : -1,
            "dns" : 0
         },
         "comps" : [],
         "when_comp_start" : -1,
         "id" : "r28",
         "url" : "https://www.nbc.com/sites/nbcunbc/files/files/styles/350x350/public/images/2016/4/29/anw_preview.jpg?itok=jymm4Biv"
      },
      {
         "when_comp_start" : -1,
         "comps" : [
            {
               "s_time" : 253.174000012223,
               "time" : 0.843000001623011,
               "type" : 2,
               "id" : "comp_14",
               "e_time" : 254.017000013846
            }
         ],
         "download" : {
            "sslEnd" : -1,
            "receivedTime" : "253.134000013233",
            "receiveFirst" : 20,
            "dnsStart" : -1,
            "connectEnd" : 6,
            "connectStart" : 0,
            "type" : "application/x-javascript",
            "dnsEnd" : -1,
            "len" : 2481,
            "sendEnd" : 6,
            "receiveLast" : 227.134000013233,
            "sendStart" : 6,
            "id" : "download_33",
            "sslStart" : -1,
            "dns" : 0,
            "receiveHeadersEnd" : 26,
            "s_time" : 226.208000007318
         },
         "url" : "http://www.nbcudigitaladops.com/hosted/site.js?h=nbc_com_header",
         "id" : "r56"
      },
      {
         "url" : "https://www.nbc.com/sites/nbcunbc/files/files/styles/350x350/public/images/2016/3/21/2016_0310_TheVoice_S10_APP_CC.jpg?itok=obDm4Rwn",
         "id" : "r29",
         "when_comp_start" : -1,
         "comps" : [],
         "download" : {
            "dnsStart" : -1,
            "connectEnd" : 0,
            "receiveFirst" : 11,
            "receivedTime" : "398.380000013276",
            "sslEnd" : -1,
            "receiveLast" : 387.380000013276,
            "len" : 29068,
            "sendEnd" : 0,
            "sendStart" : 0,
            "connectStart" : 0,
            "type" : "image/jpeg",
            "dnsEnd" : -1,
            "sslStart" : -1,
            "dns" : 0,
            "id" : "download_34",
            "receiveHeadersEnd" : 11,
            "s_time" : 247.182000006433
         }
      },
      {
         "comps" : [],
         "when_comp_start" : -1,
         "download" : {
            "sslEnd" : -1,
            "receivedTime" : "3229.95500000252",
            "receiveFirst" : 13,
            "connectEnd" : 0,
            "dnsStart" : -1,
            "dnsEnd" : -1,
            "type" : "image/jpeg",
            "connectStart" : 0,
            "sendStart" : 0,
            "sendEnd" : 0,
            "len" : 27762,
            "receiveLast" : 3216.95500000252,
            "id" : "download_35",
            "dns" : 0,
            "sslStart" : -1,
            "s_time" : 259.64100001147,
            "receiveHeadersEnd" : 13
         },
         "id" : "r30",
         "url" : "https://www.nbc.com/sites/nbcunbc/files/files/styles/350x350/public/images/2016/5/13/med_charles.jpg?itok=3frxsGlc"
      },
      {
         "download" : {
            "s_time" : 266.479000012623,
            "receiveHeadersEnd" : 10,
            "dns" : 0,
            "sslStart" : -1,
            "id" : "download_36",
            "sendStart" : 0,
            "sendEnd" : 0,
            "len" : 126483,
            "receiveLast" : 3220.93700000027,
            "type" : "image/png",
            "dnsEnd" : -1,
            "connectStart" : 0,
            "dnsStart" : -1,
            "connectEnd" : 0,
            "sslEnd" : -1,
            "receivedTime" : "3230.93700000027",
            "receiveFirst" : 10
         },
         "comps" : [],
         "when_comp_start" : -1,
         "id" : "r58",
         "url" : "http://www.nbc.com/generetic/images/nbc_mobile_sprite@2x.png"
      },
      {
         "url" : "http://cdn.betrad.com/pub/icon1.png",
         "id" : "r31",
         "when_comp_start" : -1,
         "comps" : [],
         "download" : {
            "connectEnd" : 2,
            "dnsStart" : -1,
            "receiveFirst" : 20,
            "receivedTime" : "3230.35100000561",
            "sslEnd" : -1,
            "sendStart" : 2,
            "receiveLast" : 3208.35100000561,
            "sendEnd" : 2,
            "len" : 600,
            "type" : "image/png",
            "dnsEnd" : -1,
            "connectStart" : 0,
            "dns" : 0,
            "sslStart" : -1,
            "id" : "download_37",
            "s_time" : 259.911000001011,
            "receiveHeadersEnd" : 22
         }
      },
      {
         "when_comp_start" : -1,
         "comps" : [
            {
               "s_time" : 3278.66900000663,
               "time" : 0.864999994520076,
               "type" : 2,
               "id" : "comp_183",
               "e_time" : 3279.53400000115
            }
         ],
         "download" : {
            "s_time" : 257.374000007985,
            "receiveHeadersEnd" : 29,
            "id" : "download_38",
            "dns" : 0,
            "sslStart" : 7,
            "type" : "text/javascript",
            "dnsEnd" : -1,
            "connectStart" : 0,
            "sendStart" : 22,
            "receiveLast" : 3202.07100000198,
            "len" : 3266,
            "sendEnd" : 22,
            "receiveFirst" : 7,
            "receivedTime" : "3231.07100000198",
            "sslEnd" : 21,
            "dnsStart" : -1,
            "connectEnd" : 22
         },
         "url" : "https://www.googletagservices.com/tag/js/gpt.js",
         "id" : "r57"
      },
      {
         "url" : "http://st.dynamicyield.com/st?sec=8766572&inHead=true&id=0&ref=&sr=1920x1080&altip=",
         "id" : "r50",
         "download" : {
            "id" : "download_39",
            "dns" : 0,
            "sslStart" : -1,
            "s_time" : 122.418000013568,
            "receiveHeadersEnd" : 237,
            "sslEnd" : -1,
            "receiveFirst" : 234,
            "receivedTime" : "3232.58900000656",
            "dnsStart" : -1,
            "connectEnd" : 3,
            "dnsEnd" : -1,
            "type" : "text/javascript",
            "connectStart" : 0,
            "sendStart" : 3,
            "sendEnd" : 3,
            "len" : 4177,
            "receiveLast" : 2995.58900000656
         },
         "when_comp_start" : -1,
         "comps" : [
            {
               "time" : 0.608000002100198,
               "s_time" : 3279.58500001114,
               "id" : "comp_186",
               "e_time" : 3280.19300001324,
               "type" : 2
            }
         ]
      },
      {
         "url" : "https://www.nbc.com/sites/nbcunbc/files/files/styles/960x768/public/images/2016/5/11/2016-0514-SNL-Drake-Slide-Responsive-1114x891-KO.jpg?itok=d_HSnag5",
         "id" : "r59",
         "when_comp_start" : -1,
         "comps" : [],
         "download" : {
            "connectEnd" : 0,
            "dnsStart" : -1,
            "sslEnd" : -1,
            "receiveFirst" : 11,
            "receivedTime" : "3281.34500001033",
            "sendStart" : 0,
            "len" : 202014,
            "sendEnd" : 0,
            "receiveLast" : 3270.34500001033,
            "type" : "image/jpeg",
            "dnsEnd" : -1,
            "connectStart" : 0,
            "dns" : 0,
            "sslStart" : -1,
            "id" : "download_40",
            "s_time" : 3084.84100000351,
            "receiveHeadersEnd" : 11
         }
      },
      {
         "comps" : [],
         "when_comp_start" : -1,
         "download" : {
            "dnsStart" : -1,
            "connectEnd" : 1,
            "receivedTime" : "3281.1090000032",
            "receiveFirst" : 11,
            "sslEnd" : -1,
            "sendStart" : 1,
            "receiveLast" : 3269.1090000032,
            "len" : 44973,
            "sendEnd" : 1,
            "dnsEnd" : -1,
            "type" : "image/jpeg",
            "connectStart" : 0,
            "dns" : 0,
            "sslStart" : -1,
            "id" : "download_41",
            "s_time" : 3086.24400000554,
            "receiveHeadersEnd" : 12
         },
         "id" : "r61",
         "url" : "https://www.nbc.com/sites/nbcunbc/files/files/styles/750x750/public/images/2016/5/11/red-nose_charity.jpg?itok=iuOwW2V9"
      },
      {
         "id" : "r64",
         "url" : "https://www.nbc.com/sites/nbcunbc/files/files/styles/750x750/public/images/2016/3/21/2016_0310_TheVoice_S10_APP_CC.jpg?itok=8Wd-rqsY",
         "download" : {
            "sendStart" : 0,
            "receiveLast" : 3263.513000009,
            "len" : 82249,
            "sendEnd" : 1,
            "type" : "image/jpeg",
            "dnsEnd" : -1,
            "connectStart" : 0,
            "connectEnd" : 0,
            "dnsStart" : -1,
            "receivedTime" : "3281.513000009",
            "receiveFirst" : 17,
            "sslEnd" : -1,
            "s_time" : 3086.63200000592,
            "receiveHeadersEnd" : 18,
            "dns" : 0,
            "sslStart" : -1,
            "id" : "download_42"
         },
         "comps" : [],
         "when_comp_start" : -1
      },
      {
         "when_comp_start" : -1,
         "comps" : [],
         "download" : {
            "sslEnd" : -1,
            "receivedTime" : "3281.59700000833",
            "receiveFirst" : 18,
            "dnsStart" : -1,
            "connectEnd" : 20,
            "connectStart" : 0,
            "dnsEnd" : -1,
            "type" : "image/jpeg",
            "sendEnd" : 20,
            "len" : 77346,
            "receiveLast" : 3243.59700000833,
            "sendStart" : 20,
            "id" : "download_43",
            "sslStart" : -1,
            "dns" : 0,
            "receiveHeadersEnd" : 38,
            "s_time" : 3086.77200000966
         },
         "url" : "https://www.nbc.com/sites/nbcunbc/files/files/styles/750x750/public/images/2016/5/13/med_charles.jpg?itok=YbWvF_Mp",
         "id" : "r65"
      },
      {
         "id" : "r67",
         "url" : "http://api.mixpanel.com/track/?data=eyJldmVudCI6ICJtcF9wYWdlX3ZpZXciLCJwcm9wZXJ0aWVzIjogeyIkb3MiOiAiTGludXgiLCIkYnJvd3NlciI6ICJDaHJvbWUiLCIkY3VycmVudF91cmwiOiAiaHR0cDovL3d3dy5uYmMuY29tLyIsIiRicm93c2VyX3ZlcnNpb24iOiAzMSwiJHNjcmVlbl9oZWlnaHQiOiAxMDgwLCIkc2NyZWVuX3dpZHRoIjogMTkyMCwibXBfbGliIjogIndlYiIs",
         "download" : {
            "sendStart" : 2,
            "len" : 1,
            "sendEnd" : 2,
            "receiveLast" : 3253.73600000446,
            "type" : "application/json",
            "dnsEnd" : -1,
            "connectStart" : 0,
            "connectEnd" : 2,
            "dnsStart" : -1,
            "sslEnd" : -1,
            "receiveFirst" : 26,
            "receivedTime" : "3281.73600000446",
            "s_time" : 3131.75000000047,
            "receiveHeadersEnd" : 28,
            "dns" : 0,
            "sslStart" : -1,
            "id" : "download_44"
         },
         "comps" : [],
         "when_comp_start" : -1
      },
      {
         "when_comp_start" : -1,
         "comps" : [],
         "download" : {
            "dns" : 0,
            "sslStart" : -1,
            "id" : "download_45",
            "s_time" : 3229.68200000469,
            "receiveHeadersEnd" : 2,
            "connectEnd" : 0,
            "dnsStart" : -1,
            "sslEnd" : -1,
            "receivedTime" : "3326.26700001128",
            "receiveFirst" : 2,
            "sendStart" : 0,
            "sendEnd" : 0,
            "len" : 1244,
            "receiveLast" : 3324.26700001128,
            "dnsEnd" : -1,
            "type" : "application/x-javascript",
            "connectStart" : 0
         },
         "url" : "http://www.nbcudigitaladops.com/hosted/global.js",
         "id" : "r77"
      },
      {
         "download" : {
            "receiveHeadersEnd" : 15,
            "s_time" : 3221.41400001419,
            "sslStart" : -1,
            "dns" : 0,
            "id" : "download_46",
            "sendEnd" : 0,
            "len" : 65,
            "receiveLast" : 3312.14900000428,
            "sendStart" : 0,
            "connectStart" : 0,
            "dnsEnd" : -1,
            "type" : "application/json",
            "connectEnd" : 0,
            "dnsStart" : -1,
            "sslEnd" : -1,
            "receiveFirst" : 15,
            "receivedTime" : "3327.14900000428"
         },
         "comps" : [],
         "when_comp_start" : -1,
         "id" : "r69",
         "url" : "http://api.mixpanel.com/decide/?verbose=1&version=1&lib=web&token=952fc4e1a5cf40a16e840dc85932a615&distinct_id=154b4f01efdae-0f773011b-64217025-1fa400-154b4f01efe343&ip=1&_=1463324516189"
      },
      {
         "url" : "http://mps.nbcuni.com/request/component/automagic?name=abga.js",
         "id" : "r76",
         "when_comp_start" : -1,
         "comps" : [
            {
               "id" : "comp_217",
               "e_time" : 3332.16700000048,
               "type" : 2,
               "time" : 1.03499999386031,
               "s_time" : 3331.13200000662
            }
         ],
         "download" : {
            "connectStart" : 0,
            "type" : "application/x-javascript",
            "dnsEnd" : -1,
            "receiveLast" : 3319.64300001145,
            "len" : 5547,
            "sendEnd" : 0,
            "sendStart" : 0,
            "receivedTime" : "3327.64300001145",
            "receiveFirst" : 8,
            "sslEnd" : -1,
            "dnsStart" : -1,
            "connectEnd" : 0,
            "receiveHeadersEnd" : 8,
            "s_time" : 3229.58700000891,
            "id" : "download_47",
            "sslStart" : -1,
            "dns" : 0
         }
      },
      {
         "download" : {
            "len" : 1,
            "sendEnd" : 2,
            "receiveLast" : 3299.78600000893,
            "sendStart" : 2,
            "connectStart" : 0,
            "dnsEnd" : -1,
            "type" : "application/json",
            "connectEnd" : 2,
            "dnsStart" : -1,
            "sslEnd" : -1,
            "receiveFirst" : 26,
            "receivedTime" : "3327.78600000893",
            "receiveHeadersEnd" : 28,
            "s_time" : 3222.21400000853,
            "sslStart" : -1,
            "dns" : 0,
            "id" : "download_48"
         },
         "comps" : [],
         "when_comp_start" : -1,
         "id" : "r70",
         "url" : "http://api.mixpanel.com/engage/?data=eyIkc2V0X29uY2UiOiB7IkZpcnN0IFZpc2l0IERhdGUiOiAiMjAxNi0wNS0xNVQxNTowMTo1NiJ9LCIkdG9rZW4iOiAiOTUyZmM0ZTFhNWNmNDBhMTZlODQwZGM4NTkzMmE2MTUiLCIkZGlzdGluY3RfaWQiOiAiMTU0YjRmMDFlZmRhZS0wZjc3MzAxMWItNjQyMTcwMjUtMWZhNDAwLTE1NGI0ZjAxZWZlMzQzIn0%3D&ip=1&_=1463324516190"
      },
      {
         "id" : "r71",
         "url" : "http://api.mixpanel.com/engage/?data=eyIkYWRkIjogeyJUb3RhbCBQYWdlIFZpZXdzIjogMX0sIiR0b2tlbiI6ICI5NTJmYzRlMWE1Y2Y0MGExNmU4NDBkYzg1OTMyYTYxNSIsIiRkaXN0aW5jdF9pZCI6ICIxNTRiNGYwMWVmZGFlLTBmNzczMDExYi02NDIxNzAyNS0xZmE0MDAtMTU0YjRmMDFlZmUzNDMifQ%3D%3D&ip=1&_=1463324516191",
         "comps" : [],
         "when_comp_start" : -1,
         "download" : {
            "id" : "download_49",
            "sslStart" : -1,
            "dns" : 0,
            "receiveHeadersEnd" : 28,
            "s_time" : 3223.22300000815,
            "receivedTime" : "3328.08100001421",
            "receiveFirst" : 26,
            "sslEnd" : -1,
            "dnsStart" : -1,
            "connectEnd" : 2,
            "connectStart" : 0,
            "type" : "application/json",
            "dnsEnd" : -1,
            "receiveLast" : 3300.08100001421,
            "len" : 1,
            "sendEnd" : 2,
            "sendStart" : 2
         }
      },
      {
         "download" : {
            "sslEnd" : -1,
            "receivedTime" : "3328.25800000865",
            "receiveFirst" : 27,
            "connectEnd" : 2,
            "dnsStart" : -1,
            "connectStart" : 0,
            "type" : "application/json",
            "dnsEnd" : -1,
            "sendEnd" : 2,
            "len" : 1,
            "receiveLast" : 3299.25800000865,
            "sendStart" : 2,
            "id" : "download_50",
            "sslStart" : -1,
            "dns" : 0,
            "receiveHeadersEnd" : 29,
            "s_time" : 3224.53400000813
         },
         "when_comp_start" : -1,
         "comps" : [],
         "url" : "http://api.mixpanel.com/engage/?data=eyIkc2V0IjogeyIkb3MiOiAiTGludXgiLCIkYnJvd3NlciI6ICJDaHJvbWUiLCIkYnJvd3Nlcl92ZXJzaW9uIjogMzEsIiRpbml0aWFsX3JlZmVycmVyIjogIiRkaXJlY3QiLCIkaW5pdGlhbF9yZWZlcnJpbmdfZG9tYWluIjogIiRkaXJlY3QiLCJQbGF0Zm9ybSI6ICJVbmtub3duIE9TIiwiUHJvZHVjdCI6ICJuYmMuY29tIiwiQWQgQmxvY2tlciI",
         "id" : "r72"
      },
      {
         "when_comp_start" : -1,
         "comps" : [],
         "download" : {
            "id" : "download_51",
            "dns" : 0,
            "sslStart" : -1,
            "s_time" : 3227.57800000545,
            "receiveHeadersEnd" : 28,
            "receiveFirst" : 26,
            "receivedTime" : "3328.40000001306",
            "sslEnd" : -1,
            "connectEnd" : 2,
            "dnsStart" : -1,
            "dnsEnd" : -1,
            "type" : "application/json",
            "connectStart" : 0,
            "sendStart" : 2,
            "receiveLast" : 3300.40000001306,
            "sendEnd" : 2,
            "len" : 1
         },
         "url" : "http://api.mixpanel.com/track/?data=eyJldmVudCI6ICJQYWdlIExvYWQiLCJwcm9wZXJ0aWVzIjogeyIkb3MiOiAiTGludXgiLCIkYnJvd3NlciI6ICJDaHJvbWUiLCIkY3VycmVudF91cmwiOiAiaHR0cDovL3d3dy5uYmMuY29tLyIsIiRicm93c2VyX3ZlcnNpb24iOiAzMSwiJHNjcmVlbl9oZWlnaHQiOiAxMDgwLCIkc2NyZWVuX3dpZHRoIjogMTkyMCwibXBfbGliIjogIndlYiIsIiRs",
         "id" : "r73"
      },
      {
         "when_comp_start" : -1,
         "comps" : [],
         "download" : {
            "sendStart" : 22,
            "len" : 299,
            "sendEnd" : 24,
            "receiveLast" : 3280.26500000455,
            "dnsEnd" : -1,
            "type" : "application/vnd.api+json",
            "connectStart" : 0,
            "dnsStart" : -1,
            "connectEnd" : 22,
            "sslEnd" : 22,
            "receiveFirst" : 28,
            "receivedTime" : "3332.26500000455",
            "s_time" : 3228.81100000814,
            "receiveHeadersEnd" : 52,
            "dns" : 0,
            "sslStart" : 13,
            "id" : "download_52"
         },
         "url" : "https://api.nbc.com/v3.7/breakingNews?fields%5BbreakingNews%5D=id%2Clink%2Ccolor%2CendTime%2CstartTime%2CtimeZoneType&filter%5BstartTime%5D%5Boperator%5D=%3C&filter%5BstartTime%5D%5Bvalue%5D=2016-05-15T08%3A01%3A56-07%3A00&filter%5BendTime%5D%5Boperator%5D=%3E&filter%5BendTime%5D%5Bvalue%5D=2016-05-",
         "id" : "r74"
      },
      {
         "id" : "r60",
         "url" : "https://www.nbc.com/sites/nbcunbc/files/files/styles/750x750/public/images/2016/5/02/agt_ssn11_key-art.jpg?itok=4UdZLzOW",
         "comps" : [],
         "when_comp_start" : -1,
         "download" : {
            "dns" : 0,
            "sslStart" : -1,
            "id" : "download_53",
            "s_time" : 3086.12000000721,
            "receiveHeadersEnd" : 199,
            "connectEnd" : 1,
            "dnsStart" : -1,
            "receivedTime" : "3405.26100000716",
            "receiveFirst" : 198,
            "sslEnd" : -1,
            "sendStart" : 1,
            "receiveLast" : 3206.26100000716,
            "len" : 125426,
            "sendEnd" : 1,
            "dnsEnd" : -1,
            "type" : "image/jpeg",
            "connectStart" : 0
         }
      },
      {
         "download" : {
            "id" : "download_54",
            "dns" : 0,
            "sslStart" : -1,
            "s_time" : 3279.62500001013,
            "receiveHeadersEnd" : 5,
            "sslEnd" : -1,
            "receiveFirst" : 2,
            "receivedTime" : "3334.10200000799",
            "dnsStart" : -1,
            "connectEnd" : 3,
            "dnsEnd" : -1,
            "type" : "text/javascript",
            "connectStart" : 0,
            "sendStart" : 3,
            "len" : 153112,
            "sendEnd" : 3,
            "receiveLast" : 3329.10200000799
         },
         "comps" : [
            {
               "time" : 23.84900000471,
               "s_time" : 3361.4210000087,
               "e_time" : 3385.27000001341,
               "id" : "comp_226",
               "type" : 2
            }
         ],
         "when_comp_start" : -1,
         "id" : "r79",
         "url" : "http://partner.googleadservices.com/gpt/pubads_impl_87.js"
      },
      {
         "comps" : [
            {
               "s_time" : 3351.23600000225,
               "time" : 10.1660000073002,
               "type" : 2,
               "e_time" : 3361.40200000955,
               "id" : "comp_224"
            }
         ],
         "when_comp_start" : -1,
         "download" : {
            "receivedTime" : "3333.91800000391",
            "receiveFirst" : 3,
            "sslEnd" : -1,
            "connectEnd" : 3,
            "dnsStart" : -1,
            "dnsEnd" : -1,
            "type" : "application/javascript",
            "connectStart" : 0,
            "sendStart" : 3,
            "receiveLast" : 3327.91800000391,
            "sendEnd" : 3,
            "len" : 104915,
            "id" : "download_55",
            "dns" : 0,
            "sslStart" : -1,
            "s_time" : 3280.22200000123,
            "receiveHeadersEnd" : 6
         },
         "id" : "r80",
         "url" : "http://static.dynamicyield.com/scripts/12173/dy-min.js?v=12173"
      },
      {
         "url" : "https://www.nbc.com/sites/nbcunbc/files/files/styles/750x750/public/images/2016/4/29/anw_preview.jpg?itok=VYVMGOrz",
         "id" : "r63",
         "download" : {
            "sendStart" : 1,
            "sendEnd" : 1,
            "len" : 123928,
            "receiveLast" : 3206.37500000594,
            "type" : "image/jpeg",
            "dnsEnd" : -1,
            "connectStart" : 0,
            "dnsStart" : -1,
            "connectEnd" : 1,
            "sslEnd" : -1,
            "receivedTime" : "3406.37500000594",
            "receiveFirst" : 199,
            "s_time" : 3086.53300000879,
            "receiveHeadersEnd" : 200,
            "dns" : 0,
            "sslStart" : -1,
            "id" : "download_56"
         },
         "when_comp_start" : -1,
         "comps" : []
      },
      {
         "id" : "r81",
         "url" : "http://static.dynamicyield.com/scripts/12173/dyjq-min.js?v=12173",
         "download" : {
            "receiveHeadersEnd" : 7,
            "s_time" : 3280.30100000615,
            "id" : "download_57",
            "sslStart" : -1,
            "dns" : 0,
            "connectStart" : 0,
            "type" : "application/javascript",
            "dnsEnd" : -1,
            "receiveLast" : 3327.19100000174,
            "len" : 123651,
            "sendEnd" : 3,
            "sendStart" : 2,
            "receivedTime" : "3334.19100000174",
            "receiveFirst" : 4,
            "sslEnd" : -1,
            "connectEnd" : 2,
            "dnsStart" : -1
         },
         "comps" : [
            {
               "e_time" : 3404.57600000082,
               "id" : "comp_228",
               "type" : 2,
               "time" : 19.28699998826,
               "s_time" : 3385.28900001256
            }
         ],
         "when_comp_start" : -1
      },
      {
         "id" : "r62",
         "url" : "https://www.nbc.com/sites/nbcunbc/files/files/styles/750x750/public/images/2016/4/29/lbs_casting-2.jpg?itok=3lC5lk9p",
         "download" : {
            "dns" : 0,
            "sslStart" : -1,
            "id" : "download_58",
            "s_time" : 3086.37300001283,
            "receiveHeadersEnd" : 203,
            "dnsStart" : -1,
            "connectEnd" : 1,
            "receivedTime" : "3405.18100000918",
            "receiveFirst" : 202,
            "sslEnd" : -1,
            "sendStart" : 1,
            "receiveLast" : 3202.18100000918,
            "sendEnd" : 1,
            "len" : 98707,
            "type" : "image/jpeg",
            "dnsEnd" : -1,
            "connectStart" : 0
         },
         "comps" : [],
         "when_comp_start" : -1
      },
      {
         "id" : "r75",
         "url" : "https://api.nbc.com/v3.7/breakingNews?fields%5BbreakingNews%5D=id%2Clink%2Ccolor%2CendTime%2CstartTime%2CtimeZoneType&filter%5BstartTime%5D%5Boperator%5D=%3C&filter%5BstartTime%5D%5Bvalue%5D=2016-05-15T11%3A01%3A56-04%3A00&filter%5BendTime%5D%5Boperator%5D=%3E&filter%5BendTime%5D%5Bvalue%5D=2016-05-",
         "comps" : [],
         "when_comp_start" : -1,
         "download" : {
            "id" : "download_59",
            "sslStart" : 12,
            "dns" : 0,
            "receiveHeadersEnd" : 61,
            "s_time" : 3229.12800000631,
            "receivedTime" : "3333.48600000318",
            "receiveFirst" : 37,
            "sslEnd" : 23,
            "dnsStart" : -1,
            "connectEnd" : 24,
            "connectStart" : 0,
            "type" : "application/vnd.api+json",
            "dnsEnd" : -1,
            "receiveLast" : 3272.48600000318,
            "len" : 299,
            "sendEnd" : 24,
            "sendStart" : 24
         }
      },
      {
         "when_comp_start" : -1,
         "comps" : [],
         "download" : {
            "connectEnd" : 1,
            "dnsStart" : -1,
            "sslEnd" : -1,
            "receivedTime" : "3334.45700000448",
            "receiveFirst" : 18,
            "sendStart" : 1,
            "len" : 26908,
            "sendEnd" : 1,
            "receiveLast" : 3315.45700000448,
            "dnsEnd" : -1,
            "type" : "application/font-woff",
            "connectStart" : 0,
            "dns" : 0,
            "sslStart" : -1,
            "id" : "download_60",
            "s_time" : 3278.75300000596,
            "receiveHeadersEnd" : 19
         },
         "url" : "http://www.nbc.com/generetic/fonts/SourceSansProRegular/SourceSansProRegular.woff",
         "id" : "r38"
      },
      {
         "when_comp_start" : -1,
         "comps" : [],
         "download" : {
            "receiveFirst" : 21,
            "receivedTime" : "3335.12800000608",
            "sslEnd" : -1,
            "connectEnd" : 1,
            "dnsStart" : -1,
            "connectStart" : 0,
            "dnsEnd" : -1,
            "type" : "application/font-woff",
            "receiveLast" : 3313.12800000608,
            "sendEnd" : 1,
            "len" : 14124,
            "sendStart" : 1,
            "id" : "download_61",
            "sslStart" : -1,
            "dns" : 0,
            "receiveHeadersEnd" : 22,
            "s_time" : 3278.58300000662
         },
         "url" : "http://www.nbc.com/generetic/fonts/nbciconfont/nbciconfont.woff",
         "id" : "r32"
      },
      {
         "download" : {
            "sslEnd" : -1,
            "receivedTime" : "3335.91000000888",
            "receiveFirst" : 19,
            "dnsStart" : -1,
            "connectEnd" : 3,
            "dnsEnd" : -1,
            "type" : "application/font-woff",
            "connectStart" : 0,
            "sendStart" : 3,
            "len" : 27072,
            "sendEnd" : 3,
            "receiveLast" : 3313.91000000888,
            "id" : "download_62",
            "dns" : 0,
            "sslStart" : -1,
            "s_time" : 3278.79200001189,
            "receiveHeadersEnd" : 22
         },
         "comps" : [],
         "when_comp_start" : -1,
         "id" : "r41",
         "url" : "http://www.nbc.com/generetic/fonts/SourceSansProSemiBold/SourceSansProSemiBold.woff"
      },
      {
         "url" : "http://www.nbc.com/generetic/fonts/SourceSansProLight/SourceSansProLight.woff",
         "id" : "r35",
         "when_comp_start" : -1,
         "comps" : [],
         "download" : {
            "connectEnd" : 3,
            "dnsStart" : -1,
            "receiveFirst" : 27,
            "receivedTime" : "3336.78000001237",
            "sslEnd" : -1,
            "sendStart" : 3,
            "receiveLast" : 3306.78000001237,
            "len" : 29412,
            "sendEnd" : 3,
            "type" : "application/font-woff",
            "dnsEnd" : -1,
            "connectStart" : 0,
            "dns" : 0,
            "sslStart" : -1,
            "id" : "download_63",
            "s_time" : 3278.87400001055,
            "receiveHeadersEnd" : 30
         }
      },
      {
         "comps" : [],
         "when_comp_start" : -1,
         "download" : {
            "receiveHeadersEnd" : 31,
            "s_time" : 3279.01700000803,
            "sslStart" : -1,
            "dns" : 0,
            "id" : "download_64",
            "receiveLast" : 3306.5900000101,
            "sendEnd" : 3,
            "len" : 21892,
            "sendStart" : 3,
            "connectStart" : 0,
            "type" : "application/font-woff",
            "dnsEnd" : -1,
            "connectEnd" : 3,
            "dnsStart" : -1,
            "receivedTime" : "3337.5900000101",
            "receiveFirst" : 28,
            "sslEnd" : -1
         },
         "id" : "r47",
         "url" : "http://www.nbc.com/generetic/fonts/MontserratBold/MontserratBold.woff"
      },
      {
         "id" : "r44",
         "url" : "http://www.nbc.com/generetic/fonts/MontserratRegular/MontserratRegular.woff",
         "download" : {
            "receiveFirst" : 29,
            "receivedTime" : "3338.11200001219",
            "sslEnd" : -1,
            "dnsStart" : -1,
            "connectEnd" : 3,
            "connectStart" : 0,
            "type" : "application/font-woff",
            "dnsEnd" : -1,
            "receiveLast" : 3306.11200001219,
            "len" : 21816,
            "sendEnd" : 3,
            "sendStart" : 3,
            "id" : "download_65",
            "sslStart" : -1,
            "dns" : 0,
            "receiveHeadersEnd" : 32,
            "s_time" : 3278.9410000114
         },
         "comps" : [],
         "when_comp_start" : -1
      },
      {
         "id" : "r78",
         "url" : "http://d3qxwzhswv93jk.cloudfront.net/esf.js",
         "comps" : [
            {
               "s_time" : 3727.14600000472,
               "time" : 17.4609999958202,
               "type" : 3,
               "id" : "comp_345",
               "e_time" : 3744.60700000054
            }
         ],
         "when_comp_start" : -1,
         "download" : {
            "dns" : 0,
            "sslStart" : -1,
            "id" : "download_66",
            "s_time" : 3229.82300000149,
            "receiveHeadersEnd" : 98,
            "connectEnd" : 2,
            "dnsStart" : -1,
            "sslEnd" : -1,
            "receivedTime" : "3404.87600000051",
            "receiveFirst" : 96,
            "sendStart" : 2,
            "sendEnd" : 2,
            "len" : 26858,
            "receiveLast" : 3306.87600000051,
            "dnsEnd" : -1,
            "type" : "application/javascript",
            "connectStart" : 0
         }
      },
      {
         "id" : "r66",
         "url" : "http://oimg.nbcuni.com/b/ss/nbcuglobal,nbcunetworkbu/1/JS-1.5.1/s39716271886136?AQB=1&pccr=true&vidn=2B9C47B3051D2B40-6000190BC000B5F8&&ndh=1&pf=1&t=15%2F4%2F2016%2011%3A1%3A56%200%20240&fid=5A3DB613808ECB31-2F4903ACC6F1CCD3&ce=ISO-8859-1&ns=nbcuniversal&pageName=global%3Ahome&g=http%3A%2F%2Fwww.nbc",
         "download" : {
            "id" : "download_67",
            "dns" : 0,
            "sslStart" : -1,
            "s_time" : 3282.21500001382,
            "receiveHeadersEnd" : 53,
            "receivedTime" : "3404.77200000896",
            "receiveFirst" : 53,
            "sslEnd" : -1,
            "dnsStart" : -1,
            "connectEnd" : 0,
            "type" : "image/gif",
            "dnsEnd" : -1,
            "connectStart" : 0,
            "sendStart" : 0,
            "receiveLast" : 3351.77200000896,
            "len" : 43,
            "sendEnd" : 0
         },
         "comps" : [],
         "when_comp_start" : -1
      },
      {
         "download" : {
            "sslEnd" : -1,
            "receivedTime" : "3405.00800000154",
            "receiveFirst" : 2,
            "connectEnd" : 2,
            "dnsStart" : -1,
            "type" : "text/javascript",
            "dnsEnd" : -1,
            "connectStart" : 0,
            "sendStart" : 2,
            "sendEnd" : 2,
            "len" : 27576,
            "receiveLast" : 3401.00800000154,
            "id" : "download_68",
            "dns" : 0,
            "sslStart" : -1,
            "s_time" : 3331.91500000248,
            "receiveHeadersEnd" : 4
         },
         "when_comp_start" : -1,
         "comps" : [
            {
               "e_time" : 3658.76200000639,
               "id" : "comp_293",
               "type" : 2,
               "time" : 16.3339999999098,
               "s_time" : 3642.42800000648
            }
         ],
         "url" : "http://www.google-analytics.com/analytics.js",
         "id" : "r83"
      },
      {
         "download" : {
            "receiveFirst" : 12,
            "receivedTime" : "3405.38400001242",
            "sslEnd" : -1,
            "connectEnd" : 2,
            "dnsStart" : -1,
            "type" : "application/x-javascript",
            "dnsEnd" : -1,
            "connectStart" : 0,
            "sendStart" : 2,
            "receiveLast" : 3391.38400001242,
            "len" : 23,
            "sendEnd" : 2,
            "id" : "download_69",
            "dns" : 0,
            "sslStart" : -1,
            "s_time" : 3332.30800001184,
            "receiveHeadersEnd" : 14
         },
         "when_comp_start" : -1,
         "comps" : [
            {
               "type" : 2,
               "e_time" : 3662.9210000101,
               "id" : "comp_298",
               "s_time" : 3662.27200000139,
               "time" : 0.649000008710118
            },
            {
               "time" : 0.281000000540189,
               "s_time" : 3744.63200000173,
               "e_time" : 3744.91300000227,
               "id" : "comp_348",
               "type" : 2
            }
         ],
         "url" : "http://www.nbcudigitaladops.com/hosted/pubads.js",
         "id" : "r84"
      },
      {
         "download" : {
            "receivedTime" : "3405.48700001091",
            "receiveFirst" : 22,
            "sslEnd" : -1,
            "dnsStart" : -1,
            "connectEnd" : 0,
            "dnsEnd" : -1,
            "type" : "application/x-javascript",
            "connectStart" : 0,
            "sendStart" : 0,
            "receiveLast" : 3383.48700001091,
            "len" : 3552,
            "sendEnd" : 0,
            "id" : "download_70",
            "dns" : 0,
            "sslStart" : -1,
            "s_time" : 3327.0610000036,
            "receiveHeadersEnd" : 22
         },
         "when_comp_start" : -1,
         "comps" : [],
         "url" : "http://www.nbcudigitaladops.com/hosted/site.js?h=nbc_com",
         "id" : "r82"
      },
      {
         "when_comp_start" : -1,
         "comps" : [],
         "download" : {
            "id" : "download_71",
            "sslStart" : -1,
            "dns" : 0,
            "receiveHeadersEnd" : 3,
            "s_time" : 3406.44300001441,
            "receiveFirst" : 3,
            "receivedTime" : "3477.70200000377",
            "sslEnd" : -1,
            "dnsStart" : -1,
            "connectEnd" : 0,
            "connectStart" : 0,
            "dnsEnd" : -1,
            "type" : "image/gif",
            "receiveLast" : 3474.70200000377,
            "len" : 46,
            "sendEnd" : 0,
            "sendStart" : 0
         },
         "url" : "http://www.nbcudigitaladops.com/hosted/housepix.gif",
         "id" : "r88"
      },
      {
         "when_comp_start" : -1,
         "comps" : [
            {
               "type" : 2,
               "e_time" : 3479.01300000376,
               "id" : "comp_289",
               "s_time" : 3477.87400000379,
               "time" : 1.13899999997011
            }
         ],
         "download" : {
            "id" : "download_72",
            "dns" : 0,
            "sslStart" : -1,
            "s_time" : 3406.30700001202,
            "receiveHeadersEnd" : 9,
            "receiveFirst" : 7,
            "receivedTime" : "3477.84900000261",
            "sslEnd" : -1,
            "dnsStart" : -1,
            "connectEnd" : 2,
            "type" : "application/x-javascript",
            "dnsEnd" : -1,
            "connectStart" : 0,
            "sendStart" : 2,
            "receiveLast" : 3468.84900000261,
            "sendEnd" : 2,
            "len" : 1595
         },
         "url" : "http://b.scorecardresearch.com/beacon.js?c1=2&c2=1000004&c3=&c4=&c5=&c6=&c15=",
         "id" : "r87"
      },
      {
         "download" : {
            "receiveHeadersEnd" : 28,
            "s_time" : 3406.06200000911,
            "sslStart" : -1,
            "dns" : 0,
            "id" : "download_73",
            "sendEnd" : 3,
            "len" : 28145,
            "receiveLast" : 3580.16700001305,
            "sendStart" : 2,
            "connectStart" : 0,
            "dnsEnd" : -1,
            "type" : "text/javascript",
            "connectEnd" : 2,
            "dnsStart" : -1,
            "sslEnd" : -1,
            "receivedTime" : "3608.16700001305",
            "receiveFirst" : 25
         },
         "comps" : [
            {
               "e_time" : 3662.22200001357,
               "id" : "comp_296",
               "type" : 2,
               "time" : 3.43100000463983,
               "s_time" : 3658.79100000893
            }
         ],
         "when_comp_start" : -1,
         "id" : "r86",
         "url" : "http://cdn.krxd.net/controltag?confid=Hhr_tggh"
      },
      {
         "download" : {
            "receiveHeadersEnd" : 85,
            "s_time" : 3477.20300000219,
            "id" : "download_74",
            "sslStart" : 8,
            "dns" : 0,
            "connectStart" : 0,
            "dnsEnd" : -1,
            "type" : "text/javascript",
            "sendEnd" : 18,
            "len" : 55399,
            "receiveLast" : 3600.73400001333,
            "sendStart" : 18,
            "sslEnd" : 18,
            "receivedTime" : "3685.73400001333",
            "receiveFirst" : 67,
            "connectEnd" : 18,
            "dnsStart" : -1
         },
         "comps" : [],
         "when_comp_start" : -1,
         "id" : "r89",
         "url" : "https://securepubads.g.doubleclick.net/gampad/ads?gdfp_req=1&correlator=2572289025507328&output=json_html&callback=callbackProxy&impl=fif&eid=108809080&sc=0&sfv=1-0-2&iu=%2F2620%2Fnbcu.nbc%2Fhomepage&sz=728x90&scp=site%3Dnbc%26pageid%3Dfile2566136%26cont%3Darticle%26sect%3Dhome%2Chomepage%26tag%3Dnb"
      },
      {
         "when_comp_start" : -1,
         "comps" : [
            {
               "id" : "comp_356",
               "e_time" : 3786.20700001193,
               "type" : 2,
               "time" : 28.2640000077704,
               "s_time" : 3757.94300000416
            }
         ],
         "download" : {
            "id" : "download_75",
            "dns" : 0,
            "sslStart" : -1,
            "s_time" : 3662.46300000057,
            "receiveHeadersEnd" : 17,
            "receivedTime" : "3749.45600000501",
            "receiveFirst" : 14,
            "sslEnd" : -1,
            "connectEnd" : 3,
            "dnsStart" : -1,
            "dnsEnd" : -1,
            "type" : "application/javascript",
            "connectStart" : 0,
            "sendStart" : 3,
            "receiveLast" : 3732.45600000501,
            "len" : 146101,
            "sendEnd" : 3
         },
         "url" : "http://cdn.krxd.net/ctjs/controltag.js.e0ce6829d34e23edb3c90f3615dd81e0",
         "id" : "r93"
      },
      {
         "url" : "http://4481714.fls.doubleclick.net/activityi;src=4481714;type=nbcco841;cat=nbcco068;ord=1011069442611.1877?",
         "id" : "r95",
         "download" : {
            "s_time" : 3666.45300001255,
            "receiveHeadersEnd" : 45,
            "id" : "download_76",
            "dns" : 0,
            "sslStart" : -1,
            "type" : "text/html",
            "dnsEnd" : -1,
            "connectStart" : 0,
            "sendStart" : 2,
            "receiveLast" : 3708.47400001192,
            "sendEnd" : 2,
            "len" : 1589,
            "receivedTime" : "3753.47400001192",
            "receiveFirst" : 43,
            "sslEnd" : -1,
            "dnsStart" : -1,
            "connectEnd" : 2
         },
         "when_comp_start" : 1,
         "comps" : [
            {
               "s_time" : 3838.77500001108,
               "time" : 66.5519999893199,
               "type" : "evalhtml",
               "e_time" : 3905.3270000004,
               "id" : "r95_c1"
            }
         ]
      },
      {
         "id" : "r97",
         "url" : "http://pagead2.googlesyndication.com/pagead/osd.js",
         "comps" : [
            {
               "type" : 2,
               "e_time" : 3829.20500000182,
               "id" : "comp_359",
               "s_time" : 3816.73500000034,
               "time" : 12.47000000148
            }
         ],
         "when_comp_start" : -1,
         "download" : {
            "sendStart" : 3,
            "len" : 61937,
            "sendEnd" : 3,
            "receiveLast" : 3749.08600000083,
            "dnsEnd" : -1,
            "type" : "text/javascript",
            "connectStart" : 0,
            "dnsStart" : -1,
            "connectEnd" : 3,
            "sslEnd" : -1,
            "receiveFirst" : 2,
            "receivedTime" : "3754.08600000083",
            "s_time" : 3710.74300000328,
            "receiveHeadersEnd" : 5,
            "dns" : 0,
            "sslStart" : -1,
            "id" : "download_77"
         }
      },
      {
         "url" : "http://js.moatads.com/nbcuniversal134024534264/moatad.js#moatClientLevel1=52825938&moatClientLevel2=152178978&moatClientLevel3=434686098&moatClientLevel4=107731508538&moatClientSlicer1=77912658&moatClientSlicer2=123633258&zMoatPS=topbanner&zMoatST=nbc",
         "id" : "r98",
         "when_comp_start" : -1,
         "comps" : [],
         "download" : {
            "sendStart" : 3,
            "sendEnd" : 3,
            "len" : 168947,
            "receiveLast" : 3747.38900000881,
            "type" : "application/x-javascript",
            "dnsEnd" : -1,
            "connectStart" : 0,
            "connectEnd" : 3,
            "dnsStart" : -1,
            "sslEnd" : -1,
            "receiveFirst" : 4,
            "receivedTime" : "3754.38900000881",
            "s_time" : 3713.47400000377,
            "receiveHeadersEnd" : 7,
            "dns" : 0,
            "sslStart" : -1,
            "id" : "download_78"
         }
      },
      {
         "id" : "r96",
         "url" : "https://tpc.googlesyndication.com/simgad/9966525178461462120",
         "comps" : [],
         "when_comp_start" : -1,
         "download" : {
            "receiveFirst" : 15,
            "receivedTime" : "3754.71300000208",
            "sslEnd" : 22,
            "connectEnd" : 23,
            "dnsStart" : -1,
            "dnsEnd" : -1,
            "type" : "image/gif",
            "connectStart" : 0,
            "sendStart" : 23,
            "receiveLast" : 3716.71300000208,
            "len" : 49,
            "sendEnd" : 23,
            "id" : "download_79",
            "dns" : 0,
            "sslStart" : 9,
            "s_time" : 3690.32700000389,
            "receiveHeadersEnd" : 38
         }
      },
      {
         "url" : "http://ad.doubleclick.net/ddm/ad/alqt2hzhmw/2fkshb/jjnuu/q6lc19q/ong84sgl1g/;ord=1463324516710?",
         "id" : "r100",
         "when_comp_start" : -1,
         "comps" : [],
         "download" : {
            "s_time" : 3744.10500000522,
            "receiveHeadersEnd" : 27,
            "id" : "download_80",
            "dns" : 0,
            "sslStart" : -1,
            "type" : "image/gif",
            "dnsEnd" : -1,
            "connectStart" : 0,
            "sendStart" : 2,
            "receiveLast" : 3812.69200000865,
            "len" : 43,
            "sendEnd" : 2,
            "receivedTime" : "3839.69200000865",
            "receiveFirst" : 25,
            "sslEnd" : -1,
            "dnsStart" : -1,
            "connectEnd" : 2
         }
      },
      {
         "id" : "r94",
         "url" : "http://secure-us.imrworldwide.com/cgi-bin/m?ci=us-503541h&cg=0&cc=1&si=http%3A//www.nbc.com/&rp=&ts=compact&rnd=1463324516632&ja=1",
         "comps" : [],
         "when_comp_start" : -1,
         "download" : {
            "id" : "download_81",
            "dns" : 0,
            "sslStart" : -1,
            "s_time" : 3756.74200001231,
            "receiveHeadersEnd" : 36,
            "receivedTime" : "3841.3370000053",
            "receiveFirst" : 36,
            "sslEnd" : -1,
            "dnsStart" : -1,
            "connectEnd" : 0,
            "type" : "image/gif",
            "dnsEnd" : -1,
            "connectStart" : 0,
            "sendStart" : 0,
            "receiveLast" : 3805.3370000053,
            "sendEnd" : 0,
            "len" : 44
         }
      },
      {
         "download" : {
            "connectStart" : 0,
            "dnsEnd" : -1,
            "type" : "image/gif",
            "len" : 35,
            "sendEnd" : 49,
            "receiveLast" : 3771.74800000619,
            "sendStart" : 49,
            "sslEnd" : 49,
            "receiveFirst" : 21,
            "receivedTime" : "3841.74800000619",
            "connectEnd" : 49,
            "dnsStart" : -1,
            "receiveHeadersEnd" : 70,
            "s_time" : 3749.1399999999,
            "id" : "download_82",
            "sslStart" : 22,
            "dns" : 0
         },
         "when_comp_start" : -1,
         "comps" : [],
         "url" : "https://stats.g.doubleclick.net/r/collect?v=1&aip=1&t=dc&_r=3&tid=UA-43067077-2&cid=392167411.1463324516&jid=30694735&_v=j43&z=849069315",
         "id" : "r92"
      },
      {
         "id" : "r104",
         "url" : "http://platform.twitter.com/oct.js",
         "comps" : [
            {
               "type" : null,
               "e_time" : 3901.23900001345,
               "id" : "comp_379",
               "s_time" : 3900.02100000856,
               "time" : 1.2180000048902
            }
         ],
         "when_comp_start" : -1,
         "download" : {
            "s_time" : 3839.35600001132,
            "receiveHeadersEnd" : 18,
            "id" : "download_83",
            "dns" : 0,
            "sslStart" : -1,
            "dnsEnd" : -1,
            "type" : "application/javascript",
            "connectStart" : 0,
            "sendStart" : 2,
            "sendEnd" : 2,
            "len" : 2710,
            "receiveLast" : 3881.97500000754,
            "sslEnd" : -1,
            "receiveFirst" : 16,
            "receivedTime" : "3899.97500000754",
            "connectEnd" : 2,
            "dnsStart" : -1
         }
      },
      {
         "id" : "r103",
         "url" : "https://secure.leadback.advertising.com/adcedge/lb?site=695501&betr=NBCHomePage=[+]1day[24],30day[720],1year[8760]",
         "comps" : [],
         "when_comp_start" : -1,
         "download" : {
            "sslStart" : 29,
            "dns" : 0,
            "id" : "download_84",
            "receiveHeadersEnd" : 77,
            "s_time" : 3839.21000000555,
            "dnsStart" : -1,
            "connectEnd" : 61,
            "sslEnd" : 61,
            "receivedTime" : "3964.56100000069",
            "receiveFirst" : 14,
            "len" : 49,
            "sendEnd" : 63,
            "receiveLast" : 3887.56100000069,
            "sendStart" : 61,
            "connectStart" : 0,
            "dnsEnd" : -1,
            "type" : "image/gif"
         }
      },
      {
         "download" : {
            "id" : "download_85",
            "dns" : 0,
            "sslStart" : -1,
            "s_time" : 3905.36200000497,
            "receiveHeadersEnd" : 56,
            "sslEnd" : -1,
            "receivedTime" : "3981.06000000553",
            "receiveFirst" : 54,
            "connectEnd" : 2,
            "dnsStart" : -1,
            "dnsEnd" : -1,
            "type" : "application/x-javascript",
            "connectStart" : 0,
            "sendStart" : 2,
            "len" : 3066,
            "sendEnd" : 2,
            "receiveLast" : 3925.06000000553
         },
         "when_comp_start" : -1,
         "comps" : [],
         "url" : "http://connect.facebook.net/en_US/fbds.js",
         "id" : "r111"
      },
      {
         "id" : "r110",
         "url" : "http://t.co/i/adsct?p_id=Twitter&p_user_id=0&txn_id=l64vu&tw_sale_amount=0&tw_order_quantity=0&tw_iframe_status=1&tw_document_referrer=http%3A%2F%2Fwww.nbc.com%2F",
         "download" : {
            "receiveHeadersEnd" : 60,
            "s_time" : 3904.30600001127,
            "id" : "download_86",
            "sslStart" : -1,
            "dns" : 0,
            "connectStart" : 0,
            "type" : "image/gif",
            "dnsEnd" : -1,
            "receiveLast" : 3921.3170000125,
            "sendEnd" : 2,
            "len" : 43,
            "sendStart" : 2,
            "receiveFirst" : 58,
            "receivedTime" : "3981.3170000125",
            "sslEnd" : -1,
            "connectEnd" : 2,
            "dnsStart" : -1
         },
         "comps" : [],
         "when_comp_start" : -1
      },
      {
         "id" : "r109",
         "url" : "https://analytics.twitter.com/i/adsct?p_id=Twitter&p_user_id=0&txn_id=l64vu&tw_sale_amount=0&tw_order_quantity=0&tw_iframe_status=1&tw_document_referrer=http%3A%2F%2Fwww.nbc.com%2F",
         "comps" : [],
         "when_comp_start" : -1,
         "download" : {
            "dnsStart" : -1,
            "connectEnd" : 65,
            "receivedTime" : "3999.75600000471",
            "receiveFirst" : 29,
            "sslEnd" : 65,
            "sendStart" : 65,
            "receiveLast" : 3904.75600000471,
            "len" : 43,
            "sendEnd" : 66,
            "type" : "image/gif",
            "dnsEnd" : -1,
            "connectStart" : 0,
            "dns" : 0,
            "sslStart" : 31,
            "id" : "download_87",
            "s_time" : 3904.01400001429,
            "receiveHeadersEnd" : 95
         }
      },
      {
         "url" : "http://www.fallingfalcon.com/bcn?elg=649078283&vv=1463324516704&xlg=&vqwo=1&deo=0&hu=0&fe=1463324516878&y=1.7.0&id=1463324516704&flg=SherfPXTPjpVKsu&x=zzz.qef.frp%2F",
         "id" : "r112",
         "download" : {
            "receiveHeadersEnd" : 157,
            "s_time" : 3911.81300001335,
            "id" : "download_88",
            "sslStart" : -1,
            "dns" : 0,
            "connectStart" : 0,
            "dnsEnd" : -1,
            "type" : "image/gif",
            "sendEnd" : 2,
            "len" : 43,
            "receiveLast" : 3922.35600000201,
            "sendStart" : 2,
            "sslEnd" : -1,
            "receivedTime" : "4079.35600000201",
            "receiveFirst" : 155,
            "dnsStart" : -1,
            "connectEnd" : 2
         },
         "when_comp_start" : -1,
         "comps" : []
      },
      {
         "comps" : [],
         "when_comp_start" : -1,
         "download" : {
            "dns" : 0,
            "sslStart" : 33,
            "id" : "download_89",
            "s_time" : 3983.5740000126,
            "receiveHeadersEnd" : 96,
            "dnsStart" : -1,
            "connectEnd" : 68,
            "sslEnd" : 68,
            "receivedTime" : "4080.74800000759",
            "receiveFirst" : 28,
            "sendStart" : 68,
            "sendEnd" : 68,
            "len" : 43,
            "receiveLast" : 3984.74800000759,
            "type" : "image/gif",
            "dnsEnd" : -1,
            "connectStart" : 0
         },
         "id" : "r113",
         "url" : "https://www.facebook.com/tr/?id=1422234124686023&ev=PixelInitialized&dl=http%3A%2F%2F4481714.fls.doubleclick.net%2Factivityi%3Bsrc%3D4481714%3Btype%3Dnbcco841%3Bcat%3Dnbcco068%3Bord%3D1011069442611.1877%3F&rl=http%3A%2F%2Fwww.nbc.com%2F&if=true&ts=1463324516951"
      },
      {
         "id" : "r105",
         "url" : "https://cache.btrll.com/default/Pix-1x1.gif",
         "comps" : [],
         "when_comp_start" : -1,
         "download" : {
            "receivedTime" : "4131.80400000419",
            "receiveFirst" : 6,
            "sslEnd" : 99,
            "dnsStart" : -1,
            "connectEnd" : 99,
            "connectStart" : 0,
            "type" : "image/gif",
            "dnsEnd" : -1,
            "receiveLast" : 4026.80400000419,
            "sendEnd" : 99,
            "len" : 42,
            "sendStart" : 99,
            "id" : "download_90",
            "sslStart" : 84,
            "dns" : 0,
            "receiveHeadersEnd" : 105,
            "s_time" : 4025.20700001332
         }
      }
   ],
   "load_activity" : -1,
   "name" : "www.nbc.com_",
   "deps" : [
      {
         "id" : "dep1",
         "time" : -1,
         "a2" : "r1_c2",
         "a1" : "comp_3"
      },
      {
         "id" : "dep2",
         "a2" : "r1_c3",
         "a1" : "comp_5",
         "time" : -1
      },
      {
         "a1" : "comp_42",
         "a2" : "r1_c4",
         "time" : -1,
         "id" : "dep3"
      },
      {
         "a2" : "r1_c5",
         "a1" : "comp_44",
         "time" : -1,
         "id" : "dep4"
      },
      {
         "a1" : "comp_2",
         "a2" : "comp_3",
         "time" : -1,
         "id" : "dep5"
      },
      {
         "time" : -1,
         "a1" : "comp_3",
         "a2" : "comp_5",
         "id" : "dep6"
      },
      {
         "a1" : "comp_42",
         "a2" : "comp_44",
         "time" : -1,
         "id" : "dep7"
      },
      {
         "time" : -1,
         "a1" : "r1_c5",
         "a2" : "download_90",
         "id" : "dep8"
      },
      {
         "time" : 754.49700000172,
         "a1" : "r1_c5",
         "a2" : "download_89",
         "id" : "dep9"
      },
      {
         "id" : "dep10",
         "a1" : "r1_c5",
         "a2" : "download_88",
         "time" : 682.73600000247
      },
      {
         "a1" : "r95_c1",
         "a2" : "download_87",
         "time" : 65.2390000032101,
         "id" : "dep11"
      },
      {
         "time" : 65.53100000019,
         "a1" : "r95_c1",
         "a2" : "download_86",
         "id" : "dep12"
      },
      {
         "id" : "dep13",
         "time" : 676.28499999409,
         "a1" : "r1_c5",
         "a2" : "download_85"
      },
      {
         "id" : "dep14",
         "a2" : "download_84",
         "a1" : "r95_c1",
         "time" : 0.434999994469763
      },
      {
         "time" : 610.13299999467,
         "a2" : "download_84",
         "a1" : "r1_c5",
         "id" : "dep15"
      },
      {
         "id" : "dep16",
         "time" : 0.581000000239783,
         "a2" : "download_83",
         "a1" : "r95_c1"
      },
      {
         "a1" : "r1_c5",
         "a2" : "download_83",
         "time" : 610.27900000044,
         "id" : "dep17"
      },
      {
         "time" : 520.06299998902,
         "a1" : "r1_c5",
         "a2" : "download_82",
         "id" : "dep18"
      },
      {
         "id" : "dep19",
         "time" : 527.66500000143,
         "a1" : "r1_c5",
         "a2" : "download_81"
      },
      {
         "a2" : "download_80",
         "a1" : "r1_c5",
         "time" : 515.02799999434,
         "id" : "dep20"
      },
      {
         "a1" : "r1_c5",
         "a2" : "download_79",
         "time" : 461.24999999301,
         "id" : "dep21"
      },
      {
         "id" : "dep22",
         "a1" : "r1_c5",
         "a2" : "download_78",
         "time" : 484.39699999289
      },
      {
         "a1" : "r1_c5",
         "a2" : "download_77",
         "time" : 481.6659999924,
         "id" : "dep23"
      },
      {
         "time" : 437.37600000167,
         "a2" : "download_76",
         "a1" : "r1_c5",
         "id" : "dep24"
      },
      {
         "id" : "dep25",
         "a2" : "download_75",
         "a1" : "r1_c5",
         "time" : 433.38599998969
      },
      {
         "id" : "dep26",
         "time" : 248.12599999131,
         "a2" : "download_74",
         "a1" : "r1_c5"
      },
      {
         "time" : 248.12599999131,
         "a2" : "download_74",
         "a1" : "r1_c5",
         "id" : "dep27"
      },
      {
         "id" : "dep28",
         "a1" : "r1_c5",
         "a2" : "download_73",
         "time" : 176.98499999823
      },
      {
         "id" : "dep29",
         "a1" : "r1_c5",
         "a2" : "download_72",
         "time" : 177.23000000114
      },
      {
         "time" : 177.23000000114,
         "a1" : "r1_c5",
         "a2" : "download_72",
         "id" : "dep30"
      },
      {
         "id" : "dep31",
         "a1" : "r1_c5",
         "a2" : "download_71",
         "time" : 177.36600000353
      },
      {
         "a2" : "download_71",
         "a1" : "r1_c5",
         "time" : 177.36600000353,
         "id" : "dep32"
      },
      {
         "a1" : "r1_c5",
         "a2" : "download_70",
         "time" : 97.9839999927199,
         "id" : "dep33"
      },
      {
         "a2" : "download_70",
         "a1" : "r1_c5",
         "time" : 97.9839999927199,
         "id" : "dep34"
      },
      {
         "id" : "dep35",
         "time" : 103.23100000096,
         "a1" : "r1_c5",
         "a2" : "download_69"
      },
      {
         "time" : 102.8379999916,
         "a2" : "download_68",
         "a1" : "r1_c5",
         "id" : "dep36"
      },
      {
         "id" : "dep37",
         "a1" : "r1_c5",
         "a2" : "download_67",
         "time" : 53.1380000029399
      },
      {
         "time" : 0.745999990610017,
         "a1" : "r1_c5",
         "a2" : "download_66",
         "id" : "dep38"
      },
      {
         "time" : 0.745999990610017,
         "a1" : "r1_c5",
         "a2" : "download_66",
         "id" : "dep39"
      },
      {
         "id" : "dep40",
         "time" : 49.8640000005198,
         "a1" : "r1_c5",
         "a2" : "download_65"
      },
      {
         "a1" : "r1_c5",
         "a2" : "download_64",
         "time" : 49.9399999971502,
         "id" : "dep41"
      },
      {
         "id" : "dep42",
         "a2" : "download_63",
         "a1" : "r1_c5",
         "time" : 49.7969999996699
      },
      {
         "id" : "dep43",
         "time" : 49.7150000010101,
         "a2" : "download_62",
         "a1" : "r1_c5"
      },
      {
         "id" : "dep44",
         "a1" : "r1_c5",
         "a2" : "download_61",
         "time" : 49.5059999957398
      },
      {
         "time" : 49.67599999508,
         "a2" : "download_60",
         "a1" : "r1_c5",
         "id" : "dep45"
      },
      {
         "time" : 0.05099999542972,
         "a1" : "r1_c5",
         "a2" : "download_59",
         "id" : "dep46"
      },
      {
         "time" : -1,
         "a1" : "r1_c4",
         "a2" : "download_58",
         "id" : "dep47"
      },
      {
         "id" : "dep48",
         "time" : 51.2239999952699,
         "a1" : "r1_c5",
         "a2" : "download_57"
      },
      {
         "id" : "dep49",
         "a2" : "download_56",
         "a1" : "r1_c4",
         "time" : -1
      },
      {
         "id" : "dep50",
         "a2" : "download_55",
         "a1" : "r1_c5",
         "time" : 51.1449999903498
      },
      {
         "time" : 50.5479999992499,
         "a1" : "r1_c5",
         "a2" : "download_54",
         "id" : "dep51"
      },
      {
         "id" : "dep52",
         "a2" : "download_53",
         "a1" : "r1_c4",
         "time" : 2673.73799999768
      },
      {
         "time" : -1,
         "a1" : "r1_c4",
         "a2" : "download_52",
         "id" : "dep53"
      },
      {
         "time" : 2815.19599999592,
         "a1" : "r1_c4",
         "a2" : "download_51",
         "id" : "dep54"
      },
      {
         "id" : "dep55",
         "a2" : "download_50",
         "a1" : "r1_c4",
         "time" : 2812.1519999986
      },
      {
         "time" : 2810.84099999862,
         "a1" : "r1_c4",
         "a2" : "download_49",
         "id" : "dep56"
      },
      {
         "id" : "dep57",
         "time" : 2809.831999999,
         "a2" : "download_48",
         "a1" : "r1_c4"
      },
      {
         "time" : 0.509999998029798,
         "a1" : "r1_c5",
         "a2" : "download_47",
         "id" : "dep58"
      },
      {
         "a1" : "r1_c4",
         "a2" : "download_46",
         "time" : 2809.03200000466,
         "id" : "dep59"
      },
      {
         "a1" : "r1_c5",
         "a2" : "download_45",
         "time" : 0.604999993809997,
         "id" : "dep60"
      },
      {
         "id" : "dep61",
         "time" : 0.604999993809997,
         "a2" : "download_45",
         "a1" : "r1_c5"
      },
      {
         "id" : "dep62",
         "a2" : "download_44",
         "a1" : "r1_c4",
         "time" : 2719.36799999094
      },
      {
         "a2" : "download_43",
         "a1" : "r1_c4",
         "time" : 2674.39000000013,
         "id" : "dep63"
      },
      {
         "time" : 2674.24999999639,
         "a1" : "r1_c4",
         "a2" : "download_42",
         "id" : "dep64"
      },
      {
         "id" : "dep65",
         "a1" : "r1_c4",
         "a2" : "download_41",
         "time" : 2673.86199999601
      },
      {
         "id" : "dep66",
         "time" : 2672.45899999398,
         "a2" : "download_40",
         "a1" : "r1_c4"
      },
      {
         "id" : "dep67",
         "time" : -1,
         "a1" : "r1_c2",
         "a2" : "download_39"
      },
      {
         "time" : -1,
         "a2" : "download_38",
         "a1" : "r1_c3",
         "id" : "dep68"
      },
      {
         "id" : "dep69",
         "time" : -1,
         "a2" : "download_37",
         "a1" : "r1_c3"
      },
      {
         "time" : -1,
         "a1" : "r1_c3",
         "a2" : "download_36",
         "id" : "dep70"
      },
      {
         "a1" : "r1_c3",
         "a2" : "download_35",
         "time" : 133.52100001066,
         "id" : "dep71"
      },
      {
         "id" : "dep72",
         "a1" : "r1_c3",
         "a2" : "download_34",
         "time" : 121.062000005623
      },
      {
         "a2" : "download_33",
         "a1" : "r1_c3",
         "time" : 100.088000006508,
         "id" : "dep73"
      },
      {
         "id" : "dep74",
         "a1" : "r1_c3",
         "a2" : "download_33",
         "time" : 100.088000006508
      },
      {
         "id" : "dep75",
         "a2" : "download_32",
         "a1" : "r1_c3",
         "time" : 107.036000001244
      },
      {
         "id" : "dep76",
         "time" : 53.246000010404,
         "a2" : "download_31",
         "a1" : "r1_c3"
      },
      {
         "a1" : "r1_c3",
         "a2" : "download_30",
         "time" : 86.52000001166,
         "id" : "dep77"
      },
      {
         "id" : "dep78",
         "time" : 90.493000010611,
         "a1" : "r1_c3",
         "a2" : "download_29"
      },
      {
         "id" : "dep79",
         "time" : 90.493000010611,
         "a1" : "r1_c3",
         "a2" : "download_29"
      },
      {
         "id" : "dep80",
         "a1" : "r1_c3",
         "a2" : "download_28",
         "time" : 65.598000001046
      },
      {
         "id" : "dep81",
         "time" : 52.799000011874,
         "a2" : "download_27",
         "a1" : "r1_c3"
      },
      {
         "id" : "dep82",
         "a1" : "r1_c3",
         "a2" : "download_27",
         "time" : 52.799000011874
      },
      {
         "id" : "dep83",
         "a1" : "r1_c3",
         "a2" : "download_26",
         "time" : 51.53500000597
      },
      {
         "id" : "dep84",
         "time" : 38.234999999986,
         "a1" : "r1_c3",
         "a2" : "download_25"
      },
      {
         "id" : "dep85",
         "a2" : "download_24",
         "a1" : "r1_c3",
         "time" : 0.987000006717011
      },
      {
         "id" : "dep86",
         "a1" : "r1_c3",
         "a2" : "download_24",
         "time" : 0.987000006717011
      },
      {
         "id" : "dep87",
         "time" : 25.417000011658,
         "a1" : "r1_c3",
         "a2" : "download_23"
      },
      {
         "id" : "dep88",
         "time" : 4.47700000950201,
         "a1" : "r1_c3",
         "a2" : "download_22"
      },
      {
         "time" : 4.47700000950201,
         "a2" : "download_22",
         "a1" : "r1_c3",
         "id" : "dep89"
      },
      {
         "id" : "dep90",
         "time" : 45.2729999960868,
         "a1" : "r1_c2",
         "a2" : "download_21"
      },
      {
         "id" : "dep91",
         "a1" : "r1_c2",
         "a2" : "download_20",
         "time" : 44.4430000061398
      },
      {
         "id" : "dep92",
         "time" : 40.8299999980958,
         "a1" : "r1_c2",
         "a2" : "download_19"
      },
      {
         "id" : "dep93",
         "time" : 34.7520000068468,
         "a1" : "r1_c2",
         "a2" : "download_18"
      },
      {
         "time" : 33.8350000092758,
         "a1" : "r1_c2",
         "a2" : "download_17",
         "id" : "dep94"
      },
      {
         "id" : "dep95",
         "a2" : "download_16",
         "a1" : "r1_c2",
         "time" : 31.5390000032498
      },
      {
         "id" : "dep96",
         "a1" : "r1_c2",
         "a2" : "download_15",
         "time" : 19.7570000018459
      },
      {
         "a1" : "r1_c2",
         "a2" : "download_14",
         "time" : 15.0730000023032,
         "id" : "dep97"
      },
      {
         "id" : "dep98",
         "time" : 15.3819999977714,
         "a1" : "r1_c2",
         "a2" : "download_13"
      },
      {
         "id" : "dep99",
         "time" : 14.8350000090432,
         "a1" : "r1_c2",
         "a2" : "download_12"
      },
      {
         "a1" : "r1_c2",
         "a2" : "download_11",
         "time" : 15.2019999950426,
         "id" : "dep100"
      },
      {
         "id" : "dep101",
         "time" : 14.7779999970226,
         "a2" : "download_10",
         "a1" : "r1_c2"
      },
      {
         "id" : "dep102",
         "time" : 14.6580000000541,
         "a2" : "download_9",
         "a1" : "r1_c2"
      },
      {
         "id" : "dep103",
         "a1" : "r1_c2",
         "a2" : "download_8",
         "time" : 14.536999995471
      },
      {
         "a1" : "r1_c2",
         "a2" : "download_7",
         "time" : 14.3780000071275,
         "id" : "dep104"
      },
      {
         "id" : "dep105",
         "a2" : "download_6",
         "a1" : "r1_c2",
         "time" : 14.0309999987949
      },
      {
         "id" : "dep106",
         "a2" : "download_5",
         "a1" : "r1_c2",
         "time" : 4.9350000044797
      },
      {
         "id" : "dep107",
         "time" : -1,
         "a1" : "r1_c1",
         "a2" : "download_4"
      },
      {
         "time" : 0.578999999561397,
         "a2" : "download_4",
         "a1" : "r1_c1",
         "id" : "dep108"
      },
      {
         "time" : -1,
         "a2" : "download_3",
         "a1" : "r1_c1",
         "id" : "dep109"
      },
      {
         "time" : 1.18300000031019,
         "a2" : "download_3",
         "a1" : "r1_c1",
         "id" : "dep110"
      },
      {
         "id" : "dep111",
         "time" : 0.490000005811495,
         "a2" : "download_2",
         "a1" : "r1_c1"
      },
      {
         "time" : 0.348000001395199,
         "a2" : "download_1",
         "a1" : "r1_c1",
         "id" : "dep112"
      }
   ]
}
