{
   "deps" : [
      {
         "id" : "dep1",
         "a2" : "download_3",
         "a1" : "r1_c1",
         "time" : 8.65800000610761
      },
      {
         "a1" : "r1_c1",
         "time" : 8.4050000004936,
         "id" : "dep2",
         "a2" : "download_2"
      },
      {
         "a2" : "download_1",
         "id" : "dep3",
         "time" : 8.5390000022017,
         "a1" : "r1_c1"
      }
   ],
   "n_download_no_trigger" : 5,
   "name" : "original.testbed.localhost_www.latimes.com_",
   "load_activity" : -1,
   "start_activity" : "download_0",
   "objs" : [
      {
         "when_comp_start" : 1,
         "download" : {
            "receiveLast" : 22.61299999943,
            "receiveHeadersEnd" : 28,
            "receivedTime" : "50.61299999943",
            "dnsEnd" : -1,
            "sslEnd" : -1,
            "dnsStart" : -1,
            "type" : "text/html",
            "len" : 329549,
            "sendEnd" : 0,
            "sslStart" : -1,
            "receiveFirst" : 28,
            "dns" : 0,
            "id" : "download_0",
            "connectEnd" : 0,
            "s_time" : 0,
            "connectStart" : 0,
            "sendStart" : 0
         },
         "comps" : [
            {
               "s_time" : 39.0669999978854,
               "id" : "r1_c1",
               "time" : 461.773000002723,
               "e_time" : 500.840000000608,
               "type" : "evalhtml"
            }
         ],
         "id" : "r1",
         "url" : "http://original.testbed.localhost/www.latimes.com/"
      },
      {
         "comps" : [
            {
               "time" : 2.172000000428,
               "type" : 4,
               "e_time" : 115.941000003659,
               "s_time" : 113.769000003231,
               "id" : "comp_19"
            }
         ],
         "id" : "r8",
         "download" : {
            "id" : "download_1",
            "dns" : 0,
            "sendStart" : 3,
            "connectStart" : 0,
            "s_time" : 47.6060000000871,
            "connectEnd" : 3,
            "receivedTime" : "113.679000001866",
            "receiveHeadersEnd" : 25,
            "receiveLast" : 88.6790000018664,
            "receiveFirst" : 22,
            "sslStart" : -1,
            "sendEnd" : 3,
            "len" : 108996,
            "type" : "text/css",
            "dnsStart" : -1,
            "sslEnd" : -1,
            "dnsEnd" : -1
         },
         "when_comp_start" : -1,
         "url" : "http://original.testbed.localhost/www.latimes.com/as/prod/lanews/stylesheets/fonts.1q2w3_c67664be09c722ada0200cb67cd2b992.min.css"
      },
      {
         "comps" : [
            {
               "s_time" : 96.1299999980838,
               "id" : "comp_14",
               "time" : 7.32900000002719,
               "e_time" : 103.458999998111,
               "type" : 4
            }
         ],
         "id" : "r7",
         "download" : {
            "receiveLast" : 69.0160000031465,
            "receivedTime" : "96.0160000031465",
            "receiveHeadersEnd" : 27,
            "type" : "text/css",
            "len" : 157988,
            "dnsStart" : -1,
            "sslEnd" : -1,
            "dnsEnd" : -1,
            "receiveFirst" : 27,
            "sslStart" : -1,
            "sendEnd" : 0,
            "id" : "download_2",
            "dns" : 0,
            "connectEnd" : 0,
            "sendStart" : 0,
            "connectStart" : 0,
            "s_time" : 47.471999998379
         },
         "when_comp_start" : -1,
         "url" : "http://original.testbed.localhost/www.latimes.com/as/prod/lanews/stylesheets/main.1q2w3_5006f47e4482f459d72f07c314c73246.min.css"
      },
      {
         "url" : "http://original.testbed.localhost/www.latimes.com/as/prod/lanews/stylesheets/modules.1q2w3_05ee4ec4a4951450857d21d0c4b559db.min.css",
         "download" : {
            "s_time" : 47.725000003993,
            "sendStart" : 20,
            "connectStart" : 0,
            "connectEnd" : 20,
            "dns" : 0,
            "id" : "download_3",
            "sendEnd" : 20,
            "sslStart" : -1,
            "receiveFirst" : 28,
            "sslEnd" : -1,
            "dnsEnd" : 0,
            "dnsStart" : 0,
            "len" : 337027,
            "type" : "text/css",
            "receiveHeadersEnd" : 48,
            "receivedTime" : "118.25300000055",
            "receiveLast" : 70.2530000005499
         },
         "when_comp_start" : -1,
         "id" : "r9",
         "comps" : [
            {
               "type" : 4,
               "e_time" : 151.707999997598,
               "time" : 33.371999998053,
               "id" : "comp_21",
               "s_time" : 118.335999999545
            }
         ]
      }
   ]
}
