{
   "objs" : [
      {
         "download" : {
            "s_time" : 0,
            "sendEnd" : 0,
            "dnsStart" : -1,
            "type" : "text/html",
            "receivedTime" : "35.9249999964959",
            "sendStart" : 0,
            "connectStart" : 0,
            "connectEnd" : 0,
            "len" : 28418,
            "sslStart" : -1,
            "dns" : 0,
            "dnsEnd" : -1,
            "receiveFirst" : 21,
            "receiveLast" : 14.9249999964959,
            "receiveHeadersEnd" : 21,
            "sslEnd" : -1,
            "id" : "download_0"
         },
         "id" : "r1",
         "comps" : [
            {
               "e_time" : 104.743999996572,
               "id" : "r1_c1",
               "time" : 68.6809999970139,
               "type" : "evalhtml",
               "s_time" : 36.0629999995581
            },
            {
               "s_time" : 117.694000000483,
               "type" : "evalhtml",
               "time" : 32.658999996784,
               "id" : "r1_c2",
               "e_time" : 150.352999997267
            },
            {
               "id" : "r1_c3",
               "e_time" : -60417267.009,
               "time" : -60417458.827,
               "type" : "evalhtml",
               "s_time" : 191.81799999933
            },
            {
               "type" : "evalhtml",
               "s_time" : 209.306999997352,
               "e_time" : -60417267.009,
               "id" : "r1_c4",
               "time" : -60417476.316
            },
            {
               "time" : 78.030000004219,
               "id" : "r1_c5",
               "e_time" : 287.440000000061,
               "s_time" : 209.409999995842,
               "type" : "evalhtml"
            }
         ],
         "when_comp_start" : 1,
         "url" : "http://original.testbed.localhost/www.nwupukkiverblyf.co.za/"
      },
      {
         "comps" : [
            {
               "time" : 3.0530000003637,
               "id" : "comp_0",
               "e_time" : 63.5529999999562,
               "s_time" : 60.4999999995925,
               "type" : 4
            }
         ],
         "id" : "r2",
         "download" : {
            "len" : 35212,
            "connectEnd" : 2,
            "sendStart" : 2,
            "connectStart" : 0,
            "receivedTime" : "60.4569999995874",
            "type" : "text/css",
            "dnsStart" : -1,
            "sendEnd" : 2,
            "s_time" : 36.5429999947082,
            "id" : "download_1",
            "sslEnd" : -1,
            "receiveHeadersEnd" : 23,
            "receiveLast" : 37.4569999995874,
            "receiveFirst" : 21,
            "dnsEnd" : -1,
            "dns" : 0,
            "sslStart" : -1
         },
         "url" : "http://original.testbed.localhost/www.nwupukkiverblyf.co.za/js/jquery-ui-1.11.4.custom/jquery-ui.css",
         "when_comp_start" : -1
      },
      {
         "comps" : [
            {
               "s_time" : 84.6079999973881,
               "type" : 1,
               "time" : 33.0860000030949,
               "e_time" : 117.694000000483,
               "id" : "comp_5"
            }
         ],
         "download" : {
            "dns" : 0,
            "sslStart" : -1,
            "receiveLast" : 58.5809999955236,
            "receiveFirst" : 24,
            "dnsEnd" : -1,
            "sslEnd" : -1,
            "receiveHeadersEnd" : 26,
            "id" : "download_2",
            "type" : "application/javascript",
            "dnsStart" : -1,
            "sendEnd" : 2,
            "s_time" : 36.6789999970933,
            "sendStart" : 2,
            "connectStart" : 0,
            "receivedTime" : "84.5809999955236",
            "connectEnd" : 2,
            "len" : 92629
         },
         "id" : "r3",
         "url" : "http://original.testbed.localhost/www.nwupukkiverblyf.co.za/js/jquery.js",
         "when_comp_start" : -1
      },
      {
         "comps" : [
            {
               "type" : 4,
               "s_time" : 80.0979999985429,
               "id" : "comp_1",
               "e_time" : 80.1189999983762,
               "time" : 0.0209999998332933
            }
         ],
         "id" : "r8",
         "download" : {
            "receivedTime" : "80.032999998366",
            "sendStart" : 21,
            "connectStart" : 0,
            "dnsStart" : 1,
            "type" : "text/css",
            "s_time" : 37.3029999973369,
            "sendEnd" : 21,
            "len" : 5265,
            "connectEnd" : 21,
            "receiveLast" : 38.032999998366,
            "receiveFirst" : 21,
            "dnsEnd" : 1,
            "sslStart" : -1,
            "dns" : 0,
            "id" : "download_3",
            "sslEnd" : -1,
            "receiveHeadersEnd" : 42
         },
         "url" : "http://original.testbed.localhost/www.nwupukkiverblyf.co.za/css/colors.css",
         "when_comp_start" : -1
      },
      {
         "comps" : [
            {
               "id" : "comp_2",
               "e_time" : 80.4329999955371,
               "time" : 0.0169999984791076,
               "type" : 4,
               "s_time" : 80.415999997058
            }
         ],
         "id" : "r7",
         "download" : {
            "id" : "download_4",
            "receiveHeadersEnd" : 42,
            "sslEnd" : -1,
            "dnsEnd" : 1,
            "receiveLast" : 38.3859999941778,
            "receiveFirst" : 21,
            "sslStart" : -1,
            "dns" : 0,
            "len" : 15719,
            "connectEnd" : 21,
            "receivedTime" : "80.3859999941778",
            "sendStart" : 21,
            "connectStart" : 0,
            "sendEnd" : 21,
            "s_time" : 37.1769999983371,
            "dnsStart" : 1,
            "type" : "text/css"
         },
         "url" : "http://original.testbed.localhost/www.nwupukkiverblyf.co.za/css/font-awesome.min.css",
         "when_comp_start" : -1
      },
      {
         "id" : "r6",
         "download" : {
            "dns" : 0,
            "sslStart" : -1,
            "receiveLast" : 37.6909999955678,
            "receiveFirst" : 22,
            "dnsEnd" : 1,
            "sslEnd" : -1,
            "receiveHeadersEnd" : 43,
            "id" : "download_5",
            "type" : "text/css",
            "dnsStart" : 1,
            "sendEnd" : 21,
            "s_time" : 37.0449999973061,
            "sendStart" : 21,
            "connectStart" : 0,
            "receivedTime" : "80.6909999955678",
            "connectEnd" : 21,
            "len" : 21709
         },
         "comps" : [
            {
               "time" : 0.0220000001718006,
               "id" : "comp_3",
               "e_time" : 80.7529999947292,
               "s_time" : 80.7309999945574,
               "type" : 4
            }
         ],
         "url" : "http://original.testbed.localhost/www.nwupukkiverblyf.co.za/css/bootstrap-responsive.css",
         "when_comp_start" : -1
      },
      {
         "url" : "http://original.testbed.localhost/www.nwupukkiverblyf.co.za/css/style.css",
         "when_comp_start" : -1,
         "comps" : [
            {
               "e_time" : 81.5099999963422,
               "id" : "comp_4",
               "time" : 0.0329999966197079,
               "type" : 4,
               "s_time" : 81.4769999997225
            }
         ],
         "download" : {
            "sslStart" : -1,
            "dns" : 0,
            "dnsEnd" : -1,
            "receiveLast" : 38.4389999941341,
            "receiveFirst" : 21,
            "receiveHeadersEnd" : 43,
            "sslEnd" : -1,
            "id" : "download_6",
            "sendEnd" : 22,
            "s_time" : 37.3980000003939,
            "dnsStart" : -1,
            "type" : "text/css",
            "receivedTime" : "81.4389999941341",
            "connectStart" : 0,
            "sendStart" : 22,
            "connectEnd" : 22,
            "len" : 18950
         },
         "id" : "r9"
      },
      {
         "url" : "http://original.testbed.localhost/www.nwupukkiverblyf.co.za/css/bootstrap.css",
         "when_comp_start" : -1,
         "id" : "r5",
         "download" : {
            "dns" : 0,
            "sslStart" : -1,
            "dnsEnd" : 1,
            "receiveLast" : 75.0139999962412,
            "receiveFirst" : 23,
            "receiveHeadersEnd" : 44,
            "sslEnd" : -1,
            "id" : "download_7",
            "sendEnd" : 21,
            "s_time" : 36.96299999865,
            "type" : "text/css",
            "dnsStart" : 1,
            "sendStart" : 21,
            "connectStart" : 0,
            "receivedTime" : "119.013999996241",
            "connectEnd" : 21,
            "len" : 132425
         },
         "comps" : [
            {
               "s_time" : 119.079999996757,
               "type" : 4,
               "time" : 0.210999998670999,
               "e_time" : 119.290999995428,
               "id" : "comp_9"
            }
         ]
      },
      {
         "download" : {
            "connectEnd" : 42,
            "len" : 202,
            "type" : "application/javascript",
            "dnsStart" : -1,
            "sendEnd" : 42,
            "s_time" : 37.8339999952004,
            "sendStart" : 42,
            "connectStart" : 0,
            "receivedTime" : "119.522999993933",
            "sslEnd" : -1,
            "receiveHeadersEnd" : 63,
            "id" : "download_8",
            "dns" : 0,
            "sslStart" : -1,
            "receiveLast" : 56.5229999939329,
            "receiveFirst" : 21,
            "dnsEnd" : -1
         },
         "id" : "r16",
         "comps" : [
            {
               "e_time" : 209.409999995842,
               "id" : "comp_18",
               "time" : 0.052999996114977,
               "type" : 1,
               "s_time" : 209.356999999727
            }
         ],
         "url" : "http://original.testbed.localhost/www.nwupukkiverblyf.co.za/js/custom.js",
         "when_comp_start" : -1
      },
      {
         "when_comp_start" : -1,
         "url" : "http://original.testbed.localhost/www.nwupukkiverblyf.co.za/js/bootstrap.min.js",
         "download" : {
            "len" : 28663,
            "connectEnd" : 42,
            "receivedTime" : "119.650000000547",
            "sendStart" : 42,
            "connectStart" : 0,
            "sendEnd" : 42,
            "s_time" : 37.7459999945131,
            "dnsStart" : -1,
            "type" : "application/javascript",
            "id" : "download_9",
            "receiveHeadersEnd" : 63,
            "sslEnd" : -1,
            "dnsEnd" : -1,
            "receiveLast" : 56.6500000005472,
            "receiveFirst" : 21,
            "sslStart" : -1,
            "dns" : 0
         },
         "id" : "r15",
         "comps" : [
            {
               "time" : 3.86399999842999,
               "id" : "comp_16",
               "e_time" : 209.306999997352,
               "s_time" : 205.442999998922,
               "type" : 1
            }
         ]
      },
      {
         "when_comp_start" : -1,
         "url" : "http://original.testbed.localhost/www.nwupukkiverblyf.co.za/images/pvlogo.png",
         "comps" : [],
         "download" : {
            "sendEnd" : 43,
            "s_time" : 37.4819999997271,
            "type" : "image/png",
            "dnsStart" : -1,
            "connectStart" : 0,
            "sendStart" : 43,
            "receivedTime" : "119.685999998183",
            "connectEnd" : 43,
            "len" : 6687,
            "dns" : 0,
            "sslStart" : -1,
            "dnsEnd" : -1,
            "receiveFirst" : 21,
            "receiveLast" : 55.6859999981825,
            "receiveHeadersEnd" : 64,
            "sslEnd" : -1,
            "id" : "download_10"
         },
         "id" : "r10"
      },
      {
         "url" : "http://original.testbed.localhost/www.nwupukkiverblyf.co.za/js/jquery-ui-1.11.4.custom/jquery-ui.min.js",
         "when_comp_start" : -1,
         "id" : "r4",
         "download" : {
            "id" : "download_11",
            "sslEnd" : -1,
            "receiveHeadersEnd" : 76,
            "receiveLast" : 74.2999999938766,
            "receiveFirst" : 33,
            "dnsEnd" : -1,
            "sslStart" : -1,
            "dns" : 0,
            "len" : 240427,
            "connectEnd" : 43,
            "receivedTime" : "150.299999993877",
            "connectStart" : 0,
            "sendStart" : 43,
            "dnsStart" : -1,
            "type" : "application/javascript",
            "sendEnd" : 43,
            "s_time" : 36.7999999944004
         },
         "comps" : [
            {
               "e_time" : 191.81799999933,
               "id" : "comp_12",
               "time" : 41.417000000365,
               "type" : 1,
               "s_time" : 150.400999998965
            }
         ]
      },
      {
         "url" : "http://original.testbed.localhost/www.nwupukkiverblyf.co.za/images/listings/lst1958_8800m_468639.jpg",
         "when_comp_start" : -1,
         "download" : {
            "dns" : 0,
            "sslStart" : -1,
            "receiveFirst" : 21,
            "receiveLast" : 258.420000000566,
            "dnsEnd" : -1,
            "sslEnd" : -1,
            "receiveHeadersEnd" : 29,
            "id" : "download_12",
            "type" : "image/jpeg",
            "dnsStart" : -1,
            "sendEnd" : 8,
            "s_time" : 104.743999996572,
            "sendStart" : 8,
            "connectStart" : 0,
            "receivedTime" : "287.420000000566",
            "connectEnd" : 8,
            "len" : 20703
         },
         "id" : "r11",
         "comps" : []
      },
      {
         "url" : "http://original.testbed.localhost/www.nwupukkiverblyf.co.za/images/listings/lst1914t1449839349c56m.jpg",
         "when_comp_start" : -1,
         "id" : "r12",
         "download" : {
            "sslStart" : -1,
            "dns" : 0,
            "receiveFirst" : 21,
            "receiveLast" : 266.603999997373,
            "dnsEnd" : -1,
            "sslEnd" : -1,
            "receiveHeadersEnd" : 21,
            "id" : "download_13",
            "dnsStart" : -1,
            "type" : "image/jpeg",
            "sendEnd" : 0,
            "s_time" : 150.129999994533,
            "receivedTime" : "287.603999997373",
            "connectStart" : 0,
            "sendStart" : 0,
            "connectEnd" : 0,
            "len" : 7146
         },
         "comps" : []
      },
      {
         "id" : "r13",
         "download" : {
            "id" : "download_14",
            "sslEnd" : -1,
            "receiveHeadersEnd" : 22,
            "receiveFirst" : 22,
            "receiveLast" : 266.745999998355,
            "dnsEnd" : -1,
            "sslStart" : -1,
            "dns" : 0,
            "len" : 20703,
            "connectEnd" : 0,
            "receivedTime" : "288.745999998355",
            "sendStart" : 0,
            "connectStart" : 0,
            "dnsStart" : -1,
            "type" : "image/jpeg",
            "sendEnd" : 0,
            "s_time" : 150.270999998611
         },
         "comps" : [],
         "when_comp_start" : -1,
         "url" : "http://original.testbed.localhost/www.nwupukkiverblyf.co.za/images/listings/lst2091_8800m_651779.jpg"
      },
      {
         "download" : {
            "sendEnd" : 0,
            "s_time" : 150.352999997267,
            "type" : "image/png",
            "dnsStart" : -1,
            "connectStart" : 0,
            "sendStart" : 0,
            "receivedTime" : "288.690999994287",
            "connectEnd" : 0,
            "len" : 7084,
            "dns" : 0,
            "sslStart" : -1,
            "dnsEnd" : -1,
            "receiveLast" : 266.690999994287,
            "receiveFirst" : 22,
            "receiveHeadersEnd" : 22,
            "sslEnd" : -1,
            "id" : "download_15"
         },
         "id" : "r14",
         "comps" : [],
         "url" : "http://original.testbed.localhost/placehold.it/370x210",
         "when_comp_start" : -1
      },
      {
         "url" : "http://original.testbed.localhost/www.nwupukkiverblyf.co.za/images/potch.jpg",
         "when_comp_start" : -1,
         "comps" : [],
         "id" : "r19",
         "download" : {
            "id" : "download_16",
            "sslEnd" : -1,
            "receiveHeadersEnd" : 20,
            "receiveLast" : 276.640999993542,
            "receiveFirst" : 20,
            "dnsEnd" : -1,
            "sslStart" : -1,
            "dns" : 0,
            "len" : 162556,
            "connectEnd" : 0,
            "receivedTime" : "296.640999993542",
            "connectStart" : 0,
            "sendStart" : 0,
            "dnsStart" : -1,
            "type" : "image/jpeg",
            "sendEnd" : 0,
            "s_time" : 214.914999996836
         }
      },
      {
         "download" : {
            "receivedTime" : "296.753999995417",
            "connectStart" : 0,
            "sendStart" : 0,
            "dnsStart" : -1,
            "type" : "image/png",
            "sendEnd" : 0,
            "s_time" : 225.54599999421,
            "len" : 56180,
            "connectEnd" : 0,
            "receiveLast" : 276.753999995417,
            "receiveFirst" : 20,
            "dnsEnd" : -1,
            "sslStart" : -1,
            "dns" : 0,
            "id" : "download_17",
            "sslEnd" : -1,
            "receiveHeadersEnd" : 20
         },
         "id" : "r20",
         "comps" : [],
         "when_comp_start" : -1,
         "url" : "http://original.testbed.localhost/www.nwupukkiverblyf.co.za/images/more-icon.png"
      },
      {
         "url" : "http://original.testbed.localhost/www.nwupukkiverblyf.co.za/js/jquery-ui-1.11.4.custom/images/ui-bg_flat_75_ffffff_40x100.png",
         "when_comp_start" : -1,
         "id" : "r21",
         "download" : {
            "id" : "download_18",
            "sslEnd" : -1,
            "receiveHeadersEnd" : 20,
            "receiveLast" : 298.287999994936,
            "receiveFirst" : 20,
            "dnsEnd" : -1,
            "dns" : 0,
            "sslStart" : -1,
            "len" : 208,
            "connectEnd" : 0,
            "connectStart" : 0,
            "sendStart" : 0,
            "receivedTime" : "318.287999994936",
            "type" : "image/png",
            "dnsStart" : -1,
            "sendEnd" : 0,
            "s_time" : 286.768999998458
         },
         "comps" : []
      },
      {
         "url" : "http://original.testbed.localhost/www.nwupukkiverblyf.co.za/font/fontawesome-webfont.woff%3Fv=3.0.1",
         "when_comp_start" : -1,
         "download" : {
            "dnsStart" : -1,
            "type" : "application/octet-stream",
            "sendEnd" : 0,
            "s_time" : 287.440000000061,
            "receivedTime" : "318.471999999019",
            "connectStart" : 0,
            "sendStart" : 0,
            "connectEnd" : 0,
            "len" : 29380,
            "sslStart" : -1,
            "dns" : 0,
            "receiveLast" : 298.471999999019,
            "receiveFirst" : 20,
            "dnsEnd" : -1,
            "sslEnd" : -1,
            "receiveHeadersEnd" : 20,
            "id" : "download_19"
         },
         "id" : "r17",
         "comps" : []
      }
   ],
   "load_activity" : -1,
   "start_activity" : "download_0",
   "deps" : [
      {
         "a1" : "comp_5",
         "time" : -1,
         "a2" : "r1_c2",
         "id" : "dep1"
      },
      {
         "a1" : "comp_12",
         "time" : -1,
         "a2" : "r1_c3",
         "id" : "dep2"
      },
      {
         "time" : -1,
         "a1" : "comp_16",
         "id" : "dep3",
         "a2" : "r1_c4"
      },
      {
         "a1" : "comp_18",
         "time" : -1,
         "a2" : "r1_c5",
         "id" : "dep4"
      },
      {
         "id" : "dep5",
         "a2" : "comp_5",
         "time" : -1,
         "a1" : "comp_0"
      },
      {
         "id" : "dep6",
         "a2" : "comp_12",
         "time" : -1,
         "a1" : "comp_5"
      },
      {
         "a1" : "comp_16",
         "time" : -1,
         "a2" : "comp_18",
         "id" : "dep7"
      },
      {
         "a2" : "download_19",
         "id" : "dep8",
         "a1" : "r1_c5",
         "time" : -1
      },
      {
         "a1" : "r1_c5",
         "time" : 77.359000002616,
         "a2" : "download_18",
         "id" : "dep9"
      },
      {
         "id" : "dep10",
         "a2" : "download_17",
         "time" : 16.135999998368,
         "a1" : "r1_c5"
      },
      {
         "time" : 5.50500000099402,
         "a1" : "r1_c5",
         "id" : "dep11",
         "a2" : "download_16"
      },
      {
         "a2" : "download_15",
         "id" : "dep12",
         "a1" : "r1_c2",
         "time" : -1
      },
      {
         "time" : 32.576999998128,
         "a1" : "r1_c2",
         "id" : "dep13",
         "a2" : "download_14"
      },
      {
         "id" : "dep14",
         "a2" : "download_13",
         "time" : 32.43599999405,
         "a1" : "r1_c2"
      },
      {
         "a2" : "download_12",
         "id" : "dep15",
         "a1" : "r1_c1",
         "time" : -1
      },
      {
         "a2" : "download_11",
         "id" : "dep16",
         "a1" : "r1_c1",
         "time" : 0.7369999948423
      },
      {
         "id" : "dep17",
         "a2" : "download_11",
         "time" : 0.7369999948423,
         "a1" : "r1_c1"
      },
      {
         "time" : 1.419000000169,
         "a1" : "r1_c1",
         "id" : "dep18",
         "a2" : "download_10"
      },
      {
         "a2" : "download_10",
         "id" : "dep19",
         "a1" : "r1_c1",
         "time" : 1.419000000169
      },
      {
         "a2" : "download_9",
         "id" : "dep20",
         "a1" : "r1_c1",
         "time" : 1.682999994955
      },
      {
         "id" : "dep21",
         "a2" : "download_9",
         "time" : 1.682999994955,
         "a1" : "r1_c1"
      },
      {
         "id" : "dep22",
         "a2" : "download_8",
         "time" : 1.7709999956423,
         "a1" : "r1_c1"
      },
      {
         "time" : 1.7709999956423,
         "a1" : "r1_c1",
         "id" : "dep23",
         "a2" : "download_8"
      },
      {
         "a2" : "download_7",
         "id" : "dep24",
         "a1" : "r1_c1",
         "time" : 0.899999999091897
      },
      {
         "id" : "dep25",
         "a2" : "download_7",
         "time" : 0.899999999091897,
         "a1" : "r1_c1"
      },
      {
         "a2" : "download_6",
         "id" : "dep26",
         "a1" : "r1_c1",
         "time" : 1.3350000008358
      },
      {
         "time" : 1.3350000008358,
         "a1" : "r1_c1",
         "id" : "dep27",
         "a2" : "download_6"
      },
      {
         "time" : 0.981999997747998,
         "a1" : "r1_c1",
         "id" : "dep28",
         "a2" : "download_5"
      },
      {
         "a2" : "download_5",
         "id" : "dep29",
         "a1" : "r1_c1",
         "time" : 0.981999997747998
      },
      {
         "a1" : "r1_c1",
         "time" : 1.113999998779,
         "a2" : "download_4",
         "id" : "dep30"
      },
      {
         "id" : "dep31",
         "a2" : "download_4",
         "time" : 1.113999998779,
         "a1" : "r1_c1"
      },
      {
         "a1" : "r1_c1",
         "time" : 1.2399999977788,
         "a2" : "download_3",
         "id" : "dep32"
      },
      {
         "a1" : "r1_c1",
         "time" : 1.2399999977788,
         "a2" : "download_3",
         "id" : "dep33"
      },
      {
         "a2" : "download_2",
         "id" : "dep34",
         "a1" : "r1_c1",
         "time" : 0.615999997535198
      },
      {
         "id" : "dep35",
         "a2" : "download_1",
         "time" : 0.479999995150095,
         "a1" : "r1_c1"
      }
   ],
   "n_download_no_trigger" : 1,
   "name" : "original.testbed.localhost_www.nwupukkiverblyf.co.za_"
}
