{
   "objs" : [
      {
         "url" : "http://original.testbed.localhost/www.live.com/",
         "when_comp_start" : 1,
         "id" : "r1",
         "comps" : [
            {
               "id" : "r1_c1",
               "time" : 3.0780000015511,
               "s_time" : 37.8749999945285,
               "type" : "evalhtml",
               "e_time" : 40.9529999960796
            },
            {
               "time" : -50493524.627,
               "type" : "evalhtml",
               "s_time" : 90.0409999958356,
               "e_time" : -50493434.586,
               "id" : "r1_c2"
            },
            {
               "time" : -50493567.578,
               "s_time" : 132.991999998922,
               "e_time" : -50493434.586,
               "type" : "evalhtml",
               "id" : "r1_c3"
            },
            {
               "time" : 0.223000002734011,
               "type" : "evalhtml",
               "e_time" : 134.735999999975,
               "s_time" : 134.512999997241,
               "id" : "r1_c4"
            }
         ],
         "download" : {
            "sslStart" : -1,
            "sendStart" : 0,
            "receiveFirst" : 21,
            "len" : 9976,
            "receiveHeadersEnd" : 21,
            "dnsStart" : -1,
            "s_time" : 0,
            "type" : "text/html",
            "receiveLast" : 16.6459999970393,
            "receivedTime" : "37.6459999970393",
            "connectEnd" : 0,
            "connectStart" : 0,
            "dns" : 0,
            "sendEnd" : 0,
            "id" : "download_0",
            "dnsEnd" : -1,
            "sslEnd" : -1
         }
      },
      {
         "url" : "http://original.testbed.localhost/auth.gfx.ms/16.000.26267.00/Default1033.css",
         "when_comp_start" : -1,
         "id" : "r2",
         "comps" : [
            {
               "id" : "comp_6",
               "e_time" : 90.1349999985541,
               "s_time" : 81.3869999983581,
               "type" : 4,
               "time" : 8.74800000019599
            }
         ],
         "download" : {
            "receiveLast" : 59.307000000379,
            "type" : "text/css",
            "s_time" : 38.7069999997038,
            "dnsStart" : -1,
            "receiveHeadersEnd" : 22,
            "len" : 73727,
            "receiveFirst" : 22,
            "sendStart" : 0,
            "sslStart" : -1,
            "sslEnd" : -1,
            "dnsEnd" : -1,
            "id" : "download_1",
            "sendEnd" : 0,
            "dns" : 0,
            "connectStart" : 0,
            "connectEnd" : 0,
            "receivedTime" : "81.307000000379"
         }
      },
      {
         "download" : {
            "dnsStart" : -1,
            "receiveHeadersEnd" : 21,
            "receiveLast" : 41.6389999961248,
            "type" : "application/javascript",
            "s_time" : 40.8389999938663,
            "len" : 9898,
            "receiveFirst" : 21,
            "sslStart" : -1,
            "sendStart" : 0,
            "dnsEnd" : -1,
            "sslEnd" : -1,
            "id" : "download_2",
            "dns" : 0,
            "sendEnd" : 0,
            "connectEnd" : 0,
            "receivedTime" : "62.6389999961248",
            "connectStart" : 0
         },
         "comps" : [
            {
               "id" : "comp_10",
               "time" : 1.52499999967401,
               "s_time" : 88.5159999961616,
               "e_time" : 90.0409999958356,
               "type" : 1
            }
         ],
         "id" : "r3",
         "when_comp_start" : -1,
         "url" : "http://original.testbed.localhost/auth.gfx.ms/16.000.26267.00/DefaultLoginStrings1033.js"
      },
      {
         "url" : "http://original.testbed.localhost/auth.gfx.ms/16.000.26267.00/DefaultLogin_Core.js",
         "when_comp_start" : -1,
         "id" : "r4",
         "download" : {
            "connectStart" : 0,
            "connectEnd" : 21,
            "receivedTime" : "108.959999997751",
            "sendEnd" : 21,
            "dns" : 0,
            "id" : "download_3",
            "sslEnd" : -1,
            "dnsEnd" : 0,
            "sendStart" : 21,
            "sslStart" : -1,
            "len" : 125263,
            "receiveFirst" : 25,
            "receiveLast" : 62.9599999977509,
            "s_time" : 40.9529999960796,
            "type" : "application/javascript",
            "dnsStart" : 0,
            "receiveHeadersEnd" : 46
         },
         "comps" : [
            {
               "id" : "comp_18",
               "s_time" : 109.033999993699,
               "e_time" : 132.991999998922,
               "type" : 1,
               "time" : 23.958000005223
            }
         ]
      }
   ],
   "deps" : [
      {
         "a1" : "comp_10",
         "time" : -1,
         "a2" : "r1_c2",
         "id" : "dep1"
      },
      {
         "a2" : "r1_c3",
         "time" : -1,
         "a1" : "comp_18",
         "id" : "dep2"
      },
      {
         "id" : "dep3",
         "time" : -1,
         "a2" : "r1_c4",
         "a1" : "comp_20"
      },
      {
         "a1" : "comp_10",
         "time" : -1,
         "a2" : "comp_18",
         "id" : "dep4"
      },
      {
         "time" : -1,
         "a2" : "download_3",
         "a1" : "r1_c1",
         "id" : "dep5"
      },
      {
         "id" : "dep6",
         "a1" : "r1_c1",
         "a2" : "download_3",
         "time" : 3.0780000015511
      },
      {
         "a1" : "r1_c1",
         "a2" : "download_2",
         "time" : 2.9639999993378,
         "id" : "dep7"
      },
      {
         "time" : 2.9639999993378,
         "a2" : "download_2",
         "a1" : "r1_c1",
         "id" : "dep8"
      },
      {
         "id" : "dep9",
         "time" : 0.832000005175296,
         "a2" : "download_1",
         "a1" : "r1_c1"
      }
   ],
   "n_download_no_trigger" : 1,
   "name" : "original.testbed.localhost_www.live.com_",
   "load_activity" : -1,
   "start_activity" : "download_0"
}
