{
   "name" : "original.testbed.localhost_www.dutchview.us_",
   "n_download_no_trigger" : 1,
   "deps" : [
      {
         "a2" : "r1_c2",
         "id" : "dep1",
         "a1" : "comp_20",
         "time" : -1
      },
      {
         "time" : -1,
         "a1" : "comp_21",
         "id" : "dep2",
         "a2" : "r1_c3"
      },
      {
         "time" : -1,
         "a2" : "r1_c4",
         "id" : "dep3",
         "a1" : "comp_22"
      },
      {
         "time" : -1,
         "a2" : "r1_c5",
         "a1" : "comp_23",
         "id" : "dep4"
      },
      {
         "id" : "dep5",
         "a1" : "comp_24",
         "a2" : "r1_c6",
         "time" : -1
      },
      {
         "time" : -1,
         "a2" : "r1_c7",
         "id" : "dep6",
         "a1" : "comp_25"
      },
      {
         "a2" : "r1_c8",
         "a1" : "comp_26",
         "id" : "dep7",
         "time" : -1
      },
      {
         "id" : "dep8",
         "a1" : "comp_27",
         "a2" : "r1_c9",
         "time" : -1
      },
      {
         "time" : -1,
         "id" : "dep9",
         "a1" : "comp_28",
         "a2" : "r1_c10"
      },
      {
         "id" : "dep10",
         "a1" : "comp_29",
         "a2" : "r1_c11",
         "time" : -1
      },
      {
         "time" : -1,
         "a2" : "r1_c12",
         "id" : "dep11",
         "a1" : "comp_30"
      },
      {
         "a2" : "r1_c13",
         "a1" : "comp_31",
         "id" : "dep12",
         "time" : -1
      },
      {
         "time" : -1,
         "id" : "dep13",
         "a1" : "comp_32",
         "a2" : "r1_c14"
      },
      {
         "time" : -1,
         "a2" : "r1_c15",
         "id" : "dep14",
         "a1" : "comp_33"
      },
      {
         "id" : "dep15",
         "a1" : "comp_34",
         "a2" : "r1_c16",
         "time" : -1
      },
      {
         "id" : "dep16",
         "a1" : "comp_35",
         "a2" : "r1_c17",
         "time" : -1
      },
      {
         "time" : -1,
         "a1" : "comp_36",
         "id" : "dep17",
         "a2" : "r1_c18"
      },
      {
         "time" : -1,
         "a1" : "comp_37",
         "id" : "dep18",
         "a2" : "r1_c19"
      }
   ],
   "start_activity" : "download_0",
   "load_activity" : -1,
   "objs" : [
      {
         "comps" : [
            {
               "type" : "evalhtml",
               "id" : "r1_c1",
               "e_time" : -50148893.801,
               "s_time" : 33.2390000039595,
               "time" : -50148927.04
            },
            {
               "id" : "r1_c2",
               "type" : "evalhtml",
               "s_time" : 41.5960000027553,
               "time" : -50148935.397,
               "e_time" : -50148893.801
            },
            {
               "type" : "evalhtml",
               "id" : "r1_c3",
               "e_time" : -50148893.801,
               "time" : -50148935.491,
               "s_time" : 41.6899999981979
            },
            {
               "type" : "evalhtml",
               "id" : "r1_c4",
               "e_time" : -50148893.801,
               "s_time" : 41.746000002604,
               "time" : -50148935.547
            },
            {
               "e_time" : -50148893.801,
               "s_time" : 41.7910000032862,
               "time" : -50148935.592,
               "type" : "evalhtml",
               "id" : "r1_c5"
            },
            {
               "s_time" : 42.503000004217,
               "time" : -50148936.304,
               "e_time" : -50148893.801,
               "id" : "r1_c6",
               "type" : "evalhtml"
            },
            {
               "time" : -50148936.429,
               "s_time" : 42.6280000028783,
               "e_time" : -50148893.801,
               "id" : "r1_c7",
               "type" : "evalhtml"
            },
            {
               "id" : "r1_c8",
               "type" : "evalhtml",
               "s_time" : 42.6770000049146,
               "time" : -50148936.478,
               "e_time" : -50148893.801
            },
            {
               "e_time" : -50148893.801,
               "time" : -50148936.522,
               "s_time" : 42.7210000052582,
               "type" : "evalhtml",
               "id" : "r1_c9"
            },
            {
               "time" : -50148936.679,
               "s_time" : 42.8780000002007,
               "e_time" : -50148893.801,
               "id" : "r1_c10",
               "type" : "evalhtml"
            },
            {
               "s_time" : 42.9369999983464,
               "time" : -50148936.738,
               "e_time" : -50148893.801,
               "id" : "r1_c11",
               "type" : "evalhtml"
            },
            {
               "type" : "evalhtml",
               "id" : "r1_c12",
               "e_time" : -50148893.801,
               "time" : -50148937.839,
               "s_time" : 44.0380000000005
            },
            {
               "e_time" : -50148893.801,
               "time" : -50148938.291,
               "s_time" : 44.4900000002235,
               "type" : "evalhtml",
               "id" : "r1_c13"
            },
            {
               "e_time" : -50148893.801,
               "s_time" : 44.5420000032755,
               "time" : -50148938.343,
               "type" : "evalhtml",
               "id" : "r1_c14"
            },
            {
               "s_time" : 44.5919999983744,
               "time" : -50148938.393,
               "e_time" : -50148893.801,
               "id" : "r1_c15",
               "type" : "evalhtml"
            },
            {
               "type" : "evalhtml",
               "id" : "r1_c16",
               "e_time" : -50148893.801,
               "time" : -50148938.439,
               "s_time" : 44.6379999993951
            },
            {
               "type" : "evalhtml",
               "id" : "r1_c17",
               "e_time" : -50148893.801,
               "time" : -50148938.484,
               "s_time" : 44.6830000000773
            },
            {
               "time" : -50148938.53,
               "s_time" : 44.729000001098,
               "e_time" : -50148893.801,
               "id" : "r1_c18",
               "type" : "evalhtml"
            },
            {
               "type" : "evalhtml",
               "id" : "r1_c19",
               "e_time" : 47.9449999984354,
               "time" : 3.006999999343,
               "s_time" : 44.9379999990924
            }
         ],
         "download" : {
            "connectEnd" : 0,
            "sendStart" : 0,
            "receivedTime" : "31.9860000017798",
            "dnsStart" : -1,
            "sslEnd" : -1,
            "receiveFirst" : 21,
            "s_time" : 0,
            "sslStart" : -1,
            "len" : 21330,
            "dns" : 0,
            "type" : "text/html",
            "id" : "download_0",
            "dnsEnd" : -1,
            "connectStart" : 0,
            "receiveHeadersEnd" : 21,
            "receiveLast" : 10.9860000017798,
            "sendEnd" : 0
         },
         "when_comp_start" : 1,
         "id" : "r1",
         "url" : "http://original.testbed.localhost/www.dutchview.us/"
      }
   ]
}
