{
   "n_download_no_trigger" : 3,
   "name" : "original.testbed.localhost_www.cnbc.com_",
   "start_activity" : "download_0",
   "deps" : [
      {
         "id" : "dep1",
         "a2" : "r1_c2",
         "a1" : "comp_11",
         "time" : -1
      },
      {
         "id" : "dep2",
         "a2" : "r1_c3",
         "a1" : "comp_38",
         "time" : -1
      },
      {
         "a2" : "r1_c4",
         "a1" : "comp_39",
         "id" : "dep3",
         "time" : -1
      },
      {
         "a2" : "r1_c5",
         "id" : "dep4",
         "a1" : "comp_41",
         "time" : -1
      },
      {
         "a1" : "comp_58",
         "a2" : "r1_c6",
         "id" : "dep5",
         "time" : -1
      },
      {
         "time" : -1,
         "a2" : "r1_c7",
         "a1" : "comp_64",
         "id" : "dep6"
      },
      {
         "a2" : "r1_c8",
         "id" : "dep7",
         "a1" : "comp_109",
         "time" : -1
      },
      {
         "time" : -1,
         "a2" : "r1_c9",
         "a1" : "comp_121",
         "id" : "dep8"
      },
      {
         "time" : -1,
         "a1" : "comp_122",
         "a2" : "r1_c10",
         "id" : "dep9"
      },
      {
         "time" : -1,
         "a2" : "r1_c11",
         "id" : "dep10",
         "a1" : "comp_127"
      },
      {
         "a2" : "r1_c12",
         "id" : "dep11",
         "a1" : "comp_129",
         "time" : -1
      },
      {
         "a2" : "r1_c13",
         "id" : "dep12",
         "a1" : "comp_131",
         "time" : -1
      },
      {
         "a2" : "r1_c14",
         "id" : "dep13",
         "a1" : "comp_134",
         "time" : -1
      },
      {
         "time" : -1,
         "a2" : "r1_c15",
         "id" : "dep14",
         "a1" : "comp_137"
      },
      {
         "time" : -1,
         "a2" : "r1_c16",
         "id" : "dep15",
         "a1" : "comp_141"
      },
      {
         "time" : -1,
         "id" : "dep16",
         "a2" : "r1_c17",
         "a1" : "comp_144"
      },
      {
         "a2" : "r1_c18",
         "id" : "dep17",
         "a1" : "comp_147",
         "time" : -1
      },
      {
         "a1" : "comp_152",
         "a2" : "r1_c19",
         "id" : "dep18",
         "time" : -1
      },
      {
         "a2" : "r1_c20",
         "a1" : "comp_160",
         "id" : "dep19",
         "time" : -1
      },
      {
         "a2" : "r1_c21",
         "id" : "dep20",
         "a1" : "comp_169",
         "time" : -1
      },
      {
         "a2" : "r1_c22",
         "id" : "dep21",
         "a1" : "comp_172",
         "time" : -1
      },
      {
         "a2" : "comp_39",
         "id" : "dep22",
         "a1" : "comp_38",
         "time" : -1
      },
      {
         "time" : -1,
         "id" : "dep23",
         "a2" : "comp_64",
         "a1" : "comp_63"
      },
      {
         "a2" : "comp_109",
         "a1" : "comp_63",
         "id" : "dep24",
         "time" : -1
      },
      {
         "time" : -1,
         "a2" : "comp_122",
         "id" : "dep25",
         "a1" : "comp_121"
      },
      {
         "time" : -1,
         "a2" : "comp_127",
         "a1" : "comp_122",
         "id" : "dep26"
      },
      {
         "time" : -1,
         "a2" : "comp_129",
         "a1" : "comp_127",
         "id" : "dep27"
      },
      {
         "time" : -1,
         "a2" : "comp_131",
         "a1" : "comp_129",
         "id" : "dep28"
      },
      {
         "a2" : "comp_134",
         "id" : "dep29",
         "a1" : "comp_131",
         "time" : -1
      },
      {
         "time" : -1,
         "a1" : "comp_134",
         "a2" : "comp_137",
         "id" : "dep30"
      },
      {
         "time" : -1,
         "a2" : "comp_144",
         "id" : "dep31",
         "a1" : "comp_141"
      },
      {
         "a2" : "comp_147",
         "a1" : "comp_144",
         "id" : "dep32",
         "time" : -1
      },
      {
         "a2" : "download_62",
         "id" : "dep33",
         "a1" : "r1_c20",
         "time" : -1
      },
      {
         "time" : 0.179000002389785,
         "id" : "dep34",
         "a2" : "download_62",
         "a1" : "r1_c20"
      },
      {
         "a2" : "download_61",
         "a1" : "r1_c19",
         "id" : "dep35",
         "time" : -1
      },
      {
         "a1" : "r1_c19",
         "a2" : "download_61",
         "id" : "dep36",
         "time" : 83.9139999952799
      },
      {
         "a2" : "download_60",
         "a1" : "r1_c12",
         "id" : "dep37",
         "time" : -1
      },
      {
         "a1" : "r1_c12",
         "a2" : "download_60",
         "id" : "dep38",
         "time" : 0.409000000217929
      },
      {
         "time" : -1,
         "a1" : "r1_c12",
         "a2" : "download_59",
         "id" : "dep39"
      },
      {
         "time" : 1.13300000521099,
         "a1" : "r1_c12",
         "a2" : "download_59",
         "id" : "dep40"
      },
      {
         "a2" : "download_58",
         "a1" : "r1_c12",
         "id" : "dep41",
         "time" : 0.900000006367918
      },
      {
         "a1" : "r1_c12",
         "a2" : "download_58",
         "id" : "dep42",
         "time" : 0.900000006367918
      },
      {
         "a2" : "download_57",
         "id" : "dep43",
         "a1" : "r1_c12",
         "time" : 0.75099999958195
      },
      {
         "time" : 0.75099999958195,
         "a2" : "download_57",
         "a1" : "r1_c12",
         "id" : "dep44"
      },
      {
         "time" : 0.609000002441917,
         "id" : "dep45",
         "a2" : "download_56",
         "a1" : "r1_c12"
      },
      {
         "a2" : "download_56",
         "id" : "dep46",
         "a1" : "r1_c12",
         "time" : 0.609000002441917
      },
      {
         "time" : -1,
         "a1" : "r1_c11",
         "a2" : "download_55",
         "id" : "dep47"
      },
      {
         "time" : 0.680999997712092,
         "a2" : "download_55",
         "a1" : "r1_c11",
         "id" : "dep48"
      },
      {
         "time" : 0.498999994306018,
         "a2" : "download_54",
         "id" : "dep49",
         "a1" : "r1_c11"
      },
      {
         "time" : 0.498999994306018,
         "a1" : "r1_c11",
         "a2" : "download_54",
         "id" : "dep50"
      },
      {
         "time" : -1,
         "id" : "dep51",
         "a2" : "download_53",
         "a1" : "r1_c8"
      },
      {
         "a1" : "r1_c8",
         "a2" : "download_53",
         "id" : "dep52",
         "time" : 73.9140000005129
      },
      {
         "a1" : "r1_c8",
         "a2" : "download_52",
         "id" : "dep53",
         "time" : 1.30999999964797
      },
      {
         "time" : 1.30999999964797,
         "a2" : "download_52",
         "id" : "dep54",
         "a1" : "r1_c8"
      },
      {
         "a2" : "download_51",
         "a1" : "r1_c7",
         "id" : "dep55",
         "time" : -1
      },
      {
         "time" : 46.540000003006,
         "id" : "dep56",
         "a2" : "download_51",
         "a1" : "r1_c7"
      },
      {
         "time" : -1,
         "a2" : "download_50",
         "a1" : "r1_c6",
         "id" : "dep57"
      },
      {
         "a2" : "download_50",
         "id" : "dep58",
         "a1" : "r56_c1",
         "time" : 19.4719999999501
      },
      {
         "time" : 30.338000004121,
         "id" : "dep59",
         "a2" : "download_50",
         "a1" : "r1_c6"
      },
      {
         "time" : 0.486999997520002,
         "a2" : "download_49",
         "id" : "dep60",
         "a1" : "r56_c1"
      },
      {
         "time" : 11.3530000016909,
         "a1" : "r1_c6",
         "a2" : "download_49",
         "id" : "dep61"
      },
      {
         "time" : 0.782999995863065,
         "a2" : "download_48",
         "a1" : "r56_c1",
         "id" : "dep62"
      },
      {
         "id" : "dep63",
         "a2" : "download_48",
         "a1" : "r1_c6",
         "time" : 11.649000000034
      },
      {
         "time" : -1,
         "a2" : "download_47",
         "id" : "dep64",
         "a1" : "r1_c5"
      },
      {
         "time" : 191.769999997632,
         "a2" : "download_47",
         "a1" : "r1_c5",
         "id" : "dep65"
      },
      {
         "time" : 191.534999998112,
         "a1" : "r1_c5",
         "a2" : "download_46",
         "id" : "dep66"
      },
      {
         "time" : 191.534999998112,
         "a2" : "download_46",
         "a1" : "r1_c5",
         "id" : "dep67"
      },
      {
         "time" : 191.440000002331,
         "id" : "dep68",
         "a2" : "download_45",
         "a1" : "r1_c5"
      },
      {
         "a1" : "r1_c5",
         "a2" : "download_45",
         "id" : "dep69",
         "time" : 191.440000002331
      },
      {
         "a1" : "r1_c5",
         "a2" : "download_44",
         "id" : "dep70",
         "time" : 191.206000003149
      },
      {
         "time" : 191.206000003149,
         "id" : "dep71",
         "a2" : "download_44",
         "a1" : "r1_c5"
      },
      {
         "time" : 191.608000000997,
         "a2" : "download_43",
         "a1" : "r1_c5",
         "id" : "dep72"
      },
      {
         "a1" : "r1_c5",
         "a2" : "download_43",
         "id" : "dep73",
         "time" : 191.608000000997
      },
      {
         "time" : 191.135000000941,
         "a2" : "download_42",
         "a1" : "r1_c5",
         "id" : "dep74"
      },
      {
         "time" : 191.135000000941,
         "id" : "dep75",
         "a2" : "download_42",
         "a1" : "r1_c5"
      },
      {
         "id" : "dep76",
         "a2" : "download_41",
         "a1" : "r1_c5",
         "time" : 191.052000001946
      },
      {
         "id" : "dep77",
         "a2" : "download_41",
         "a1" : "r1_c5",
         "time" : 191.052000001946
      },
      {
         "time" : 190.939000000072,
         "id" : "dep78",
         "a2" : "download_40",
         "a1" : "r1_c5"
      },
      {
         "time" : 190.277000001516,
         "a2" : "download_39",
         "a1" : "r1_c5",
         "id" : "dep79"
      },
      {
         "a1" : "r1_c5",
         "a2" : "download_38",
         "id" : "dep80",
         "time" : 189.181000001554
      },
      {
         "id" : "dep81",
         "a2" : "download_37",
         "a1" : "r1_c5",
         "time" : 189.06099999731
      },
      {
         "time" : 87.793999999122,
         "a2" : "download_34",
         "a1" : "r1_c5",
         "id" : "dep82"
      },
      {
         "time" : 72.330000002694,
         "a1" : "r1_c5",
         "a2" : "download_33",
         "id" : "dep83"
      },
      {
         "id" : "dep84",
         "a2" : "download_32",
         "a1" : "r1_c5",
         "time" : 67.862999996578
      },
      {
         "time" : 29.288999998244,
         "id" : "dep85",
         "a2" : "download_31",
         "a1" : "r1_c5"
      },
      {
         "a1" : "r1_c5",
         "a2" : "download_30",
         "id" : "dep86",
         "time" : 29.120999999577
      },
      {
         "time" : 26.620999997249,
         "a2" : "download_29",
         "a1" : "r1_c5",
         "id" : "dep87"
      },
      {
         "time" : 12.463999999455,
         "a2" : "download_28",
         "id" : "dep88",
         "a1" : "r1_c5"
      },
      {
         "time" : -1,
         "a2" : "download_27",
         "a1" : "r1_c4",
         "id" : "dep89"
      },
      {
         "a1" : "r1_c4",
         "a2" : "download_27",
         "id" : "dep90",
         "time" : 4.251999998814
      },
      {
         "time" : 4.172999993898,
         "a2" : "download_26",
         "id" : "dep91",
         "a1" : "r1_c4"
      },
      {
         "time" : 4.172999993898,
         "id" : "dep92",
         "a2" : "download_26",
         "a1" : "r1_c4"
      },
      {
         "time" : 1.87899999582399,
         "id" : "dep93",
         "a2" : "download_25",
         "a1" : "r1_c4"
      },
      {
         "a2" : "download_24",
         "a1" : "r1_c4",
         "id" : "dep94",
         "time" : 1.75999999919401
      },
      {
         "time" : 1.36899999779399,
         "a2" : "download_23",
         "id" : "dep95",
         "a1" : "r1_c4"
      },
      {
         "a2" : "download_22",
         "id" : "dep96",
         "a1" : "r1_c3",
         "time" : -1
      },
      {
         "time" : 22.439000000304,
         "id" : "dep97",
         "a2" : "download_21",
         "a1" : "r1_c3"
      },
      {
         "a1" : "r1_c3",
         "a2" : "download_20",
         "id" : "dep98",
         "time" : 22.380000002158
      },
      {
         "a1" : "r1_c3",
         "a2" : "download_19",
         "id" : "dep99",
         "time" : 22.324999998091
      },
      {
         "id" : "dep100",
         "a2" : "download_18",
         "a1" : "r1_c3",
         "time" : 22.256000003835
      },
      {
         "a2" : "download_17",
         "id" : "dep101",
         "a1" : "r1_c3",
         "time" : 22.207000001799
      },
      {
         "time" : 22.109999998065,
         "a2" : "download_16",
         "id" : "dep102",
         "a1" : "r1_c3"
      },
      {
         "time" : 21.871000004466,
         "a2" : "download_15",
         "id" : "dep103",
         "a1" : "r1_c3"
      },
      {
         "a2" : "download_14",
         "a1" : "r1_c3",
         "id" : "dep104",
         "time" : 22.045999998227
      },
      {
         "a2" : "download_13",
         "a1" : "r1_c3",
         "id" : "dep105",
         "time" : 21.988000000419
      },
      {
         "time" : 18.371999998635,
         "a1" : "r1_c3",
         "a2" : "download_12",
         "id" : "dep106"
      },
      {
         "time" : -1,
         "id" : "dep107",
         "a2" : "download_11",
         "a1" : "r1_c2"
      },
      {
         "id" : "dep108",
         "a2" : "download_10",
         "a1" : "r1_c2",
         "time" : 93.4669999987815
      },
      {
         "time" : 93.4669999987815,
         "a2" : "download_10",
         "id" : "dep109",
         "a1" : "r1_c2"
      },
      {
         "a2" : "download_9",
         "id" : "dep110",
         "a1" : "r1_c2",
         "time" : 93.3609999992765
      },
      {
         "a2" : "download_8",
         "a1" : "r1_c2",
         "id" : "dep111",
         "time" : 93.5769999996405
      },
      {
         "a2" : "download_8",
         "a1" : "r1_c2",
         "id" : "dep112",
         "time" : 93.5769999996405
      },
      {
         "time" : 93.7399999966145,
         "a2" : "download_7",
         "a1" : "r1_c2",
         "id" : "dep113"
      },
      {
         "time" : 93.7399999966145,
         "a1" : "r1_c2",
         "a2" : "download_7",
         "id" : "dep114"
      },
      {
         "a2" : "download_6",
         "a1" : "r1_c1",
         "id" : "dep115",
         "time" : -1
      },
      {
         "time" : -1,
         "a1" : "r1_c1",
         "a2" : "download_5",
         "id" : "dep116"
      },
      {
         "a2" : "download_5",
         "a1" : "r1_c1",
         "id" : "dep117",
         "time" : 1.33800000185141
      },
      {
         "time" : -1,
         "a2" : "download_4",
         "id" : "dep118",
         "a1" : "r1_c1"
      },
      {
         "a2" : "download_4",
         "id" : "dep119",
         "a1" : "r1_c1",
         "time" : 1.42200000118461
      },
      {
         "id" : "dep120",
         "a2" : "download_3",
         "a1" : "r1_c1",
         "time" : -1
      },
      {
         "time" : 1.5970000022207,
         "a2" : "download_3",
         "a1" : "r1_c1",
         "id" : "dep121"
      },
      {
         "a2" : "download_2",
         "a1" : "r1_c1",
         "id" : "dep122",
         "time" : 1.5130000028875
      },
      {
         "time" : 1.5130000028875,
         "a1" : "r1_c1",
         "a2" : "download_2",
         "id" : "dep123"
      },
      {
         "time" : 1.2239999996381,
         "id" : "dep124",
         "a2" : "download_1",
         "a1" : "r1_c1"
      }
   ],
   "load_activity" : -1,
   "objs" : [
      {
         "download" : {
            "dnsStart" : -1,
            "sslStart" : -1,
            "receivedTime" : "73.685999996087",
            "len" : 354332,
            "dns" : 0,
            "sslEnd" : -1,
            "s_time" : 0,
            "receiveHeadersEnd" : 29,
            "type" : "text/html",
            "id" : "download_0",
            "receiveFirst" : 29,
            "connectStart" : 0,
            "sendStart" : 0,
            "dnsEnd" : -1,
            "connectEnd" : 0,
            "sendEnd" : 0,
            "receiveLast" : 44.685999996087
         },
         "id" : "r1",
         "url" : "http://original.testbed.localhost/www.cnbc.com/",
         "comps" : [
            {
               "s_time" : 39.4519999972545,
               "time" : 1.5970000022207,
               "e_time" : 41.0489999994752,
               "id" : "r1_c1",
               "type" : "evalhtml"
            },
            {
               "e_time" : 203.305999995791,
               "time" : 115.334999994957,
               "s_time" : 87.9710000008345,
               "type" : "evalhtml",
               "id" : "r1_c2"
            },
            {
               "id" : "r1_c3",
               "type" : "evalhtml",
               "s_time" : 206.577999997535,
               "e_time" : 246.249999996508,
               "time" : 39.671999998973
            },
            {
               "id" : "r1_c4",
               "type" : "evalhtml",
               "s_time" : 249.641000002157,
               "e_time" : 253.893000000971,
               "time" : 4.251999998814
            },
            {
               "id" : "r1_c5",
               "type" : "evalhtml",
               "s_time" : 254.273999998986,
               "e_time" : 446.043999996618,
               "time" : 191.769999997632
            },
            {
               "e_time" : 536.458000002312,
               "time" : 30.338000004121,
               "s_time" : 506.119999998191,
               "type" : "evalhtml",
               "id" : "r1_c6"
            },
            {
               "type" : "evalhtml",
               "id" : "r1_c7",
               "time" : 46.540000003006,
               "e_time" : 595.8180000016,
               "s_time" : 549.277999998594
            },
            {
               "type" : "evalhtml",
               "id" : "r1_c8",
               "e_time" : 720.503999997163,
               "time" : 73.9140000005129,
               "s_time" : 646.58999999665
            },
            {
               "s_time" : 805.140999997093,
               "time" : -41702380.174,
               "e_time" : -41701575.033,
               "id" : "r1_c9",
               "type" : "evalhtml"
            },
            {
               "s_time" : 850.900999997975,
               "time" : -41702425.934,
               "e_time" : -41701575.033,
               "id" : "r1_c10",
               "type" : "evalhtml"
            },
            {
               "time" : 0.680999997712092,
               "e_time" : 882.17799999984,
               "s_time" : 881.497000002128,
               "type" : "evalhtml",
               "id" : "r1_c11"
            },
            {
               "type" : "evalhtml",
               "id" : "r1_c12",
               "e_time" : 912.486000001081,
               "time" : 1.13300000521099,
               "s_time" : 911.35299999587
            },
            {
               "s_time" : 2988.04499999824,
               "time" : -41704563.078,
               "e_time" : -41701575.033,
               "id" : "r1_c13",
               "type" : "evalhtml"
            },
            {
               "s_time" : 3014.60699999734,
               "time" : -41704589.64,
               "e_time" : -41701575.033,
               "id" : "r1_c14",
               "type" : "evalhtml"
            },
            {
               "type" : "evalhtml",
               "id" : "r1_c15",
               "e_time" : -41701575.033,
               "time" : -41704711.077,
               "s_time" : 3136.04399999895
            },
            {
               "type" : "evalhtml",
               "id" : "r1_c16",
               "e_time" : -41701575.033,
               "time" : -41704712.162,
               "s_time" : 3137.12900000246
            },
            {
               "time" : -41704712.696,
               "e_time" : -41701575.033,
               "s_time" : 3137.66300000134,
               "type" : "evalhtml",
               "id" : "r1_c17"
            },
            {
               "id" : "r1_c18",
               "type" : "evalhtml",
               "s_time" : 3138.14799999818,
               "e_time" : -41701575.033,
               "time" : -41704713.181
            },
            {
               "id" : "r1_c19",
               "type" : "evalhtml",
               "s_time" : 3140.15900000231,
               "time" : 83.9139999952799,
               "e_time" : 3224.07299999759
            },
            {
               "id" : "r1_c20",
               "type" : "evalhtml",
               "s_time" : 3224.08999999607,
               "time" : 0.179000002389785,
               "e_time" : 3224.26899999846
            },
            {
               "id" : "r1_c21",
               "type" : "evalhtml",
               "s_time" : 3247.96999999671,
               "e_time" : -41701575.033,
               "time" : -41704823.003
            },
            {
               "s_time" : 3252.73200000083,
               "time" : 64.2069999958103,
               "e_time" : 3316.93899999664,
               "id" : "r1_c22",
               "type" : "evalhtml"
            }
         ],
         "when_comp_start" : 1
      },
      {
         "download" : {
            "receivedTime" : "63.9620000001742",
            "sslStart" : -1,
            "dnsStart" : -1,
            "s_time" : 40.6759999968926,
            "dns" : 0,
            "len" : 14171,
            "sslEnd" : -1,
            "sendStart" : 1,
            "connectStart" : 0,
            "receiveFirst" : 21,
            "id" : "download_1",
            "type" : "application/javascript",
            "receiveHeadersEnd" : 22,
            "receiveLast" : 41.9620000001742,
            "sendEnd" : 1,
            "dnsEnd" : -1,
            "connectEnd" : 1
         },
         "when_comp_start" : -1,
         "comps" : [
            {
               "id" : "comp_6",
               "type" : 3,
               "s_time" : 64.1859999959706,
               "time" : 9.16800000413789,
               "e_time" : 73.3540000001085
            }
         ],
         "url" : "http://original.testbed.localhost/static.chartbeat.com/js/chartbeat_mab.js",
         "id" : "r2"
      },
      {
         "id" : "r6",
         "comps" : [
            {
               "s_time" : 83.996000001207,
               "time" : 0.00499999441670695,
               "e_time" : 84.0009999956237,
               "id" : "comp_8",
               "type" : 4
            }
         ],
         "url" : "http://original.testbed.localhost/fm.cnbc.com/applications/cnbc.com/resources/files/2016/04/05/right-rail-source-hide_0.css%3Fvn=1460493679.css",
         "when_comp_start" : -1,
         "download" : {
            "receivedTime" : "83.876999997301",
            "sslStart" : -1,
            "dnsStart" : 0,
            "s_time" : 40.965000000142,
            "len" : 88,
            "sslEnd" : -1,
            "dns" : 0,
            "sendStart" : 20,
            "connectStart" : 0,
            "receiveFirst" : 21,
            "id" : "download_2",
            "receiveHeadersEnd" : 41,
            "type" : "text/css",
            "receiveLast" : 42.876999997301,
            "sendEnd" : 20,
            "dnsEnd" : 0,
            "connectEnd" : 20
         }
      },
      {
         "when_comp_start" : -1,
         "url" : "http://original.testbed.localhost/fm.cnbc.com/applications/cnbc.com/resources/files/2016/05/02/web-resource-nad-asset-filmstrip.2.css%3Fvn=1462284647.css",
         "comps" : [
            {
               "e_time" : 84.7129999965546,
               "time" : 0.00200000067709993,
               "s_time" : 84.7109999958775,
               "type" : 4,
               "id" : "comp_9"
            }
         ],
         "id" : "r7",
         "download" : {
            "len" : 797,
            "dns" : 0,
            "sslEnd" : -1,
            "s_time" : 41.0489999994752,
            "dnsStart" : 0,
            "sslStart" : -1,
            "receivedTime" : "84.6180000007735",
            "connectEnd" : 20,
            "dnsEnd" : 0,
            "sendEnd" : 20,
            "receiveLast" : 42.6180000007735,
            "receiveHeadersEnd" : 42,
            "type" : "text/css",
            "receiveFirst" : 22,
            "id" : "download_3",
            "connectStart" : 0,
            "sendStart" : 20
         }
      },
      {
         "when_comp_start" : -1,
         "id" : "r5",
         "url" : "http://original.testbed.localhost/fm.cnbc.com/applications/cnbc.com/resources/files/2016/03/10/cnbc-global-css.47_0.css%3Fvn=1462219410.css",
         "comps" : [
            {
               "time" : 0.0569999974687079,
               "e_time" : 85.4749999998603,
               "s_time" : 85.4180000023916,
               "type" : 4,
               "id" : "comp_10"
            }
         ],
         "download" : {
            "sslEnd" : -1,
            "len" : 34876,
            "dns" : 0,
            "s_time" : 40.8739999984391,
            "dnsStart" : 0,
            "sslStart" : -1,
            "receivedTime" : "85.3779999961262",
            "sendEnd" : 21,
            "connectEnd" : 20,
            "dnsEnd" : 0,
            "receiveLast" : 42.3779999961262,
            "receiveHeadersEnd" : 43,
            "type" : "text/css",
            "receiveFirst" : 22,
            "id" : "download_4",
            "sendStart" : 20,
            "connectStart" : 0
         }
      },
      {
         "download" : {
            "sslStart" : -1,
            "receivedTime" : "151.14999999787",
            "dnsStart" : 0,
            "s_time" : 40.7899999991059,
            "len" : 531500,
            "sslEnd" : -1,
            "dns" : 0,
            "sendStart" : 21,
            "connectStart" : 0,
            "type" : "text/css",
            "receiveHeadersEnd" : 43,
            "receiveFirst" : 22,
            "id" : "download_5",
            "receiveLast" : 108.14999999787,
            "sendEnd" : 21,
            "connectEnd" : 21,
            "dnsEnd" : 0
         },
         "comps" : [
            {
               "type" : 4,
               "id" : "comp_12",
               "time" : 26.294000002963,
               "e_time" : 177.523999998812,
               "s_time" : 151.229999995849
            }
         ],
         "url" : "http://original.testbed.localhost/www.cnbc.com/staticcontent/global.2.css%3Fvn=290.css",
         "id" : "r4",
         "when_comp_start" : -1
      },
      {
         "download" : {
            "connectStart" : 0,
            "sendStart" : 23,
            "type" : "text/plain",
            "receiveHeadersEnd" : 44,
            "receiveFirst" : 21,
            "id" : "download_6",
            "receiveLast" : 42.0170000014477,
            "dnsEnd" : -1,
            "connectEnd" : 23,
            "sendEnd" : 23,
            "sslStart" : -1,
            "receivedTime" : "86.0170000014477",
            "dnsStart" : -1,
            "s_time" : 40.6739999962156,
            "sslEnd" : -1,
            "len" : 3992,
            "dns" : 0
         },
         "url" : "http://original.testbed.localhost/www.cnbc.com/staticcontent/partner_experience.js%3Fvn=290",
         "comps" : [
            {
               "type" : 1,
               "id" : "comp_11",
               "time" : 1.92300000344409,
               "e_time" : 87.9710000008345,
               "s_time" : 86.0479999973904
            }
         ],
         "id" : "r3",
         "when_comp_start" : -1
      },
      {
         "download" : {
            "receivedTime" : "203.337999999349",
            "sslStart" : -1,
            "dnsStart" : -1,
            "s_time" : 181.710999997449,
            "len" : 9511,
            "dns" : 0,
            "sslEnd" : -1,
            "connectStart" : 0,
            "sendStart" : 0,
            "receiveFirst" : 21,
            "id" : "download_7",
            "type" : "image/png",
            "receiveHeadersEnd" : 21,
            "receiveLast" : 182.337999999349,
            "dnsEnd" : -1,
            "connectEnd" : 0,
            "sendEnd" : 0
         },
         "id" : "r29",
         "url" : "http://original.testbed.localhost/fm.cnbc.com/applications/cnbc.com/staticcontent/img/cnbc-hdr-logo2.png",
         "comps" : [],
         "when_comp_start" : -1
      },
      {
         "when_comp_start" : -1,
         "id" : "r28",
         "comps" : [],
         "url" : "http://original.testbed.localhost/www.nbcudigitaladops.com/hosted/global_header.js",
         "download" : {
            "len" : 2878,
            "sslEnd" : -1,
            "dns" : 0,
            "s_time" : 181.548000000475,
            "dnsStart" : -1,
            "sslStart" : -1,
            "receivedTime" : "203.810999999405",
            "connectEnd" : 0,
            "dnsEnd" : -1,
            "sendEnd" : 0,
            "receiveLast" : 182.810999999405,
            "type" : "application/javascript",
            "receiveHeadersEnd" : 21,
            "id" : "download_8",
            "receiveFirst" : 21,
            "connectStart" : 0,
            "sendStart" : 0
         }
      },
      {
         "download" : {
            "type" : "application/javascript",
            "receiveHeadersEnd" : 22,
            "receiveFirst" : 22,
            "id" : "download_9",
            "connectStart" : 0,
            "sendStart" : 0,
            "connectEnd" : 0,
            "dnsEnd" : -1,
            "sendEnd" : 0,
            "receiveLast" : 182.671999999846,
            "dnsStart" : -1,
            "sslStart" : -1,
            "receivedTime" : "204.671999999846",
            "len" : 40874,
            "sslEnd" : -1,
            "dns" : 0,
            "s_time" : 181.332000000111
         },
         "comps" : [
            {
               "type" : 1,
               "id" : "comp_38",
               "e_time" : 206.577999997535,
               "time" : 1.83000000106398,
               "s_time" : 204.747999996471
            }
         ],
         "url" : "http://original.testbed.localhost/dynamicyield.cnbc.com/dynamicyield/8765304/api_dynamic.js",
         "id" : "r26",
         "when_comp_start" : -1
      },
      {
         "download" : {
            "len" : 128371,
            "sslEnd" : -1,
            "dns" : 0,
            "s_time" : 181.437999999616,
            "dnsStart" : -1,
            "sslStart" : -1,
            "receivedTime" : "228.47599999659",
            "sendEnd" : 0,
            "connectEnd" : 0,
            "dnsEnd" : -1,
            "receiveLast" : 203.47599999659,
            "receiveHeadersEnd" : 25,
            "type" : "application/javascript",
            "receiveFirst" : 25,
            "id" : "download_10",
            "sendStart" : 0,
            "connectStart" : 0
         },
         "id" : "r27",
         "comps" : [
            {
               "time" : 21.118000004208,
               "e_time" : 249.641000002157,
               "s_time" : 228.522999997949,
               "type" : 1,
               "id" : "comp_39"
            }
         ],
         "url" : "http://original.testbed.localhost/dynamicyield.cnbc.com/dynamicyield/8765304/api_static.js",
         "when_comp_start" : -1
      },
      {
         "url" : "http://original.testbed.localhost/fm.cnbc.com/applications/cnbc.com/resources/img/editorial/2016/05/06/103614246-RTX2D1HR.530x298.jpg%3Fv=1462546332",
         "comps" : [],
         "id" : "r30",
         "when_comp_start" : -1,
         "download" : {
            "receiveLast" : 204.060999997368,
            "sendEnd" : 0,
            "dnsEnd" : -1,
            "connectEnd" : 0,
            "sendStart" : 0,
            "connectStart" : 0,
            "type" : "image/jpeg",
            "receiveHeadersEnd" : 21,
            "receiveFirst" : 21,
            "id" : "download_11",
            "s_time" : 203.305999995791,
            "len" : 18920,
            "sslEnd" : -1,
            "dns" : 0,
            "sslStart" : -1,
            "receivedTime" : "225.060999997368",
            "dnsStart" : -1
         }
      },
      {
         "download" : {
            "len" : 4049,
            "sslEnd" : -1,
            "dns" : 0,
            "s_time" : 224.94999999617,
            "dnsStart" : -1,
            "sslStart" : -1,
            "receivedTime" : "253.585999998904",
            "dnsEnd" : -1,
            "connectEnd" : 0,
            "sendEnd" : 0,
            "receiveLast" : 232.585999998904,
            "receiveHeadersEnd" : 21,
            "type" : "image/jpeg",
            "receiveFirst" : 21,
            "id" : "download_12",
            "connectStart" : 0,
            "sendStart" : 0
         },
         "comps" : [],
         "url" : "http://original.testbed.localhost/fm.cnbc.com/applications/cnbc.com/resources/img/editorial/2016/04/18/103557182-Steve_Case_c.160x105.jpg%3Fv=1461005729",
         "id" : "r31",
         "when_comp_start" : -1
      },
      {
         "when_comp_start" : -1,
         "id" : "r33",
         "url" : "http://original.testbed.localhost/fm.cnbc.com/applications/cnbc.com/resources/img/editorial/2016/05/06/103614246-RTX2D1HR.160x105.jpg%3Fv=1462546332",
         "comps" : [],
         "download" : {
            "connectEnd" : 1,
            "dnsEnd" : -1,
            "sendEnd" : 1,
            "receiveLast" : 232.848000000289,
            "receiveFirst" : 20,
            "id" : "download_13",
            "receiveHeadersEnd" : 21,
            "type" : "image/jpeg",
            "connectStart" : 0,
            "sendStart" : 1,
            "len" : 4410,
            "dns" : 0,
            "sslEnd" : -1,
            "s_time" : 228.565999997954,
            "dnsStart" : -1,
            "receivedTime" : "253.848000000289",
            "sslStart" : -1
         }
      },
      {
         "when_comp_start" : -1,
         "url" : "http://original.testbed.localhost/fm.cnbc.com/applications/cnbc.com/resources/img/editorial/2016/05/06/103615292-GettyImages-450824074.160x105.jpg%3Fv=1462570246",
         "comps" : [],
         "id" : "r34",
         "download" : {
            "s_time" : 228.623999995762,
            "len" : 2750,
            "dns" : 0,
            "sslEnd" : -1,
            "sslStart" : -1,
            "receivedTime" : "253.936000000976",
            "dnsStart" : -1,
            "receiveLast" : 231.936000000976,
            "sendEnd" : 1,
            "dnsEnd" : -1,
            "connectEnd" : 1,
            "sendStart" : 1,
            "connectStart" : 0,
            "type" : "image/jpeg",
            "receiveHeadersEnd" : 22,
            "id" : "download_14",
            "receiveFirst" : 21
         }
      },
      {
         "download" : {
            "sendStart" : 1,
            "connectStart" : 0,
            "receiveFirst" : 21,
            "id" : "download_15",
            "receiveHeadersEnd" : 22,
            "type" : "image/jpeg",
            "receiveLast" : 232.02000000031,
            "sendEnd" : 1,
            "connectEnd" : 1,
            "dnsEnd" : -1,
            "receivedTime" : "254.02000000031",
            "sslStart" : -1,
            "dnsStart" : -1,
            "s_time" : 228.449000002001,
            "dns" : 0,
            "sslEnd" : -1,
            "len" : 5527
         },
         "when_comp_start" : -1,
         "id" : "r32",
         "url" : "http://original.testbed.localhost/fm.cnbc.com/applications/cnbc.com/resources/img/editorial/2016/03/07/103448912-Clintonvtrump.160x105.jpg%3Fv=1457381231",
         "comps" : []
      },
      {
         "id" : "r35",
         "url" : "http://original.testbed.localhost/fm.cnbc.com/applications/cnbc.com/resources/img/editorial/2015/05/04/102647439-20150504-4216-1264.160x105.jpg%3Fv=1430787329",
         "comps" : [],
         "when_comp_start" : -1,
         "download" : {
            "s_time" : 228.6879999956,
            "len" : 4082,
            "dns" : 0,
            "sslEnd" : -1,
            "receivedTime" : "254.101999998966",
            "sslStart" : -1,
            "dnsStart" : -1,
            "receiveLast" : 232.101999998966,
            "connectEnd" : 1,
            "dnsEnd" : -1,
            "sendEnd" : 1,
            "connectStart" : 0,
            "sendStart" : 1,
            "id" : "download_16",
            "receiveFirst" : 21,
            "type" : "image/jpeg",
            "receiveHeadersEnd" : 22
         }
      },
      {
         "download" : {
            "receiveLast" : 232.197000002023,
            "dnsEnd" : -1,
            "connectEnd" : 1,
            "sendEnd" : 1,
            "connectStart" : 0,
            "sendStart" : 1,
            "receiveHeadersEnd" : 22,
            "type" : "image/jpeg",
            "receiveFirst" : 21,
            "id" : "download_17",
            "s_time" : 228.784999999334,
            "len" : 3341,
            "sslEnd" : -1,
            "dns" : 0,
            "sslStart" : -1,
            "receivedTime" : "254.197000002023",
            "dnsStart" : -1
         },
         "id" : "r36",
         "comps" : [],
         "url" : "http://original.testbed.localhost/fm.cnbc.com/applications/cnbc.com/resources/img/editorial/2015/07/14/102833265-GettyImages-457552034.160x105.jpg%3Fv=1444842587",
         "when_comp_start" : -1
      },
      {
         "comps" : [],
         "url" : "http://original.testbed.localhost/fm.cnbc.com/applications/cnbc.com/resources/img/editorial/2016/05/05/103611973-GettyImages-140371098.160x105.jpg%3Fv=1462482709",
         "id" : "r37",
         "when_comp_start" : -1,
         "download" : {
            "sendEnd" : 17,
            "dnsEnd" : -1,
            "connectEnd" : 17,
            "receiveLast" : 408.520000001125,
            "receiveFirst" : 20,
            "id" : "download_18",
            "type" : "image/jpeg",
            "receiveHeadersEnd" : 37,
            "sendStart" : 17,
            "connectStart" : 0,
            "dns" : 0,
            "sslEnd" : -1,
            "len" : 6113,
            "s_time" : 228.83400000137,
            "dnsStart" : -1,
            "receivedTime" : "445.520000001125",
            "sslStart" : -1
         }
      },
      {
         "download" : {
            "sendStart" : 22,
            "connectStart" : 0,
            "type" : "image/jpeg",
            "receiveHeadersEnd" : 43,
            "receiveFirst" : 21,
            "id" : "download_19",
            "receiveLast" : 402.691000000807,
            "sendEnd" : 22,
            "connectEnd" : 22,
            "dnsEnd" : -1,
            "sslStart" : -1,
            "receivedTime" : "445.691000000807",
            "dnsStart" : -1,
            "s_time" : 228.902999995626,
            "len" : 4467,
            "dns" : 0,
            "sslEnd" : -1
         },
         "url" : "http://original.testbed.localhost/fm.cnbc.com/applications/cnbc.com/resources/img/editorial/2016/02/25/103418965-IMG_5860r.160x105.jpg%3Fv=1456406878",
         "comps" : [],
         "id" : "r38",
         "when_comp_start" : -1
      },
      {
         "id" : "r39",
         "url" : "http://original.testbed.localhost/fm.cnbc.com/applications/cnbc.com/resources/img/editorial/2015/12/11/103235812-GettyImages-142007270.160x105.jpg%3Fv=1452723646",
         "comps" : [],
         "when_comp_start" : -1,
         "download" : {
            "dnsStart" : -1,
            "sslStart" : -1,
            "receivedTime" : "445.793999999296",
            "dns" : 0,
            "len" : 7336,
            "sslEnd" : -1,
            "s_time" : 228.957999999693,
            "receiveHeadersEnd" : 43,
            "type" : "image/jpeg",
            "receiveFirst" : 21,
            "id" : "download_20",
            "connectStart" : 0,
            "sendStart" : 22,
            "connectEnd" : 22,
            "dnsEnd" : -1,
            "sendEnd" : 22,
            "receiveLast" : 402.793999999296
         }
      },
      {
         "id" : "r40",
         "url" : "http://original.testbed.localhost/fm.cnbc.com/applications/cnbc.com/resources/img/editorial/2016/03/23/103491678-GettyImages-74177495.160x105.jpg%3Fv=1462301644",
         "comps" : [],
         "when_comp_start" : -1,
         "download" : {
            "connectStart" : 0,
            "sendStart" : 22,
            "receiveFirst" : 21,
            "id" : "download_21",
            "type" : "image/jpeg",
            "receiveHeadersEnd" : 43,
            "receiveLast" : 402.905000000494,
            "dnsEnd" : -1,
            "connectEnd" : 22,
            "sendEnd" : 22,
            "receivedTime" : "445.905000000494",
            "sslStart" : -1,
            "dnsStart" : -1,
            "s_time" : 229.016999997839,
            "len" : 6452,
            "dns" : 0,
            "sslEnd" : -1
         }
      },
      {
         "download" : {
            "receivedTime" : "446.006999998644",
            "sslStart" : -1,
            "dnsStart" : -1,
            "s_time" : 246.249999996508,
            "len" : 4665,
            "dns" : 0,
            "sslEnd" : -1,
            "sendStart" : 5,
            "connectStart" : 0,
            "receiveFirst" : 21,
            "id" : "download_22",
            "type" : "image/jpeg",
            "receiveHeadersEnd" : 26,
            "receiveLast" : 420.006999998644,
            "sendEnd" : 5,
            "connectEnd" : 5,
            "dnsEnd" : -1
         },
         "id" : "r41",
         "comps" : [],
         "url" : "http://original.testbed.localhost/fm.cnbc.com/applications/cnbc.com/resources/img/editorial/2016/04/28/103588218-GettyImages-155137587.160x105.jpg%3Fv=1461847169",
         "when_comp_start" : -1
      },
      {
         "comps" : [],
         "url" : "http://original.testbed.localhost/fm.cnbc.com/applications/cnbc.com/resources/img/editorial/2016/05/06/103615096-GettyImages-187485956.160x105.jpg%3Fv=1462566022",
         "id" : "r42",
         "when_comp_start" : -1,
         "download" : {
            "id" : "download_23",
            "receiveFirst" : 20,
            "type" : "image/jpeg",
            "receiveHeadersEnd" : 21,
            "sendStart" : 1,
            "connectStart" : 0,
            "sendEnd" : 1,
            "dnsEnd" : -1,
            "connectEnd" : 1,
            "receiveLast" : 425.104000002379,
            "dnsStart" : -1,
            "receivedTime" : "446.104000002379",
            "sslStart" : -1,
            "dns" : 0,
            "len" : 5426,
            "sslEnd" : -1,
            "s_time" : 251.009999999951
         }
      },
      {
         "download" : {
            "receivedTime" : "461.133999997401",
            "sslStart" : -1,
            "dnsStart" : -1,
            "s_time" : 251.401000001351,
            "len" : 5346,
            "sslEnd" : -1,
            "dns" : 0,
            "connectStart" : 0,
            "sendStart" : 15,
            "receiveFirst" : 20,
            "id" : "download_24",
            "receiveHeadersEnd" : 35,
            "type" : "image/jpeg",
            "receiveLast" : 426.133999997401,
            "connectEnd" : 15,
            "dnsEnd" : -1,
            "sendEnd" : 15
         },
         "when_comp_start" : -1,
         "comps" : [],
         "url" : "http://original.testbed.localhost/fm.cnbc.com/applications/cnbc.com/resources/img/editorial/2016/05/05/103611287-GettyImages-80710419.160x105.jpg%3Fv=1462474704",
         "id" : "r43"
      },
      {
         "url" : "http://original.testbed.localhost/fm.cnbc.com/applications/cnbc.com/resources/img/editorial/2016/05/03/103602017-luxh.160x105.png%3Fv=1462290273",
         "comps" : [],
         "id" : "r44",
         "when_comp_start" : -1,
         "download" : {
            "sslStart" : -1,
            "receivedTime" : "461.328999997932",
            "dnsStart" : -1,
            "s_time" : 251.519999997981,
            "dns" : 0,
            "len" : 44461,
            "sslEnd" : -1,
            "connectStart" : 0,
            "sendStart" : 20,
            "receiveHeadersEnd" : 41,
            "type" : "image/png",
            "id" : "download_25",
            "receiveFirst" : 21,
            "receiveLast" : 420.328999997932,
            "connectEnd" : 20,
            "dnsEnd" : -1,
            "sendEnd" : 20
         }
      },
      {
         "download" : {
            "receiveHeadersEnd" : 39,
            "type" : "image/jpeg",
            "receiveFirst" : 20,
            "id" : "download_26",
            "sendStart" : 19,
            "connectStart" : 0,
            "sendEnd" : 19,
            "dnsEnd" : -1,
            "connectEnd" : 19,
            "receiveLast" : 422.453999996593,
            "dnsStart" : -1,
            "sslStart" : -1,
            "receivedTime" : "461.453999996593",
            "len" : 5284,
            "dns" : 0,
            "sslEnd" : -1,
            "s_time" : 253.813999996055
         },
         "when_comp_start" : -1,
         "id" : "r47",
         "url" : "http://original.testbed.localhost/fm.cnbc.com/applications/cnbc.com/resources/img/editorial/2016/05/06/103614219-GettyImages-528524208.160x105.jpg%3Fv=1462545871",
         "comps" : []
      },
      {
         "download" : {
            "connectStart" : 0,
            "sendStart" : 19,
            "id" : "download_27",
            "receiveFirst" : 20,
            "type" : "image/jpeg",
            "receiveHeadersEnd" : 39,
            "receiveLast" : 422.570999999822,
            "connectEnd" : 19,
            "dnsEnd" : -1,
            "sendEnd" : 19,
            "receivedTime" : "461.570999999822",
            "sslStart" : -1,
            "dnsStart" : -1,
            "s_time" : 253.893000000971,
            "len" : 4865,
            "sslEnd" : -1,
            "dns" : 0
         },
         "id" : "r48",
         "url" : "http://original.testbed.localhost/fm.cnbc.com/applications/cnbc.com/resources/img/editorial/2016/05/06/103615018-GettyImages-1415511.160x105.jpg%3Fv=1462563891",
         "comps" : [],
         "when_comp_start" : -1
      },
      {
         "when_comp_start" : -1,
         "id" : "r49",
         "comps" : [],
         "url" : "http://original.testbed.localhost/fm.cnbc.com/applications/cnbc.com/resources/img/editorial/2016/03/01/103433679-20160229-2-2089-3.160x105.jpg%3Fv=1456863438",
         "download" : {
            "receiveLast" : 435.69099999679,
            "connectEnd" : 6,
            "dnsEnd" : -1,
            "sendEnd" : 6,
            "connectStart" : 0,
            "sendStart" : 6,
            "receiveFirst" : 20,
            "id" : "download_28",
            "type" : "image/jpeg",
            "receiveHeadersEnd" : 26,
            "s_time" : 266.737999998441,
            "dns" : 0,
            "len" : 5856,
            "sslEnd" : -1,
            "receivedTime" : "461.69099999679",
            "sslStart" : -1,
            "dnsStart" : -1
         }
      },
      {
         "when_comp_start" : -1,
         "url" : "http://original.testbed.localhost/fm.cnbc.com/applications/cnbc.com/staticcontent/img/sprite.png%3Fvn=4",
         "comps" : [],
         "id" : "r50",
         "download" : {
            "connectStart" : 0,
            "sendStart" : 0,
            "type" : "image/png",
            "receiveHeadersEnd" : 20,
            "receiveFirst" : 20,
            "id" : "download_29",
            "receiveLast" : 441.806999999681,
            "dnsEnd" : -1,
            "connectEnd" : 0,
            "sendEnd" : 0,
            "sslStart" : -1,
            "receivedTime" : "461.806999999681",
            "dnsStart" : -1,
            "s_time" : 280.894999996235,
            "sslEnd" : -1,
            "dns" : 0,
            "len" : 21076
         }
      },
      {
         "url" : "http://original.testbed.localhost/fm.cnbc.com/applications/cnbc.com/staticcontent/img/ThePlatform/cnbc-placeholder_530x298.png",
         "comps" : [],
         "id" : "r51",
         "when_comp_start" : -1,
         "download" : {
            "receiveFirst" : 21,
            "id" : "download_30",
            "type" : "image/png",
            "receiveHeadersEnd" : 24,
            "connectStart" : 0,
            "sendStart" : 3,
            "connectEnd" : 3,
            "dnsEnd" : -1,
            "sendEnd" : 3,
            "receiveLast" : 437.951999997837,
            "dnsStart" : -1,
            "receivedTime" : "461.951999997837",
            "sslStart" : -1,
            "sslEnd" : -1,
            "dns" : 0,
            "len" : 4393,
            "s_time" : 283.394999998563
         }
      },
      {
         "download" : {
            "receivedTime" : "462.078999997175",
            "sslStart" : -1,
            "dnsStart" : -1,
            "s_time" : 283.56299999723,
            "sslEnd" : -1,
            "len" : 2792,
            "dns" : 0,
            "connectStart" : 0,
            "sendStart" : 9,
            "id" : "download_31",
            "receiveFirst" : 20,
            "receiveHeadersEnd" : 29,
            "type" : "image/png",
            "receiveLast" : 433.078999997175,
            "connectEnd" : 9,
            "dnsEnd" : -1,
            "sendEnd" : 9
         },
         "id" : "r52",
         "comps" : [],
         "url" : "http://original.testbed.localhost/fm.cnbc.com/applications/cnbc.com/staticcontent/img/hSprite.png",
         "when_comp_start" : -1
      },
      {
         "download" : {
            "receiveHeadersEnd" : 21,
            "type" : "image/png",
            "receiveFirst" : 21,
            "id" : "download_32",
            "sendStart" : 0,
            "connectStart" : 0,
            "sendEnd" : 0,
            "dnsEnd" : -1,
            "connectEnd" : 0,
            "receiveLast" : 442.11599999899,
            "dnsStart" : -1,
            "sslStart" : -1,
            "receivedTime" : "463.11599999899",
            "len" : 3695,
            "dns" : 0,
            "sslEnd" : -1,
            "s_time" : 322.136999995564
         },
         "comps" : [],
         "url" : "http://original.testbed.localhost/fm.cnbc.com/applications/cnbc.com/staticcontent/img/tab-marker.png",
         "id" : "r53",
         "when_comp_start" : -1
      },
      {
         "when_comp_start" : -1,
         "id" : "r54",
         "comps" : [],
         "url" : "http://original.testbed.localhost/fm.cnbc.com/applications/cnbc.com/staticcontent/img/listPointer.png",
         "download" : {
            "dnsStart" : -1,
            "sslStart" : -1,
            "receivedTime" : "463.296000001719",
            "dns" : 0,
            "len" : 171,
            "sslEnd" : -1,
            "s_time" : 326.60400000168,
            "receiveHeadersEnd" : 21,
            "type" : "image/png",
            "receiveFirst" : 21,
            "id" : "download_33",
            "connectStart" : 0,
            "sendStart" : 0,
            "dnsEnd" : -1,
            "connectEnd" : 0,
            "sendEnd" : 0,
            "receiveLast" : 442.296000001719
         }
      },
      {
         "download" : {
            "receiveLast" : 442.425000001735,
            "dnsEnd" : -1,
            "connectEnd" : 0,
            "sendEnd" : 0,
            "connectStart" : 0,
            "sendStart" : 0,
            "receiveHeadersEnd" : 21,
            "type" : "image/png",
            "receiveFirst" : 21,
            "id" : "download_34",
            "s_time" : 342.067999998108,
            "dns" : 0,
            "len" : 1297,
            "sslEnd" : -1,
            "sslStart" : -1,
            "receivedTime" : "463.425000001735",
            "dnsStart" : -1
         },
         "comps" : [],
         "url" : "http://original.testbed.localhost/fm.cnbc.com/applications/cnbc.com/staticcontent/img/pointer.png",
         "id" : "r55",
         "when_comp_start" : -1
      },
      {
         "when_comp_start" : -1,
         "id" : "r16",
         "url" : "http://original.testbed.localhost/www.cnbc.com/fonts/fontawesome-webfont.woff%3Fv=4.3.0",
         "comps" : [],
         "download" : {
            "connectEnd" : 0,
            "dnsEnd" : -1,
            "sendEnd" : 0,
            "receiveLast" : 480.550000000861,
            "type" : "application/octet-stream",
            "receiveHeadersEnd" : 21,
            "receiveFirst" : 21,
            "id" : "download_37",
            "connectStart" : 0,
            "sendStart" : 0,
            "len" : 71508,
            "sslEnd" : -1,
            "dns" : 0,
            "s_time" : 443.334999996296,
            "dnsStart" : -1,
            "sslStart" : -1,
            "receivedTime" : "501.550000000861"
         }
      },
      {
         "url" : "http://original.testbed.localhost/www.cnbc.com/fonts/cnbc_font_icons.woff%3F-k1ej6q",
         "comps" : [],
         "id" : "r19",
         "when_comp_start" : -1,
         "download" : {
            "sendEnd" : 0,
            "dnsEnd" : -1,
            "connectEnd" : 0,
            "receiveLast" : 481.293000001169,
            "type" : "application/octet-stream",
            "receiveHeadersEnd" : 20,
            "receiveFirst" : 20,
            "id" : "download_38",
            "sendStart" : 0,
            "connectStart" : 0,
            "sslEnd" : -1,
            "len" : 1556,
            "dns" : 0,
            "s_time" : 443.45500000054,
            "dnsStart" : -1,
            "sslStart" : -1,
            "receivedTime" : "501.293000001169"
         }
      },
      {
         "download" : {
            "receiveLast" : 482.785999997286,
            "dnsEnd" : -1,
            "connectEnd" : 0,
            "sendEnd" : 0,
            "connectStart" : 0,
            "sendStart" : 0,
            "receiveFirst" : 20,
            "id" : "download_39",
            "receiveHeadersEnd" : 20,
            "type" : "text/html",
            "s_time" : 444.551000000502,
            "dns" : 0,
            "len" : 2674,
            "sslEnd" : -1,
            "receivedTime" : "502.785999997286",
            "sslStart" : -1,
            "dnsStart" : -1
         },
         "id" : "r56",
         "url" : "http://original.testbed.localhost/api-chart.cnbc.com/api/movers/movers.asp%3FchartType=both&rowCount=5&link=quote&region=us.html",
         "comps" : [
            {
               "s_time" : 516.986000002362,
               "e_time" : 580.632999997761,
               "time" : 63.646999995399,
               "id" : "r56_c1",
               "type" : "evalhtml"
            }
         ],
         "when_comp_start" : 1
      },
      {
         "when_comp_start" : -1,
         "comps" : [
            {
               "time" : 0.474000000394994,
               "e_time" : 506.119999998191,
               "s_time" : 505.645999997796,
               "type" : 1,
               "id" : "comp_58"
            }
         ],
         "url" : "http://original.testbed.localhost/www.bankrate.com/jsfeeds/mtgDefault.js",
         "id" : "r57",
         "download" : {
            "receivedTime" : "505.623999997624",
            "sslStart" : -1,
            "dnsStart" : -1,
            "s_time" : 445.212999999058,
            "len" : 5031,
            "dns" : 0,
            "sslEnd" : -1,
            "connectStart" : 0,
            "sendStart" : 1,
            "receiveFirst" : 37,
            "id" : "download_40",
            "receiveHeadersEnd" : 39,
            "type" : "application/javascript",
            "receiveLast" : 466.623999997624,
            "dnsEnd" : -1,
            "connectEnd" : 1,
            "sendEnd" : 2
         }
      },
      {
         "download" : {
            "receiveLast" : 467.321000000753,
            "connectEnd" : 2,
            "dnsEnd" : -1,
            "sendEnd" : 2,
            "connectStart" : 0,
            "sendStart" : 2,
            "id" : "download_41",
            "receiveFirst" : 37,
            "receiveHeadersEnd" : 39,
            "type" : "application/javascript",
            "s_time" : 445.326000000932,
            "sslEnd" : -1,
            "len" : 6816,
            "dns" : 0,
            "receivedTime" : "506.321000000753",
            "sslStart" : -1,
            "dnsStart" : -1
         },
         "when_comp_start" : -1,
         "id" : "r58",
         "comps" : [
            {
               "s_time" : 528.751999998349,
               "e_time" : 530.537999999069,
               "time" : 1.78600000072004,
               "id" : "comp_61",
               "type" : 2
            }
         ],
         "url" : "http://original.testbed.localhost/www.bankrate.com/jsfeeds/cnbc-maintab-mtg-avgs.js"
      },
      {
         "comps" : [
            {
               "e_time" : 549.277999998594,
               "time" : 1.36000000202307,
               "s_time" : 547.917999996571,
               "type" : 1,
               "id" : "comp_64"
            }
         ],
         "url" : "http://original.testbed.localhost/www.bankrate.com/jsfeeds/cnbc-maintab-loan-avgs.js",
         "id" : "r59",
         "when_comp_start" : -1,
         "download" : {
            "receivedTime" : "506.365000001097",
            "sslStart" : -1,
            "dnsStart" : -1,
            "s_time" : 445.408999999927,
            "dns" : 0,
            "len" : 6303,
            "sslEnd" : -1,
            "sendStart" : 2,
            "connectStart" : 0,
            "id" : "download_42",
            "receiveFirst" : 37,
            "receiveHeadersEnd" : 39,
            "type" : "application/javascript",
            "receiveLast" : 467.365000001097,
            "sendEnd" : 2,
            "connectEnd" : 2,
            "dnsEnd" : -1
         }
      },
      {
         "download" : {
            "type" : "text/css",
            "receiveHeadersEnd" : 39,
            "id" : "download_43",
            "receiveFirst" : 21,
            "connectStart" : 0,
            "sendStart" : 18,
            "dnsEnd" : -1,
            "connectEnd" : 18,
            "sendEnd" : 18,
            "receiveLast" : 467.500999996206,
            "dnsStart" : -1,
            "sslStart" : -1,
            "receivedTime" : "506.500999996206",
            "sslEnd" : -1,
            "len" : 3180,
            "dns" : 0,
            "s_time" : 445.881999999983
         },
         "when_comp_start" : -1,
         "id" : "r63",
         "url" : "http://original.testbed.localhost/fm.cnbc.com/applications/cnbc.com/resources/styles/skin/MARKETING/EMAIL/EXACT-TARGET/FORMS/CNBC-API/css/embed-form.css",
         "comps" : [
            {
               "s_time" : 506.520000002638,
               "e_time" : 506.522999996378,
               "time" : 0.00299999373999071,
               "id" : "comp_59",
               "type" : 4
            }
         ]
      },
      {
         "when_comp_start" : -1,
         "url" : "http://original.testbed.localhost/www.bankrate.com/jsfeeds/cnbc-maintab-auto-avgs.js",
         "comps" : [
            {
               "type" : null,
               "id" : "comp_105",
               "time" : 2.46399999741698,
               "e_time" : 595.587999996496,
               "s_time" : 593.123999999079
            }
         ],
         "id" : "r60",
         "download" : {
            "receiveFirst" : 20,
            "id" : "download_44",
            "receiveHeadersEnd" : 39,
            "type" : "application/javascript",
            "sendStart" : 19,
            "connectStart" : 0,
            "sendEnd" : 19,
            "connectEnd" : 19,
            "dnsEnd" : -1,
            "receiveLast" : 467.559000001289,
            "dnsStart" : -1,
            "receivedTime" : "506.559000001289",
            "sslStart" : -1,
            "sslEnd" : -1,
            "dns" : 0,
            "len" : 6222,
            "s_time" : 445.480000002135
         }
      },
      {
         "id" : "r61",
         "comps" : [
            {
               "type" : 1,
               "id" : "comp_109",
               "e_time" : 646.58999999665,
               "time" : 1.35700000100803,
               "s_time" : 645.232999995642
            }
         ],
         "url" : "http://original.testbed.localhost/www.bankrate.com/jsfeeds/cnbc-maintab-mmacd-avgs.js",
         "when_comp_start" : -1,
         "download" : {
            "receiveHeadersEnd" : 40,
            "type" : "application/javascript",
            "id" : "download_45",
            "receiveFirst" : 21,
            "connectStart" : 0,
            "sendStart" : 19,
            "dnsEnd" : -1,
            "connectEnd" : 19,
            "sendEnd" : 19,
            "receiveLast" : 466.635999998252,
            "dnsStart" : -1,
            "sslStart" : -1,
            "receivedTime" : "506.635999998252",
            "dns" : 0,
            "sslEnd" : -1,
            "len" : 6645,
            "s_time" : 445.714000001317
         }
      },
      {
         "when_comp_start" : -1,
         "id" : "r62",
         "comps" : [],
         "url" : "http://original.testbed.localhost/fm.cnbc.com/applications/cnbc.com/staticcontent/img/footer-logo.png",
         "download" : {
            "connectStart" : 0,
            "sendStart" : 38,
            "receiveFirst" : 21,
            "id" : "download_46",
            "receiveHeadersEnd" : 59,
            "type" : "image/png",
            "receiveLast" : 458.805999996199,
            "dnsEnd" : -1,
            "connectEnd" : 38,
            "sendEnd" : 38,
            "receivedTime" : "517.805999996199",
            "sslStart" : -1,
            "dnsStart" : -1,
            "s_time" : 445.808999997098,
            "len" : 5833,
            "sslEnd" : -1,
            "dns" : 0
         }
      },
      {
         "download" : {
            "connectEnd" : 38,
            "dnsEnd" : -1,
            "sendEnd" : 38,
            "receiveLast" : 459.003999997745,
            "receiveFirst" : 21,
            "id" : "download_47",
            "receiveHeadersEnd" : 59,
            "type" : "image/png",
            "connectStart" : 0,
            "sendStart" : 38,
            "len" : 2298,
            "sslEnd" : -1,
            "dns" : 0,
            "s_time" : 446.043999996618,
            "dnsStart" : -1,
            "receivedTime" : "518.003999997745",
            "sslStart" : -1
         },
         "when_comp_start" : -1,
         "id" : "r64",
         "comps" : [],
         "url" : "http://original.testbed.localhost/fm.cnbc.com/applications/cnbc.com/staticcontent/img/footer-thompson.png"
      },
      {
         "download" : {
            "dnsStart" : -1,
            "receivedTime" : "549.655999995593",
            "sslStart" : -1,
            "dns" : 0,
            "len" : 48921,
            "sslEnd" : -1,
            "s_time" : 517.768999998225,
            "receiveFirst" : 20,
            "id" : "download_48",
            "receiveHeadersEnd" : 20,
            "type" : "text/plain",
            "sendStart" : 0,
            "connectStart" : 0,
            "sendEnd" : 0,
            "dnsEnd" : -1,
            "connectEnd" : 0,
            "receiveLast" : 529.655999995593
         },
         "when_comp_start" : -1,
         "id" : "r67",
         "url" : "http://original.testbed.localhost/content.markitcdn.com/cnbc/api/movers/common/lib/js/scriptsCache.asp%3Fversion=39414.768460648156",
         "comps" : [
            {
               "e_time" : 551.972000001115,
               "time" : 1.80199999886099,
               "s_time" : 550.170000002254,
               "type" : 2,
               "id" : "comp_66"
            }
         ]
      },
      {
         "download" : {
            "sendEnd" : 0,
            "connectEnd" : 0,
            "dnsEnd" : -1,
            "receiveLast" : 528.745999996958,
            "type" : "text/css",
            "receiveHeadersEnd" : 21,
            "receiveFirst" : 21,
            "id" : "download_49",
            "sendStart" : 0,
            "connectStart" : 0,
            "dns" : 0,
            "len" : 2303,
            "sslEnd" : -1,
            "s_time" : 517.472999999882,
            "dnsStart" : -1,
            "sslStart" : -1,
            "receivedTime" : "549.745999996958"
         },
         "when_comp_start" : -1,
         "id" : "r66",
         "comps" : [
            {
               "type" : 2,
               "id" : "comp_65",
               "e_time" : 552.300999996078,
               "time" : 2.53999999404198,
               "s_time" : 549.761000002036
            }
         ],
         "url" : "http://original.testbed.localhost/content.markitcdn.com/cnbc/api/movers/common/style/scriptsCache.asp%3Fversion=39414.768460648156.css"
      },
      {
         "when_comp_start" : -1,
         "comps" : [
            {
               "id" : "comp_121",
               "type" : 1,
               "s_time" : 767.679999997199,
               "e_time" : 805.140999997093,
               "time" : 37.4609999998939
            }
         ],
         "url" : "http://original.testbed.localhost/cdn.gigya.com/JS/socialize.js%3Fapikey=2_Jx5rsFp18pauXYlKGzHQVpbahcR1iJ30bbyfqZsn69A6vbt3dQ7gYFCESWKMM1sP",
         "id" : "r77",
         "download" : {
            "dnsStart" : -1,
            "sslStart" : -1,
            "receivedTime" : "595.872999998392",
            "len" : 163972,
            "dns" : 0,
            "sslEnd" : -1,
            "s_time" : 536.458000002312,
            "type" : "text/plain",
            "receiveHeadersEnd" : 20,
            "receiveFirst" : 20,
            "id" : "download_50",
            "sendStart" : 0,
            "connectStart" : 0,
            "sendEnd" : 0,
            "connectEnd" : 0,
            "dnsEnd" : -1,
            "receiveLast" : 575.872999998392
         }
      },
      {
         "id" : "r90",
         "url" : "http://original.testbed.localhost/www.cnbc.com/staticcontent/jquery-global.js%3Fvn=290",
         "comps" : [
            {
               "time" : 45.6819999963039,
               "e_time" : 850.900999997975,
               "s_time" : 805.219000001671,
               "type" : 1,
               "id" : "comp_122"
            }
         ],
         "when_comp_start" : -1,
         "download" : {
            "receiveLast" : 627.167999999714,
            "connectEnd" : 0,
            "dnsEnd" : -1,
            "sendEnd" : 0,
            "connectStart" : 0,
            "sendStart" : 0,
            "receiveFirst" : 21,
            "id" : "download_51",
            "type" : "text/plain",
            "receiveHeadersEnd" : 21,
            "s_time" : 595.8180000016,
            "len" : 331068,
            "sslEnd" : -1,
            "dns" : 0,
            "receivedTime" : "648.167999999714",
            "sslStart" : -1,
            "dnsStart" : -1
         }
      },
      {
         "download" : {
            "receiveLast" : 831.031999999483,
            "sendEnd" : 0,
            "connectEnd" : 0,
            "dnsEnd" : -1,
            "sendStart" : 0,
            "connectStart" : 0,
            "receiveHeadersEnd" : 24,
            "type" : "application/javascript",
            "receiveFirst" : 24,
            "id" : "download_52",
            "s_time" : 647.899999996298,
            "len" : 95204,
            "dns" : 0,
            "sslEnd" : -1,
            "sslStart" : -1,
            "receivedTime" : "855.031999999483",
            "dnsStart" : -1
         },
         "id" : "r95",
         "comps" : [
            {
               "type" : 1,
               "id" : "comp_127",
               "e_time" : 881.497000002128,
               "time" : 26.401000002807,
               "s_time" : 855.095999999321
            }
         ],
         "url" : "http://original.testbed.localhost/platform.twitter.com/widgets.js",
         "when_comp_start" : -1
      },
      {
         "when_comp_start" : -1,
         "id" : "r97",
         "comps" : [
            {
               "id" : "comp_129",
               "type" : 1,
               "s_time" : 882.372000000032,
               "e_time" : 911.35299999587,
               "time" : 28.980999995838
            }
         ],
         "url" : "http://original.testbed.localhost/surf.nbcuni.com/rdk/surf.js.php",
         "download" : {
            "receiveFirst" : 27,
            "id" : "download_53",
            "receiveHeadersEnd" : 28,
            "type" : "application/javascript",
            "sendStart" : 1,
            "connectStart" : 0,
            "sendEnd" : 1,
            "dnsEnd" : -1,
            "connectEnd" : 1,
            "receiveLast" : 854.268000001204,
            "dnsStart" : -1,
            "receivedTime" : "882.268000001204",
            "sslStart" : -1,
            "len" : 210425,
            "dns" : 0,
            "sslEnd" : -1,
            "s_time" : 720.503999997163
         }
      },
      {
         "id" : "r98",
         "url" : "http://original.testbed.localhost/www.cnbc.com/staticcontent/global.js%3Fvn=290",
         "comps" : [
            {
               "s_time" : 913.150000000314,
               "time" : 2074.89499999793,
               "e_time" : 2988.04499999824,
               "id" : "comp_131",
               "type" : 1
            }
         ],
         "when_comp_start" : -1,
         "download" : {
            "sslStart" : -1,
            "receivedTime" : "913.061999999627",
            "dnsStart" : -1,
            "s_time" : 881.995999996434,
            "len" : 416035,
            "sslEnd" : -1,
            "dns" : 0,
            "connectStart" : 0,
            "sendStart" : 1,
            "receiveHeadersEnd" : 21,
            "type" : "text/plain",
            "receiveFirst" : 20,
            "id" : "download_54",
            "receiveLast" : 892.061999999627,
            "connectEnd" : 1,
            "dnsEnd" : -1,
            "sendEnd" : 1
         }
      },
      {
         "when_comp_start" : -1,
         "id" : "r99",
         "comps" : [
            {
               "id" : "comp_134",
               "type" : 1,
               "s_time" : 2988.1549999991,
               "time" : 26.4519999982404,
               "e_time" : 3014.60699999734
            }
         ],
         "url" : "http://original.testbed.localhost/www.cnbc.com/staticcontent/home_page_redesign.js%3Fvn=290",
         "download" : {
            "dns" : 0,
            "len" : 20319,
            "sslEnd" : -1,
            "s_time" : 882.17799999984,
            "dnsStart" : -1,
            "sslStart" : -1,
            "receivedTime" : "912.60599999805",
            "dnsEnd" : -1,
            "connectEnd" : 1,
            "sendEnd" : 1,
            "receiveLast" : 891.60599999805,
            "receiveHeadersEnd" : 21,
            "type" : "text/plain",
            "receiveFirst" : 20,
            "id" : "download_55",
            "connectStart" : 0,
            "sendStart" : 1
         }
      },
      {
         "download" : {
            "id" : "download_56",
            "receiveFirst" : 20,
            "receiveHeadersEnd" : 22,
            "type" : "text/plain",
            "sendStart" : 1,
            "connectStart" : 0,
            "sendEnd" : 2,
            "connectEnd" : 1,
            "dnsEnd" : -1,
            "receiveLast" : 3015.56900000008,
            "dnsStart" : -1,
            "receivedTime" : "3037.56900000008",
            "sslStart" : -1,
            "len" : 204,
            "sslEnd" : -1,
            "dns" : 0,
            "s_time" : 911.961999998312
         },
         "id" : "r101",
         "url" : "http://original.testbed.localhost/fm.cnbc.com/applications/cnbc.com/resources/files/2014/10/20/addIcon.js%3Fvn=1433374990",
         "comps" : [
            {
               "s_time" : 3136.60900000104,
               "e_time" : 3137.12900000246,
               "time" : 0.520000001420158,
               "id" : "comp_141",
               "type" : 1
            }
         ],
         "when_comp_start" : -1
      },
      {
         "download" : {
            "receiveLast" : 3016.07599999709,
            "sendEnd" : 1,
            "dnsEnd" : -1,
            "connectEnd" : 1,
            "sendStart" : 1,
            "connectStart" : 0,
            "type" : "text/plain",
            "receiveHeadersEnd" : 22,
            "receiveFirst" : 21,
            "id" : "download_57",
            "s_time" : 912.103999995452,
            "dns" : 0,
            "sslEnd" : -1,
            "len" : 1734,
            "sslStart" : -1,
            "receivedTime" : "3038.07599999709",
            "dnsStart" : -1
         },
         "when_comp_start" : -1,
         "id" : "r102",
         "comps" : [
            {
               "id" : "comp_144",
               "type" : 1,
               "s_time" : 3137.17799999722,
               "time" : 0.485000004120138,
               "e_time" : 3137.66300000134
            }
         ],
         "url" : "http://original.testbed.localhost/fm.cnbc.com/applications/cnbc.com/resources/files/2016/04/04/pro-talks-resizer.1_1.js%3Fvn=1460391100"
      },
      {
         "when_comp_start" : -1,
         "id" : "r103",
         "comps" : [
            {
               "id" : "comp_147",
               "type" : 1,
               "s_time" : 3137.71299999644,
               "e_time" : 3138.14799999818,
               "time" : 0.435000001739809
            }
         ],
         "url" : "http://original.testbed.localhost/fm.cnbc.com/applications/cnbc.com/resources/files/2013/07/12/badge-ad-css-update.js%3Fvn=1386587276",
         "download" : {
            "s_time" : 912.253000002238,
            "len" : 193,
            "dns" : 0,
            "sslEnd" : -1,
            "sslStart" : -1,
            "receivedTime" : "3038.35499999695",
            "dnsStart" : -1,
            "receiveLast" : 3016.35499999695,
            "connectEnd" : 1,
            "dnsEnd" : -1,
            "sendEnd" : 1,
            "connectStart" : 0,
            "sendStart" : 1,
            "type" : "text/plain",
            "receiveHeadersEnd" : 22,
            "receiveFirst" : 21,
            "id" : "download_58"
         }
      },
      {
         "download" : {
            "dnsEnd" : -1,
            "connectEnd" : 1,
            "sendEnd" : 1,
            "receiveLast" : 3016.62300000037,
            "receiveFirst" : 21,
            "id" : "download_59",
            "receiveHeadersEnd" : 22,
            "type" : "application/javascript",
            "connectStart" : 0,
            "sendStart" : 1,
            "len" : 2506,
            "sslEnd" : -1,
            "dns" : 0,
            "s_time" : 912.486000001081,
            "dnsStart" : -1,
            "receivedTime" : "3038.62300000037",
            "sslStart" : -1
         },
         "comps" : [
            {
               "time" : 0.839000000270062,
               "e_time" : 3140.15900000231,
               "s_time" : 3139.32000000204,
               "type" : 1,
               "id" : "comp_152"
            }
         ],
         "url" : "http://original.testbed.localhost/nvg.newsvine.com/setVid.min.js",
         "id" : "r104",
         "when_comp_start" : -1
      },
      {
         "when_comp_start" : -1,
         "id" : "r100",
         "comps" : [
            {
               "id" : "comp_137",
               "type" : 1,
               "s_time" : 3039.98899999715,
               "e_time" : 3136.04399999895,
               "time" : 96.0550000017997
            }
         ],
         "url" : "http://original.testbed.localhost/cdn.tinypass.com/api/tinypass.min.js",
         "download" : {
            "sendEnd" : 2,
            "dnsEnd" : -1,
            "connectEnd" : 2,
            "receiveLast" : 3011.89799999545,
            "receiveFirst" : 26,
            "id" : "download_60",
            "type" : "application/javascript",
            "receiveHeadersEnd" : 28,
            "sendStart" : 2,
            "connectStart" : 0,
            "dns" : 0,
            "len" : 239075,
            "sslEnd" : -1,
            "s_time" : 911.761999996088,
            "dnsStart" : -1,
            "receivedTime" : "3039.89799999545",
            "sslStart" : -1
         }
      },
      {
         "url" : "http://original.testbed.localhost/www.nbcudigitaladops.com/hosted/global.js",
         "comps" : [],
         "id" : "r107",
         "when_comp_start" : -1,
         "download" : {
            "dnsStart" : -1,
            "sslStart" : -1,
            "receivedTime" : "3246.07300000207",
            "len" : 1244,
            "dns" : 0,
            "sslEnd" : -1,
            "s_time" : 3224.07299999759,
            "receiveHeadersEnd" : 21,
            "type" : "application/javascript",
            "id" : "download_61",
            "receiveFirst" : 20,
            "sendStart" : 0,
            "connectStart" : 0,
            "sendEnd" : 1,
            "connectEnd" : 0,
            "dnsEnd" : -1,
            "receiveLast" : 3225.07300000207
         }
      },
      {
         "when_comp_start" : -1,
         "comps" : [
            {
               "s_time" : 3250.77400000009,
               "time" : 1.95800000073996,
               "e_time" : 3252.73200000083,
               "id" : "comp_172",
               "type" : 1
            }
         ],
         "url" : "http://original.testbed.localhost/widget.perfectmarket.com/cnbc/load.js",
         "id" : "r108",
         "download" : {
            "receiveLast" : 3226.51699999615,
            "dnsEnd" : -1,
            "connectEnd" : 0,
            "sendEnd" : 0,
            "connectStart" : 0,
            "sendStart" : 0,
            "receiveHeadersEnd" : 21,
            "type" : "application/javascript",
            "receiveFirst" : 21,
            "id" : "download_62",
            "s_time" : 3224.26899999846,
            "dns" : 0,
            "len" : 17079,
            "sslEnd" : -1,
            "sslStart" : -1,
            "receivedTime" : "3247.51699999615",
            "dnsStart" : -1
         }
      }
   ]
}
