{
   "load_activity" : -1,
   "name" : "original.testbed.localhost_www.cbs.com_",
   "deps" : [
      {
         "id" : "dep1",
         "time" : -1,
         "a2" : "r1_c2",
         "a1" : "comp_13"
      },
      {
         "id" : "dep2",
         "time" : -1,
         "a1" : "comp_18",
         "a2" : "r1_c3"
      },
      {
         "a1" : "comp_22",
         "a2" : "r1_c4",
         "id" : "dep3",
         "time" : -1
      },
      {
         "time" : -1,
         "id" : "dep4",
         "a2" : "r1_c5",
         "a1" : "comp_64"
      },
      {
         "time" : -1,
         "id" : "dep5",
         "a2" : "r1_c6",
         "a1" : "comp_88"
      },
      {
         "a2" : "r1_c7",
         "a1" : "comp_185",
         "id" : "dep6",
         "time" : -1
      },
      {
         "time" : -1,
         "id" : "dep7",
         "a1" : "comp_5",
         "a2" : "comp_13"
      },
      {
         "a2" : "comp_18",
         "a1" : "comp_13",
         "id" : "dep8",
         "time" : -1
      },
      {
         "time" : -1,
         "id" : "dep9",
         "a1" : "comp_64",
         "a2" : "comp_88"
      },
      {
         "a2" : "download_68",
         "a1" : "r1_c7",
         "time" : -1,
         "id" : "dep10"
      },
      {
         "a1" : "r1_c7",
         "a2" : "download_67",
         "id" : "dep11",
         "time" : 18.8569999954802
      },
      {
         "a2" : "download_66",
         "a1" : "r1_c7",
         "id" : "dep12",
         "time" : 18.6140000005303
      },
      {
         "id" : "dep13",
         "time" : 17.0070000022001,
         "a2" : "download_65",
         "a1" : "r1_c7"
      },
      {
         "time" : -1,
         "id" : "dep14",
         "a1" : "r1_c6",
         "a2" : "download_64"
      },
      {
         "a1" : "r1_c6",
         "a2" : "download_63",
         "id" : "dep15",
         "time" : 14.3620000017099
      },
      {
         "id" : "dep16",
         "time" : -1,
         "a1" : "r1_c5",
         "a2" : "download_62"
      },
      {
         "a2" : "download_61",
         "a1" : "r1_c5",
         "id" : "dep17",
         "time" : 28.07300000132
      },
      {
         "id" : "dep18",
         "time" : 9.13500000024987,
         "a2" : "download_60",
         "a1" : "r1_c5"
      },
      {
         "time" : 6.99300000269977,
         "id" : "dep19",
         "a1" : "r1_c5",
         "a2" : "download_59"
      },
      {
         "a1" : "r1_c5",
         "a2" : "download_58",
         "id" : "dep20",
         "time" : 6.60000000062018
      },
      {
         "time" : 6.15300000208981,
         "id" : "dep21",
         "a1" : "r1_c5",
         "a2" : "download_57"
      },
      {
         "a1" : "r1_c5",
         "a2" : "download_56",
         "time" : 5.64600000508017,
         "id" : "dep22"
      },
      {
         "a2" : "download_55",
         "a1" : "r1_c5",
         "id" : "dep23",
         "time" : 4.78100000328004
      },
      {
         "a1" : "r1_c4",
         "a2" : "download_54",
         "id" : "dep24",
         "time" : -1
      },
      {
         "a1" : "r1_c4",
         "a2" : "download_53",
         "time" : 161.90300000017,
         "id" : "dep25"
      },
      {
         "a2" : "download_52",
         "a1" : "r1_c4",
         "id" : "dep26",
         "time" : 161.48500000418
      },
      {
         "a1" : "r1_c4",
         "a2" : "download_51",
         "time" : 161.0440000004,
         "id" : "dep27"
      },
      {
         "time" : 160.62400000374,
         "id" : "dep28",
         "a2" : "download_50",
         "a1" : "r1_c4"
      },
      {
         "a2" : "download_49",
         "a1" : "r1_c4",
         "time" : 159.6520000021,
         "id" : "dep29"
      },
      {
         "a2" : "download_48",
         "a1" : "r1_c4",
         "time" : 141.0990000004,
         "id" : "dep30"
      },
      {
         "a1" : "r1_c4",
         "a2" : "download_47",
         "time" : 140.88199999969,
         "id" : "dep31"
      },
      {
         "a2" : "download_46",
         "a1" : "r1_c4",
         "time" : 140.582,
         "id" : "dep32"
      },
      {
         "a2" : "download_45",
         "a1" : "r1_c4",
         "time" : 140.25799999945,
         "id" : "dep33"
      },
      {
         "time" : 139.13799999864,
         "id" : "dep34",
         "a1" : "r1_c4",
         "a2" : "download_44"
      },
      {
         "a2" : "download_43",
         "a1" : "r1_c4",
         "time" : 119.70899999869,
         "id" : "dep35"
      },
      {
         "id" : "dep36",
         "time" : 119.3390000044,
         "a2" : "download_42",
         "a1" : "r1_c4"
      },
      {
         "a2" : "download_41",
         "a1" : "r1_c4",
         "id" : "dep37",
         "time" : 119.10100000387
      },
      {
         "a2" : "download_40",
         "a1" : "r1_c4",
         "time" : 118.77700000332,
         "id" : "dep38"
      },
      {
         "id" : "dep39",
         "time" : 97.5670000043501,
         "a2" : "download_39",
         "a1" : "r1_c4"
      },
      {
         "a1" : "r1_c4",
         "a2" : "download_38",
         "time" : 97.3040000026199,
         "id" : "dep40"
      },
      {
         "a1" : "r1_c4",
         "a2" : "download_37",
         "id" : "dep41",
         "time" : 97.1190000054798
      },
      {
         "a1" : "r1_c4",
         "a2" : "download_36",
         "time" : 96.94899999886,
         "id" : "dep42"
      },
      {
         "id" : "dep43",
         "time" : 96.1790000001201,
         "a2" : "download_35",
         "a1" : "r1_c4"
      },
      {
         "time" : 95.78300000431,
         "id" : "dep44",
         "a1" : "r1_c4",
         "a2" : "download_34"
      },
      {
         "time" : 74.5040000037998,
         "id" : "dep45",
         "a1" : "r1_c4",
         "a2" : "download_33"
      },
      {
         "a1" : "r1_c4",
         "a2" : "download_33",
         "id" : "dep46",
         "time" : 74.5040000037998
      },
      {
         "time" : 72.4709999994998,
         "id" : "dep47",
         "a2" : "download_32",
         "a1" : "r1_c4"
      },
      {
         "a1" : "r1_c4",
         "a2" : "download_31",
         "id" : "dep48",
         "time" : 72.31500000489
      },
      {
         "time" : 72.1560000019999,
         "id" : "dep49",
         "a2" : "download_30",
         "a1" : "r1_c4"
      },
      {
         "time" : 72.0169999986001,
         "id" : "dep50",
         "a2" : "download_29",
         "a1" : "r1_c4"
      },
      {
         "a2" : "download_28",
         "a1" : "r1_c4",
         "time" : 74.3930000025998,
         "id" : "dep51"
      },
      {
         "id" : "dep52",
         "time" : 71.8620000043302,
         "a2" : "download_27",
         "a1" : "r1_c4"
      },
      {
         "a2" : "download_26",
         "a1" : "r1_c4",
         "id" : "dep53",
         "time" : 71.7060000024499
      },
      {
         "a2" : "download_25",
         "a1" : "r1_c4",
         "time" : 71.57200000074,
         "id" : "dep54"
      },
      {
         "a2" : "download_24",
         "a1" : "r1_c4",
         "id" : "dep55",
         "time" : 71.4420000003902
      },
      {
         "time" : 71.3089999990198,
         "id" : "dep56",
         "a1" : "r1_c4",
         "a2" : "download_23"
      },
      {
         "a2" : "download_22",
         "a1" : "r1_c4",
         "id" : "dep57",
         "time" : 71.1420000006901
      },
      {
         "a1" : "r1_c4",
         "a2" : "download_21",
         "id" : "dep58",
         "time" : 12.4060000016498
      },
      {
         "time" : 12.2600000031498,
         "id" : "dep59",
         "a2" : "download_20",
         "a1" : "r1_c4"
      },
      {
         "id" : "dep60",
         "time" : 7.50300000073003,
         "a1" : "r1_c4",
         "a2" : "download_19"
      },
      {
         "a2" : "download_18",
         "a1" : "r1_c4",
         "id" : "dep61",
         "time" : 6.9409999996401
      },
      {
         "a2" : "download_17",
         "a1" : "r1_c4",
         "id" : "dep62",
         "time" : 6.76400000521016
      },
      {
         "a1" : "r1_c1",
         "a2" : "download_16",
         "time" : -1,
         "id" : "dep63"
      },
      {
         "a1" : "r1_c1",
         "a2" : "download_15",
         "time" : 92.7700000029287,
         "id" : "dep64"
      },
      {
         "id" : "dep65",
         "time" : 92.6710000057937,
         "a1" : "r1_c1",
         "a2" : "download_14"
      },
      {
         "id" : "dep66",
         "time" : 92.5940000015547,
         "a2" : "download_13",
         "a1" : "r1_c1"
      },
      {
         "id" : "dep67",
         "time" : 92.3970000003467,
         "a2" : "download_12",
         "a1" : "r1_c1"
      },
      {
         "a2" : "download_11",
         "a1" : "r1_c1",
         "id" : "dep68",
         "time" : 92.5040000001897
      },
      {
         "a1" : "r1_c1",
         "a2" : "download_10",
         "time" : 90.0860000037937,
         "id" : "dep69"
      },
      {
         "id" : "dep70",
         "time" : 68.6350000032687,
         "a2" : "download_9",
         "a1" : "r1_c1"
      },
      {
         "time" : 67.6260000036567,
         "id" : "dep71",
         "a2" : "download_8",
         "a1" : "r1_c1"
      },
      {
         "id" : "dep72",
         "time" : 66.8510000032257,
         "a1" : "r1_c1",
         "a2" : "download_7"
      },
      {
         "id" : "dep73",
         "time" : 45.2670000013313,
         "a2" : "download_6",
         "a1" : "r1_c1"
      },
      {
         "a2" : "download_5",
         "a1" : "r1_c1",
         "id" : "dep74",
         "time" : 2.2969999990891
      },
      {
         "time" : 2.2969999990891,
         "id" : "dep75",
         "a1" : "r1_c1",
         "a2" : "download_5"
      },
      {
         "a1" : "r1_c1",
         "a2" : "download_4",
         "id" : "dep76",
         "time" : 2.401000005193
      },
      {
         "a1" : "r1_c1",
         "a2" : "download_4",
         "id" : "dep77",
         "time" : 2.401000005193
      },
      {
         "id" : "dep78",
         "time" : 2.2119999994174,
         "a1" : "r1_c1",
         "a2" : "download_3"
      },
      {
         "a2" : "download_3",
         "a1" : "r1_c1",
         "time" : 2.2119999994174,
         "id" : "dep79"
      },
      {
         "a1" : "r1_c1",
         "a2" : "download_2",
         "time" : 0.643999999738305,
         "id" : "dep80"
      },
      {
         "id" : "dep81",
         "time" : 0.490000005811403,
         "a2" : "download_1",
         "a1" : "r1_c1"
      }
   ],
   "objs" : [
      {
         "comps" : [
            {
               "time" : 92.8610000046317,
               "s_time" : 34.3709999942803,
               "id" : "r1_c1",
               "type" : "evalhtml",
               "e_time" : 127.231999998912
            },
            {
               "s_time" : 2966.55399999872,
               "time" : -42328568.738,
               "id" : "r1_c2",
               "type" : "evalhtml",
               "e_time" : -42325602.184
            },
            {
               "type" : "evalhtml",
               "id" : "r1_c3",
               "s_time" : 2971.04499999841,
               "time" : -42328573.229,
               "e_time" : -42325602.184
            },
            {
               "e_time" : 3228.75999999815,
               "type" : "evalhtml",
               "id" : "r1_c4",
               "s_time" : 3064.82799999503,
               "time" : 163.93200000312
            },
            {
               "e_time" : 3269.03099999618,
               "type" : "evalhtml",
               "id" : "r1_c5",
               "s_time" : 3240.14099999476,
               "time" : 28.89000000142
            },
            {
               "e_time" : 3305.38099999831,
               "type" : "evalhtml",
               "id" : "r1_c6",
               "s_time" : 3269.09299999534,
               "time" : 36.28800000297
            },
            {
               "e_time" : 3328.68099999905,
               "s_time" : 3309.69999999797,
               "time" : 18.9810000010802,
               "type" : "evalhtml",
               "id" : "r1_c7"
            }
         ],
         "url" : "http://original.testbed.localhost/www.cbs.com/",
         "id" : "r1",
         "when_comp_start" : 1,
         "download" : {
            "dnsStart" : -1,
            "connectEnd" : 0,
            "receiveHeadersEnd" : 23,
            "type" : "text/html",
            "receivedTime" : "43.9269999988028",
            "receiveFirst" : 23,
            "dns" : 0,
            "s_time" : 0,
            "sendStart" : 0,
            "len" : 112434,
            "dnsEnd" : -1,
            "connectStart" : 0,
            "sslEnd" : -1,
            "sslStart" : -1,
            "sendEnd" : 0,
            "receiveLast" : 20.9269999988028,
            "id" : "download_0"
         }
      },
      {
         "comps" : [
            {
               "s_time" : 58.7019999948097,
               "time" : 5.7620000006864,
               "id" : "comp_5",
               "type" : 4,
               "e_time" : 64.4639999954961
            }
         ],
         "url" : "http://original.testbed.localhost/wwwimage.cbsstatic.com/assets/css/min/homepage.min.css",
         "id" : "r2",
         "download" : {
            "connectEnd" : 0,
            "dnsStart" : -1,
            "receiveHeadersEnd" : 23,
            "type" : "text/css",
            "receivedTime" : "58.6639999964973",
            "dns" : 0,
            "receiveFirst" : 23,
            "s_time" : 34.8610000000917,
            "len" : 62764,
            "sendStart" : 0,
            "dnsEnd" : -1,
            "connectStart" : 0,
            "sendEnd" : 0,
            "sslStart" : -1,
            "receiveLast" : 35.6639999964973,
            "sslEnd" : -1,
            "id" : "download_1"
         },
         "when_comp_start" : -1
      },
      {
         "comps" : [
            {
               "e_time" : 2966.55399999872,
               "id" : "comp_13",
               "type" : 1,
               "s_time" : 92.5149999966379,
               "time" : 2874.03900000208
            }
         ],
         "url" : "http://original.testbed.localhost/wwwimage.cbsstatic.com/assets/js/jquery.tools.min_1_2_6.js",
         "id" : "r3",
         "when_comp_start" : -1,
         "download" : {
            "sslEnd" : -1,
            "sslStart" : -1,
            "receiveLast" : 56.211999995925,
            "sendEnd" : 9,
            "id" : "download_2",
            "s_time" : 35.0149999940186,
            "sendStart" : 9,
            "len" : 137849,
            "dnsEnd" : -1,
            "connectStart" : 0,
            "type" : "application/javascript",
            "receivedTime" : "92.211999995925",
            "receiveFirst" : 27,
            "dns" : 0,
            "dnsStart" : -1,
            "connectEnd" : 9,
            "receiveHeadersEnd" : 36
         }
      },
      {
         "id" : "r4",
         "download" : {
            "receivedTime" : "77.9320000001462",
            "receiveFirst" : 21,
            "dns" : 0,
            "type" : "application/javascript",
            "receiveHeadersEnd" : 40,
            "connectEnd" : 19,
            "dnsStart" : 0,
            "sslEnd" : -1,
            "receiveLast" : 37.9320000001462,
            "sslStart" : -1,
            "sendEnd" : 19,
            "id" : "download_3",
            "dnsEnd" : 0,
            "connectStart" : 0,
            "s_time" : 36.5829999936977,
            "sendStart" : 19,
            "len" : 7546
         },
         "when_comp_start" : -1,
         "comps" : [
            {
               "s_time" : 2966.67799999705,
               "time" : 4.36700000135988,
               "type" : 1,
               "id" : "comp_18",
               "e_time" : 2971.04499999841
            }
         ],
         "url" : "http://original.testbed.localhost/wwwimage.cbsstatic.com/assets/min/js/cbs/cbs.min.js"
      },
      {
         "comps" : [],
         "url" : "http://original.testbed.localhost/wwwimage.cbsstatic.com/base/files/aa_finale_tgw_mq_980x412_month_tom.jpg",
         "id" : "r6",
         "when_comp_start" : -1,
         "download" : {
            "type" : "image/jpeg",
            "dns" : 0,
            "receiveFirst" : 21,
            "receivedTime" : "79.7829999937676",
            "connectEnd" : 21,
            "dnsStart" : 0,
            "receiveHeadersEnd" : 42,
            "id" : "download_4",
            "sslStart" : -1,
            "sendEnd" : 21,
            "receiveLast" : 37.7829999937676,
            "sslEnd" : -1,
            "len" : 114385,
            "sendStart" : 21,
            "s_time" : 36.7719999994733,
            "connectStart" : 0,
            "dnsEnd" : 0
         }
      },
      {
         "id" : "r5",
         "when_comp_start" : -1,
         "download" : {
            "id" : "download_5",
            "sslEnd" : -1,
            "sslStart" : -1,
            "sendEnd" : 21,
            "receiveLast" : 2926.38200000033,
            "connectStart" : 0,
            "dnsEnd" : 0,
            "sendStart" : 21,
            "len" : 362545,
            "s_time" : 36.6679999933694,
            "receiveFirst" : 27,
            "dns" : 0,
            "receivedTime" : "2974.38200000033",
            "type" : "application/javascript",
            "receiveHeadersEnd" : 48,
            "dnsStart" : 0,
            "connectEnd" : 21
         },
         "comps" : [
            {
               "time" : 90.3709999984098,
               "s_time" : 2974.45699999662,
               "id" : "comp_22",
               "type" : 1,
               "e_time" : 3064.82799999503
            }
         ],
         "url" : "http://original.testbed.localhost/cdn.optimizely.com/js/1557470023.js"
      },
      {
         "when_comp_start" : -1,
         "download" : {
            "connectStart" : 0,
            "dnsEnd" : -1,
            "sendStart" : 0,
            "len" : 138945,
            "s_time" : 79.6379999956116,
            "id" : "download_6",
            "sslEnd" : -1,
            "sslStart" : -1,
            "receiveLast" : 2951.89900000033,
            "sendEnd" : 0,
            "receiveHeadersEnd" : 21,
            "connectEnd" : 0,
            "dnsStart" : -1,
            "receiveFirst" : 21,
            "dns" : 0,
            "receivedTime" : "2972.89900000033",
            "type" : "image/jpeg"
         },
         "id" : "r7",
         "url" : "http://original.testbed.localhost/wwwimage.cbsstatic.com/base/files/blu_mq_sf_980x412.jpg",
         "comps" : []
      },
      {
         "url" : "http://original.testbed.localhost/wwwimage.cbsstatic.com/base/files/ar_lfe_980x412_5.jpg",
         "comps" : [],
         "when_comp_start" : -1,
         "download" : {
            "connectEnd" : 0,
            "dnsStart" : -1,
            "receiveHeadersEnd" : 0,
            "type" : "image/jpeg",
            "dns" : 0,
            "receiveFirst" : 0,
            "receivedTime" : "2973.23199999664",
            "len" : 138811,
            "sendStart" : 0,
            "s_time" : 101.221999997506,
            "connectStart" : 0,
            "dnsEnd" : -1,
            "id" : "download_7",
            "sendEnd" : 0,
            "sslStart" : -1,
            "receiveLast" : 2973.23199999664,
            "sslEnd" : -1
         },
         "id" : "r8"
      },
      {
         "comps" : [],
         "url" : "http://original.testbed.localhost/wwwimage.cbsstatic.com/base/files/h50_mq_pr_web_980x412_10.jpg",
         "id" : "r9",
         "download" : {
            "dnsStart" : -1,
            "connectEnd" : 0,
            "receiveHeadersEnd" : 0,
            "type" : "image/jpeg",
            "receivedTime" : "2973.51199999684",
            "dns" : 0,
            "receiveFirst" : 0,
            "s_time" : 101.996999997937,
            "len" : 129910,
            "sendStart" : 0,
            "dnsEnd" : -1,
            "connectStart" : 0,
            "sendEnd" : 0,
            "sslStart" : -1,
            "receiveLast" : 2973.51199999684,
            "sslEnd" : -1,
            "id" : "download_8"
         },
         "when_comp_start" : -1
      },
      {
         "when_comp_start" : -1,
         "download" : {
            "receiveHeadersEnd" : 20,
            "dnsStart" : -1,
            "connectEnd" : 0,
            "receivedTime" : "2974.19199999422",
            "dns" : 0,
            "receiveFirst" : 20,
            "type" : "image/jpeg",
            "dnsEnd" : -1,
            "connectStart" : 0,
            "s_time" : 103.005999997549,
            "len" : 135577,
            "sendStart" : 0,
            "sslStart" : -1,
            "sendEnd" : 0,
            "receiveLast" : 2954.19199999422,
            "sslEnd" : -1,
            "id" : "download_9"
         },
         "id" : "r10",
         "url" : "http://original.testbed.localhost/wwwimage.cbsstatic.com/base/files/yearbook_fin_mq_980x412_6.jpg",
         "comps" : []
      },
      {
         "comps" : [],
         "url" : "http://original.testbed.localhost/wwwimage.cbsstatic.com/thumbnails/photos/w288/cbs_corden_gwen_ck_tease_cian_822729_616x346.jpg",
         "id" : "r11",
         "download" : {
            "dnsEnd" : -1,
            "connectStart" : 0,
            "s_time" : 124.456999998074,
            "len" : 15181,
            "sendStart" : 0,
            "sslStart" : -1,
            "sendEnd" : 0,
            "receiveLast" : 3049.3680000006,
            "sslEnd" : -1,
            "id" : "download_10",
            "receiveHeadersEnd" : 21,
            "connectEnd" : 0,
            "dnsStart" : -1,
            "receivedTime" : "3070.3680000006",
            "dns" : 0,
            "receiveFirst" : 21,
            "type" : "image/jpeg"
         },
         "when_comp_start" : -1
      },
      {
         "url" : "http://original.testbed.localhost/wwwimage.cbsstatic.com/thumbnails/photos/w288/sme_tgw_288x162.jpg",
         "comps" : [],
         "when_comp_start" : -1,
         "download" : {
            "connectEnd" : 1,
            "dnsStart" : -1,
            "receiveHeadersEnd" : 21,
            "type" : "image/jpeg",
            "receivedTime" : "3070.6829999981",
            "dns" : 0,
            "receiveFirst" : 20,
            "s_time" : 126.87499999447,
            "len" : 9915,
            "sendStart" : 1,
            "dnsEnd" : -1,
            "connectStart" : 0,
            "sendEnd" : 1,
            "receiveLast" : 3049.6829999981,
            "sslStart" : -1,
            "sslEnd" : -1,
            "id" : "download_11"
         },
         "id" : "r13"
      },
      {
         "comps" : [],
         "url" : "http://original.testbed.localhost/wwwimage.cbsstatic.com/thumbnails/photos/w288/jul_watch_0.jpg",
         "id" : "r12",
         "when_comp_start" : -1,
         "download" : {
            "receiveHeadersEnd" : 21,
            "connectEnd" : 1,
            "dnsStart" : -1,
            "receiveFirst" : 20,
            "dns" : 0,
            "receivedTime" : "3070.75599999371",
            "type" : "image/jpeg",
            "connectStart" : 0,
            "dnsEnd" : -1,
            "sendStart" : 1,
            "len" : 15318,
            "s_time" : 126.767999994627,
            "id" : "download_12",
            "sslEnd" : -1,
            "sslStart" : -1,
            "receiveLast" : 3049.75599999371,
            "sendEnd" : 1
         }
      },
      {
         "comps" : [],
         "url" : "http://original.testbed.localhost/wwwimage.cbsstatic.com/thumbnails/photos/w288/madam-secretary_288x162.jpg",
         "id" : "r14",
         "when_comp_start" : -1,
         "download" : {
            "receiveHeadersEnd" : 21,
            "connectEnd" : 1,
            "dnsStart" : -1,
            "receivedTime" : "3070.82599999558",
            "dns" : 0,
            "receiveFirst" : 20,
            "type" : "image/jpeg",
            "dnsEnd" : -1,
            "connectStart" : 0,
            "s_time" : 126.964999995835,
            "len" : 13076,
            "sendStart" : 1,
            "sendEnd" : 1,
            "receiveLast" : 3049.82599999558,
            "sslStart" : -1,
            "sslEnd" : -1,
            "id" : "download_13"
         }
      },
      {
         "comps" : [],
         "url" : "http://original.testbed.localhost/wwwimage.cbsstatic.com/thumbnails/photos/w288/not_safe_for_daytime.jpg",
         "id" : "r15",
         "download" : {
            "id" : "download_14",
            "sslStart" : -1,
            "sendEnd" : 1,
            "receiveLast" : 3049.88999999542,
            "sslEnd" : -1,
            "connectStart" : 0,
            "dnsEnd" : -1,
            "len" : 29644,
            "sendStart" : 1,
            "s_time" : 127.042000000074,
            "dns" : 0,
            "receiveFirst" : 20,
            "receivedTime" : "3070.88999999542",
            "type" : "image/jpeg",
            "receiveHeadersEnd" : 21,
            "dnsStart" : -1,
            "connectEnd" : 1
         },
         "when_comp_start" : -1
      },
      {
         "comps" : [],
         "url" : "http://original.testbed.localhost/wwwimage.cbsstatic.com/thumbnails/photos/w288/pir_lmad_288x162.jpg",
         "id" : "r16",
         "download" : {
            "dnsEnd" : -1,
            "connectStart" : 0,
            "s_time" : 127.140999997209,
            "sendStart" : 0,
            "len" : 24674,
            "sslEnd" : -1,
            "sendEnd" : 0,
            "sslStart" : -1,
            "receiveLast" : 3049.96900000033,
            "id" : "download_15",
            "receiveHeadersEnd" : 21,
            "connectEnd" : 0,
            "dnsStart" : -1,
            "receivedTime" : "3070.96900000033",
            "receiveFirst" : 21,
            "dns" : 0,
            "type" : "image/jpeg"
         },
         "when_comp_start" : -1
      },
      {
         "comps" : [],
         "url" : "http://original.testbed.localhost/ssl.gstatic.com/images/icons/gplus-32.png",
         "id" : "r17",
         "download" : {
            "type" : "image/png",
            "receivedTime" : "3071.08099999459",
            "receiveFirst" : 20,
            "dns" : 0,
            "connectEnd" : 18,
            "dnsStart" : -1,
            "receiveHeadersEnd" : 38,
            "sslEnd" : -1,
            "receiveLast" : 3033.08099999459,
            "sendEnd" : 18,
            "sslStart" : -1,
            "id" : "download_16",
            "s_time" : 127.231999998912,
            "sendStart" : 18,
            "len" : 1768,
            "dnsEnd" : -1,
            "connectStart" : 0
         },
         "when_comp_start" : -1
      },
      {
         "url" : "http://original.testbed.localhost/wwwimage.cbsstatic.com/assets/images/homepage/2013/sprite.png",
         "comps" : [],
         "when_comp_start" : -1,
         "download" : {
            "len" : 128044,
            "sendStart" : 0,
            "s_time" : 3071.59200000024,
            "connectStart" : 0,
            "dnsEnd" : -1,
            "id" : "download_17",
            "sslStart" : -1,
            "sendEnd" : 0,
            "receiveLast" : 3135.18600000016,
            "sslEnd" : -1,
            "dnsStart" : -1,
            "connectEnd" : 0,
            "receiveHeadersEnd" : 21,
            "type" : "image/png",
            "dns" : 0,
            "receiveFirst" : 21,
            "receivedTime" : "3156.18600000016"
         },
         "id" : "r20"
      },
      {
         "when_comp_start" : -1,
         "download" : {
            "connectEnd" : 0,
            "dnsStart" : -1,
            "receiveHeadersEnd" : 21,
            "type" : "image/png",
            "receivedTime" : "3155.9369999959",
            "receiveFirst" : 21,
            "dns" : 0,
            "s_time" : 3071.76899999467,
            "sendStart" : 0,
            "len" : 11147,
            "dnsEnd" : -1,
            "connectStart" : 0,
            "sslEnd" : -1,
            "receiveLast" : 3134.9369999959,
            "sendEnd" : 0,
            "sslStart" : -1,
            "id" : "download_18"
         },
         "id" : "r21",
         "url" : "http://original.testbed.localhost/wwwimage.cbsstatic.com/assets/images/content/account/sprite-v2.5.png",
         "comps" : []
      },
      {
         "when_comp_start" : -1,
         "download" : {
            "s_time" : 3072.33099999576,
            "len" : 1184,
            "sendStart" : 0,
            "dnsEnd" : -1,
            "connectStart" : 0,
            "receiveLast" : 3135.07799999998,
            "sendEnd" : 0,
            "sslStart" : -1,
            "sslEnd" : -1,
            "id" : "download_19",
            "connectEnd" : 0,
            "dnsStart" : -1,
            "receiveHeadersEnd" : 21,
            "type" : "image/png",
            "receivedTime" : "3156.07799999998",
            "dns" : 0,
            "receiveFirst" : 21
         },
         "id" : "r22",
         "url" : "http://original.testbed.localhost/wwwimage.cbsstatic.com/assets/images/site/2012/r1/show-navigation/nav-body-bg.png",
         "comps" : []
      },
      {
         "url" : "http://original.testbed.localhost/wwwimage.cbsstatic.com/assets/images/homepage/2011/well_sdw.png",
         "comps" : [],
         "download" : {
            "connectEnd" : 0,
            "dnsStart" : -1,
            "receiveHeadersEnd" : 21,
            "type" : "image/png",
            "receivedTime" : "3156.36799999629",
            "receiveFirst" : 21,
            "dns" : 0,
            "s_time" : 3077.08799999818,
            "sendStart" : 0,
            "len" : 1017,
            "dnsEnd" : -1,
            "connectStart" : 0,
            "sslEnd" : -1,
            "sslStart" : -1,
            "receiveLast" : 3135.36799999629,
            "sendEnd" : 0,
            "id" : "download_20"
         },
         "when_comp_start" : -1,
         "id" : "r23"
      },
      {
         "id" : "r24",
         "when_comp_start" : -1,
         "download" : {
            "dnsEnd" : -1,
            "connectStart" : 0,
            "s_time" : 3077.23399999668,
            "sendStart" : 0,
            "len" : 1646,
            "sslEnd" : -1,
            "sslStart" : -1,
            "receiveLast" : 3135.45899999799,
            "sendEnd" : 0,
            "id" : "download_21",
            "receiveHeadersEnd" : 21,
            "connectEnd" : 0,
            "dnsStart" : -1,
            "receivedTime" : "3156.45899999799",
            "receiveFirst" : 21,
            "dns" : 0,
            "type" : "image/gif"
         },
         "comps" : [],
         "url" : "http://original.testbed.localhost/wwwimage.cbsstatic.com/assets/images/site/loader.gif"
      },
      {
         "comps" : [],
         "url" : "http://original.testbed.localhost/wwwimage.cbsstatic.com/base/files/config/gw_carousel.jpg",
         "id" : "r25",
         "when_comp_start" : -1,
         "download" : {
            "receiveFirst" : 20,
            "dns" : 0,
            "receivedTime" : "3237.37899999833",
            "type" : "image/jpeg",
            "receiveHeadersEnd" : 24,
            "connectEnd" : 4,
            "dnsStart" : -1,
            "id" : "download_22",
            "sslEnd" : -1,
            "sslStart" : -1,
            "sendEnd" : 4,
            "receiveLast" : 3213.37899999833,
            "connectStart" : 0,
            "dnsEnd" : -1,
            "sendStart" : 4,
            "len" : 12333,
            "s_time" : 3135.96999999572
         }
      },
      {
         "id" : "r26",
         "when_comp_start" : -1,
         "download" : {
            "receiveHeadersEnd" : 24,
            "dnsStart" : -1,
            "connectEnd" : 4,
            "dns" : 0,
            "receiveFirst" : 20,
            "receivedTime" : "3237.50999999902",
            "type" : "image/jpeg",
            "connectStart" : 0,
            "dnsEnd" : -1,
            "len" : 12009,
            "sendStart" : 4,
            "s_time" : 3136.13699999405,
            "id" : "download_23",
            "receiveLast" : 3213.50999999902,
            "sslStart" : -1,
            "sendEnd" : 4,
            "sslEnd" : -1
         },
         "comps" : [],
         "url" : "http://original.testbed.localhost/wwwimage.cbsstatic.com/base/files/config/csimiami_166x87.jpg"
      },
      {
         "when_comp_start" : -1,
         "download" : {
            "receiveFirst" : 21,
            "dns" : 0,
            "receivedTime" : "3237.87599999923",
            "type" : "image/jpeg",
            "receiveHeadersEnd" : 25,
            "connectEnd" : 4,
            "dnsStart" : -1,
            "id" : "download_24",
            "sslEnd" : -1,
            "sendEnd" : 4,
            "receiveLast" : 3212.87599999923,
            "sslStart" : -1,
            "connectStart" : 0,
            "dnsEnd" : -1,
            "sendStart" : 4,
            "len" : 17379,
            "s_time" : 3136.26999999542
         },
         "id" : "r27",
         "url" : "http://original.testbed.localhost/wwwimage.cbsstatic.com/base/files/config/flashpoint_166x87.jpg",
         "comps" : []
      },
      {
         "id" : "r28",
         "when_comp_start" : -1,
         "download" : {
            "s_time" : 3136.39999999577,
            "sendStart" : 4,
            "len" : 19752,
            "dnsEnd" : -1,
            "connectStart" : 0,
            "sslEnd" : -1,
            "sendEnd" : 4,
            "receiveLast" : 3212.98299999908,
            "sslStart" : -1,
            "id" : "download_25",
            "dnsStart" : -1,
            "connectEnd" : 4,
            "receiveHeadersEnd" : 25,
            "type" : "image/jpeg",
            "receivedTime" : "3237.98299999908",
            "receiveFirst" : 21,
            "dns" : 0
         },
         "comps" : [],
         "url" : "http://original.testbed.localhost/wwwimage.cbsstatic.com/base/files/config/bh-90210_166x87.jpg"
      },
      {
         "url" : "http://original.testbed.localhost/wwwimage.cbsstatic.com/base/files/config/beautyandthebeast_166x87.jpg",
         "comps" : [],
         "download" : {
            "receiveHeadersEnd" : 25,
            "dnsStart" : -1,
            "connectEnd" : 4,
            "receiveFirst" : 21,
            "dns" : 0,
            "receivedTime" : "3238.10399999638",
            "type" : "image/jpeg",
            "connectStart" : 0,
            "dnsEnd" : -1,
            "sendStart" : 4,
            "len" : 23886,
            "s_time" : 3136.53399999748,
            "id" : "download_26",
            "sslEnd" : -1,
            "sendEnd" : 4,
            "sslStart" : -1,
            "receiveLast" : 3213.10399999638
         },
         "when_comp_start" : -1,
         "id" : "r29"
      },
      {
         "when_comp_start" : -1,
         "download" : {
            "dnsEnd" : -1,
            "connectStart" : 0,
            "s_time" : 3136.68999999936,
            "len" : 4034,
            "sendStart" : 3,
            "sslStart" : -1,
            "receiveLast" : 3213.20399999386,
            "sendEnd" : 3,
            "sslEnd" : -1,
            "id" : "download_27",
            "receiveHeadersEnd" : 25,
            "dnsStart" : -1,
            "connectEnd" : 3,
            "receivedTime" : "3238.20399999386",
            "dns" : 0,
            "receiveFirst" : 22,
            "type" : "image/jpeg"
         },
         "id" : "r30",
         "url" : "http://original.testbed.localhost/wwwimage.cbsstatic.com/base/files/hp_classics_0012_familyties.jpg",
         "comps" : []
      },
      {
         "url" : "http://original.testbed.localhost/dw.cbsi.com/js/dw.js",
         "comps" : [
            {
               "e_time" : 3240.14099999476,
               "id" : "comp_64",
               "type" : 1,
               "s_time" : 3238.39500000031,
               "time" : 1.7459999944499
            }
         ],
         "download" : {
            "connectEnd" : 21,
            "dnsStart" : -1,
            "receiveHeadersEnd" : 43,
            "type" : "application/javascript",
            "receivedTime" : "3238.36999999912",
            "dns" : 0,
            "receiveFirst" : 22,
            "s_time" : 3139.22099999763,
            "len" : 21793,
            "sendStart" : 21,
            "dnsEnd" : -1,
            "connectStart" : 0,
            "receiveLast" : 3195.36999999912,
            "sendEnd" : 21,
            "sslStart" : -1,
            "sslEnd" : -1,
            "id" : "download_28"
         },
         "when_comp_start" : -1,
         "id" : "r61"
      },
      {
         "url" : "http://original.testbed.localhost/wwwimage.cbsstatic.com/base/files/config/h50_166x87.jpg",
         "comps" : [],
         "when_comp_start" : -1,
         "download" : {
            "receiveHeadersEnd" : 46,
            "connectEnd" : 25,
            "dnsStart" : -1,
            "receiveFirst" : 21,
            "dns" : 0,
            "receivedTime" : "3240.52200000006",
            "type" : "image/jpeg",
            "connectStart" : 0,
            "dnsEnd" : -1,
            "sendStart" : 25,
            "len" : 25910,
            "s_time" : 3136.84499999363,
            "id" : "download_29",
            "sslEnd" : -1,
            "sslStart" : -1,
            "sendEnd" : 25,
            "receiveLast" : 3194.52200000006
         },
         "id" : "r31"
      },
      {
         "id" : "r32",
         "download" : {
            "receiveHeadersEnd" : 46,
            "dnsStart" : -1,
            "connectEnd" : 25,
            "receivedTime" : "3240.6159999955",
            "dns" : 0,
            "receiveFirst" : 21,
            "type" : "image/jpeg",
            "dnsEnd" : -1,
            "connectStart" : 0,
            "s_time" : 3136.98399999703,
            "len" : 4139,
            "sendStart" : 25,
            "receiveLast" : 3194.6159999955,
            "sendEnd" : 25,
            "sslStart" : -1,
            "sslEnd" : -1,
            "id" : "download_30"
         },
         "when_comp_start" : -1,
         "comps" : [],
         "url" : "http://original.testbed.localhost/wwwimage.cbsstatic.com/base/files/hp_classics_0007_macgyver.jpg"
      },
      {
         "download" : {
            "type" : "image/jpeg",
            "receiveFirst" : 21,
            "dns" : 0,
            "receivedTime" : "3240.70499999652",
            "dnsStart" : -1,
            "connectEnd" : 25,
            "receiveHeadersEnd" : 46,
            "id" : "download_31",
            "sslEnd" : -1,
            "receiveLast" : 3194.70499999652,
            "sendEnd" : 25,
            "sslStart" : -1,
            "sendStart" : 25,
            "len" : 4424,
            "s_time" : 3137.14299999992,
            "connectStart" : 0,
            "dnsEnd" : -1
         },
         "when_comp_start" : -1,
         "id" : "r33",
         "url" : "http://original.testbed.localhost/wwwimage.cbsstatic.com/base/files/hp_classics_0006_mp.jpg",
         "comps" : []
      },
      {
         "id" : "r34",
         "download" : {
            "receiveHeadersEnd" : 46,
            "connectEnd" : 25,
            "dnsStart" : -1,
            "receiveFirst" : 21,
            "dns" : 0,
            "receivedTime" : "3240.77399999805",
            "type" : "image/jpeg",
            "connectStart" : 0,
            "dnsEnd" : -1,
            "sendStart" : 25,
            "len" : 5458,
            "s_time" : 3137.29899999453,
            "id" : "download_32",
            "sslEnd" : -1,
            "sendEnd" : 25,
            "sslStart" : -1,
            "receiveLast" : 3194.77399999805
         },
         "when_comp_start" : -1,
         "comps" : [],
         "url" : "http://original.testbed.localhost/wwwimage.cbsstatic.com/base/files/hp_classics_0005_perry_mason_0.jpg"
      },
      {
         "url" : "http://original.testbed.localhost/wwwimage.cbsstatic.com/assets/js/min/homepage.min.js",
         "comps" : [
            {
               "e_time" : 3269.09299999534,
               "id" : "comp_88",
               "type" : 1,
               "s_time" : 3243.21899999632,
               "time" : 25.8739999990203
            }
         ],
         "download" : {
            "connectStart" : 0,
            "dnsEnd" : -1,
            "len" : 145924,
            "sendStart" : 21,
            "s_time" : 3139.33199999883,
            "id" : "download_33",
            "receiveLast" : 3196.180999998,
            "sendEnd" : 21,
            "sslStart" : -1,
            "sslEnd" : -1,
            "receiveHeadersEnd" : 47,
            "dnsStart" : -1,
            "connectEnd" : 21,
            "dns" : 0,
            "receiveFirst" : 26,
            "receivedTime" : "3243.180999998",
            "type" : "application/javascript"
         },
         "when_comp_start" : -1,
         "id" : "r62"
      },
      {
         "when_comp_start" : -1,
         "download" : {
            "sslEnd" : -1,
            "sslStart" : -1,
            "sendEnd" : 22,
            "receiveLast" : 3199.47199999425,
            "id" : "download_34",
            "dnsEnd" : -1,
            "connectStart" : 0,
            "s_time" : 3160.61099999934,
            "sendStart" : 22,
            "len" : 5584,
            "receivedTime" : "3241.47199999425",
            "receiveFirst" : 20,
            "dns" : 0,
            "type" : "image/jpeg",
            "receiveHeadersEnd" : 42,
            "dnsStart" : -1,
            "connectEnd" : 22
         },
         "id" : "r35",
         "url" : "http://original.testbed.localhost/wwwimage.cbsstatic.com/base/files/hp_classics_0004_star_trek.jpg",
         "comps" : []
      },
      {
         "when_comp_start" : -1,
         "download" : {
            "sslStart" : -1,
            "receiveLast" : 3198.72700000054,
            "sendEnd" : 23,
            "sslEnd" : -1,
            "id" : "download_35",
            "s_time" : 3161.00699999515,
            "len" : 12916,
            "sendStart" : 23,
            "dnsEnd" : -1,
            "connectStart" : 0,
            "type" : "image/jpeg",
            "receivedTime" : "3241.72700000054",
            "dns" : 0,
            "receiveFirst" : 20,
            "connectEnd" : 23,
            "dnsStart" : -1,
            "receiveHeadersEnd" : 43
         },
         "id" : "r36",
         "url" : "http://original.testbed.localhost/wwwimage.cbsstatic.com/base/files/twilightzone_162x88.jpg",
         "comps" : []
      },
      {
         "url" : "http://original.testbed.localhost/wwwimage.cbsstatic.com/base/files/show/carousel_image/HP_Classics__0000_Twin_peaks.jpg",
         "comps" : [],
         "download" : {
            "receiveLast" : 3199.92000000039,
            "sslStart" : -1,
            "sendEnd" : 22,
            "sslEnd" : -1,
            "id" : "download_36",
            "s_time" : 3161.77699999389,
            "len" : 24017,
            "sendStart" : 22,
            "dnsEnd" : -1,
            "connectStart" : 0,
            "type" : "image/jpeg",
            "receivedTime" : "3241.92000000039",
            "dns" : 0,
            "receiveFirst" : 20,
            "connectEnd" : 22,
            "dnsStart" : -1,
            "receiveHeadersEnd" : 42
         },
         "when_comp_start" : -1,
         "id" : "r37"
      },
      {
         "id" : "r38",
         "when_comp_start" : -1,
         "download" : {
            "type" : "image/jpeg",
            "receivedTime" : "3242.89599999611",
            "receiveFirst" : 21,
            "dns" : 0,
            "connectEnd" : 22,
            "dnsStart" : -1,
            "receiveHeadersEnd" : 43,
            "sslEnd" : -1,
            "sendEnd" : 22,
            "sslStart" : -1,
            "receiveLast" : 3199.89599999611,
            "id" : "download_37",
            "s_time" : 3161.94700000051,
            "sendStart" : 22,
            "len" : 20165,
            "dnsEnd" : -1,
            "connectStart" : 0
         },
         "comps" : [],
         "url" : "http://original.testbed.localhost/wwwimage.cbsstatic.com/base/files/config/jericho_166x87.jpg"
      },
      {
         "url" : "http://original.testbed.localhost/wwwimage.cbsstatic.com/base/files/config/medium_166x87.jpg",
         "comps" : [],
         "download" : {
            "receivedTime" : "3242.98099999578",
            "receiveFirst" : 21,
            "dns" : 0,
            "type" : "image/jpeg",
            "receiveHeadersEnd" : 43,
            "dnsStart" : -1,
            "connectEnd" : 22,
            "sslEnd" : -1,
            "receiveLast" : 3199.98099999578,
            "sslStart" : -1,
            "sendEnd" : 22,
            "id" : "download_38",
            "dnsEnd" : -1,
            "connectStart" : 0,
            "s_time" : 3162.13199999765,
            "sendStart" : 22,
            "len" : 10284
         },
         "when_comp_start" : -1,
         "id" : "r39"
      },
      {
         "url" : "http://original.testbed.localhost/wwwimage.cbsstatic.com/base/files/startrek_enterprise_162x88.jpg",
         "comps" : [],
         "download" : {
            "dnsEnd" : -1,
            "connectStart" : 0,
            "s_time" : 3162.39499999938,
            "len" : 7762,
            "sendStart" : 41,
            "sendEnd" : 41,
            "receiveLast" : 3221.50199999457,
            "sslStart" : -1,
            "sslEnd" : -1,
            "id" : "download_39",
            "receiveHeadersEnd" : 61,
            "dnsStart" : -1,
            "connectEnd" : 41,
            "receivedTime" : "3282.50199999457",
            "dns" : 0,
            "receiveFirst" : 20,
            "type" : "image/jpeg"
         },
         "when_comp_start" : -1,
         "id" : "r40"
      },
      {
         "download" : {
            "dnsStart" : -1,
            "connectEnd" : 21,
            "receiveHeadersEnd" : 41,
            "type" : "image/jpeg",
            "dns" : 0,
            "receiveFirst" : 20,
            "receivedTime" : "3282.67000000051",
            "len" : 4215,
            "sendStart" : 21,
            "s_time" : 3183.60499999835,
            "connectStart" : 0,
            "dnsEnd" : -1,
            "id" : "download_40",
            "receiveLast" : 3241.67000000051,
            "sslStart" : -1,
            "sendEnd" : 21,
            "sslEnd" : -1
         },
         "when_comp_start" : -1,
         "id" : "r41",
         "url" : "http://original.testbed.localhost/wwwimage.cbsstatic.com/base/files/hp_classics_0010_lucy_0.jpg",
         "comps" : []
      },
      {
         "id" : "r42",
         "download" : {
            "receiveHeadersEnd" : 41,
            "dnsStart" : -1,
            "connectEnd" : 21,
            "receivedTime" : "3282.81199999765",
            "receiveFirst" : 20,
            "dns" : 0,
            "type" : "image/jpeg",
            "dnsEnd" : -1,
            "connectStart" : 0,
            "s_time" : 3183.9289999989,
            "sendStart" : 21,
            "len" : 6129,
            "sslEnd" : -1,
            "sslStart" : -1,
            "sendEnd" : 21,
            "receiveLast" : 3241.81199999765,
            "id" : "download_41"
         },
         "when_comp_start" : -1,
         "comps" : [],
         "url" : "http://original.testbed.localhost/wwwimage.cbsstatic.com/base/files/hp_classics_0015_thebrady_bunch_0.jpg"
      },
      {
         "url" : "http://original.testbed.localhost/wwwimage.cbsstatic.com/base/files/hp_classics_0002_taxi_0.jpg",
         "comps" : [],
         "download" : {
            "connectStart" : 0,
            "dnsEnd" : -1,
            "len" : 8526,
            "sendStart" : 21,
            "s_time" : 3184.16699999943,
            "id" : "download_42",
            "sslStart" : -1,
            "receiveLast" : 3241.94499999902,
            "sendEnd" : 21,
            "sslEnd" : -1,
            "receiveHeadersEnd" : 41,
            "connectEnd" : 21,
            "dnsStart" : -1,
            "dns" : 0,
            "receiveFirst" : 20,
            "receivedTime" : "3282.94499999902",
            "type" : "image/jpeg"
         },
         "when_comp_start" : -1,
         "id" : "r43"
      },
      {
         "when_comp_start" : -1,
         "download" : {
            "s_time" : 3184.53699999372,
            "sendStart" : 21,
            "len" : 13870,
            "dnsEnd" : -1,
            "connectStart" : 0,
            "sslEnd" : -1,
            "sendEnd" : 21,
            "sslStart" : -1,
            "receiveLast" : 3242.08199999447,
            "id" : "download_43",
            "connectEnd" : 21,
            "dnsStart" : -1,
            "receiveHeadersEnd" : 41,
            "type" : "image/jpeg",
            "receivedTime" : "3283.08199999447",
            "receiveFirst" : 20,
            "dns" : 0
         },
         "id" : "r44",
         "url" : "http://original.testbed.localhost/wwwimage.cbsstatic.com/base/files/chris_162x88_0.jpg",
         "comps" : []
      },
      {
         "id" : "r45",
         "when_comp_start" : -1,
         "download" : {
            "connectEnd" : 4,
            "dnsStart" : -1,
            "receiveHeadersEnd" : 24,
            "type" : "image/jpeg",
            "receiveFirst" : 20,
            "dns" : 0,
            "receivedTime" : "3283.21799999685",
            "sendStart" : 4,
            "len" : 18733,
            "s_time" : 3203.96599999367,
            "connectStart" : 0,
            "dnsEnd" : -1,
            "id" : "download_44",
            "sslEnd" : -1,
            "sendEnd" : 4,
            "sslStart" : -1,
            "receiveLast" : 3259.21799999685
         },
         "comps" : [],
         "url" : "http://original.testbed.localhost/wwwimage.cbsstatic.com/base/files/config/jag_thm_web_166x87.jpg"
      },
      {
         "url" : "http://original.testbed.localhost/wwwimage.cbsstatic.com/base/files/star_trek_nextgen_162x88.jpg",
         "comps" : [],
         "when_comp_start" : -1,
         "download" : {
            "s_time" : 3205.08599999448,
            "len" : 7318,
            "sendStart" : 19,
            "dnsEnd" : -1,
            "connectStart" : 0,
            "sendEnd" : 19,
            "receiveLast" : 3254.90899999999,
            "sslStart" : -1,
            "sslEnd" : -1,
            "id" : "download_45",
            "dnsStart" : -1,
            "connectEnd" : 19,
            "receiveHeadersEnd" : 39,
            "type" : "image/jpeg",
            "receivedTime" : "3293.90899999999",
            "dns" : 0,
            "receiveFirst" : 20
         },
         "id" : "r46"
      },
      {
         "download" : {
            "id" : "download_46",
            "sendEnd" : 19,
            "sslStart" : -1,
            "receiveLast" : 3254.13999999815,
            "sslEnd" : -1,
            "len" : 14787,
            "sendStart" : 19,
            "s_time" : 3205.40999999503,
            "connectStart" : 0,
            "dnsEnd" : -1,
            "type" : "image/jpeg",
            "dns" : 0,
            "receiveFirst" : 21,
            "receivedTime" : "3294.13999999815",
            "connectEnd" : 19,
            "dnsStart" : -1,
            "receiveHeadersEnd" : 40
         },
         "when_comp_start" : -1,
         "id" : "r47",
         "url" : "http://original.testbed.localhost/wwwimage.cbsstatic.com/base/files/star_trek_deepspace9_162x88.jpg",
         "comps" : []
      },
      {
         "comps" : [],
         "url" : "http://original.testbed.localhost/wwwimage.cbsstatic.com/base/files/star_trek_voyager_162x88.jpg",
         "id" : "r48",
         "download" : {
            "receiveHeadersEnd" : 40,
            "connectEnd" : 20,
            "dnsStart" : -1,
            "receivedTime" : "3294.30599999614",
            "dns" : 0,
            "receiveFirst" : 20,
            "type" : "image/jpeg",
            "dnsEnd" : -1,
            "connectStart" : 0,
            "s_time" : 3205.70999999472,
            "len" : 9974,
            "sendStart" : 20,
            "sendEnd" : 20,
            "receiveLast" : 3254.30599999614,
            "sslStart" : -1,
            "sslEnd" : -1,
            "id" : "download_47"
         },
         "when_comp_start" : -1
      },
      {
         "comps" : [],
         "url" : "http://original.testbed.localhost/wwwimage.cbsstatic.com/base/files/config/sabrina_166x87.jpg",
         "id" : "r49",
         "when_comp_start" : -1,
         "download" : {
            "s_time" : 3205.92699999543,
            "len" : 24320,
            "sendStart" : 20,
            "dnsEnd" : -1,
            "connectStart" : 0,
            "sendEnd" : 20,
            "sslStart" : -1,
            "receiveLast" : 3254.45399999531,
            "sslEnd" : -1,
            "id" : "download_48",
            "connectEnd" : 20,
            "dnsStart" : -1,
            "receiveHeadersEnd" : 40,
            "type" : "image/jpeg",
            "receivedTime" : "3294.45399999531",
            "dns" : 0,
            "receiveFirst" : 20
         }
      },
      {
         "comps" : [],
         "url" : "http://original.testbed.localhost/wwwimage.cbsstatic.com/base/files/config/cheers_166x87.jpg",
         "id" : "r50",
         "when_comp_start" : -1,
         "download" : {
            "sendEnd" : 2,
            "receiveLast" : 3272.60199999448,
            "sslStart" : -1,
            "sslEnd" : -1,
            "id" : "download_49",
            "s_time" : 3224.47999999713,
            "len" : 24795,
            "sendStart" : 2,
            "dnsEnd" : -1,
            "connectStart" : 0,
            "type" : "image/jpeg",
            "receivedTime" : "3294.60199999448",
            "dns" : 0,
            "receiveFirst" : 20,
            "dnsStart" : -1,
            "connectEnd" : 2,
            "receiveHeadersEnd" : 22
         }
      },
      {
         "download" : {
            "connectEnd" : 3,
            "dnsStart" : -1,
            "receiveHeadersEnd" : 23,
            "type" : "image/jpeg",
            "receivedTime" : "3294.74699999992",
            "receiveFirst" : 20,
            "dns" : 0,
            "s_time" : 3225.45199999877,
            "sendStart" : 3,
            "len" : 17550,
            "dnsEnd" : -1,
            "connectStart" : 0,
            "sslEnd" : -1,
            "sslStart" : -1,
            "sendEnd" : 3,
            "receiveLast" : 3271.74699999992,
            "id" : "download_50"
         },
         "when_comp_start" : -1,
         "id" : "r51",
         "url" : "http://original.testbed.localhost/wwwimage.cbsstatic.com/base/files/config/frasier_166x87.jpg",
         "comps" : []
      },
      {
         "comps" : [],
         "url" : "http://original.testbed.localhost/wwwimage.cbsstatic.com/base/files/config/missionimpossible_166x87.jpg",
         "id" : "r52",
         "download" : {
            "receiveHeadersEnd" : 39,
            "connectEnd" : 18,
            "dnsStart" : -1,
            "dns" : 0,
            "receiveFirst" : 21,
            "receivedTime" : "3297.5809999989",
            "type" : "image/jpeg",
            "connectStart" : 0,
            "dnsEnd" : -1,
            "len" : 21624,
            "sendStart" : 18,
            "s_time" : 3225.87199999543,
            "id" : "download_51",
            "sslStart" : -1,
            "receiveLast" : 3258.5809999989,
            "sendEnd" : 18,
            "sslEnd" : -1
         },
         "when_comp_start" : -1
      },
      {
         "url" : "http://original.testbed.localhost/wwwimage.cbsstatic.com/base/files/config/thegame_166x87.jpg",
         "comps" : [],
         "download" : {
            "connectEnd" : 19,
            "dnsStart" : -1,
            "receiveHeadersEnd" : 39,
            "type" : "image/jpeg",
            "receiveFirst" : 20,
            "dns" : 0,
            "receivedTime" : "3297.79199999757",
            "sendStart" : 19,
            "len" : 20966,
            "s_time" : 3226.31299999921,
            "connectStart" : 0,
            "dnsEnd" : -1,
            "id" : "download_52",
            "sslEnd" : -1,
            "sendEnd" : 19,
            "sslStart" : -1,
            "receiveLast" : 3258.79199999757
         },
         "when_comp_start" : -1,
         "id" : "r53"
      },
      {
         "id" : "r54",
         "when_comp_start" : -1,
         "download" : {
            "connectStart" : 0,
            "dnsEnd" : -1,
            "len" : 15076,
            "sendStart" : 19,
            "s_time" : 3226.7309999952,
            "id" : "download_53",
            "sslStart" : -1,
            "receiveLast" : 3258.98399999709,
            "sendEnd" : 19,
            "sslEnd" : -1,
            "receiveHeadersEnd" : 39,
            "dnsStart" : -1,
            "connectEnd" : 19,
            "dns" : 0,
            "receiveFirst" : 20,
            "receivedTime" : "3297.98399999709",
            "type" : "image/jpeg"
         },
         "comps" : [],
         "url" : "http://original.testbed.localhost/wwwimage.cbsstatic.com/base/files/config/wings_166x87.jpg"
      },
      {
         "url" : "http://original.testbed.localhost/wwwimage.cbsstatic.com/base/files/config/theguardian_166x87.jpg",
         "comps" : [],
         "when_comp_start" : -1,
         "download" : {
            "receiveLast" : 3260.17399999592,
            "sslStart" : -1,
            "sendEnd" : 17,
            "sslEnd" : -1,
            "id" : "download_54",
            "s_time" : 3228.75999999815,
            "len" : 17992,
            "sendStart" : 17,
            "dnsEnd" : -1,
            "connectStart" : 0,
            "type" : "image/jpeg",
            "receivedTime" : "3298.17399999592",
            "dns" : 0,
            "receiveFirst" : 21,
            "dnsStart" : -1,
            "connectEnd" : 17,
            "receiveHeadersEnd" : 38
         },
         "id" : "r55"
      },
      {
         "comps" : [],
         "url" : "http://original.testbed.localhost/wwwimage.cbsstatic.com/base/files/config/lifeunexpected_thm_web_166x87.jpg",
         "id" : "r56",
         "when_comp_start" : -1,
         "download" : {
            "dnsStart" : -1,
            "connectEnd" : 2,
            "receiveHeadersEnd" : 22,
            "type" : "image/jpeg",
            "receiveFirst" : 20,
            "dns" : 0,
            "receivedTime" : "3298.32699999679",
            "sendStart" : 2,
            "len" : 20336,
            "s_time" : 3244.92199999804,
            "connectStart" : 0,
            "dnsEnd" : -1,
            "id" : "download_55",
            "sslEnd" : -1,
            "sslStart" : -1,
            "receiveLast" : 3276.32699999679,
            "sendEnd" : 2
         }
      },
      {
         "comps" : [],
         "url" : "http://original.testbed.localhost/wwwimage.cbsstatic.com/base/files/config/touchedbyangel_thm_web_166x87.jpg",
         "id" : "r57",
         "when_comp_start" : -1,
         "download" : {
            "receivedTime" : "3298.51299999427",
            "dns" : 0,
            "receiveFirst" : 20,
            "type" : "image/jpeg",
            "receiveHeadersEnd" : 23,
            "connectEnd" : 3,
            "dnsStart" : -1,
            "sslStart" : -1,
            "sendEnd" : 3,
            "receiveLast" : 3275.51299999427,
            "sslEnd" : -1,
            "id" : "download_56",
            "dnsEnd" : -1,
            "connectStart" : 0,
            "s_time" : 3245.78699999984,
            "len" : 25228,
            "sendStart" : 3
         }
      },
      {
         "id" : "r58",
         "when_comp_start" : -1,
         "download" : {
            "receiveHeadersEnd" : 39,
            "connectEnd" : 19,
            "dnsStart" : -1,
            "receiveFirst" : 20,
            "dns" : 0,
            "receivedTime" : "3298.88999999821",
            "type" : "image/jpeg",
            "connectStart" : 0,
            "dnsEnd" : -1,
            "sendStart" : 19,
            "len" : 23467,
            "s_time" : 3246.29399999685,
            "id" : "download_57",
            "sslEnd" : -1,
            "receiveLast" : 3259.88999999821,
            "sendEnd" : 19,
            "sslStart" : -1
         },
         "comps" : [],
         "url" : "http://original.testbed.localhost/wwwimage.cbsstatic.com/base/files/config/theoddcouple_thm_web_166x87.jpg"
      },
      {
         "id" : "r59",
         "download" : {
            "receivedTime" : "3299.11699999502",
            "dns" : 0,
            "receiveFirst" : 20,
            "type" : "image/jpeg",
            "receiveHeadersEnd" : 39,
            "dnsStart" : -1,
            "connectEnd" : 19,
            "sslStart" : -1,
            "sendEnd" : 19,
            "receiveLast" : 3260.11699999502,
            "sslEnd" : -1,
            "id" : "download_58",
            "dnsEnd" : -1,
            "connectStart" : 0,
            "s_time" : 3246.74099999538,
            "len" : 17427,
            "sendStart" : 19
         },
         "when_comp_start" : -1,
         "comps" : [],
         "url" : "http://original.testbed.localhost/wwwimage.cbsstatic.com/base/files/config/nashbridges_166x87.jpg"
      },
      {
         "id" : "r60",
         "download" : {
            "receiveHeadersEnd" : 39,
            "dnsStart" : -1,
            "connectEnd" : 19,
            "dns" : 0,
            "receiveFirst" : 20,
            "receivedTime" : "3299.27699999826",
            "type" : "image/jpeg",
            "connectStart" : 0,
            "dnsEnd" : -1,
            "len" : 17602,
            "sendStart" : 19,
            "s_time" : 3247.13399999746,
            "id" : "download_59",
            "sendEnd" : 19,
            "sslStart" : -1,
            "receiveLast" : 3260.27699999826,
            "sslEnd" : -1
         },
         "when_comp_start" : -1,
         "comps" : [],
         "url" : "http://original.testbed.localhost/wwwimage.cbsstatic.com/base/files/config/carolineinthecity_166x87.jpg"
      },
      {
         "when_comp_start" : -1,
         "download" : {
            "sendEnd" : 17,
            "sslStart" : -1,
            "receiveLast" : 3261.43799999455,
            "sslEnd" : -1,
            "id" : "download_60",
            "s_time" : 3249.27599999501,
            "len" : 2219,
            "sendStart" : 17,
            "dnsEnd" : -1,
            "connectStart" : 0,
            "type" : "image/svg+xml",
            "receivedTime" : "3299.43799999455",
            "dns" : 0,
            "receiveFirst" : 21,
            "connectEnd" : 17,
            "dnsStart" : -1,
            "receiveHeadersEnd" : 38
         },
         "id" : "r63",
         "url" : "http://original.testbed.localhost/www.cbs.com/assets/images/homepage/2016/cbs.svg",
         "comps" : []
      },
      {
         "download" : {
            "dnsEnd" : -1,
            "connectStart" : 0,
            "s_time" : 3268.21399999608,
            "sendStart" : 0,
            "len" : 318,
            "sslEnd" : -1,
            "sendEnd" : 0,
            "sslStart" : -1,
            "receiveLast" : 3283.26299999433,
            "id" : "download_61",
            "receiveHeadersEnd" : 20,
            "dnsStart" : -1,
            "connectEnd" : 0,
            "receivedTime" : "3303.26299999433",
            "receiveFirst" : 20,
            "dns" : 0,
            "type" : "text/html"
         },
         "when_comp_start" : 1,
         "id" : "r65",
         "url" : "http://original.testbed.localhost/tracking/tealium/map/search/1",
         "comps" : []
      },
      {
         "when_comp_start" : 1,
         "download" : {
            "dns" : 0,
            "receiveFirst" : 20,
            "receivedTime" : "3304.21499999647",
            "type" : "text/html",
            "receiveHeadersEnd" : 20,
            "connectEnd" : 0,
            "dnsStart" : -1,
            "id" : "download_62",
            "sendEnd" : 0,
            "sslStart" : -1,
            "receiveLast" : 3284.21499999647,
            "sslEnd" : -1,
            "connectStart" : 0,
            "dnsEnd" : -1,
            "len" : 330,
            "sendStart" : 0,
            "s_time" : 3269.03099999618
         },
         "id" : "r66",
         "url" : "http://original.testbed.localhost/assets/js/templates/searchAutoComplete.js?_=1463244485049",
         "comps" : []
      },
      {
         "id" : "r76",
         "download" : {
            "receivedTime" : "3307.78799999825",
            "dns" : 0,
            "receiveFirst" : 21,
            "type" : "application/javascript",
            "receiveHeadersEnd" : 23,
            "connectEnd" : 2,
            "dnsStart" : -1,
            "sendEnd" : 2,
            "sslStart" : -1,
            "receiveLast" : 3284.78799999825,
            "sslEnd" : -1,
            "id" : "download_63",
            "dnsEnd" : -1,
            "connectStart" : 0,
            "s_time" : 3283.45499999705,
            "len" : 19982,
            "sendStart" : 2
         },
         "when_comp_start" : -1,
         "comps" : [
            {
               "e_time" : 3309.69999999797,
               "time" : 1.86699999902976,
               "s_time" : 3307.83299999894,
               "id" : "comp_185",
               "type" : 1
            }
         ],
         "url" : "http://original.testbed.localhost/speed.pointroll.com/PointRoll/Media/Asset/RespLib/201296/resp.lib.js"
      },
      {
         "download" : {
            "receiveHeadersEnd" : 20,
            "dnsStart" : -1,
            "connectEnd" : 0,
            "receiveFirst" : 20,
            "dns" : 0,
            "receivedTime" : "3335.56599999429",
            "type" : "text/html",
            "connectStart" : 0,
            "dnsEnd" : -1,
            "sendStart" : 0,
            "len" : 316,
            "s_time" : 3305.38099999831,
            "id" : "download_64",
            "sslEnd" : -1,
            "sendEnd" : 0,
            "sslStart" : -1,
            "receiveLast" : 3315.56599999429
         },
         "when_comp_start" : 1,
         "id" : "r77",
         "url" : "http://original.testbed.localhost/tracking/tealium/map/home/1",
         "comps" : []
      },
      {
         "when_comp_start" : 1,
         "download" : {
            "connectStart" : 0,
            "dnsEnd" : -1,
            "sendStart" : 0,
            "len" : 332,
            "s_time" : 3326.70700000017,
            "id" : "download_65",
            "sslEnd" : -1,
            "sendEnd" : 0,
            "sslStart" : -1,
            "receiveLast" : 3327.22799999529,
            "receiveHeadersEnd" : 21,
            "connectEnd" : 0,
            "dnsStart" : -1,
            "receiveFirst" : 21,
            "dns" : 0,
            "receivedTime" : "3348.22799999529",
            "type" : "text/html"
         },
         "id" : "r78",
         "url" : "http://original.testbed.localhost/carousels/homepage/show//offset/0/limit/40/",
         "comps" : []
      },
      {
         "download" : {
            "dnsStart" : -1,
            "connectEnd" : 0,
            "receiveHeadersEnd" : 20,
            "type" : "image/png",
            "receiveFirst" : 20,
            "dns" : 0,
            "receivedTime" : "3369.2630000005",
            "sendStart" : 0,
            "len" : 132567,
            "s_time" : 3328.3139999985,
            "connectStart" : 0,
            "dnsEnd" : -1,
            "id" : "download_66",
            "sslEnd" : -1,
            "sendEnd" : 0,
            "receiveLast" : 3349.2630000005,
            "sslStart" : -1
         },
         "when_comp_start" : -1,
         "id" : "r79",
         "url" : "http://original.testbed.localhost/wwwimage.cbsstatic.com/assets/images/homepage/2011/sprite.png",
         "comps" : []
      },
      {
         "id" : "r80",
         "download" : {
            "sslEnd" : -1,
            "sslStart" : -1,
            "sendEnd" : 0,
            "receiveLast" : 3329.98699999414,
            "id" : "download_67",
            "s_time" : 3328.55699999345,
            "sendStart" : 0,
            "len" : 351,
            "dnsEnd" : -1,
            "connectStart" : 0,
            "type" : "image/png",
            "receivedTime" : "3349.98699999414",
            "receiveFirst" : 20,
            "dns" : 0,
            "connectEnd" : 0,
            "dnsStart" : -1,
            "receiveHeadersEnd" : 20
         },
         "when_comp_start" : -1,
         "comps" : [],
         "url" : "http://original.testbed.localhost/wwwimage.cbsstatic.com/assets/images/2012/r1/show/watch_page/carousel/prev-horizontal.png"
      },
      {
         "url" : "http://original.testbed.localhost/wwwimage.cbsstatic.com/assets/images/2012/r1/show/watch_page/carousel/next-horizontal.png",
         "comps" : [],
         "when_comp_start" : -1,
         "download" : {
            "receiveFirst" : 20,
            "dns" : 0,
            "receivedTime" : "3368.89299999893",
            "type" : "image/png",
            "receiveHeadersEnd" : 20,
            "dnsStart" : -1,
            "connectEnd" : 0,
            "id" : "download_68",
            "sslEnd" : -1,
            "receiveLast" : 3348.89299999893,
            "sendEnd" : 0,
            "sslStart" : -1,
            "connectStart" : 0,
            "dnsEnd" : -1,
            "sendStart" : 0,
            "len" : 321,
            "s_time" : 3328.68099999905
         },
         "id" : "r81"
      }
   ],
   "n_download_no_trigger" : 1,
   "start_activity" : "download_0"
}
