{
   "n_download_no_trigger" : 1,
   "start_activity" : "download_0",
   "name" : "original.testbed.localhost_www.bloomberg.com_",
   "load_activity" : -1,
   "objs" : [
      {
         "when_comp_start" : 1,
         "url" : "http://original.testbed.localhost/www.bloomberg.com/",
         "id" : "r1",
         "comps" : [
            {
               "s_time" : 192.688000002818,
               "time" : 40.54200000246,
               "id" : "r1_c1",
               "type" : "evalhtml",
               "e_time" : 233.230000005278
            },
            {
               "s_time" : 266.327000004821,
               "time" : 1682.23500000022,
               "id" : "r1_c2",
               "type" : "evalhtml",
               "e_time" : 1948.56200000504
            },
            {
               "s_time" : 1959.04500000324,
               "time" : 372.77199999517,
               "type" : "evalhtml",
               "id" : "r1_c3",
               "e_time" : 2331.81699999841
            }
         ],
         "download" : {
            "receiveFirst" : 62,
            "len" : 534055,
            "dns" : 0,
            "dnsEnd" : -1,
            "receiveHeadersEnd" : 66,
            "sslEnd" : -1,
            "connectEnd" : 4,
            "connectStart" : 0,
            "id" : "download_0",
            "receivedTime" : "379.576999999699",
            "sslStart" : -1,
            "dnsStart" : -1,
            "receiveLast" : 313.576999999699,
            "s_time" : 0,
            "sendEnd" : 4,
            "sendStart" : 4,
            "type" : "text/html"
         }
      },
      {
         "when_comp_start" : -1,
         "url" : "http://original.testbed.localhost/assets.bwbx.io/business/public/javascripts/experienceRedirect.83a17d33.js",
         "id" : "r2",
         "comps" : [
            {
               "s_time" : 264.15999999881,
               "time" : 2.16700000601099,
               "type" : 1,
               "id" : "comp_0",
               "e_time" : 266.327000004821
            }
         ],
         "download" : {
            "receiveFirst" : 54,
            "len" : 1306,
            "dns" : 0,
            "dnsEnd" : -1,
            "receiveHeadersEnd" : 63,
            "sslEnd" : -1,
            "connectEnd" : 9,
            "connectStart" : 0,
            "id" : "download_1",
            "receivedTime" : "262.939000000188",
            "sslStart" : -1,
            "dnsStart" : -1,
            "receiveLast" : 199.939000000188,
            "s_time" : 194.946000003256,
            "sendEnd" : 9,
            "sendStart" : 9,
            "type" : "application/javascript"
         }
      },
      {
         "when_comp_start" : -1,
         "url" : "http://original.testbed.localhost/assets.bwbx.io/images/iOqHhwgjTU4o/v1/190x-1.jpg",
         "id" : "r4",
         "comps" : [],
         "download" : {
            "receiveFirst" : 53,
            "len" : 9043,
            "dns" : 0,
            "dnsEnd" : 0,
            "receiveHeadersEnd" : 86,
            "sslEnd" : -1,
            "connectEnd" : 32,
            "connectStart" : 0,
            "id" : "download_2",
            "receivedTime" : "325.561000005109",
            "sslStart" : -1,
            "dnsStart" : 0,
            "receiveLast" : 239.561000005109,
            "s_time" : 233.230000005278,
            "sendEnd" : 33,
            "sendStart" : 32,
            "type" : "image/jpeg"
         }
      },
      {
         "when_comp_start" : -1,
         "url" : "http://original.testbed.localhost/assets.bwbx.io/business/public/stylesheets/application.d26bfc26.css",
         "id" : "r3",
         "comps" : [
            {
               "s_time" : 648.314999998547,
               "time" : 647.003000005493,
               "type" : 4,
               "id" : "comp_1",
               "e_time" : 1295.31800000404
            }
         ],
         "download" : {
            "receiveFirst" : 74,
            "len" : 917504,
            "dns" : 0,
            "dnsEnd" : -1,
            "receiveHeadersEnd" : 135,
            "sslEnd" : -1,
            "connectEnd" : 61,
            "connectStart" : 0,
            "id" : "download_3",
            "receivedTime" : "642.822000001615",
            "sslStart" : -1,
            "dnsStart" : -1,
            "receiveLast" : 507.822000001615,
            "s_time" : 198.150000003807,
            "sendEnd" : 61,
            "sendStart" : 61,
            "type" : "text/css"
         }
      },
      {
         "when_comp_start" : -1,
         "url" : "http://original.testbed.localhost/assets.bwbx.io/images/itxHQgevffOQ/v1/190x-1.jpg",
         "id" : "r5",
         "comps" : [],
         "download" : {
            "receiveFirst" : 63,
            "len" : 15297,
            "dns" : 0,
            "dnsEnd" : -1,
            "receiveHeadersEnd" : 73,
            "sslEnd" : -1,
            "connectEnd" : 10,
            "connectStart" : 0,
            "id" : "download_4",
            "receivedTime" : "405.243000001065",
            "sslStart" : -1,
            "dnsStart" : -1,
            "receiveLast" : 332.243000001065,
            "s_time" : 326.445999999123,
            "sendEnd" : 10,
            "sendStart" : 10,
            "type" : "image/jpeg"
         }
      },
      {
         "when_comp_start" : -1,
         "url" : "http://original.testbed.localhost/assets.bwbx.io/images/io.mi_4H59Oc/v1/750x-1.jpg",
         "id" : "r38",
         "comps" : [],
         "download" : {
            "receiveFirst" : 99,
            "len" : 117886,
            "dns" : 0,
            "dnsEnd" : -1,
            "receiveHeadersEnd" : 105,
            "sslEnd" : -1,
            "connectEnd" : 6,
            "connectStart" : 0,
            "id" : "download_5",
            "receivedTime" : "2089.44699999847",
            "sslStart" : -1,
            "dnsStart" : -1,
            "receiveLast" : 1984.44699999847,
            "s_time" : 1322.76800000545,
            "sendEnd" : 6,
            "sendStart" : 6,
            "type" : "image/jpeg"
         }
      },
      {
         "when_comp_start" : -1,
         "url" : "http://original.testbed.localhost/assets.bwbx.io/images/izef1usYtrBU/v1/750x-1.jpg",
         "id" : "r39",
         "comps" : [],
         "download" : {
            "receiveFirst" : 102,
            "len" : 42026,
            "dns" : 0,
            "dnsEnd" : -1,
            "receiveHeadersEnd" : 109,
            "sslEnd" : -1,
            "connectEnd" : 7,
            "connectStart" : 0,
            "id" : "download_6",
            "receivedTime" : "1560.69900000148",
            "sslStart" : -1,
            "dnsStart" : -1,
            "receiveLast" : 1451.69900000148,
            "s_time" : 1326.20100000349,
            "sendEnd" : 7,
            "sendStart" : 7,
            "type" : "image/jpeg"
         }
      },
      {
         "when_comp_start" : -1,
         "url" : "http://original.testbed.localhost/assets.bwbx.io/images/iWnfZ420ClgY/v1/488x-1.jpg",
         "id" : "r40",
         "comps" : [],
         "download" : {
            "receiveFirst" : 96,
            "len" : 55472,
            "dns" : 0,
            "dnsEnd" : -1,
            "receiveHeadersEnd" : 105,
            "sslEnd" : -1,
            "connectEnd" : 9,
            "connectStart" : 0,
            "id" : "download_7",
            "receivedTime" : "1619.90299999889",
            "sslStart" : -1,
            "dnsStart" : -1,
            "receiveLast" : 1514.90299999889,
            "s_time" : 1338.56200000446,
            "sendEnd" : 9,
            "sendStart" : 9,
            "type" : "image/jpeg"
         }
      },
      {
         "when_comp_start" : -1,
         "url" : "http://original.testbed.localhost/assets.bwbx.io/images/iZBEd2t0xWUQ/v1/190x-1.jpg",
         "id" : "r41",
         "comps" : [],
         "download" : {
            "receiveFirst" : 97,
            "len" : 11055,
            "dns" : 0,
            "dnsEnd" : -1,
            "receiveHeadersEnd" : 106,
            "sslEnd" : -1,
            "connectEnd" : 8,
            "connectStart" : 0,
            "id" : "download_8",
            "receivedTime" : "1554.04600000475",
            "sslStart" : -1,
            "dnsStart" : -1,
            "receiveLast" : 1448.04600000475,
            "s_time" : 1342.65099999902,
            "sendEnd" : 9,
            "sendStart" : 8,
            "type" : "image/jpeg"
         }
      },
      {
         "when_comp_start" : -1,
         "url" : "http://original.testbed.localhost/assets.bwbx.io/images/ivNRRwaNMfEk/v1/190x-1.jpg",
         "id" : "r42",
         "comps" : [],
         "download" : {
            "receiveFirst" : 112,
            "len" : 10170,
            "dns" : 0,
            "dnsEnd" : 9,
            "receiveHeadersEnd" : 177,
            "sslEnd" : -1,
            "connectEnd" : 65,
            "connectStart" : 0,
            "id" : "download_9",
            "receivedTime" : "1561.52300000394",
            "sslStart" : -1,
            "dnsStart" : 9,
            "receiveLast" : 1384.52300000394,
            "s_time" : 1345.00000000116,
            "sendEnd" : 65,
            "sendStart" : 65,
            "type" : "image/jpeg"
         }
      },
      {
         "when_comp_start" : -1,
         "url" : "http://original.testbed.localhost/assets.bwbx.io/business/public/images/logos/BB-Logo-H1.c318357b.svg",
         "id" : "r48",
         "comps" : [],
         "download" : {
            "receiveFirst" : 108,
            "len" : 5392,
            "dns" : 0,
            "dnsEnd" : 0,
            "receiveHeadersEnd" : 146,
            "sslEnd" : -1,
            "connectEnd" : 38,
            "connectStart" : 0,
            "id" : "download_10",
            "receivedTime" : "1591.15600000223",
            "sslStart" : -1,
            "dnsStart" : 0,
            "receiveLast" : 1445.15600000223,
            "s_time" : 1391.61600000079,
            "sendEnd" : 38,
            "sendStart" : 38,
            "type" : "image/svg+xml"
         }
      },
      {
         "when_comp_start" : -1,
         "url" : "http://original.testbed.localhost/assets.bwbx.io/images/iRThLtTxcBNk/v1/190x-1.jpg",
         "id" : "r43",
         "comps" : [],
         "download" : {
            "receiveFirst" : 97,
            "len" : 7959,
            "dns" : 0,
            "dnsEnd" : -1,
            "receiveHeadersEnd" : 198,
            "sslEnd" : -1,
            "connectEnd" : 100,
            "connectStart" : 0,
            "id" : "download_11",
            "receivedTime" : "1598.17499999917",
            "sslStart" : -1,
            "dnsStart" : -1,
            "receiveLast" : 1400.17499999917,
            "s_time" : 1366.56200000289,
            "sendEnd" : 101,
            "sendStart" : 100,
            "type" : "image/jpeg"
         }
      },
      {
         "when_comp_start" : -1,
         "url" : "http://original.testbed.localhost/assets.bwbx.io/business/public/javascripts/polyfills.7cb33556.js",
         "id" : "r50",
         "comps" : [
            {
               "s_time" : 1773.1630000053,
               "time" : 185.88199999794,
               "type" : 1,
               "id" : "comp_17",
               "e_time" : 1959.04500000324
            }
         ],
         "download" : {
            "receiveFirst" : 73,
            "len" : 55861,
            "dns" : 0,
            "dnsEnd" : -1,
            "receiveHeadersEnd" : 159,
            "sslEnd" : -1,
            "connectEnd" : 85,
            "connectStart" : 0,
            "id" : "download_12",
            "receivedTime" : "1772.613000001",
            "sslStart" : -1,
            "dnsStart" : -1,
            "receiveLast" : 1613.613000001,
            "s_time" : 1457.03100000537,
            "sendEnd" : 86,
            "sendStart" : 85,
            "type" : "application/javascript"
         }
      },
      {
         "when_comp_start" : -1,
         "url" : "http://original.testbed.localhost/assets.bwbx.io/business/public/fonts/Bloomberg.222f3b06.woff",
         "id" : "r27",
         "comps" : [],
         "download" : {
            "receiveFirst" : 75,
            "len" : 9336,
            "dns" : 0,
            "dnsEnd" : -1,
            "receiveHeadersEnd" : 164,
            "sslEnd" : -1,
            "connectEnd" : 89,
            "connectStart" : 0,
            "id" : "download_13",
            "receivedTime" : "1645.69100000517",
            "sslStart" : -1,
            "dnsStart" : -1,
            "receiveLast" : 1481.69100000517,
            "s_time" : 1461.19600000384,
            "sendEnd" : 89,
            "sendStart" : 89,
            "type" : "application/octet-stream"
         }
      },
      {
         "when_comp_start" : -1,
         "url" : "http://original.testbed.localhost/assets.bwbx.io/business/public/fonts/NHaasGroteskTXPro-55Rg.2711ec9f.woff",
         "id" : "r12",
         "comps" : [],
         "download" : {
            "receiveFirst" : 75,
            "len" : 118660,
            "dns" : 0,
            "dnsEnd" : -1,
            "receiveHeadersEnd" : 188,
            "sslEnd" : -1,
            "connectEnd" : 113,
            "connectStart" : 0,
            "id" : "download_14",
            "receivedTime" : "2112.97600000398",
            "sslStart" : -1,
            "dnsStart" : -1,
            "receiveLast" : 1924.97600000398,
            "s_time" : 1461.99000000342,
            "sendEnd" : 113,
            "sendStart" : 113,
            "type" : "application/octet-stream"
         }
      },
      {
         "when_comp_start" : -1,
         "url" : "http://original.testbed.localhost/assets.bwbx.io/images/iwI.cc8rpa9Q/v1/190x-1.jpg",
         "id" : "r44",
         "comps" : [],
         "download" : {
            "receiveFirst" : 64,
            "len" : 14356,
            "dns" : 0,
            "dnsEnd" : -1,
            "receiveHeadersEnd" : 287,
            "sslEnd" : -1,
            "connectEnd" : 223,
            "connectStart" : 0,
            "id" : "download_15",
            "receivedTime" : "2000.6710000016",
            "sslStart" : -1,
            "dnsStart" : -1,
            "receiveLast" : 1713.6710000016,
            "s_time" : 1370.54400000488,
            "sendEnd" : 223,
            "sendStart" : 223,
            "type" : "image/jpeg"
         }
      },
      {
         "when_comp_start" : -1,
         "url" : "http://original.testbed.localhost/assets.bwbx.io/images/imQc7QnXHIKs/v1/190x-1.jpg",
         "id" : "r45",
         "comps" : [],
         "download" : {
            "receiveFirst" : 54,
            "len" : 9253,
            "dns" : 0,
            "dnsEnd" : -1,
            "receiveHeadersEnd" : 302,
            "sslEnd" : -1,
            "connectEnd" : 248,
            "connectStart" : 0,
            "id" : "download_16",
            "receivedTime" : "1999.29800000245",
            "sslStart" : -1,
            "dnsStart" : -1,
            "receiveLast" : 1697.29800000245,
            "s_time" : 1373.61100000271,
            "sendEnd" : 248,
            "sendStart" : 248,
            "type" : "image/jpeg"
         }
      },
      {
         "when_comp_start" : -1,
         "url" : "http://original.testbed.localhost/assets.bwbx.io/images/i8SqoPEIFKCM/v1/190x-1.jpg",
         "id" : "r46",
         "comps" : [],
         "download" : {
            "receiveFirst" : 67,
            "len" : 11479,
            "dns" : 0,
            "dnsEnd" : -1,
            "receiveHeadersEnd" : 338,
            "sslEnd" : -1,
            "connectEnd" : 271,
            "connectStart" : 0,
            "id" : "download_17",
            "receivedTime" : "2003.81500000367",
            "sslStart" : -1,
            "dnsStart" : -1,
            "receiveLast" : 1665.81500000367,
            "s_time" : 1375.97600000299,
            "sendEnd" : 271,
            "sendStart" : 271,
            "type" : "image/jpeg"
         }
      },
      {
         "when_comp_start" : -1,
         "url" : "http://original.testbed.localhost/assets.bwbx.io/images/ig4HPzi1jY1U/v1/190x-1.jpg",
         "id" : "r47",
         "comps" : [],
         "download" : {
            "receiveFirst" : 66,
            "len" : 14716,
            "dns" : 0,
            "dnsEnd" : -1,
            "receiveHeadersEnd" : 344,
            "sslEnd" : -1,
            "connectEnd" : 278,
            "connectStart" : 0,
            "id" : "download_18",
            "receivedTime" : "2005.09600000078",
            "sslStart" : -1,
            "dnsStart" : -1,
            "receiveLast" : 1661.09600000078,
            "s_time" : 1379.41000000137,
            "sendEnd" : 278,
            "sendStart" : 278,
            "type" : "image/jpeg"
         }
      },
      {
         "when_comp_start" : -1,
         "url" : "http://original.testbed.localhost/assets.bwbx.io/business/public/images/icons/ad_choices_icon.49173bcd.png",
         "id" : "r49",
         "comps" : [],
         "download" : {
            "receiveFirst" : 69,
            "len" : 1225,
            "dns" : 0,
            "dnsEnd" : -1,
            "receiveHeadersEnd" : 285,
            "sslEnd" : -1,
            "connectEnd" : 216,
            "connectStart" : 0,
            "id" : "download_19",
            "receivedTime" : "2007.29400000273",
            "sslStart" : -1,
            "dnsStart" : -1,
            "receiveLast" : 1722.29400000273,
            "s_time" : 1465.86500000558,
            "sendEnd" : 216,
            "sendStart" : 216,
            "type" : "image/png"
         }
      },
      {
         "when_comp_start" : -1,
         "url" : "http://original.testbed.localhost/assets.bwbx.io/images/iPF_I3mLxyww/v1/190x-1.jpg",
         "id" : "r51",
         "comps" : [],
         "download" : {
            "receiveFirst" : 63,
            "len" : 20441,
            "dns" : 0,
            "dnsEnd" : -1,
            "receiveHeadersEnd" : 222,
            "sslEnd" : -1,
            "connectEnd" : 159,
            "connectStart" : 0,
            "id" : "download_20",
            "receivedTime" : "2094.87900000386",
            "sslStart" : -1,
            "dnsStart" : -1,
            "receiveLast" : 1872.87900000386,
            "s_time" : 1542.00800000399,
            "sendEnd" : 159,
            "sendStart" : 159,
            "type" : "image/jpeg"
         }
      },
      {
         "when_comp_start" : -1,
         "url" : "http://original.testbed.localhost/www.bloomberg.com/image/i85xt4ReHqes.jpg",
         "id" : "r52",
         "comps" : [],
         "download" : {
            "receiveFirst" : 62,
            "len" : 16594,
            "dns" : 0,
            "dnsEnd" : -1,
            "receiveHeadersEnd" : 246,
            "sslEnd" : -1,
            "connectEnd" : 184,
            "connectStart" : 0,
            "id" : "download_21",
            "receivedTime" : "2098.75499999907",
            "sslStart" : -1,
            "dnsStart" : -1,
            "receiveLast" : 1852.75499999907,
            "s_time" : 1548.69000000326,
            "sendEnd" : 184,
            "sendStart" : 184,
            "type" : "image/jpeg"
         }
      },
      {
         "when_comp_start" : -1,
         "url" : "http://original.testbed.localhost/www.bloomberg.com/image/iv0ZOYoauoXI.jpg",
         "id" : "r53",
         "comps" : [],
         "download" : {
            "receiveFirst" : 67,
            "len" : 6105,
            "dns" : 0,
            "dnsEnd" : -1,
            "receiveHeadersEnd" : 218,
            "sslEnd" : -1,
            "connectEnd" : 151,
            "connectStart" : 0,
            "id" : "download_22",
            "receivedTime" : "2093.44499999861",
            "sslStart" : -1,
            "dnsStart" : -1,
            "receiveLast" : 1875.44499999861,
            "s_time" : 1592.30000000389,
            "sendEnd" : 151,
            "sendStart" : 151,
            "type" : "image/jpeg"
         }
      },
      {
         "when_comp_start" : -1,
         "url" : "http://original.testbed.localhost/www.bloomberg.com/image/i77yYzLTok18.jpg",
         "id" : "r54",
         "comps" : [],
         "download" : {
            "receiveFirst" : 66,
            "len" : 169203,
            "dns" : 0,
            "dnsEnd" : -1,
            "receiveHeadersEnd" : 208,
            "sslEnd" : -1,
            "connectEnd" : 142,
            "connectStart" : 0,
            "id" : "download_23",
            "receivedTime" : "2732.14700000244",
            "sslStart" : -1,
            "dnsStart" : -1,
            "receiveLast" : 2524.14700000244,
            "s_time" : 1620.14800000179,
            "sendEnd" : 142,
            "sendStart" : 142,
            "type" : "image/jpeg"
         }
      },
      {
         "when_comp_start" : -1,
         "url" : "http://original.testbed.localhost/www.bloomberg.com/image/iKuvUIGZPl_w.jpg",
         "id" : "r55",
         "comps" : [],
         "download" : {
            "receiveFirst" : 73,
            "len" : 38257,
            "dns" : 0,
            "dnsEnd" : -1,
            "receiveHeadersEnd" : 170,
            "sslEnd" : -1,
            "connectEnd" : 97,
            "connectStart" : 0,
            "id" : "download_24",
            "receivedTime" : "2108.67300000245",
            "sslStart" : -1,
            "dnsStart" : -1,
            "receiveLast" : 1938.67300000245,
            "s_time" : 1679.55000000075,
            "sendEnd" : 97,
            "sendStart" : 97,
            "type" : "image/jpeg"
         }
      },
      {
         "when_comp_start" : -1,
         "url" : "http://original.testbed.localhost/www.bloomberg.com/image/iCFrIB.TSi8s.jpg",
         "id" : "r56",
         "comps" : [],
         "download" : {
            "receiveFirst" : 62,
            "len" : 26915,
            "dns" : 0,
            "dnsEnd" : -1,
            "receiveHeadersEnd" : 177,
            "sslEnd" : -1,
            "connectEnd" : 115,
            "connectStart" : 0,
            "id" : "download_25",
            "receivedTime" : "2107.17800000566",
            "sslStart" : -1,
            "dnsStart" : -1,
            "receiveLast" : 1930.17800000566,
            "s_time" : 1696.59400000091,
            "sendEnd" : 115,
            "sendStart" : 115,
            "type" : "image/jpeg"
         }
      },
      {
         "when_comp_start" : -1,
         "url" : "http://original.testbed.localhost/www.bloomberg.com/image/iKOdk6IKZNgM.jpg",
         "id" : "r57",
         "comps" : [],
         "download" : {
            "receiveFirst" : 60,
            "len" : 41237,
            "dns" : 0,
            "dnsEnd" : -1,
            "receiveHeadersEnd" : 167,
            "sslEnd" : -1,
            "connectEnd" : 107,
            "connectStart" : 0,
            "id" : "download_26",
            "receivedTime" : "2137.0539999989",
            "sslStart" : -1,
            "dnsStart" : -1,
            "receiveLast" : 1970.0539999989,
            "s_time" : 1727.26400000101,
            "sendEnd" : 107,
            "sendStart" : 107,
            "type" : "image/jpeg"
         }
      },
      {
         "when_comp_start" : -1,
         "url" : "http://original.testbed.localhost/www.bloomberg.com/image/iHumi9Oc6Jmc.jpg",
         "id" : "r59",
         "comps" : [],
         "download" : {
            "receiveFirst" : 115,
            "len" : 36443,
            "dns" : 0,
            "dnsEnd" : -1,
            "receiveHeadersEnd" : 293,
            "sslEnd" : -1,
            "connectEnd" : 178,
            "connectStart" : 0,
            "id" : "download_27",
            "receivedTime" : "2138.64100000501",
            "sslStart" : -1,
            "dnsStart" : -1,
            "receiveLast" : 1845.64100000501,
            "s_time" : 1758.08700000198,
            "sendEnd" : 178,
            "sendStart" : 178,
            "type" : "image/jpeg"
         }
      },
      {
         "when_comp_start" : -1,
         "url" : "http://original.testbed.localhost/www.bloomberg.com/image/iAu8WWMBaPUg.jpg",
         "id" : "r61",
         "comps" : [],
         "download" : {
            "receiveFirst" : 69,
            "len" : 48382,
            "dns" : 0,
            "dnsEnd" : -1,
            "receiveHeadersEnd" : 248,
            "sslEnd" : -1,
            "connectEnd" : 179,
            "connectStart" : 0,
            "id" : "download_28",
            "receivedTime" : "2348.93800000282",
            "sslStart" : -1,
            "dnsStart" : -1,
            "receiveLast" : 2100.93800000282,
            "s_time" : 1812.60699999984,
            "sendEnd" : 179,
            "sendStart" : 179,
            "type" : "image/jpeg"
         }
      },
      {
         "when_comp_start" : -1,
         "url" : "http://original.testbed.localhost/www.bloomberg.com/image/isA6P.DO9WpM.jpg",
         "id" : "r62",
         "comps" : [],
         "download" : {
            "receiveFirst" : 58,
            "len" : 47856,
            "dns" : 0,
            "dnsEnd" : -1,
            "receiveHeadersEnd" : 298,
            "sslEnd" : -1,
            "connectEnd" : 239,
            "connectStart" : 0,
            "id" : "download_29",
            "receivedTime" : "2370.75800000457",
            "sslStart" : -1,
            "dnsStart" : -1,
            "receiveLast" : 2072.75800000457,
            "s_time" : 1833.00800000143,
            "sendEnd" : 240,
            "sendStart" : 239,
            "type" : "image/jpeg"
         }
      },
      {
         "when_comp_start" : -1,
         "url" : "http://original.testbed.localhost/www.bloomberg.com/image/iBhaiSkLfupM.jpg",
         "id" : "r63",
         "comps" : [],
         "download" : {
            "receiveFirst" : 54,
            "len" : 30969,
            "dns" : 0,
            "dnsEnd" : -1,
            "receiveHeadersEnd" : 289,
            "sslEnd" : -1,
            "connectEnd" : 235,
            "connectStart" : 0,
            "id" : "download_30",
            "receivedTime" : "2353.0580000006",
            "sslStart" : -1,
            "dnsStart" : -1,
            "receiveLast" : 2064.0580000006,
            "s_time" : 1857.80299999897,
            "sendEnd" : 235,
            "sendStart" : 235,
            "type" : "image/jpeg"
         }
      },
      {
         "when_comp_start" : -1,
         "url" : "http://original.testbed.localhost/www.bloomberg.com/image/iJk_qj3cRWB4.jpg",
         "id" : "r58",
         "comps" : [],
         "download" : {
            "receiveFirst" : 300,
            "len" : 29641,
            "dns" : 0,
            "dnsEnd" : -1,
            "receiveHeadersEnd" : 420,
            "sslEnd" : -1,
            "connectEnd" : 120,
            "connectStart" : 0,
            "id" : "download_31",
            "receivedTime" : "2367.49200000486",
            "sslStart" : -1,
            "dnsStart" : -1,
            "receiveLast" : 1947.49200000486,
            "s_time" : 1738.64700000559,
            "sendEnd" : 120,
            "sendStart" : 120,
            "type" : "image/jpeg"
         }
      },
      {
         "when_comp_start" : -1,
         "url" : "http://original.testbed.localhost/www.bloomberg.com/image/iG.dIzkhfDjY.jpg",
         "id" : "r64",
         "comps" : [],
         "download" : {
            "receiveFirst" : 53,
            "len" : 22018,
            "dns" : 0,
            "dnsEnd" : -1,
            "receiveHeadersEnd" : 295,
            "sslEnd" : -1,
            "connectEnd" : 242,
            "connectStart" : 0,
            "id" : "download_32",
            "receivedTime" : "2369.07900000369",
            "sslStart" : -1,
            "dnsStart" : -1,
            "receiveLast" : 2074.07900000369,
            "s_time" : 1935.02699999954,
            "sendEnd" : 242,
            "sendStart" : 242,
            "type" : "image/jpeg"
         }
      },
      {
         "when_comp_start" : -1,
         "url" : "http://original.testbed.localhost/assets.bwbx.io/images/iUhLsjskILpM/v1/190x-1.jpg",
         "id" : "r65",
         "comps" : [],
         "download" : {
            "receiveFirst" : 54,
            "len" : 5781,
            "dns" : 0,
            "dnsEnd" : -1,
            "receiveHeadersEnd" : 306,
            "sslEnd" : -1,
            "connectEnd" : 252,
            "connectStart" : 0,
            "id" : "download_33",
            "receivedTime" : "2366.3330000054",
            "sslStart" : -1,
            "dnsStart" : -1,
            "receiveLast" : 2060.3330000054,
            "s_time" : 1948.56200000504,
            "sendEnd" : 252,
            "sendStart" : 252,
            "type" : "image/jpeg"
         }
      },
      {
         "when_comp_start" : -1,
         "url" : "http://original.testbed.localhost/www.bloomberg.com/image/i.tp4hUBW1.Q.jpg",
         "id" : "r60",
         "comps" : [],
         "download" : {
            "receiveFirst" : 329,
            "len" : 23971,
            "dns" : 0,
            "dnsEnd" : -1,
            "receiveHeadersEnd" : 503,
            "sslEnd" : -1,
            "connectEnd" : 174,
            "connectStart" : 0,
            "id" : "download_34",
            "receivedTime" : "2378.17400000495",
            "sslStart" : -1,
            "dnsStart" : -1,
            "receiveLast" : 1875.17400000495,
            "s_time" : 1775.5890000044,
            "sendEnd" : 174,
            "sendStart" : 174,
            "type" : "image/jpeg"
         }
      },
      {
         "when_comp_start" : -1,
         "url" : "http://original.testbed.localhost/assets.bwbx.io/images/i9Tex5_3exX0/v1/190x-1.jpg",
         "id" : "r66",
         "comps" : [],
         "download" : {
            "receiveFirst" : 60,
            "len" : 20211,
            "dns" : 0,
            "dnsEnd" : -1,
            "receiveHeadersEnd" : 247,
            "sslEnd" : -1,
            "connectEnd" : 187,
            "connectStart" : 0,
            "id" : "download_35",
            "receivedTime" : "2383.08700000198",
            "sslStart" : -1,
            "dnsStart" : -1,
            "receiveLast" : 2136.08700000198,
            "s_time" : 2071.2130000029,
            "sendEnd" : 187,
            "sendStart" : 187,
            "type" : "image/jpeg"
         }
      },
      {
         "when_comp_start" : -1,
         "url" : "http://original.testbed.localhost/assets.bwbx.io/images/ij2d1T5SuWTY/v1/190x-1.png",
         "id" : "r67",
         "comps" : [],
         "download" : {
            "receiveFirst" : 75,
            "len" : 22005,
            "dns" : 0,
            "dnsEnd" : -1,
            "receiveHeadersEnd" : 255,
            "sslEnd" : -1,
            "connectEnd" : 180,
            "connectStart" : 0,
            "id" : "download_36",
            "receivedTime" : "2730.71300000447",
            "sslStart" : -1,
            "dnsStart" : -1,
            "receiveLast" : 2475.71300000447,
            "s_time" : 2088.16500000103,
            "sendEnd" : 180,
            "sendStart" : 180,
            "type" : "image/png"
         }
      },
      {
         "when_comp_start" : -1,
         "url" : "http://original.testbed.localhost/assets.bwbx.io/images/iSioOuvOIT.s/v1/190x-1.jpg",
         "id" : "r68",
         "comps" : [],
         "download" : {
            "receiveFirst" : 82,
            "len" : 15272,
            "dns" : 0,
            "dnsEnd" : -1,
            "receiveHeadersEnd" : 195,
            "sslEnd" : -1,
            "connectEnd" : 113,
            "connectStart" : 0,
            "id" : "download_37",
            "receivedTime" : "2389.49600000342",
            "sslStart" : -1,
            "dnsStart" : -1,
            "receiveLast" : 2194.49600000342,
            "s_time" : 2175.33800000092,
            "sendEnd" : 113,
            "sendStart" : 113,
            "type" : "image/jpeg"
         }
      },
      {
         "when_comp_start" : -1,
         "url" : "http://original.testbed.localhost/assets.bwbx.io/business/public/fonts/NHaasGroteskDSPro-75Bd.12f4d5e2.woff",
         "id" : "r18",
         "comps" : [],
         "download" : {
            "receiveFirst" : 53,
            "len" : 107480,
            "dns" : 0,
            "dnsEnd" : -1,
            "receiveHeadersEnd" : 91,
            "sslEnd" : -1,
            "connectEnd" : 38,
            "connectStart" : 0,
            "id" : "download_38",
            "receivedTime" : "2980.65200000565",
            "sslStart" : -1,
            "dnsStart" : -1,
            "receiveLast" : 2889.65200000565,
            "s_time" : 2327.34600000549,
            "sendEnd" : 38,
            "sendStart" : 38,
            "type" : "application/octet-stream"
         }
      },
      {
         "when_comp_start" : -1,
         "url" : "http://original.testbed.localhost/assets.bwbx.io/business/public/fonts/TiemposHeadlineWeb-Bold.aecbe6c1.woff",
         "id" : "r34",
         "comps" : [],
         "download" : {
            "receiveFirst" : 58,
            "len" : 48520,
            "dns" : 0,
            "dnsEnd" : -1,
            "receiveHeadersEnd" : 112,
            "sslEnd" : -1,
            "connectEnd" : 54,
            "connectStart" : 0,
            "id" : "download_39",
            "receivedTime" : "2750.79299999925",
            "sslStart" : -1,
            "dnsStart" : -1,
            "receiveLast" : 2638.79299999925,
            "s_time" : 2330.06200000091,
            "sendEnd" : 54,
            "sendStart" : 54,
            "type" : "application/octet-stream"
         }
      },
      {
         "when_comp_start" : -1,
         "url" : "http://original.testbed.localhost/assets.bwbx.io/business/public/fonts/NHaasGroteskDSPro-95Blk.09651977.woff",
         "id" : "r24",
         "comps" : [],
         "download" : {
            "receiveFirst" : 344,
            "len" : 117496,
            "dns" : 0,
            "dnsEnd" : -1,
            "receiveHeadersEnd" : 402,
            "sslEnd" : -1,
            "connectEnd" : 58,
            "connectStart" : 0,
            "id" : "download_40",
            "receivedTime" : "3159.82000000076",
            "sslStart" : -1,
            "dnsStart" : -1,
            "receiveLast" : 2757.82000000076,
            "s_time" : 2331.81699999841,
            "sendEnd" : 58,
            "sendStart" : 58,
            "type" : "application/octet-stream"
         }
      },
      {
         "when_comp_start" : -1,
         "url" : "http://original.testbed.localhost/assets.bwbx.io/business/public/fonts/TiemposTextWeb-Regular.9541d248.woff",
         "id" : "r30",
         "comps" : [],
         "download" : {
            "receiveFirst" : 407,
            "len" : 73516,
            "dns" : 0,
            "dnsEnd" : -1,
            "receiveHeadersEnd" : 420,
            "sslEnd" : -1,
            "connectEnd" : 13,
            "connectStart" : 0,
            "id" : "download_41",
            "receivedTime" : "3193.17600000068",
            "sslStart" : -1,
            "dnsStart" : -1,
            "receiveLast" : 2773.17600000068,
            "s_time" : 2325.65199999954,
            "sendEnd" : 13,
            "sendStart" : 13,
            "type" : "application/octet-stream"
         }
      },
      {
         "when_comp_start" : -1,
         "url" : "http://original.testbed.localhost/assets.bwbx.io/business/public/fonts/NHaasGroteskTXPro-75Bd.ee2c9361.woff",
         "id" : "r21",
         "comps" : [],
         "download" : {
            "receiveFirst" : 54,
            "len" : 128872,
            "dns" : 0,
            "dnsEnd" : -1,
            "receiveHeadersEnd" : 446,
            "sslEnd" : -1,
            "connectEnd" : 392,
            "connectStart" : 0,
            "id" : "download_42",
            "receivedTime" : "3468.68900000118",
            "sslStart" : -1,
            "dnsStart" : -1,
            "receiveLast" : 3022.68900000118,
            "s_time" : 2331.69500000076,
            "sendEnd" : 392,
            "sendStart" : 392,
            "type" : "application/octet-stream"
         }
      }
   ],
   "deps" : [
      {
         "a2" : "r1_c2",
         "time" : -1,
         "id" : "dep1",
         "a1" : "comp_0"
      },
      {
         "a2" : "r1_c3",
         "time" : -1,
         "id" : "dep2",
         "a1" : "comp_17"
      },
      {
         "a2" : "download_42",
         "time" : -1,
         "id" : "dep3",
         "a1" : "r1_c3"
      },
      {
         "a2" : "download_41",
         "time" : 366.6069999963,
         "id" : "dep4",
         "a1" : "r1_c3"
      },
      {
         "a2" : "download_40",
         "time" : -1,
         "id" : "dep5",
         "a1" : "r1_c3"
      },
      {
         "a2" : "download_39",
         "time" : 371.01699999767,
         "id" : "dep6",
         "a1" : "r1_c3"
      },
      {
         "a2" : "download_38",
         "time" : 368.30100000225,
         "id" : "dep7",
         "a1" : "r1_c3"
      },
      {
         "a2" : "download_37",
         "time" : 216.29299999768,
         "id" : "dep8",
         "a1" : "r1_c3"
      },
      {
         "a2" : "download_36",
         "time" : 129.11999999779,
         "id" : "dep9",
         "a1" : "r1_c3"
      },
      {
         "a2" : "download_35",
         "time" : 112.16799999966,
         "id" : "dep10",
         "a1" : "r1_c3"
      },
      {
         "a2" : "download_34",
         "time" : -1,
         "id" : "dep11",
         "a1" : "r1_c2"
      },
      {
         "a2" : "download_33",
         "time" : -1,
         "id" : "dep12",
         "a1" : "r1_c2"
      },
      {
         "a2" : "download_32",
         "time" : 1668.69999999472,
         "id" : "dep13",
         "a1" : "r1_c2"
      },
      {
         "a2" : "download_31",
         "time" : 1472.32000000077,
         "id" : "dep14",
         "a1" : "r1_c2"
      },
      {
         "a2" : "download_30",
         "time" : 1591.47599999415,
         "id" : "dep15",
         "a1" : "r1_c2"
      },
      {
         "a2" : "download_29",
         "time" : 1566.68099999661,
         "id" : "dep16",
         "a1" : "r1_c2"
      },
      {
         "a2" : "download_28",
         "time" : 1546.27999999502,
         "id" : "dep17",
         "a1" : "r1_c2"
      },
      {
         "a2" : "download_27",
         "time" : 1491.75999999716,
         "id" : "dep18",
         "a1" : "r1_c2"
      },
      {
         "a2" : "download_26",
         "time" : 1460.93699999619,
         "id" : "dep19",
         "a1" : "r1_c2"
      },
      {
         "a2" : "download_25",
         "time" : 1430.26699999609,
         "id" : "dep20",
         "a1" : "r1_c2"
      },
      {
         "a2" : "download_24",
         "time" : 1413.22299999593,
         "id" : "dep21",
         "a1" : "r1_c2"
      },
      {
         "a2" : "download_23",
         "time" : 1353.82099999697,
         "id" : "dep22",
         "a1" : "r1_c2"
      },
      {
         "a2" : "download_22",
         "time" : 1325.97299999907,
         "id" : "dep23",
         "a1" : "r1_c2"
      },
      {
         "a2" : "download_21",
         "time" : 1282.36299999844,
         "id" : "dep24",
         "a1" : "r1_c2"
      },
      {
         "a2" : "download_20",
         "time" : 1275.68099999917,
         "id" : "dep25",
         "a1" : "r1_c2"
      },
      {
         "a2" : "download_19",
         "time" : 1199.53800000076,
         "id" : "dep26",
         "a1" : "r1_c2"
      },
      {
         "a2" : "download_18",
         "time" : 1113.08299999655,
         "id" : "dep27",
         "a1" : "r1_c2"
      },
      {
         "a2" : "download_17",
         "time" : 1109.64899999817,
         "id" : "dep28",
         "a1" : "r1_c2"
      },
      {
         "a2" : "download_16",
         "time" : 1107.28399999789,
         "id" : "dep29",
         "a1" : "r1_c2"
      },
      {
         "a2" : "download_15",
         "time" : 1104.21700000006,
         "id" : "dep30",
         "a1" : "r1_c2"
      },
      {
         "a2" : "download_14",
         "time" : 1195.6629999986,
         "id" : "dep31",
         "a1" : "r1_c2"
      },
      {
         "a2" : "download_13",
         "time" : 1194.86899999902,
         "id" : "dep32",
         "a1" : "r1_c2"
      },
      {
         "a2" : "download_12",
         "time" : 1190.70400000055,
         "id" : "dep33",
         "a1" : "r1_c2"
      },
      {
         "a2" : "download_11",
         "time" : 1100.23499999807,
         "id" : "dep34",
         "a1" : "r1_c2"
      },
      {
         "a2" : "download_10",
         "time" : 1125.28899999597,
         "id" : "dep35",
         "a1" : "r1_c2"
      },
      {
         "a2" : "download_9",
         "time" : 1078.67299999634,
         "id" : "dep36",
         "a1" : "r1_c2"
      },
      {
         "a2" : "download_8",
         "time" : 1076.3239999942,
         "id" : "dep37",
         "a1" : "r1_c2"
      },
      {
         "a2" : "download_7",
         "time" : 1072.23499999964,
         "id" : "dep38",
         "a1" : "r1_c2"
      },
      {
         "a2" : "download_6",
         "time" : 1059.87399999867,
         "id" : "dep39",
         "a1" : "r1_c2"
      },
      {
         "a2" : "download_5",
         "time" : 1056.44100000063,
         "id" : "dep40",
         "a1" : "r1_c2"
      },
      {
         "a2" : "download_4",
         "time" : 60.118999994302,
         "id" : "dep41",
         "a1" : "r1_c2"
      },
      {
         "a2" : "download_3",
         "time" : -1,
         "id" : "dep42",
         "a1" : "r1_c1"
      },
      {
         "a2" : "download_3",
         "time" : 5.46200000098901,
         "id" : "dep43",
         "a1" : "r1_c1"
      },
      {
         "a2" : "download_2",
         "time" : -1,
         "id" : "dep44",
         "a1" : "r1_c1"
      },
      {
         "a2" : "download_2",
         "time" : 40.54200000246,
         "id" : "dep45",
         "a1" : "r1_c1"
      },
      {
         "a2" : "download_1",
         "time" : 2.25800000043799,
         "id" : "dep46",
         "a1" : "r1_c1"
      }
   ]
}
