{
   "n_download_no_trigger" : 1,
   "start_activity" : "download_0",
   "name" : "original.testbed.localhost_www.ebay.com_",
   "load_activity" : -1,
   "objs" : [
      {
         "when_comp_start" : 1,
         "url" : "http://original.testbed.localhost/www.ebay.com/",
         "id" : "r1",
         "comps" : [
            {
               "s_time" : 179.854999994859,
               "time" : 873.977000010201,
               "id" : "r1_c1",
               "type" : "evalhtml",
               "e_time" : 1053.83200000506
            },
            {
               "s_time" : 1518.20400000724,
               "time" : -113910073.929,
               "id" : "r1_c2",
               "type" : "evalhtml",
               "e_time" : -113908555.725
            },
            {
               "s_time" : 1586.50200000557,
               "time" : 8.97199999599002,
               "id" : "r1_c3",
               "type" : "evalhtml",
               "e_time" : 1595.47400000156
            },
            {
               "s_time" : 1927.96299999463,
               "time" : 1732.14800001006,
               "type" : "evalhtml",
               "id" : "r1_c4",
               "e_time" : 3660.11100000469
            }
         ],
         "download" : {
            "receiveFirst" : 56,
            "len" : 173052,
            "dns" : 0,
            "dnsEnd" : -1,
            "receiveHeadersEnd" : 62,
            "sslEnd" : -1,
            "connectEnd" : 6,
            "connectStart" : 0,
            "id" : "download_0",
            "receivedTime" : "177.475000004051",
            "sslStart" : -1,
            "dnsStart" : -1,
            "receiveLast" : 115.475000004051,
            "s_time" : 0,
            "sendEnd" : 6,
            "sendStart" : 6,
            "type" : "text/html"
         }
      },
      {
         "when_comp_start" : -1,
         "url" : "http://original.testbed.localhost/ir.ebaystatic.com/rs/v/sbc3rp5hvu2afkq0yz3xuugwbaj.css%3Fproc=DU:N.css",
         "id" : "r2",
         "comps" : [
            {
               "s_time" : 368.117999998503,
               "time" : 476.502000004985,
               "type" : 4,
               "id" : "comp_2",
               "e_time" : 844.620000003488
            }
         ],
         "download" : {
            "receiveFirst" : 111,
            "len" : 125759,
            "dns" : 0,
            "dnsEnd" : -1,
            "receiveHeadersEnd" : 120,
            "sslEnd" : -1,
            "connectEnd" : 9,
            "connectStart" : 0,
            "id" : "download_1",
            "receivedTime" : "366.806000005454",
            "sslStart" : -1,
            "dnsStart" : -1,
            "receiveLast" : 246.806000005454,
            "s_time" : 198.348999998416,
            "sendEnd" : 9,
            "sendStart" : 9,
            "type" : "text/css"
         }
      },
      {
         "when_comp_start" : -1,
         "url" : "http://original.testbed.localhost/ir.ebaystatic.com/rs/v/fxxj3ttftm5ltcqnto1o4baovyl.png",
         "id" : "r3",
         "comps" : [],
         "download" : {
            "receiveFirst" : 109,
            "len" : 4820,
            "dns" : 0,
            "dnsEnd" : -1,
            "receiveHeadersEnd" : 118,
            "sslEnd" : -1,
            "connectEnd" : 9,
            "connectStart" : 0,
            "id" : "download_2",
            "receivedTime" : "334.64100000856",
            "sslStart" : -1,
            "dnsStart" : -1,
            "receiveLast" : 216.64100000856,
            "s_time" : 203.888000003644,
            "sendEnd" : 9,
            "sendStart" : 9,
            "type" : "image/png"
         }
      },
      {
         "when_comp_start" : -1,
         "url" : "http://original.testbed.localhost/rtm.ebaystatic.com/0/Rtm/Css/mfbb_rpp_20150716.css",
         "id" : "r9",
         "comps" : [
            {
               "s_time" : 350.875999996788,
               "time" : 0.0300000101560158,
               "type" : 4,
               "id" : "comp_1",
               "e_time" : 350.906000006944
            }
         ],
         "download" : {
            "receiveFirst" : 54,
            "len" : 1635,
            "dns" : 0,
            "dnsEnd" : 8,
            "receiveHeadersEnd" : 114,
            "sslEnd" : -1,
            "connectEnd" : 60,
            "connectStart" : 0,
            "id" : "download_3",
            "receivedTime" : "349.715999996988",
            "sslStart" : -1,
            "dnsStart" : 8,
            "receiveLast" : 235.715999996988,
            "s_time" : 229.384999998729,
            "sendEnd" : 60,
            "sendStart" : 60,
            "type" : "text/css"
         }
      },
      {
         "when_comp_start" : -1,
         "url" : "http://original.testbed.localhost/ir.ebaystatic.com/pictures/aw/mops/2015_Doodles/We_are_20_doodle_small_CTA.jpg",
         "id" : "r4",
         "comps" : [],
         "download" : {
            "receiveFirst" : 57,
            "len" : 4255,
            "dns" : 0,
            "dnsEnd" : 23,
            "receiveHeadersEnd" : 132,
            "sslEnd" : -1,
            "connectEnd" : 74,
            "connectStart" : 0,
            "id" : "download_4",
            "receivedTime" : "844.893999994383",
            "sslStart" : -1,
            "dnsStart" : 23,
            "receiveLast" : 712.893999994383,
            "s_time" : 226.561999996193,
            "sendEnd" : 75,
            "sendStart" : 74,
            "type" : "image/jpeg"
         }
      },
      {
         "when_comp_start" : -1,
         "url" : "http://original.testbed.localhost/ir.ebaystatic.com/rs/v/jmalt0eyvq1k1k2ezqntv51k5mo.js",
         "id" : "r12",
         "comps" : [
            {
               "s_time" : 859.389999997802,
               "time" : 658.814000009438,
               "type" : 1,
               "id" : "comp_7",
               "e_time" : 1518.20400000724
            }
         ],
         "download" : {
            "receiveFirst" : 59,
            "len" : 94037,
            "dns" : 1,
            "dnsEnd" : 8,
            "receiveHeadersEnd" : 118,
            "sslEnd" : -1,
            "connectEnd" : 59,
            "connectStart" : 0,
            "id" : "download_5",
            "receivedTime" : "858.779999995022",
            "sslStart" : -1,
            "dnsStart" : 7,
            "receiveLast" : 740.779999995022,
            "s_time" : 259.354000008898,
            "sendEnd" : 59,
            "sendStart" : 59,
            "type" : "application/javascript"
         }
      },
      {
         "when_comp_start" : -1,
         "url" : "http://original.testbed.localhost/ir.ebaystatic.com/rs/v/xv1wcuzedq4g5elyftufl5ijcuz.js",
         "id" : "r13",
         "comps" : [
            {
               "s_time" : 1519.36299999943,
               "time" : 67.1390000061399,
               "type" : 1,
               "id" : "comp_15",
               "e_time" : 1586.50200000557
            }
         ],
         "download" : {
            "receiveFirst" : 59,
            "len" : 47465,
            "dns" : 0,
            "dnsEnd" : 11,
            "receiveHeadersEnd" : 122,
            "sslEnd" : -1,
            "connectEnd" : 63,
            "connectStart" : 0,
            "id" : "download_6",
            "receivedTime" : "854.019000005792",
            "sslStart" : -1,
            "dnsStart" : 11,
            "receiveLast" : 732.019000005792,
            "s_time" : 260.147000008146,
            "sendEnd" : 63,
            "sendStart" : 63,
            "type" : "application/javascript"
         }
      },
      {
         "when_comp_start" : -1,
         "url" : "http://original.testbed.localhost/ir.ebaystatic.com/rs/v/nl4fcophje10zgtvczfyy3d4eu5.js",
         "id" : "r14",
         "comps" : [
            {
               "s_time" : 1644.66900000116,
               "time" : 283.29399999347,
               "type" : 1,
               "id" : "comp_25",
               "e_time" : 1927.96299999463
            }
         ],
         "download" : {
            "receiveFirst" : 59,
            "len" : 190040,
            "dns" : 0,
            "dnsEnd" : -1,
            "receiveHeadersEnd" : 130,
            "sslEnd" : -1,
            "connectEnd" : 70,
            "connectStart" : 0,
            "id" : "download_7",
            "receivedTime" : "1642.31900000595",
            "sslStart" : -1,
            "dnsStart" : -1,
            "receiveLast" : 1512.31900000595,
            "s_time" : 260.848999998416,
            "sendEnd" : 71,
            "sendStart" : 70,
            "type" : "application/javascript"
         }
      },
      {
         "when_comp_start" : -1,
         "url" : "http://original.testbed.localhost/ir.ebaystatic.com/pictures/aw/cmp/img/imgThrobberGrey_30x30.gif",
         "id" : "r5",
         "comps" : [],
         "download" : {
            "receiveFirst" : 53,
            "len" : 2373,
            "dns" : 0,
            "dnsEnd" : -1,
            "receiveHeadersEnd" : 174,
            "sslEnd" : -1,
            "connectEnd" : 121,
            "connectStart" : 0,
            "id" : "download_8",
            "receivedTime" : "851.028999997652",
            "sslStart" : -1,
            "dnsStart" : -1,
            "receiveLast" : 677.028999997652,
            "s_time" : 228.073000005679,
            "sendEnd" : 121,
            "sendStart" : 121,
            "type" : "image/gif"
         }
      },
      {
         "when_comp_start" : -1,
         "url" : "http://original.testbed.localhost/thumbs.ebaystatic.com/d/l225/m/mdwgdzaM4oRjFnz6ZgKSXyg.jpg",
         "id" : "r6",
         "comps" : [],
         "download" : {
            "receiveFirst" : 53,
            "len" : 9078,
            "dns" : 0,
            "dnsEnd" : -1,
            "receiveHeadersEnd" : 191,
            "sslEnd" : -1,
            "connectEnd" : 137,
            "connectStart" : 0,
            "id" : "download_9",
            "receivedTime" : "852.524000001722",
            "sslStart" : -1,
            "dnsStart" : -1,
            "receiveLast" : 661.524000001722,
            "s_time" : 229.217000000062,
            "sendEnd" : 138,
            "sendStart" : 137,
            "type" : "image/jpeg"
         }
      },
      {
         "when_comp_start" : -1,
         "url" : "http://original.testbed.localhost/thumbs.ebaystatic.com/d/l225/m/mTb8_v-9ApMjJ0IslHHcbDQ.jpg",
         "id" : "r7",
         "comps" : [],
         "download" : {
            "receiveFirst" : 65,
            "len" : 5958,
            "dns" : 0,
            "dnsEnd" : -1,
            "receiveHeadersEnd" : 205,
            "sslEnd" : -1,
            "connectEnd" : 139,
            "connectStart" : 0,
            "id" : "download_10",
            "receivedTime" : "855.576000001747",
            "sslStart" : -1,
            "dnsStart" : -1,
            "receiveLast" : 650.576000001747,
            "s_time" : 230.009999999311,
            "sendEnd" : 140,
            "sendStart" : 139,
            "type" : "image/jpeg"
         }
      },
      {
         "when_comp_start" : -1,
         "url" : "http://original.testbed.localhost/thumbs.ebaystatic.com/d/l225/m/m1B36ipPjsRCSGU4mQQoZIw.jpg",
         "id" : "r8",
         "comps" : [],
         "download" : {
            "receiveFirst" : 55,
            "len" : 7528,
            "dns" : 0,
            "dnsEnd" : -1,
            "receiveHeadersEnd" : 229,
            "sslEnd" : -1,
            "connectEnd" : 174,
            "connectStart" : 0,
            "id" : "download_11",
            "receivedTime" : "857.864000005065",
            "sslStart" : -1,
            "dnsStart" : -1,
            "receiveLast" : 628.864000005065,
            "s_time" : 230.666999996174,
            "sendEnd" : 174,
            "sendStart" : 174,
            "type" : "image/jpeg"
         }
      },
      {
         "when_comp_start" : -1,
         "url" : "http://original.testbed.localhost/srx.main.ebayrtm.com/rtm%3FRtmIt&ite=1&m=496329&pg=2057337&y=3FwEhNAJWLjIAUyVpBQAsPQQDfQMCVC1cCF9%252FDlcCLQoBVH9WXVtcNG45XDhuOVw8&uf=0&ord=1442354229879&ts=1442354229879&aii=9020761824740621154",
         "id" : "r10",
         "comps" : [],
         "download" : {
            "receiveFirst" : 67,
            "len" : 43,
            "dns" : 0,
            "dnsEnd" : -1,
            "receiveHeadersEnd" : 260,
            "sslEnd" : -1,
            "connectEnd" : 193,
            "connectStart" : 0,
            "id" : "download_12",
            "receivedTime" : "1588.91299999959",
            "sslStart" : -1,
            "dnsStart" : -1,
            "receiveLast" : 1328.91299999959,
            "s_time" : 233.458999995491,
            "sendEnd" : 193,
            "sendStart" : 193,
            "type" : "image/gif"
         }
      },
      {
         "when_comp_start" : -1,
         "url" : "http://original.testbed.localhost/rtm.ebaystatic.com/0/RTMS/Image/GR_35001_AREC_V1-v0902.jpg",
         "id" : "r11",
         "comps" : [],
         "download" : {
            "receiveFirst" : 78,
            "len" : 13884,
            "dns" : 0,
            "dnsEnd" : -1,
            "receiveHeadersEnd" : 282,
            "sslEnd" : -1,
            "connectEnd" : 204,
            "connectStart" : 0,
            "id" : "download_13",
            "receivedTime" : "1591.44600000582",
            "sslStart" : -1,
            "dnsStart" : -1,
            "receiveLast" : 1309.44600000582,
            "s_time" : 233.932000002824,
            "sendEnd" : 204,
            "sendStart" : 204,
            "type" : "image/jpeg"
         }
      },
      {
         "when_comp_start" : -1,
         "url" : "http://original.testbed.localhost/p.ebaystatic.com/aw/pics/cmp/ds3/imgbg.jpg",
         "id" : "r27",
         "comps" : [],
         "download" : {
            "receiveFirst" : 54,
            "len" : 1392,
            "dns" : 0,
            "dnsEnd" : -1,
            "receiveHeadersEnd" : 72,
            "sslEnd" : -1,
            "connectEnd" : 18,
            "connectStart" : 0,
            "id" : "download_14",
            "receivedTime" : "1640.27400000487",
            "sslStart" : -1,
            "dnsStart" : -1,
            "receiveLast" : 1568.27400000487,
            "s_time" : 497.726999994484,
            "sendEnd" : 18,
            "sendStart" : 18,
            "type" : "image/jpeg"
         }
      },
      {
         "when_comp_start" : 1,
         "url" : "http://original.testbed.localhost/ad.doubleclick.net/N6245/adi/ebay.ebayus.homepage.cchp/cchp%3Bitems=%3Bice=%3Bccode=%3Bsz=300x250%3Bu=i_9020761824740621154%7Cm_496329%3B%3Bdcopt=ist%3Btile=1%3Beb_trk=496329%3Bord=1442354229598%3B.html",
         "id" : "r28",
         "comps" : [
            {
               "s_time" : 3945.93800000439,
               "time" : 8.0569999991003,
               "id" : "r28_c1",
               "type" : "evalhtml",
               "e_time" : 3953.99500000349
            },
            {
               "s_time" : 4041.36699999799,
               "time" : 747.83300000126,
               "type" : "evalhtml",
               "id" : "r28_c2",
               "e_time" : 4789.19999999925
            }
         ],
         "download" : {
            "receiveFirst" : 53,
            "len" : 4799,
            "dns" : 0,
            "dnsEnd" : -1,
            "receiveHeadersEnd" : 64,
            "sslEnd" : -1,
            "connectEnd" : 10,
            "connectStart" : 0,
            "id" : "download_15",
            "receivedTime" : "2070.72499999776",
            "sslStart" : -1,
            "dnsStart" : -1,
            "receiveLast" : 2006.72499999776,
            "s_time" : 623.260000007576,
            "sendEnd" : 11,
            "sendStart" : 10,
            "type" : "text/html"
         }
      },
      {
         "when_comp_start" : -1,
         "url" : "http://original.testbed.localhost/rtm.ebaystatic.com/0/RTMS/Image/GR_35301_SML_Day7_Gemstoneking.jpg",
         "id" : "r29",
         "comps" : [],
         "download" : {
            "receiveFirst" : 54,
            "len" : 29590,
            "dns" : 0,
            "dnsEnd" : -1,
            "receiveHeadersEnd" : 58,
            "sslEnd" : -1,
            "connectEnd" : 4,
            "connectStart" : 0,
            "id" : "download_16",
            "receivedTime" : "3677.96299999463",
            "sslStart" : -1,
            "dnsStart" : -1,
            "receiveLast" : 3619.96299999463,
            "s_time" : 967.818000004627,
            "sendEnd" : 4,
            "sendStart" : 4,
            "type" : "image/jpeg"
         }
      },
      {
         "when_comp_start" : -1,
         "url" : "http://original.testbed.localhost/p.ebaystatic.com/aw/home/feed/sprite_201505141202_opt.png",
         "id" : "r30",
         "comps" : [],
         "download" : {
            "receiveFirst" : 53,
            "len" : 54009,
            "dns" : 0,
            "dnsEnd" : -1,
            "receiveHeadersEnd" : 57,
            "sslEnd" : -1,
            "connectEnd" : 4,
            "connectStart" : 0,
            "id" : "download_17",
            "receivedTime" : "3718.33800000604",
            "sslStart" : -1,
            "dnsStart" : -1,
            "receiveLast" : 3661.33800000604,
            "s_time" : 981.903000007151,
            "sendEnd" : 4,
            "sendStart" : 4,
            "type" : "image/png"
         }
      },
      {
         "when_comp_start" : -1,
         "url" : "http://original.testbed.localhost/ir.ebaystatic.com/pictures/aw/pics/cmp/ds3/sprds3_18.png",
         "id" : "r31",
         "comps" : [],
         "download" : {
            "receiveFirst" : 55,
            "len" : 64120,
            "dns" : 0,
            "dnsEnd" : -1,
            "receiveHeadersEnd" : 59,
            "sslEnd" : -1,
            "connectEnd" : 4,
            "connectStart" : 0,
            "id" : "download_18",
            "receivedTime" : "3737.86900000414",
            "sslStart" : -1,
            "dnsStart" : -1,
            "receiveLast" : 3678.86900000414,
            "s_time" : 1053.83200000506,
            "sendEnd" : 4,
            "sendStart" : 4,
            "type" : "image/png"
         }
      },
      {
         "when_comp_start" : -1,
         "url" : "http://original.testbed.localhost/ir.ebaystatic.com/rs/v/rtxsscrl0i5hxibz1wk5e1iehqd.woff",
         "id" : "r15",
         "comps" : [],
         "download" : {
            "receiveFirst" : 57,
            "len" : 43116,
            "dns" : 0,
            "dnsEnd" : -1,
            "receiveHeadersEnd" : 63,
            "sslEnd" : -1,
            "connectEnd" : 6,
            "connectStart" : 0,
            "id" : "download_19",
            "receivedTime" : "3925.33900000853",
            "sslStart" : -1,
            "dnsStart" : -1,
            "receiveLast" : 3862.33900000853,
            "s_time" : 1594.28400000616,
            "sendEnd" : 6,
            "sendStart" : 6,
            "type" : "application/octet-stream"
         }
      },
      {
         "when_comp_start" : -1,
         "url" : "http://original.testbed.localhost/ir.ebaystatic.com/rs/v/lc2fgjax3uzdrkskrcqryvxhvye.woff",
         "id" : "r19",
         "comps" : [],
         "download" : {
            "receiveFirst" : 72,
            "len" : 41708,
            "dns" : 0,
            "dnsEnd" : -1,
            "receiveHeadersEnd" : 78,
            "sslEnd" : -1,
            "connectEnd" : 6,
            "connectStart" : 0,
            "id" : "download_20",
            "receivedTime" : "3939.9870000052",
            "sslStart" : -1,
            "dnsStart" : -1,
            "receiveLast" : 3861.9870000052,
            "s_time" : 1595.47400000156,
            "sendEnd" : 6,
            "sendStart" : 6,
            "type" : "application/octet-stream"
         }
      },
      {
         "when_comp_start" : -1,
         "url" : "http://original.testbed.localhost/ir.ebaystatic.com/rs/v/mvycxgwxlm4znb1wyhijc1xzca4.js",
         "id" : "r165",
         "comps" : [
            {
               "s_time" : 4034.01200000371,
               "time" : 7.35499999428021,
               "type" : 1,
               "id" : "comp_68",
               "e_time" : 4041.36699999799
            }
         ],
         "download" : {
            "receiveFirst" : 52,
            "len" : 4885,
            "dns" : 0,
            "dnsEnd" : -1,
            "receiveHeadersEnd" : 57,
            "sslEnd" : -1,
            "connectEnd" : 4,
            "connectStart" : 0,
            "id" : "download_21",
            "receivedTime" : "4033.61500000756",
            "sslStart" : -1,
            "dnsStart" : -1,
            "receiveLast" : 3976.61500000756,
            "s_time" : 3953.99500000349,
            "sendEnd" : 5,
            "sendStart" : 4,
            "type" : "application/javascript"
         }
      },
      {
         "when_comp_start" : -1,
         "url" : "http://original.testbed.localhost/ads.rubiconproject.com/ad/11440.js",
         "id" : "r166",
         "comps" : [],
         "download" : {
            "receiveFirst" : 52,
            "len" : 25594,
            "dns" : 0,
            "dnsEnd" : -1,
            "receiveHeadersEnd" : 61,
            "sslEnd" : -1,
            "connectEnd" : 8,
            "connectStart" : 0,
            "id" : "download_22",
            "receivedTime" : "4260.97099999606",
            "sslStart" : -1,
            "dnsStart" : -1,
            "receiveLast" : 4199.97099999606,
            "s_time" : 4045.7000000024,
            "sendEnd" : 9,
            "sendStart" : 8,
            "type" : "application/javascript"
         }
      }
   ],
   "deps" : [
      {
         "a2" : "r1_c2",
         "time" : -1,
         "id" : "dep1",
         "a1" : "comp_7"
      },
      {
         "a2" : "r1_c3",
         "time" : -1,
         "id" : "dep2",
         "a1" : "comp_15"
      },
      {
         "a2" : "r1_c4",
         "time" : -1,
         "id" : "dep3",
         "a1" : "comp_25"
      },
      {
         "a2" : "comp_7",
         "time" : -1,
         "id" : "dep4",
         "a1" : "comp_1"
      },
      {
         "a2" : "comp_15",
         "time" : -1,
         "id" : "dep5",
         "a1" : "comp_7"
      },
      {
         "a2" : "comp_25",
         "time" : -1,
         "id" : "dep6",
         "a1" : "comp_15"
      },
      {
         "a2" : "r28_c2",
         "time" : -1,
         "id" : "dep7",
         "a1" : "comp_68"
      },
      {
         "a2" : "download_22",
         "time" : 4.33300000440977,
         "id" : "dep8",
         "a1" : "r28_c2"
      },
      {
         "a2" : "download_21",
         "time" : -1,
         "id" : "dep9",
         "a1" : "r28_c1"
      },
      {
         "a2" : "download_20",
         "time" : -1,
         "id" : "dep10",
         "a1" : "r1_c3"
      },
      {
         "a2" : "download_19",
         "time" : 7.78200000059019,
         "id" : "dep11",
         "a1" : "r1_c3"
      },
      {
         "a2" : "download_18",
         "time" : -1,
         "id" : "dep12",
         "a1" : "r1_c1"
      },
      {
         "a2" : "download_17",
         "time" : 802.048000012292,
         "id" : "dep13",
         "a1" : "r1_c1"
      },
      {
         "a2" : "download_16",
         "time" : 787.963000009768,
         "id" : "dep14",
         "a1" : "r1_c1"
      },
      {
         "a2" : "download_15",
         "time" : 443.405000012717,
         "id" : "dep15",
         "a1" : "r1_c1"
      },
      {
         "a2" : "download_14",
         "time" : 317.871999999625,
         "id" : "dep16",
         "a1" : "r1_c1"
      },
      {
         "a2" : "download_13",
         "time" : 54.077000007965,
         "id" : "dep17",
         "a1" : "r1_c1"
      },
      {
         "a2" : "download_12",
         "time" : 53.604000000632,
         "id" : "dep18",
         "a1" : "r1_c1"
      },
      {
         "a2" : "download_11",
         "time" : 50.812000001315,
         "id" : "dep19",
         "a1" : "r1_c1"
      },
      {
         "a2" : "download_10",
         "time" : 50.155000004452,
         "id" : "dep20",
         "a1" : "r1_c1"
      },
      {
         "a2" : "download_9",
         "time" : 49.362000005203,
         "id" : "dep21",
         "a1" : "r1_c1"
      },
      {
         "a2" : "download_8",
         "time" : 48.21800001082,
         "id" : "dep22",
         "a1" : "r1_c1"
      },
      {
         "a2" : "download_7",
         "time" : 80.994000003557,
         "id" : "dep23",
         "a1" : "r1_c1"
      },
      {
         "a2" : "download_7",
         "time" : 80.994000003557,
         "id" : "dep24",
         "a1" : "r1_c1"
      },
      {
         "a2" : "download_6",
         "time" : 80.292000013287,
         "id" : "dep25",
         "a1" : "r1_c1"
      },
      {
         "a2" : "download_6",
         "time" : 80.292000013287,
         "id" : "dep26",
         "a1" : "r1_c1"
      },
      {
         "a2" : "download_5",
         "time" : 79.499000014039,
         "id" : "dep27",
         "a1" : "r1_c1"
      },
      {
         "a2" : "download_5",
         "time" : 79.499000014039,
         "id" : "dep28",
         "a1" : "r1_c1"
      },
      {
         "a2" : "download_4",
         "time" : 46.707000001334,
         "id" : "dep29",
         "a1" : "r1_c1"
      },
      {
         "a2" : "download_4",
         "time" : 46.707000001334,
         "id" : "dep30",
         "a1" : "r1_c1"
      },
      {
         "a2" : "download_3",
         "time" : 49.53000000387,
         "id" : "dep31",
         "a1" : "r1_c1"
      },
      {
         "a2" : "download_3",
         "time" : 49.53000000387,
         "id" : "dep32",
         "a1" : "r1_c1"
      },
      {
         "a2" : "download_2",
         "time" : 24.033000008785,
         "id" : "dep33",
         "a1" : "r1_c1"
      },
      {
         "a2" : "download_1",
         "time" : 18.494000003557,
         "id" : "dep34",
         "a1" : "r1_c1"
      }
   ]
}
