{
   "n_download_no_trigger" : 1,
   "start_activity" : "download_0",
   "name" : "original.testbed.localhost_www.halklarindemokratikkongresi.net",
   "load_activity" : -1,
   "objs" : [
      {
         "when_comp_start" : 1,
         "url" : "http://original.testbed.localhost/www.halklarindemokratikkongresi.net",
         "id" : "r1",
         "comps" : [
            {
               "s_time" : 262.312999926507,
               "time" : 0.239999964833999,
               "type" : "evalhtml",
               "id" : "r1_c1",
               "e_time" : 262.552999891341
            }
         ],
         "download" : {
            "receiveFirst" : 151,
            "len" : 325,
            "dns" : 0,
            "dnsEnd" : 0,
            "receiveHeadersEnd" : 246,
            "sslEnd" : -1,
            "connectEnd" : 95,
            "connectStart" : 0,
            "id" : "download_0",
            "receivedTime" : "247.509999899194",
            "sslStart" : -1,
            "dnsStart" : 0,
            "receiveLast" : 1.50999989919364,
            "s_time" : 0,
            "sendEnd" : 95,
            "sendStart" : 95,
            "type" : "text/html"
         }
      }
   ],
   "deps" : []
}
