{
   "n_download_no_trigger" : 1,
   "start_activity" : "download_0",
   "name" : "original.testbed.localhost_www.yahoo.com_",
   "load_activity" : -1,
   "objs" : [
      {
         "when_comp_start" : 1,
         "url" : "http://original.testbed.localhost/www.yahoo.com/",
         "id" : "r1",
         "comps" : [
            {
               "s_time" : 167.420999961905,
               "time" : 793.286000029184,
               "id" : "r1_c1",
               "type" : "evalhtml",
               "e_time" : 960.706999991089
            },
            {
               "s_time" : 1086.02000004612,
               "time" : 52.49499995261,
               "id" : "r1_c2",
               "type" : "evalhtml",
               "e_time" : 1138.51499999873
            },
            {
               "s_time" : 1361.56900005881,
               "time" : 330.42499993462,
               "type" : "evalhtml",
               "id" : "r1_c3",
               "e_time" : 1691.99399999343
            }
         ],
         "download" : {
            "receiveFirst" : 156,
            "len" : 345378,
            "dns" : 0,
            "dnsEnd" : -1,
            "receiveHeadersEnd" : 156,
            "sslEnd" : -1,
            "connectEnd" : 0,
            "connectStart" : 0,
            "id" : "download_0",
            "receivedTime" : "1131.2410000246",
            "sslStart" : -1,
            "dnsStart" : -1,
            "receiveLast" : 975.241000024602,
            "s_time" : 0,
            "sendEnd" : 0,
            "sendStart" : 0,
            "type" : "text/html"
         }
      },
      {
         "when_comp_start" : -1,
         "url" : "http://original.testbed.localhost/s.yimg.com/zz/combo%3F&nn%252Flib%252Fmetro%252Fg%252Fmasthead%252Fmasthead_homerun_0.0.94.css&nn%252Flib%252Fmetro%252Fg%252Fmasthead%252Fmasthead_sayt_0.0.24.css",
         "id" : "r4",
         "comps" : [
            {
               "s_time" : 369.422000017948,
               "time" : 2.26600002497503,
               "type" : 4,
               "id" : "comp_3",
               "e_time" : 371.688000042923
            }
         ],
         "download" : {
            "receiveFirst" : 152,
            "len" : 29779,
            "dns" : 0,
            "dnsEnd" : -1,
            "receiveHeadersEnd" : 153,
            "sslEnd" : -1,
            "connectEnd" : 1,
            "connectStart" : 0,
            "id" : "download_1",
            "receivedTime" : "369.155999971554",
            "sslStart" : -1,
            "dnsStart" : -1,
            "receiveLast" : 216.155999971554,
            "s_time" : 208.163999952376,
            "sendEnd" : 1,
            "sendStart" : 1,
            "type" : "text/css"
         }
      },
      {
         "when_comp_start" : -1,
         "url" : "http://original.testbed.localhost/s.yimg.com/dh/ap/default/140602/gettheapp.jpg",
         "id" : "r6",
         "comps" : [],
         "download" : {
            "receiveFirst" : 158,
            "len" : 4799,
            "dns" : 0,
            "dnsEnd" : -1,
            "receiveHeadersEnd" : 159,
            "sslEnd" : -1,
            "connectEnd" : 1,
            "connectStart" : 0,
            "id" : "download_2",
            "receivedTime" : "377.464000019245",
            "sslStart" : -1,
            "dnsStart" : -1,
            "receiveLast" : 218.464000019245,
            "s_time" : 211.270999978296,
            "sendEnd" : 1,
            "sendStart" : 1,
            "type" : "image/jpeg"
         }
      },
      {
         "when_comp_start" : -1,
         "url" : "http://original.testbed.localhost/s.yimg.com/qq/a/techops/mc/food_bn_imagery_nm_q4_2014_300x250_fpad.jpg",
         "id" : "r7",
         "comps" : [],
         "download" : {
            "receiveFirst" : 166,
            "len" : 27242,
            "dns" : 0,
            "dnsEnd" : -1,
            "receiveHeadersEnd" : 167,
            "sslEnd" : -1,
            "connectEnd" : 1,
            "connectStart" : 0,
            "id" : "download_3",
            "receivedTime" : "573.335999972187",
            "sslStart" : -1,
            "dnsStart" : -1,
            "receiveLast" : 406.335999972187,
            "s_time" : 211.499999975786,
            "sendEnd" : 1,
            "sendStart" : 1,
            "type" : "image/jpeg"
         }
      },
      {
         "when_comp_start" : -1,
         "url" : "http://original.testbed.localhost/s.yimg.com/os/mit/media/m/base/images/transparent-1093278.png",
         "id" : "r8",
         "comps" : [],
         "download" : {
            "receiveFirst" : 189,
            "len" : 98,
            "dns" : 0,
            "dnsEnd" : -1,
            "receiveHeadersEnd" : 190,
            "sslEnd" : -1,
            "connectEnd" : 1,
            "connectStart" : 0,
            "id" : "download_4",
            "receivedTime" : "403.537999955006",
            "sslStart" : -1,
            "dnsStart" : -1,
            "receiveLast" : 213.537999955006,
            "s_time" : 211.985999951139,
            "sendEnd" : 1,
            "sendStart" : 1,
            "type" : "image/png"
         }
      },
      {
         "when_comp_start" : -1,
         "url" : "http://original.testbed.localhost/s.yimg.com/rq/darla/2-8-9/js/g-r-min.js",
         "id" : "r5",
         "comps" : [
            {
               "s_time" : 1043.58000005595,
               "time" : 42.43999999017,
               "type" : 1,
               "id" : "comp_8",
               "e_time" : 1086.02000004612
            }
         ],
         "download" : {
            "receiveFirst" : 193,
            "len" : 158036,
            "dns" : 0,
            "dnsEnd" : -1,
            "receiveHeadersEnd" : 193,
            "sslEnd" : -1,
            "connectEnd" : 0,
            "connectStart" : 0,
            "id" : "download_5",
            "receivedTime" : "1043.5099999886",
            "sslStart" : -1,
            "dnsStart" : -1,
            "receiveLast" : 850.509999988601,
            "s_time" : 210.261999978684,
            "sendEnd" : 0,
            "sendStart" : 0,
            "type" : "application/javascript"
         }
      },
      {
         "when_comp_start" : -1,
         "url" : "https://s.yimg.com/zz/combo?nn/lib/metro/g/yui/widget-base-css_3.8.1.css&nn/lib/metro/g/yui/widget-stack-css_3.8.1.css&nn/lib/metro/g/yui/overlay-css_3.8.1.css&nn/lib/metro/g/ui/base_0.0.11.css&nn/lib/metro/g/ui/helpers_0.0.9.css&nn/lib/metro/g/ui/typography_0.0.4.css&nn/lib/metro/g/theme/default/co",
         "id" : "r2",
         "comps" : [],
         "download" : {
            "receiveFirst" : 205,
            "len" : 51706,
            "dns" : 0,
            "dnsEnd" : 0,
            "receiveHeadersEnd" : 225,
            "sslEnd" : 8,
            "connectEnd" : 9,
            "connectStart" : 0,
            "id" : "download_6",
            "receivedTime" : "620.501999976113",
            "sslStart" : 0,
            "dnsStart" : 0,
            "receiveLast" : 395.501999976113,
            "s_time" : 207.426000037231,
            "sendEnd" : 20,
            "sendStart" : 9,
            "type" : "text/css"
         }
      },
      {
         "when_comp_start" : -1,
         "url" : "http://original.testbed.localhost/s.yimg.com/nn/fp/rsz/091515/images/smush/DSU_635x250_1442296721.jpg",
         "id" : "r9",
         "comps" : [],
         "download" : {
            "receiveFirst" : 151,
            "len" : 54084,
            "dns" : 0,
            "dnsEnd" : -1,
            "receiveHeadersEnd" : 203,
            "sslEnd" : -1,
            "connectEnd" : 52,
            "connectStart" : 0,
            "id" : "download_7",
            "receivedTime" : "985.099000041373",
            "sslStart" : -1,
            "dnsStart" : -1,
            "receiveLast" : 782.099000041373,
            "s_time" : 317.345999996178,
            "sendEnd" : 52,
            "sendStart" : 52,
            "type" : "image/jpeg"
         }
      },
      {
         "when_comp_start" : -1,
         "url" : "http://original.testbed.localhost/s.yimg.com/nn/fp/rsz/091515/images/smush/DSU_120x48_1442296721.jpg",
         "id" : "r10",
         "comps" : [],
         "download" : {
            "receiveFirst" : 164,
            "len" : 4972,
            "dns" : 0,
            "dnsEnd" : -1,
            "receiveHeadersEnd" : 224,
            "sslEnd" : -1,
            "connectEnd" : 60,
            "connectStart" : 0,
            "id" : "download_8",
            "receivedTime" : "549.931999994442",
            "sslStart" : -1,
            "dnsStart" : -1,
            "receiveLast" : 325.931999994442,
            "s_time" : 317.614999949001,
            "sendEnd" : 60,
            "sendStart" : 60,
            "type" : "image/jpeg"
         }
      },
      {
         "when_comp_start" : -1,
         "url" : "http://original.testbed.localhost/s.yimg.com/nn/fp/rsz/091515/images/smush/1HP-jobs_120x48_1442352356.jpg",
         "id" : "r11",
         "comps" : [],
         "download" : {
            "receiveFirst" : 175,
            "len" : 4445,
            "dns" : 0,
            "dnsEnd" : -1,
            "receiveHeadersEnd" : 260,
            "sslEnd" : -1,
            "connectEnd" : 85,
            "connectStart" : 0,
            "id" : "download_9",
            "receivedTime" : "585.577000048943",
            "sslStart" : -1,
            "dnsStart" : -1,
            "receiveLast" : 325.577000048943,
            "s_time" : 317.773999995552,
            "sendEnd" : 85,
            "sendStart" : 85,
            "type" : "image/jpeg"
         }
      },
      {
         "when_comp_start" : -1,
         "url" : "http://original.testbed.localhost/s.yimg.com/nn/fp/rsz/091515/images/smush/plague_120x48_1442331465.jpg",
         "id" : "r12",
         "comps" : [],
         "download" : {
            "receiveFirst" : 150,
            "len" : 4422,
            "dns" : 0,
            "dnsEnd" : -1,
            "receiveHeadersEnd" : 382,
            "sslEnd" : -1,
            "connectEnd" : 232,
            "connectStart" : 0,
            "id" : "download_10",
            "receivedTime" : "705.717999953777",
            "sslStart" : -1,
            "dnsStart" : -1,
            "receiveLast" : 323.717999953777,
            "s_time" : 317.947000032291,
            "sendEnd" : 232,
            "sendStart" : 232,
            "type" : "image/jpeg"
         }
      },
      {
         "when_comp_start" : -1,
         "url" : "http://original.testbed.localhost/s.yimg.com/nn/fp/rsz/091515/images/smush/costcoAP_120x48_1442276918.jpg",
         "id" : "r13",
         "comps" : [],
         "download" : {
            "receiveFirst" : 152,
            "len" : 4769,
            "dns" : 0,
            "dnsEnd" : -1,
            "receiveHeadersEnd" : 407,
            "sslEnd" : -1,
            "connectEnd" : 255,
            "connectStart" : 0,
            "id" : "download_11",
            "receivedTime" : "733.07700001169",
            "sslStart" : -1,
            "dnsStart" : -1,
            "receiveLast" : 326.07700001169,
            "s_time" : 318.150999955833,
            "sendEnd" : 255,
            "sendStart" : 255,
            "type" : "image/jpeg"
         }
      },
      {
         "when_comp_start" : -1,
         "url" : "http://original.testbed.localhost/s.yimg.com/nn/fp/rsz/091415/images/smush/Porsche-Mission-E2ipad_120x48_1442273077.gif.jpg",
         "id" : "r14",
         "comps" : [],
         "download" : {
            "receiveFirst" : 150,
            "len" : 3494,
            "dns" : 0,
            "dnsEnd" : -1,
            "receiveHeadersEnd" : 417,
            "sslEnd" : -1,
            "connectEnd" : 266,
            "connectStart" : 0,
            "id" : "download_12",
            "receivedTime" : "739.174999995157",
            "sslStart" : -1,
            "dnsStart" : -1,
            "receiveLast" : 322.174999995157,
            "s_time" : 318.323999992572,
            "sendEnd" : 267,
            "sendStart" : 266,
            "type" : "image/jpeg"
         }
      },
      {
         "when_comp_start" : -1,
         "url" : "http://original.testbed.localhost/s.yimg.com/ts/api/res/1.2/GSLnNEgA_pkpIOH3.C9wWA--/YXBwaWQ9eWhvbWVydW47cT00NTtzbT0xO2ZpPWZpbGw7dz0xNjQ7aD0xNjQ7cHlvZmY9MA--/http:/media.zenfs.com/en-US/homerun/inside_edition/8d3bf6bbfe4bb9f442369e697fc91b9d.cf.jpg",
         "id" : "r15",
         "comps" : [],
         "download" : {
            "receiveFirst" : 150,
            "len" : 3770,
            "dns" : 0,
            "dnsEnd" : -1,
            "receiveHeadersEnd" : 537,
            "sslEnd" : -1,
            "connectEnd" : 386,
            "connectStart" : 0,
            "id" : "download_13",
            "receivedTime" : "858.85399999097",
            "sslStart" : -1,
            "dnsStart" : -1,
            "receiveLast" : 321.85399999097,
            "s_time" : 318.502999958582,
            "sendEnd" : 387,
            "sendStart" : 386,
            "type" : "image/jpeg"
         }
      },
      {
         "when_comp_start" : -1,
         "url" : "http://original.testbed.localhost/s.yimg.com/ts/api/res/1.2/DGJrqvMZ6iBxOmM65tJdmg--/YXBwaWQ9eWhvbWVydW47cT00NTtzbT0xO2ZpPWZpbGw7dz0xNjQ7aD0xNjQ7cHlvZmY9MA--/http:/globalfinance.zenfs.com/en_us/Finance/US_AFTP_SILICONALLEY_H_LIVE/McDonalds_just_launched_a_burger-784f10b98a462ad2fbdf635559dc0a82.cf.j",
         "id" : "r16",
         "comps" : [],
         "download" : {
            "receiveFirst" : 151,
            "len" : 3290,
            "dns" : 0,
            "dnsEnd" : -1,
            "receiveHeadersEnd" : 506,
            "sslEnd" : -1,
            "connectEnd" : 355,
            "connectStart" : 0,
            "id" : "download_14",
            "receivedTime" : "886.104000033811",
            "sslStart" : -1,
            "dnsStart" : -1,
            "receiveLast" : 380.104000033811,
            "s_time" : 377.518999972381,
            "sendEnd" : 355,
            "sendStart" : 355,
            "type" : "image/jpeg"
         }
      },
      {
         "when_comp_start" : -1,
         "url" : "http://original.testbed.localhost/s.yimg.com/ts/api/res/1.2/XNejGMTPWq1rt.52i5KC1w--/YXBwaWQ9eWhvbWVydW47cT00NTtzbT0xO2ZpPWZpbGw7dz0xNjQ7aD0xNjQ7cHlvZmY9MA--/http:/media.zenfs.com/en-US/homerun/inside_edition/1b08ea6263f1c8a6cb54d5bbf256bb58.cf.jpg",
         "id" : "r17",
         "comps" : [],
         "download" : {
            "receiveFirst" : 151,
            "len" : 3242,
            "dns" : 0,
            "dnsEnd" : -1,
            "receiveHeadersEnd" : 486,
            "sslEnd" : -1,
            "connectEnd" : 335,
            "connectStart" : 0,
            "id" : "download_15",
            "receivedTime" : "892.151999985799",
            "sslStart" : -1,
            "dnsStart" : -1,
            "receiveLast" : 406.151999985799,
            "s_time" : 403.425000025891,
            "sendEnd" : 335,
            "sendStart" : 335,
            "type" : "image/jpeg"
         }
      },
      {
         "when_comp_start" : -1,
         "url" : "https://s.yimg.com/zz/combo?nn/lib/metro/g/fp/fp_500_0.0.140.css&nn/lib/metro/g/universalheader/universalheader_0.0.43.css&nn/lib/metro/g/eyebrowpromo/eyebrowpromo_0.0.3.css&nn/lib/metro/g/tabbar/tabbar_0.0.164.css&nn/lib/metro/g/login/login_0.0.75.css&nn/lib/metro/g/mail/mail_0.0.61.css&nn/lib/metr",
         "id" : "r3",
         "comps" : [],
         "download" : {
            "receiveFirst" : 703,
            "len" : 141799,
            "dns" : 0,
            "dnsEnd" : -1,
            "receiveHeadersEnd" : 723,
            "sslEnd" : -1,
            "connectEnd" : 8,
            "connectStart" : 0,
            "id" : "download_16",
            "receivedTime" : "941.275999997742",
            "sslStart" : -1,
            "dnsStart" : -1,
            "receiveLast" : 218.275999997742,
            "s_time" : 207.967999973334,
            "sendEnd" : 20,
            "sendStart" : 8,
            "type" : "text/css"
         }
      },
      {
         "when_comp_start" : -1,
         "url" : "http://original.testbed.localhost/s.yimg.com/ts/api/res/1.2/XSH3J1ZhXq7yevjGeCWw0g--/YXBwaWQ9eWhvbWVydW47cT04NTtzbT0xO2ZpPWZpbGw7dz04MjtoPTgyO3B5b2ZmPTA-/http:/l.yimg.com/os/publish-images/homes/2015-09-15/02ce79b0-5b77-11e5-adce-93f9c307a6fd_iStock_000036427434_Small.jpg.cf.jpg",
         "id" : "r18",
         "comps" : [],
         "download" : {
            "receiveFirst" : 150,
            "len" : 2658,
            "dns" : 0,
            "dnsEnd" : -1,
            "receiveHeadersEnd" : 459,
            "sslEnd" : -1,
            "connectEnd" : 309,
            "connectStart" : 0,
            "id" : "download_17",
            "receivedTime" : "1011.93699997384",
            "sslStart" : -1,
            "dnsStart" : -1,
            "receiveLast" : 552.936999973841,
            "s_time" : 549.987999955192,
            "sendEnd" : 309,
            "sendStart" : 309,
            "type" : "image/jpeg"
         }
      },
      {
         "when_comp_start" : -1,
         "url" : "http://original.testbed.localhost/s.yimg.com/av/curveball/ads/pr/RESIZE/82x82/9fc12d855ae95f4ca4f3395b207db5d2.jpeg",
         "id" : "r19",
         "comps" : [],
         "download" : {
            "receiveFirst" : 151,
            "len" : 2510,
            "dns" : 0,
            "dnsEnd" : -1,
            "receiveHeadersEnd" : 463,
            "sslEnd" : -1,
            "connectEnd" : 312,
            "connectStart" : 0,
            "id" : "download_18",
            "receivedTime" : "1037.38500003237",
            "sslStart" : -1,
            "dnsStart" : -1,
            "receiveLast" : 574.385000032373,
            "s_time" : 573.359000030905,
            "sendEnd" : 312,
            "sendStart" : 312,
            "type" : "image/jpeg"
         }
      },
      {
         "when_comp_start" : -1,
         "url" : "http://original.testbed.localhost/s.yimg.com/dh/ap/default/141209/firefox_logo_2.png",
         "id" : "r20",
         "comps" : [],
         "download" : {
            "receiveFirst" : 150,
            "len" : 839,
            "dns" : 0,
            "dnsEnd" : -1,
            "receiveHeadersEnd" : 151,
            "sslEnd" : -1,
            "connectEnd" : 1,
            "connectStart" : 0,
            "id" : "download_19",
            "receivedTime" : "1138.64500005729",
            "sslStart" : -1,
            "dnsStart" : -1,
            "receiveLast" : 987.645000057295,
            "s_time" : 959.579000016674,
            "sendEnd" : 1,
            "sendStart" : 1,
            "type" : "image/png"
         }
      },
      {
         "when_comp_start" : -1,
         "url" : "https://s.yimg.com/dh/ap/default/150720/pc_icons_btns_sprite_0720_330pm.png",
         "id" : "r21",
         "comps" : [],
         "download" : {
            "receiveFirst" : 164,
            "len" : 26739,
            "dns" : 0,
            "dnsEnd" : -1,
            "receiveHeadersEnd" : 165,
            "sslEnd" : -1,
            "connectEnd" : 1,
            "connectStart" : 0,
            "id" : "download_20",
            "receivedTime" : "1381.715000025",
            "sslStart" : -1,
            "dnsStart" : -1,
            "receiveLast" : 1216.715000025,
            "s_time" : 959.898000000976,
            "sendEnd" : 1,
            "sendStart" : 1,
            "type" : "image/png"
         }
      },
      {
         "when_comp_start" : -1,
         "url" : "http://original.testbed.localhost/s.yimg.com/rz/l/yahoo_en-US_f_p_142x37.png",
         "id" : "r22",
         "comps" : [],
         "download" : {
            "receiveFirst" : 159,
            "len" : 1864,
            "dns" : 0,
            "dnsEnd" : -1,
            "receiveHeadersEnd" : 183,
            "sslEnd" : -1,
            "connectEnd" : 24,
            "connectStart" : 0,
            "id" : "download_21",
            "receivedTime" : "1208.36399996188",
            "sslStart" : -1,
            "dnsStart" : -1,
            "receiveLast" : 1025.36399996188,
            "s_time" : 960.706999991089,
            "sendEnd" : 24,
            "sendStart" : 24,
            "type" : "image/png"
         }
      },
      {
         "when_comp_start" : -1,
         "url" : "http://original.testbed.localhost/s.yimg.com/ts/api/res/1.2/VFhJfb3h5u3zOmOd57w1YA--/YXBwaWQ9eWhvbWVydW47cT04NTtzbT0xO3c9NDA7aD00MA--/http:/l.yimg.com/os/publish-images/news/2014-08-08/a02b5580-1f40-11e4-aeb1-9931dcc5b07e_Katie_Couric_40x40.jpg",
         "id" : "r23",
         "comps" : [],
         "download" : {
            "receiveFirst" : 151,
            "len" : 1079,
            "dns" : 0,
            "dnsEnd" : -1,
            "receiveHeadersEnd" : 152,
            "sslEnd" : -1,
            "connectEnd" : 1,
            "connectStart" : 0,
            "id" : "download_22",
            "receivedTime" : "1258.58000002336",
            "sslStart" : -1,
            "dnsStart" : -1,
            "receiveLast" : 1106.58000002336,
            "s_time" : 1105.18399998546,
            "sendEnd" : 1,
            "sendStart" : 1,
            "type" : "image/jpeg"
         }
      },
      {
         "when_comp_start" : -1,
         "url" : "http://original.testbed.localhost/s.yimg.com/ts/api/res/1.2/fpogpGZdsH9T2A_ojuS1dQ--/YXBwaWQ9eWhvbWVydW47cT04NTtzbT0xO3c9NDA7aD00MA--/http:/l.yimg.com/os/publish-images/news/2014-08-13/536890b0-2313-11e4-9e88-172c67c10f31_Dan_Wetzel_40x40.jpg",
         "id" : "r25",
         "comps" : [],
         "download" : {
            "receiveFirst" : 151,
            "len" : 974,
            "dns" : 0,
            "dnsEnd" : -1,
            "receiveHeadersEnd" : 152,
            "sslEnd" : -1,
            "connectEnd" : 1,
            "connectStart" : 0,
            "id" : "download_23",
            "receivedTime" : "1258.87000001967",
            "sslStart" : -1,
            "dnsStart" : -1,
            "receiveLast" : 1106.87000001967,
            "s_time" : 1105.71799997706,
            "sendEnd" : 1,
            "sendStart" : 1,
            "type" : "image/jpeg"
         }
      },
      {
         "when_comp_start" : -1,
         "url" : "http://original.testbed.localhost/s.yimg.com/ts/api/res/1.2/o7.q13n7tbvII1FAYpC2Ng--/YXBwaWQ9eWhvbWVydW47cT04NTtzbT0xO3c9NDA7aD00MA--/http:/l.yimg.com/os/publish-images/news/2014-08-08/a057e3c0-1f40-11e4-aa8c-fb8e96e4a052_BobbiBrown_40x40-tight.jpg",
         "id" : "r24",
         "comps" : [],
         "download" : {
            "receiveFirst" : 152,
            "len" : 1037,
            "dns" : 0,
            "dnsEnd" : -1,
            "receiveHeadersEnd" : 153,
            "sslEnd" : -1,
            "connectEnd" : 1,
            "connectStart" : 0,
            "id" : "download_24",
            "receivedTime" : "1259.96699999087",
            "sslStart" : -1,
            "dnsStart" : -1,
            "receiveLast" : 1106.96699999087,
            "s_time" : 1105.44700000901,
            "sendEnd" : 1,
            "sendStart" : 1,
            "type" : "image/jpeg"
         }
      },
      {
         "when_comp_start" : -1,
         "url" : "http://original.testbed.localhost/s.yimg.com/ts/api/res/1.2/ZbMv2BF3QftE.qMS0w7u8w--/YXBwaWQ9eWhvbWVydW47Zmk9Y3JvcA--/http:/l.yimg.com/ts/api/res/1.2/Wd.ZCegmTftIlkwNwjcq9Q--/YXBwaWQ9eWhvbWVydW47cT04NTtzbT0xO3c9MzgwO2g9Mzgw/http:/l.yimg.com/os/publish-images/frontpage/2015-09-15/9e9759d0-5bb7-11e5-9",
         "id" : "r26",
         "comps" : [],
         "download" : {
            "receiveFirst" : 154,
            "len" : 23208,
            "dns" : 0,
            "dnsEnd" : -1,
            "receiveHeadersEnd" : 155,
            "sslEnd" : -1,
            "connectEnd" : 1,
            "connectStart" : 0,
            "id" : "download_25",
            "receivedTime" : "1423.71899995487",
            "sslStart" : -1,
            "dnsStart" : -1,
            "receiveLast" : 1268.71899995487,
            "s_time" : 1106.20899999049,
            "sendEnd" : 1,
            "sendStart" : 1,
            "type" : "image/jpeg"
         }
      },
      {
         "when_comp_start" : -1,
         "url" : "http://original.testbed.localhost/s.yimg.com/ts/api/res/1.2/rB2iNtq0CRodC1fx1zBW0A--/YXBwaWQ9eWhvbWVydW47cT00MDtzbT0xO3c9NjAwO2g9MTI1NA--/https:/s.yimg.com/av/moneyball/ads/1434735464995-4376.jpg",
         "id" : "r27",
         "comps" : [],
         "download" : {
            "receiveFirst" : 165,
            "len" : 20305,
            "dns" : 0,
            "dnsEnd" : -1,
            "receiveHeadersEnd" : 165,
            "sslEnd" : -1,
            "connectEnd" : 0,
            "connectStart" : 0,
            "id" : "download_26",
            "receivedTime" : "1443.08600004297",
            "sslStart" : -1,
            "dnsStart" : -1,
            "receiveLast" : 1278.08600004297,
            "s_time" : 1120.94399996568,
            "sendEnd" : 0,
            "sendStart" : 0,
            "type" : "image/jpeg"
         }
      },
      {
         "when_comp_start" : -1,
         "url" : "http://original.testbed.localhost/s.yimg.com/zz/combo%3Fnn%252Flib%252Fmetro%252Fg%252Fyui%252Fyui-base_3.8.4.js",
         "id" : "r28",
         "comps" : [
            {
               "s_time" : 1356.2170000514,
               "time" : 5.35200000740997,
               "type" : 1,
               "id" : "comp_76",
               "e_time" : 1361.56900005881
            }
         ],
         "download" : {
            "receiveFirst" : 188,
            "len" : 36658,
            "dns" : 0,
            "dnsEnd" : -1,
            "receiveHeadersEnd" : 196,
            "sslEnd" : -1,
            "connectEnd" : 8,
            "connectStart" : 0,
            "id" : "download_27",
            "receivedTime" : "1356.10500001349",
            "sslStart" : -1,
            "dnsStart" : -1,
            "receiveLast" : 1160.10500001349,
            "s_time" : 1138.51499999873,
            "sendEnd" : 8,
            "sendStart" : 8,
            "type" : "application/javascript"
         }
      },
      {
         "when_comp_start" : -1,
         "url" : "https://s.yimg.com/lq/lib/3pm/cs_0.2.js",
         "id" : "r29",
         "comps" : [
            {
               "s_time" : 1530.449999962,
               "time" : 3.33300000057011,
               "type" : null,
               "id" : "comp_88",
               "e_time" : 1533.78299996257
            }
         ],
         "download" : {
            "receiveFirst" : 162,
            "len" : 1420,
            "dns" : 0,
            "dnsEnd" : -1,
            "receiveHeadersEnd" : 163,
            "sslEnd" : -1,
            "connectEnd" : 0,
            "connectStart" : 0,
            "id" : "download_28",
            "receivedTime" : "1529.87600001507",
            "sslStart" : -1,
            "dnsStart" : -1,
            "receiveLast" : 1366.87600001507,
            "s_time" : 1365.3270000359,
            "sendEnd" : 1,
            "sendStart" : 0,
            "type" : "application/javascript"
         }
      },
      {
         "when_comp_start" : -1,
         "url" : "http://b.scorecardresearch.com/p2?c1=2&c2=7241469&c4=https%253A%252F%252Fwww.yahoo.com&c5=2023538075&ns__t=1442392044293&ns_c=UTF-8",
         "id" : "r30",
         "comps" : [],
         "download" : {
            "receiveFirst" : 155,
            "len" : 43,
            "dns" : 0,
            "dnsEnd" : -1,
            "receiveHeadersEnd" : 155,
            "sslEnd" : -1,
            "connectEnd" : 0,
            "connectStart" : 0,
            "id" : "download_29",
            "receivedTime" : "1848.16299995873",
            "sslStart" : -1,
            "dnsStart" : -1,
            "receiveLast" : 1693.16299995873,
            "s_time" : 1691.99399999343,
            "sendEnd" : 0,
            "sendStart" : 0,
            "type" : "image/gif"
         }
      }
   ],
   "deps" : [
      {
         "a2" : "r1_c2",
         "time" : -1,
         "id" : "dep1",
         "a1" : "comp_8"
      },
      {
         "a2" : "r1_c3",
         "time" : -1,
         "id" : "dep2",
         "a1" : "comp_76"
      },
      {
         "a2" : "download_29",
         "time" : -1,
         "id" : "dep3",
         "a1" : "r1_c3"
      },
      {
         "a2" : "download_28",
         "time" : 3.75799997709009,
         "id" : "dep4",
         "a1" : "r1_c3"
      },
      {
         "a2" : "download_27",
         "time" : -1,
         "id" : "dep5",
         "a1" : "r1_c2"
      },
      {
         "a2" : "download_26",
         "time" : 34.9239999195599,
         "id" : "dep6",
         "a1" : "r1_c2"
      },
      {
         "a2" : "download_25",
         "time" : 20.1889999443699,
         "id" : "dep7",
         "a1" : "r1_c2"
      },
      {
         "a2" : "download_24",
         "time" : 19.42699996289,
         "id" : "dep8",
         "a1" : "r1_c2"
      },
      {
         "a2" : "download_23",
         "time" : 19.6979999309399,
         "id" : "dep9",
         "a1" : "r1_c2"
      },
      {
         "a2" : "download_22",
         "time" : 19.1639999393401,
         "id" : "dep10",
         "a1" : "r1_c2"
      },
      {
         "a2" : "download_21",
         "time" : -1,
         "id" : "dep11",
         "a1" : "r1_c1"
      },
      {
         "a2" : "download_20",
         "time" : 792.477000039071,
         "id" : "dep12",
         "a1" : "r1_c1"
      },
      {
         "a2" : "download_19",
         "time" : 792.158000054769,
         "id" : "dep13",
         "a1" : "r1_c1"
      },
      {
         "a2" : "download_18",
         "time" : 405.938000069,
         "id" : "dep14",
         "a1" : "r1_c1"
      },
      {
         "a2" : "download_17",
         "time" : 382.566999993287,
         "id" : "dep15",
         "a1" : "r1_c1"
      },
      {
         "a2" : "download_16",
         "time" : 40.547000011429,
         "id" : "dep16",
         "a1" : "r1_c1"
      },
      {
         "a2" : "download_15",
         "time" : 236.004000063986,
         "id" : "dep17",
         "a1" : "r1_c1"
      },
      {
         "a2" : "download_14",
         "time" : 210.098000010476,
         "id" : "dep18",
         "a1" : "r1_c1"
      },
      {
         "a2" : "download_13",
         "time" : 151.081999996677,
         "id" : "dep19",
         "a1" : "r1_c1"
      },
      {
         "a2" : "download_13",
         "time" : 151.081999996677,
         "id" : "dep20",
         "a1" : "r1_c1"
      },
      {
         "a2" : "download_12",
         "time" : 150.903000030667,
         "id" : "dep21",
         "a1" : "r1_c1"
      },
      {
         "a2" : "download_12",
         "time" : 150.903000030667,
         "id" : "dep22",
         "a1" : "r1_c1"
      },
      {
         "a2" : "download_11",
         "time" : 150.729999993928,
         "id" : "dep23",
         "a1" : "r1_c1"
      },
      {
         "a2" : "download_11",
         "time" : 150.729999993928,
         "id" : "dep24",
         "a1" : "r1_c1"
      },
      {
         "a2" : "download_10",
         "time" : 150.526000070386,
         "id" : "dep25",
         "a1" : "r1_c1"
      },
      {
         "a2" : "download_10",
         "time" : 150.526000070386,
         "id" : "dep26",
         "a1" : "r1_c1"
      },
      {
         "a2" : "download_9",
         "time" : 150.353000033647,
         "id" : "dep27",
         "a1" : "r1_c1"
      },
      {
         "a2" : "download_9",
         "time" : 150.353000033647,
         "id" : "dep28",
         "a1" : "r1_c1"
      },
      {
         "a2" : "download_8",
         "time" : 150.193999987096,
         "id" : "dep29",
         "a1" : "r1_c1"
      },
      {
         "a2" : "download_8",
         "time" : 150.193999987096,
         "id" : "dep30",
         "a1" : "r1_c1"
      },
      {
         "a2" : "download_7",
         "time" : 149.925000034273,
         "id" : "dep31",
         "a1" : "r1_c1"
      },
      {
         "a2" : "download_7",
         "time" : 149.925000034273,
         "id" : "dep32",
         "a1" : "r1_c1"
      },
      {
         "a2" : "download_6",
         "time" : 40.005000075326,
         "id" : "dep33",
         "a1" : "r1_c1"
      },
      {
         "a2" : "download_5",
         "time" : 42.841000016779,
         "id" : "dep34",
         "a1" : "r1_c1"
      },
      {
         "a2" : "download_5",
         "time" : 42.841000016779,
         "id" : "dep35",
         "a1" : "r1_c1"
      },
      {
         "a2" : "download_4",
         "time" : 44.564999989234,
         "id" : "dep36",
         "a1" : "r1_c1"
      },
      {
         "a2" : "download_4",
         "time" : 44.564999989234,
         "id" : "dep37",
         "a1" : "r1_c1"
      },
      {
         "a2" : "download_3",
         "time" : 44.079000013881,
         "id" : "dep38",
         "a1" : "r1_c1"
      },
      {
         "a2" : "download_3",
         "time" : 44.079000013881,
         "id" : "dep39",
         "a1" : "r1_c1"
      },
      {
         "a2" : "download_2",
         "time" : 43.850000016391,
         "id" : "dep40",
         "a1" : "r1_c1"
      },
      {
         "a2" : "download_2",
         "time" : 43.850000016391,
         "id" : "dep41",
         "a1" : "r1_c1"
      },
      {
         "a2" : "download_1",
         "time" : 40.742999990471,
         "id" : "dep42",
         "a1" : "r1_c1"
      }
   ]
}
