{
   "n_download_no_trigger" : 1,
   "start_activity" : "download_0",
   "name" : "original.testbed.localhost_www.facebook.com_",
   "load_activity" : -1,
   "objs" : [
      {
         "when_comp_start" : 1,
         "url" : "http://original.testbed.localhost/www.facebook.com/",
         "id" : "r1",
         "comps" : [
            {
               "s_time" : 162.829000037163,
               "time" : 6.274999934249,
               "id" : "r1_c1",
               "type" : "evalhtml",
               "e_time" : 169.103999971412
            },
            {
               "s_time" : 1268.20799999405,
               "time" : 68.6120000900701,
               "type" : "evalhtml",
               "id" : "r1_c2",
               "e_time" : 1336.82000008412
            }
         ],
         "download" : {
            "receiveFirst" : 152,
            "len" : 28160,
            "dns" : 0,
            "dnsEnd" : -1,
            "receiveHeadersEnd" : 152,
            "sslEnd" : -1,
            "connectEnd" : 0,
            "connectStart" : 0,
            "id" : "download_0",
            "receivedTime" : "211.867999983951",
            "sslStart" : -1,
            "dnsStart" : -1,
            "receiveLast" : 59.8679999839514,
            "s_time" : 0,
            "sendEnd" : 0,
            "sendStart" : 0,
            "type" : "text/html"
         }
      },
      {
         "when_comp_start" : -1,
         "url" : "http://original.testbed.localhost/static.xx.fbcdn.net/rsrc.php/v2/yT/r/iPNrrmqO8qj.css",
         "id" : "r2",
         "comps" : [
            {
               "s_time" : 401.201999979094,
               "time" : 0.222000060602966,
               "type" : 4,
               "id" : "comp_2",
               "e_time" : 401.424000039697
            }
         ],
         "download" : {
            "receiveFirst" : 230,
            "len" : 1028,
            "dns" : 0,
            "dnsEnd" : -1,
            "receiveHeadersEnd" : 232,
            "sslEnd" : -1,
            "connectEnd" : 2,
            "connectStart" : 0,
            "id" : "download_1",
            "receivedTime" : "401.13300003577",
            "sslStart" : -1,
            "dnsStart" : -1,
            "receiveLast" : 169.13300003577,
            "s_time" : 168.086000019684,
            "sendEnd" : 2,
            "sendStart" : 2,
            "type" : "text/css"
         }
      },
      {
         "when_comp_start" : -1,
         "url" : "http://original.testbed.localhost/static.xx.fbcdn.net/rsrc.php/v2/yw/r/_lMO8Nw_OCu.css",
         "id" : "r5",
         "comps" : [
            {
               "s_time" : 444.070000085048,
               "time" : 1.75499997567402,
               "type" : 4,
               "id" : "comp_3",
               "e_time" : 445.825000060722
            }
         ],
         "download" : {
            "receiveFirst" : 237,
            "len" : 20292,
            "dns" : 0,
            "dnsEnd" : -1,
            "receiveHeadersEnd" : 238,
            "sslEnd" : -1,
            "connectEnd" : 1,
            "connectStart" : 0,
            "id" : "download_2",
            "receivedTime" : "443.975000060163",
            "sslStart" : -1,
            "dnsStart" : -1,
            "receiveLast" : 205.975000060163,
            "s_time" : 168.869000044651,
            "sendEnd" : 1,
            "sendStart" : 1,
            "type" : "text/css"
         }
      },
      {
         "when_comp_start" : -1,
         "url" : "http://original.testbed.localhost/static.xx.fbcdn.net/rsrc.php/v2/yK/r/ajUsUqMYH_J.css",
         "id" : "r3",
         "comps" : [
            {
               "s_time" : 525.987999979407,
               "time" : 3.54200007859595,
               "type" : 4,
               "id" : "comp_4",
               "e_time" : 529.530000058003
            }
         ],
         "download" : {
            "receiveFirst" : 283,
            "len" : 43464,
            "dns" : 0,
            "dnsEnd" : -1,
            "receiveHeadersEnd" : 284,
            "sslEnd" : -1,
            "connectEnd" : 1,
            "connectStart" : 0,
            "id" : "download_3",
            "receivedTime" : "525.85800003726",
            "sslStart" : -1,
            "dnsStart" : -1,
            "receiveLast" : 241.85800003726,
            "s_time" : 168.364000041038,
            "sendEnd" : 1,
            "sendStart" : 1,
            "type" : "text/css"
         }
      },
      {
         "when_comp_start" : -1,
         "url" : "http://original.testbed.localhost/static.xx.fbcdn.net/rsrc.php/v2/y3/r/XRI3mrPJBu7.css",
         "id" : "r4",
         "comps" : [
            {
               "s_time" : 1157.84300002269,
               "time" : 20.65199997742,
               "type" : 4,
               "id" : "comp_5",
               "e_time" : 1178.49500000011
            }
         ],
         "download" : {
            "receiveFirst" : 363,
            "len" : 239542,
            "dns" : 0,
            "dnsEnd" : -1,
            "receiveHeadersEnd" : 364,
            "sslEnd" : -1,
            "connectEnd" : 1,
            "connectStart" : 0,
            "id" : "download_4",
            "receivedTime" : "1157.76800003368",
            "sslStart" : -1,
            "dnsStart" : -1,
            "receiveLast" : 793.768000033684,
            "s_time" : 168.621000018902,
            "sendEnd" : 1,
            "sendStart" : 1,
            "type" : "text/css"
         }
      },
      {
         "when_comp_start" : -1,
         "url" : "http://original.testbed.localhost/static.xx.fbcdn.net/rsrc.php/v2/yD/r/QnddtCG_ZpH.js",
         "id" : "r6",
         "comps" : [
            {
               "s_time" : 1243.27099998482,
               "time" : 24.9370000092299,
               "type" : 1,
               "id" : "comp_6",
               "e_time" : 1268.20799999405
            }
         ],
         "download" : {
            "receiveFirst" : 295,
            "len" : 133494,
            "dns" : 0,
            "dnsEnd" : 0,
            "receiveHeadersEnd" : 523,
            "sslEnd" : -1,
            "connectEnd" : 228,
            "connectStart" : 0,
            "id" : "download_5",
            "receivedTime" : "1243.20200004149",
            "sslStart" : -1,
            "dnsStart" : 0,
            "receiveLast" : 720.202000041492,
            "s_time" : 169.103999971412,
            "sendEnd" : 228,
            "sendStart" : 228,
            "type" : "application/javascript"
         }
      },
      {
         "when_comp_start" : -1,
         "url" : "http://original.testbed.localhost/static.xx.fbcdn.net/rsrc.php/v2/yr/r/kbZW2YD9QR-.png",
         "id" : "r7",
         "comps" : [],
         "download" : {
            "receiveFirst" : 151,
            "len" : 25941,
            "dns" : 0,
            "dnsEnd" : -1,
            "receiveHeadersEnd" : 151,
            "sslEnd" : -1,
            "connectEnd" : 0,
            "connectStart" : 0,
            "id" : "download_6",
            "receivedTime" : "1888.62400001381",
            "sslStart" : -1,
            "dnsStart" : -1,
            "receiveLast" : 1737.62400001381,
            "s_time" : 1309.40600007307,
            "sendEnd" : 0,
            "sendStart" : 0,
            "type" : "image/png"
         }
      },
      {
         "when_comp_start" : -1,
         "url" : "http://original.testbed.localhost/static.xx.fbcdn.net/rsrc.php/v2/yS/r/AUXaw2NWkxh.png",
         "id" : "r8",
         "comps" : [],
         "download" : {
            "receiveFirst" : 269,
            "len" : 6312,
            "dns" : 0,
            "dnsEnd" : -1,
            "receiveHeadersEnd" : 269,
            "sslEnd" : -1,
            "connectEnd" : 0,
            "connectStart" : 0,
            "id" : "download_7",
            "receivedTime" : "1629.53899998683",
            "sslStart" : -1,
            "dnsStart" : -1,
            "receiveLast" : 1360.53899998683,
            "s_time" : 1311.75500003155,
            "sendEnd" : 0,
            "sendStart" : 0,
            "type" : "image/png"
         }
      },
      {
         "when_comp_start" : -1,
         "url" : "http://original.testbed.localhost/static.xx.fbcdn.net/rsrc.php/v2/yE/r/B8C3hdxyCCg.png",
         "id" : "r9",
         "comps" : [],
         "download" : {
            "receiveFirst" : 323,
            "len" : 30405,
            "dns" : 0,
            "dnsEnd" : -1,
            "receiveHeadersEnd" : 323,
            "sslEnd" : -1,
            "connectEnd" : 0,
            "connectStart" : 0,
            "id" : "download_8",
            "receivedTime" : "2163.64899999462",
            "sslStart" : -1,
            "dnsStart" : -1,
            "receiveLast" : 1840.64899999462,
            "s_time" : 1312.76900006924,
            "sendEnd" : 0,
            "sendStart" : 0,
            "type" : "image/png"
         }
      },
      {
         "when_comp_start" : -1,
         "url" : "http://original.testbed.localhost/static.xx.fbcdn.net/rsrc.php/v2/yS/r/cXXhX4eMjTF.png",
         "id" : "r10",
         "comps" : [],
         "download" : {
            "receiveFirst" : 443,
            "len" : 4303,
            "dns" : 0,
            "dnsEnd" : -1,
            "receiveHeadersEnd" : 443,
            "sslEnd" : -1,
            "connectEnd" : 0,
            "connectStart" : 0,
            "id" : "download_9",
            "receivedTime" : "1794.01299997699",
            "sslStart" : -1,
            "dnsStart" : -1,
            "receiveLast" : 1351.01299997699,
            "s_time" : 1313.98900004569,
            "sendEnd" : 0,
            "sendStart" : 0,
            "type" : "image/png"
         }
      },
      {
         "when_comp_start" : -1,
         "url" : "https://static.xx.fbcdn.net/rsrc.php/v2/yO/r/hiWQlvAyz5m.js",
         "id" : "r18",
         "comps" : [
            {
               "s_time" : 2191.00400002208,
               "time" : 0.773000065230008,
               "type" : null,
               "id" : "comp_21",
               "e_time" : 2191.77700008731
            }
         ],
         "download" : {
            "receiveFirst" : 159,
            "len" : 924,
            "dns" : 0,
            "dnsEnd" : -1,
            "receiveHeadersEnd" : 853,
            "sslEnd" : -1,
            "connectEnd" : 693,
            "connectStart" : 0,
            "id" : "download_10",
            "receivedTime" : "2190.84400008433",
            "sslStart" : -1,
            "dnsStart" : -1,
            "receiveLast" : 1337.84400008433,
            "s_time" : 1336.27400000114,
            "sendEnd" : 694,
            "sendStart" : 693,
            "type" : "application/x-javascript"
         }
      },
      {
         "when_comp_start" : -1,
         "url" : "https://static.xx.fbcdn.net/rsrc.php/v2/yv/r/ftze9GV97xi.js",
         "id" : "r11",
         "comps" : [
            {
               "s_time" : 2344.88300001249,
               "time" : 2.62200005818022,
               "type" : null,
               "id" : "comp_25",
               "e_time" : 2347.50500007067
            }
         ],
         "download" : {
            "receiveFirst" : 178,
            "len" : 14202,
            "dns" : 0,
            "dnsEnd" : 3,
            "receiveHeadersEnd" : 873,
            "sslEnd" : 694,
            "connectEnd" : 694,
            "connectStart" : 0,
            "id" : "download_11",
            "receivedTime" : "2344.72200006712",
            "sslStart" : 463,
            "dnsStart" : 3,
            "receiveLast" : 1471.72200006712,
            "s_time" : 1334.31000006385,
            "sendEnd" : 695,
            "sendStart" : 694,
            "type" : "application/x-javascript"
         }
      },
      {
         "when_comp_start" : -1,
         "url" : "https://static.xx.fbcdn.net/rsrc.php/v2/yI/r/7Pu0z9u7BtE.js",
         "id" : "r17",
         "comps" : [
            {
               "s_time" : 2402.85299997777,
               "time" : 3.87200003023963,
               "type" : null,
               "id" : "comp_29",
               "e_time" : 2406.72500000801
            }
         ],
         "download" : {
            "receiveFirst" : 177,
            "len" : 33386,
            "dns" : 0,
            "dnsEnd" : -1,
            "receiveHeadersEnd" : 871,
            "sslEnd" : -1,
            "connectEnd" : 693,
            "connectStart" : 0,
            "id" : "download_12",
            "receivedTime" : "2402.41500001866",
            "sslStart" : -1,
            "dnsStart" : -1,
            "receiveLast" : 1531.41500001866,
            "s_time" : 1335.99900000263,
            "sendEnd" : 694,
            "sendStart" : 693,
            "type" : "application/x-javascript"
         }
      },
      {
         "when_comp_start" : -1,
         "url" : "https://static.xx.fbcdn.net/rsrc.php/v2/yk/r/fZHHllXop6b.js",
         "id" : "r19",
         "comps" : [
            {
               "s_time" : 2437.79900006484,
               "time" : 3.44399991444971,
               "type" : null,
               "id" : "comp_33",
               "e_time" : 2441.24299997929
            }
         ],
         "download" : {
            "receiveFirst" : 373,
            "len" : 5372,
            "dns" : 0,
            "dnsEnd" : -1,
            "receiveHeadersEnd" : 1066,
            "sslEnd" : -1,
            "connectEnd" : 692,
            "connectStart" : 0,
            "id" : "download_13",
            "receivedTime" : "2437.42500001099",
            "sslStart" : -1,
            "dnsStart" : -1,
            "receiveLast" : 1371.42500001099,
            "s_time" : 1336.54599997681,
            "sendEnd" : 693,
            "sendStart" : 692,
            "type" : "application/x-javascript"
         }
      },
      {
         "when_comp_start" : -1,
         "url" : "https://static.xx.fbcdn.net/rsrc.php/v2/yP/r/qJS_iFStDXj.js",
         "id" : "r20",
         "comps" : [
            {
               "s_time" : 2507.95700005256,
               "time" : 2.91899999138013,
               "type" : null,
               "id" : "comp_37",
               "e_time" : 2510.87600004394
            }
         ],
         "download" : {
            "receiveFirst" : 407,
            "len" : 32373,
            "dns" : 0,
            "dnsEnd" : -1,
            "receiveHeadersEnd" : 1100,
            "sslEnd" : -1,
            "connectEnd" : 692,
            "connectStart" : 0,
            "id" : "download_14",
            "receivedTime" : "2507.78900005389",
            "sslStart" : -1,
            "dnsStart" : -1,
            "receiveLast" : 1407.78900005389,
            "s_time" : 1336.82000008412,
            "sendEnd" : 693,
            "sendStart" : 692,
            "type" : "application/x-javascript"
         }
      },
      {
         "when_comp_start" : -1,
         "url" : "https://static.xx.fbcdn.net/rsrc.php/v2/yZ/r/7ncJ0Zk719W.js",
         "id" : "r12",
         "comps" : [
            {
               "s_time" : 2824.06900008209,
               "time" : 14.0379999065799,
               "type" : null,
               "id" : "comp_41",
               "e_time" : 2838.10699998867
            }
         ],
         "download" : {
            "receiveFirst" : 500,
            "len" : 125553,
            "dns" : 0,
            "dnsEnd" : -1,
            "receiveHeadersEnd" : 1196,
            "sslEnd" : -1,
            "connectEnd" : 694,
            "connectStart" : 0,
            "id" : "download_15",
            "receivedTime" : "2823.88400007039",
            "sslStart" : -1,
            "dnsStart" : -1,
            "receiveLast" : 1627.88400007039,
            "s_time" : 1334.61500005797,
            "sendEnd" : 696,
            "sendStart" : 694,
            "type" : "application/x-javascript"
         }
      },
      {
         "when_comp_start" : -1,
         "url" : "https://static.xx.fbcdn.net/rsrc.php/v2/yF/r/KZxwZdu5kSW.js",
         "id" : "r13",
         "comps" : [
            {
               "s_time" : 2870.77799998224,
               "time" : 18.1309999898099,
               "type" : null,
               "id" : "comp_45",
               "e_time" : 2888.90899997205
            }
         ],
         "download" : {
            "receiveFirst" : 794,
            "len" : 15871,
            "dns" : 0,
            "dnsEnd" : -1,
            "receiveHeadersEnd" : 1489,
            "sslEnd" : -1,
            "connectEnd" : 694,
            "connectStart" : 0,
            "id" : "download_16",
            "receivedTime" : "2870.61300000641",
            "sslStart" : -1,
            "dnsStart" : -1,
            "receiveLast" : 1381.61300000641,
            "s_time" : 1334.92200006731,
            "sendEnd" : 695,
            "sendStart" : 694,
            "type" : "application/x-javascript"
         }
      },
      {
         "when_comp_start" : -1,
         "url" : "https://static.xx.fbcdn.net/rsrc.php/v2/yd/r/ZKyYL_fFhgh.js",
         "id" : "r14",
         "comps" : [
            {
               "s_time" : 3011.83800003491,
               "time" : 3.27600003220005,
               "type" : null,
               "id" : "comp_49",
               "e_time" : 3015.11400006711
            }
         ],
         "download" : {
            "receiveFirst" : 864,
            "len" : 19409,
            "dns" : 0,
            "dnsEnd" : -1,
            "receiveHeadersEnd" : 1559,
            "sslEnd" : -1,
            "connectEnd" : 694,
            "connectStart" : 0,
            "id" : "download_17",
            "receivedTime" : "3011.68600004166",
            "sslStart" : -1,
            "dnsStart" : -1,
            "receiveLast" : 1452.68600004166,
            "s_time" : 1335.18599998206,
            "sendEnd" : 695,
            "sendStart" : 694,
            "type" : "application/x-javascript"
         }
      },
      {
         "when_comp_start" : -1,
         "url" : "https://static.xx.fbcdn.net/rsrc.php/v2/y_/r/gu6dwt31Mut.js",
         "id" : "r16",
         "comps" : [
            {
               "s_time" : 3086.33600000758,
               "time" : 6.09300006181002,
               "type" : null,
               "id" : "comp_53",
               "e_time" : 3092.42900006939
            }
         ],
         "download" : {
            "receiveFirst" : 863,
            "len" : 11690,
            "dns" : 0,
            "dnsEnd" : -1,
            "receiveHeadersEnd" : 1558,
            "sslEnd" : -1,
            "connectEnd" : 693,
            "connectStart" : 0,
            "id" : "download_18",
            "receivedTime" : "3086.12900006119",
            "sslStart" : -1,
            "dnsStart" : -1,
            "receiveLast" : 1528.12900006119,
            "s_time" : 1335.72800003458,
            "sendEnd" : 695,
            "sendStart" : 693,
            "type" : "application/x-javascript"
         }
      },
      {
         "when_comp_start" : -1,
         "url" : "https://static.xx.fbcdn.net/rsrc.php/v2/yn/r/BEuW3pj1Re7.js",
         "id" : "r15",
         "comps" : [
            {
               "s_time" : 3168.43399999198,
               "time" : 8.19299998693032,
               "type" : null,
               "id" : "comp_57",
               "e_time" : 3176.62699997891
            }
         ],
         "download" : {
            "receiveFirst" : 875,
            "len" : 70675,
            "dns" : 0,
            "dnsEnd" : -1,
            "receiveHeadersEnd" : 1570,
            "sslEnd" : -1,
            "connectEnd" : 694,
            "connectStart" : 0,
            "id" : "download_19",
            "receivedTime" : "3168.1240000762",
            "sslStart" : -1,
            "dnsStart" : -1,
            "receiveLast" : 1598.1240000762,
            "s_time" : 1335.46900004148,
            "sendEnd" : 695,
            "sendStart" : 694,
            "type" : "application/x-javascript"
         }
      }
   ],
   "deps" : [
      {
         "a2" : "r1_c2",
         "time" : -1,
         "id" : "dep1",
         "a1" : "comp_6"
      },
      {
         "a2" : "comp_6",
         "time" : -1,
         "id" : "dep2",
         "a1" : "comp_2"
      },
      {
         "a2" : "comp_6",
         "time" : -1,
         "id" : "dep3",
         "a1" : "comp_4"
      },
      {
         "a2" : "comp_6",
         "time" : -1,
         "id" : "dep4",
         "a1" : "comp_5"
      },
      {
         "a2" : "comp_6",
         "time" : -1,
         "id" : "dep5",
         "a1" : "comp_3"
      },
      {
         "a2" : "download_19",
         "time" : -1,
         "id" : "dep6",
         "a1" : "r1_c2"
      },
      {
         "a2" : "download_18",
         "time" : -1,
         "id" : "dep7",
         "a1" : "r1_c2"
      },
      {
         "a2" : "download_17",
         "time" : 66.97799998801,
         "id" : "dep8",
         "a1" : "r1_c2"
      },
      {
         "a2" : "download_16",
         "time" : 66.71400007326,
         "id" : "dep9",
         "a1" : "r1_c2"
      },
      {
         "a2" : "download_15",
         "time" : 66.4070000639201,
         "id" : "dep10",
         "a1" : "r1_c2"
      },
      {
         "a2" : "download_14",
         "time" : -1,
         "id" : "dep11",
         "a1" : "r1_c2"
      },
      {
         "a2" : "download_13",
         "time" : 68.33799998276,
         "id" : "dep12",
         "a1" : "r1_c2"
      },
      {
         "a2" : "download_12",
         "time" : 67.7910000085801,
         "id" : "dep13",
         "a1" : "r1_c2"
      },
      {
         "a2" : "download_11",
         "time" : 66.1020000698002,
         "id" : "dep14",
         "a1" : "r1_c2"
      },
      {
         "a2" : "download_10",
         "time" : 68.06600000709,
         "id" : "dep15",
         "a1" : "r1_c2"
      },
      {
         "a2" : "download_9",
         "time" : 45.7810000516401,
         "id" : "dep16",
         "a1" : "r1_c2"
      },
      {
         "a2" : "download_8",
         "time" : 44.5610000751901,
         "id" : "dep17",
         "a1" : "r1_c2"
      },
      {
         "a2" : "download_7",
         "time" : 43.5470000375001,
         "id" : "dep18",
         "a1" : "r1_c2"
      },
      {
         "a2" : "download_6",
         "time" : 41.1980000790199,
         "id" : "dep19",
         "a1" : "r1_c2"
      },
      {
         "a2" : "download_5",
         "time" : -1,
         "id" : "dep20",
         "a1" : "r1_c1"
      },
      {
         "a2" : "download_4",
         "time" : 5.791999981739,
         "id" : "dep21",
         "a1" : "r1_c1"
      },
      {
         "a2" : "download_3",
         "time" : 5.53500000387498,
         "id" : "dep22",
         "a1" : "r1_c1"
      },
      {
         "a2" : "download_2",
         "time" : 6.04000000748798,
         "id" : "dep23",
         "a1" : "r1_c1"
      },
      {
         "a2" : "download_1",
         "time" : 5.25699998252099,
         "id" : "dep24",
         "a1" : "r1_c1"
      }
   ]
}
