{
   "n_download_no_trigger" : 1,
   "start_activity" : "download_0",
   "name" : "original.testbed.localhost_www.xvideos.com_",
   "load_activity" : -1,
   "objs" : [
      {
         "when_comp_start" : 1,
         "url" : "http://original.testbed.localhost/www.xvideos.com/",
         "id" : "r1",
         "comps" : [
            {
               "s_time" : 163.145999889821,
               "time" : 49.771000165492,
               "id" : "r1_c1",
               "type" : "evalhtml",
               "e_time" : 212.917000055313
            },
            {
               "s_time" : 536.517000058666,
               "time" : -1067266850.578,
               "id" : "r1_c2",
               "type" : "evalhtml",
               "e_time" : -1067266314.061
            },
            {
               "s_time" : 546.26900004223,
               "time" : 1.862999983132,
               "id" : "r1_c3",
               "type" : "evalhtml",
               "e_time" : 548.132000025362
            },
            {
               "s_time" : 548.196000047028,
               "time" : 47.2409999929371,
               "id" : "r1_c4",
               "type" : "evalhtml",
               "e_time" : 595.437000039965
            },
            {
               "s_time" : 612.184999976307,
               "time" : 1064.93100011721,
               "id" : "r1_c5",
               "type" : "evalhtml",
               "e_time" : 1677.11600009352
            },
            {
               "s_time" : 1743.1369998958,
               "time" : 52.5110000744401,
               "id" : "r1_c6",
               "type" : "evalhtml",
               "e_time" : 1795.64799997024
            },
            {
               "s_time" : 1880.48500008881,
               "time" : 1388.9059999492,
               "type" : "evalhtml",
               "id" : "r1_c7",
               "e_time" : 3269.39100003801
            }
         ],
         "download" : {
            "receiveFirst" : 152,
            "len" : 52243,
            "dns" : 0,
            "dnsEnd" : -1,
            "receiveHeadersEnd" : 152,
            "sslEnd" : -1,
            "connectEnd" : 0,
            "connectStart" : 0,
            "id" : "download_0",
            "receivedTime" : "212.52500009723",
            "sslStart" : -1,
            "dnsStart" : -1,
            "receiveLast" : 60.5250000972301,
            "s_time" : 0,
            "sendEnd" : 0,
            "sendStart" : 0,
            "type" : "text/html"
         }
      },
      {
         "when_comp_start" : -1,
         "url" : "http://original.testbed.localhost/static.xvideos.com/v2/css/xv-mobile-styles.css",
         "id" : "r3",
         "comps" : [
            {
               "s_time" : 318.963000085205,
               "time" : 0.221999827771981,
               "type" : 4,
               "id" : "comp_0",
               "e_time" : 319.184999912977
            }
         ],
         "download" : {
            "receiveFirst" : 151,
            "len" : 1254,
            "dns" : 0,
            "dnsEnd" : -1,
            "receiveHeadersEnd" : 153,
            "sslEnd" : -1,
            "connectEnd" : 2,
            "connectStart" : 0,
            "id" : "download_1",
            "receivedTime" : "318.895000033081",
            "sslStart" : -1,
            "dnsStart" : -1,
            "receiveLast" : 165.895000033081,
            "s_time" : 164.525999920443,
            "sendEnd" : 2,
            "sendStart" : 2,
            "type" : "text/css"
         }
      },
      {
         "when_comp_start" : -1,
         "url" : "http://original.testbed.localhost/static.xvideos.com/v2/js/libs/modernizr-2.6.2.min.js",
         "id" : "r4",
         "comps" : [
            {
               "s_time" : 528.775000013411,
               "time" : 7.74200004525494,
               "type" : 1,
               "id" : "comp_2",
               "e_time" : 536.517000058666
            }
         ],
         "download" : {
            "receiveFirst" : 151,
            "len" : 4829,
            "dns" : 0,
            "dnsEnd" : -1,
            "receiveHeadersEnd" : 153,
            "sslEnd" : -1,
            "connectEnd" : 2,
            "connectStart" : 0,
            "id" : "download_2",
            "receivedTime" : "326.153999892995",
            "sslStart" : -1,
            "dnsStart" : -1,
            "receiveLast" : 173.153999892995,
            "s_time" : 164.70200009644,
            "sendEnd" : 2,
            "sendStart" : 2,
            "type" : "application/javascript"
         }
      },
      {
         "when_comp_start" : -1,
         "url" : "http://original.testbed.localhost/static.xvideos.com/v2/js/script-head.js%3Fv=4",
         "id" : "r5",
         "comps" : [
            {
               "s_time" : 536.619999911636,
               "time" : 9.649000130594,
               "type" : 1,
               "id" : "comp_3",
               "e_time" : 546.26900004223
            }
         ],
         "download" : {
            "receiveFirst" : 168,
            "len" : 12851,
            "dns" : 0,
            "dnsEnd" : -1,
            "receiveHeadersEnd" : 170,
            "sslEnd" : -1,
            "connectEnd" : 2,
            "connectStart" : 0,
            "id" : "download_3",
            "receivedTime" : "444.805999984965",
            "sslStart" : -1,
            "dnsStart" : -1,
            "receiveLast" : 274.805999984965,
            "s_time" : 164.879000047222,
            "sendEnd" : 2,
            "sendStart" : 2,
            "type" : "text/plain"
         }
      },
      {
         "when_comp_start" : -1,
         "url" : "http://original.testbed.localhost/static.xvideos.com/v2/css/xv-styles.css%3Fv=21.css",
         "id" : "r2",
         "comps" : [
            {
               "s_time" : 518.825999926776,
               "time" : 27.524000033736,
               "type" : 4,
               "id" : "comp_1",
               "e_time" : 546.349999960512
            }
         ],
         "download" : {
            "receiveFirst" : 279,
            "len" : 42081,
            "dns" : 0,
            "dnsEnd" : -1,
            "receiveHeadersEnd" : 281,
            "sslEnd" : -1,
            "connectEnd" : 2,
            "connectStart" : 0,
            "id" : "download_4",
            "receivedTime" : "518.749000038952",
            "sslStart" : -1,
            "dnsStart" : -1,
            "receiveLast" : 237.749000038952,
            "s_time" : 164.334000088274,
            "sendEnd" : 2,
            "sendStart" : 2,
            "type" : "text/css"
         }
      },
      {
         "when_comp_start" : -1,
         "url" : "http://original.testbed.localhost/static.xvideos.com/v2/js/mobile.js",
         "id" : "r6",
         "comps" : [
            {
               "s_time" : 547.256999881938,
               "time" : 0.939000165089965,
               "type" : 1,
               "id" : "comp_4",
               "e_time" : 548.196000047028
            }
         ],
         "download" : {
            "receiveFirst" : 308,
            "len" : 10531,
            "dns" : 0,
            "dnsEnd" : -1,
            "receiveHeadersEnd" : 355,
            "sslEnd" : -1,
            "connectEnd" : 47,
            "connectStart" : 0,
            "id" : "download_5",
            "receivedTime" : "547.16799990274",
            "sslStart" : -1,
            "dnsStart" : -1,
            "receiveLast" : 192.16799990274,
            "s_time" : 165.018999949098,
            "sendEnd" : 47,
            "sendStart" : 47,
            "type" : "application/javascript"
         }
      },
      {
         "when_comp_start" : -1,
         "url" : "http://original.testbed.localhost/static.xvideos.com/v2/js/ads.js%3Fv=1",
         "id" : "r47",
         "comps" : [
            {
               "s_time" : 579.928999999538,
               "time" : 32.2559999767691,
               "type" : 1,
               "id" : "comp_9",
               "e_time" : 612.184999976307
            }
         ],
         "download" : {
            "receiveFirst" : 243,
            "len" : 2150,
            "dns" : 0,
            "dnsEnd" : -1,
            "receiveHeadersEnd" : 349,
            "sslEnd" : -1,
            "connectEnd" : 106,
            "connectStart" : 0,
            "id" : "download_6",
            "receivedTime" : "579.876000061631",
            "sslStart" : -1,
            "dnsStart" : -1,
            "receiveLast" : 230.876000061631,
            "s_time" : 212.917000055313,
            "sendEnd" : 106,
            "sendStart" : 106,
            "type" : "text/plain"
         }
      },
      {
         "when_comp_start" : -1,
         "url" : "http://original.testbed.localhost/static.xvideos.com/v2/img/xv-rss.png",
         "id" : "r7",
         "comps" : [],
         "download" : {
            "receiveFirst" : 258,
            "len" : 1514,
            "dns" : 0,
            "dnsEnd" : -1,
            "receiveHeadersEnd" : 418,
            "sslEnd" : -1,
            "connectEnd" : 160,
            "connectStart" : 0,
            "id" : "download_7",
            "receivedTime" : "612.752000102773",
            "sslStart" : -1,
            "dnsStart" : -1,
            "receiveLast" : 194.752000102773,
            "s_time" : 165.215000044554,
            "sendEnd" : 160,
            "sendStart" : 160,
            "type" : "image/png"
         }
      },
      {
         "when_comp_start" : -1,
         "url" : "http://original.testbed.localhost/static.xvideos.com/v2/img/xv-red-twitter.png",
         "id" : "r8",
         "comps" : [],
         "download" : {
            "receiveFirst" : 150,
            "len" : 1275,
            "dns" : 0,
            "dnsEnd" : -1,
            "receiveHeadersEnd" : 153,
            "sslEnd" : -1,
            "connectEnd" : 3,
            "connectStart" : 0,
            "id" : "download_8",
            "receivedTime" : "713.683000067249",
            "sslStart" : -1,
            "dnsStart" : -1,
            "receiveLast" : 560.683000067249,
            "s_time" : 547.985000070184,
            "sendEnd" : 3,
            "sendStart" : 3,
            "type" : "image/png"
         }
      },
      {
         "when_comp_start" : -1,
         "url" : "http://original.testbed.localhost/img100.xvideos.com/videos/thumbs/xvideos.gif",
         "id" : "r9",
         "comps" : [],
         "download" : {
            "receiveFirst" : 152,
            "len" : 1386,
            "dns" : 0,
            "dnsEnd" : -1,
            "receiveHeadersEnd" : 154,
            "sslEnd" : -1,
            "connectEnd" : 2,
            "connectStart" : 0,
            "id" : "download_9",
            "receivedTime" : "715.131999924779",
            "sslStart" : -1,
            "dnsStart" : -1,
            "receiveLast" : 561.131999924779,
            "s_time" : 548.132000025362,
            "sendEnd" : 2,
            "sendStart" : 2,
            "type" : "image/gif"
         }
      },
      {
         "when_comp_start" : -1,
         "url" : "http://original.testbed.localhost/ajax.googleapis.com/ajax/libs/jquery/1.7.2/jquery.min.js",
         "id" : "r48",
         "comps" : [
            {
               "s_time" : 1715.86399991065,
               "time" : 27.2729999851501,
               "type" : 1,
               "id" : "comp_18",
               "e_time" : 1743.1369998958
            }
         ],
         "download" : {
            "receiveFirst" : 170,
            "len" : 94840,
            "dns" : 0,
            "dnsEnd" : -1,
            "receiveHeadersEnd" : 170,
            "sslEnd" : -1,
            "connectEnd" : 0,
            "connectStart" : 0,
            "id" : "download_10",
            "receivedTime" : "1715.73500009254",
            "sslStart" : -1,
            "dnsStart" : -1,
            "receiveLast" : 1545.73500009254,
            "s_time" : 547.269999980927,
            "sendEnd" : 0,
            "sendStart" : 0,
            "type" : "application/javascript"
         }
      },
      {
         "when_comp_start" : -1,
         "url" : "http://original.testbed.localhost/img100-473.xvideos.com/videos/thumbs/3a/c2/b1/3ac2b123c313af685dee01da46bf17f8/3ac2b123c313af685dee01da46bf17f8.3.jpg",
         "id" : "r10",
         "comps" : [],
         "download" : {
            "receiveFirst" : 263,
            "len" : 8136,
            "dns" : 0,
            "dnsEnd" : -1,
            "receiveHeadersEnd" : 289,
            "sslEnd" : -1,
            "connectEnd" : 26,
            "connectStart" : 0,
            "id" : "download_11",
            "receivedTime" : "899.201999884099",
            "sslStart" : -1,
            "dnsStart" : -1,
            "receiveLast" : 610.201999884099,
            "s_time" : 548.319000052288,
            "sendEnd" : 26,
            "sendStart" : 26,
            "type" : "image/jpeg"
         }
      },
      {
         "when_comp_start" : -1,
         "url" : "http://original.testbed.localhost/static.xvideos.com/v2/js/script.js%3Fv=17",
         "id" : "r51",
         "comps" : [
            {
               "s_time" : 1878.50399990566,
               "time" : 1.98100018314994,
               "type" : 1,
               "id" : "comp_23",
               "e_time" : 1880.48500008881
            }
         ],
         "download" : {
            "receiveFirst" : 315,
            "len" : 38028,
            "dns" : 0,
            "dnsEnd" : -1,
            "receiveHeadersEnd" : 331,
            "sslEnd" : -1,
            "connectEnd" : 16,
            "connectStart" : 0,
            "id" : "download_12",
            "receivedTime" : "1878.32999997772",
            "sslStart" : -1,
            "dnsStart" : -1,
            "receiveLast" : 1547.32999997772,
            "s_time" : 579.658000031486,
            "sendEnd" : 16,
            "sendStart" : 16,
            "type" : "text/plain"
         }
      },
      {
         "when_comp_start" : -1,
         "url" : "http://original.testbed.localhost/img100-641.xvideos.com/videos/thumbs/d9/57/79/d95779c5e42dd56a51b51a377e566f03/d95779c5e42dd56a51b51a377e566f03.6.jpg",
         "id" : "r17",
         "comps" : [],
         "download" : {
            "receiveFirst" : 320,
            "len" : 5684,
            "dns" : 0,
            "dnsEnd" : -1,
            "receiveHeadersEnd" : 438,
            "sslEnd" : -1,
            "connectEnd" : 118,
            "connectStart" : 0,
            "id" : "download_13",
            "receivedTime" : "1082.19300000928",
            "sslStart" : -1,
            "dnsStart" : -1,
            "receiveLast" : 644.193000009283,
            "s_time" : 595.437000039965,
            "sendEnd" : 118,
            "sendStart" : 118,
            "type" : "image/jpeg"
         }
      },
      {
         "when_comp_start" : -1,
         "url" : "http://original.testbed.localhost/img100-077.xvideos.com/videos/thumbs/c1/0e/36/c10e36e8ea3489bf13841f9cbcb786f7/c10e36e8ea3489bf13841f9cbcb786f7.6.jpg",
         "id" : "r18",
         "comps" : [],
         "download" : {
            "receiveFirst" : 369,
            "len" : 6550,
            "dns" : 0,
            "dnsEnd" : -1,
            "receiveHeadersEnd" : 370,
            "sslEnd" : -1,
            "connectEnd" : 1,
            "connectStart" : 0,
            "id" : "download_14",
            "receivedTime" : "1132.62200006284",
            "sslStart" : -1,
            "dnsStart" : -1,
            "receiveLast" : 762.622000062838,
            "s_time" : 713.699999963865,
            "sendEnd" : 1,
            "sendStart" : 1,
            "type" : "image/jpeg"
         }
      },
      {
         "when_comp_start" : -1,
         "url" : "http://rpc-php.trafficfactory.biz/footer-1//0//xvideos//display.js?v=0.3891061267349869",
         "id" : "r52",
         "comps" : [
            {
               "s_time" : 1191.01599999703,
               "time" : 1.42599991523002,
               "type" : 2,
               "id" : "comp_13",
               "e_time" : 1192.44199991226
            }
         ],
         "download" : {
            "receiveFirst" : 578,
            "len" : 1191,
            "dns" : 0,
            "dnsEnd" : -1,
            "receiveHeadersEnd" : 578,
            "sslEnd" : -1,
            "connectEnd" : 0,
            "connectStart" : 0,
            "id" : "download_15",
            "receivedTime" : "1190.83400000818",
            "sslStart" : -1,
            "dnsStart" : -1,
            "receiveLast" : 612.834000008181,
            "s_time" : 612.35100007616,
            "sendEnd" : 0,
            "sendStart" : 0,
            "type" : "text/javascript"
         }
      },
      {
         "when_comp_start" : -1,
         "url" : "http://original.testbed.localhost/img100-697.xvideos.com/videos/thumbs/91/da/bc/91dabca4ad448bed5bca85da987f027c/91dabca4ad448bed5bca85da987f027c.3.jpg",
         "id" : "r19",
         "comps" : [],
         "download" : {
            "receiveFirst" : 375,
            "len" : 9366,
            "dns" : 0,
            "dnsEnd" : -1,
            "receiveHeadersEnd" : 559,
            "sslEnd" : -1,
            "connectEnd" : 184,
            "connectStart" : 0,
            "id" : "download_16",
            "receivedTime" : "1347.5079999771",
            "sslStart" : -1,
            "dnsStart" : -1,
            "receiveLast" : 788.507999977097,
            "s_time" : 715.130999917164,
            "sendEnd" : 184,
            "sendStart" : 184,
            "type" : "image/jpeg"
         }
      },
      {
         "when_comp_start" : -1,
         "url" : "http://original.testbed.localhost/img100-865.xvideos.com/videos/thumbs/a8/38/b8/a838b8c2175ee501db6ee76fc5b6d509/a838b8c2175ee501db6ee76fc5b6d509.7.jpg",
         "id" : "r20",
         "comps" : [],
         "download" : {
            "receiveFirst" : 449,
            "len" : 6942,
            "dns" : 0,
            "dnsEnd" : 0,
            "receiveHeadersEnd" : 582,
            "sslEnd" : -1,
            "connectEnd" : 133,
            "connectStart" : 0,
            "id" : "download_17",
            "receivedTime" : "1529.68499995768",
            "sslStart" : -1,
            "dnsStart" : 0,
            "receiveLast" : 947.684999957681,
            "s_time" : 899.19100003317,
            "sendEnd" : 133,
            "sendStart" : 133,
            "type" : "image/jpeg"
         }
      },
      {
         "when_comp_start" : -1,
         "url" : "http://original.testbed.localhost/img100-279.xvideos.com/videos/thumbs/e5/1d/7e/e51d7ecfa4bb1cbbbe3b2cd349a19d28/e51d7ecfa4bb1cbbbe3b2cd349a19d28.25.jpg",
         "id" : "r11",
         "comps" : [],
         "download" : {
            "receiveFirst" : 459,
            "len" : 7139,
            "dns" : 0,
            "dnsEnd" : -1,
            "receiveHeadersEnd" : 992,
            "sslEnd" : -1,
            "connectEnd" : 533,
            "connectStart" : 0,
            "id" : "download_18",
            "receivedTime" : "1602.38200007007",
            "sslStart" : -1,
            "dnsStart" : -1,
            "receiveLast" : 610.382000070065,
            "s_time" : 549.197999993339,
            "sendEnd" : 533,
            "sendStart" : 533,
            "type" : "image/jpeg"
         }
      },
      {
         "when_comp_start" : -1,
         "url" : "http://original.testbed.localhost/img100-069.xvideos.com/videos/thumbs/68/1c/3e/681c3ec040608afee167121c18259633/681c3ec040608afee167121c18259633.5.jpg",
         "id" : "r21",
         "comps" : [],
         "download" : {
            "receiveFirst" : 472,
            "len" : 8618,
            "dns" : 0,
            "dnsEnd" : -1,
            "receiveHeadersEnd" : 522,
            "sslEnd" : -1,
            "connectEnd" : 50,
            "connectStart" : 0,
            "id" : "download_19",
            "receivedTime" : "1677.08400008269",
            "sslStart" : -1,
            "dnsStart" : -1,
            "receiveLast" : 1155.08400008269,
            "s_time" : 1082.20599987544,
            "sendEnd" : 50,
            "sendStart" : 50,
            "type" : "image/jpeg"
         }
      },
      {
         "when_comp_start" : -1,
         "url" : "http://original.testbed.localhost/img100-905.xvideos.com/videos/thumbs/b4/dd/5e/b4dd5e0e7941d6f42e0ff5a4026f62c9/b4dd5e0e7941d6f42e0ff5a4026f62c9.3.jpg",
         "id" : "r22",
         "comps" : [],
         "download" : {
            "receiveFirst" : 375,
            "len" : 9309,
            "dns" : 0,
            "dnsEnd" : -1,
            "receiveHeadersEnd" : 590,
            "sslEnd" : -1,
            "connectEnd" : 215,
            "connectStart" : 0,
            "id" : "download_20",
            "receivedTime" : "1795.52899999544",
            "sslStart" : -1,
            "dnsStart" : -1,
            "receiveLast" : 1205.52899999544,
            "s_time" : 1132.65800010413,
            "sendEnd" : 215,
            "sendStart" : 215,
            "type" : "image/jpeg"
         }
      },
      {
         "when_comp_start" : -1,
         "url" : "http://original.testbed.localhost/img100-945.xvideos.com/videos/thumbs/c2/92/87/c29287f8a278b82eee4f59b90731b008/c29287f8a278b82eee4f59b90731b008.26.jpg",
         "id" : "r23",
         "comps" : [],
         "download" : {
            "receiveFirst" : 354,
            "len" : 5107,
            "dns" : 0,
            "dnsEnd" : -1,
            "receiveHeadersEnd" : 536,
            "sslEnd" : -1,
            "connectEnd" : 182,
            "connectStart" : 0,
            "id" : "download_21",
            "receivedTime" : "1921.50299996138",
            "sslStart" : -1,
            "dnsStart" : -1,
            "receiveLast" : 1385.50299996138,
            "s_time" : 1347.560999915,
            "sendEnd" : 182,
            "sendStart" : 182,
            "type" : "image/jpeg"
         }
      },
      {
         "when_comp_start" : -1,
         "url" : "http://original.testbed.localhost/img100-405.xvideos.com/videos/thumbs/62/17/21/621721933fb1e7fa913082eb10242d99/621721933fb1e7fa913082eb10242d99.8.jpg",
         "id" : "r24",
         "comps" : [],
         "download" : {
            "receiveFirst" : 328,
            "len" : 7251,
            "dns" : 0,
            "dnsEnd" : -1,
            "receiveHeadersEnd" : 401,
            "sslEnd" : -1,
            "connectEnd" : 72,
            "connectStart" : 0,
            "id" : "download_22",
            "receivedTime" : "1991.69500009157",
            "sslStart" : -1,
            "dnsStart" : -1,
            "receiveLast" : 1590.69500009157,
            "s_time" : 1529.74199992605,
            "sendEnd" : 73,
            "sendStart" : 72,
            "type" : "image/jpeg"
         }
      },
      {
         "when_comp_start" : -1,
         "url" : "http://original.testbed.localhost/img100-811.xvideos.com/videos/thumbs/6a/23/06/6a230622fc82995da2a769ac0d92c0cc/6a230622fc82995da2a769ac0d92c0cc.14.jpg",
         "id" : "r25",
         "comps" : [],
         "download" : {
            "receiveFirst" : 317,
            "len" : 9472,
            "dns" : 0,
            "dnsEnd" : -1,
            "receiveHeadersEnd" : 392,
            "sslEnd" : -1,
            "connectEnd" : 75,
            "connectStart" : 0,
            "id" : "download_23",
            "receivedTime" : "2067.89200007915",
            "sslStart" : -1,
            "dnsStart" : -1,
            "receiveLast" : 1675.89200007915,
            "s_time" : 1602.39899996668,
            "sendEnd" : 75,
            "sendStart" : 75,
            "type" : "image/jpeg"
         }
      },
      {
         "when_comp_start" : -1,
         "url" : "http://original.testbed.localhost/img100-233.xvideos.com/videos/thumbs/d2/b5/8a/d2b58ad8ba5633b452f27969694471af/d2b58ad8ba5633b452f27969694471af.20.jpg",
         "id" : "r26",
         "comps" : [],
         "download" : {
            "receiveFirst" : 362,
            "len" : 8122,
            "dns" : 0,
            "dnsEnd" : -1,
            "receiveHeadersEnd" : 400,
            "sslEnd" : -1,
            "connectEnd" : 38,
            "connectStart" : 0,
            "id" : "download_24",
            "receivedTime" : "2137.59199995548",
            "sslStart" : -1,
            "dnsStart" : -1,
            "receiveLast" : 1737.59199995548,
            "s_time" : 1677.11600009352,
            "sendEnd" : 38,
            "sendStart" : 38,
            "type" : "image/jpeg"
         }
      },
      {
         "when_comp_start" : -1,
         "url" : "http://original.testbed.localhost/img100-237.xvideos.com/videos/thumbs/ca/fc/d1/cafcd1515bd3c73acb1fc7c8730be9ed/cafcd1515bd3c73acb1fc7c8730be9ed.11.jpg",
         "id" : "r12",
         "comps" : [],
         "download" : {
            "receiveFirst" : 352,
            "len" : 8662,
            "dns" : 0,
            "dnsEnd" : -1,
            "receiveHeadersEnd" : 1598,
            "sslEnd" : -1,
            "connectEnd" : 1246,
            "connectStart" : 0,
            "id" : "download_25",
            "receivedTime" : "2220.23199987598",
            "sslStart" : -1,
            "dnsStart" : -1,
            "receiveLast" : 622.231999875978,
            "s_time" : 549.365000100806,
            "sendEnd" : 1246,
            "sendStart" : 1246,
            "type" : "image/jpeg"
         }
      },
      {
         "when_comp_start" : -1,
         "url" : "http://original.testbed.localhost/img100-837.xvideos.com/videos/thumbs/7a/00/8f/7a008fd1a5c6de0dde3af6f146abe196/7a008fd1a5c6de0dde3af6f146abe196.19.jpg",
         "id" : "r27",
         "comps" : [],
         "download" : {
            "receiveFirst" : 346,
            "len" : 7092,
            "dns" : 0,
            "dnsEnd" : -1,
            "receiveHeadersEnd" : 429,
            "sslEnd" : -1,
            "connectEnd" : 83,
            "connectStart" : 0,
            "id" : "download_26",
            "receivedTime" : "2285.45799991116",
            "sslStart" : -1,
            "dnsStart" : -1,
            "receiveLast" : 1856.45799991116,
            "s_time" : 1795.64799997024,
            "sendEnd" : 83,
            "sendStart" : 83,
            "type" : "image/jpeg"
         }
      },
      {
         "when_comp_start" : -1,
         "url" : "http://original.testbed.localhost/img100-158.xvideos.com/videos/thumbs/54/b8/b5/54b8b5636270990906ff28d43c8feefd/54b8b5636270990906ff28d43c8feefd.24.jpg",
         "id" : "r13",
         "comps" : [],
         "download" : {
            "receiveFirst" : 366,
            "len" : 6557,
            "dns" : 0,
            "dnsEnd" : -1,
            "receiveHeadersEnd" : 1737,
            "sslEnd" : -1,
            "connectEnd" : 1371,
            "connectStart" : 0,
            "id" : "download_27",
            "receivedTime" : "2335.62700008042",
            "sslStart" : -1,
            "dnsStart" : -1,
            "receiveLast" : 598.627000080422,
            "s_time" : 549.527999944985,
            "sendEnd" : 1371,
            "sendStart" : 1371,
            "type" : "image/jpeg"
         }
      },
      {
         "when_comp_start" : -1,
         "url" : "http://original.testbed.localhost/img100-121.xvideos.com/videos/thumbs/82/f4/a0/82f4a0cfb294af444f19b7a01dfb06b8/82f4a0cfb294af444f19b7a01dfb06b8.20.jpg",
         "id" : "r28",
         "comps" : [],
         "download" : {
            "receiveFirst" : 353,
            "len" : 5665,
            "dns" : 0,
            "dnsEnd" : -1,
            "receiveHeadersEnd" : 424,
            "sslEnd" : -1,
            "connectEnd" : 71,
            "connectStart" : 0,
            "id" : "download_28",
            "receivedTime" : "2393.08400009759",
            "sslStart" : -1,
            "dnsStart" : -1,
            "receiveLast" : 1969.08400009759,
            "s_time" : 1920.4510001,
            "sendEnd" : 71,
            "sendStart" : 71,
            "type" : "image/jpeg"
         }
      },
      {
         "when_comp_start" : -1,
         "url" : "http://original.testbed.localhost/img100-257.xvideos.com/videos/thumbs/24/34/92/2434926e4fa365da4f3eec67825a6e3f/2434926e4fa365da4f3eec67825a6e3f.5.jpg",
         "id" : "r29",
         "comps" : [],
         "download" : {
            "receiveFirst" : 327,
            "len" : 6512,
            "dns" : 0,
            "dnsEnd" : -1,
            "receiveHeadersEnd" : 403,
            "sslEnd" : -1,
            "connectEnd" : 76,
            "connectStart" : 0,
            "id" : "download_29",
            "receivedTime" : "2443.35399987176",
            "sslStart" : -1,
            "dnsStart" : -1,
            "receiveLast" : 2040.35399987176,
            "s_time" : 1991.73999996856,
            "sendEnd" : 76,
            "sendStart" : 76,
            "type" : "image/jpeg"
         }
      },
      {
         "when_comp_start" : -1,
         "url" : "http://original.testbed.localhost/img100-722.xvideos.com/videos/thumbs/5a/91/42/5a91421ee109d4bef1ed43d7285f7e0c/5a91421ee109d4bef1ed43d7285f7e0c.13.jpg",
         "id" : "r30",
         "comps" : [],
         "download" : {
            "receiveFirst" : 314,
            "len" : 6538,
            "dns" : 0,
            "dnsEnd" : -1,
            "receiveHeadersEnd" : 384,
            "sslEnd" : -1,
            "connectEnd" : 70,
            "connectStart" : 0,
            "id" : "download_30",
            "receivedTime" : "2500.39699999616",
            "sslStart" : -1,
            "dnsStart" : -1,
            "receiveLast" : 2116.39699999616,
            "s_time" : 2067.89999990724,
            "sendEnd" : 70,
            "sendStart" : 70,
            "type" : "image/jpeg"
         }
      },
      {
         "when_comp_start" : -1,
         "url" : "http://original.testbed.localhost/img100-511.xvideos.com/videos/thumbs/f8/e2/dc/f8e2dc03238bcf58769bf7d311f409d0/f8e2dc03238bcf58769bf7d311f409d0.10.jpg",
         "id" : "r31",
         "comps" : [],
         "download" : {
            "receiveFirst" : 288,
            "len" : 7449,
            "dns" : 0,
            "dnsEnd" : -1,
            "receiveHeadersEnd" : 371,
            "sslEnd" : -1,
            "connectEnd" : 83,
            "connectStart" : 0,
            "id" : "download_31",
            "receivedTime" : "2569.8379999958",
            "sslStart" : -1,
            "dnsStart" : -1,
            "receiveLast" : 2198.8379999958,
            "s_time" : 2137.62900000438,
            "sendEnd" : 83,
            "sendStart" : 83,
            "type" : "image/jpeg"
         }
      },
      {
         "when_comp_start" : -1,
         "url" : "http://original.testbed.localhost/img100-363.xvideos.com/videos/thumbs/08/8d/c7/088dc73e37cee6ad597ebdcb2708156f/088dc73e37cee6ad597ebdcb2708156f.30.jpg",
         "id" : "r32",
         "comps" : [],
         "download" : {
            "receiveFirst" : 289,
            "len" : 5602,
            "dns" : 0,
            "dnsEnd" : -1,
            "receiveHeadersEnd" : 354,
            "sslEnd" : -1,
            "connectEnd" : 65,
            "connectStart" : 0,
            "id" : "download_32",
            "receivedTime" : "2622.82099993899",
            "sslStart" : -1,
            "dnsStart" : -1,
            "receiveLast" : 2268.82099993899,
            "s_time" : 2220.26699990965,
            "sendEnd" : 65,
            "sendStart" : 65,
            "type" : "image/jpeg"
         }
      },
      {
         "when_comp_start" : -1,
         "url" : "http://original.testbed.localhost/img100-520.xvideos.com/videos/thumbs/9d/66/23/9d6623220cc03355cb24fdd571c19f78/9d6623220cc03355cb24fdd571c19f78.21.jpg",
         "id" : "r33",
         "comps" : [],
         "download" : {
            "receiveFirst" : 289,
            "len" : 7329,
            "dns" : 0,
            "dnsEnd" : -1,
            "receiveHeadersEnd" : 339,
            "sslEnd" : -1,
            "connectEnd" : 50,
            "connectStart" : 0,
            "id" : "download_33",
            "receivedTime" : "2684.76000009105",
            "sslStart" : -1,
            "dnsStart" : -1,
            "receiveLast" : 2345.76000009105,
            "s_time" : 2285.51499987952,
            "sendEnd" : 50,
            "sendStart" : 50,
            "type" : "image/jpeg"
         }
      },
      {
         "when_comp_start" : -1,
         "url" : "http://original.testbed.localhost/img100-476.xvideos.com/videos/thumbs/ba/f5/19/baf519d80283ca66733a0555e20f23dd/baf519d80283ca66733a0555e20f23dd.1.jpg",
         "id" : "r34",
         "comps" : [],
         "download" : {
            "receiveFirst" : 295,
            "len" : 6991,
            "dns" : 0,
            "dnsEnd" : -1,
            "receiveHeadersEnd" : 352,
            "sslEnd" : -1,
            "connectEnd" : 57,
            "connectStart" : 0,
            "id" : "download_34",
            "receivedTime" : "2748.89899999835",
            "sslStart" : -1,
            "dnsStart" : -1,
            "receiveLast" : 2396.89899999835,
            "s_time" : 2335.66999994218,
            "sendEnd" : 57,
            "sendStart" : 57,
            "type" : "image/jpeg"
         }
      },
      {
         "when_comp_start" : -1,
         "url" : "http://original.testbed.localhost/img100-099.xvideos.com/videos/thumbs/a1/1d/34/a11d3417c9592a3c032fb3703ec82f5a/a11d3417c9592a3c032fb3703ec82f5a.30.jpg",
         "id" : "r35",
         "comps" : [],
         "download" : {
            "receiveFirst" : 306,
            "len" : 8392,
            "dns" : 0,
            "dnsEnd" : -1,
            "receiveHeadersEnd" : 356,
            "sslEnd" : -1,
            "connectEnd" : 50,
            "connectStart" : 0,
            "id" : "download_35",
            "receivedTime" : "2810.36700005643",
            "sslStart" : -1,
            "dnsStart" : -1,
            "receiveLast" : 2454.36700005643,
            "s_time" : 2393.10900005512,
            "sendEnd" : 50,
            "sendStart" : 50,
            "type" : "image/jpeg"
         }
      },
      {
         "when_comp_start" : -1,
         "url" : "http://original.testbed.localhost/img100-427.xvideos.com/videos/thumbs/13/9f/aa/139faa49740d9df94698daa102921bcf/139faa49740d9df94698daa102921bcf.5.jpg",
         "id" : "r36",
         "comps" : [],
         "download" : {
            "receiveFirst" : 322,
            "len" : 8468,
            "dns" : 0,
            "dnsEnd" : -1,
            "receiveHeadersEnd" : 379,
            "sslEnd" : -1,
            "connectEnd" : 57,
            "connectStart" : 0,
            "id" : "download_36",
            "receivedTime" : "3269.45600006729",
            "sslStart" : -1,
            "dnsStart" : -1,
            "receiveLast" : 2890.45600006729,
            "s_time" : 2443.37500003166,
            "sendEnd" : 57,
            "sendStart" : 57,
            "type" : "image/jpeg"
         }
      },
      {
         "when_comp_start" : -1,
         "url" : "http://original.testbed.localhost/img100-461.xvideos.com/videos/thumbs/70/03/25/700325d5c800a856bc01740a17dbd9d7/700325d5c800a856bc01740a17dbd9d7.25.jpg",
         "id" : "r37",
         "comps" : [],
         "download" : {
            "receiveFirst" : 303,
            "len" : 7305,
            "dns" : 0,
            "dnsEnd" : -1,
            "receiveHeadersEnd" : 372,
            "sslEnd" : -1,
            "connectEnd" : 69,
            "connectStart" : 0,
            "id" : "download_37",
            "receivedTime" : "2932.99799994566",
            "sslStart" : -1,
            "dnsStart" : -1,
            "receiveLast" : 2560.99799994566,
            "s_time" : 2500.48599997535,
            "sendEnd" : 69,
            "sendStart" : 69,
            "type" : "image/jpeg"
         }
      },
      {
         "when_comp_start" : -1,
         "url" : "http://original.testbed.localhost/img100-901.xvideos.com/videos/thumbs/9e/c1/bb/9ec1bb695dc43411e3bed08991e5a5fc/9ec1bb695dc43411e3bed08991e5a5fc.8.jpg",
         "id" : "r38",
         "comps" : [],
         "download" : {
            "receiveFirst" : 313,
            "len" : 8316,
            "dns" : 0,
            "dnsEnd" : -1,
            "receiveHeadersEnd" : 366,
            "sslEnd" : -1,
            "connectEnd" : 53,
            "connectStart" : 0,
            "id" : "download_38",
            "receivedTime" : "2997.02499993145",
            "sslStart" : -1,
            "dnsStart" : -1,
            "receiveLast" : 2631.02499993145,
            "s_time" : 2569.8839998804,
            "sendEnd" : 53,
            "sendStart" : 53,
            "type" : "image/jpeg"
         }
      },
      {
         "when_comp_start" : -1,
         "url" : "http://original.testbed.localhost/img100-511.xvideos.com/videos/thumbs/34/c4/5f/34c45f58c1b82e0d940d29722a70476b/34c45f58c1b82e0d940d29722a70476b.26.jpg",
         "id" : "r39",
         "comps" : [],
         "download" : {
            "receiveFirst" : 323,
            "len" : 5306,
            "dns" : 0,
            "dnsEnd" : -1,
            "receiveHeadersEnd" : 385,
            "sslEnd" : -1,
            "connectEnd" : 62,
            "connectStart" : 0,
            "id" : "download_39",
            "receivedTime" : "3045.87700008415",
            "sslStart" : -1,
            "dnsStart" : -1,
            "receiveLast" : 2660.87700008415,
            "s_time" : 2622.92700004764,
            "sendEnd" : 62,
            "sendStart" : 62,
            "type" : "image/jpeg"
         }
      },
      {
         "when_comp_start" : -1,
         "url" : "http://original.testbed.localhost/img100-085.xvideos.com/videos/thumbs/d0/f3/ae/d0f3ae8b9b80dc2aecbcf6947f0e3883/d0f3ae8b9b80dc2aecbcf6947f0e3883.26.jpg",
         "id" : "r40",
         "comps" : [],
         "download" : {
            "receiveFirst" : 306,
            "len" : 9032,
            "dns" : 0,
            "dnsEnd" : -1,
            "receiveHeadersEnd" : 370,
            "sslEnd" : -1,
            "connectEnd" : 64,
            "connectStart" : 0,
            "id" : "download_40",
            "receivedTime" : "3128.38599993847",
            "sslStart" : -1,
            "dnsStart" : -1,
            "receiveLast" : 2758.38599993847,
            "s_time" : 2684.8530001007,
            "sendEnd" : 64,
            "sendStart" : 64,
            "type" : "image/jpeg"
         }
      },
      {
         "when_comp_start" : -1,
         "url" : "http://original.testbed.localhost/img100-697.xvideos.com/videos/thumbs/13/6c/17/136c171afc4d10e55ead13274b6bf9f8/136c171afc4d10e55ead13274b6bf9f8.29.jpg",
         "id" : "r41",
         "comps" : [],
         "download" : {
            "receiveFirst" : 323,
            "len" : 7450,
            "dns" : 0,
            "dnsEnd" : -1,
            "receiveHeadersEnd" : 384,
            "sslEnd" : -1,
            "connectEnd" : 61,
            "connectStart" : 0,
            "id" : "download_41",
            "receivedTime" : "3194.22399997711",
            "sslStart" : -1,
            "dnsStart" : -1,
            "receiveLast" : 2810.22399997711,
            "s_time" : 2748.96100000478,
            "sendEnd" : 61,
            "sendStart" : 61,
            "type" : "image/jpeg"
         }
      },
      {
         "when_comp_start" : -1,
         "url" : "http://original.testbed.localhost/img100-911.xvideos.com/videos/thumbs/72/dd/0b/72dd0ba9cbcb47502f44dcae356732d2/72dd0ba9cbcb47502f44dcae356732d2.24.jpg",
         "id" : "r42",
         "comps" : [],
         "download" : {
            "receiveFirst" : 265,
            "len" : 6705,
            "dns" : 0,
            "dnsEnd" : -1,
            "receiveHeadersEnd" : 388,
            "sslEnd" : -1,
            "connectEnd" : 123,
            "connectStart" : 0,
            "id" : "download_42",
            "receivedTime" : "3247.1769999247",
            "sslStart" : -1,
            "dnsStart" : -1,
            "receiveLast" : 2859.1769999247,
            "s_time" : 2810.45900005847,
            "sendEnd" : 123,
            "sendStart" : 123,
            "type" : "image/jpeg"
         }
      },
      {
         "when_comp_start" : -1,
         "url" : "http://original.testbed.localhost/img100-995.xvideos.com/videos/thumbs/82/f1/57/82f1573a394dae101deac07c2b5371da/82f1573a394dae101deac07c2b5371da.6.jpg",
         "id" : "r43",
         "comps" : [],
         "download" : {
            "receiveFirst" : 283,
            "len" : 9588,
            "dns" : 0,
            "dnsEnd" : -1,
            "receiveHeadersEnd" : 348,
            "sslEnd" : -1,
            "connectEnd" : 65,
            "connectStart" : 0,
            "id" : "download_43",
            "receivedTime" : "3354.41399994306",
            "sslStart" : -1,
            "dnsStart" : -1,
            "receiveLast" : 3006.41399994306,
            "s_time" : 2933.1040000543,
            "sendEnd" : 65,
            "sendStart" : 65,
            "type" : "image/jpeg"
         }
      },
      {
         "when_comp_start" : -1,
         "url" : "http://original.testbed.localhost/img100-167.xvideos.com/videos/thumbs/ec/e0/5d/ece05d79ee34729dfbdc9ce7ebb49f7a/ece05d79ee34729dfbdc9ce7ebb49f7a.28.jpg",
         "id" : "r44",
         "comps" : [],
         "download" : {
            "receiveFirst" : 318,
            "len" : 8682,
            "dns" : 0,
            "dnsEnd" : -1,
            "receiveHeadersEnd" : 367,
            "sslEnd" : -1,
            "connectEnd" : 48,
            "connectStart" : 0,
            "id" : "download_44",
            "receivedTime" : "3436.85800000094",
            "sslStart" : -1,
            "dnsStart" : -1,
            "receiveLast" : 3069.85800000094,
            "s_time" : 2997.12299997918,
            "sendEnd" : 49,
            "sendStart" : 48,
            "type" : "image/jpeg"
         }
      },
      {
         "when_comp_start" : -1,
         "url" : "http://original.testbed.localhost/img100-683.xvideos.com/videos/thumbs/04/7f/24/047f24efc100becf4c4573cdf07b3820/047f24efc100becf4c4573cdf07b3820.14.jpg",
         "id" : "r45",
         "comps" : [],
         "download" : {
            "receiveFirst" : 310,
            "len" : 8741,
            "dns" : 0,
            "dnsEnd" : -1,
            "receiveHeadersEnd" : 395,
            "sslEnd" : -1,
            "connectEnd" : 84,
            "connectStart" : 0,
            "id" : "download_45",
            "receivedTime" : "3512.33899989165",
            "sslStart" : -1,
            "dnsStart" : -1,
            "receiveLast" : 3117.33899989165,
            "s_time" : 3044.97499996796,
            "sendEnd" : 85,
            "sendStart" : 84,
            "type" : "image/jpeg"
         }
      },
      {
         "when_comp_start" : -1,
         "url" : "http://original.testbed.localhost/img100-237.xvideos.com/videos/thumbs/a8/cd/26/a8cd26e39c19599f5933dd884ec63ce0/a8cd26e39c19599f5933dd884ec63ce0.6.jpg",
         "id" : "r46",
         "comps" : [],
         "download" : {
            "receiveFirst" : 320,
            "len" : 7729,
            "dns" : 0,
            "dnsEnd" : -1,
            "receiveHeadersEnd" : 387,
            "sslEnd" : -1,
            "connectEnd" : 67,
            "connectStart" : 0,
            "id" : "download_46",
            "receivedTime" : "3576.09899993986",
            "sslStart" : -1,
            "dnsStart" : -1,
            "receiveLast" : 3189.09899993986,
            "s_time" : 3128.3509999048,
            "sendEnd" : 67,
            "sendStart" : 67,
            "type" : "image/jpeg"
         }
      },
      {
         "when_comp_start" : 1,
         "url" : "http://original.testbed.localhost/img100-093.xvideos.com/videos/thumbs/10/14/5f/10145f50bd8272cfe927300eb77ef731/10145f50bd8272cfe927300eb77ef731.24.jpg",
         "id" : "r49",
         "comps" : [],
         "download" : {
            "receiveFirst" : 334,
            "len" : 408,
            "dns" : 0,
            "dnsEnd" : -1,
            "receiveHeadersEnd" : 388,
            "sslEnd" : -1,
            "connectEnd" : 54,
            "connectStart" : 0,
            "id" : "download_47",
            "receivedTime" : "3583.73100007884",
            "sslStart" : -1,
            "dnsStart" : -1,
            "receiveLast" : 3195.73100007884,
            "s_time" : 3194.45499987341,
            "sendEnd" : 54,
            "sendStart" : 54,
            "type" : "text/html"
         }
      },
      {
         "when_comp_start" : 1,
         "url" : "http://original.testbed.localhost/img100-005.xvideos.com/videos/thumbs/83/32/eb/8332eb870c5a1284c516cb333b4a34a4/8332eb870c5a1284c516cb333b4a34a4.11.jpg",
         "id" : "r50",
         "comps" : [],
         "download" : {
            "receiveFirst" : 317,
            "len" : 408,
            "dns" : 0,
            "dnsEnd" : -1,
            "receiveHeadersEnd" : 340,
            "sslEnd" : -1,
            "connectEnd" : 23,
            "connectStart" : 0,
            "id" : "download_48",
            "receivedTime" : "3588.71400007047",
            "sslStart" : -1,
            "dnsStart" : -1,
            "receiveLast" : 3248.71400007047,
            "s_time" : 3247.38300009631,
            "sendEnd" : 23,
            "sendStart" : 23,
            "type" : "text/html"
         }
      },
      {
         "when_comp_start" : -1,
         "url" : "http://media.trafficfactory.biz//banners/498/3eea6c36e0b7ee9442ab9d3cb354c1e5.gif",
         "id" : "r53",
         "comps" : [],
         "download" : {
            "receiveFirst" : 323,
            "len" : 752292,
            "dns" : 0,
            "dnsEnd" : -1,
            "receiveHeadersEnd" : 324,
            "sslEnd" : -1,
            "connectEnd" : 1,
            "connectStart" : 0,
            "id" : "download_49",
            "receivedTime" : "10107.5979999732",
            "sslStart" : -1,
            "dnsStart" : -1,
            "receiveLast" : 9783.59799997322,
            "s_time" : 3269.39100003801,
            "sendEnd" : 1,
            "sendStart" : 1,
            "type" : "image/gif"
         }
      },
      {
         "when_comp_start" : -1,
         "url" : "http://original.testbed.localhost/img100-397.xvideos.com/videos/thumbs/c4/02/cf/c402cfcce7906ff4833c9eeec4e108aa/c402cfcce7906ff4833c9eeec4e108aa.16.jpg",
         "id" : "r14",
         "comps" : [],
         "download" : {
            "receiveFirst" : 360,
            "len" : 7334,
            "dns" : 0,
            "dnsEnd" : -1,
            "receiveHeadersEnd" : 3165,
            "sslEnd" : -1,
            "connectEnd" : 2805,
            "connectStart" : 0,
            "id" : "download_50",
            "receivedTime" : "3775.15499992296",
            "sslStart" : -1,
            "dnsStart" : -1,
            "receiveLast" : 610.154999922961,
            "s_time" : 549.719000002369,
            "sendEnd" : 2805,
            "sendStart" : 2805,
            "type" : "image/jpeg"
         }
      },
      {
         "when_comp_start" : -1,
         "url" : "http://original.testbed.localhost/img100-771.xvideos.com/videos/thumbs/92/42/a9/9242a9f74406729cb154db367e526c3a/9242a9f74406729cb154db367e526c3a.18.jpg",
         "id" : "r15",
         "comps" : [],
         "download" : {
            "receiveFirst" : 342,
            "len" : 7518,
            "dns" : 0,
            "dnsEnd" : -1,
            "receiveHeadersEnd" : 3229,
            "sslEnd" : -1,
            "connectEnd" : 2887,
            "connectStart" : 0,
            "id" : "download_51",
            "receivedTime" : "3839.33699992485",
            "sslStart" : -1,
            "dnsStart" : -1,
            "receiveLast" : 610.336999924853,
            "s_time" : 549.895999953151,
            "sendEnd" : 2887,
            "sendStart" : 2887,
            "type" : "image/jpeg"
         }
      },
      {
         "when_comp_start" : -1,
         "url" : "http://original.testbed.localhost/img100-493.xvideos.com/videos/thumbs/2f/b9/93/2fb99322f102421018587fe8ccbbb6e1/2fb99322f102421018587fe8ccbbb6e1.22.jpg",
         "id" : "r16",
         "comps" : [],
         "download" : {
            "receiveFirst" : 332,
            "len" : 5869,
            "dns" : 0,
            "dnsEnd" : -1,
            "receiveHeadersEnd" : 3294,
            "sslEnd" : -1,
            "connectEnd" : 2962,
            "connectStart" : 0,
            "id" : "download_52",
            "receivedTime" : "3892.98600004986",
            "sslStart" : -1,
            "dnsStart" : -1,
            "receiveLast" : 598.986000049859,
            "s_time" : 550.046999938786,
            "sendEnd" : 2962,
            "sendStart" : 2962,
            "type" : "image/jpeg"
         }
      }
   ],
   "deps" : [
      {
         "a2" : "r1_c2",
         "time" : -1,
         "id" : "dep1",
         "a1" : "comp_2"
      },
      {
         "a2" : "r1_c3",
         "time" : -1,
         "id" : "dep2",
         "a1" : "comp_3"
      },
      {
         "a2" : "r1_c4",
         "time" : -1,
         "id" : "dep3",
         "a1" : "comp_4"
      },
      {
         "a2" : "r1_c5",
         "time" : -1,
         "id" : "dep4",
         "a1" : "comp_9"
      },
      {
         "a2" : "r1_c6",
         "time" : -1,
         "id" : "dep5",
         "a1" : "comp_18"
      },
      {
         "a2" : "r1_c7",
         "time" : -1,
         "id" : "dep6",
         "a1" : "comp_23"
      },
      {
         "a2" : "comp_2",
         "time" : -1,
         "id" : "dep7",
         "a1" : "comp_1"
      },
      {
         "a2" : "comp_2",
         "time" : -1,
         "id" : "dep8",
         "a1" : "comp_0"
      },
      {
         "a2" : "comp_3",
         "time" : -1,
         "id" : "dep9",
         "a1" : "comp_2"
      },
      {
         "a2" : "comp_4",
         "time" : -1,
         "id" : "dep10",
         "a1" : "comp_3"
      },
      {
         "a2" : "comp_18",
         "time" : -1,
         "id" : "dep11",
         "a1" : "comp_9"
      },
      {
         "a2" : "download_52",
         "time" : -1,
         "id" : "dep12",
         "a1" : "r1_c4"
      },
      {
         "a2" : "download_51",
         "time" : 1.69999990612303,
         "id" : "dep13",
         "a1" : "r1_c4"
      },
      {
         "a2" : "download_50",
         "time" : 1.52299995534099,
         "id" : "dep14",
         "a1" : "r1_c4"
      },
      {
         "a2" : "download_49",
         "time" : -1,
         "id" : "dep15",
         "a1" : "r1_c7"
      },
      {
         "a2" : "download_48",
         "time" : 1366.8980000075,
         "id" : "dep16",
         "a1" : "r1_c7"
      },
      {
         "a2" : "download_47",
         "time" : 1313.9699997846,
         "id" : "dep17",
         "a1" : "r1_c7"
      },
      {
         "a2" : "download_46",
         "time" : 1247.86599981599,
         "id" : "dep18",
         "a1" : "r1_c7"
      },
      {
         "a2" : "download_45",
         "time" : 1164.48999987915,
         "id" : "dep19",
         "a1" : "r1_c7"
      },
      {
         "a2" : "download_44",
         "time" : 1116.63799989037,
         "id" : "dep20",
         "a1" : "r1_c7"
      },
      {
         "a2" : "download_43",
         "time" : 1052.61899996549,
         "id" : "dep21",
         "a1" : "r1_c7"
      },
      {
         "a2" : "download_42",
         "time" : 929.97399996966,
         "id" : "dep22",
         "a1" : "r1_c7"
      },
      {
         "a2" : "download_41",
         "time" : 868.47599991597,
         "id" : "dep23",
         "a1" : "r1_c7"
      },
      {
         "a2" : "download_40",
         "time" : 804.36800001189,
         "id" : "dep24",
         "a1" : "r1_c7"
      },
      {
         "a2" : "download_39",
         "time" : 742.44199995883,
         "id" : "dep25",
         "a1" : "r1_c7"
      },
      {
         "a2" : "download_38",
         "time" : 689.39899979159,
         "id" : "dep26",
         "a1" : "r1_c7"
      },
      {
         "a2" : "download_37",
         "time" : 620.00099988654,
         "id" : "dep27",
         "a1" : "r1_c7"
      },
      {
         "a2" : "download_36",
         "time" : 562.88999994285,
         "id" : "dep28",
         "a1" : "r1_c7"
      },
      {
         "a2" : "download_35",
         "time" : 512.62399996631,
         "id" : "dep29",
         "a1" : "r1_c7"
      },
      {
         "a2" : "download_34",
         "time" : 455.18499985337,
         "id" : "dep30",
         "a1" : "r1_c7"
      },
      {
         "a2" : "download_33",
         "time" : 405.02999979071,
         "id" : "dep31",
         "a1" : "r1_c7"
      },
      {
         "a2" : "download_32",
         "time" : 339.78199982084,
         "id" : "dep32",
         "a1" : "r1_c7"
      },
      {
         "a2" : "download_31",
         "time" : 257.14399991557,
         "id" : "dep33",
         "a1" : "r1_c7"
      },
      {
         "a2" : "download_30",
         "time" : 187.41499981843,
         "id" : "dep34",
         "a1" : "r1_c7"
      },
      {
         "a2" : "download_29",
         "time" : 111.25499987975,
         "id" : "dep35",
         "a1" : "r1_c7"
      },
      {
         "a2" : "download_28",
         "time" : 39.9660000111901,
         "id" : "dep36",
         "a1" : "r1_c7"
      },
      {
         "a2" : "download_27",
         "time" : 1.33199989795708,
         "id" : "dep37",
         "a1" : "r1_c4"
      },
      {
         "a2" : "download_26",
         "time" : -1,
         "id" : "dep38",
         "a1" : "r1_c6"
      },
      {
         "a2" : "download_25",
         "time" : 1.16900005377806,
         "id" : "dep39",
         "a1" : "r1_c4"
      },
      {
         "a2" : "download_24",
         "time" : -1,
         "id" : "dep40",
         "a1" : "r1_c5"
      },
      {
         "a2" : "download_23",
         "time" : 990.213999990373,
         "id" : "dep41",
         "a1" : "r1_c5"
      },
      {
         "a2" : "download_22",
         "time" : 917.556999949743,
         "id" : "dep42",
         "a1" : "r1_c5"
      },
      {
         "a2" : "download_21",
         "time" : 735.375999938693,
         "id" : "dep43",
         "a1" : "r1_c5"
      },
      {
         "a2" : "download_20",
         "time" : 520.473000127823,
         "id" : "dep44",
         "a1" : "r1_c5"
      },
      {
         "a2" : "download_19",
         "time" : 470.020999899133,
         "id" : "dep45",
         "a1" : "r1_c5"
      },
      {
         "a2" : "download_18",
         "time" : 1.001999946311,
         "id" : "dep46",
         "a1" : "r1_c4"
      },
      {
         "a2" : "download_17",
         "time" : 287.006000056863,
         "id" : "dep47",
         "a1" : "r1_c5"
      },
      {
         "a2" : "download_16",
         "time" : 102.945999940857,
         "id" : "dep48",
         "a1" : "r1_c5"
      },
      {
         "a2" : "download_15",
         "time" : 0.166000099852909,
         "id" : "dep49",
         "a1" : "r1_c5"
      },
      {
         "a2" : "download_14",
         "time" : 101.514999987558,
         "id" : "dep50",
         "a1" : "r1_c5"
      },
      {
         "a2" : "download_13",
         "time" : -1,
         "id" : "dep51",
         "a1" : "r1_c4"
      },
      {
         "a2" : "download_12",
         "time" : 31.4619999844581,
         "id" : "dep52",
         "a1" : "r1_c4"
      },
      {
         "a2" : "download_12",
         "time" : 31.4619999844581,
         "id" : "dep53",
         "a1" : "r1_c4"
      },
      {
         "a2" : "download_11",
         "time" : 0.123000005259996,
         "id" : "dep54",
         "a1" : "r1_c4"
      },
      {
         "a2" : "download_10",
         "time" : -1,
         "id" : "dep55",
         "a1" : "r1_c3"
      },
      {
         "a2" : "download_10",
         "time" : 1.00099993869696,
         "id" : "dep56",
         "a1" : "r1_c3"
      },
      {
         "a2" : "download_9",
         "time" : -1,
         "id" : "dep57",
         "a1" : "r1_c3"
      },
      {
         "a2" : "download_8",
         "time" : 1.71600002795401,
         "id" : "dep58",
         "a1" : "r1_c3"
      },
      {
         "a2" : "download_7",
         "time" : -1,
         "id" : "dep59",
         "a1" : "r1_c1"
      },
      {
         "a2" : "download_7",
         "time" : 2.06900015473298,
         "id" : "dep60",
         "a1" : "r1_c1"
      },
      {
         "a2" : "download_6",
         "time" : -1,
         "id" : "dep61",
         "a1" : "r1_c1"
      },
      {
         "a2" : "download_6",
         "time" : 49.771000165492,
         "id" : "dep62",
         "a1" : "r1_c1"
      },
      {
         "a2" : "download_5",
         "time" : 1.87300005927699,
         "id" : "dep63",
         "a1" : "r1_c1"
      },
      {
         "a2" : "download_5",
         "time" : 1.87300005927699,
         "id" : "dep64",
         "a1" : "r1_c1"
      },
      {
         "a2" : "download_4",
         "time" : 1.18800019845298,
         "id" : "dep65",
         "a1" : "r1_c1"
      },
      {
         "a2" : "download_3",
         "time" : 1.73300015740099,
         "id" : "dep66",
         "a1" : "r1_c1"
      },
      {
         "a2" : "download_3",
         "time" : 1.73300015740099,
         "id" : "dep67",
         "a1" : "r1_c1"
      },
      {
         "a2" : "download_2",
         "time" : 1.55600020661899,
         "id" : "dep68",
         "a1" : "r1_c1"
      },
      {
         "a2" : "download_1",
         "time" : 1.380000030622,
         "id" : "dep69",
         "a1" : "r1_c1"
      }
   ]
}
