{
   "n_download_no_trigger" : 1,
   "start_activity" : "download_0",
   "name" : "original.testbed.localhost_www.google.es_",
   "load_activity" : -1,
   "objs" : [
      {
         "when_comp_start" : 1,
         "url" : "http://original.testbed.localhost/www.google.es/",
         "id" : "r1",
         "comps" : [
            {
               "s_time" : 143.127999996068,
               "time" : 381.499999988591,
               "type" : "evalhtml",
               "id" : "r1_c1",
               "e_time" : 524.627999984659
            }
         ],
         "download" : {
            "receiveFirst" : 12,
            "len" : 154526,
            "dns" : 0,
            "dnsEnd" : -1,
            "receiveHeadersEnd" : 17,
            "sslEnd" : -1,
            "connectEnd" : 4,
            "connectStart" : 0,
            "id" : "download_0",
            "receivedTime" : "361.083999974653",
            "sslStart" : -1,
            "dnsStart" : -1,
            "receiveLast" : 344.083999974653,
            "s_time" : 0,
            "sendEnd" : 5,
            "sendStart" : 4,
            "type" : "text/html"
         }
      },
      {
         "when_comp_start" : -1,
         "url" : "http://original.testbed.localhost/www.google.es/images/icons/product/chrome-48.png",
         "id" : "r2",
         "comps" : [],
         "download" : {
            "receiveFirst" : 121,
            "len" : 1834,
            "dns" : 0,
            "dnsEnd" : -1,
            "receiveHeadersEnd" : 128,
            "sslEnd" : -1,
            "connectEnd" : 6,
            "connectStart" : 0,
            "id" : "download_1",
            "receivedTime" : "319.976999977371",
            "sslStart" : -1,
            "dnsStart" : -1,
            "receiveLast" : 191.976999977371,
            "s_time" : 181.014999980107,
            "sendEnd" : 7,
            "sendStart" : 6,
            "type" : "image/png"
         }
      },
      {
         "when_comp_start" : -1,
         "url" : "http://original.testbed.localhost/www.google.es/images/branding/googlelogo/1x/googlelogo_white_background_color_272x92dp.png",
         "id" : "r3",
         "comps" : [],
         "download" : {
            "receiveFirst" : 50,
            "len" : 5482,
            "dns" : 0,
            "dnsEnd" : -1,
            "receiveHeadersEnd" : 136,
            "sslEnd" : -1,
            "connectEnd" : 86,
            "connectStart" : 0,
            "id" : "download_2",
            "receivedTime" : "548.553999979049",
            "sslStart" : -1,
            "dnsStart" : -1,
            "receiveLast" : 412.553999979049,
            "s_time" : 235.580999986269,
            "sendEnd" : 86,
            "sendStart" : 86,
            "type" : "image/png"
         }
      },
      {
         "when_comp_start" : -1,
         "url" : "http://original.testbed.localhost/www.google.es/images/srpr/nav_logo80.png",
         "id" : "r4",
         "comps" : [],
         "download" : {
            "receiveFirst" : 64,
            "len" : 35615,
            "dns" : 0,
            "dnsEnd" : 0,
            "receiveHeadersEnd" : 156,
            "sslEnd" : -1,
            "connectEnd" : 92,
            "connectStart" : 0,
            "id" : "download_3",
            "receivedTime" : "721.282999991672",
            "sslStart" : -1,
            "dnsStart" : 0,
            "receiveLast" : 565.282999991672,
            "s_time" : 264.494999981252,
            "sendEnd" : 92,
            "sendStart" : 92,
            "type" : "image/png"
         }
      },
      {
         "when_comp_start" : 1,
         "url" : "http://original.testbed.localhost/client_204&atyp=i&biw=360&bih=576&ei=EJX4Vez8AoPv-AGUzo2QDQ",
         "id" : "r5",
         "comps" : [],
         "download" : {
            "receiveFirst" : 127,
            "len" : 300,
            "dns" : 0,
            "dnsEnd" : -1,
            "receiveHeadersEnd" : 132,
            "sslEnd" : -1,
            "connectEnd" : 5,
            "connectStart" : 0,
            "id" : "download_4",
            "receivedTime" : "660.248000000138",
            "sslStart" : -1,
            "dnsStart" : -1,
            "receiveLast" : 528.248000000138,
            "s_time" : 520.019999996293,
            "sendEnd" : 5,
            "sendStart" : 5,
            "type" : "text/html"
         }
      }
   ],
   "deps" : [
      {
         "a2" : "download_4",
         "time" : 376.892000000225,
         "id" : "dep1",
         "a1" : "r1_c1"
      },
      {
         "a2" : "download_3",
         "time" : 121.366999985184,
         "id" : "dep2",
         "a1" : "r1_c1"
      },
      {
         "a2" : "download_2",
         "time" : 92.452999990201,
         "id" : "dep3",
         "a1" : "r1_c1"
      },
      {
         "a2" : "download_1",
         "time" : 37.886999984039,
         "id" : "dep4",
         "a1" : "r1_c1"
      }
   ]
}
