{
   "n_download_no_trigger" : 1,
   "start_activity" : "download_0",
   "name" : "original.testbed.localhost_dailycurrant.com_",
   "load_activity" : -1,
   "objs" : [
      {
         "when_comp_start" : 1,
         "url" : "http://original.testbed.localhost/dailycurrant.com/",
         "id" : "r1",
         "comps" : [
            {
               "s_time" : 216.431000008015,
               "time" : 1373.44300000404,
               "id" : "r1_c1",
               "type" : "evalhtml",
               "e_time" : 1589.87400001206
            },
            {
               "s_time" : 1737.06100000709,
               "time" : 2012.98499999393,
               "id" : "r1_c2",
               "type" : "evalhtml",
               "e_time" : 3750.04600000102
            },
            {
               "s_time" : 3991.76100001205,
               "time" : -79698992.02,
               "id" : "r1_c3",
               "type" : "evalhtml",
               "e_time" : -79695000.259
            },
            {
               "s_time" : 4135.40700000885,
               "time" : 129.21099999221,
               "id" : "r1_c4",
               "type" : "evalhtml",
               "e_time" : 4264.61800000106
            },
            {
               "s_time" : 4275.42200000607,
               "time" : -79699275.681,
               "id" : "r1_c5",
               "type" : "evalhtml",
               "e_time" : -79695000.259
            },
            {
               "s_time" : 4283.96600000269,
               "time" : 56.4880000019903,
               "id" : "r1_c6",
               "type" : "evalhtml",
               "e_time" : 4340.45400000468
            },
            {
               "s_time" : 4525.26900000521,
               "time" : -79699525.528,
               "id" : "r1_c7",
               "type" : "evalhtml",
               "e_time" : -79695000.259
            },
            {
               "s_time" : 4563.56900000537,
               "time" : -79699563.828,
               "id" : "r1_c8",
               "type" : "evalhtml",
               "e_time" : -79695000.259
            },
            {
               "s_time" : 4566.59000000218,
               "time" : -79699566.849,
               "id" : "r1_c9",
               "type" : "evalhtml",
               "e_time" : -79695000.259
            },
            {
               "s_time" : 4588.31800000917,
               "time" : -79699588.577,
               "id" : "r1_c10",
               "type" : "evalhtml",
               "e_time" : -79695000.259
            },
            {
               "s_time" : 4604.15700000885,
               "time" : -79699604.416,
               "id" : "r1_c11",
               "type" : "evalhtml",
               "e_time" : -79695000.259
            },
            {
               "s_time" : 4982.60500001197,
               "time" : 0.306000001729444,
               "type" : "evalhtml",
               "id" : "r1_c12",
               "e_time" : 4982.9110000137
            }
         ],
         "download" : {
            "receiveFirst" : 11,
            "len" : 41941,
            "dns" : 0,
            "dnsEnd" : -1,
            "receiveHeadersEnd" : 24,
            "sslEnd" : -1,
            "connectEnd" : 12,
            "connectStart" : 0,
            "id" : "download_0",
            "receivedTime" : "211.27400000114",
            "sslStart" : -1,
            "dnsStart" : -1,
            "receiveLast" : 187.27400000114,
            "s_time" : 0,
            "sendEnd" : 13,
            "sendStart" : 12,
            "type" : "text/html"
         }
      },
      {
         "when_comp_start" : -1,
         "url" : "http://original.testbed.localhost/dailycurrant.com/wp-content/plugins/wp-pro-quiz/css/wpProQuiz_front.min.css%3Fver=0.37.css",
         "id" : "r3",
         "comps" : [
            {
               "s_time" : 393.616000001202,
               "time" : 8.45300000219203,
               "type" : 4,
               "id" : "comp_2",
               "e_time" : 402.069000003394
            }
         ],
         "download" : {
            "receiveFirst" : 58,
            "len" : 10932,
            "dns" : 0,
            "dnsEnd" : -1,
            "receiveHeadersEnd" : 76,
            "sslEnd" : -1,
            "connectEnd" : 18,
            "connectStart" : 0,
            "id" : "download_1",
            "receivedTime" : "391.35800000804",
            "sslStart" : -1,
            "dnsStart" : -1,
            "receiveLast" : 315.35800000804,
            "s_time" : 303.040000013425,
            "sendEnd" : 18,
            "sendStart" : 18,
            "type" : "text/css"
         }
      },
      {
         "when_comp_start" : -1,
         "url" : "http://original.testbed.localhost/dailycurrant.com/wp-content/plugins/wp-to-twitter/css/twitter-feed.css%3Fver=4.2.4.css",
         "id" : "r4",
         "comps" : [
            {
               "s_time" : 403.382000004058,
               "time" : 2.77700000151498,
               "type" : 4,
               "id" : "comp_3",
               "e_time" : 406.159000005573
            }
         ],
         "download" : {
            "receiveFirst" : 55,
            "len" : 1181,
            "dns" : 0,
            "dnsEnd" : -1,
            "receiveHeadersEnd" : 73,
            "sslEnd" : -1,
            "connectEnd" : 18,
            "connectStart" : 0,
            "id" : "download_2",
            "receivedTime" : "402.466000014101",
            "sslStart" : -1,
            "dnsStart" : -1,
            "receiveLast" : 329.466000014101,
            "s_time" : 307.648000001791,
            "sendEnd" : 18,
            "sendStart" : 18,
            "type" : "text/css"
         }
      },
      {
         "when_comp_start" : -1,
         "url" : "http://original.testbed.localhost/ajax.googleapis.com/ajax/libs/jquery/1.6.2/jquery.min.js%3Fver=4.2.4",
         "id" : "r5",
         "comps" : [
            {
               "s_time" : 1517.70100000431,
               "time" : 219.36000000278,
               "type" : 1,
               "id" : "comp_11",
               "e_time" : 1737.06100000709
            }
         ],
         "download" : {
            "receiveFirst" : 36,
            "len" : 91556,
            "dns" : 0,
            "dnsEnd" : 34,
            "receiveHeadersEnd" : 79,
            "sslEnd" : -1,
            "connectEnd" : 43,
            "connectStart" : 0,
            "id" : "download_3",
            "receivedTime" : "1516.38800000364",
            "sslStart" : -1,
            "dnsStart" : 34,
            "receiveLast" : 1437.38800000364,
            "s_time" : 309.357000005548,
            "sendEnd" : 43,
            "sendStart" : 43,
            "type" : "text/plain"
         }
      },
      {
         "when_comp_start" : -1,
         "url" : "http://original.testbed.localhost/fonts.googleapis.com/css%3Ffamily=PT+Serif+Caption:400,400italic.css",
         "id" : "r7",
         "comps" : [
            {
               "s_time" : 574.799000009079,
               "time" : 0.0299999956049533,
               "type" : 4,
               "id" : "comp_6",
               "e_time" : 574.829000004684
            }
         ],
         "download" : {
            "receiveFirst" : 183,
            "len" : 545,
            "dns" : 0,
            "dnsEnd" : -1,
            "receiveHeadersEnd" : 247,
            "sslEnd" : -1,
            "connectEnd" : 64,
            "connectStart" : 0,
            "id" : "download_4",
            "receivedTime" : "574.250000005122",
            "sslStart" : -1,
            "dnsStart" : -1,
            "receiveLast" : 327.250000005122,
            "s_time" : 321.808000007877,
            "sendEnd" : 64,
            "sendStart" : 64,
            "type" : "text/css"
         }
      },
      {
         "when_comp_start" : -1,
         "url" : "http://original.testbed.localhost/fonts.googleapis.com/css%3Ffamily=Istok+Web.css",
         "id" : "r8",
         "comps" : [
            {
               "s_time" : 597.015999999712,
               "time" : 0.0610000133749509,
               "type" : 4,
               "id" : "comp_7",
               "e_time" : 597.077000013087
            }
         ],
         "download" : {
            "receiveFirst" : 200,
            "len" : 256,
            "dns" : 0,
            "dnsEnd" : -1,
            "receiveHeadersEnd" : 263,
            "sslEnd" : -1,
            "connectEnd" : 63,
            "connectStart" : 0,
            "id" : "download_5",
            "receivedTime" : "595.215000008466",
            "sslStart" : -1,
            "dnsStart" : -1,
            "receiveLast" : 332.215000008466,
            "s_time" : 325.989000004483,
            "sendEnd" : 63,
            "sendStart" : 63,
            "type" : "text/css"
         }
      },
      {
         "when_comp_start" : -1,
         "url" : "http://original.testbed.localhost/dailycurrant.com/wp-content/themes/themefit_hybrid/themefit-hybrid/css/themefit.mobilemenu.css%3Fv=1.2.0083.css",
         "id" : "r10",
         "comps" : [
            {
               "s_time" : 732.209000008879,
               "time" : 0.0909999944269657,
               "type" : 4,
               "id" : "comp_8",
               "e_time" : 732.300000003306
            }
         ],
         "download" : {
            "receiveFirst" : 209,
            "len" : 3817,
            "dns" : 0,
            "dnsEnd" : 31,
            "receiveHeadersEnd" : 395,
            "sslEnd" : -1,
            "connectEnd" : 186,
            "connectStart" : 0,
            "id" : "download_6",
            "receivedTime" : "731.354000003194",
            "sslStart" : -1,
            "dnsStart" : 31,
            "receiveLast" : 336.354000003194,
            "s_time" : 328.278000000864,
            "sendEnd" : 186,
            "sendStart" : 186,
            "type" : "text/css"
         }
      },
      {
         "when_comp_start" : -1,
         "url" : "http://original.testbed.localhost/dailycurrant.com/wp-content/themes/themefit_hybrid/themefit-hybrid/style.css%3Fv=1.2.0083.css",
         "id" : "r9",
         "comps" : [
            {
               "s_time" : 800.324000010733,
               "time" : 0.914999996894039,
               "type" : 4,
               "id" : "comp_10",
               "e_time" : 801.239000007627
            }
         ],
         "download" : {
            "receiveFirst" : 227,
            "len" : 42868,
            "dns" : 0,
            "dnsEnd" : 29,
            "receiveHeadersEnd" : 414,
            "sslEnd" : -1,
            "connectEnd" : 187,
            "connectStart" : 0,
            "id" : "download_7",
            "receivedTime" : "799.317000011797",
            "sslStart" : -1,
            "dnsStart" : 29,
            "receiveLast" : 385.317000011797,
            "s_time" : 327.178999999887,
            "sendEnd" : 187,
            "sendStart" : 187,
            "type" : "text/css"
         }
      },
      {
         "when_comp_start" : -1,
         "url" : "http://original.testbed.localhost/ajax.googleapis.com/ajax/libs/jqueryui/1.8.16/jquery-ui.min.js%3Fver=4.2.4",
         "id" : "r6",
         "comps" : [
            {
               "s_time" : 3727.81400001259,
               "time" : 263.94699999946,
               "type" : 1,
               "id" : "comp_17",
               "e_time" : 3991.76100001205
            }
         ],
         "download" : {
            "receiveFirst" : 286,
            "len" : 201875,
            "dns" : 0,
            "dnsEnd" : -1,
            "receiveHeadersEnd" : 541,
            "sslEnd" : -1,
            "connectEnd" : 255,
            "connectStart" : 0,
            "id" : "download_8",
            "receivedTime" : "3726.22700000647",
            "sslStart" : -1,
            "dnsStart" : -1,
            "receiveLast" : 3185.22700000647,
            "s_time" : 319.001000010758,
            "sendEnd" : 255,
            "sendStart" : 255,
            "type" : "text/plain"
         }
      },
      {
         "when_comp_start" : -1,
         "url" : "http://original.testbed.localhost/ap.lijit.com/www/delivery/fpi.js%3Fz=298021&u=dailycurrant&width=728&height=90",
         "id" : "r14",
         "comps" : [
            {
               "s_time" : 4112.97600000398,
               "time" : 22.4310000048708,
               "type" : 1,
               "id" : "comp_25",
               "e_time" : 4135.40700000885
            }
         ],
         "download" : {
            "receiveFirst" : 395,
            "len" : 5416,
            "dns" : 0,
            "dnsEnd" : -1,
            "receiveHeadersEnd" : 656,
            "sslEnd" : -1,
            "connectEnd" : 261,
            "connectStart" : 0,
            "id" : "download_9",
            "receivedTime" : "1030.33500000311",
            "sslStart" : -1,
            "dnsStart" : -1,
            "receiveLast" : 374.335000003106,
            "s_time" : 332.611000005272,
            "sendEnd" : 261,
            "sendStart" : 261,
            "type" : "text/plain"
         }
      },
      {
         "when_comp_start" : -1,
         "url" : "http://original.testbed.localhost/dailycurrant.com/wp-content/uploads/2013/12/littlelogo1.jpg",
         "id" : "r12",
         "comps" : [],
         "download" : {
            "receiveFirst" : 433,
            "len" : 4854,
            "dns" : 0,
            "dnsEnd" : -1,
            "receiveHeadersEnd" : 828,
            "sslEnd" : -1,
            "connectEnd" : 394,
            "connectStart" : 0,
            "id" : "download_10",
            "receivedTime" : "1199.58500000939",
            "sslStart" : -1,
            "dnsStart" : -1,
            "receiveLast" : 371.585000009392,
            "s_time" : 333.420000009937,
            "sendEnd" : 395,
            "sendStart" : 394,
            "type" : "image/jpeg"
         }
      },
      {
         "when_comp_start" : -1,
         "url" : "http://original.testbed.localhost/dailycurrant.com/wp-content/uploads/img/Logo55.jpg",
         "id" : "r13",
         "comps" : [],
         "download" : {
            "receiveFirst" : 328,
            "len" : 9323,
            "dns" : 0,
            "dnsEnd" : -1,
            "receiveHeadersEnd" : 341,
            "sslEnd" : -1,
            "connectEnd" : 13,
            "connectStart" : 0,
            "id" : "download_11",
            "receivedTime" : "1740.9980000084",
            "sslStart" : -1,
            "dnsStart" : -1,
            "receiveLast" : 1399.9980000084,
            "s_time" : 1195.13000000734,
            "sendEnd" : 13,
            "sendStart" : 13,
            "type" : "image/jpeg"
         }
      },
      {
         "when_comp_start" : -1,
         "url" : "http://original.testbed.localhost/dailycurrant.com/wp-content/uploads/2015/09/hillary-257x172.jpg",
         "id" : "r15",
         "comps" : [],
         "download" : {
            "receiveFirst" : 137,
            "len" : 10766,
            "dns" : 0,
            "dnsEnd" : -1,
            "receiveHeadersEnd" : 145,
            "sslEnd" : -1,
            "connectEnd" : 8,
            "connectStart" : 0,
            "id" : "download_12",
            "receivedTime" : "1818.60400000005",
            "sslStart" : -1,
            "dnsStart" : -1,
            "receiveLast" : 1673.60400000005,
            "s_time" : 1589.87400001206,
            "sendEnd" : 8,
            "sendStart" : 8,
            "type" : "image/jpeg"
         }
      },
      {
         "when_comp_start" : 1,
         "url" : "http://original.testbed.localhost/adserver.adtechus.com/addyn%7C3.0%7C10173.1%7C3614317%7C0%7C225%7CADTECH%3Bloc=100%3Btarget=_blank%3Bmisc=[TIMESTAMP]%3Brdclick=.html",
         "id" : "r27",
         "comps" : [
            {
               "s_time" : 4283.38700000313,
               "time" : 0.578999999559528,
               "type" : 1,
               "id" : "comp_43",
               "e_time" : 4283.96600000269
            }
         ],
         "download" : {
            "receiveFirst" : 180,
            "len" : 1,
            "dns" : 0,
            "dnsEnd" : -1,
            "receiveHeadersEnd" : 188,
            "sslEnd" : -1,
            "connectEnd" : 7,
            "connectStart" : 0,
            "id" : "download_13",
            "receivedTime" : "1943.08500000625",
            "sslStart" : -1,
            "dnsStart" : -1,
            "receiveLast" : 1755.08500000625,
            "s_time" : 1746.43000001379,
            "sendEnd" : 8,
            "sendStart" : 7,
            "type" : "text/html"
         }
      },
      {
         "when_comp_start" : -1,
         "url" : "http://original.testbed.localhost/dailycurrant.com/wp-content/uploads/2015/09/kim-davis-ascends-heaven-257x175.jpg",
         "id" : "r16",
         "comps" : [],
         "download" : {
            "receiveFirst" : 117,
            "len" : 12852,
            "dns" : 0,
            "dnsEnd" : -1,
            "receiveHeadersEnd" : 125,
            "sslEnd" : -1,
            "connectEnd" : 8,
            "connectStart" : 0,
            "id" : "download_14",
            "receivedTime" : "2274.3530000007",
            "sslStart" : -1,
            "dnsStart" : -1,
            "receiveLast" : 2149.3530000007,
            "s_time" : 1816.13100001414,
            "sendEnd" : 8,
            "sendStart" : 8,
            "type" : "image/jpeg"
         }
      },
      {
         "when_comp_start" : -1,
         "url" : "http://original.testbed.localhost/dailycurrant.com/wp-content/uploads/2015/09/goodell-257x166.jpg",
         "id" : "r17",
         "comps" : [],
         "download" : {
            "receiveFirst" : 131,
            "len" : 11150,
            "dns" : 0,
            "dnsEnd" : -1,
            "receiveHeadersEnd" : 181,
            "sslEnd" : -1,
            "connectEnd" : 49,
            "connectStart" : 0,
            "id" : "download_15",
            "receivedTime" : "2652.80200001143",
            "sslStart" : -1,
            "dnsStart" : -1,
            "receiveLast" : 2471.80200001143,
            "s_time" : 2265.04500000738,
            "sendEnd" : 50,
            "sendStart" : 49,
            "type" : "image/jpeg"
         }
      },
      {
         "when_comp_start" : -1,
         "url" : "http://original.testbed.localhost/dailycurrant.com/wp-content/uploads/2015/09/palin-native-americans1-257x166.jpg",
         "id" : "r18",
         "comps" : [],
         "download" : {
            "receiveFirst" : 298,
            "len" : 10659,
            "dns" : 0,
            "dnsEnd" : -1,
            "receiveHeadersEnd" : 323,
            "sslEnd" : -1,
            "connectEnd" : 25,
            "connectStart" : 0,
            "id" : "download_16",
            "receivedTime" : "3037.01800000272",
            "sslStart" : -1,
            "dnsStart" : -1,
            "receiveLast" : 2714.01800000272,
            "s_time" : 2646.65200001036,
            "sendEnd" : 25,
            "sendStart" : 25,
            "type" : "image/jpeg"
         }
      },
      {
         "when_comp_start" : -1,
         "url" : "http://original.testbed.localhost/dailycurrant.com/wp-content/uploads/2015/08/Trump-257x161.jpg",
         "id" : "r19",
         "comps" : [],
         "download" : {
            "receiveFirst" : 134,
            "len" : 18541,
            "dns" : 0,
            "dnsEnd" : -1,
            "receiveHeadersEnd" : 143,
            "sslEnd" : -1,
            "connectEnd" : 8,
            "connectStart" : 0,
            "id" : "download_17",
            "receivedTime" : "3478.0890000111",
            "sslStart" : -1,
            "dnsStart" : -1,
            "receiveLast" : 3335.0890000111,
            "s_time" : 3033.02000000258,
            "sendEnd" : 9,
            "sendStart" : 8,
            "type" : "image/jpeg"
         }
      },
      {
         "when_comp_start" : -1,
         "url" : "http://original.testbed.localhost/dailycurrant.com/wp-content/uploads/2014/07/99847538-257x171.jpg",
         "id" : "r20",
         "comps" : [],
         "download" : {
            "receiveFirst" : 111,
            "len" : 13733,
            "dns" : 0,
            "dnsEnd" : -1,
            "receiveHeadersEnd" : 157,
            "sslEnd" : -1,
            "connectEnd" : 46,
            "connectStart" : 0,
            "id" : "download_18",
            "receivedTime" : "4512.26800000586",
            "sslStart" : -1,
            "dnsStart" : -1,
            "receiveLast" : 4355.26800000586,
            "s_time" : 3470.24600001168,
            "sendEnd" : 46,
            "sendStart" : 46,
            "type" : "image/jpeg"
         }
      },
      {
         "when_comp_start" : -1,
         "url" : "http://original.testbed.localhost/dailycurrant.com/wp-content/uploads/2015/08/f_dc_trump_zing_1506161-e1439581086639-257x162.jpg",
         "id" : "r21",
         "comps" : [],
         "download" : {
            "receiveFirst" : 32,
            "len" : 15796,
            "dns" : 0,
            "dnsEnd" : -1,
            "receiveHeadersEnd" : 124,
            "sslEnd" : -1,
            "connectEnd" : 92,
            "connectStart" : 0,
            "id" : "download_19",
            "receivedTime" : "4357.60500001197",
            "sslStart" : -1,
            "dnsStart" : -1,
            "receiveLast" : 4233.60500001197,
            "s_time" : 3716.08000001288,
            "sendEnd" : 92,
            "sendStart" : 92,
            "type" : "image/jpeg"
         }
      },
      {
         "when_comp_start" : -1,
         "url" : "http://original.testbed.localhost/dailycurrant.com/wp-content/uploads/2015/08/Ratricce-257x157.jpg",
         "id" : "r22",
         "comps" : [],
         "download" : {
            "receiveFirst" : 101,
            "len" : 12479,
            "dns" : 0,
            "dnsEnd" : -1,
            "receiveHeadersEnd" : 194,
            "sslEnd" : -1,
            "connectEnd" : 93,
            "connectStart" : 0,
            "id" : "download_20",
            "receivedTime" : "4207.30600001116",
            "sslStart" : -1,
            "dnsStart" : -1,
            "receiveLast" : 4013.30600001116,
            "s_time" : 3718.75,
            "sendEnd" : 93,
            "sendStart" : 93,
            "type" : "image/jpeg"
         }
      },
      {
         "when_comp_start" : -1,
         "url" : "http://original.testbed.localhost/dailycurrant.com/wp-content/uploads/2015/08/f_dc_trump_zing_150616-e1439391146140-257x165.jpg",
         "id" : "r23",
         "comps" : [],
         "download" : {
            "receiveFirst" : 221,
            "len" : 15846,
            "dns" : 0,
            "dnsEnd" : -1,
            "receiveHeadersEnd" : 309,
            "sslEnd" : -1,
            "connectEnd" : 88,
            "connectStart" : 0,
            "id" : "download_21",
            "receivedTime" : "4504.05900001351",
            "sslStart" : -1,
            "dnsStart" : -1,
            "receiveLast" : 4195.05900001351,
            "s_time" : 3729.03400000359,
            "sendEnd" : 88,
            "sendStart" : 88,
            "type" : "image/jpeg"
         }
      },
      {
         "when_comp_start" : -1,
         "url" : "http://original.testbed.localhost/dailycurrant.com/wp-content/uploads/2015/08/astronaut-tinder-257x170.jpg",
         "id" : "r24",
         "comps" : [],
         "download" : {
            "receiveFirst" : 339,
            "len" : 11561,
            "dns" : 0,
            "dnsEnd" : -1,
            "receiveHeadersEnd" : 433,
            "sslEnd" : -1,
            "connectEnd" : 94,
            "connectStart" : 0,
            "id" : "download_22",
            "receivedTime" : "4331.72600000398",
            "sslStart" : -1,
            "dnsStart" : -1,
            "receiveLast" : 3898.72600000398,
            "s_time" : 3732.9410000093,
            "sendEnd" : 94,
            "sendStart" : 94,
            "type" : "image/jpeg"
         }
      },
      {
         "when_comp_start" : -1,
         "url" : "http://original.testbed.localhost/dailycurrant.com/wp-content/uploads/2015/08/ThinkstockPhotos-153494454-e1438964452850-257x163.jpg",
         "id" : "r25",
         "comps" : [],
         "download" : {
            "receiveFirst" : 428,
            "len" : 8897,
            "dns" : 0,
            "dnsEnd" : -1,
            "receiveHeadersEnd" : 522,
            "sslEnd" : -1,
            "connectEnd" : 94,
            "connectStart" : 0,
            "id" : "download_23",
            "receivedTime" : "4343.4760000091",
            "sslStart" : -1,
            "dnsStart" : -1,
            "receiveLast" : 3821.4760000091,
            "s_time" : 3736.37400000007,
            "sendEnd" : 94,
            "sendStart" : 94,
            "type" : "image/jpeg"
         }
      },
      {
         "when_comp_start" : -1,
         "url" : "http://original.testbed.localhost/dailycurrant.com/wp-content/uploads/2015/08/ThinkstockPhotos-2927783-257x174.jpg",
         "id" : "r26",
         "comps" : [],
         "download" : {
            "receiveFirst" : 348,
            "len" : 19799,
            "dns" : 0,
            "dnsEnd" : -1,
            "receiveHeadersEnd" : 607,
            "sslEnd" : -1,
            "connectEnd" : 259,
            "connectStart" : 0,
            "id" : "download_24",
            "receivedTime" : "4565.09400000505",
            "sslStart" : -1,
            "dnsStart" : -1,
            "receiveLast" : 3958.09400000505,
            "s_time" : 3750.04600000102,
            "sendEnd" : 259,
            "sendStart" : 259,
            "type" : "image/jpeg"
         }
      },
      {
         "when_comp_start" : -1,
         "url" : "http://original.testbed.localhost/s7.addthis.com/js/300/addthis_widget.js#pubid=ra-54346b364ea20d24",
         "id" : "r56",
         "comps" : [],
         "download" : {
            "receiveFirst" : 66,
            "len" : 257149,
            "dns" : 0,
            "dnsEnd" : -1,
            "receiveHeadersEnd" : 322,
            "sslEnd" : -1,
            "connectEnd" : 255,
            "connectStart" : 0,
            "id" : "download_25",
            "receivedTime" : "5689.20900000376",
            "sslStart" : -1,
            "dnsStart" : -1,
            "receiveLast" : 5367.20900000376,
            "s_time" : 4264.61800000106,
            "sendEnd" : 256,
            "sendStart" : 255,
            "type" : "application/javascript"
         }
      },
      {
         "when_comp_start" : -1,
         "url" : "http://original.testbed.localhost/dailycurrant.com/wp-content/plugins/disqus-comment-system/media/js/count.js%3Fver=4.2.4",
         "id" : "r55",
         "comps" : [
            {
               "s_time" : 4599.09100001096,
               "time" : 5.06599999789069,
               "type" : 1,
               "id" : "comp_64",
               "e_time" : 4604.15700000885
            }
         ],
         "download" : {
            "receiveFirst" : 70,
            "len" : 669,
            "dns" : 0,
            "dnsEnd" : -1,
            "receiveHeadersEnd" : 316,
            "sslEnd" : -1,
            "connectEnd" : 246,
            "connectStart" : 0,
            "id" : "download_26",
            "receivedTime" : "4598.542000007",
            "sslStart" : -1,
            "dnsStart" : -1,
            "receiveLast" : 4282.542000007,
            "s_time" : 4263.97700000962,
            "sendEnd" : 246,
            "sendStart" : 246,
            "type" : "text/plain"
         }
      },
      {
         "when_comp_start" : -1,
         "url" : "http://original.testbed.localhost/dailycurrant.com/fonts/Montserrat-Light-webfont.woff",
         "id" : "r33",
         "comps" : [],
         "download" : {
            "receiveFirst" : 157,
            "len" : 24516,
            "dns" : 0,
            "dnsEnd" : -1,
            "receiveHeadersEnd" : 411,
            "sslEnd" : -1,
            "connectEnd" : 253,
            "connectStart" : 0,
            "id" : "download_27",
            "receivedTime" : "5477.4480000051",
            "sslStart" : -1,
            "dnsStart" : -1,
            "receiveLast" : 5066.4480000051,
            "s_time" : 4296.05200000515,
            "sendEnd" : 254,
            "sendStart" : 253,
            "type" : "application/octet-stream"
         }
      },
      {
         "when_comp_start" : -1,
         "url" : "http://original.testbed.localhost/cdn.taboolasyndication.com/libtrc/dailycurrant/loader.js",
         "id" : "r57",
         "comps" : [
            {
               "s_time" : 4914.12400000263,
               "time" : 68.4810000093403,
               "type" : 1,
               "id" : "comp_72",
               "e_time" : 4982.60500001197
            }
         ],
         "download" : {
            "receiveFirst" : 236,
            "len" : 141905,
            "dns" : 0,
            "dnsEnd" : -1,
            "receiveHeadersEnd" : 450,
            "sslEnd" : -1,
            "connectEnd" : 214,
            "connectStart" : 0,
            "id" : "download_28",
            "receivedTime" : "4913.57500001322",
            "sslStart" : -1,
            "dnsStart" : -1,
            "receiveLast" : 4463.57500001322,
            "s_time" : 4340.45400000468,
            "sendEnd" : 214,
            "sendStart" : 214,
            "type" : "application/javascript"
         }
      },
      {
         "when_comp_start" : -1,
         "url" : "http://original.testbed.localhost/dailycurrant.com/wp-content/uploads/2012/04/thelogo.png",
         "id" : "r50",
         "comps" : [],
         "download" : {
            "receiveFirst" : 326,
            "len" : 2731,
            "dns" : 0,
            "dnsEnd" : -1,
            "receiveHeadersEnd" : 707,
            "sslEnd" : -1,
            "connectEnd" : 380,
            "connectStart" : 0,
            "id" : "download_29",
            "receivedTime" : "5017.36500000698",
            "sslStart" : -1,
            "dnsStart" : -1,
            "receiveLast" : 4310.36500000698,
            "s_time" : 4206.95500000147,
            "sendEnd" : 381,
            "sendStart" : 380,
            "type" : "image/png"
         }
      }
   ],
   "deps" : [
      {
         "a2" : "r1_c2",
         "time" : -1,
         "id" : "dep1",
         "a1" : "comp_11"
      },
      {
         "a2" : "r1_c3",
         "time" : -1,
         "id" : "dep2",
         "a1" : "comp_17"
      },
      {
         "a2" : "r1_c4",
         "time" : -1,
         "id" : "dep3",
         "a1" : "comp_25"
      },
      {
         "a2" : "r1_c5",
         "time" : -1,
         "id" : "dep4",
         "a1" : "comp_42"
      },
      {
         "a2" : "r1_c6",
         "time" : -1,
         "id" : "dep5",
         "a1" : "comp_43"
      },
      {
         "a2" : "r1_c7",
         "time" : -1,
         "id" : "dep6",
         "a1" : "comp_54"
      },
      {
         "a2" : "r1_c8",
         "time" : -1,
         "id" : "dep7",
         "a1" : "comp_56"
      },
      {
         "a2" : "r1_c9",
         "time" : -1,
         "id" : "dep8",
         "a1" : "comp_58"
      },
      {
         "a2" : "r1_c10",
         "time" : -1,
         "id" : "dep9",
         "a1" : "comp_61"
      },
      {
         "a2" : "r1_c11",
         "time" : -1,
         "id" : "dep10",
         "a1" : "comp_64"
      },
      {
         "a2" : "r1_c12",
         "time" : -1,
         "id" : "dep11",
         "a1" : "comp_72"
      },
      {
         "a2" : "comp_11",
         "time" : -1,
         "id" : "dep12",
         "a1" : "comp_2"
      },
      {
         "a2" : "comp_11",
         "time" : -1,
         "id" : "dep13",
         "a1" : "comp_3"
      },
      {
         "a2" : "comp_17",
         "time" : -1,
         "id" : "dep14",
         "a1" : "comp_11"
      },
      {
         "a2" : "comp_43",
         "time" : -1,
         "id" : "dep15",
         "a1" : "comp_42"
      },
      {
         "a2" : "download_29",
         "time" : -1,
         "id" : "dep16",
         "a1" : "r1_c4"
      },
      {
         "a2" : "download_29",
         "time" : 71.5479999926192,
         "id" : "dep17",
         "a1" : "r1_c4"
      },
      {
         "a2" : "download_28",
         "time" : -1,
         "id" : "dep18",
         "a1" : "r1_c6"
      },
      {
         "a2" : "download_28",
         "time" : 56.4880000019903,
         "id" : "dep19",
         "a1" : "r1_c6"
      },
      {
         "a2" : "download_27",
         "time" : 12.0860000024604,
         "id" : "dep20",
         "a1" : "r1_c6"
      },
      {
         "a2" : "download_26",
         "time" : -1,
         "id" : "dep21",
         "a1" : "r1_c4"
      },
      {
         "a2" : "download_26",
         "time" : 128.570000000769,
         "id" : "dep22",
         "a1" : "r1_c4"
      },
      {
         "a2" : "download_25",
         "time" : -1,
         "id" : "dep23",
         "a1" : "r1_c4"
      },
      {
         "a2" : "download_25",
         "time" : 129.21099999221,
         "id" : "dep24",
         "a1" : "r1_c4"
      },
      {
         "a2" : "download_24",
         "time" : -1,
         "id" : "dep25",
         "a1" : "r1_c2"
      },
      {
         "a2" : "download_23",
         "time" : 1999.31299999298,
         "id" : "dep26",
         "a1" : "r1_c2"
      },
      {
         "a2" : "download_22",
         "time" : 1995.88000000221,
         "id" : "dep27",
         "a1" : "r1_c2"
      },
      {
         "a2" : "download_21",
         "time" : 1991.9729999965,
         "id" : "dep28",
         "a1" : "r1_c2"
      },
      {
         "a2" : "download_20",
         "time" : 1981.68899999291,
         "id" : "dep29",
         "a1" : "r1_c2"
      },
      {
         "a2" : "download_19",
         "time" : 1979.01900000579,
         "id" : "dep30",
         "a1" : "r1_c2"
      },
      {
         "a2" : "download_18",
         "time" : 1733.18500000459,
         "id" : "dep31",
         "a1" : "r1_c2"
      },
      {
         "a2" : "download_17",
         "time" : 1295.95899999549,
         "id" : "dep32",
         "a1" : "r1_c2"
      },
      {
         "a2" : "download_16",
         "time" : 909.59100000327,
         "id" : "dep33",
         "a1" : "r1_c2"
      },
      {
         "a2" : "download_15",
         "time" : 527.98400000029,
         "id" : "dep34",
         "a1" : "r1_c2"
      },
      {
         "a2" : "download_14",
         "time" : 79.0700000070501,
         "id" : "dep35",
         "a1" : "r1_c2"
      },
      {
         "a2" : "download_13",
         "time" : 9.36900000670016,
         "id" : "dep36",
         "a1" : "r1_c2"
      },
      {
         "a2" : "download_13",
         "time" : 9.36900000670016,
         "id" : "dep37",
         "a1" : "r1_c2"
      },
      {
         "a2" : "download_12",
         "time" : -1,
         "id" : "dep38",
         "a1" : "r1_c1"
      },
      {
         "a2" : "download_11",
         "time" : 978.698999999325,
         "id" : "dep39",
         "a1" : "r1_c1"
      },
      {
         "a2" : "download_10",
         "time" : 116.989000001922,
         "id" : "dep40",
         "a1" : "r1_c1"
      },
      {
         "a2" : "download_9",
         "time" : 116.179999997257,
         "id" : "dep41",
         "a1" : "r1_c1"
      },
      {
         "a2" : "download_9",
         "time" : 116.179999997257,
         "id" : "dep42",
         "a1" : "r1_c1"
      },
      {
         "a2" : "download_8",
         "time" : 102.570000002743,
         "id" : "dep43",
         "a1" : "r1_c1"
      },
      {
         "a2" : "download_8",
         "time" : 102.570000002743,
         "id" : "dep44",
         "a1" : "r1_c1"
      },
      {
         "a2" : "download_7",
         "time" : 110.747999991872,
         "id" : "dep45",
         "a1" : "r1_c1"
      },
      {
         "a2" : "download_7",
         "time" : 110.747999991872,
         "id" : "dep46",
         "a1" : "r1_c1"
      },
      {
         "a2" : "download_6",
         "time" : 111.846999992849,
         "id" : "dep47",
         "a1" : "r1_c1"
      },
      {
         "a2" : "download_6",
         "time" : 111.846999992849,
         "id" : "dep48",
         "a1" : "r1_c1"
      },
      {
         "a2" : "download_5",
         "time" : 109.557999996468,
         "id" : "dep49",
         "a1" : "r1_c1"
      },
      {
         "a2" : "download_5",
         "time" : 109.557999996468,
         "id" : "dep50",
         "a1" : "r1_c1"
      },
      {
         "a2" : "download_4",
         "time" : 105.376999999862,
         "id" : "dep51",
         "a1" : "r1_c1"
      },
      {
         "a2" : "download_4",
         "time" : 105.376999999862,
         "id" : "dep52",
         "a1" : "r1_c1"
      },
      {
         "a2" : "download_3",
         "time" : 92.925999997533,
         "id" : "dep53",
         "a1" : "r1_c1"
      },
      {
         "a2" : "download_2",
         "time" : 91.216999993776,
         "id" : "dep54",
         "a1" : "r1_c1"
      },
      {
         "a2" : "download_1",
         "time" : 86.60900000541,
         "id" : "dep55",
         "a1" : "r1_c1"
      }
   ]
}
