{
   "n_download_no_trigger" : 1,
   "start_activity" : "download_0",
   "name" : "original.testbed.localhost_www.halklarindemokratikkongresi.net_",
   "load_activity" : -1,
   "objs" : [
      {
         "when_comp_start" : 1,
         "url" : "http://original.testbed.localhost/www.halklarindemokratikkongresi.net/",
         "id" : "r1",
         "comps" : [
            {
               "s_time" : 22.9019999969751,
               "time" : 34.0219999779947,
               "id" : "r1_c1",
               "type" : "evalhtml",
               "e_time" : 56.9239999749698
            },
            {
               "s_time" : 709.574999986216,
               "time" : 178.157999995165,
               "id" : "r1_c2",
               "type" : "evalhtml",
               "e_time" : 887.732999981381
            },
            {
               "s_time" : 889.915999956429,
               "time" : 5.52700000116602,
               "id" : "r1_c3",
               "type" : "evalhtml",
               "e_time" : 895.442999957595
            },
            {
               "s_time" : 902.008000004571,
               "time" : 6390.81899996381,
               "type" : "evalhtml",
               "id" : "r1_c4",
               "e_time" : 7292.82699996838
            }
         ],
         "download" : {
            "receiveFirst" : 6,
            "len" : 46546,
            "dns" : 0,
            "dnsEnd" : -1,
            "receiveHeadersEnd" : 6,
            "sslEnd" : -1,
            "connectEnd" : 0,
            "connectStart" : 0,
            "id" : "download_0",
            "receivedTime" : "56.3860000111163",
            "sslStart" : -1,
            "dnsStart" : -1,
            "receiveLast" : 50.3860000111163,
            "s_time" : 0,
            "sendEnd" : 0,
            "sendStart" : 0,
            "type" : "text/html"
         }
      },
      {
         "when_comp_start" : -1,
         "url" : "http://original.testbed.localhost/www.halklarindemokratikkongresi.net/lib/css/style.css",
         "id" : "r2",
         "comps" : [
            {
               "s_time" : 217.989999975543,
               "time" : 1.43400003435102,
               "type" : 4,
               "id" : "comp_5",
               "e_time" : 219.424000009894
            }
         ],
         "download" : {
            "receiveFirst" : 95,
            "len" : 16069,
            "dns" : 0,
            "dnsEnd" : -1,
            "receiveHeadersEnd" : 97,
            "sslEnd" : -1,
            "connectEnd" : 2,
            "connectStart" : 0,
            "id" : "download_1",
            "receivedTime" : "217.903999960981",
            "sslStart" : -1,
            "dnsStart" : -1,
            "receiveLast" : 120.903999960981,
            "s_time" : 23.444999998901,
            "sendEnd" : 2,
            "sendStart" : 2,
            "type" : "text/css"
         }
      },
      {
         "when_comp_start" : -1,
         "url" : "http://original.testbed.localhost/www.halklarindemokratikkongresi.net/lib/css/layout.css",
         "id" : "r3",
         "comps" : [
            {
               "s_time" : 222.641000000294,
               "time" : 2.81799997901598,
               "type" : 4,
               "id" : "comp_9",
               "e_time" : 225.45899997931
            }
         ],
         "download" : {
            "receiveFirst" : 112,
            "len" : 49041,
            "dns" : 0,
            "dnsEnd" : -1,
            "receiveHeadersEnd" : 114,
            "sslEnd" : -1,
            "connectEnd" : 2,
            "connectStart" : 0,
            "id" : "download_2",
            "receivedTime" : "222.594999999274",
            "sslStart" : -1,
            "dnsStart" : -1,
            "receiveLast" : 108.594999999274,
            "s_time" : 23.6709999735467,
            "sendEnd" : 2,
            "sendStart" : 2,
            "type" : "text/css"
         }
      },
      {
         "when_comp_start" : -1,
         "url" : "http://original.testbed.localhost/www.halklarindemokratikkongresi.net/lib/css/awesome.css",
         "id" : "r4",
         "comps" : [
            {
               "s_time" : 219.603999983519,
               "time" : 1.707000017632,
               "type" : 4,
               "id" : "comp_6",
               "e_time" : 221.311000001151
            }
         ],
         "download" : {
            "receiveFirst" : 145,
            "len" : 22539,
            "dns" : 0,
            "dnsEnd" : -1,
            "receiveHeadersEnd" : 147,
            "sslEnd" : -1,
            "connectEnd" : 2,
            "connectStart" : 0,
            "id" : "download_3",
            "receivedTime" : "219.538000004832",
            "sslStart" : -1,
            "dnsStart" : -1,
            "receiveLast" : 72.5380000048317,
            "s_time" : 23.7409999826923,
            "sendEnd" : 2,
            "sendStart" : 2,
            "type" : "text/css"
         }
      },
      {
         "when_comp_start" : -1,
         "url" : "http://original.testbed.localhost/www.halklarindemokratikkongresi.net/lib/css/lightbox.css",
         "id" : "r5",
         "comps" : [
            {
               "s_time" : 221.381000010297,
               "time" : 0.631999981124011,
               "type" : 4,
               "id" : "comp_7",
               "e_time" : 222.012999991421
            }
         ],
         "download" : {
            "receiveFirst" : 165,
            "len" : 7545,
            "dns" : 0,
            "dnsEnd" : -1,
            "receiveHeadersEnd" : 167,
            "sslEnd" : -1,
            "connectEnd" : 2,
            "connectStart" : 0,
            "id" : "download_4",
            "receivedTime" : "221.339999989141",
            "sslStart" : -1,
            "dnsStart" : -1,
            "receiveLast" : 54.3399999891408,
            "s_time" : 23.8440000102855,
            "sendEnd" : 2,
            "sendStart" : 2,
            "type" : "text/css"
         }
      },
      {
         "when_comp_start" : -1,
         "url" : "http://original.testbed.localhost/www.halklarindemokratikkongresi.net/lib/css/grid.css",
         "id" : "r6",
         "comps" : [
            {
               "s_time" : 222.208999970462,
               "time" : 0.362000020686992,
               "type" : 4,
               "id" : "comp_8",
               "e_time" : 222.570999991149
            }
         ],
         "download" : {
            "receiveFirst" : 144,
            "len" : 8052,
            "dns" : 0,
            "dnsEnd" : -1,
            "receiveHeadersEnd" : 177,
            "sslEnd" : -1,
            "connectEnd" : 33,
            "connectStart" : 0,
            "id" : "download_5",
            "receivedTime" : "222.163999977056",
            "sslStart" : -1,
            "dnsStart" : -1,
            "receiveLast" : 45.1639999770559,
            "s_time" : 23.9740000106394,
            "sendEnd" : 33,
            "sendStart" : 33,
            "type" : "text/css"
         }
      },
      {
         "when_comp_start" : -1,
         "url" : "http://original.testbed.localhost/www.halklarindemokratikkongresi.net/lib/css/colors.css",
         "id" : "r7",
         "comps" : [
            {
               "s_time" : 252.682999998797,
               "time" : 0.0789999612600241,
               "type" : 4,
               "id" : "comp_10",
               "e_time" : 252.761999960057
            }
         ],
         "download" : {
            "receiveFirst" : 129,
            "len" : 828,
            "dns" : 0,
            "dnsEnd" : 1,
            "receiveHeadersEnd" : 224,
            "sslEnd" : -1,
            "connectEnd" : 95,
            "connectStart" : 0,
            "id" : "download_6",
            "receivedTime" : "252.603999979328",
            "sslStart" : -1,
            "dnsStart" : 1,
            "receiveLast" : 28.6039999793284,
            "s_time" : 24.1239999886602,
            "sendEnd" : 95,
            "sendStart" : 95,
            "type" : "text/css"
         }
      },
      {
         "when_comp_start" : -1,
         "url" : "http://original.testbed.localhost/www.halklarindemokratikkongresi.net/lib/css/backgrounds.css",
         "id" : "r8",
         "comps" : [
            {
               "s_time" : 313.285999989603,
               "time" : 0.0599999912079738,
               "type" : 4,
               "id" : "comp_11",
               "e_time" : 313.345999980811
            }
         ],
         "download" : {
            "receiveFirst" : 93,
            "len" : 807,
            "dns" : 0,
            "dnsEnd" : -1,
            "receiveHeadersEnd" : 288,
            "sslEnd" : -1,
            "connectEnd" : 195,
            "connectStart" : 0,
            "id" : "download_7",
            "receivedTime" : "313.077999977395",
            "sslStart" : -1,
            "dnsStart" : -1,
            "receiveLast" : 25.0779999773949,
            "s_time" : 24.2429999634624,
            "sendEnd" : 195,
            "sendStart" : 195,
            "type" : "text/css"
         }
      },
      {
         "when_comp_start" : -1,
         "url" : "http://original.testbed.localhost/fonts.googleapis.com/css%3Ffamily=Roboto+Slab:400,700&subset=latin,latin-ext.css",
         "id" : "r10",
         "comps" : [
            {
               "s_time" : 315.319999994244,
               "time" : 0.108000007458031,
               "type" : 4,
               "id" : "comp_12",
               "e_time" : 315.428000001702
            }
         ],
         "download" : {
            "receiveFirst" : 95,
            "len" : 520,
            "dns" : 0,
            "dnsEnd" : -1,
            "receiveHeadersEnd" : 289,
            "sslEnd" : -1,
            "connectEnd" : 194,
            "connectStart" : 0,
            "id" : "download_8",
            "receivedTime" : "315.186999971047",
            "sslStart" : -1,
            "dnsStart" : -1,
            "receiveLast" : 26.186999971047,
            "s_time" : 24.5359999826178,
            "sendEnd" : 194,
            "sendStart" : 194,
            "type" : "text/css"
         }
      },
      {
         "when_comp_start" : -1,
         "url" : "http://original.testbed.localhost/www.halklarindemokratikkongresi.net/lib/css/fonts.css",
         "id" : "r9",
         "comps" : [
            {
               "s_time" : 318.18599998951,
               "time" : 6.16900000022702,
               "type" : 4,
               "id" : "comp_13",
               "e_time" : 324.354999989737
            }
         ],
         "download" : {
            "receiveFirst" : 97,
            "len" : 926,
            "dns" : 0,
            "dnsEnd" : -1,
            "receiveHeadersEnd" : 292,
            "sslEnd" : -1,
            "connectEnd" : 195,
            "connectStart" : 0,
            "id" : "download_9",
            "receivedTime" : "318.031999981031",
            "sslStart" : -1,
            "dnsStart" : -1,
            "receiveLast" : 26.0319999810308,
            "s_time" : 24.3739999714307,
            "sendEnd" : 195,
            "sendStart" : 195,
            "type" : "text/css"
         }
      },
      {
         "when_comp_start" : -1,
         "url" : "http://original.testbed.localhost/www.halklarindemokratikkongresi.net/fancybox/jquery.fancybox.css%3Fv=2.1.4.css",
         "id" : "r13",
         "comps" : [
            {
               "s_time" : 326.962999999523,
               "time" : 0.0119999749589965,
               "type" : 4,
               "id" : "comp_14",
               "e_time" : 326.974999974482
            }
         ],
         "download" : {
            "receiveFirst" : 101,
            "len" : 4296,
            "dns" : 0,
            "dnsEnd" : -1,
            "receiveHeadersEnd" : 295,
            "sslEnd" : -1,
            "connectEnd" : 194,
            "connectStart" : 0,
            "id" : "download_10",
            "receivedTime" : "326.847999996971",
            "sslStart" : -1,
            "dnsStart" : -1,
            "receiveLast" : 31.8479999969713,
            "s_time" : 24.929000006523,
            "sendEnd" : 194,
            "sendStart" : 194,
            "type" : "text/css"
         }
      },
      {
         "when_comp_start" : -1,
         "url" : "http://original.testbed.localhost/ajax.googleapis.com/ajax/libs/jquery/1.10.2/jquery.min.js",
         "id" : "r11",
         "comps" : [
            {
               "s_time" : 678.580000007059,
               "time" : 30.994999979157,
               "type" : 1,
               "id" : "comp_16",
               "e_time" : 709.574999986216
            }
         ],
         "download" : {
            "receiveFirst" : 108,
            "len" : 93100,
            "dns" : 0,
            "dnsEnd" : -1,
            "receiveHeadersEnd" : 302,
            "sslEnd" : -1,
            "connectEnd" : 194,
            "connectStart" : 0,
            "id" : "download_11",
            "receivedTime" : "678.469999984372",
            "sslStart" : -1,
            "dnsStart" : -1,
            "receiveLast" : 376.469999984372,
            "s_time" : 24.6649999753572,
            "sendEnd" : 194,
            "sendStart" : 194,
            "type" : "application/javascript"
         }
      },
      {
         "when_comp_start" : -1,
         "url" : "http://original.testbed.localhost/www.halklarindemokratikkongresi.net/fancybox/jquery.fancybox.js%3Fv=2.1.4",
         "id" : "r12",
         "comps" : [
            {
               "s_time" : 884.913999994751,
               "time" : 5.00199996167805,
               "type" : 1,
               "id" : "comp_18",
               "e_time" : 889.915999956429
            }
         ],
         "download" : {
            "receiveFirst" : 140,
            "len" : 47760,
            "dns" : 0,
            "dnsEnd" : -1,
            "receiveHeadersEnd" : 363,
            "sslEnd" : -1,
            "connectEnd" : 223,
            "connectStart" : 0,
            "id" : "download_12",
            "receivedTime" : "884.799999999814",
            "sslStart" : -1,
            "dnsStart" : -1,
            "receiveLast" : 521.799999999814,
            "s_time" : 24.8049999936484,
            "sendEnd" : 223,
            "sendStart" : 223,
            "type" : "text/plain"
         }
      },
      {
         "when_comp_start" : -1,
         "url" : "http://original.testbed.localhost/apis.google.com/js/platform.js",
         "id" : "r27",
         "comps" : [
            {
               "s_time" : 914.553000009619,
               "time" : 14.022999966982,
               "type" : 3,
               "id" : "comp_28",
               "e_time" : 928.575999976601
            }
         ],
         "download" : {
            "receiveFirst" : 150,
            "len" : 37342,
            "dns" : 0,
            "dnsEnd" : -1,
            "receiveHeadersEnd" : 406,
            "sslEnd" : -1,
            "connectEnd" : 256,
            "connectStart" : 0,
            "id" : "download_13",
            "receivedTime" : "805.065999971703",
            "sslStart" : -1,
            "dnsStart" : -1,
            "receiveLast" : 399.065999971703,
            "s_time" : 56.7750000045635,
            "sendEnd" : 256,
            "sendStart" : 256,
            "type" : "application/javascript"
         }
      },
      {
         "when_comp_start" : -1,
         "url" : "http://original.testbed.localhost/www.halklarindemokratikkongresi.net/img/logo.png",
         "id" : "r14",
         "comps" : [],
         "download" : {
            "receiveFirst" : 206,
            "len" : 10908,
            "dns" : 0,
            "dnsEnd" : -1,
            "receiveHeadersEnd" : 485,
            "sslEnd" : -1,
            "connectEnd" : 278,
            "connectStart" : 0,
            "id" : "download_14",
            "receivedTime" : "824.789999984205",
            "sslStart" : -1,
            "dnsStart" : -1,
            "receiveLast" : 339.789999984205,
            "s_time" : 39.1400000080466,
            "sendEnd" : 279,
            "sendStart" : 278,
            "type" : "image/png"
         }
      },
      {
         "when_comp_start" : -1,
         "url" : "http://original.testbed.localhost/www.halklarindemokratikkongresi.net/lib/js/jquery.custom.js",
         "id" : "r28",
         "comps" : [
            {
               "s_time" : 895.565999962855,
               "time" : 6.44200004171603,
               "type" : 1,
               "id" : "comp_23",
               "e_time" : 902.008000004571
            }
         ],
         "download" : {
            "receiveFirst" : 246,
            "len" : 67794,
            "dns" : 0,
            "dnsEnd" : -1,
            "receiveHeadersEnd" : 504,
            "sslEnd" : -1,
            "connectEnd" : 258,
            "connectStart" : 0,
            "id" : "download_15",
            "receivedTime" : "865.372999978717",
            "sslStart" : -1,
            "dnsStart" : -1,
            "receiveLast" : 361.372999978717,
            "s_time" : 56.9239999749698,
            "sendEnd" : 258,
            "sendStart" : 258,
            "type" : "application/javascript"
         }
      },
      {
         "when_comp_start" : 1,
         "url" : "http://original.testbed.localhost/ajax.googleapis.com/ajax/libs/jquery/1.10.2/jquery.min.map",
         "id" : "r34",
         "comps" : [],
         "download" : {
            "receiveFirst" : 175,
            "len" : 348,
            "dns" : 0,
            "dnsEnd" : -1,
            "receiveHeadersEnd" : 175,
            "sslEnd" : -1,
            "connectEnd" : 0,
            "connectStart" : 0,
            "id" : "download_16",
            "receivedTime" : "928.882999985944",
            "sslStart" : -1,
            "dnsStart" : -1,
            "receiveLast" : 753.882999985944,
            "s_time" : 710.167000012007,
            "sendEnd" : 0,
            "sendStart" : 0,
            "type" : "text/html"
         }
      },
      {
         "when_comp_start" : -1,
         "url" : "http://original.testbed.localhost/www.halklarindemokratikkongresi.net/img/hdkdiyorki.png",
         "id" : "r15",
         "comps" : [],
         "download" : {
            "receiveFirst" : 68,
            "len" : 11018,
            "dns" : 0,
            "dnsEnd" : -1,
            "receiveHeadersEnd" : 68,
            "sslEnd" : -1,
            "connectEnd" : 0,
            "connectStart" : 0,
            "id" : "download_17",
            "receivedTime" : "1032.8439999721",
            "sslStart" : -1,
            "dnsStart" : -1,
            "receiveLast" : 964.843999972101,
            "s_time" : 824.739000003319,
            "sendEnd" : 0,
            "sendStart" : 0,
            "type" : "image/png"
         }
      },
      {
         "when_comp_start" : -1,
         "url" : "http://original.testbed.localhost/www.halklarindemokratikkongresi.net/images/UserFiles/images/Spot/hber-foto3107.jpg",
         "id" : "r16",
         "comps" : [],
         "download" : {
            "receiveFirst" : 51,
            "len" : 139214,
            "dns" : 0,
            "dnsEnd" : -1,
            "receiveHeadersEnd" : 53,
            "sslEnd" : -1,
            "connectEnd" : 1,
            "connectStart" : 0,
            "id" : "download_18",
            "receivedTime" : "4915.56200000923",
            "sslStart" : -1,
            "dnsStart" : -1,
            "receiveLast" : 4862.56200000923,
            "s_time" : 886.414999957196,
            "sendEnd" : 2,
            "sendStart" : 1,
            "type" : "image/jpeg"
         }
      },
      {
         "when_comp_start" : -1,
         "url" : "http://original.testbed.localhost/www.halklarindemokratikkongresi.net/images/UserFiles/images/Spot/alevikon1.png",
         "id" : "r17",
         "comps" : [],
         "download" : {
            "receiveFirst" : 136,
            "len" : 158379,
            "dns" : 0,
            "dnsEnd" : -1,
            "receiveHeadersEnd" : 138,
            "sslEnd" : -1,
            "connectEnd" : 2,
            "connectStart" : 0,
            "id" : "download_19",
            "receivedTime" : "3717.2450000071",
            "sslStart" : -1,
            "dnsStart" : -1,
            "receiveLast" : 3579.2450000071,
            "s_time" : 886.602999991737,
            "sendEnd" : 2,
            "sendStart" : 2,
            "type" : "image/png"
         }
      },
      {
         "when_comp_start" : -1,
         "url" : "http://original.testbed.localhost/www.halklarindemokratikkongresi.net/images/UserFiles/images/Spot/kcldisk.JPG",
         "id" : "r19",
         "comps" : [],
         "download" : {
            "receiveFirst" : 307,
            "len" : 114299,
            "dns" : 0,
            "dnsEnd" : -1,
            "receiveHeadersEnd" : 308,
            "sslEnd" : -1,
            "connectEnd" : 1,
            "connectStart" : 0,
            "id" : "download_20",
            "receivedTime" : "3727.46999998344",
            "sslStart" : -1,
            "dnsStart" : -1,
            "receiveLast" : 3419.46999998344,
            "s_time" : 886.8969999603,
            "sendEnd" : 1,
            "sendStart" : 1,
            "type" : "image/jpeg"
         }
      },
      {
         "when_comp_start" : -1,
         "url" : "http://original.testbed.localhost/www.halklarindemokratikkongresi.net/images/UserFiles/images/Spot/alevikon.png",
         "id" : "r18",
         "comps" : [],
         "download" : {
            "receiveFirst" : 392,
            "len" : 158379,
            "dns" : 0,
            "dnsEnd" : -1,
            "receiveHeadersEnd" : 393,
            "sslEnd" : -1,
            "connectEnd" : 1,
            "connectStart" : 0,
            "id" : "download_21",
            "receivedTime" : "7540.4630000121",
            "sslStart" : -1,
            "dnsStart" : -1,
            "receiveLast" : 7147.4630000121,
            "s_time" : 886.765000002924,
            "sendEnd" : 1,
            "sendStart" : 1,
            "type" : "image/png"
         }
      },
      {
         "when_comp_start" : -1,
         "url" : "http://original.testbed.localhost/www.halklarindemokratikkongresi.net/images/UserFiles/images/Spot/hdkalevi.JPG",
         "id" : "r20",
         "comps" : [],
         "download" : {
            "receiveFirst" : 446,
            "len" : 147745,
            "dns" : 0,
            "dnsEnd" : -1,
            "receiveHeadersEnd" : 447,
            "sslEnd" : -1,
            "connectEnd" : 1,
            "connectStart" : 0,
            "id" : "download_22",
            "receivedTime" : "4725.66499997629",
            "sslStart" : -1,
            "dnsStart" : -1,
            "receiveLast" : 4278.66499997629,
            "s_time" : 887.060999986716,
            "sendEnd" : 1,
            "sendStart" : 1,
            "type" : "image/jpeg"
         }
      },
      {
         "when_comp_start" : -1,
         "url" : "http://connect.facebook.net/en_US/sdk.js#xfbml=1&version=v2.0",
         "id" : "r35",
         "comps" : [],
         "download" : {
            "receiveFirst" : 502,
            "len" : 173728,
            "dns" : 0,
            "dnsEnd" : -1,
            "receiveHeadersEnd" : 502,
            "sslEnd" : -1,
            "connectEnd" : 0,
            "connectStart" : 0,
            "id" : "download_23",
            "receivedTime" : "2386.60099997651",
            "sslStart" : -1,
            "dnsStart" : -1,
            "receiveLast" : 1884.60099997651,
            "s_time" : 892.446000012569,
            "sendEnd" : 0,
            "sendStart" : 0,
            "type" : "application/x-javascript"
         }
      },
      {
         "when_comp_start" : -1,
         "url" : "http://platform.twitter.com/widgets.js",
         "id" : "r36",
         "comps" : [
            {
               "s_time" : 2478.0819999869,
               "time" : 64.9269999703401,
               "type" : null,
               "id" : "comp_78",
               "e_time" : 2543.00899995724
            }
         ],
         "download" : {
            "receiveFirst" : 596,
            "len" : 133974,
            "dns" : 0,
            "dnsEnd" : -1,
            "receiveHeadersEnd" : 596,
            "sslEnd" : -1,
            "connectEnd" : 0,
            "connectStart" : 0,
            "id" : "download_24",
            "receivedTime" : "2477.92599996319",
            "sslStart" : -1,
            "dnsStart" : -1,
            "receiveLast" : 1881.92599996319,
            "s_time" : 895.442999957595,
            "sendEnd" : 0,
            "sendStart" : 0,
            "type" : "application/javascript"
         }
      },
      {
         "when_comp_start" : -1,
         "url" : "http://original.testbed.localhost/www.halklarindemokratikkongresi.net/images/UserFiles/images/Spot/samsundataseron.jpg",
         "id" : "r21",
         "comps" : [],
         "download" : {
            "receiveFirst" : 623,
            "len" : 102202,
            "dns" : 0,
            "dnsEnd" : -1,
            "receiveHeadersEnd" : 671,
            "sslEnd" : -1,
            "connectEnd" : 48,
            "connectStart" : 0,
            "id" : "download_25",
            "receivedTime" : "7015.08099999046",
            "sslStart" : -1,
            "dnsStart" : -1,
            "receiveLast" : 6344.08099999046,
            "s_time" : 887.217000010423,
            "sendEnd" : 48,
            "sendStart" : 48,
            "type" : "image/jpeg"
         }
      },
      {
         "when_comp_start" : -1,
         "url" : "http://www.google-analytics.com/analytics.js",
         "id" : "r37",
         "comps" : [
            {
               "s_time" : 2553.71000000741,
               "time" : 49.49399997713,
               "type" : null,
               "id" : "comp_91",
               "e_time" : 2603.20399998454
            }
         ],
         "download" : {
            "receiveFirst" : 927,
            "len" : 25252,
            "dns" : 0,
            "dnsEnd" : 0,
            "receiveHeadersEnd" : 1577,
            "sslEnd" : -1,
            "connectEnd" : 650,
            "connectStart" : 0,
            "id" : "download_26",
            "receivedTime" : "2543.6359999585",
            "sslStart" : -1,
            "dnsStart" : 0,
            "receiveLast" : 966.635999958497,
            "s_time" : 902.681999956258,
            "sendEnd" : 650,
            "sendStart" : 650,
            "type" : "text/javascript"
         }
      },
      {
         "when_comp_start" : 1,
         "url" : "http://static.ak.facebook.com/connect/xd_arbiter/44OwK74u0Ie.js?version=41#channel=f19f09fc18&origin=http%3A%2F%2Foriginal.testbed.localhost",
         "id" : "r40",
         "comps" : [
            {
               "s_time" : 3376.97799998568,
               "time" : 50.08900002577,
               "type" : "evalhtml",
               "id" : "r40_c1",
               "e_time" : 3427.06700001145
            }
         ],
         "download" : {
            "receiveFirst" : 910,
            "len" : 31795,
            "dns" : 0,
            "dnsEnd" : -1,
            "receiveHeadersEnd" : 910,
            "sslEnd" : -1,
            "connectEnd" : 0,
            "connectStart" : 0,
            "id" : "download_27",
            "receivedTime" : "3396.91000001039",
            "sslStart" : -1,
            "dnsStart" : -1,
            "receiveLast" : 2486.91000001039,
            "s_time" : 2450.71499998448,
            "sendEnd" : 0,
            "sendStart" : 0,
            "type" : "text/html"
         }
      },
      {
         "when_comp_start" : 1,
         "url" : "https://s-static.ak.facebook.com/connect/xd_arbiter/44OwK74u0Ie.js?version=41#channel=f19f09fc18&origin=http%3A%2F%2Foriginal.testbed.localhost",
         "id" : "r41",
         "comps" : [
            {
               "s_time" : 3472.26999996928,
               "time" : 22.4129999987799,
               "type" : "evalhtml",
               "id" : "r41_c1",
               "e_time" : 3494.68299996806
            }
         ],
         "download" : {
            "receiveFirst" : 1000,
            "len" : 31928,
            "dns" : 0,
            "dnsEnd" : -1,
            "receiveHeadersEnd" : 1000,
            "sslEnd" : -1,
            "connectEnd" : 0,
            "connectStart" : 0,
            "id" : "download_28",
            "receivedTime" : "3470.86100000888",
            "sslStart" : -1,
            "dnsStart" : -1,
            "receiveLast" : 2470.86100000888,
            "s_time" : 2450.77900000615,
            "sendEnd" : 0,
            "sendStart" : 0,
            "type" : "text/html"
         }
      },
      {
         "when_comp_start" : -1,
         "url" : "http://original.testbed.localhost/fonts.gstatic.com/s/robotoslab/v6/y7lebkjgREBJK96VQi37Zl02b4v3fUxqf9CZJ1qUoIA.ttf",
         "id" : "r32",
         "comps" : [],
         "download" : {
            "receiveFirst" : 511,
            "len" : 60600,
            "dns" : 0,
            "dnsEnd" : -1,
            "receiveHeadersEnd" : 3196,
            "sslEnd" : -1,
            "connectEnd" : 2685,
            "connectStart" : 0,
            "id" : "download_29",
            "receivedTime" : "4978.13199996017",
            "sslStart" : -1,
            "dnsStart" : -1,
            "receiveLast" : 1782.13199996017,
            "s_time" : 1033.0589999794,
            "sendEnd" : 2685,
            "sendStart" : 2685,
            "type" : "application/octet-stream"
         }
      },
      {
         "when_comp_start" : -1,
         "url" : "http://original.testbed.localhost/www.halklarindemokratikkongresi.net/lib/font/FontAwesome/fontawesome-webfont.ttf%3Fv=3.2.1",
         "id" : "r30",
         "comps" : [],
         "download" : {
            "receiveFirst" : 701,
            "len" : 79076,
            "dns" : 0,
            "dnsEnd" : -1,
            "receiveHeadersEnd" : 2543,
            "sslEnd" : -1,
            "connectEnd" : 1842,
            "connectStart" : 0,
            "id" : "download_30",
            "receivedTime" : "5104.59199995967",
            "sslStart" : -1,
            "dnsStart" : -1,
            "receiveLast" : 2561.59199995967,
            "s_time" : 1885.4810000048,
            "sendEnd" : 1842,
            "sendStart" : 1842,
            "type" : "application/octet-stream"
         }
      },
      {
         "when_comp_start" : -1,
         "url" : "https://syndication.twitter.com/i/jot/syndication?l=%7B%22_category_%22%3A%22syndicated_impression%22%2C%22triggered_on%22%3A1440924833124%2C%22dnt%22%3Afalse%2C%22event_namespace%22%3A%7B%22client%22%3A%22tfw%22%2C%22page%22%3A%22timeline%22%2C%22action%22%3A%22impression%22%7D%7D",
         "id" : "r42",
         "comps" : [],
         "download" : {
            "receiveFirst" : 745,
            "len" : 43,
            "dns" : 0,
            "dnsEnd" : 1,
            "receiveHeadersEnd" : 2377,
            "sslEnd" : 1630,
            "connectEnd" : 1631,
            "connectStart" : 0,
            "id" : "download_31",
            "receivedTime" : "4920.72100000223",
            "sslStart" : 975,
            "dnsStart" : 1,
            "receiveLast" : 2543.72100000223,
            "s_time" : 2540.83700000774,
            "sendEnd" : 1632,
            "sendStart" : 1631,
            "type" : "image/gif"
         }
      },
      {
         "when_comp_start" : -1,
         "url" : "https://cdn.syndication.twimg.com/widgets/timelines/361592042675122177?callback=__twttr.callbacks.tl_361592042675122177_i0&dnt=false&domain=original.testbed.localhost&lang=en&suppress_response_codes=true&t=1601027",
         "id" : "r43",
         "comps" : [
            {
               "s_time" : 5571.557999996,
               "time" : 29.2729999637304,
               "type" : null,
               "id" : "comp_122",
               "e_time" : 5600.83099995973
            }
         ],
         "download" : {
            "receiveFirst" : 793,
            "len" : 151509,
            "dns" : 0,
            "dnsEnd" : -1,
            "receiveHeadersEnd" : 2436,
            "sslEnd" : -1,
            "connectEnd" : 1642,
            "connectStart" : 0,
            "id" : "download_32",
            "receivedTime" : "5571.37099996908",
            "sslStart" : -1,
            "dnsStart" : -1,
            "receiveLast" : 3135.37099996908,
            "s_time" : 2542.26399998879,
            "sendEnd" : 1643,
            "sendStart" : 1642,
            "type" : "application/javascript"
         }
      },
      {
         "when_comp_start" : -1,
         "url" : "http://original.testbed.localhost/www.halklarindemokratikkongresi.net/images/UserFiles/images/Spot/tuncelhdkbasin.JPG",
         "id" : "r25",
         "comps" : [],
         "download" : {
            "receiveFirst" : 457,
            "len" : 62088,
            "dns" : 0,
            "dnsEnd" : -1,
            "receiveHeadersEnd" : 4247,
            "sslEnd" : -1,
            "connectEnd" : 3790,
            "connectStart" : 0,
            "id" : "download_33",
            "receivedTime" : "5855.5279999855",
            "sslStart" : -1,
            "dnsStart" : -1,
            "receiveLast" : 1608.5279999855,
            "s_time" : 935.375000000931,
            "sendEnd" : 3790,
            "sendStart" : 3790,
            "type" : "image/jpeg"
         }
      },
      {
         "when_comp_start" : -1,
         "url" : "http://original.testbed.localhost/www.halklarindemokratikkongresi.net/images/UserFiles/images/Spot/hdkank.JPG",
         "id" : "r26",
         "comps" : [],
         "download" : {
            "receiveFirst" : 503,
            "len" : 105321,
            "dns" : 0,
            "dnsEnd" : -1,
            "receiveHeadersEnd" : 1701,
            "sslEnd" : -1,
            "connectEnd" : 1198,
            "connectStart" : 0,
            "id" : "download_34",
            "receivedTime" : "7138.22999998229",
            "sslStart" : -1,
            "dnsStart" : -1,
            "receiveLast" : 5437.22999998229,
            "s_time" : 3717.30199997546,
            "sendEnd" : 1198,
            "sendStart" : 1198,
            "type" : "image/jpeg"
         }
      },
      {
         "when_comp_start" : -1,
         "url" : "http://www.google-analytics.com/r/collect?v=1&_v=j38&a=1808491694&t=pageview&_s=1&dl=http%3A%2F%2Foriginal.testbed.localhost%2Fwww.halklarindemokratikkongresi.net%2F&ul=en-us&de=UTF-8&dt=Yunanistan%20Halk%C4%B1%20ile%20Dayan%C4%B1%C5%9Fmay%C4%B1%20B%C3%BCy%C3%BCtelim!%20%7C%20Halklar%C4%B1n%20Demokr",
         "id" : "r44",
         "comps" : [],
         "download" : {
            "receiveFirst" : 669,
            "len" : 35,
            "dns" : 0,
            "dnsEnd" : -1,
            "receiveHeadersEnd" : 670,
            "sslEnd" : -1,
            "connectEnd" : 1,
            "connectStart" : 0,
            "id" : "download_35",
            "receivedTime" : "5601.11200000392",
            "sslStart" : -1,
            "dnsStart" : -1,
            "receiveLast" : 4931.11200000392,
            "s_time" : 4915.61099997489,
            "sendEnd" : 1,
            "sendStart" : 1,
            "type" : "image/gif"
         }
      },
      {
         "when_comp_start" : -1,
         "url" : "http://original.testbed.localhost/www.halklarindemokratikkongresi.net/lib/img/patterns/body_pattern.png",
         "id" : "r38",
         "comps" : [],
         "download" : {
            "receiveFirst" : 610,
            "len" : 15079,
            "dns" : 0,
            "dnsEnd" : -1,
            "receiveHeadersEnd" : 1860,
            "sslEnd" : -1,
            "connectEnd" : 1250,
            "connectStart" : 0,
            "id" : "download_36",
            "receivedTime" : "5648.68300000671",
            "sslStart" : -1,
            "dnsStart" : -1,
            "receiveLast" : 3788.68300000671,
            "s_time" : 3727.50300000189,
            "sendEnd" : 1250,
            "sendStart" : 1250,
            "type" : "image/png"
         }
      },
      {
         "when_comp_start" : -1,
         "url" : "http://original.testbed.localhost/www.halklarindemokratikkongresi.net/lib/img/patterns/diagmonds.png",
         "id" : "r39",
         "comps" : [],
         "download" : {
            "receiveFirst" : 548,
            "len" : 1723,
            "dns" : 0,
            "dnsEnd" : -1,
            "receiveHeadersEnd" : 927,
            "sslEnd" : -1,
            "connectEnd" : 379,
            "connectStart" : 0,
            "id" : "download_37",
            "receivedTime" : "5658.82899996359",
            "sslStart" : -1,
            "dnsStart" : -1,
            "receiveLast" : 4731.82899996359,
            "s_time" : 4725.71500000777,
            "sendEnd" : 379,
            "sendStart" : 379,
            "type" : "image/png"
         }
      },
      {
         "when_comp_start" : -1,
         "url" : "http://platform.twitter.com/embed/timeline.93933550310288c77a13ff57ab42950b.default.css",
         "id" : "r52",
         "comps" : [],
         "download" : {
            "receiveFirst" : 534,
            "len" : 38593,
            "dns" : 0,
            "dnsEnd" : -1,
            "receiveHeadersEnd" : 534,
            "sslEnd" : -1,
            "connectEnd" : 0,
            "connectStart" : 0,
            "id" : "download_38",
            "receivedTime" : "6196.88299996778",
            "sslStart" : -1,
            "dnsStart" : -1,
            "receiveLast" : 5662.88299996778,
            "s_time" : 5601.92300000926,
            "sendEnd" : 0,
            "sendStart" : 0,
            "type" : "text/css"
         }
      },
      {
         "when_comp_start" : -1,
         "url" : "https://syndication.twitter.com/i/jot?l=%7B%22widget_origin%22%3A%22http%3A%2F%2Foriginal.testbed.localhost%2Fwww.halklarindemokratikkongresi.net%2F%22%2C%22widget_frame%22%3Afalse%2C%22widget_id%22%3A%22361592042675122177%22%2C%22message%22%3Anull%2C%22query%22%3Anull%2C%22profile_id%22%3A%22494053",
         "id" : "r51",
         "comps" : [],
         "download" : {
            "receiveFirst" : 603,
            "len" : 43,
            "dns" : 0,
            "dnsEnd" : -1,
            "receiveHeadersEnd" : 604,
            "sslEnd" : -1,
            "connectEnd" : 0,
            "connectStart" : 0,
            "id" : "download_39",
            "receivedTime" : "6209.52799997758",
            "sslStart" : -1,
            "dnsStart" : -1,
            "receiveLast" : 5605.52799997758,
            "s_time" : 5601.23799997382,
            "sendEnd" : 1,
            "sendStart" : 0,
            "type" : "image/gif"
         }
      },
      {
         "when_comp_start" : -1,
         "url" : "http://original.testbed.localhost/www.halklarindemokratikkongresi.net/images/UserFiles/images/Spot/it%C3%BC.JPG",
         "id" : "r22",
         "comps" : [],
         "download" : {
            "receiveFirst" : 559,
            "len" : 85595,
            "dns" : 0,
            "dnsEnd" : -1,
            "receiveHeadersEnd" : 5320,
            "sslEnd" : -1,
            "connectEnd" : 4761,
            "connectStart" : 0,
            "id" : "download_40",
            "receivedTime" : "7292.84899996128",
            "sslStart" : -1,
            "dnsStart" : -1,
            "receiveLast" : 1972.84899996128,
            "s_time" : 887.389999988955,
            "sendEnd" : 4761,
            "sendStart" : 4761,
            "type" : "image/jpeg"
         }
      },
      {
         "when_comp_start" : -1,
         "url" : "http://original.testbed.localhost/www.halklarindemokratikkongresi.net/images/UserFiles/images/Spot/hdkist.JPG",
         "id" : "r23",
         "comps" : [],
         "download" : {
            "receiveFirst" : 774,
            "len" : 93141,
            "dns" : 0,
            "dnsEnd" : -1,
            "receiveHeadersEnd" : 5545,
            "sslEnd" : -1,
            "connectEnd" : 4771,
            "connectStart" : 0,
            "id" : "download_41",
            "receivedTime" : "7449.17300000088",
            "sslStart" : -1,
            "dnsStart" : -1,
            "receiveLast" : 1904.17300000088,
            "s_time" : 887.556999980006,
            "sendEnd" : 4771,
            "sendStart" : 4771,
            "type" : "image/jpeg"
         }
      },
      {
         "when_comp_start" : -1,
         "url" : "http://original.testbed.localhost/www.halklarindemokratikkongresi.net/images/UserFiles/images/Spot/hdkgrev.jpg",
         "id" : "r24",
         "comps" : [],
         "download" : {
            "receiveFirst" : 959,
            "len" : 121627,
            "dns" : 0,
            "dnsEnd" : -1,
            "receiveHeadersEnd" : 5927,
            "sslEnd" : -1,
            "connectEnd" : 4968,
            "connectStart" : 0,
            "id" : "download_42",
            "receivedTime" : "7920.97699997248",
            "sslStart" : -1,
            "dnsStart" : -1,
            "receiveLast" : 1993.97699997248,
            "s_time" : 887.732999981381,
            "sendEnd" : 4968,
            "sendStart" : 4968,
            "type" : "image/jpeg"
         }
      },
      {
         "when_comp_start" : -1,
         "url" : "http://platform.twitter.com/embed/timeline.93933550310288c77a13ff57ab42950b.default.css",
         "id" : "r53",
         "comps" : [],
         "download" : {
            "receiveFirst" : 0,
            "len" : 38593,
            "dns" : 0,
            "dnsEnd" : -1,
            "receiveHeadersEnd" : 0,
            "sslEnd" : -1,
            "connectEnd" : 0,
            "connectStart" : 0,
            "id" : "download_43",
            "receivedTime" : "7294.25799997989",
            "sslStart" : -1,
            "dnsStart" : -1,
            "receiveLast" : 7294.25799997989,
            "s_time" : 7292.82699996838,
            "sendEnd" : 0,
            "sendStart" : 0,
            "type" : "text/css"
         }
      }
   ],
   "deps" : [
      {
         "a2" : "r1_c2",
         "time" : -1,
         "id" : "dep1",
         "a1" : "comp_16"
      },
      {
         "a2" : "r1_c3",
         "time" : -1,
         "id" : "dep2",
         "a1" : "comp_18"
      },
      {
         "a2" : "r1_c4",
         "time" : -1,
         "id" : "dep3",
         "a1" : "comp_23"
      },
      {
         "a2" : "comp_16",
         "time" : -1,
         "id" : "dep4",
         "a1" : "comp_5"
      },
      {
         "a2" : "comp_16",
         "time" : -1,
         "id" : "dep5",
         "a1" : "comp_9"
      },
      {
         "a2" : "comp_16",
         "time" : -1,
         "id" : "dep6",
         "a1" : "comp_6"
      },
      {
         "a2" : "comp_16",
         "time" : -1,
         "id" : "dep7",
         "a1" : "comp_7"
      },
      {
         "a2" : "comp_16",
         "time" : -1,
         "id" : "dep8",
         "a1" : "comp_8"
      },
      {
         "a2" : "comp_16",
         "time" : -1,
         "id" : "dep9",
         "a1" : "comp_10"
      },
      {
         "a2" : "comp_16",
         "time" : -1,
         "id" : "dep10",
         "a1" : "comp_11"
      },
      {
         "a2" : "comp_16",
         "time" : -1,
         "id" : "dep11",
         "a1" : "comp_13"
      },
      {
         "a2" : "comp_16",
         "time" : -1,
         "id" : "dep12",
         "a1" : "comp_12"
      },
      {
         "a2" : "comp_18",
         "time" : -1,
         "id" : "dep13",
         "a1" : "comp_16"
      },
      {
         "a2" : "download_43",
         "time" : -1,
         "id" : "dep14",
         "a1" : "r1_c4"
      },
      {
         "a2" : "download_42",
         "time" : -1,
         "id" : "dep15",
         "a1" : "r1_c2"
      },
      {
         "a2" : "download_41",
         "time" : 177.98199999379,
         "id" : "dep16",
         "a1" : "r1_c2"
      },
      {
         "a2" : "download_40",
         "time" : 177.815000002739,
         "id" : "dep17",
         "a1" : "r1_c2"
      },
      {
         "a2" : "download_39",
         "time" : 4699.22999996925,
         "id" : "dep18",
         "a1" : "r1_c4"
      },
      {
         "a2" : "download_38",
         "time" : 4699.91500000469,
         "id" : "dep19",
         "a1" : "r1_c4"
      },
      {
         "a2" : "download_37",
         "time" : 3823.7070000032,
         "id" : "dep20",
         "a1" : "r1_c4"
      },
      {
         "a2" : "download_36",
         "time" : 2825.49499999732,
         "id" : "dep21",
         "a1" : "r1_c4"
      },
      {
         "a2" : "download_35",
         "time" : 4013.60299997032,
         "id" : "dep22",
         "a1" : "r1_c4"
      },
      {
         "a2" : "download_34",
         "time" : 2815.29399997089,
         "id" : "dep23",
         "a1" : "r1_c4"
      },
      {
         "a2" : "download_33",
         "time" : 33.3669999963599,
         "id" : "dep24",
         "a1" : "r1_c4"
      },
      {
         "a2" : "download_32",
         "time" : 64.1820000018902,
         "id" : "dep25",
         "a1" : "comp_78"
      },
      {
         "a2" : "download_31",
         "time" : 62.7550000208398,
         "id" : "dep26",
         "a1" : "comp_78"
      },
      {
         "a2" : "download_30",
         "time" : 983.473000000229,
         "id" : "dep27",
         "a1" : "r1_c4"
      },
      {
         "a2" : "download_29",
         "time" : 131.050999974829,
         "id" : "dep28",
         "a1" : "r1_c4"
      },
      {
         "a2" : "download_28",
         "time" : 1548.77100000158,
         "id" : "dep29",
         "a1" : "r1_c4"
      },
      {
         "a2" : "download_27",
         "time" : 1548.70699997991,
         "id" : "dep30",
         "a1" : "r1_c4"
      },
      {
         "a2" : "download_26",
         "time" : 0.673999951686937,
         "id" : "dep31",
         "a1" : "r1_c4"
      },
      {
         "a2" : "download_25",
         "time" : 177.642000024207,
         "id" : "dep32",
         "a1" : "r1_c2"
      },
      {
         "a2" : "download_24",
         "time" : -1,
         "id" : "dep33",
         "a1" : "r1_c3"
      },
      {
         "a2" : "download_23",
         "time" : 2.53000005614001,
         "id" : "dep34",
         "a1" : "r1_c3"
      },
      {
         "a2" : "download_22",
         "time" : 177.4860000005,
         "id" : "dep35",
         "a1" : "r1_c2"
      },
      {
         "a2" : "download_21",
         "time" : 177.190000016708,
         "id" : "dep36",
         "a1" : "r1_c2"
      },
      {
         "a2" : "download_20",
         "time" : 177.321999974084,
         "id" : "dep37",
         "a1" : "r1_c2"
      },
      {
         "a2" : "download_19",
         "time" : 177.028000005521,
         "id" : "dep38",
         "a1" : "r1_c2"
      },
      {
         "a2" : "download_18",
         "time" : 176.83999997098,
         "id" : "dep39",
         "a1" : "r1_c2"
      },
      {
         "a2" : "download_17",
         "time" : 115.164000017103,
         "id" : "dep40",
         "a1" : "r1_c2"
      },
      {
         "a2" : "download_16",
         "time" : 0.592000025790981,
         "id" : "dep41",
         "a1" : "r1_c2"
      },
      {
         "a2" : "download_15",
         "time" : -1,
         "id" : "dep42",
         "a1" : "r1_c1"
      },
      {
         "a2" : "download_15",
         "time" : 34.0219999779947,
         "id" : "dep43",
         "a1" : "r1_c1"
      },
      {
         "a2" : "download_14",
         "time" : 16.2380000110715,
         "id" : "dep44",
         "a1" : "r1_c1"
      },
      {
         "a2" : "download_14",
         "time" : 16.2380000110715,
         "id" : "dep45",
         "a1" : "r1_c1"
      },
      {
         "a2" : "download_13",
         "time" : 33.8730000075884,
         "id" : "dep46",
         "a1" : "r1_c1"
      },
      {
         "a2" : "download_13",
         "time" : 33.8730000075884,
         "id" : "dep47",
         "a1" : "r1_c1"
      },
      {
         "a2" : "download_12",
         "time" : 1.9029999966733,
         "id" : "dep48",
         "a1" : "r1_c1"
      },
      {
         "a2" : "download_12",
         "time" : 1.9029999966733,
         "id" : "dep49",
         "a1" : "r1_c1"
      },
      {
         "a2" : "download_11",
         "time" : 1.7629999783821,
         "id" : "dep50",
         "a1" : "r1_c1"
      },
      {
         "a2" : "download_10",
         "time" : 2.0270000095479,
         "id" : "dep51",
         "a1" : "r1_c1"
      },
      {
         "a2" : "download_10",
         "time" : 2.0270000095479,
         "id" : "dep52",
         "a1" : "r1_c1"
      },
      {
         "a2" : "download_9",
         "time" : 1.4719999744556,
         "id" : "dep53",
         "a1" : "r1_c1"
      },
      {
         "a2" : "download_8",
         "time" : 1.6339999856427,
         "id" : "dep54",
         "a1" : "r1_c1"
      },
      {
         "a2" : "download_7",
         "time" : 1.3409999664873,
         "id" : "dep55",
         "a1" : "r1_c1"
      },
      {
         "a2" : "download_6",
         "time" : 1.2219999916851,
         "id" : "dep56",
         "a1" : "r1_c1"
      },
      {
         "a2" : "download_5",
         "time" : 1.0720000136643,
         "id" : "dep57",
         "a1" : "r1_c1"
      },
      {
         "a2" : "download_4",
         "time" : 0.942000013310402,
         "id" : "dep58",
         "a1" : "r1_c1"
      },
      {
         "a2" : "download_3",
         "time" : 0.838999985717201,
         "id" : "dep59",
         "a1" : "r1_c1"
      },
      {
         "a2" : "download_2",
         "time" : 0.7689999765716,
         "id" : "dep60",
         "a1" : "r1_c1"
      },
      {
         "a2" : "download_1",
         "time" : 0.5430000019259,
         "id" : "dep61",
         "a1" : "r1_c1"
      }
   ]
}
