{
   "n_download_no_trigger" : 1,
   "start_activity" : "download_0",
   "name" : "original.testbed.localhost_www.ign.com_",
   "load_activity" : -1,
   "objs" : [
      {
         "when_comp_start" : 1,
         "url" : "http://original.testbed.localhost/www.ign.com/",
         "id" : "r1",
         "comps" : [
            {
               "s_time" : 300.110999960452,
               "time" : 398.497999995016,
               "id" : "r1_c1",
               "type" : "evalhtml",
               "e_time" : 698.608999955468
            },
            {
               "s_time" : 787.080000038259,
               "time" : 28.8689999142661,
               "id" : "r1_c2",
               "type" : "evalhtml",
               "e_time" : 815.948999952525
            },
            {
               "s_time" : 2404.20600003563,
               "time" : -794717908.563,
               "id" : "r1_c3",
               "type" : "evalhtml",
               "e_time" : -794715504.357
            },
            {
               "s_time" : 2413.85000001173,
               "time" : -794717918.207,
               "id" : "r1_c4",
               "type" : "evalhtml",
               "e_time" : -794715504.357
            },
            {
               "s_time" : 2444.12300002296,
               "time" : 8.69799999054021,
               "type" : "evalhtml",
               "id" : "r1_c5",
               "e_time" : 2452.8210000135
            }
         ],
         "download" : {
            "receiveFirst" : 156,
            "len" : 103593,
            "dns" : 0,
            "dnsEnd" : -1,
            "receiveHeadersEnd" : 161,
            "sslEnd" : -1,
            "connectEnd" : 5,
            "connectStart" : 0,
            "id" : "download_0",
            "receivedTime" : "353.332999977283",
            "sslStart" : -1,
            "dnsStart" : -1,
            "receiveLast" : 192.332999977283,
            "s_time" : 0,
            "sendEnd" : 5,
            "sendStart" : 5,
            "type" : "text/html"
         }
      },
      {
         "when_comp_start" : -1,
         "url" : "http://original.testbed.localhost/oystatic.ignimgs.com/cache/css/94/a9/94a93786366637856b99b5276b770d3d.css",
         "id" : "r2",
         "comps" : [
            {
               "s_time" : 617.310000001453,
               "time" : 90.729000046849,
               "type" : 4,
               "id" : "comp_0",
               "e_time" : 708.039000048302
            }
         ],
         "download" : {
            "receiveFirst" : 156,
            "len" : 66705,
            "dns" : 0,
            "dnsEnd" : -1,
            "receiveHeadersEnd" : 177,
            "sslEnd" : -1,
            "connectEnd" : 21,
            "connectStart" : 0,
            "id" : "download_1",
            "receivedTime" : "616.181000019424",
            "sslStart" : -1,
            "dnsStart" : -1,
            "receiveLast" : 439.181000019424,
            "s_time" : 309.815000044182,
            "sendEnd" : 21,
            "sendStart" : 21,
            "type" : "text/css"
         }
      },
      {
         "when_comp_start" : -1,
         "url" : "http://original.testbed.localhost/fonts.ignimgs.com/gcn8akg.js",
         "id" : "r3",
         "comps" : [
            {
               "s_time" : 724.305000039749,
               "time" : 62.77499999851,
               "type" : 1,
               "id" : "comp_2",
               "e_time" : 787.080000038259
            }
         ],
         "download" : {
            "receiveFirst" : 275,
            "len" : 20583,
            "dns" : 0,
            "dnsEnd" : -1,
            "receiveHeadersEnd" : 315,
            "sslEnd" : -1,
            "connectEnd" : 40,
            "connectStart" : 0,
            "id" : "download_2",
            "receivedTime" : "722.839999943972",
            "sslStart" : -1,
            "dnsStart" : -1,
            "receiveLast" : 407.839999943972,
            "s_time" : 313.782999990508,
            "sendEnd" : 40,
            "sendStart" : 40,
            "type" : "application/javascript"
         }
      },
      {
         "when_comp_start" : -1,
         "url" : "http://original.testbed.localhost/oystatic.ignimgs.com/cache/js/43/cd/43cd70453402d4db5a7a1baafd3a6ede.js",
         "id" : "r4",
         "comps" : [
            {
               "s_time" : 2144.89800005686,
               "time" : 259.30799997877,
               "type" : 1,
               "id" : "comp_7",
               "e_time" : 2404.20600003563
            }
         ],
         "download" : {
            "receiveFirst" : 160,
            "len" : 165336,
            "dns" : 0,
            "dnsEnd" : -1,
            "receiveHeadersEnd" : 459,
            "sslEnd" : -1,
            "connectEnd" : 299,
            "connectStart" : 0,
            "id" : "download_3",
            "receivedTime" : "1956.66599995457",
            "sslStart" : -1,
            "dnsStart" : -1,
            "receiveLast" : 1497.66599995457,
            "s_time" : 317.628000047989,
            "sendEnd" : 299,
            "sendStart" : 299,
            "type" : "application/javascript"
         }
      },
      {
         "when_comp_start" : -1,
         "url" : "http://original.testbed.localhost/c.amazon-adsystem.com/aax2/amzn_ads.js",
         "id" : "r5",
         "comps" : [
            {
               "s_time" : 2404.78600002825,
               "time" : 9.06399998348024,
               "type" : 1,
               "id" : "comp_9",
               "e_time" : 2413.85000001173
            }
         ],
         "download" : {
            "receiveFirst" : 238,
            "len" : 15033,
            "dns" : 0,
            "dnsEnd" : -1,
            "receiveHeadersEnd" : 623,
            "sslEnd" : -1,
            "connectEnd" : 384,
            "connectStart" : 0,
            "id" : "download_4",
            "receivedTime" : "996.705000055954",
            "sslStart" : -1,
            "dnsStart" : -1,
            "receiveLast" : 373.705000055954,
            "s_time" : 318.360000033863,
            "sendEnd" : 385,
            "sendStart" : 384,
            "type" : "application/javascript"
         }
      },
      {
         "when_comp_start" : -1,
         "url" : "http://original.testbed.localhost/zdstatic.ign.com/js/zddmp/1.1/zddmp.min.js",
         "id" : "r7",
         "comps" : [],
         "download" : {
            "receiveFirst" : 290,
            "len" : 3006,
            "dns" : 0,
            "dnsEnd" : 32,
            "receiveHeadersEnd" : 679,
            "sslEnd" : -1,
            "connectEnd" : 389,
            "connectStart" : 0,
            "id" : "download_5",
            "receivedTime" : "1023.71300000232",
            "sslStart" : -1,
            "dnsStart" : 32,
            "receiveLast" : 344.713000002317,
            "s_time" : 320.008000009693,
            "sendEnd" : 389,
            "sendStart" : 389,
            "type" : "application/javascript"
         }
      },
      {
         "when_comp_start" : -1,
         "url" : "http://original.testbed.localhost/oystatic.ignimgs.com/cache/js/32/98/32988992cbb58a4267da3d0a56665270.js",
         "id" : "r6",
         "comps" : [
            {
               "s_time" : 2414.94799999055,
               "time" : 29.1750000324096,
               "type" : 1,
               "id" : "comp_11",
               "e_time" : 2444.12300002296
            }
         ],
         "download" : {
            "receiveFirst" : 311,
            "len" : 23579,
            "dns" : 0,
            "dnsEnd" : 31,
            "receiveHeadersEnd" : 700,
            "sslEnd" : -1,
            "connectEnd" : 389,
            "connectStart" : 0,
            "id" : "download_6",
            "receivedTime" : "1104.33999996167",
            "sslStart" : -1,
            "dnsStart" : 31,
            "receiveLast" : 404.339999961667,
            "s_time" : 319.00100002531,
            "sendEnd" : 389,
            "sendStart" : 389,
            "type" : "application/javascript"
         }
      },
      {
         "when_comp_start" : -1,
         "url" : "http://original.testbed.localhost/d3avqv6zaxegeu.cloudfront.net/sentinel.js",
         "id" : "r10",
         "comps" : [],
         "download" : {
            "receiveFirst" : 403,
            "len" : 18472,
            "dns" : 0,
            "dnsEnd" : -1,
            "receiveHeadersEnd" : 414,
            "sslEnd" : -1,
            "connectEnd" : 11,
            "connectStart" : 0,
            "id" : "download_7",
            "receivedTime" : "1823.45699996222",
            "sslStart" : -1,
            "dnsStart" : -1,
            "receiveLast" : 1409.45699996222,
            "s_time" : 814.850999973714,
            "sendEnd" : 11,
            "sendStart" : 11,
            "type" : "application/javascript"
         }
      },
      {
         "when_comp_start" : -1,
         "url" : "http://original.testbed.localhost/cdn.ziffstatic.com/jst/tblwd_b.js",
         "id" : "r11",
         "comps" : [],
         "download" : {
            "receiveFirst" : 556,
            "len" : 68365,
            "dns" : 0,
            "dnsEnd" : -1,
            "receiveHeadersEnd" : 572,
            "sslEnd" : -1,
            "connectEnd" : 16,
            "connectStart" : 0,
            "id" : "download_8",
            "receivedTime" : "1929.62700000498",
            "sslStart" : -1,
            "dnsStart" : -1,
            "receiveLast" : 1357.62700000498,
            "s_time" : 815.948999952525,
            "sendEnd" : 16,
            "sendStart" : 16,
            "type" : "application/javascript"
         }
      },
      {
         "when_comp_start" : -1,
         "url" : "http://www.googletagservices.com/tag/js/gpt.js",
         "id" : "r8",
         "comps" : [
            {
               "s_time" : 1983.36900002323,
               "time" : 12.87799992133,
               "type" : 2,
               "id" : "comp_4",
               "e_time" : 1996.24699994456
            }
         ],
         "download" : {
            "receiveFirst" : 370,
            "len" : 2913,
            "dns" : 12,
            "dnsEnd" : 17,
            "receiveHeadersEnd" : 1277,
            "sslEnd" : -1,
            "connectEnd" : 907,
            "connectStart" : 0,
            "id" : "download_9",
            "receivedTime" : "1981.44600004889",
            "sslStart" : -1,
            "dnsStart" : 5,
            "receiveLast" : 704.446000048891,
            "s_time" : 698.608999955468,
            "sendEnd" : 907,
            "sendStart" : 907,
            "type" : "text/javascript"
         }
      }
   ],
   "deps" : [
      {
         "a2" : "r1_c2",
         "time" : -1,
         "id" : "dep1",
         "a1" : "comp_2"
      },
      {
         "a2" : "r1_c3",
         "time" : -1,
         "id" : "dep2",
         "a1" : "comp_7"
      },
      {
         "a2" : "r1_c4",
         "time" : -1,
         "id" : "dep3",
         "a1" : "comp_9"
      },
      {
         "a2" : "r1_c5",
         "time" : -1,
         "id" : "dep4",
         "a1" : "comp_11"
      },
      {
         "a2" : "comp_9",
         "time" : -1,
         "id" : "dep5",
         "a1" : "comp_7"
      },
      {
         "a2" : "comp_11",
         "time" : -1,
         "id" : "dep6",
         "a1" : "comp_9"
      },
      {
         "a2" : "download_9",
         "time" : -1,
         "id" : "dep7",
         "a1" : "r1_c1"
      },
      {
         "a2" : "download_8",
         "time" : -1,
         "id" : "dep8",
         "a1" : "r1_c2"
      },
      {
         "a2" : "download_8",
         "time" : 28.8689999142661,
         "id" : "dep9",
         "a1" : "r1_c2"
      },
      {
         "a2" : "download_7",
         "time" : 27.7709999354551,
         "id" : "dep10",
         "a1" : "r1_c2"
      },
      {
         "a2" : "download_7",
         "time" : 27.7709999354551,
         "id" : "dep11",
         "a1" : "r1_c2"
      },
      {
         "a2" : "download_6",
         "time" : 18.890000064858,
         "id" : "dep12",
         "a1" : "r1_c1"
      },
      {
         "a2" : "download_6",
         "time" : 18.890000064858,
         "id" : "dep13",
         "a1" : "r1_c1"
      },
      {
         "a2" : "download_5",
         "time" : 19.897000049241,
         "id" : "dep14",
         "a1" : "r1_c1"
      },
      {
         "a2" : "download_5",
         "time" : 19.897000049241,
         "id" : "dep15",
         "a1" : "r1_c1"
      },
      {
         "a2" : "download_4",
         "time" : 18.249000073411,
         "id" : "dep16",
         "a1" : "r1_c1"
      },
      {
         "a2" : "download_4",
         "time" : 18.249000073411,
         "id" : "dep17",
         "a1" : "r1_c1"
      },
      {
         "a2" : "download_3",
         "time" : 17.517000087537,
         "id" : "dep18",
         "a1" : "r1_c1"
      },
      {
         "a2" : "download_3",
         "time" : 17.517000087537,
         "id" : "dep19",
         "a1" : "r1_c1"
      },
      {
         "a2" : "download_2",
         "time" : 13.672000030056,
         "id" : "dep20",
         "a1" : "r1_c1"
      },
      {
         "a2" : "download_2",
         "time" : 13.672000030056,
         "id" : "dep21",
         "a1" : "r1_c1"
      },
      {
         "a2" : "download_1",
         "time" : 9.70400008373002,
         "id" : "dep22",
         "a1" : "r1_c1"
      }
   ]
}
