{
   "n_download_no_trigger" : 1,
   "start_activity" : "download_0",
   "name" : "original.testbed.localhost_www.instagram.com_",
   "load_activity" : -1,
   "objs" : [
      {
         "when_comp_start" : 1,
         "url" : "http://original.testbed.localhost/www.instagram.com/",
         "id" : "r1",
         "comps" : [
            {
               "s_time" : 369.186000083573,
               "time" : 1436.06500001625,
               "id" : "r1_c1",
               "type" : "evalhtml",
               "e_time" : 1805.25100009982
            },
            {
               "s_time" : 2110.12300010771,
               "time" : -843437634.241,
               "id" : "r1_c2",
               "type" : "evalhtml",
               "e_time" : -843435524.118
            },
            {
               "s_time" : 2140.64000011422,
               "time" : -843437664.758,
               "id" : "r1_c3",
               "type" : "evalhtml",
               "e_time" : -843435524.118
            },
            {
               "s_time" : 2152.38900005352,
               "time" : 122.20700003672,
               "type" : "evalhtml",
               "id" : "r1_c4",
               "e_time" : 2274.59600009024
            }
         ],
         "download" : {
            "receiveFirst" : 153,
            "len" : 12544,
            "dns" : 0,
            "dnsEnd" : -1,
            "receiveHeadersEnd" : 157,
            "sslEnd" : -1,
            "connectEnd" : 4,
            "connectStart" : 0,
            "id" : "download_0",
            "receivedTime" : "364.975000033155",
            "sslStart" : -1,
            "dnsStart" : -1,
            "receiveLast" : 207.975000033155,
            "s_time" : 0,
            "sendEnd" : 4,
            "sendStart" : 4,
            "type" : "text/html"
         }
      },
      {
         "when_comp_start" : -1,
         "url" : "http://original.testbed.localhost/instagramstatic-a.akamaihd.net/bluebar/422f2b4/scripts/webfont.js",
         "id" : "r2",
         "comps" : [
            {
               "s_time" : 569.931000005454,
               "time" : 63.2930001011119,
               "type" : 3,
               "id" : "comp_2",
               "e_time" : 633.224000106566
            }
         ],
         "download" : {
            "receiveFirst" : 156,
            "len" : 11628,
            "dns" : 0,
            "dnsEnd" : -1,
            "receiveHeadersEnd" : 161,
            "sslEnd" : -1,
            "connectEnd" : 5,
            "connectStart" : 0,
            "id" : "download_1",
            "receivedTime" : "567.764000035822",
            "sslStart" : -1,
            "dnsStart" : -1,
            "receiveLast" : 406.764000035822,
            "s_time" : 371.445000055246,
            "sendEnd" : 5,
            "sendStart" : 5,
            "type" : "application/javascript"
         }
      },
      {
         "when_comp_start" : -1,
         "url" : "http://original.testbed.localhost/instagramstatic-a.akamaihd.net/bluebar/422f2b4/cache/styles/public/public-main.css",
         "id" : "r3",
         "comps" : [
            {
               "s_time" : 1000.83900010213,
               "time" : 146.57599991188,
               "type" : 4,
               "id" : "comp_20",
               "e_time" : 1147.41500001401
            }
         ],
         "download" : {
            "receiveFirst" : 162,
            "len" : 129758,
            "dns" : 0,
            "dnsEnd" : -1,
            "receiveHeadersEnd" : 175,
            "sslEnd" : -1,
            "connectEnd" : 12,
            "connectStart" : 0,
            "id" : "download_2",
            "receivedTime" : "999.863000004552",
            "sslStart" : -1,
            "dnsStart" : -1,
            "receiveLast" : 824.863000004552,
            "s_time" : 402.115000062622,
            "sendEnd" : 13,
            "sendStart" : 12,
            "type" : "text/css"
         }
      },
      {
         "when_comp_start" : -1,
         "url" : "http://original.testbed.localhost/instagramstatic-a.akamaihd.net/bluebar/422f2b4/scripts/polyfills/es5-shim.min.js",
         "id" : "r12",
         "comps" : [
            {
               "s_time" : 2118.4840000933,
               "time" : 22.1560000209201,
               "type" : 1,
               "id" : "comp_26",
               "e_time" : 2140.64000011422
            }
         ],
         "download" : {
            "receiveFirst" : 195,
            "len" : 16324,
            "dns" : 0,
            "dnsEnd" : 7,
            "receiveHeadersEnd" : 357,
            "sslEnd" : -1,
            "connectEnd" : 162,
            "connectStart" : 0,
            "id" : "download_3",
            "receivedTime" : "815.109000075608",
            "sslStart" : -1,
            "dnsStart" : 7,
            "receiveLast" : 458.109000075608,
            "s_time" : 409.714000066742,
            "sendEnd" : 162,
            "sendStart" : 162,
            "type" : "application/javascript"
         }
      },
      {
         "when_comp_start" : -1,
         "url" : "http://original.testbed.localhost/instagramstatic-a.akamaihd.net/bluebar/422f2b4/cache/bundles/en_US_SplashPage.js",
         "id" : "r4",
         "comps" : [
            {
               "s_time" : 1816.05500006117,
               "time" : 294.06800004654,
               "type" : 1,
               "id" : "comp_24",
               "e_time" : 2110.12300010771
            }
         ],
         "download" : {
            "receiveFirst" : 258,
            "len" : 122845,
            "dns" : 0,
            "dnsEnd" : -1,
            "receiveHeadersEnd" : 422,
            "sslEnd" : -1,
            "connectEnd" : 164,
            "connectStart" : 0,
            "id" : "download_4",
            "receivedTime" : "1814.86500008032",
            "sslStart" : -1,
            "dnsStart" : -1,
            "receiveLast" : 1392.86500008032,
            "s_time" : 402.878000051714,
            "sendEnd" : 164,
            "sendStart" : 164,
            "type" : "application/javascript"
         }
      },
      {
         "when_comp_start" : -1,
         "url" : "http://original.testbed.localhost/instagramstatic-a.akamaihd.net/bluebar/422f2b4/scripts/polyfills/es5-sham.min.js",
         "id" : "r13",
         "comps" : [
            {
               "s_time" : 2141.40300010331,
               "time" : 10.9859999502096,
               "type" : 1,
               "id" : "comp_28",
               "e_time" : 2152.38900005352
            }
         ],
         "download" : {
            "receiveFirst" : 291,
            "len" : 6758,
            "dns" : 0,
            "dnsEnd" : 8,
            "receiveHeadersEnd" : 610,
            "sslEnd" : -1,
            "connectEnd" : 319,
            "connectStart" : 0,
            "id" : "download_5",
            "receivedTime" : "1149.24600010272",
            "sslStart" : -1,
            "dnsStart" : 8,
            "receiveLast" : 539.246000102721,
            "s_time" : 410.355000058189,
            "sendEnd" : 319,
            "sendStart" : 319,
            "type" : "application/javascript"
         }
      },
      {
         "when_comp_start" : -1,
         "url" : "http://original.testbed.localhost/instagramstatic-a.akamaihd.net/bluebar/422f2b4/images/homepage/screenshot1.jpg",
         "id" : "r5",
         "comps" : [],
         "download" : {
            "receiveFirst" : 307,
            "len" : 79352,
            "dns" : 0,
            "dnsEnd" : 18,
            "receiveHeadersEnd" : 634,
            "sslEnd" : -1,
            "connectEnd" : 327,
            "connectStart" : 0,
            "id" : "download_6",
            "receivedTime" : "2318.28300002962",
            "sslStart" : -1,
            "dnsStart" : 18,
            "receiveLast" : 1684.28300002962,
            "s_time" : 406.203999998979,
            "sendEnd" : 327,
            "sendStart" : 327,
            "type" : "image/jpeg"
         }
      },
      {
         "when_comp_start" : -1,
         "url" : "http://instagramstatic-a.akamaihd.net/bluebar/422f2b4/cache/styles/fonts.css",
         "id" : "r14",
         "comps" : [
            {
               "s_time" : 1152.20600005705,
               "time" : 11.5969999460499,
               "type" : 2,
               "id" : "comp_21",
               "e_time" : 1163.8030000031
            }
         ],
         "download" : {
            "receiveFirst" : 11,
            "len" : 5660,
            "dns" : 406,
            "dnsEnd" : 410,
            "receiveHeadersEnd" : 426,
            "sslEnd" : -1,
            "connectEnd" : 414,
            "connectStart" : 0,
            "id" : "download_7",
            "receivedTime" : "1151.71800006647",
            "sslStart" : -1,
            "dnsStart" : 4,
            "receiveLast" : 725.718000066467,
            "s_time" : 628.586000064388,
            "sendEnd" : 415,
            "sendStart" : 414,
            "type" : "text/css"
         }
      },
      {
         "when_comp_start" : -1,
         "url" : "http://original.testbed.localhost/instagramstatic-a.akamaihd.net/bluebar/422f2b4/images/homepage/screenshot2.jpg",
         "id" : "r6",
         "comps" : [],
         "download" : {
            "receiveFirst" : 371,
            "len" : 12736,
            "dns" : 0,
            "dnsEnd" : -1,
            "receiveHeadersEnd" : 411,
            "sslEnd" : -1,
            "connectEnd" : 40,
            "connectStart" : 0,
            "id" : "download_8",
            "receivedTime" : "2364.15100004524",
            "sslStart" : -1,
            "dnsStart" : -1,
            "receiveLast" : 1953.15100004524,
            "s_time" : 1805.25100009982,
            "sendEnd" : 40,
            "sendStart" : 40,
            "type" : "image/jpeg"
         }
      },
      {
         "when_comp_start" : -1,
         "url" : "http://connect.facebook.net/en_US/fbds.js",
         "id" : "r33",
         "comps" : [
            {
               "s_time" : 2341.62900003139,
               "time" : 10.1320000830997,
               "type" : null,
               "id" : "comp_43",
               "e_time" : 2351.76100011449
            }
         ],
         "download" : {
            "receiveFirst" : 9,
            "len" : 3048,
            "dns" : 41,
            "dnsEnd" : 47,
            "receiveHeadersEnd" : 65,
            "sslEnd" : -1,
            "connectEnd" : 56,
            "connectStart" : 0,
            "id" : "download_9",
            "receivedTime" : "2336.74600010272",
            "sslStart" : -1,
            "dnsStart" : 6,
            "receiveLast" : 2271.74600010272,
            "s_time" : 2156.32600011304,
            "sendEnd" : 56,
            "sendStart" : 56,
            "type" : "application/x-javascript"
         }
      },
      {
         "when_comp_start" : -1,
         "url" : "http://instagramstatic-a.akamaihd.net/bluebar/422f2b4/webfonts/proximanova-reg-webfont.woff",
         "id" : "r21",
         "comps" : [],
         "download" : {
            "receiveFirst" : 35,
            "len" : 13260,
            "dns" : 0,
            "dnsEnd" : -1,
            "receiveHeadersEnd" : 48,
            "sslEnd" : -1,
            "connectEnd" : 13,
            "connectStart" : 0,
            "id" : "download_10",
            "receivedTime" : "2338.79100007471",
            "sslStart" : -1,
            "dnsStart" : -1,
            "receiveLast" : 2290.79100007471,
            "s_time" : 2273.22400000412,
            "sendEnd" : 13,
            "sendStart" : 13,
            "type" : "application/x-font-woff"
         }
      },
      {
         "when_comp_start" : -1,
         "url" : "http://instagramstatic-a.akamaihd.net/bluebar/422f2b4/webfonts/proximanova-regit-webfont.woff",
         "id" : "r24",
         "comps" : [],
         "download" : {
            "receiveFirst" : 20,
            "len" : 927,
            "dns" : 0,
            "dnsEnd" : 21,
            "receiveHeadersEnd" : 65,
            "sslEnd" : -1,
            "connectEnd" : 45,
            "connectStart" : 0,
            "id" : "download_11",
            "receivedTime" : "2358.71900001075",
            "sslStart" : -1,
            "dnsStart" : 21,
            "receiveLast" : 2293.71900001075,
            "s_time" : 2273.88000010978,
            "sendEnd" : 45,
            "sendStart" : 45,
            "type" : "application/x-font-woff"
         }
      },
      {
         "when_comp_start" : -1,
         "url" : "http://instagramstatic-a.akamaihd.net/bluebar/422f2b4/webfonts/proximanova-bold-webfont.woff",
         "id" : "r15",
         "comps" : [],
         "download" : {
            "receiveFirst" : 22,
            "len" : 3661,
            "dns" : 0,
            "dnsEnd" : 16,
            "receiveHeadersEnd" : 66,
            "sslEnd" : -1,
            "connectEnd" : 44,
            "connectStart" : 0,
            "id" : "download_12",
            "receivedTime" : "2358.90200000722",
            "sslStart" : -1,
            "dnsStart" : 16,
            "receiveLast" : 2292.90200000722,
            "s_time" : 2274.59600009024,
            "sendEnd" : 44,
            "sendStart" : 44,
            "type" : "application/x-font-woff"
         }
      }
   ],
   "deps" : [
      {
         "a2" : "r1_c2",
         "time" : -1,
         "id" : "dep1",
         "a1" : "comp_24"
      },
      {
         "a2" : "r1_c3",
         "time" : -1,
         "id" : "dep2",
         "a1" : "comp_26"
      },
      {
         "a2" : "r1_c4",
         "time" : -1,
         "id" : "dep3",
         "a1" : "comp_28"
      },
      {
         "a2" : "comp_24",
         "time" : -1,
         "id" : "dep4",
         "a1" : "comp_20"
      },
      {
         "a2" : "comp_26",
         "time" : -1,
         "id" : "dep5",
         "a1" : "comp_24"
      },
      {
         "a2" : "comp_28",
         "time" : -1,
         "id" : "dep6",
         "a1" : "comp_26"
      },
      {
         "a2" : "download_12",
         "time" : -1,
         "id" : "dep7",
         "a1" : "r1_c4"
      },
      {
         "a2" : "download_11",
         "time" : 121.49100005626,
         "id" : "dep8",
         "a1" : "r1_c4"
      },
      {
         "a2" : "download_10",
         "time" : 120.8349999506,
         "id" : "dep9",
         "a1" : "r1_c4"
      },
      {
         "a2" : "download_9",
         "time" : 3.93700005952041,
         "id" : "dep10",
         "a1" : "r1_c4"
      },
      {
         "a2" : "download_8",
         "time" : -1,
         "id" : "dep11",
         "a1" : "r1_c1"
      },
      {
         "a2" : "download_7",
         "time" : 259.399999980815,
         "id" : "dep12",
         "a1" : "r1_c1"
      },
      {
         "a2" : "download_6",
         "time" : 37.017999915406,
         "id" : "dep13",
         "a1" : "r1_c1"
      },
      {
         "a2" : "download_5",
         "time" : 41.168999974616,
         "id" : "dep14",
         "a1" : "r1_c1"
      },
      {
         "a2" : "download_5",
         "time" : 41.168999974616,
         "id" : "dep15",
         "a1" : "r1_c1"
      },
      {
         "a2" : "download_4",
         "time" : 33.691999968141,
         "id" : "dep16",
         "a1" : "r1_c1"
      },
      {
         "a2" : "download_3",
         "time" : 40.527999983169,
         "id" : "dep17",
         "a1" : "r1_c1"
      },
      {
         "a2" : "download_3",
         "time" : 40.527999983169,
         "id" : "dep18",
         "a1" : "r1_c1"
      },
      {
         "a2" : "download_2",
         "time" : 32.928999979049,
         "id" : "dep19",
         "a1" : "r1_c1"
      },
      {
         "a2" : "download_1",
         "time" : 2.25899997167301,
         "id" : "dep20",
         "a1" : "r1_c1"
      }
   ]
}
