{
   "n_download_no_trigger" : 6,
   "start_activity" : "download_0",
   "name" : "original.testbed.localhost_www.youtube.com_embed_M7VZIbeUrSU%3Flist=UU7m6vQ1ASO89SUqafM_t8Pg&controls=0&showinfo=0.html",
   "load_activity" : -1,
   "objs" : [
      {
         "when_comp_start" : 1,
         "url" : "http://original.testbed.localhost/www.youtube.com/embed/M7VZIbeUrSU%3Flist=UU7m6vQ1ASO89SUqafM_t8Pg&controls=0&showinfo=0.html",
         "id" : "r56",
         "comps" : [
            {
               "s_time" : 589.691000059247,
               "time" : 7.17100000474602,
               "type" : "evalhtml",
               "id" : "r56_c1",
               "e_time" : 596.862000063993
            }
         ],
         "download" : {
            "receiveFirst" : 170,
            "len" : 16535,
            "dns" : 0,
            "dnsEnd" : -1,
            "receiveHeadersEnd" : 418,
            "sslEnd" : -1,
            "connectEnd" : 247,
            "connectStart" : 0,
            "id" : "download_0",
            "receivedTime" : "475.189000018872",
            "sslStart" : -1,
            "dnsStart" : -1,
            "receiveLast" : 57.1890000188723,
            "s_time" : 0,
            "sendEnd" : 248,
            "sendStart" : 247,
            "type" : "text/html"
         }
      },
      {
         "when_comp_start" : -1,
         "url" : "http://original.testbed.localhost/my.leadpages.net/leadbox-831.js",
         "id" : "r57",
         "comps" : [
            {
               "s_time" : 484.10000000149,
               "time" : 25.084999972023,
               "type" : 2,
               "id" : "comp_28",
               "e_time" : 509.184999973513
            }
         ],
         "download" : {
            "receiveFirst" : 178,
            "len" : 24322,
            "dns" : 0,
            "dnsEnd" : -1,
            "receiveHeadersEnd" : 424,
            "sslEnd" : -1,
            "connectEnd" : 246,
            "connectStart" : 0,
            "id" : "download_1",
            "receivedTime" : "478.270999970846",
            "sslStart" : -1,
            "dnsStart" : -1,
            "receiveLast" : 54.2709999708459,
            "s_time" : 2.37999996170402,
            "sendEnd" : 246,
            "sendStart" : 246,
            "type" : "application/javascript"
         }
      },
      {
         "when_comp_start" : -1,
         "url" : "http://original.testbed.localhost/angelnetwork.com/wp-content/uploads/2014/05/ain-logo-460x751.png",
         "id" : "r51",
         "comps" : [],
         "download" : {
            "receiveFirst" : 173,
            "len" : 41624,
            "dns" : 0,
            "dnsEnd" : -1,
            "receiveHeadersEnd" : 423,
            "sslEnd" : -1,
            "connectEnd" : 250,
            "connectStart" : 0,
            "id" : "download_2",
            "receivedTime" : "1201.75100001507",
            "sslStart" : -1,
            "dnsStart" : -1,
            "receiveLast" : 778.751000015065,
            "s_time" : 8.7739999871701,
            "sendEnd" : 250,
            "sendStart" : 250,
            "type" : "image/png"
         }
      },
      {
         "when_comp_start" : -1,
         "url" : "http://original.testbed.localhost/angelnetwork.com/wp-content/uploads/2014/11/ain-kevin.png",
         "id" : "r53",
         "comps" : [],
         "download" : {
            "receiveFirst" : 199,
            "len" : 35429,
            "dns" : 0,
            "dnsEnd" : 253,
            "receiveHeadersEnd" : 607,
            "sslEnd" : -1,
            "connectEnd" : 408,
            "connectStart" : 0,
            "id" : "download_3",
            "receivedTime" : "1202.66700000502",
            "sslStart" : -1,
            "dnsStart" : 253,
            "receiveLast" : 595.667000005022,
            "s_time" : 10.0539999548346,
            "sendEnd" : 408,
            "sendStart" : 408,
            "type" : "image/png"
         }
      },
      {
         "when_comp_start" : -1,
         "url" : "http://original.testbed.localhost/angelnetwork.com/wp-content/uploads/2014/11/ain-corban.jpg",
         "id" : "r54",
         "comps" : [],
         "download" : {
            "receiveFirst" : 223,
            "len" : 11670,
            "dns" : 0,
            "dnsEnd" : -1,
            "receiveHeadersEnd" : 642,
            "sslEnd" : -1,
            "connectEnd" : 419,
            "connectStart" : 0,
            "id" : "download_4",
            "receivedTime" : "1200.10300003923",
            "sslStart" : -1,
            "dnsStart" : -1,
            "receiveLast" : 558.103000039235,
            "s_time" : 11.2910000607371,
            "sendEnd" : 419,
            "sendStart" : 419,
            "type" : "image/jpeg"
         }
      },
      {
         "when_comp_start" : -1,
         "url" : "http://original.testbed.localhost/tukipc.com/evp2/framework.php%3Fdiv_id=evp-06b120677e0ec1d4086553f462293edd&id=YWluLWtldmluLXNpenpsZS0xLm1wNA==&v=1440693441&profile=default",
         "id" : "r66",
         "comps" : [],
         "download" : {
            "receiveFirst" : 199,
            "len" : 7348,
            "dns" : 0,
            "dnsEnd" : 0,
            "receiveHeadersEnd" : 281,
            "sslEnd" : -1,
            "connectEnd" : 82,
            "connectStart" : 0,
            "id" : "download_5",
            "receivedTime" : "1164.94699998293",
            "sslStart" : -1,
            "dnsStart" : 0,
            "receiveLast" : 883.946999982931,
            "s_time" : 332.702000043355,
            "sendEnd" : 82,
            "sendStart" : 82,
            "type" : "text/plain"
         }
      },
      {
         "when_comp_start" : -1,
         "url" : "http://original.testbed.localhost/angelnetwork.com/wp-content/uploads/2014/11/ain-jason.jpg",
         "id" : "r55",
         "comps" : [],
         "download" : {
            "receiveFirst" : 223,
            "len" : 6643,
            "dns" : 0,
            "dnsEnd" : -1,
            "receiveHeadersEnd" : 654,
            "sslEnd" : -1,
            "connectEnd" : 430,
            "connectStart" : 0,
            "id" : "download_6",
            "receivedTime" : "1200.86600002833",
            "sslStart" : -1,
            "dnsStart" : -1,
            "receiveLast" : 546.866000028327,
            "s_time" : 12.451000045985,
            "sendEnd" : 431,
            "sendStart" : 430,
            "type" : "image/jpeg"
         }
      },
      {
         "when_comp_start" : -1,
         "url" : "http://original.testbed.localhost/s.ytimg.com/yts/cssbin/www-embed-player-new-vfly4-uqf.css",
         "id" : "r82",
         "comps" : [],
         "download" : {
            "receiveFirst" : 189,
            "len" : 82581,
            "dns" : 0,
            "dnsEnd" : -1,
            "receiveHeadersEnd" : 217,
            "sslEnd" : -1,
            "connectEnd" : 28,
            "connectStart" : 0,
            "id" : "download_7",
            "receivedTime" : "1204.65099997818",
            "sslStart" : -1,
            "dnsStart" : -1,
            "receiveLast" : 987.650999978185,
            "s_time" : 595.336999977008,
            "sendEnd" : 28,
            "sendStart" : 28,
            "type" : "text/css"
         }
      },
      {
         "when_comp_start" : 1,
         "url" : "http://original.testbed.localhost/www.angelnetwork.com/",
         "id" : "r58",
         "comps" : [],
         "download" : {
            "receiveFirst" : 158,
            "len" : 32768,
            "dns" : 0,
            "dnsEnd" : -1,
            "receiveHeadersEnd" : 241,
            "sslEnd" : -1,
            "connectEnd" : 83,
            "connectStart" : 0,
            "id" : "download_8",
            "receivedTime" : "1205.71899996139",
            "sslStart" : -1,
            "dnsStart" : -1,
            "receiveLast" : 964.718999961391,
            "s_time" : 590.484000043944,
            "sendEnd" : 83,
            "sendStart" : 83,
            "type" : "text/html"
         }
      },
      {
         "comps" : [
            {
               "s_time" : 332.000000053085,
               "time" : 865.692999912425,
               "type" : "evalhtml",
               "id" : "_c1",
               "e_time" : 1197.69299996551
            }
         ]
      }
   ],
   "deps" : [
      {
         "a2" : "download_8",
         "time" : 0.792999984696962,
         "id" : "dep1",
         "a1" : "r56_c1"
      },
      {
         "a2" : "download_7",
         "time" : 5.64599991776095,
         "id" : "dep2",
         "a1" : "r56_c1"
      }
   ]
}
