{
   "n_download_no_trigger" : 1,
   "start_activity" : "download_0",
   "name" : "original.testbed.localhost_www.xvideos.com_",
   "load_activity" : -1,
   "objs" : [
      {
         "when_comp_start" : 1,
         "url" : "http://original.testbed.localhost/www.xvideos.com/",
         "id" : "r1",
         "comps" : [
            {
               "s_time" : 161.392000009073,
               "time" : 50.537000002805,
               "id" : "r1_c1",
               "type" : "evalhtml",
               "e_time" : 211.929000011878
            },
            {
               "s_time" : 348.464000009699,
               "time" : 55.755999987013,
               "id" : "r1_c2",
               "type" : "evalhtml",
               "e_time" : 404.219999996712
            },
            {
               "s_time" : 410.78100001323,
               "time" : 3.99800000013795,
               "id" : "r1_c3",
               "type" : "evalhtml",
               "e_time" : 414.779000013368
            },
            {
               "s_time" : 419.630999997025,
               "time" : 110.046999994666,
               "id" : "r1_c4",
               "type" : "evalhtml",
               "e_time" : 529.677999991691
            },
            {
               "s_time" : 550.978999992367,
               "time" : 465.667000011303,
               "id" : "r1_c5",
               "type" : "evalhtml",
               "e_time" : 1016.64600000367
            },
            {
               "s_time" : 1089.73599999445,
               "time" : -149509418.411,
               "id" : "r1_c6",
               "type" : "evalhtml",
               "e_time" : -149508328.675
            },
            {
               "s_time" : 1097.1520000021,
               "time" : 68.6339999956499,
               "type" : "evalhtml",
               "id" : "r1_c7",
               "e_time" : 1165.78599999775
            }
         ],
         "download" : {
            "receiveFirst" : 53,
            "len" : 52241,
            "dns" : 0,
            "dnsEnd" : -1,
            "receiveHeadersEnd" : 59,
            "sslEnd" : -1,
            "connectEnd" : 6,
            "connectStart" : 0,
            "id" : "download_0",
            "receivedTime" : "158.675000013318",
            "sslStart" : -1,
            "dnsStart" : -1,
            "receiveLast" : 99.6750000133179,
            "s_time" : 0,
            "sendEnd" : 6,
            "sendStart" : 6,
            "type" : "text/html"
         }
      },
      {
         "when_comp_start" : -1,
         "url" : "http://original.testbed.localhost/static.xvideos.com/v2/css/xv-styles.css%3Fv=21.css",
         "id" : "r2",
         "comps" : [
            {
               "s_time" : 245.651000004727,
               "time" : 37.322999996832,
               "type" : 4,
               "id" : "comp_0",
               "e_time" : 282.974000001559
            }
         ],
         "download" : {
            "receiveFirst" : 56,
            "len" : 42081,
            "dns" : 0,
            "dnsEnd" : -1,
            "receiveHeadersEnd" : 74,
            "sslEnd" : -1,
            "connectEnd" : 18,
            "connectStart" : 0,
            "id" : "download_1",
            "receivedTime" : "245.193000009749",
            "sslStart" : -1,
            "dnsStart" : -1,
            "receiveLast" : 171.193000009749,
            "s_time" : 164.382000017213,
            "sendEnd" : 18,
            "sendStart" : 18,
            "type" : "text/css"
         }
      },
      {
         "when_comp_start" : -1,
         "url" : "http://original.testbed.localhost/static.xvideos.com/v2/css/xv-mobile-styles.css",
         "id" : "r3",
         "comps" : [
            {
               "s_time" : 300.947999989148,
               "time" : 6.71400001738198,
               "type" : 4,
               "id" : "comp_1",
               "e_time" : 307.66200000653
            }
         ],
         "download" : {
            "receiveFirst" : 54,
            "len" : 1254,
            "dns" : 0,
            "dnsEnd" : 23,
            "receiveHeadersEnd" : 129,
            "sslEnd" : -1,
            "connectEnd" : 75,
            "connectStart" : 0,
            "id" : "download_2",
            "receivedTime" : "300.308000005316",
            "sslStart" : -1,
            "dnsStart" : 23,
            "receiveLast" : 171.308000005316,
            "s_time" : 165.206000005128,
            "sendEnd" : 75,
            "sendStart" : 75,
            "type" : "text/css"
         }
      },
      {
         "when_comp_start" : -1,
         "url" : "http://original.testbed.localhost/static.xvideos.com/v2/js/libs/modernizr-2.6.2.min.js",
         "id" : "r4",
         "comps" : [
            {
               "s_time" : 308.852000016486,
               "time" : 39.611999993213,
               "type" : 1,
               "id" : "comp_2",
               "e_time" : 348.464000009699
            }
         ],
         "download" : {
            "receiveFirst" : 57,
            "len" : 4829,
            "dns" : 0,
            "dnsEnd" : -1,
            "receiveHeadersEnd" : 133,
            "sslEnd" : -1,
            "connectEnd" : 76,
            "connectStart" : 0,
            "id" : "download_3",
            "receivedTime" : "308.455999998841",
            "sslStart" : -1,
            "dnsStart" : -1,
            "receiveLast" : 175.455999998841,
            "s_time" : 167.921999993268,
            "sendEnd" : 76,
            "sendStart" : 76,
            "type" : "application/javascript"
         }
      },
      {
         "when_comp_start" : -1,
         "url" : "http://original.testbed.localhost/static.xvideos.com/v2/js/script-head.js%3Fv=4",
         "id" : "r5",
         "comps" : [
            {
               "s_time" : 355.360999994446,
               "time" : 55.420000018784,
               "type" : 1,
               "id" : "comp_3",
               "e_time" : 410.78100001323
            }
         ],
         "download" : {
            "receiveFirst" : 53,
            "len" : 12851,
            "dns" : 1,
            "dnsEnd" : 30,
            "receiveHeadersEnd" : 134,
            "sslEnd" : -1,
            "connectEnd" : 81,
            "connectStart" : 0,
            "id" : "download_4",
            "receivedTime" : "354.751000006218",
            "sslStart" : -1,
            "dnsStart" : 29,
            "receiveLast" : 220.751000006218,
            "s_time" : 191.786999988835,
            "sendEnd" : 81,
            "sendStart" : 81,
            "type" : "text/plain"
         }
      },
      {
         "when_comp_start" : -1,
         "url" : "http://original.testbed.localhost/static.xvideos.com/v2/js/mobile.js",
         "id" : "r6",
         "comps" : [
            {
               "s_time" : 415.69399999571,
               "time" : 3.93700000131503,
               "type" : 1,
               "id" : "comp_4",
               "e_time" : 419.630999997025
            }
         ],
         "download" : {
            "receiveFirst" : 64,
            "len" : 10531,
            "dns" : 0,
            "dnsEnd" : 31,
            "receiveHeadersEnd" : 147,
            "sslEnd" : -1,
            "connectEnd" : 82,
            "connectStart" : 0,
            "id" : "download_5",
            "receivedTime" : "415.237000008347",
            "sslStart" : -1,
            "dnsStart" : 31,
            "receiveLast" : 268.237000008347,
            "s_time" : 192.855000001146,
            "sendEnd" : 83,
            "sendStart" : 82,
            "type" : "application/javascript"
         }
      },
      {
         "when_comp_start" : -1,
         "url" : "http://original.testbed.localhost/static.xvideos.com/v2/js/ads.js%3Fv=1",
         "id" : "r47",
         "comps" : [
            {
               "s_time" : 539.5960000169,
               "time" : 11.382999975467,
               "type" : 1,
               "id" : "comp_9",
               "e_time" : 550.978999992367
            }
         ],
         "download" : {
            "receiveFirst" : 62,
            "len" : 2150,
            "dns" : 0,
            "dnsEnd" : 17,
            "receiveHeadersEnd" : 130,
            "sslEnd" : -1,
            "connectEnd" : 68,
            "connectStart" : 0,
            "id" : "download_6",
            "receivedTime" : "414.015999995172",
            "sslStart" : -1,
            "dnsStart" : 17,
            "receiveLast" : 284.015999995172,
            "s_time" : 211.929000011878,
            "sendEnd" : 68,
            "sendStart" : 68,
            "type" : "text/plain"
         }
      },
      {
         "when_comp_start" : -1,
         "url" : "http://original.testbed.localhost/static.xvideos.com/v2/img/xv-rss.png",
         "id" : "r7",
         "comps" : [],
         "download" : {
            "receiveFirst" : 104,
            "len" : 1514,
            "dns" : 0,
            "dnsEnd" : -1,
            "receiveHeadersEnd" : 207,
            "sslEnd" : -1,
            "connectEnd" : 103,
            "connectStart" : 0,
            "id" : "download_7",
            "receivedTime" : "666.365999990376",
            "sslStart" : -1,
            "dnsStart" : -1,
            "receiveLast" : 459.365999990376,
            "s_time" : 194.883999996819,
            "sendEnd" : 103,
            "sendStart" : 103,
            "type" : "image/png"
         }
      },
      {
         "when_comp_start" : -1,
         "url" : "http://original.testbed.localhost/static.xvideos.com/v2/img/xv-red-twitter.png",
         "id" : "r8",
         "comps" : [],
         "download" : {
            "receiveFirst" : 63,
            "len" : 1275,
            "dns" : 0,
            "dnsEnd" : -1,
            "receiveHeadersEnd" : 90,
            "sslEnd" : -1,
            "connectEnd" : 27,
            "connectStart" : 0,
            "id" : "download_8",
            "receivedTime" : "669.326000002911",
            "sslStart" : -1,
            "dnsStart" : -1,
            "receiveLast" : 579.326000002911,
            "s_time" : 349.18099999777,
            "sendEnd" : 27,
            "sendStart" : 27,
            "type" : "image/png"
         }
      },
      {
         "when_comp_start" : -1,
         "url" : "http://original.testbed.localhost/img100.xvideos.com/videos/thumbs/xvideos.gif",
         "id" : "r9",
         "comps" : [],
         "download" : {
            "receiveFirst" : 62,
            "len" : 1386,
            "dns" : 0,
            "dnsEnd" : -1,
            "receiveHeadersEnd" : 91,
            "sslEnd" : -1,
            "connectEnd" : 29,
            "connectStart" : 0,
            "id" : "download_9",
            "receivedTime" : "669.966999994358",
            "sslStart" : -1,
            "dnsStart" : -1,
            "receiveLast" : 578.966999994358,
            "s_time" : 350.386000005528,
            "sendEnd" : 29,
            "sendStart" : 29,
            "type" : "image/gif"
         }
      },
      {
         "when_comp_start" : -1,
         "url" : "http://original.testbed.localhost/img100-158.xvideos.com/videos/thumbs/54/b8/b5/54b8b5636270990906ff28d43c8feefd/54b8b5636270990906ff28d43c8feefd.24.jpg",
         "id" : "r10",
         "comps" : [],
         "download" : {
            "receiveFirst" : 73,
            "len" : 6557,
            "dns" : 0,
            "dnsEnd" : -1,
            "receiveHeadersEnd" : 104,
            "sslEnd" : -1,
            "connectEnd" : 31,
            "connectStart" : 0,
            "id" : "download_10",
            "receivedTime" : "673.933999991277",
            "sslStart" : -1,
            "dnsStart" : -1,
            "receiveLast" : 569.933999991277,
            "s_time" : 351.561999996193,
            "sendEnd" : 31,
            "sendStart" : 31,
            "type" : "image/jpeg"
         }
      },
      {
         "when_comp_start" : -1,
         "url" : "http://original.testbed.localhost/img100-473.xvideos.com/videos/thumbs/3a/c2/b1/3ac2b123c313af685dee01da46bf17f8/3ac2b123c313af685dee01da46bf17f8.3.jpg",
         "id" : "r11",
         "comps" : [],
         "download" : {
            "receiveFirst" : 78,
            "len" : 8136,
            "dns" : 0,
            "dnsEnd" : -1,
            "receiveHeadersEnd" : 111,
            "sslEnd" : -1,
            "connectEnd" : 33,
            "connectStart" : 0,
            "id" : "download_11",
            "receivedTime" : "677.839999989374",
            "sslStart" : -1,
            "dnsStart" : -1,
            "receiveLast" : 566.839999989374,
            "s_time" : 352.722000010544,
            "sendEnd" : 33,
            "sendStart" : 33,
            "type" : "image/jpeg"
         }
      },
      {
         "when_comp_start" : -1,
         "url" : "http://original.testbed.localhost/img100-811.xvideos.com/videos/thumbs/6a/23/06/6a230622fc82995da2a769ac0d92c0cc/6a230622fc82995da2a769ac0d92c0cc.14.jpg",
         "id" : "r12",
         "comps" : [],
         "download" : {
            "receiveFirst" : 78,
            "len" : 9472,
            "dns" : 0,
            "dnsEnd" : -1,
            "receiveHeadersEnd" : 129,
            "sslEnd" : -1,
            "connectEnd" : 51,
            "connectStart" : 0,
            "id" : "download_12",
            "receivedTime" : "679.122000001371",
            "sslStart" : -1,
            "dnsStart" : -1,
            "receiveLast" : 550.122000001371,
            "s_time" : 353.74399999273,
            "sendEnd" : 51,
            "sendStart" : 51,
            "type" : "image/jpeg"
         }
      },
      {
         "when_comp_start" : -1,
         "url" : "http://original.testbed.localhost/img100-237.xvideos.com/videos/thumbs/a8/cd/26/a8cd26e39c19599f5933dd884ec63ce0/a8cd26e39c19599f5933dd884ec63ce0.6.jpg",
         "id" : "r13",
         "comps" : [],
         "download" : {
            "receiveFirst" : 58,
            "len" : 7729,
            "dns" : 0,
            "dnsEnd" : -1,
            "receiveHeadersEnd" : 161,
            "sslEnd" : -1,
            "connectEnd" : 103,
            "connectStart" : 0,
            "id" : "download_13",
            "receivedTime" : "683.729999989737",
            "sslStart" : -1,
            "dnsStart" : -1,
            "receiveLast" : 522.729999989737,
            "s_time" : 354.795999999624,
            "sendEnd" : 103,
            "sendStart" : 103,
            "type" : "image/jpeg"
         }
      },
      {
         "when_comp_start" : -1,
         "url" : "http://original.testbed.localhost/ajax.googleapis.com/ajax/libs/jquery/1.7.2/jquery.min.js",
         "id" : "r48",
         "comps" : [
            {
               "s_time" : 926.83300000499,
               "time" : 162.90299998946,
               "type" : 1,
               "id" : "comp_31",
               "e_time" : 1089.73599999445
            }
         ],
         "download" : {
            "receiveFirst" : 70,
            "len" : 94840,
            "dns" : 0,
            "dnsEnd" : -1,
            "receiveHeadersEnd" : 110,
            "sslEnd" : -1,
            "connectEnd" : 40,
            "connectStart" : 0,
            "id" : "download_14",
            "receivedTime" : "925.856999994721",
            "sslStart" : -1,
            "dnsStart" : -1,
            "receiveLast" : 815.856999994721,
            "s_time" : 414.779000013368,
            "sendEnd" : 40,
            "sendStart" : 40,
            "type" : "application/javascript"
         }
      },
      {
         "when_comp_start" : 1,
         "url" : "http://original.testbed.localhost/img100-005.xvideos.com/videos/thumbs/83/32/eb/8332eb870c5a1284c516cb333b4a34a4/8332eb870c5a1284c516cb333b4a34a4.26.jpg",
         "id" : "r49",
         "comps" : [],
         "download" : {
            "receiveFirst" : 64,
            "len" : 408,
            "dns" : 0,
            "dnsEnd" : -1,
            "receiveHeadersEnd" : 103,
            "sslEnd" : -1,
            "connectEnd" : 39,
            "connectStart" : 0,
            "id" : "download_15",
            "receivedTime" : "689.406999998027",
            "sslStart" : -1,
            "dnsStart" : -1,
            "receiveLast" : 586.406999998027,
            "s_time" : 450.194000004558,
            "sendEnd" : 39,
            "sendStart" : 39,
            "type" : "text/html"
         }
      },
      {
         "when_comp_start" : -1,
         "url" : "http://original.testbed.localhost/img100-237.xvideos.com/videos/thumbs/ca/fc/d1/cafcd1515bd3c73acb1fc7c8730be9ed/cafcd1515bd3c73acb1fc7c8730be9ed.11.jpg",
         "id" : "r18",
         "comps" : [],
         "download" : {
            "receiveFirst" : 64,
            "len" : 8662,
            "dns" : 0,
            "dnsEnd" : -1,
            "receiveHeadersEnd" : 101,
            "sslEnd" : -1,
            "connectEnd" : 37,
            "connectStart" : 0,
            "id" : "download_16",
            "receivedTime" : "693.15999999526",
            "sslStart" : -1,
            "dnsStart" : -1,
            "receiveLast" : 592.15999999526,
            "s_time" : 453.796000016155,
            "sendEnd" : 37,
            "sendStart" : 37,
            "type" : "image/jpeg"
         }
      },
      {
         "when_comp_start" : 1,
         "url" : "http://original.testbed.localhost/img100-093.xvideos.com/videos/thumbs/10/14/5f/10145f50bd8272cfe927300eb77ef731/10145f50bd8272cfe927300eb77ef731.6.jpg",
         "id" : "r50",
         "comps" : [],
         "download" : {
            "receiveFirst" : 68,
            "len" : 407,
            "dns" : 0,
            "dnsEnd" : -1,
            "receiveHeadersEnd" : 91,
            "sslEnd" : -1,
            "connectEnd" : 22,
            "connectStart" : 0,
            "id" : "download_17",
            "receivedTime" : "695.082999998704",
            "sslStart" : -1,
            "dnsStart" : -1,
            "receiveLast" : 604.082999998704,
            "s_time" : 477.386000013212,
            "sendEnd" : 23,
            "sendStart" : 22,
            "type" : "text/html"
         }
      },
      {
         "when_comp_start" : -1,
         "url" : "http://original.testbed.localhost/img100-683.xvideos.com/videos/thumbs/04/7f/24/047f24efc100becf4c4573cdf07b3820/047f24efc100becf4c4573cdf07b3820.14.jpg",
         "id" : "r19",
         "comps" : [],
         "download" : {
            "receiveFirst" : 61,
            "len" : 8741,
            "dns" : 0,
            "dnsEnd" : -1,
            "receiveHeadersEnd" : 104,
            "sslEnd" : -1,
            "connectEnd" : 43,
            "connectStart" : 0,
            "id" : "download_18",
            "receivedTime" : "697.554999991553",
            "sslStart" : -1,
            "dnsStart" : -1,
            "receiveLast" : 593.554999991553,
            "s_time" : 487.731000001077,
            "sendEnd" : 43,
            "sendStart" : 43,
            "type" : "image/jpeg"
         }
      },
      {
         "when_comp_start" : -1,
         "url" : "http://original.testbed.localhost/img100-121.xvideos.com/videos/thumbs/82/f4/a0/82f4a0cfb294af444f19b7a01dfb06b8/82f4a0cfb294af444f19b7a01dfb06b8.20.jpg",
         "id" : "r20",
         "comps" : [],
         "download" : {
            "receiveFirst" : 58,
            "len" : 5665,
            "dns" : 0,
            "dnsEnd" : -1,
            "receiveHeadersEnd" : 122,
            "sslEnd" : -1,
            "connectEnd" : 64,
            "connectStart" : 0,
            "id" : "download_19",
            "receivedTime" : "700.454000005266",
            "sslStart" : -1,
            "dnsStart" : -1,
            "receiveLast" : 578.454000005266,
            "s_time" : 497.846999991452,
            "sendEnd" : 64,
            "sendStart" : 64,
            "type" : "image/jpeg"
         }
      },
      {
         "when_comp_start" : -1,
         "url" : "http://original.testbed.localhost/img100-697.xvideos.com/videos/thumbs/13/6c/17/136c171afc4d10e55ead13274b6bf9f8/136c171afc4d10e55ead13274b6bf9f8.29.jpg",
         "id" : "r21",
         "comps" : [],
         "download" : {
            "receiveFirst" : 58,
            "len" : 7450,
            "dns" : 0,
            "dnsEnd" : -1,
            "receiveHeadersEnd" : 100,
            "sslEnd" : -1,
            "connectEnd" : 42,
            "connectStart" : 0,
            "id" : "download_20",
            "receivedTime" : "702.468000003137",
            "sslStart" : -1,
            "dnsStart" : -1,
            "receiveLast" : 602.468000003137,
            "s_time" : 529.677999991691,
            "sendEnd" : 42,
            "sendStart" : 42,
            "type" : "image/jpeg"
         }
      },
      {
         "when_comp_start" : -1,
         "url" : "http://original.testbed.localhost/img100-722.xvideos.com/videos/thumbs/5a/91/42/5a91421ee109d4bef1ed43d7285f7e0c/5a91421ee109d4bef1ed43d7285f7e0c.13.jpg",
         "id" : "r22",
         "comps" : [],
         "download" : {
            "receiveFirst" : 61,
            "len" : 6538,
            "dns" : 0,
            "dnsEnd" : -1,
            "receiveHeadersEnd" : 83,
            "sslEnd" : -1,
            "connectEnd" : 22,
            "connectStart" : 0,
            "id" : "download_21",
            "receivedTime" : "704.482000001008",
            "sslStart" : -1,
            "dnsStart" : -1,
            "receiveLast" : 621.482000001008,
            "s_time" : 559.127000014996,
            "sendEnd" : 22,
            "sendStart" : 22,
            "type" : "image/jpeg"
         }
      },
      {
         "when_comp_start" : -1,
         "url" : "http://original.testbed.localhost/img100-257.xvideos.com/videos/thumbs/24/34/92/2434926e4fa365da4f3eec67825a6e3f/2434926e4fa365da4f3eec67825a6e3f.5.jpg",
         "id" : "r23",
         "comps" : [],
         "download" : {
            "receiveFirst" : 57,
            "len" : 6512,
            "dns" : 0,
            "dnsEnd" : -1,
            "receiveHeadersEnd" : 86,
            "sslEnd" : -1,
            "connectEnd" : 29,
            "connectStart" : 0,
            "id" : "download_22",
            "receivedTime" : "725.295000011101",
            "sslStart" : -1,
            "dnsStart" : -1,
            "receiveLast" : 639.295000011101,
            "s_time" : 567.489000008209,
            "sendEnd" : 29,
            "sendStart" : 29,
            "type" : "image/jpeg"
         }
      },
      {
         "when_comp_start" : -1,
         "url" : "http://original.testbed.localhost/img100-427.xvideos.com/videos/thumbs/13/9f/aa/139faa49740d9df94698daa102921bcf/139faa49740d9df94698daa102921bcf.5.jpg",
         "id" : "r25",
         "comps" : [],
         "download" : {
            "receiveFirst" : 64,
            "len" : 8468,
            "dns" : 0,
            "dnsEnd" : -1,
            "receiveHeadersEnd" : 105,
            "sslEnd" : -1,
            "connectEnd" : 41,
            "connectStart" : 0,
            "id" : "download_23",
            "receivedTime" : "726.118999999017",
            "sslStart" : -1,
            "dnsStart" : -1,
            "receiveLast" : 621.118999999017,
            "s_time" : 594.922999996925,
            "sendEnd" : 41,
            "sendStart" : 41,
            "type" : "image/jpeg"
         }
      },
      {
         "when_comp_start" : -1,
         "url" : "http://original.testbed.localhost/img100-520.xvideos.com/videos/thumbs/9d/66/23/9d6623220cc03355cb24fdd571c19f78/9d6623220cc03355cb24fdd571c19f78.21.jpg",
         "id" : "r26",
         "comps" : [],
         "download" : {
            "receiveFirst" : 70,
            "len" : 7329,
            "dns" : 0,
            "dnsEnd" : -1,
            "receiveHeadersEnd" : 95,
            "sslEnd" : -1,
            "connectEnd" : 24,
            "connectStart" : 0,
            "id" : "download_24",
            "receivedTime" : "732.741999992868",
            "sslStart" : -1,
            "dnsStart" : -1,
            "receiveLast" : 637.741999992868,
            "s_time" : 622.801999998046,
            "sendEnd" : 25,
            "sendStart" : 24,
            "type" : "image/jpeg"
         }
      },
      {
         "when_comp_start" : -1,
         "url" : "http://original.testbed.localhost/img100-905.xvideos.com/videos/thumbs/b4/dd/5e/b4dd5e0e7941d6f42e0ff5a4026f62c9/b4dd5e0e7941d6f42e0ff5a4026f62c9.3.jpg",
         "id" : "r27",
         "comps" : [],
         "download" : {
            "receiveFirst" : 71,
            "len" : 9309,
            "dns" : 0,
            "dnsEnd" : -1,
            "receiveHeadersEnd" : 97,
            "sslEnd" : -1,
            "connectEnd" : 26,
            "connectStart" : 0,
            "id" : "download_25",
            "receivedTime" : "738.661999988835",
            "sslStart" : -1,
            "dnsStart" : -1,
            "receiveLast" : 641.661999988835,
            "s_time" : 632.322999997996,
            "sendEnd" : 26,
            "sendStart" : 26,
            "type" : "image/jpeg"
         }
      },
      {
         "when_comp_start" : -1,
         "url" : "http://original.testbed.localhost/static.xvideos.com/v2/js/script.js%3Fv=17",
         "id" : "r52",
         "comps" : [
            {
               "s_time" : 1091.04900000966,
               "time" : 6.10299999244012,
               "type" : 1,
               "id" : "comp_34",
               "e_time" : 1097.1520000021
            }
         ],
         "download" : {
            "receiveFirst" : 53,
            "len" : 38028,
            "dns" : 0,
            "dnsEnd" : -1,
            "receiveHeadersEnd" : 97,
            "sslEnd" : -1,
            "connectEnd" : 44,
            "connectStart" : 0,
            "id" : "download_26",
            "receivedTime" : "889.144000015222",
            "sslStart" : -1,
            "dnsStart" : -1,
            "receiveLast" : 792.144000015222,
            "s_time" : 667.373000003863,
            "sendEnd" : 44,
            "sendStart" : 44,
            "type" : "text/plain"
         }
      },
      {
         "when_comp_start" : -1,
         "url" : "http://original.testbed.localhost/img100-069.xvideos.com/videos/thumbs/68/1c/3e/681c3ec040608afee167121c18259633/681c3ec040608afee167121c18259633.5.jpg",
         "id" : "r28",
         "comps" : [],
         "download" : {
            "receiveFirst" : 55,
            "len" : 8618,
            "dns" : 0,
            "dnsEnd" : -1,
            "receiveHeadersEnd" : 126,
            "sslEnd" : -1,
            "connectEnd" : 70,
            "connectStart" : 0,
            "id" : "download_27",
            "receivedTime" : "775.131000002148",
            "sslStart" : -1,
            "dnsStart" : -1,
            "receiveLast" : 649.131000002148,
            "s_time" : 644.300999992993,
            "sendEnd" : 71,
            "sendStart" : 70,
            "type" : "image/jpeg"
         }
      },
      {
         "when_comp_start" : -1,
         "url" : "http://original.testbed.localhost/img100-901.xvideos.com/videos/thumbs/9e/c1/bb/9ec1bb695dc43411e3bed08991e5a5fc/9ec1bb695dc43411e3bed08991e5a5fc.8.jpg",
         "id" : "r29",
         "comps" : [],
         "download" : {
            "receiveFirst" : 54,
            "len" : 8316,
            "dns" : 0,
            "dnsEnd" : -1,
            "receiveHeadersEnd" : 134,
            "sslEnd" : -1,
            "connectEnd" : 80,
            "connectStart" : 0,
            "id" : "download_28",
            "receivedTime" : "800.886999990325",
            "sslStart" : -1,
            "dnsStart" : -1,
            "receiveLast" : 666.886999990325,
            "s_time" : 656.584999989718,
            "sendEnd" : 80,
            "sendStart" : 80,
            "type" : "image/jpeg"
         }
      },
      {
         "when_comp_start" : -1,
         "url" : "http://original.testbed.localhost/img100-865.xvideos.com/videos/thumbs/a8/38/b8/a838b8c2175ee501db6ee76fc5b6d509/a838b8c2175ee501db6ee76fc5b6d509.7.jpg",
         "id" : "r30",
         "comps" : [],
         "download" : {
            "receiveFirst" : 66,
            "len" : 6942,
            "dns" : 0,
            "dnsEnd" : -1,
            "receiveHeadersEnd" : 99,
            "sslEnd" : -1,
            "connectEnd" : 32,
            "connectStart" : 0,
            "id" : "download_29",
            "receivedTime" : "824.446999991778",
            "sslStart" : -1,
            "dnsStart" : -1,
            "receiveLast" : 725.446999991778,
            "s_time" : 708.601999998791,
            "sendEnd" : 33,
            "sendStart" : 32,
            "type" : "image/jpeg"
         }
      },
      {
         "when_comp_start" : -1,
         "url" : "http://original.testbed.localhost/img100-085.xvideos.com/videos/thumbs/d0/f3/ae/d0f3ae8b9b80dc2aecbcf6947f0e3883/d0f3ae8b9b80dc2aecbcf6947f0e3883.26.jpg",
         "id" : "r31",
         "comps" : [],
         "download" : {
            "receiveFirst" : 54,
            "len" : 9032,
            "dns" : 0,
            "dnsEnd" : -1,
            "receiveHeadersEnd" : 119,
            "sslEnd" : -1,
            "connectEnd" : 65,
            "connectStart" : 0,
            "id" : "download_30",
            "receivedTime" : "836.562000011327",
            "sslStart" : -1,
            "dnsStart" : -1,
            "receiveLast" : 717.562000011327,
            "s_time" : 713.118000014219,
            "sendEnd" : 65,
            "sendStart" : 65,
            "type" : "image/jpeg"
         }
      },
      {
         "when_comp_start" : -1,
         "url" : "http://original.testbed.localhost/img100-077.xvideos.com/videos/thumbs/c1/0e/36/c10e36e8ea3489bf13841f9cbcb786f7/c10e36e8ea3489bf13841f9cbcb786f7.6.jpg",
         "id" : "r32",
         "comps" : [],
         "download" : {
            "receiveFirst" : 68,
            "len" : 6550,
            "dns" : 0,
            "dnsEnd" : 0,
            "receiveHeadersEnd" : 130,
            "sslEnd" : -1,
            "connectEnd" : 62,
            "connectStart" : 0,
            "id" : "download_31",
            "receivedTime" : "880.842999991728",
            "sslStart" : -1,
            "dnsStart" : 0,
            "receiveLast" : 750.842999991728,
            "s_time" : 733.565000002272,
            "sendEnd" : 62,
            "sendStart" : 62,
            "type" : "image/jpeg"
         }
      },
      {
         "when_comp_start" : -1,
         "url" : "http://original.testbed.localhost/img100-476.xvideos.com/videos/thumbs/ba/f5/19/baf519d80283ca66733a0555e20f23dd/baf519d80283ca66733a0555e20f23dd.1.jpg",
         "id" : "r33",
         "comps" : [],
         "download" : {
            "receiveFirst" : 71,
            "len" : 6991,
            "dns" : 0,
            "dnsEnd" : -1,
            "receiveHeadersEnd" : 135,
            "sslEnd" : -1,
            "connectEnd" : 63,
            "connectStart" : 0,
            "id" : "download_32",
            "receivedTime" : "895.400000008522",
            "sslStart" : -1,
            "dnsStart" : -1,
            "receiveLast" : 760.400000008522,
            "s_time" : 739.013000013074,
            "sendEnd" : 64,
            "sendStart" : 63,
            "type" : "image/jpeg"
         }
      },
      {
         "when_comp_start" : -1,
         "url" : "http://original.testbed.localhost/img100-167.xvideos.com/videos/thumbs/ec/e0/5d/ece05d79ee34729dfbdc9ce7ebb49f7a/ece05d79ee34729dfbdc9ce7ebb49f7a.28.jpg",
         "id" : "r34",
         "comps" : [],
         "download" : {
            "receiveFirst" : 84,
            "len" : 8682,
            "dns" : 0,
            "dnsEnd" : -1,
            "receiveHeadersEnd" : 134,
            "sslEnd" : -1,
            "connectEnd" : 50,
            "connectStart" : 0,
            "id" : "download_33",
            "receivedTime" : "922.133999993093",
            "sslStart" : -1,
            "dnsStart" : -1,
            "receiveLast" : 788.133999993093,
            "s_time" : 775.267999997595,
            "sendEnd" : 50,
            "sendStart" : 50,
            "type" : "image/jpeg"
         }
      },
      {
         "when_comp_start" : -1,
         "url" : "http://original.testbed.localhost/img100-771.xvideos.com/videos/thumbs/92/42/a9/9242a9f74406729cb154db367e526c3a/9242a9f74406729cb154db367e526c3a.18.jpg",
         "id" : "r35",
         "comps" : [],
         "download" : {
            "receiveFirst" : 80,
            "len" : 7518,
            "dns" : 0,
            "dnsEnd" : -1,
            "receiveHeadersEnd" : 117,
            "sslEnd" : -1,
            "connectEnd" : 37,
            "connectStart" : 0,
            "id" : "download_34",
            "receivedTime" : "1258.95600000513",
            "sslStart" : -1,
            "dnsStart" : -1,
            "receiveLast" : 1141.95600000513,
            "s_time" : 800.810999993701,
            "sendEnd" : 37,
            "sendStart" : 37,
            "type" : "image/jpeg"
         }
      },
      {
         "when_comp_start" : 1,
         "url" : "http://original.testbed.localhost/pics-error/1/2/479/-/0",
         "id" : "r53",
         "comps" : [],
         "download" : {
            "receiveFirst" : 69,
            "len" : 312,
            "dns" : 0,
            "dnsEnd" : -1,
            "receiveHeadersEnd" : 109,
            "sslEnd" : -1,
            "connectEnd" : 40,
            "connectStart" : 0,
            "id" : "download_35",
            "receivedTime" : "1260.29900001595",
            "sslStart" : -1,
            "dnsStart" : -1,
            "receiveLast" : 1151.29900001595,
            "s_time" : 842.818000004627,
            "sendEnd" : 40,
            "sendStart" : 40,
            "type" : "text/html"
         }
      },
      {
         "when_comp_start" : -1,
         "url" : "http://original.testbed.localhost/img100-363.xvideos.com/videos/thumbs/08/8d/c7/088dc73e37cee6ad597ebdcb2708156f/088dc73e37cee6ad597ebdcb2708156f.30.jpg",
         "id" : "r36",
         "comps" : [],
         "download" : {
            "receiveFirst" : 66,
            "len" : 5602,
            "dns" : 0,
            "dnsEnd" : -1,
            "receiveHeadersEnd" : 132,
            "sslEnd" : -1,
            "connectEnd" : 66,
            "connectStart" : 0,
            "id" : "download_36",
            "receivedTime" : "1262.06899998942",
            "sslStart" : -1,
            "dnsStart" : -1,
            "receiveLast" : 1130.06899998942,
            "s_time" : 823.043000011239,
            "sendEnd" : 66,
            "sendStart" : 66,
            "type" : "image/jpeg"
         }
      },
      {
         "when_comp_start" : -1,
         "url" : "http://original.testbed.localhost/img100-397.xvideos.com/videos/thumbs/c4/02/cf/c402cfcce7906ff4833c9eeec4e108aa/c402cfcce7906ff4833c9eeec4e108aa.16.jpg",
         "id" : "r37",
         "comps" : [],
         "download" : {
            "receiveFirst" : 69,
            "len" : 7334,
            "dns" : 0,
            "dnsEnd" : -1,
            "receiveHeadersEnd" : 129,
            "sslEnd" : -1,
            "connectEnd" : 60,
            "connectStart" : 0,
            "id" : "download_37",
            "receivedTime" : "1262.74000000558",
            "sslStart" : -1,
            "dnsStart" : -1,
            "receiveLast" : 1133.74000000558,
            "s_time" : 836.272000015015,
            "sendEnd" : 60,
            "sendStart" : 60,
            "type" : "image/jpeg"
         }
      },
      {
         "when_comp_start" : -1,
         "url" : "http://original.testbed.localhost/img100-995.xvideos.com/videos/thumbs/82/f1/57/82f1573a394dae101deac07c2b5371da/82f1573a394dae101deac07c2b5371da.6.jpg",
         "id" : "r38",
         "comps" : [],
         "download" : {
            "receiveFirst" : 60,
            "len" : 9588,
            "dns" : 0,
            "dnsEnd" : -1,
            "receiveHeadersEnd" : 104,
            "sslEnd" : -1,
            "connectEnd" : 43,
            "connectStart" : 0,
            "id" : "download_38",
            "receivedTime" : "1263.77799999318",
            "sslStart" : -1,
            "dnsStart" : -1,
            "receiveLast" : 1159.77799999318,
            "s_time" : 880.583999998635,
            "sendEnd" : 44,
            "sendStart" : 43,
            "type" : "image/jpeg"
         }
      },
      {
         "when_comp_start" : -1,
         "url" : "http://original.testbed.localhost/img100-493.xvideos.com/videos/thumbs/2f/b9/93/2fb99322f102421018587fe8ccbbb6e1/2fb99322f102421018587fe8ccbbb6e1.22.jpg",
         "id" : "r14",
         "comps" : [],
         "download" : {
            "receiveFirst" : 60,
            "len" : 5869,
            "dns" : 0,
            "dnsEnd" : -1,
            "receiveHeadersEnd" : 640,
            "sslEnd" : -1,
            "connectEnd" : 580,
            "connectStart" : 0,
            "id" : "download_39",
            "receivedTime" : "1264.75500001106",
            "sslStart" : -1,
            "dnsStart" : -1,
            "receiveLast" : 624.755000011064,
            "s_time" : 355.941000016173,
            "sendEnd" : 580,
            "sendStart" : 580,
            "type" : "image/jpeg"
         }
      },
      {
         "when_comp_start" : -1,
         "url" : "http://original.testbed.localhost/img100-099.xvideos.com/videos/thumbs/a1/1d/34/a11d3417c9592a3c032fb3703ec82f5a/a11d3417c9592a3c032fb3703ec82f5a.30.jpg",
         "id" : "r40",
         "comps" : [],
         "download" : {
            "receiveFirst" : 53,
            "len" : 8392,
            "dns" : 0,
            "dnsEnd" : -1,
            "receiveHeadersEnd" : 90,
            "sslEnd" : -1,
            "connectEnd" : 37,
            "connectStart" : 0,
            "id" : "download_40",
            "receivedTime" : "1265.73099999223",
            "sslStart" : -1,
            "dnsStart" : -1,
            "receiveLast" : 1175.73099999223,
            "s_time" : 922.575000004144,
            "sendEnd" : 37,
            "sendStart" : 37,
            "type" : "image/jpeg"
         }
      },
      {
         "when_comp_start" : -1,
         "url" : "http://original.testbed.localhost/img100-233.xvideos.com/videos/thumbs/d2/b5/8a/d2b58ad8ba5633b452f27969694471af/d2b58ad8ba5633b452f27969694471af.20.jpg",
         "id" : "r41",
         "comps" : [],
         "download" : {
            "receiveFirst" : 54,
            "len" : 8122,
            "dns" : 0,
            "dnsEnd" : -1,
            "receiveHeadersEnd" : 91,
            "sslEnd" : -1,
            "connectEnd" : 37,
            "connectStart" : 0,
            "id" : "download_41",
            "receivedTime" : "1266.83000000776",
            "sslStart" : -1,
            "dnsStart" : -1,
            "receiveLast" : 1175.83000000776,
            "s_time" : 934.218000009423,
            "sendEnd" : 37,
            "sendStart" : 37,
            "type" : "image/jpeg"
         }
      },
      {
         "when_comp_start" : -1,
         "url" : "http://original.testbed.localhost/img100-641.xvideos.com/videos/thumbs/d9/57/79/d95779c5e42dd56a51b51a377e566f03/d95779c5e42dd56a51b51a377e566f03.6.jpg",
         "id" : "r15",
         "comps" : [],
         "download" : {
            "receiveFirst" : 55,
            "len" : 5684,
            "dns" : 0,
            "dnsEnd" : -1,
            "receiveHeadersEnd" : 676,
            "sslEnd" : -1,
            "connectEnd" : 620,
            "connectStart" : 0,
            "id" : "download_42",
            "receivedTime" : "1267.86700001685",
            "sslStart" : -1,
            "dnsStart" : -1,
            "receiveLast" : 591.867000016849,
            "s_time" : 356.948000000557,
            "sendEnd" : 621,
            "sendStart" : 620,
            "type" : "image/jpeg"
         }
      },
      {
         "when_comp_start" : -1,
         "url" : "http://original.testbed.localhost/img100-511.xvideos.com/videos/thumbs/f8/e2/dc/f8e2dc03238bcf58769bf7d311f409d0/f8e2dc03238bcf58769bf7d311f409d0.10.jpg",
         "id" : "r42",
         "comps" : [],
         "download" : {
            "receiveFirst" : 54,
            "len" : 7449,
            "dns" : 0,
            "dnsEnd" : -1,
            "receiveHeadersEnd" : 75,
            "sslEnd" : -1,
            "connectEnd" : 21,
            "connectStart" : 0,
            "id" : "download_43",
            "receivedTime" : "1269.0270000021",
            "sslStart" : -1,
            "dnsStart" : -1,
            "receiveLast" : 1194.0270000021,
            "s_time" : 969.878000003519,
            "sendEnd" : 21,
            "sendStart" : 21,
            "type" : "image/jpeg"
         }
      },
      {
         "when_comp_start" : -1,
         "url" : "http://original.testbed.localhost/img100-405.xvideos.com/videos/thumbs/62/17/21/621721933fb1e7fa913082eb10242d99/621721933fb1e7fa913082eb10242d99.8.jpg",
         "id" : "r43",
         "comps" : [],
         "download" : {
            "receiveFirst" : 53,
            "len" : 7251,
            "dns" : 0,
            "dnsEnd" : -1,
            "receiveHeadersEnd" : 79,
            "sslEnd" : -1,
            "connectEnd" : 25,
            "connectStart" : 0,
            "id" : "download_44",
            "receivedTime" : "1270.21700001205",
            "sslStart" : -1,
            "dnsStart" : -1,
            "receiveLast" : 1191.21700001205,
            "s_time" : 975.7990000071,
            "sendEnd" : 26,
            "sendStart" : 25,
            "type" : "image/jpeg"
         }
      },
      {
         "when_comp_start" : -1,
         "url" : "http://original.testbed.localhost/img100-697.xvideos.com/videos/thumbs/91/da/bc/91dabca4ad448bed5bca85da987f027c/91dabca4ad448bed5bca85da987f027c.3.jpg",
         "id" : "r44",
         "comps" : [],
         "download" : {
            "receiveFirst" : 54,
            "len" : 9366,
            "dns" : 0,
            "dnsEnd" : -1,
            "receiveHeadersEnd" : 83,
            "sslEnd" : -1,
            "connectEnd" : 29,
            "connectStart" : 0,
            "id" : "download_45",
            "receivedTime" : "1276.80900000269",
            "sslStart" : -1,
            "dnsStart" : -1,
            "receiveLast" : 1193.80900000269,
            "s_time" : 989.303000009386,
            "sendEnd" : 29,
            "sendStart" : 29,
            "type" : "image/jpeg"
         }
      },
      {
         "when_comp_start" : -1,
         "url" : "http://original.testbed.localhost/img100-461.xvideos.com/videos/thumbs/70/03/25/700325d5c800a856bc01740a17dbd9d7/700325d5c800a856bc01740a17dbd9d7.25.jpg",
         "id" : "r45",
         "comps" : [],
         "download" : {
            "receiveFirst" : 54,
            "len" : 7305,
            "dns" : 0,
            "dnsEnd" : -1,
            "receiveHeadersEnd" : 84,
            "sslEnd" : -1,
            "connectEnd" : 29,
            "connectStart" : 0,
            "id" : "download_46",
            "receivedTime" : "1272.6590000093",
            "sslStart" : -1,
            "dnsStart" : -1,
            "receiveLast" : 1188.6590000093,
            "s_time" : 999.632999999449,
            "sendEnd" : 30,
            "sendStart" : 29,
            "type" : "image/jpeg"
         }
      },
      {
         "when_comp_start" : -1,
         "url" : "http://original.testbed.localhost/img100-911.xvideos.com/videos/thumbs/72/dd/0b/72dd0ba9cbcb47502f44dcae356732d2/72dd0ba9cbcb47502f44dcae356732d2.24.jpg",
         "id" : "r46",
         "comps" : [],
         "download" : {
            "receiveFirst" : 54,
            "len" : 6705,
            "dns" : 0,
            "dnsEnd" : -1,
            "receiveHeadersEnd" : 76,
            "sslEnd" : -1,
            "connectEnd" : 21,
            "connectStart" : 0,
            "id" : "download_47",
            "receivedTime" : "1325.45400000527",
            "sslStart" : -1,
            "dnsStart" : -1,
            "receiveLast" : 1249.45400000527,
            "s_time" : 1016.64600000367,
            "sendEnd" : 22,
            "sendStart" : 21,
            "type" : "image/jpeg"
         }
      },
      {
         "when_comp_start" : -1,
         "url" : "http://original.testbed.localhost/img100-279.xvideos.com/videos/thumbs/e5/1d/7e/e51d7ecfa4bb1cbbbe3b2cd349a19d28/e51d7ecfa4bb1cbbbe3b2cd349a19d28.25.jpg",
         "id" : "r16",
         "comps" : [],
         "download" : {
            "receiveFirst" : 55,
            "len" : 7139,
            "dns" : 0,
            "dnsEnd" : -1,
            "receiveHeadersEnd" : 745,
            "sslEnd" : -1,
            "connectEnd" : 690,
            "connectStart" : 0,
            "id" : "download_48",
            "receivedTime" : "1274.94699999806",
            "sslStart" : -1,
            "dnsStart" : -1,
            "receiveLast" : 529.946999998065,
            "s_time" : 358.016000012867,
            "sendEnd" : 690,
            "sendStart" : 690,
            "type" : "image/jpeg"
         }
      },
      {
         "when_comp_start" : -1,
         "url" : "http://original.testbed.localhost/img100-511.xvideos.com/videos/thumbs/34/c4/5f/34c45f58c1b82e0d940d29722a70476b/34c45f58c1b82e0d940d29722a70476b.26.jpg",
         "id" : "r17",
         "comps" : [],
         "download" : {
            "receiveFirst" : 55,
            "len" : 5306,
            "dns" : 0,
            "dnsEnd" : -1,
            "receiveHeadersEnd" : 709,
            "sslEnd" : -1,
            "connectEnd" : 654,
            "connectStart" : 0,
            "id" : "download_49",
            "receivedTime" : "1276.3210000121",
            "sslStart" : -1,
            "dnsStart" : -1,
            "receiveLast" : 567.321000012103,
            "s_time" : 404.219999996712,
            "sendEnd" : 654,
            "sendStart" : 654,
            "type" : "image/jpeg"
         }
      },
      {
         "when_comp_start" : -1,
         "url" : "http://original.testbed.localhost/img100-945.xvideos.com/videos/thumbs/c2/92/87/c29287f8a278b82eee4f59b90731b008/c29287f8a278b82eee4f59b90731b008.26.jpg",
         "id" : "r39",
         "comps" : [],
         "download" : {
            "receiveFirst" : 298,
            "len" : 5107,
            "dns" : 0,
            "dnsEnd" : -1,
            "receiveHeadersEnd" : 330,
            "sslEnd" : -1,
            "connectEnd" : 32,
            "connectStart" : 0,
            "id" : "download_50",
            "receivedTime" : "1327.49900000636",
            "sslStart" : -1,
            "dnsStart" : -1,
            "receiveLast" : 997.499000006355,
            "s_time" : 895.248000015272,
            "sendEnd" : 32,
            "sendStart" : 32,
            "type" : "image/jpeg"
         }
      }
   ],
   "deps" : [
      {
         "a2" : "r1_c2",
         "time" : -1,
         "id" : "dep1",
         "a1" : "comp_2"
      },
      {
         "a2" : "r1_c3",
         "time" : -1,
         "id" : "dep2",
         "a1" : "comp_3"
      },
      {
         "a2" : "r1_c4",
         "time" : -1,
         "id" : "dep3",
         "a1" : "comp_4"
      },
      {
         "a2" : "r1_c5",
         "time" : -1,
         "id" : "dep4",
         "a1" : "comp_9"
      },
      {
         "a2" : "r1_c6",
         "time" : -1,
         "id" : "dep5",
         "a1" : "comp_31"
      },
      {
         "a2" : "r1_c7",
         "time" : -1,
         "id" : "dep6",
         "a1" : "comp_34"
      },
      {
         "a2" : "comp_2",
         "time" : -1,
         "id" : "dep7",
         "a1" : "comp_0"
      },
      {
         "a2" : "comp_2",
         "time" : -1,
         "id" : "dep8",
         "a1" : "comp_1"
      },
      {
         "a2" : "comp_3",
         "time" : -1,
         "id" : "dep9",
         "a1" : "comp_2"
      },
      {
         "a2" : "comp_4",
         "time" : -1,
         "id" : "dep10",
         "a1" : "comp_3"
      },
      {
         "a2" : "comp_31",
         "time" : -1,
         "id" : "dep11",
         "a1" : "comp_9"
      },
      {
         "a2" : "download_50",
         "time" : -1,
         "id" : "dep12",
         "a1" : "r1_c5"
      },
      {
         "a2" : "download_49",
         "time" : -1,
         "id" : "dep13",
         "a1" : "r1_c2"
      },
      {
         "a2" : "download_48",
         "time" : 9.55200000316796,
         "id" : "dep14",
         "a1" : "r1_c2"
      },
      {
         "a2" : "download_47",
         "time" : -1,
         "id" : "dep15",
         "a1" : "r1_c5"
      },
      {
         "a2" : "download_46",
         "time" : 448.654000007082,
         "id" : "dep16",
         "a1" : "r1_c5"
      },
      {
         "a2" : "download_45",
         "time" : 438.324000017019,
         "id" : "dep17",
         "a1" : "r1_c5"
      },
      {
         "a2" : "download_44",
         "time" : 424.820000014733,
         "id" : "dep18",
         "a1" : "r1_c5"
      },
      {
         "a2" : "download_43",
         "time" : 418.899000011152,
         "id" : "dep19",
         "a1" : "r1_c5"
      },
      {
         "a2" : "download_42",
         "time" : 8.48399999085797,
         "id" : "dep20",
         "a1" : "r1_c2"
      },
      {
         "a2" : "download_41",
         "time" : 383.239000017056,
         "id" : "dep21",
         "a1" : "r1_c5"
      },
      {
         "a2" : "download_40",
         "time" : 371.596000011777,
         "id" : "dep22",
         "a1" : "r1_c5"
      },
      {
         "a2" : "download_39",
         "time" : 7.47700000647399,
         "id" : "dep23",
         "a1" : "r1_c2"
      },
      {
         "a2" : "download_38",
         "time" : 329.605000006268,
         "id" : "dep24",
         "a1" : "r1_c5"
      },
      {
         "a2" : "download_37",
         "time" : 285.293000022648,
         "id" : "dep25",
         "a1" : "r1_c5"
      },
      {
         "a2" : "download_36",
         "time" : 272.064000018872,
         "id" : "dep26",
         "a1" : "r1_c5"
      },
      {
         "a2" : "download_35",
         "time" : 291.83900001226,
         "id" : "dep27",
         "a1" : "r1_c5"
      },
      {
         "a2" : "download_34",
         "time" : 249.832000001334,
         "id" : "dep28",
         "a1" : "r1_c5"
      },
      {
         "a2" : "download_33",
         "time" : 224.289000005228,
         "id" : "dep29",
         "a1" : "r1_c5"
      },
      {
         "a2" : "download_32",
         "time" : 188.034000020707,
         "id" : "dep30",
         "a1" : "r1_c5"
      },
      {
         "a2" : "download_31",
         "time" : 182.586000009905,
         "id" : "dep31",
         "a1" : "r1_c5"
      },
      {
         "a2" : "download_30",
         "time" : 162.139000021852,
         "id" : "dep32",
         "a1" : "r1_c5"
      },
      {
         "a2" : "download_29",
         "time" : 157.623000006424,
         "id" : "dep33",
         "a1" : "r1_c5"
      },
      {
         "a2" : "download_28",
         "time" : 105.605999997351,
         "id" : "dep34",
         "a1" : "r1_c5"
      },
      {
         "a2" : "download_27",
         "time" : 93.322000000626,
         "id" : "dep35",
         "a1" : "r1_c5"
      },
      {
         "a2" : "download_26",
         "time" : 116.394000011496,
         "id" : "dep36",
         "a1" : "r1_c5"
      },
      {
         "a2" : "download_26",
         "time" : 116.394000011496,
         "id" : "dep37",
         "a1" : "r1_c5"
      },
      {
         "a2" : "download_25",
         "time" : 81.344000005629,
         "id" : "dep38",
         "a1" : "r1_c5"
      },
      {
         "a2" : "download_24",
         "time" : 71.823000005679,
         "id" : "dep39",
         "a1" : "r1_c5"
      },
      {
         "a2" : "download_23",
         "time" : 43.944000004558,
         "id" : "dep40",
         "a1" : "r1_c5"
      },
      {
         "a2" : "download_22",
         "time" : 16.510000015842,
         "id" : "dep41",
         "a1" : "r1_c5"
      },
      {
         "a2" : "download_21",
         "time" : 8.14800002262905,
         "id" : "dep42",
         "a1" : "r1_c5"
      },
      {
         "a2" : "download_20",
         "time" : -1,
         "id" : "dep43",
         "a1" : "r1_c4"
      },
      {
         "a2" : "download_19",
         "time" : 78.215999994427,
         "id" : "dep44",
         "a1" : "r1_c4"
      },
      {
         "a2" : "download_18",
         "time" : 68.100000004052,
         "id" : "dep45",
         "a1" : "r1_c4"
      },
      {
         "a2" : "download_17",
         "time" : 57.755000016187,
         "id" : "dep46",
         "a1" : "r1_c4"
      },
      {
         "a2" : "download_16",
         "time" : 34.16500001913,
         "id" : "dep47",
         "a1" : "r1_c4"
      },
      {
         "a2" : "download_15",
         "time" : 30.563000007533,
         "id" : "dep48",
         "a1" : "r1_c4"
      },
      {
         "a2" : "download_14",
         "time" : -1,
         "id" : "dep49",
         "a1" : "r1_c3"
      },
      {
         "a2" : "download_14",
         "time" : 3.99800000013795,
         "id" : "dep50",
         "a1" : "r1_c3"
      },
      {
         "a2" : "download_13",
         "time" : 6.33199998992495,
         "id" : "dep51",
         "a1" : "r1_c2"
      },
      {
         "a2" : "download_12",
         "time" : 5.27999998303096,
         "id" : "dep52",
         "a1" : "r1_c2"
      },
      {
         "a2" : "download_11",
         "time" : 4.25800000084496,
         "id" : "dep53",
         "a1" : "r1_c2"
      },
      {
         "a2" : "download_10",
         "time" : 3.09799998649396,
         "id" : "dep54",
         "a1" : "r1_c2"
      },
      {
         "a2" : "download_9",
         "time" : 1.92199999582897,
         "id" : "dep55",
         "a1" : "r1_c2"
      },
      {
         "a2" : "download_8",
         "time" : 0.716999988070995,
         "id" : "dep56",
         "a1" : "r1_c2"
      },
      {
         "a2" : "download_7",
         "time" : -1,
         "id" : "dep57",
         "a1" : "r1_c1"
      },
      {
         "a2" : "download_6",
         "time" : -1,
         "id" : "dep58",
         "a1" : "r1_c1"
      },
      {
         "a2" : "download_6",
         "time" : 50.537000002805,
         "id" : "dep59",
         "a1" : "r1_c1"
      },
      {
         "a2" : "download_5",
         "time" : 31.462999992073,
         "id" : "dep60",
         "a1" : "r1_c1"
      },
      {
         "a2" : "download_5",
         "time" : 31.462999992073,
         "id" : "dep61",
         "a1" : "r1_c1"
      },
      {
         "a2" : "download_4",
         "time" : 30.394999979762,
         "id" : "dep62",
         "a1" : "r1_c1"
      },
      {
         "a2" : "download_3",
         "time" : 6.529999984195,
         "id" : "dep63",
         "a1" : "r1_c1"
      },
      {
         "a2" : "download_2",
         "time" : 3.813999996055,
         "id" : "dep64",
         "a1" : "r1_c1"
      },
      {
         "a2" : "download_1",
         "time" : 2.99000000813999,
         "id" : "dep65",
         "a1" : "r1_c1"
      }
   ]
}
