{
   "n_download_no_trigger" : 1,
   "start_activity" : "download_0",
   "name" : "original.testbed.localhost_www.zagamers.com_",
   "load_activity" : -1,
   "objs" : [
      {
         "when_comp_start" : 1,
         "url" : "http://original.testbed.localhost/www.zagamers.com/",
         "id" : "r1",
         "comps" : [
            {
               "s_time" : 173.326000000088,
               "time" : 1.25099999968401,
               "type" : "evalhtml",
               "id" : "r1_c1",
               "e_time" : 174.576999999772
            }
         ],
         "download" : {
            "receiveFirst" : 59,
            "len" : 404,
            "dns" : 0,
            "dnsEnd" : -1,
            "receiveHeadersEnd" : 72,
            "sslEnd" : -1,
            "connectEnd" : 13,
            "connectStart" : 0,
            "id" : "download_0",
            "receivedTime" : "79.8809999996593",
            "sslStart" : -1,
            "dnsStart" : -1,
            "receiveLast" : 7.88099999965925,
            "s_time" : 0,
            "sendEnd" : 13,
            "sendStart" : 13,
            "type" : "text/html"
         }
      }
   ],
   "deps" : []
}
