{
   "name" : "original.testbed.localhost_www.upworthy.com_",
   "load_activity" : -1,
   "start_activity" : "download_0",
   "n_download_no_trigger" : 1,
   "objs" : [
      {
         "comps" : [
            {
               "s_time" : 125.039000005927,
               "e_time" : 129.719000004116,
               "type" : "evalhtml",
               "id" : "r1_c1",
               "time" : 4.679999998189
            },
            {
               "s_time" : 362.710999994306,
               "e_time" : -102212749.954,
               "id" : "r1_c2",
               "type" : "evalhtml",
               "time" : -102213112.665
            },
            {
               "id" : "r1_c3",
               "type" : "evalhtml",
               "time" : 53.742000003695,
               "s_time" : 363.184000001638,
               "e_time" : 416.926000005333
            },
            {
               "id" : "r1_c4",
               "type" : "evalhtml",
               "time" : 347.9379999917,
               "s_time" : 617.490000004182,
               "e_time" : 965.427999995882
            },
            {
               "s_time" : 1025.54099999543,
               "e_time" : -102212749.954,
               "id" : "r1_c5",
               "type" : "evalhtml",
               "time" : -102213775.495
            },
            {
               "type" : "evalhtml",
               "id" : "r1_c6",
               "time" : 1.38299999525998,
               "s_time" : 1026.22400000109,
               "e_time" : 1027.60699999635
            }
         ],
         "when_comp_start" : 1,
         "url" : "http://original.testbed.localhost/www.upworthy.com/",
         "id" : "r1",
         "download" : {
            "receiveLast" : 11.907000004896,
            "dns" : 0,
            "connectEnd" : 10,
            "receiveFirst" : 103,
            "type" : "text/html",
            "dnsEnd" : 0,
            "sslEnd" : -1,
            "connectStart" : 0,
            "sendStart" : 10,
            "dnsStart" : 0,
            "sendEnd" : 10,
            "sslStart" : -1,
            "receiveHeadersEnd" : 113,
            "s_time" : 0,
            "id" : "download_0",
            "len" : 48622,
            "receivedTime" : "124.907000004896"
         }
      },
      {
         "download" : {
            "dnsStart" : -1,
            "sendStart" : 1,
            "sslEnd" : -1,
            "dnsEnd" : -1,
            "connectStart" : 0,
            "connectEnd" : 1,
            "receiveFirst" : 102,
            "type" : "application/javascript",
            "receiveLast" : 129.961000001524,
            "dns" : 0,
            "receivedTime" : "232.961000001524",
            "id" : "download_1",
            "len" : 397,
            "sslStart" : -1,
            "sendEnd" : 1,
            "s_time" : 129.289999997127,
            "receiveHeadersEnd" : 103
         },
         "id" : "r3",
         "url" : "http://original.testbed.localhost/www.upworthy.com/api/geo.js",
         "when_comp_start" : -1,
         "comps" : [
            {
               "e_time" : 362.710999994306,
               "s_time" : 362.235000007786,
               "time" : 0.47599998651998,
               "id" : "comp_11",
               "type" : 1
            }
         ]
      },
      {
         "when_comp_start" : -1,
         "comps" : [
            {
               "id" : "comp_6",
               "type" : 4,
               "time" : 29.264000011608,
               "s_time" : 337.784999996074,
               "e_time" : 367.049000007682
            }
         ],
         "download" : {
            "receivedTime" : "337.700999996741",
            "receiveHeadersEnd" : 107,
            "s_time" : 129.157999996096,
            "sendEnd" : 1,
            "sslStart" : -1,
            "len" : 175192,
            "id" : "download_2",
            "connectStart" : 0,
            "dnsEnd" : -1,
            "sslEnd" : -1,
            "sendStart" : 1,
            "dnsStart" : -1,
            "dns" : 0,
            "receiveLast" : 230.700999996741,
            "receiveFirst" : 106,
            "type" : "text/css",
            "connectEnd" : 1
         },
         "id" : "r2",
         "url" : "http://original.testbed.localhost/www.upworthy.com/assets/application-eb97678dd5af398d0b4dcd6b903d01e2.css"
      },
      {
         "url" : "http://original.testbed.localhost/www.upworthy.com/assets/ads/ads-b7fee093e8fe52d61aec2c2231894273.js",
         "download" : {
            "receiveFirst" : 101,
            "type" : "application/javascript",
            "connectEnd" : 102,
            "receiveLast" : 130.859999998822,
            "dns" : 0,
            "sendStart" : 102,
            "dnsStart" : 1,
            "dnsEnd" : 1,
            "sslEnd" : -1,
            "connectStart" : 0,
            "id" : "download_3",
            "len" : 24,
            "s_time" : 129.381999999168,
            "receiveHeadersEnd" : 203,
            "sslStart" : -1,
            "sendEnd" : 102,
            "receivedTime" : "333.859999998822"
         },
         "id" : "r4",
         "comps" : [
            {
               "time" : 0.398000003770051,
               "type" : 1,
               "id" : "comp_13",
               "e_time" : 363.184000001638,
               "s_time" : 362.785999997868
            }
         ],
         "when_comp_start" : -1
      },
      {
         "comps" : [
            {
               "e_time" : 1026.22400000109,
               "s_time" : 1025.64599999459,
               "time" : 0.578000006499906,
               "id" : "comp_42",
               "type" : 1
            }
         ],
         "when_comp_start" : -1,
         "url" : "http://original.testbed.localhost/www.youtube.com/iframe_api",
         "id" : "r8",
         "download" : {
            "dnsEnd" : 0,
            "sslEnd" : -1,
            "connectStart" : 0,
            "dnsStart" : 0,
            "sendStart" : 102,
            "receiveLast" : 130.646000002977,
            "dns" : 0,
            "connectEnd" : 102,
            "type" : "text/plain",
            "receiveFirst" : 102,
            "receivedTime" : "334.646000002977",
            "sendEnd" : 102,
            "sslStart" : -1,
            "s_time" : 129.719000004116,
            "receiveHeadersEnd" : 204,
            "id" : "download_4",
            "len" : 744
         }
      },
      {
         "comps" : [],
         "when_comp_start" : -1,
         "url" : "http://original.testbed.localhost/i.upworthy.com/sponsor/5717a5c433002d001b000088/flagpole-mothers-sponsor-logo-d8c1923fc9ef68a96dbd47d161b79e6c.jpg",
         "download" : {
            "connectStart" : 0,
            "dnsEnd" : -1,
            "sslEnd" : -1,
            "sendStart" : 103,
            "dnsStart" : -1,
            "dns" : 0,
            "receiveLast" : 233.890000004903,
            "connectEnd" : 103,
            "receiveFirst" : 101,
            "type" : "image/jpeg",
            "receivedTime" : "438.890000004903",
            "sendEnd" : 104,
            "sslStart" : -1,
            "receiveHeadersEnd" : 205,
            "s_time" : 129.488000005949,
            "len" : 26653,
            "id" : "download_5"
         },
         "id" : "r5"
      },
      {
         "url" : "http://original.testbed.localhost/www.upworthy.com/assets/up.bundle-43b612662d96be68e83bb92e86eff3da.js",
         "download" : {
            "connectEnd" : 102,
            "type" : "application/javascript",
            "receiveFirst" : 108,
            "dns" : 0,
            "receiveLast" : 535.380000007572,
            "dnsStart" : 0,
            "sendStart" : 102,
            "connectStart" : 0,
            "sslEnd" : -1,
            "dnsEnd" : 0,
            "len" : 646473,
            "id" : "download_6",
            "sendEnd" : 102,
            "sslStart" : -1,
            "s_time" : 129.694000002928,
            "receiveHeadersEnd" : 210,
            "receivedTime" : "745.380000007572"
         },
         "id" : "r7",
         "comps" : [
            {
               "e_time" : 1025.54099999543,
               "s_time" : 745.483000006061,
               "time" : 280.057999989369,
               "id" : "comp_37",
               "type" : 1
            }
         ],
         "when_comp_start" : -1
      },
      {
         "when_comp_start" : -1,
         "comps" : [
            {
               "type" : 1,
               "id" : "comp_27",
               "time" : 68.1350000086239,
               "s_time" : 549.354999995558,
               "e_time" : 617.490000004182
            }
         ],
         "download" : {
            "receivedTime" : "549.257999999099",
            "len" : 212443,
            "id" : "download_7",
            "receiveHeadersEnd" : 211,
            "s_time" : 129.553000006126,
            "sslStart" : -1,
            "sendEnd" : 102,
            "sendStart" : 102,
            "dnsStart" : 0,
            "connectStart" : 0,
            "sslEnd" : -1,
            "dnsEnd" : 0,
            "type" : "application/javascript",
            "receiveFirst" : 109,
            "connectEnd" : 102,
            "dns" : 0,
            "receiveLast" : 338.257999999099
         },
         "id" : "r6",
         "url" : "http://original.testbed.localhost/cdn.optimizely.com/js/38179760.js"
      },
      {
         "when_comp_start" : -1,
         "comps" : [],
         "download" : {
            "len" : 1652,
            "id" : "download_8",
            "sslStart" : -1,
            "sendEnd" : 0,
            "receiveHeadersEnd" : 102,
            "s_time" : 374.769999994896,
            "receivedTime" : "477.396999995108",
            "connectEnd" : 0,
            "type" : "image/svg+xml",
            "receiveFirst" : 102,
            "dns" : 0,
            "receiveLast" : 375.396999995108,
            "dnsStart" : -1,
            "sendStart" : 0,
            "connectStart" : 0,
            "sslEnd" : -1,
            "dnsEnd" : -1
         },
         "id" : "r14",
         "url" : "http://original.testbed.localhost/www.upworthy.com/assets/upworthy-logo-2015.svg"
      },
      {
         "when_comp_start" : -1,
         "comps" : [],
         "download" : {
            "receiveFirst" : 101,
            "type" : "application/x-font-woff",
            "connectEnd" : 0,
            "dns" : 0,
            "receiveLast" : 951.362000006018,
            "sendStart" : 0,
            "dnsStart" : -1,
            "connectStart" : 0,
            "sslEnd" : -1,
            "dnsEnd" : -1,
            "len" : 54457,
            "id" : "download_9",
            "receiveHeadersEnd" : 102,
            "s_time" : 416.685000003781,
            "sslStart" : -1,
            "sendEnd" : 1,
            "receivedTime" : "1053.36200000602"
         },
         "id" : "r9",
         "url" : "http://original.testbed.localhost/www.upworthy.com/assets/Regular-Regular-cb4620e17479fe4a2af0e6f5bbdcb2a5.woff"
      },
      {
         "url" : "http://original.testbed.localhost/www.upworthy.com/assets/Regular-Bold-1d97c90352df7e25bcb1930041c26a78.woff",
         "download" : {
            "sendEnd" : 0,
            "sslStart" : -1,
            "s_time" : 416.926000005333,
            "receiveHeadersEnd" : 103,
            "id" : "download_10",
            "len" : 54405,
            "receivedTime" : "722.903000001679",
            "receiveLast" : 619.903000001679,
            "dns" : 0,
            "connectEnd" : 0,
            "type" : "application/x-font-woff",
            "receiveFirst" : 103,
            "dnsEnd" : -1,
            "sslEnd" : -1,
            "connectStart" : 0,
            "dnsStart" : -1,
            "sendStart" : 0
         },
         "id" : "r11",
         "comps" : [],
         "when_comp_start" : -1
      },
      {
         "id" : "r21",
         "download" : {
            "connectEnd" : 0,
            "receiveFirst" : 102,
            "type" : "text/html",
            "dns" : 0,
            "receiveLast" : 982.008999998332,
            "sendStart" : 0,
            "dnsStart" : -1,
            "connectStart" : 0,
            "dnsEnd" : -1,
            "sslEnd" : -1,
            "len" : 351,
            "id" : "download_11",
            "sslStart" : -1,
            "sendEnd" : 0,
            "receiveHeadersEnd" : 102,
            "s_time" : 965.427999995882,
            "receivedTime" : "1084.00899999833"
         },
         "url" : "http://original.testbed.localhost/assets/upworthy-logo-2015-9478cf5b9a196530e8d62089b65de4bc.svg",
         "when_comp_start" : 1,
         "comps" : []
      }
   ],
   "deps" : [
      {
         "a2" : "r1_c2",
         "time" : -1,
         "id" : "dep1",
         "a1" : "comp_11"
      },
      {
         "id" : "dep2",
         "a1" : "comp_13",
         "a2" : "r1_c3",
         "time" : -1
      },
      {
         "a1" : "comp_27",
         "id" : "dep3",
         "time" : -1,
         "a2" : "r1_c4"
      },
      {
         "time" : -1,
         "a2" : "r1_c5",
         "a1" : "comp_37",
         "id" : "dep4"
      },
      {
         "time" : -1,
         "a2" : "r1_c6",
         "a1" : "comp_42",
         "id" : "dep5"
      },
      {
         "a1" : "comp_11",
         "id" : "dep6",
         "time" : -1,
         "a2" : "comp_13"
      },
      {
         "a1" : "comp_27",
         "id" : "dep7",
         "time" : -1,
         "a2" : "comp_37"
      },
      {
         "id" : "dep8",
         "a1" : "comp_37",
         "a2" : "comp_42",
         "time" : -1
      },
      {
         "time" : -1,
         "a2" : "download_11",
         "a1" : "r1_c4",
         "id" : "dep9"
      },
      {
         "a1" : "r1_c3",
         "id" : "dep10",
         "time" : -1,
         "a2" : "download_10"
      },
      {
         "a1" : "r1_c3",
         "id" : "dep11",
         "time" : 53.501000002143,
         "a2" : "download_9"
      },
      {
         "id" : "dep12",
         "a1" : "r1_c3",
         "a2" : "download_8",
         "time" : 11.585999993258
      },
      {
         "a1" : "r1_c1",
         "id" : "dep13",
         "time" : -1,
         "a2" : "download_7"
      },
      {
         "time" : 4.51400000019902,
         "a2" : "download_7",
         "a1" : "r1_c1",
         "id" : "dep14"
      },
      {
         "id" : "dep15",
         "a1" : "r1_c1",
         "a2" : "download_6",
         "time" : -1
      },
      {
         "a1" : "r1_c1",
         "id" : "dep16",
         "time" : 4.654999997001,
         "a2" : "download_6"
      },
      {
         "id" : "dep17",
         "a1" : "r1_c1",
         "a2" : "download_5",
         "time" : 4.44900000002201
      },
      {
         "a1" : "r1_c1",
         "id" : "dep18",
         "time" : 4.44900000002201,
         "a2" : "download_5"
      },
      {
         "time" : -1,
         "a2" : "download_4",
         "a1" : "r1_c1",
         "id" : "dep19"
      },
      {
         "a2" : "download_4",
         "time" : 4.679999998189,
         "id" : "dep20",
         "a1" : "r1_c1"
      },
      {
         "a2" : "download_3",
         "time" : 4.34299999324099,
         "id" : "dep21",
         "a1" : "r1_c1"
      },
      {
         "time" : 4.34299999324099,
         "a2" : "download_3",
         "a1" : "r1_c1",
         "id" : "dep22"
      },
      {
         "time" : 4.11899999016902,
         "a2" : "download_2",
         "a1" : "r1_c1",
         "id" : "dep23"
      },
      {
         "time" : 4.25099999120002,
         "a2" : "download_1",
         "a1" : "r1_c1",
         "id" : "dep24"
      },
      {
         "id" : "dep25",
         "a1" : "r1_c1",
         "a2" : "download_1",
         "time" : 4.25099999120002
      }
   ]
}
