{
   "n_download_no_trigger" : 1,
   "start_activity" : "download_0",
   "name" : "original.testbed.localhost_www.kozlife.com_",
   "load_activity" : -1,
   "objs" : [
      {
         "when_comp_start" : 1,
         "url" : "http://original.testbed.localhost/www.kozlife.com/",
         "id" : "r1",
         "comps" : [
            {
               "s_time" : 401.443000067957,
               "time" : 18.4329999610781,
               "id" : "r1_c1",
               "type" : "evalhtml",
               "e_time" : 419.876000029035
            },
            {
               "s_time" : 657.820999971591,
               "time" : 584.304000018169,
               "id" : "r1_c2",
               "type" : "evalhtml",
               "e_time" : 1242.12499998976
            },
            {
               "s_time" : 1528.85400003288,
               "time" : -923346063.618,
               "id" : "r1_c3",
               "type" : "evalhtml",
               "e_time" : -923344534.764
            },
            {
               "s_time" : 1572.4329999648,
               "time" : -923346107.197,
               "id" : "r1_c4",
               "type" : "evalhtml",
               "e_time" : -923344534.764
            },
            {
               "s_time" : 1575.11900004465,
               "time" : -923346109.883,
               "id" : "r1_c5",
               "type" : "evalhtml",
               "e_time" : -923344534.764
            },
            {
               "s_time" : 1930.03799999133,
               "time" : -923346464.802,
               "id" : "r1_c6",
               "type" : "evalhtml",
               "e_time" : -923344534.764
            },
            {
               "s_time" : 1931.92999996245,
               "time" : -923346466.694,
               "id" : "r1_c7",
               "type" : "evalhtml",
               "e_time" : -923344534.764
            },
            {
               "s_time" : 1935.07400003728,
               "time" : 168.30399993341,
               "type" : "evalhtml",
               "id" : "r1_c8",
               "e_time" : 2103.37799997069
            }
         ],
         "download" : {
            "receiveFirst" : 172,
            "len" : 32364,
            "dns" : 0,
            "dnsEnd" : -1,
            "receiveHeadersEnd" : 177,
            "sslEnd" : -1,
            "connectEnd" : 5,
            "connectStart" : 0,
            "id" : "download_0",
            "receivedTime" : "400.221999967471",
            "sslStart" : -1,
            "dnsStart" : -1,
            "receiveLast" : 223.221999967471,
            "s_time" : 0,
            "sendEnd" : 5,
            "sendStart" : 5,
            "type" : "text/html"
         }
      },
      {
         "when_comp_start" : -1,
         "url" : "http://www.rakuten.ne.jp/gold/kozlife/js/modernizr.custom.js",
         "id" : "r7",
         "comps" : [
            {
               "s_time" : 1478.92699996009,
               "time" : 49.9270000727902,
               "type" : 1,
               "id" : "comp_10",
               "e_time" : 1528.85400003288
            }
         ],
         "download" : {
            "receiveFirst" : 78,
            "len" : 8694,
            "dns" : 342,
            "dnsEnd" : 373,
            "receiveHeadersEnd" : 455,
            "sslEnd" : -1,
            "connectEnd" : 377,
            "connectStart" : 0,
            "id" : "download_1",
            "receivedTime" : "882.521999999881",
            "sslStart" : -1,
            "dnsStart" : 31,
            "receiveLast" : 427.521999999881,
            "s_time" : 417.312000063248,
            "sendEnd" : 377,
            "sendStart" : 377,
            "type" : "application/javascript"
         }
      },
      {
         "when_comp_start" : -1,
         "url" : "http://www.google-analytics.com/ga.js",
         "id" : "r13",
         "comps" : [
            {
               "s_time" : 1034.28600006737,
               "time" : 222.77899994515,
               "type" : 2,
               "id" : "comp_5",
               "e_time" : 1257.06500001252
            }
         ],
         "download" : {
            "receiveFirst" : 9,
            "len" : 41100,
            "dns" : 319,
            "dnsEnd" : 343,
            "receiveHeadersEnd" : 358,
            "sslEnd" : -1,
            "connectEnd" : 349,
            "connectStart" : 0,
            "id" : "download_2",
            "receivedTime" : "1033.0959999701",
            "sslStart" : -1,
            "dnsStart" : 24,
            "receiveLast" : 675.095999970101,
            "s_time" : 664.076999993995,
            "sendEnd" : 349,
            "sendStart" : 349,
            "type" : "text/javascript"
         }
      },
      {
         "when_comp_start" : -1,
         "url" : "http://www.google-analytics.com/r/__utm.gifutmwv=5.6.6&utms=1&utmn=2080233642&utmhn=original.testbed.localhost&utmcs=EUC-JP&utmsr=360x640&utmvp=360x576&utmsc=32-bit&utmul=en-us&utmje=1&utmfl=-&utmdt=%E5%8C%97%E6%AC%A7%E9%9B%91%E8%B2%A8%EF%BC%86%E3%82%A4%E3%83%B3%E3%83%86%E3%83%AA%E3%82%A2%E3%81%AE%",
         "id" : "r22",
         "comps" : [],
         "download" : {
            "receiveFirst" : 20,
            "len" : 35,
            "dns" : 0,
            "dnsEnd" : -1,
            "receiveHeadersEnd" : 30,
            "sslEnd" : -1,
            "connectEnd" : 10,
            "connectStart" : 0,
            "id" : "download_3",
            "receivedTime" : "1274.18499998748",
            "sslStart" : -1,
            "dnsStart" : -1,
            "receiveLast" : 1244.18499998748,
            "s_time" : 1242.12499998976,
            "sendEnd" : 10,
            "sendStart" : 10,
            "type" : "image/gif"
         }
      },
      {
         "when_comp_start" : -1,
         "url" : "http://gigaplus.makeshop.jp/kodesign/css/style.css",
         "id" : "r5",
         "comps" : [
            {
               "s_time" : 1443.2220000308,
               "time" : 1.55599997378999,
               "type" : 4,
               "id" : "comp_8",
               "e_time" : 1444.77800000459
            }
         ],
         "download" : {
            "receiveFirst" : 221,
            "len" : 754,
            "dns" : 537,
            "dnsEnd" : 587,
            "receiveHeadersEnd" : 999,
            "sslEnd" : -1,
            "connectEnd" : 778,
            "connectStart" : 0,
            "id" : "download_4",
            "receivedTime" : "1441.84800004587",
            "sslStart" : -1,
            "dnsStart" : 50,
            "receiveLast" : 442.848000045866,
            "s_time" : 415.846999967471,
            "sendEnd" : 778,
            "sendStart" : 778,
            "type" : "text/css"
         }
      },
      {
         "when_comp_start" : -1,
         "url" : "http://gigaplus.makeshop.jp/kodesign/css/category.css",
         "id" : "r6",
         "comps" : [
            {
               "s_time" : 1448.86800006498,
               "time" : 80.5349999573,
               "type" : 4,
               "id" : "comp_9",
               "e_time" : 1529.40300002228
            }
         ],
         "download" : {
            "receiveFirst" : 224,
            "len" : 4868,
            "dns" : 536,
            "dnsEnd" : 585,
            "receiveHeadersEnd" : 1000,
            "sslEnd" : -1,
            "connectEnd" : 776,
            "connectStart" : 0,
            "id" : "download_5",
            "receivedTime" : "1447.79900007416",
            "sslStart" : -1,
            "dnsStart" : 49,
            "receiveLast" : 447.799000074156,
            "s_time" : 416.365999961272,
            "sendEnd" : 776,
            "sendStart" : 776,
            "type" : "text/css"
         }
      },
      {
         "when_comp_start" : -1,
         "url" : "http://gigaplus.makeshop.jp/kodesign/js/jquery.smoothScroll.js",
         "id" : "r8",
         "comps" : [
            {
               "s_time" : 1544.84500002582,
               "time" : 27.5879999389801,
               "type" : 1,
               "id" : "comp_13",
               "e_time" : 1572.4329999648
            }
         ],
         "download" : {
            "receiveFirst" : 226,
            "len" : 13609,
            "dns" : 539,
            "dnsEnd" : 582,
            "receiveHeadersEnd" : 1000,
            "sslEnd" : -1,
            "connectEnd" : 774,
            "connectStart" : 0,
            "id" : "download_6",
            "receivedTime" : "1543.38000004645",
            "sslStart" : -1,
            "dnsStart" : 43,
            "receiveLast" : 543.380000046454,
            "s_time" : 417.831000057049,
            "sendEnd" : 774,
            "sendStart" : 774,
            "type" : "application/javascript"
         }
      },
      {
         "when_comp_start" : -1,
         "url" : "http://gigaplus.makeshop.jp/kodesign/js/jquery.rollover.js",
         "id" : "r9",
         "comps" : [
            {
               "s_time" : 1573.07400007267,
               "time" : 2.04499997197991,
               "type" : 1,
               "id" : "comp_14",
               "e_time" : 1575.11900004465
            }
         ],
         "download" : {
            "receiveFirst" : 229,
            "len" : 2263,
            "dns" : 541,
            "dnsEnd" : 581,
            "receiveHeadersEnd" : 1002,
            "sslEnd" : -1,
            "connectEnd" : 773,
            "connectStart" : 0,
            "id" : "download_7",
            "receivedTime" : "1529.92200001609",
            "sslStart" : -1,
            "dnsStart" : 40,
            "receiveLast" : 527.922000016086,
            "s_time" : 418.35000005085,
            "sendEnd" : 773,
            "sendStart" : 773,
            "type" : "application/javascript"
         }
      },
      {
         "when_comp_start" : -1,
         "url" : "http://gigaplus.makeshop.jp/kodesign/js/jquery-1.7.2.min.js",
         "id" : "r10",
         "comps" : [
            {
               "s_time" : 1780.01400001813,
               "time" : 150.0239999732,
               "type" : 1,
               "id" : "comp_17",
               "e_time" : 1930.03799999133
            }
         ],
         "download" : {
            "receiveFirst" : 233,
            "len" : 94839,
            "dns" : 554,
            "dnsEnd" : 579,
            "receiveHeadersEnd" : 1005,
            "sslEnd" : -1,
            "connectEnd" : 772,
            "connectStart" : 0,
            "id" : "download_8",
            "receivedTime" : "1779.28100002464",
            "sslStart" : -1,
            "dnsStart" : 25,
            "receiveLast" : 774.281000024639,
            "s_time" : 418.869000044651,
            "sendEnd" : 772,
            "sendStart" : 772,
            "type" : "application/javascript"
         }
      },
      {
         "when_comp_start" : -1,
         "url" : "http://gigaplus.makeshop.jp/kodesign/js/newsticker.js",
         "id" : "r11",
         "comps" : [
            {
               "s_time" : 1931.288999971,
               "time" : 0.640999991449917,
               "type" : 1,
               "id" : "comp_19",
               "e_time" : 1931.92999996245
            }
         ],
         "download" : {
            "receiveFirst" : 235,
            "len" : 1718,
            "dns" : 556,
            "dnsEnd" : 578,
            "receiveHeadersEnd" : 1007,
            "sslEnd" : -1,
            "connectEnd" : 772,
            "connectStart" : 0,
            "id" : "download_9",
            "receivedTime" : "1530.53300001193",
            "sslStart" : -1,
            "dnsStart" : 22,
            "receiveLast" : 523.533000011928,
            "s_time" : 419.357000035234,
            "sendEnd" : 772,
            "sendStart" : 772,
            "type" : "application/javascript"
         }
      },
      {
         "when_comp_start" : -1,
         "url" : "http://image.rakuten.co.jp/kozlife/cabinet/top980/top15082401.jpg",
         "id" : "r16",
         "comps" : [],
         "download" : {
            "receiveFirst" : 81,
            "len" : 258085,
            "dns" : 695,
            "dnsEnd" : 716,
            "receiveHeadersEnd" : 803,
            "sslEnd" : -1,
            "connectEnd" : 722,
            "connectStart" : 0,
            "id" : "download_10",
            "receivedTime" : "1609.96999999043",
            "sslStart" : -1,
            "dnsStart" : 21,
            "receiveLast" : 806.969999990426,
            "s_time" : 678.131000022404,
            "sendEnd" : 722,
            "sendStart" : 722,
            "type" : "image/jpeg"
         }
      },
      {
         "when_comp_start" : -1,
         "url" : "http://image.rakuten.co.jp/kozlife/cabinet/top980/top15082106.jpg",
         "id" : "r21",
         "comps" : [],
         "download" : {
            "receiveFirst" : 88,
            "len" : 66573,
            "dns" : 685,
            "dnsEnd" : 708,
            "receiveHeadersEnd" : 803,
            "sslEnd" : -1,
            "connectEnd" : 715,
            "connectStart" : 0,
            "id" : "download_11",
            "receivedTime" : "1594.34499999043",
            "sslStart" : -1,
            "dnsStart" : 23,
            "receiveLast" : 791.344999990426,
            "s_time" : 685.836000018753,
            "sendEnd" : 715,
            "sendStart" : 715,
            "type" : "image/jpeg"
         }
      },
      {
         "when_comp_start" : -1,
         "url" : "http://image.rakuten.co.jp/kozlife/cabinet/top980/top15082103.jpg",
         "id" : "r18",
         "comps" : [],
         "download" : {
            "receiveFirst" : 92,
            "len" : 124229,
            "dns" : 690,
            "dnsEnd" : 714,
            "receiveHeadersEnd" : 812,
            "sslEnd" : -1,
            "connectEnd" : 720,
            "connectStart" : 0,
            "id" : "download_12",
            "receivedTime" : "1603.25599997304",
            "sslStart" : -1,
            "dnsStart" : 24,
            "receiveLast" : 791.255999973044,
            "s_time" : 680.479999980889,
            "sendEnd" : 720,
            "sendStart" : 720,
            "type" : "image/jpeg"
         }
      },
      {
         "when_comp_start" : -1,
         "url" : "http://image.rakuten.co.jp/kozlife/cabinet/top980/top15082104.jpg",
         "id" : "r19",
         "comps" : [],
         "download" : {
            "receiveFirst" : 95,
            "len" : 63043,
            "dns" : 688,
            "dnsEnd" : 713,
            "receiveHeadersEnd" : 814,
            "sslEnd" : -1,
            "connectEnd" : 719,
            "connectStart" : 0,
            "id" : "download_13",
            "receivedTime" : "1597.1520000603",
            "sslStart" : -1,
            "dnsStart" : 25,
            "receiveLast" : 783.152000060305,
            "s_time" : 681.456999969669,
            "sendEnd" : 719,
            "sendStart" : 719,
            "type" : "image/jpeg"
         }
      },
      {
         "when_comp_start" : -1,
         "url" : "http://image.rakuten.co.jp/kozlife/cabinet/top980/top15082102.jpg",
         "id" : "r17",
         "comps" : [],
         "download" : {
            "receiveFirst" : 99,
            "len" : 86355,
            "dns" : 693,
            "dnsEnd" : 715,
            "receiveHeadersEnd" : 820,
            "sslEnd" : -1,
            "connectEnd" : 721,
            "connectStart" : 0,
            "id" : "download_14",
            "receivedTime" : "1601.57699999399",
            "sslStart" : -1,
            "dnsStart" : 22,
            "receiveLast" : 781.576999993995,
            "s_time" : 679.382000002079,
            "sendEnd" : 721,
            "sendStart" : 721,
            "type" : "image/jpeg"
         }
      },
      {
         "when_comp_start" : -1,
         "url" : "http://image.rakuten.co.jp/kozlife/cabinet/top980/top15082105.jpg",
         "id" : "r20",
         "comps" : [],
         "download" : {
            "receiveFirst" : 103,
            "len" : 67943,
            "dns" : 683,
            "dnsEnd" : 712,
            "receiveHeadersEnd" : 821,
            "sslEnd" : -1,
            "connectEnd" : 718,
            "connectStart" : 0,
            "id" : "download_15",
            "receivedTime" : "1599.71600002609",
            "sslStart" : -1,
            "dnsStart" : 29,
            "receiveLast" : 778.716000026092,
            "s_time" : 682.555000064895,
            "sendEnd" : 718,
            "sendStart" : 718,
            "type" : "image/jpeg"
         }
      },
      {
         "when_comp_start" : -1,
         "url" : "http://gigaplus.makeshop.jp/kodesign/js/jquery.slideshow.js",
         "id" : "r12",
         "comps" : [
            {
               "s_time" : 1934.40200004261,
               "time" : 0.671999994669932,
               "type" : 1,
               "id" : "comp_22",
               "e_time" : 1935.07400003728
            }
         ],
         "download" : {
            "receiveFirst" : 175,
            "len" : 2390,
            "dns" : 0,
            "dnsEnd" : -1,
            "receiveHeadersEnd" : 1187,
            "sslEnd" : -1,
            "connectEnd" : 1011,
            "connectStart" : 0,
            "id" : "download_16",
            "receivedTime" : "1617.99599998631",
            "sslStart" : -1,
            "dnsStart" : -1,
            "receiveLast" : 430.995999986306,
            "s_time" : 419.876000029035,
            "sendEnd" : 1012,
            "sendStart" : 1011,
            "type" : "application/javascript"
         }
      },
      {
         "when_comp_start" : -1,
         "url" : "http://gigaplus.makeshop.jp/kodesign/css/print.css",
         "id" : "r14",
         "comps" : [
            {
               "s_time" : 1625.22899999749,
               "time" : 2.83800007309992,
               "type" : 4,
               "id" : "comp_15",
               "e_time" : 1628.06700007059
            }
         ],
         "download" : {
            "receiveFirst" : 175,
            "len" : 321,
            "dns" : 0,
            "dnsEnd" : -1,
            "receiveHeadersEnd" : 949,
            "sslEnd" : -1,
            "connectEnd" : 774,
            "connectStart" : 0,
            "id" : "download_17",
            "receivedTime" : "1624.83200000133",
            "sslStart" : -1,
            "dnsStart" : -1,
            "receiveLast" : 675.832000001334,
            "s_time" : 672.072999994271,
            "sendEnd" : 774,
            "sendStart" : 774,
            "type" : "text/css"
         }
      },
      {
         "when_comp_start" : -1,
         "url" : "http://gigaplus.makeshop.jp/kodesign/images/common/header/logo.png",
         "id" : "r15",
         "comps" : [],
         "download" : {
            "receiveFirst" : 180,
            "len" : 5146,
            "dns" : 0,
            "dnsEnd" : -1,
            "receiveHeadersEnd" : 959,
            "sslEnd" : -1,
            "connectEnd" : 779,
            "connectStart" : 0,
            "id" : "download_18",
            "receivedTime" : "1639.05300002079",
            "sslStart" : -1,
            "dnsStart" : -1,
            "receiveLast" : 680.053000020795,
            "s_time" : 676.848000031896,
            "sendEnd" : 779,
            "sendStart" : 779,
            "type" : "image/png"
         }
      },
      {
         "when_comp_start" : -1,
         "url" : "http://gigaplus.makeshop.jp/kodesign/images/category/navigation.jpg",
         "id" : "r26",
         "comps" : [],
         "download" : {
            "receiveFirst" : 225,
            "len" : 20528,
            "dns" : 0,
            "dnsEnd" : -1,
            "receiveHeadersEnd" : 232,
            "sslEnd" : -1,
            "connectEnd" : 7,
            "connectStart" : 0,
            "id" : "download_19",
            "receivedTime" : "2241.16500001401",
            "sslStart" : -1,
            "dnsStart" : -1,
            "receiveLast" : 2009.16500001401,
            "s_time" : 1964.30900006089,
            "sendEnd" : 7,
            "sendStart" : 7,
            "type" : "image/jpeg"
         }
      },
      {
         "when_comp_start" : -1,
         "url" : "http://gigaplus.makeshop.jp/kodesign/logo/hay.jpg",
         "id" : "r29",
         "comps" : [],
         "download" : {
            "receiveFirst" : 206,
            "len" : 13597,
            "dns" : 0,
            "dnsEnd" : -1,
            "receiveHeadersEnd" : 210,
            "sslEnd" : -1,
            "connectEnd" : 4,
            "connectStart" : 0,
            "id" : "download_20",
            "receivedTime" : "2251.66299997363",
            "sslStart" : -1,
            "dnsStart" : -1,
            "receiveLast" : 2041.66299997363,
            "s_time" : 1999.09900000785,
            "sendEnd" : 4,
            "sendStart" : 4,
            "type" : "image/jpeg"
         }
      },
      {
         "when_comp_start" : -1,
         "url" : "http://gigaplus.makeshop.jp/kodesign/logo/kahler.jpg",
         "id" : "r28",
         "comps" : [],
         "download" : {
            "receiveFirst" : 216,
            "len" : 13599,
            "dns" : 0,
            "dnsEnd" : -1,
            "receiveHeadersEnd" : 221,
            "sslEnd" : -1,
            "connectEnd" : 5,
            "connectStart" : 0,
            "id" : "download_21",
            "receivedTime" : "2253.8910000585",
            "sslStart" : -1,
            "dnsStart" : -1,
            "receiveLast" : 2032.8910000585,
            "s_time" : 1991.89699999988,
            "sendEnd" : 5,
            "sendStart" : 5,
            "type" : "image/jpeg"
         }
      },
      {
         "when_comp_start" : -1,
         "url" : "http://gigaplus.makeshop.jp/kodesign/logo/georg_jensen_damask.jpg",
         "id" : "r30",
         "comps" : [],
         "download" : {
            "receiveFirst" : 207,
            "len" : 13599,
            "dns" : 0,
            "dnsEnd" : -1,
            "receiveHeadersEnd" : 212,
            "sslEnd" : -1,
            "connectEnd" : 4,
            "connectStart" : 0,
            "id" : "download_22",
            "receivedTime" : "2256.94200000726",
            "sslStart" : -1,
            "dnsStart" : -1,
            "receiveLast" : 2044.94200000726,
            "s_time" : 2005.59900002554,
            "sendEnd" : 5,
            "sendStart" : 4,
            "type" : "image/jpeg"
         }
      },
      {
         "when_comp_start" : -1,
         "url" : "http://gigaplus.makeshop.jp/kodesign/images/common/side/kensaku.png",
         "id" : "r31",
         "comps" : [],
         "download" : {
            "receiveFirst" : 225,
            "len" : 3919,
            "dns" : 0,
            "dnsEnd" : -1,
            "receiveHeadersEnd" : 230,
            "sslEnd" : -1,
            "connectEnd" : 4,
            "connectStart" : 0,
            "id" : "download_23",
            "receivedTime" : "2268.08100007474",
            "sslStart" : -1,
            "dnsStart" : -1,
            "receiveLast" : 2038.08100007474,
            "s_time" : 2013.61000002362,
            "sendEnd" : 5,
            "sendStart" : 4,
            "type" : "image/png"
         }
      },
      {
         "when_comp_start" : 1,
         "url" : "http://gigaplus.makeshop.jp/kodesign/footer_m.html",
         "id" : "r32",
         "comps" : [
            {
               "s_time" : 2300.64400006086,
               "time" : -923346835.408,
               "id" : "r32_c1",
               "type" : "evalhtml",
               "e_time" : -923344534.764
            },
            {
               "s_time" : 2519.30200005881,
               "time" : 30.85300000385,
               "type" : "evalhtml",
               "id" : "r32_c2",
               "e_time" : 2550.15500006266
            }
         ],
         "download" : {
            "receiveFirst" : 238,
            "len" : 22095,
            "dns" : 0,
            "dnsEnd" : -1,
            "receiveHeadersEnd" : 242,
            "sslEnd" : -1,
            "connectEnd" : 4,
            "connectStart" : 0,
            "id" : "download_24",
            "receivedTime" : "2299.11799996626",
            "sslStart" : -1,
            "dnsStart" : -1,
            "receiveLast" : 2057.11799996626,
            "s_time" : 2021.3470000308,
            "sendEnd" : 4,
            "sendStart" : 4,
            "type" : "text/html"
         }
      },
      {
         "when_comp_start" : -1,
         "url" : "http://s.yjtag.jp/tag.js#site=HxUlzxy",
         "id" : "r23",
         "comps" : [],
         "download" : {
            "receiveFirst" : 55,
            "len" : 34687,
            "dns" : 260,
            "dnsEnd" : 264,
            "receiveHeadersEnd" : 324,
            "sslEnd" : -1,
            "connectEnd" : 269,
            "connectStart" : 0,
            "id" : "download_25",
            "receivedTime" : "2300.06400006823",
            "sslStart" : -1,
            "dnsStart" : 4,
            "receiveLast" : 1976.06400006823,
            "s_time" : 1944.44200000726,
            "sendEnd" : 269,
            "sendStart" : 269,
            "type" : "application/javascript"
         }
      }
   ],
   "deps" : [
      {
         "a2" : "r1_c2",
         "time" : -1,
         "id" : "dep1",
         "a1" : "comp_2"
      },
      {
         "a2" : "r1_c3",
         "time" : -1,
         "id" : "dep2",
         "a1" : "comp_10"
      },
      {
         "a2" : "r1_c4",
         "time" : -1,
         "id" : "dep3",
         "a1" : "comp_13"
      },
      {
         "a2" : "r1_c5",
         "time" : -1,
         "id" : "dep4",
         "a1" : "comp_14"
      },
      {
         "a2" : "r1_c6",
         "time" : -1,
         "id" : "dep5",
         "a1" : "comp_17"
      },
      {
         "a2" : "r1_c7",
         "time" : -1,
         "id" : "dep6",
         "a1" : "comp_19"
      },
      {
         "a2" : "r1_c8",
         "time" : -1,
         "id" : "dep7",
         "a1" : "comp_22"
      },
      {
         "a2" : "comp_10",
         "time" : -1,
         "id" : "dep8",
         "a1" : "comp_15"
      },
      {
         "a2" : "comp_10",
         "time" : -1,
         "id" : "dep9",
         "a1" : "comp_8"
      },
      {
         "a2" : "comp_10",
         "time" : -1,
         "id" : "dep10",
         "a1" : "comp_9"
      },
      {
         "a2" : "comp_13",
         "time" : -1,
         "id" : "dep11",
         "a1" : "comp_10"
      },
      {
         "a2" : "comp_14",
         "time" : -1,
         "id" : "dep12",
         "a1" : "comp_13"
      },
      {
         "a2" : "comp_17",
         "time" : -1,
         "id" : "dep13",
         "a1" : "comp_14"
      },
      {
         "a2" : "comp_19",
         "time" : -1,
         "id" : "dep14",
         "a1" : "comp_17"
      },
      {
         "a2" : "r32_c2",
         "time" : -1,
         "id" : "dep15",
         "a1" : "comp_67"
      },
      {
         "a2" : "download_25",
         "time" : 9.36799996998002,
         "id" : "dep16",
         "a1" : "r1_c8"
      },
      {
         "a2" : "download_24",
         "time" : 86.27299999352,
         "id" : "dep17",
         "a1" : "r1_c8"
      },
      {
         "a2" : "download_23",
         "time" : 78.5359999863399,
         "id" : "dep18",
         "a1" : "r1_c8"
      },
      {
         "a2" : "download_22",
         "time" : 70.5249999882599,
         "id" : "dep19",
         "a1" : "r1_c8"
      },
      {
         "a2" : "download_21",
         "time" : 56.8229999626001,
         "id" : "dep20",
         "a1" : "r1_c8"
      },
      {
         "a2" : "download_20",
         "time" : 64.02499997057,
         "id" : "dep21",
         "a1" : "r1_c8"
      },
      {
         "a2" : "download_19",
         "time" : 29.2350000236099,
         "id" : "dep22",
         "a1" : "r1_c8"
      },
      {
         "a2" : "download_18",
         "time" : -1,
         "id" : "dep23",
         "a1" : "r1_c2"
      },
      {
         "a2" : "download_17",
         "time" : 14.2520000226799,
         "id" : "dep24",
         "a1" : "r1_c2"
      },
      {
         "a2" : "download_16",
         "time" : -1,
         "id" : "dep25",
         "a1" : "r1_c1"
      },
      {
         "a2" : "download_16",
         "time" : 18.4329999610781,
         "id" : "dep26",
         "a1" : "r1_c1"
      },
      {
         "a2" : "download_15",
         "time" : -1,
         "id" : "dep27",
         "a1" : "r1_c2"
      },
      {
         "a2" : "download_14",
         "time" : 21.561000030488,
         "id" : "dep28",
         "a1" : "r1_c2"
      },
      {
         "a2" : "download_13",
         "time" : 23.635999998078,
         "id" : "dep29",
         "a1" : "r1_c2"
      },
      {
         "a2" : "download_12",
         "time" : 22.659000009298,
         "id" : "dep30",
         "a1" : "r1_c2"
      },
      {
         "a2" : "download_11",
         "time" : -1,
         "id" : "dep31",
         "a1" : "r1_c2"
      },
      {
         "a2" : "download_10",
         "time" : 20.310000050813,
         "id" : "dep32",
         "a1" : "r1_c2"
      },
      {
         "a2" : "download_9",
         "time" : 17.9139999672771,
         "id" : "dep33",
         "a1" : "r1_c1"
      },
      {
         "a2" : "download_9",
         "time" : 17.9139999672771,
         "id" : "dep34",
         "a1" : "r1_c1"
      },
      {
         "a2" : "download_8",
         "time" : 17.425999976694,
         "id" : "dep35",
         "a1" : "r1_c1"
      },
      {
         "a2" : "download_8",
         "time" : 17.425999976694,
         "id" : "dep36",
         "a1" : "r1_c1"
      },
      {
         "a2" : "download_7",
         "time" : 16.906999982893,
         "id" : "dep37",
         "a1" : "r1_c1"
      },
      {
         "a2" : "download_7",
         "time" : 16.906999982893,
         "id" : "dep38",
         "a1" : "r1_c1"
      },
      {
         "a2" : "download_6",
         "time" : 16.387999989092,
         "id" : "dep39",
         "a1" : "r1_c1"
      },
      {
         "a2" : "download_6",
         "time" : 16.387999989092,
         "id" : "dep40",
         "a1" : "r1_c1"
      },
      {
         "a2" : "download_5",
         "time" : 14.922999893315,
         "id" : "dep41",
         "a1" : "r1_c1"
      },
      {
         "a2" : "download_5",
         "time" : 14.922999893315,
         "id" : "dep42",
         "a1" : "r1_c1"
      },
      {
         "a2" : "download_4",
         "time" : 14.403999899514,
         "id" : "dep43",
         "a1" : "r1_c1"
      },
      {
         "a2" : "download_4",
         "time" : 14.403999899514,
         "id" : "dep44",
         "a1" : "r1_c1"
      },
      {
         "a2" : "download_3",
         "time" : -1,
         "id" : "dep45",
         "a1" : "r1_c2"
      },
      {
         "a2" : "download_2",
         "time" : 6.2560000224039,
         "id" : "dep46",
         "a1" : "r1_c2"
      },
      {
         "a2" : "download_1",
         "time" : 15.868999995291,
         "id" : "dep47",
         "a1" : "r1_c1"
      },
      {
         "a2" : "download_1",
         "time" : 15.868999995291,
         "id" : "dep48",
         "a1" : "r1_c1"
      }
   ]
}
