{
   "n_download_no_trigger" : 1,
   "start_activity" : "download_0",
   "name" : "original.testbed.localhost_www.pasjapisania.pl_",
   "load_activity" : -1,
   "objs" : [
      {
         "when_comp_start" : 1,
         "url" : "http://original.testbed.localhost/www.pasjapisania.pl/",
         "id" : "r1",
         "comps" : [
            {
               "s_time" : 327.622000011615,
               "time" : 275.770999956876,
               "id" : "r1_c1",
               "type" : "evalhtml",
               "e_time" : 603.392999968491
            },
            {
               "s_time" : 603.50099997595,
               "time" : 3.61599994357607,
               "id" : "r1_c2",
               "type" : "evalhtml",
               "e_time" : 607.116999919526
            },
            {
               "s_time" : 779.465000028722,
               "time" : 707.244999939578,
               "type" : "evalhtml",
               "id" : "r1_c3",
               "e_time" : 1486.7099999683
            }
         ],
         "download" : {
            "receiveFirst" : 176,
            "len" : 37727,
            "dns" : 0,
            "dnsEnd" : -1,
            "receiveHeadersEnd" : 182,
            "sslEnd" : -1,
            "connectEnd" : 5,
            "connectStart" : 0,
            "id" : "download_0",
            "receivedTime" : "326.034999918193",
            "sslStart" : -1,
            "dnsStart" : -1,
            "receiveLast" : 144.034999918193,
            "s_time" : 0,
            "sendEnd" : 6,
            "sendStart" : 5,
            "type" : "text/html"
         }
      },
      {
         "when_comp_start" : -1,
         "url" : "http://original.testbed.localhost/www.pasjapisania.pl/MainStyle.css",
         "id" : "r2",
         "comps" : [
            {
               "s_time" : 585.587000008672,
               "time" : 14.8320000153039,
               "type" : 4,
               "id" : "comp_0",
               "e_time" : 600.419000023976
            }
         ],
         "download" : {
            "receiveFirst" : 234,
            "len" : 17424,
            "dns" : 0,
            "dnsEnd" : -1,
            "receiveHeadersEnd" : 244,
            "sslEnd" : -1,
            "connectEnd" : 10,
            "connectStart" : 0,
            "id" : "download_1",
            "receivedTime" : "584.275000030175",
            "sslStart" : -1,
            "dnsStart" : -1,
            "receiveLast" : 340.275000030175,
            "s_time" : 329.544999985956,
            "sendEnd" : 10,
            "sendStart" : 10,
            "type" : "text/css"
         }
      },
      {
         "when_comp_start" : -1,
         "url" : "http://original.testbed.localhost/www.pasjapisania.pl/menu.js",
         "id" : "r3",
         "comps" : [
            {
               "s_time" : 601.639000000432,
               "time" : 1.86199997551796,
               "type" : 1,
               "id" : "comp_1",
               "e_time" : 603.50099997595
            }
         ],
         "download" : {
            "receiveFirst" : 220,
            "len" : 7220,
            "dns" : 0,
            "dnsEnd" : -1,
            "receiveHeadersEnd" : 248,
            "sslEnd" : -1,
            "connectEnd" : 27,
            "connectStart" : 0,
            "id" : "download_2",
            "receivedTime" : "600.846000015736",
            "sslStart" : -1,
            "dnsStart" : -1,
            "receiveLast" : 352.846000015736,
            "s_time" : 330.612999969162,
            "sendEnd" : 28,
            "sendStart" : 27,
            "type" : "application/javascript"
         }
      },
      {
         "when_comp_start" : -1,
         "url" : "http://original.testbed.localhost/www.pasjapisania.pl/Images/pasjalogozmniejszone.JPG",
         "id" : "r4",
         "comps" : [],
         "download" : {
            "receiveFirst" : 171,
            "len" : 19985,
            "dns" : 0,
            "dnsEnd" : 51,
            "receiveHeadersEnd" : 393,
            "sslEnd" : -1,
            "connectEnd" : 222,
            "connectStart" : 0,
            "id" : "download_3",
            "receivedTime" : "939.651999971829",
            "sslStart" : -1,
            "dnsStart" : 51,
            "receiveLast" : 546.651999971829,
            "s_time" : 341.491999919526,
            "sendEnd" : 222,
            "sendStart" : 222,
            "type" : "image/jpeg"
         }
      },
      {
         "when_comp_start" : -1,
         "url" : "http://original.testbed.localhost/widgets.twimg.com/j/2/widget.js",
         "id" : "r6",
         "comps" : [
            {
               "s_time" : 776.352999964729,
               "time" : 3.11200006399304,
               "type" : 1,
               "id" : "comp_3",
               "e_time" : 779.465000028722
            }
         ],
         "download" : {
            "receiveFirst" : 208,
            "len" : 1489,
            "dns" : 0,
            "dnsEnd" : 38,
            "receiveHeadersEnd" : 423,
            "sslEnd" : -1,
            "connectEnd" : 214,
            "connectStart" : 0,
            "id" : "download_4",
            "receivedTime" : "774.063999997452",
            "sslStart" : -1,
            "dnsStart" : 38,
            "receiveLast" : 351.063999997452,
            "s_time" : 341.904000029899,
            "sendEnd" : 215,
            "sendStart" : 214,
            "type" : "application/javascript"
         }
      },
      {
         "when_comp_start" : -1,
         "url" : "http://original.testbed.localhost/www.pasjapisania.pl/Images/nie_waz_sie.jpg",
         "id" : "r7",
         "comps" : [],
         "download" : {
            "receiveFirst" : 174,
            "len" : 26101,
            "dns" : 0,
            "dnsEnd" : -1,
            "receiveHeadersEnd" : 193,
            "sslEnd" : -1,
            "connectEnd" : 18,
            "connectStart" : 0,
            "id" : "download_5",
            "receivedTime" : "1043.89999993145",
            "sslStart" : -1,
            "dnsStart" : -1,
            "receiveLast" : 850.899999931455,
            "s_time" : 601.42600000836,
            "sendEnd" : 19,
            "sendStart" : 18,
            "type" : "image/jpeg"
         }
      },
      {
         "when_comp_start" : -1,
         "url" : "http://original.testbed.localhost/www.pasjapisania.pl/Images/Pioro_logo.jpg",
         "id" : "r5",
         "comps" : [],
         "download" : {
            "receiveFirst" : 206,
            "len" : 22753,
            "dns" : 0,
            "dnsEnd" : -1,
            "receiveHeadersEnd" : 223,
            "sslEnd" : -1,
            "connectEnd" : 17,
            "connectStart" : 0,
            "id" : "download_6",
            "receivedTime" : "1078.23199999984",
            "sslStart" : -1,
            "dnsStart" : -1,
            "receiveLast" : 855.231999999844,
            "s_time" : 603.606999968179,
            "sendEnd" : 17,
            "sendStart" : 17,
            "type" : "image/jpeg"
         }
      },
      {
         "when_comp_start" : -1,
         "url" : "http://original.testbed.localhost/www.pasjapisania.pl/Images/n_palasz.jpg",
         "id" : "r8",
         "comps" : [],
         "download" : {
            "receiveFirst" : 177,
            "len" : 18899,
            "dns" : 0,
            "dnsEnd" : -1,
            "receiveHeadersEnd" : 346,
            "sslEnd" : -1,
            "connectEnd" : 169,
            "connectStart" : 0,
            "id" : "download_7",
            "receivedTime" : "1153.97699992172",
            "sslStart" : -1,
            "dnsStart" : -1,
            "receiveLast" : 807.976999921724,
            "s_time" : 602.24899998866,
            "sendEnd" : 169,
            "sendStart" : 169,
            "type" : "image/jpeg"
         }
      },
      {
         "when_comp_start" : 1,
         "url" : "http://original.testbed.localhost/www.pasjapisania.pl/Images/Mlek_Jeden_Bog.jpg",
         "id" : "r9",
         "comps" : [],
         "download" : {
            "receiveFirst" : 183,
            "len" : 335,
            "dns" : 0,
            "dnsEnd" : 20,
            "receiveHeadersEnd" : 492,
            "sslEnd" : -1,
            "connectEnd" : 309,
            "connectStart" : 0,
            "id" : "download_8",
            "receivedTime" : "1105.39299994707",
            "sslStart" : -1,
            "dnsStart" : 20,
            "receiveLast" : 613.392999947071,
            "s_time" : 603.392999968491,
            "sendEnd" : 309,
            "sendStart" : 309,
            "type" : "text/html"
         }
      },
      {
         "when_comp_start" : 1,
         "url" : "http://original.testbed.localhost/www.youtube.com/embed/ARH_jBkT3eg.html",
         "id" : "r39",
         "comps" : [
            {
               "s_time" : 1145.88999992702,
               "time" : 1118.60500008334,
               "id" : "r39_c1",
               "type" : "evalhtml",
               "e_time" : 2264.49500001036
            },
            {
               "s_time" : 2353.65399997681,
               "time" : -916213783.284,
               "id" : "r39_c2",
               "type" : "evalhtml",
               "e_time" : -916211429.63
            },
            {
               "s_time" : 2422.19599999953,
               "time" : 100.7690000115,
               "type" : "evalhtml",
               "id" : "r39_c3",
               "e_time" : 2522.96500001103
            }
         ],
         "download" : {
            "receiveFirst" : 186,
            "len" : 16326,
            "dns" : 0,
            "dnsEnd" : 0,
            "receiveHeadersEnd" : 254,
            "sslEnd" : -1,
            "connectEnd" : 68,
            "connectStart" : 0,
            "id" : "download_9",
            "receivedTime" : "1144.63899994735",
            "sslStart" : -1,
            "dnsStart" : 0,
            "receiveLast" : 890.638999947347,
            "s_time" : 848.251999937929,
            "sendEnd" : 68,
            "sendStart" : 68,
            "type" : "text/html"
         }
      },
      {
         "when_comp_start" : 1,
         "url" : "http://original.testbed.localhost/www.pasjapisania.pl/Images/pijany_skryba.jpg",
         "id" : "r10",
         "comps" : [],
         "download" : {
            "receiveFirst" : 238,
            "len" : 334,
            "dns" : 0,
            "dnsEnd" : -1,
            "receiveHeadersEnd" : 573,
            "sslEnd" : -1,
            "connectEnd" : 335,
            "connectStart" : 0,
            "id" : "download_10",
            "receivedTime" : "1183.8539999444",
            "sslStart" : -1,
            "dnsStart" : -1,
            "receiveLast" : 610.853999944404,
            "s_time" : 604.40099996049,
            "sendEnd" : 335,
            "sendStart" : 335,
            "type" : "text/html"
         }
      },
      {
         "when_comp_start" : -1,
         "url" : "http://original.testbed.localhost/www.pasjapisania.pl/Images/background.JPG",
         "id" : "r35",
         "comps" : [],
         "download" : {
            "receiveFirst" : 166,
            "len" : 941,
            "dns" : 0,
            "dnsEnd" : -1,
            "receiveHeadersEnd" : 271,
            "sslEnd" : -1,
            "connectEnd" : 105,
            "connectStart" : 0,
            "id" : "download_11",
            "receivedTime" : "1220.96299997065",
            "sslStart" : -1,
            "dnsStart" : -1,
            "receiveLast" : 949.962999970652,
            "s_time" : 940.750999958254,
            "sendEnd" : 105,
            "sendStart" : 105,
            "type" : "image/jpeg"
         }
      },
      {
         "when_comp_start" : -1,
         "url" : "http://www.google-analytics.com/ga.js",
         "id" : "r40",
         "comps" : [
            {
               "s_time" : 1239.30399992969,
               "time" : 73.914000066,
               "type" : 2,
               "id" : "comp_11",
               "e_time" : 1313.21799999569
            }
         ],
         "download" : {
            "receiveFirst" : 18,
            "len" : 41100,
            "dns" : 323,
            "dnsEnd" : 329,
            "receiveHeadersEnd" : 353,
            "sslEnd" : -1,
            "connectEnd" : 335,
            "connectStart" : 0,
            "id" : "download_12",
            "receivedTime" : "1236.83199996594",
            "sslStart" : -1,
            "dnsStart" : 6,
            "receiveLast" : 883.831999965943,
            "s_time" : 861.709999968298,
            "sendEnd" : 335,
            "sendStart" : 335,
            "type" : "text/javascript"
         }
      },
      {
         "when_comp_start" : -1,
         "url" : "http://original.testbed.localhost/www.pasjapisania.pl/Images/tlo5a.gif",
         "id" : "r36",
         "comps" : [],
         "download" : {
            "receiveFirst" : 161,
            "len" : 13026,
            "dns" : 0,
            "dnsEnd" : -1,
            "receiveHeadersEnd" : 199,
            "sslEnd" : -1,
            "connectEnd" : 38,
            "connectStart" : 0,
            "id" : "download_13",
            "receivedTime" : "1490.95200002193",
            "sslStart" : -1,
            "dnsStart" : -1,
            "receiveLast" : 1291.95200002193,
            "s_time" : 1044.41799991764,
            "sendEnd" : 38,
            "sendStart" : 38,
            "type" : "image/gif"
         }
      },
      {
         "when_comp_start" : -1,
         "url" : "http://original.testbed.localhost/www.pasjapisania.pl/Images/tlo6.gif",
         "id" : "r37",
         "comps" : [],
         "download" : {
            "receiveFirst" : 188,
            "len" : 3407,
            "dns" : 0,
            "dnsEnd" : -1,
            "receiveHeadersEnd" : 221,
            "sslEnd" : -1,
            "connectEnd" : 32,
            "connectStart" : 0,
            "id" : "download_14",
            "receivedTime" : "1493.11899999157",
            "sslStart" : -1,
            "dnsStart" : -1,
            "receiveLast" : 1272.11899999157,
            "s_time" : 1079.84999998007,
            "sendEnd" : 33,
            "sendStart" : 32,
            "type" : "image/gif"
         }
      },
      {
         "when_comp_start" : -1,
         "url" : "http://original.testbed.localhost/www.pasjapisania.pl/Images/tlo7.gif",
         "id" : "r38",
         "comps" : [],
         "download" : {
            "receiveFirst" : 191,
            "len" : 3125,
            "dns" : 0,
            "dnsEnd" : -1,
            "receiveHeadersEnd" : 212,
            "sslEnd" : -1,
            "connectEnd" : 20,
            "connectStart" : 0,
            "id" : "download_15",
            "receivedTime" : "1494.43099997006",
            "sslStart" : -1,
            "dnsStart" : -1,
            "receiveLast" : 1282.43099997006,
            "s_time" : 1106.85699991882,
            "sendEnd" : 21,
            "sendStart" : 20,
            "type" : "image/gif"
         }
      },
      {
         "when_comp_start" : 1,
         "url" : "http://original.testbed.localhost/www.pasjapisania.pl/Images/Zachlanni.jpg",
         "id" : "r11",
         "comps" : [],
         "download" : {
            "receiveFirst" : 185,
            "len" : 330,
            "dns" : 0,
            "dnsEnd" : -1,
            "receiveHeadersEnd" : 724,
            "sslEnd" : -1,
            "connectEnd" : 539,
            "connectStart" : 0,
            "id" : "download_16",
            "receivedTime" : "1495.43799995445",
            "sslStart" : -1,
            "dnsStart" : -1,
            "receiveLast" : 771.437999954447,
            "s_time" : 607.116999919526,
            "sendEnd" : 539,
            "sendStart" : 539,
            "type" : "text/html"
         }
      },
      {
         "when_comp_start" : -1,
         "url" : "http://original.testbed.localhost/s.ytimg.com/yts/cssbin/www-embed-player-new-vfly4-uqf.css",
         "id" : "r45",
         "comps" : [
            {
               "s_time" : 1704.05599998776,
               "time" : 156.06700000353,
               "type" : null,
               "id" : "comp_21",
               "e_time" : 1860.12299999129
            }
         ],
         "download" : {
            "receiveFirst" : 170,
            "len" : 214570,
            "dns" : 0,
            "dnsEnd" : -1,
            "receiveHeadersEnd" : 204,
            "sslEnd" : -1,
            "connectEnd" : 34,
            "connectStart" : 0,
            "id" : "download_17",
            "receivedTime" : "1703.14100000542",
            "sslStart" : -1,
            "dnsStart" : -1,
            "receiveLast" : 1499.14100000542,
            "s_time" : 1151.046999963,
            "sendEnd" : 34,
            "sendStart" : 34,
            "type" : "text/css"
         }
      },
      {
         "when_comp_start" : -1,
         "url" : "http://original.testbed.localhost/s.ytimg.com/yts/jsbin/www-embed-player-new-vflhKdb6k/www-embed-player-new.js",
         "id" : "r46",
         "comps" : [
            {
               "s_time" : 2005.41799992789,
               "time" : 348.23600004892,
               "type" : 1,
               "id" : "comp_31",
               "e_time" : 2353.65399997681
            }
         ],
         "download" : {
            "receiveFirst" : 215,
            "len" : 183736,
            "dns" : 0,
            "dnsEnd" : -1,
            "receiveHeadersEnd" : 286,
            "sslEnd" : -1,
            "connectEnd" : 71,
            "connectStart" : 0,
            "id" : "download_18",
            "receivedTime" : "2004.77699993644",
            "sslStart" : -1,
            "dnsStart" : -1,
            "receiveLast" : 1718.77699993644,
            "s_time" : 1152.20699994825,
            "sendEnd" : 71,
            "sendStart" : 71,
            "type" : "application/javascript"
         }
      },
      {
         "when_comp_start" : -1,
         "url" : "http://original.testbed.localhost/s.ytimg.com/yts/jsbin/html5player-new-en_US-vflOWWv0e/html5player-new.js",
         "id" : "r47",
         "comps" : [
            {
               "s_time" : 2421.98199999984,
               "time" : 0.213999999690259,
               "type" : 1,
               "id" : "comp_34",
               "e_time" : 2422.19599999953
            }
         ],
         "download" : {
            "receiveFirst" : 242,
            "len" : 288675,
            "dns" : 0,
            "dnsEnd" : -1,
            "receiveHeadersEnd" : 374,
            "sslEnd" : -1,
            "connectEnd" : 130,
            "connectStart" : 0,
            "id" : "download_19",
            "receivedTime" : "2377.02999997418",
            "sslStart" : -1,
            "dnsStart" : -1,
            "receiveLast" : 2003.02999997418,
            "s_time" : 1152.72599994205,
            "sendEnd" : 132,
            "sendStart" : 130,
            "type" : "application/javascript"
         }
      },
      {
         "when_comp_start" : 1,
         "url" : "http://original.testbed.localhost/www.pasjapisania.pl/Images/Dzwieki_duszy.jpg",
         "id" : "r15",
         "comps" : [],
         "download" : {
            "receiveFirst" : 331,
            "len" : 334,
            "dns" : 0,
            "dnsEnd" : -1,
            "receiveHeadersEnd" : 494,
            "sslEnd" : -1,
            "connectEnd" : 163,
            "connectStart" : 0,
            "id" : "download_20",
            "receivedTime" : "1658.85999996681",
            "sslStart" : -1,
            "dnsStart" : -1,
            "receiveLast" : 1164.85999996681,
            "s_time" : 1145.08099993691,
            "sendEnd" : 163,
            "sendStart" : 163,
            "type" : "text/html"
         }
      },
      {
         "when_comp_start" : 1,
         "url" : "http://original.testbed.localhost/www.pasjapisania.pl/Images/Emi_czII_.jpg",
         "id" : "r16",
         "comps" : [],
         "download" : {
            "receiveFirst" : 310,
            "len" : 330,
            "dns" : 0,
            "dnsEnd" : -1,
            "receiveHeadersEnd" : 462,
            "sslEnd" : -1,
            "connectEnd" : 151,
            "connectStart" : 0,
            "id" : "download_21",
            "receivedTime" : "1673.14199998509",
            "sslStart" : -1,
            "dnsStart" : -1,
            "receiveLast" : 1211.14199998509,
            "s_time" : 1180.74099998921,
            "sendEnd" : 152,
            "sendStart" : 151,
            "type" : "text/html"
         }
      },
      {
         "when_comp_start" : 1,
         "url" : "http://original.testbed.localhost/www.pasjapisania.pl/Images/Kawa_z_Kardamonem_okadka.jpg",
         "id" : "r17",
         "comps" : [],
         "download" : {
            "receiveFirst" : 309,
            "len" : 345,
            "dns" : 0,
            "dnsEnd" : -1,
            "receiveHeadersEnd" : 430,
            "sslEnd" : -1,
            "connectEnd" : 120,
            "connectStart" : 0,
            "id" : "download_22",
            "receivedTime" : "1690.99499995355",
            "sslStart" : -1,
            "dnsStart" : -1,
            "receiveLast" : 1260.99499995355,
            "s_time" : 1216.32499992847,
            "sendEnd" : 121,
            "sendStart" : 120,
            "type" : "text/html"
         }
      },
      {
         "when_comp_start" : 1,
         "url" : "http://original.testbed.localhost/www.pasjapisania.pl/Images/baba-na-safari.jpg",
         "id" : "r18",
         "comps" : [],
         "download" : {
            "receiveFirst" : 238,
            "len" : 335,
            "dns" : 0,
            "dnsEnd" : -1,
            "receiveHeadersEnd" : 618,
            "sslEnd" : -1,
            "connectEnd" : 380,
            "connectStart" : 0,
            "id" : "download_23",
            "receivedTime" : "1917.1609999612",
            "sslStart" : -1,
            "dnsStart" : -1,
            "receiveLast" : 1299.1609999612,
            "s_time" : 1279.66300002299,
            "sendEnd" : 380,
            "sendStart" : 380,
            "type" : "text/html"
         }
      },
      {
         "when_comp_start" : 1,
         "url" : "http://original.testbed.localhost/www.pasjapisania.pl/Images/Milosc-Bardzo-prosze.jpg",
         "id" : "r19",
         "comps" : [],
         "download" : {
            "receiveFirst" : 233,
            "len" : 341,
            "dns" : 0,
            "dnsEnd" : -1,
            "receiveHeadersEnd" : 600,
            "sslEnd" : -1,
            "connectEnd" : 366,
            "connectStart" : 0,
            "id" : "download_24",
            "receivedTime" : "1928.81800001487",
            "sslStart" : -1,
            "dnsStart" : -1,
            "receiveLast" : 1328.81800001487,
            "s_time" : 1306.06199998874,
            "sendEnd" : 367,
            "sendStart" : 366,
            "type" : "text/html"
         }
      },
      {
         "when_comp_start" : 1,
         "url" : "http://original.testbed.localhost/www.pasjapisania.pl/Images/za_firewallem-1.jpg",
         "id" : "r20",
         "comps" : [],
         "download" : {
            "receiveFirst" : 253,
            "len" : 336,
            "dns" : 0,
            "dnsEnd" : -1,
            "receiveHeadersEnd" : 613,
            "sslEnd" : -1,
            "connectEnd" : 360,
            "connectStart" : 0,
            "id" : "download_25",
            "receivedTime" : "1964.92099994794",
            "sslStart" : -1,
            "dnsStart" : -1,
            "receiveLast" : 1351.92099994794,
            "s_time" : 1330.4749999661,
            "sendEnd" : 360,
            "sendStart" : 360,
            "type" : "text/html"
         }
      },
      {
         "when_comp_start" : 1,
         "url" : "http://original.testbed.localhost/www.pasjapisania.pl/Images/kto_jak_nie_ja.jpg",
         "id" : "r21",
         "comps" : [],
         "download" : {
            "receiveFirst" : 257,
            "len" : 335,
            "dns" : 0,
            "dnsEnd" : -1,
            "receiveHeadersEnd" : 621,
            "sslEnd" : -1,
            "connectEnd" : 364,
            "connectStart" : 0,
            "id" : "download_26",
            "receivedTime" : "1987.7479999559",
            "sslStart" : -1,
            "dnsStart" : -1,
            "receiveLast" : 1366.7479999559,
            "s_time" : 1335.34200000577,
            "sendEnd" : 364,
            "sendStart" : 364,
            "type" : "text/html"
         }
      },
      {
         "when_comp_start" : 1,
         "url" : "http://original.testbed.localhost/www.pasjapisania.pl/Images/pietno.jpg",
         "id" : "r22",
         "comps" : [],
         "download" : {
            "receiveFirst" : 158,
            "len" : 327,
            "dns" : 0,
            "dnsEnd" : -1,
            "receiveHeadersEnd" : 420,
            "sslEnd" : -1,
            "connectEnd" : 261,
            "connectStart" : 0,
            "id" : "download_27",
            "receivedTime" : "2361.49699997623",
            "sslStart" : -1,
            "dnsStart" : -1,
            "receiveLast" : 1941.49699997623,
            "s_time" : 1655.74700001162,
            "sendEnd" : 262,
            "sendStart" : 261,
            "type" : "text/html"
         }
      },
      {
         "when_comp_start" : 1,
         "url" : "http://original.testbed.localhost/www.pasjapisania.pl/Images/sekretne_zycie.jpg",
         "id" : "r23",
         "comps" : [],
         "download" : {
            "receiveFirst" : 161,
            "len" : 335,
            "dns" : 0,
            "dnsEnd" : -1,
            "receiveHeadersEnd" : 418,
            "sslEnd" : -1,
            "connectEnd" : 257,
            "connectStart" : 0,
            "id" : "download_28",
            "receivedTime" : "2362.2289999621",
            "sslStart" : -1,
            "dnsStart" : -1,
            "receiveLast" : 1944.2289999621,
            "s_time" : 1670.96000001766,
            "sendEnd" : 257,
            "sendStart" : 257,
            "type" : "text/html"
         }
      },
      {
         "when_comp_start" : 1,
         "url" : "http://original.testbed.localhost/www.pasjapisania.pl/Images/yx.png",
         "id" : "r24",
         "comps" : [],
         "download" : {
            "receiveFirst" : 158,
            "len" : 323,
            "dns" : 0,
            "dnsEnd" : -1,
            "receiveHeadersEnd" : 433,
            "sslEnd" : -1,
            "connectEnd" : 275,
            "connectStart" : 0,
            "id" : "download_29",
            "receivedTime" : "2362.80899995472",
            "sslStart" : -1,
            "dnsStart" : -1,
            "receiveLast" : 1929.80899995472,
            "s_time" : 1688.14099999145,
            "sendEnd" : 275,
            "sendStart" : 275,
            "type" : "text/html"
         }
      },
      {
         "when_comp_start" : 1,
         "url" : "http://original.testbed.localhost/www.pasjapisania.pl/Images/samotnosc.jpg",
         "id" : "r25",
         "comps" : [],
         "download" : {
            "receiveFirst" : 157,
            "len" : 330,
            "dns" : 0,
            "dnsEnd" : -1,
            "receiveHeadersEnd" : 231,
            "sslEnd" : -1,
            "connectEnd" : 74,
            "connectStart" : 0,
            "id" : "download_30",
            "receivedTime" : "2364.15199993644",
            "sslStart" : -1,
            "dnsStart" : -1,
            "receiveLast" : 2133.15199993644,
            "s_time" : 1914.23100000247,
            "sendEnd" : 74,
            "sendStart" : 74,
            "type" : "text/html"
         }
      },
      {
         "when_comp_start" : 1,
         "url" : "http://original.testbed.localhost/www.pasjapisania.pl/Images/emi.jpg",
         "id" : "r26",
         "comps" : [],
         "download" : {
            "receiveFirst" : 174,
            "len" : 324,
            "dns" : 0,
            "dnsEnd" : -1,
            "receiveHeadersEnd" : 251,
            "sslEnd" : -1,
            "connectEnd" : 76,
            "connectStart" : 0,
            "id" : "download_31",
            "receivedTime" : "2365.31099991407",
            "sslStart" : -1,
            "dnsStart" : -1,
            "receiveLast" : 2114.31099991407,
            "s_time" : 1925.91899994295,
            "sendEnd" : 77,
            "sendStart" : 76,
            "type" : "text/html"
         }
      },
      {
         "when_comp_start" : 1,
         "url" : "http://original.testbed.localhost/www.pasjapisania.pl/Images/kochanek.jpg",
         "id" : "r27",
         "comps" : [],
         "download" : {
            "receiveFirst" : 157,
            "len" : 329,
            "dns" : 0,
            "dnsEnd" : -1,
            "receiveHeadersEnd" : 275,
            "sslEnd" : -1,
            "connectEnd" : 118,
            "connectStart" : 0,
            "id" : "download_32",
            "receivedTime" : "2367.11200000718",
            "sslStart" : -1,
            "dnsStart" : -1,
            "receiveLast" : 2092.11200000718,
            "s_time" : 1962.02099998482,
            "sendEnd" : 118,
            "sendStart" : 118,
            "type" : "text/html"
         }
      },
      {
         "when_comp_start" : 1,
         "url" : "http://original.testbed.localhost/www.pasjapisania.pl/Images/Katarzyna-MLEK-_ZAPOMNIJ-male.jpg",
         "id" : "r28",
         "comps" : [],
         "download" : {
            "receiveFirst" : 165,
            "len" : 350,
            "dns" : 0,
            "dnsEnd" : -1,
            "receiveHeadersEnd" : 274,
            "sslEnd" : -1,
            "connectEnd" : 109,
            "connectStart" : 0,
            "id" : "download_33",
            "receivedTime" : "2367.72199999541",
            "sslStart" : -1,
            "dnsStart" : -1,
            "receiveLast" : 2093.72199999541,
            "s_time" : 1984.04000001028,
            "sendEnd" : 109,
            "sendStart" : 109,
            "type" : "text/html"
         }
      },
      {
         "when_comp_start" : 1,
         "url" : "http://original.testbed.localhost/www.pasjapisania.pl/Images/poninska1.jpg",
         "id" : "r29",
         "comps" : [],
         "download" : {
            "receiveFirst" : 161,
            "len" : 330,
            "dns" : 0,
            "dnsEnd" : -1,
            "receiveHeadersEnd" : 208,
            "sslEnd" : -1,
            "connectEnd" : 47,
            "connectStart" : 0,
            "id" : "download_34",
            "receivedTime" : "2369.21799997799",
            "sslStart" : -1,
            "dnsStart" : -1,
            "receiveLast" : 2161.21799997799,
            "s_time" : 2078.91899999231,
            "sendEnd" : 47,
            "sendStart" : 47,
            "type" : "text/html"
         }
      },
      {
         "when_comp_start" : -1,
         "url" : "http://www.google-analytics.com/r/__utm.gifutmwv=5.6.6&utms=1&utmn=801317905&utmhn=original.testbed.localhost&utmcs=ISO-8859-1&utmsr=360x640&utmvp=360x576&utmsc=32-bit&utmul=en-us&utmje=1&utmfl=-&utmdt=Pasja%20Pisania%20-%20portal%20pisarski&utmhid=1827311643&utmr=-&utmp=%2Fwww.pasjapisania.pl%2F&u",
         "id" : "r48",
         "comps" : [],
         "download" : {
            "receiveFirst" : 26,
            "len" : 35,
            "dns" : 0,
            "dnsEnd" : -1,
            "receiveHeadersEnd" : 35,
            "sslEnd" : -1,
            "connectEnd" : 9,
            "connectStart" : 0,
            "id" : "download_35",
            "receivedTime" : "2368.82099998184",
            "sslStart" : -1,
            "dnsStart" : -1,
            "receiveLast" : 2333.82099998184,
            "s_time" : 2264.49500001036,
            "sendEnd" : 9,
            "sendStart" : 9,
            "type" : "image/gif"
         }
      },
      {
         "when_comp_start" : 1,
         "url" : "http://original.testbed.localhost/www.pasjapisania.pl/Images/malon.jpg",
         "id" : "r30",
         "comps" : [],
         "download" : {
            "receiveFirst" : 169,
            "len" : 326,
            "dns" : 0,
            "dnsEnd" : -1,
            "receiveHeadersEnd" : 227,
            "sslEnd" : -1,
            "connectEnd" : 58,
            "connectStart" : 0,
            "id" : "download_36",
            "receivedTime" : "2378.25099995825",
            "sslStart" : -1,
            "dnsStart" : -1,
            "receiveLast" : 2151.25099995825,
            "s_time" : 2089.44699994754,
            "sendEnd" : 58,
            "sendStart" : 58,
            "type" : "text/html"
         }
      }
   ],
   "deps" : [
      {
         "a2" : "r1_c2",
         "time" : -1,
         "id" : "dep1",
         "a1" : "comp_1"
      },
      {
         "a2" : "r1_c3",
         "time" : -1,
         "id" : "dep2",
         "a1" : "comp_3"
      },
      {
         "a2" : "comp_1",
         "time" : -1,
         "id" : "dep3",
         "a1" : "comp_0"
      },
      {
         "a2" : "r39_c2",
         "time" : -1,
         "id" : "dep4",
         "a1" : "comp_31"
      },
      {
         "a2" : "r39_c3",
         "time" : -1,
         "id" : "dep5",
         "a1" : "comp_34"
      },
      {
         "a2" : "comp_34",
         "time" : -1,
         "id" : "dep6",
         "a1" : "comp_31"
      },
      {
         "a2" : "download_36",
         "time" : -1,
         "id" : "dep7",
         "a1" : "r39_c1"
      },
      {
         "a2" : "download_35",
         "time" : -1,
         "id" : "dep8",
         "a1" : "r39_c1"
      },
      {
         "a2" : "download_34",
         "time" : 933.02900006529,
         "id" : "dep9",
         "a1" : "r39_c1"
      },
      {
         "a2" : "download_33",
         "time" : 838.15000008326,
         "id" : "dep10",
         "a1" : "r39_c1"
      },
      {
         "a2" : "download_32",
         "time" : 816.1310000578,
         "id" : "dep11",
         "a1" : "r39_c1"
      },
      {
         "a2" : "download_31",
         "time" : 780.02900001593,
         "id" : "dep12",
         "a1" : "r39_c1"
      },
      {
         "a2" : "download_30",
         "time" : 768.34100007545,
         "id" : "dep13",
         "a1" : "r39_c1"
      },
      {
         "a2" : "download_29",
         "time" : 542.25100006443,
         "id" : "dep14",
         "a1" : "r39_c1"
      },
      {
         "a2" : "download_28",
         "time" : 525.07000009064,
         "id" : "dep15",
         "a1" : "r39_c1"
      },
      {
         "a2" : "download_27",
         "time" : 509.8570000846,
         "id" : "dep16",
         "a1" : "r39_c1"
      },
      {
         "a2" : "download_26",
         "time" : 189.45200007875,
         "id" : "dep17",
         "a1" : "r39_c1"
      },
      {
         "a2" : "download_26",
         "time" : 555.876999977048,
         "id" : "dep18",
         "a1" : "r1_c3"
      },
      {
         "a2" : "download_25",
         "time" : 184.58500003908,
         "id" : "dep19",
         "a1" : "r39_c1"
      },
      {
         "a2" : "download_25",
         "time" : 551.009999937378,
         "id" : "dep20",
         "a1" : "r1_c3"
      },
      {
         "a2" : "download_24",
         "time" : 160.17200006172,
         "id" : "dep21",
         "a1" : "r39_c1"
      },
      {
         "a2" : "download_24",
         "time" : 526.596999960018,
         "id" : "dep22",
         "a1" : "r1_c3"
      },
      {
         "a2" : "download_23",
         "time" : 133.77300009597,
         "id" : "dep23",
         "a1" : "r39_c1"
      },
      {
         "a2" : "download_23",
         "time" : 500.197999994268,
         "id" : "dep24",
         "a1" : "r1_c3"
      },
      {
         "a2" : "download_22",
         "time" : 70.4350000014501,
         "id" : "dep25",
         "a1" : "r39_c1"
      },
      {
         "a2" : "download_22",
         "time" : 436.859999899748,
         "id" : "dep26",
         "a1" : "r1_c3"
      },
      {
         "a2" : "download_21",
         "time" : 34.85100006219,
         "id" : "dep27",
         "a1" : "r39_c1"
      },
      {
         "a2" : "download_21",
         "time" : 401.275999960488,
         "id" : "dep28",
         "a1" : "r1_c3"
      },
      {
         "a2" : "download_20",
         "time" : 365.615999908188,
         "id" : "dep29",
         "a1" : "r1_c3"
      },
      {
         "a2" : "download_19",
         "time" : 373.260999913328,
         "id" : "dep30",
         "a1" : "r1_c3"
      },
      {
         "a2" : "download_19",
         "time" : 6.83600001503009,
         "id" : "dep31",
         "a1" : "r39_c1"
      },
      {
         "a2" : "download_19",
         "time" : 373.260999913328,
         "id" : "dep32",
         "a1" : "r1_c3"
      },
      {
         "a2" : "download_18",
         "time" : 372.741999919528,
         "id" : "dep33",
         "a1" : "r1_c3"
      },
      {
         "a2" : "download_18",
         "time" : 6.31700002123011,
         "id" : "dep34",
         "a1" : "r39_c1"
      },
      {
         "a2" : "download_18",
         "time" : 372.741999919528,
         "id" : "dep35",
         "a1" : "r1_c3"
      },
      {
         "a2" : "download_17",
         "time" : 5.15700003597999,
         "id" : "dep36",
         "a1" : "r39_c1"
      },
      {
         "a2" : "download_17",
         "time" : 371.581999934278,
         "id" : "dep37",
         "a1" : "r1_c3"
      },
      {
         "a2" : "download_16",
         "time" : -1,
         "id" : "dep38",
         "a1" : "r1_c2"
      },
      {
         "a2" : "download_15",
         "time" : 327.391999890098,
         "id" : "dep39",
         "a1" : "r1_c3"
      },
      {
         "a2" : "download_14",
         "time" : 300.384999951348,
         "id" : "dep40",
         "a1" : "r1_c3"
      },
      {
         "a2" : "download_13",
         "time" : 264.952999888918,
         "id" : "dep41",
         "a1" : "r1_c3"
      },
      {
         "a2" : "download_12",
         "time" : 82.244999939576,
         "id" : "dep42",
         "a1" : "r1_c3"
      },
      {
         "a2" : "download_12",
         "time" : 82.244999939576,
         "id" : "dep43",
         "a1" : "r1_c3"
      },
      {
         "a2" : "download_11",
         "time" : 161.285999929532,
         "id" : "dep44",
         "a1" : "r1_c3"
      },
      {
         "a2" : "download_10",
         "time" : 0.899999984540045,
         "id" : "dep45",
         "a1" : "r1_c2"
      },
      {
         "a2" : "download_9",
         "time" : 68.786999909207,
         "id" : "dep46",
         "a1" : "r1_c3"
      },
      {
         "a2" : "download_8",
         "time" : -1,
         "id" : "dep47",
         "a1" : "r1_c1"
      },
      {
         "a2" : "download_7",
         "time" : 274.626999977045,
         "id" : "dep48",
         "a1" : "r1_c1"
      },
      {
         "a2" : "download_6",
         "time" : 0.105999992229044,
         "id" : "dep49",
         "a1" : "r1_c2"
      },
      {
         "a2" : "download_5",
         "time" : 273.803999996745,
         "id" : "dep50",
         "a1" : "r1_c1"
      },
      {
         "a2" : "download_4",
         "time" : 14.282000018284,
         "id" : "dep51",
         "a1" : "r1_c1"
      },
      {
         "a2" : "download_4",
         "time" : 14.282000018284,
         "id" : "dep52",
         "a1" : "r1_c1"
      },
      {
         "a2" : "download_3",
         "time" : 13.869999907911,
         "id" : "dep53",
         "a1" : "r1_c1"
      },
      {
         "a2" : "download_3",
         "time" : 13.869999907911,
         "id" : "dep54",
         "a1" : "r1_c1"
      },
      {
         "a2" : "download_2",
         "time" : 2.99099995754699,
         "id" : "dep55",
         "a1" : "r1_c1"
      },
      {
         "a2" : "download_1",
         "time" : 1.922999974341,
         "id" : "dep56",
         "a1" : "r1_c1"
      }
   ]
}
