{
   "n_download_no_trigger" : 1,
   "start_activity" : "download_0",
   "name" : "original.testbed.localhost_www.chron.com_",
   "load_activity" : -1,
   "objs" : [
      {
         "when_comp_start" : 1,
         "url" : "http://original.testbed.localhost/www.chron.com/",
         "id" : "r1",
         "comps" : [
            {
               "s_time" : 331.987000070512,
               "time" : 166.808999958448,
               "id" : "r1_c1",
               "type" : "evalhtml",
               "e_time" : 498.79600002896
            },
            {
               "s_time" : 1481.1870000558,
               "time" : 63.5979999788101,
               "type" : "evalhtml",
               "id" : "r1_c2",
               "e_time" : 1544.78500003461
            }
         ],
         "download" : {
            "receiveFirst" : 160,
            "len" : 330526,
            "dns" : 0,
            "dnsEnd" : -1,
            "receiveHeadersEnd" : 165,
            "sslEnd" : -1,
            "connectEnd" : 5,
            "connectStart" : 0,
            "id" : "download_0",
            "receivedTime" : "700.853000045754",
            "sslStart" : -1,
            "dnsStart" : -1,
            "receiveLast" : 535.853000045754,
            "s_time" : 0,
            "sendEnd" : 5,
            "sendStart" : 5,
            "type" : "text/html"
         }
      },
      {
         "when_comp_start" : -1,
         "url" : "http://g.3gl.net/jp/148/v2/C",
         "id" : "r2",
         "comps" : [
            {
               "s_time" : 1374.00900002103,
               "time" : 0.671999994669932,
               "type" : 2,
               "id" : "comp_24",
               "e_time" : 1374.6810000157
            }
         ],
         "download" : {
            "receiveFirst" : 378,
            "len" : 187,
            "dns" : 224,
            "dnsEnd" : 234,
            "receiveHeadersEnd" : 922,
            "sslEnd" : -1,
            "connectEnd" : 543,
            "connectStart" : 0,
            "id" : "download_1",
            "receivedTime" : "1373.52100003045",
            "sslStart" : -1,
            "dnsStart" : 10,
            "receiveLast" : 451.521000030451,
            "s_time" : 419.084000051953,
            "sendEnd" : 544,
            "sendStart" : 543,
            "type" : "text/javascript"
         }
      },
      {
         "when_comp_start" : -1,
         "url" : "http://c.amazon-adsystem.com/aax2/amzn_ads.js",
         "id" : "r4",
         "comps" : [
            {
               "s_time" : 1457.74900005199,
               "time" : 23.43800000381,
               "type" : 1,
               "id" : "comp_26",
               "e_time" : 1481.1870000558
            }
         ],
         "download" : {
            "receiveFirst" : 397,
            "len" : 15033,
            "dns" : 199,
            "dnsEnd" : 211,
            "receiveHeadersEnd" : 916,
            "sslEnd" : -1,
            "connectEnd" : 519,
            "connectStart" : 0,
            "id" : "download_2",
            "receivedTime" : "1457.47500006109",
            "sslStart" : -1,
            "dnsStart" : 12,
            "receiveLast" : 541.475000061095,
            "s_time" : 440.995000069961,
            "sendEnd" : 519,
            "sendStart" : 519,
            "type" : "application/x-javascript"
         }
      },
      {
         "when_comp_start" : -1,
         "url" : "http://g.3gl.net/jp/v2/M",
         "id" : "r3",
         "comps" : [
            {
               "s_time" : 1507.73700000718,
               "time" : 36.4080000435999,
               "type" : null,
               "id" : "comp_29",
               "e_time" : 1544.14500005078
            }
         ],
         "download" : {
            "receiveFirst" : 456,
            "len" : 9556,
            "dns" : 0,
            "dnsEnd" : 255,
            "receiveHeadersEnd" : 1017,
            "sslEnd" : -1,
            "connectEnd" : 561,
            "connectStart" : 0,
            "id" : "download_3",
            "receivedTime" : "1506.66900002398",
            "sslStart" : -1,
            "dnsStart" : 255,
            "receiveLast" : 489.669000023976,
            "s_time" : 420.030000037514,
            "sendEnd" : 561,
            "sendStart" : 561,
            "type" : "text/javascript"
         }
      },
      {
         "when_comp_start" : -1,
         "url" : "http://aps.hearstnp.com/Scripts/loadAds.js",
         "id" : "r16",
         "comps" : [],
         "download" : {
            "receiveFirst" : 464,
            "len" : 920,
            "dns" : 166,
            "dnsEnd" : 200,
            "receiveHeadersEnd" : 967,
            "sslEnd" : -1,
            "connectEnd" : 503,
            "connectStart" : 0,
            "id" : "download_4",
            "receivedTime" : "1544.48000004049",
            "sslStart" : -1,
            "dnsStart" : 34,
            "receiveLast" : 577.480000040494,
            "s_time" : 498.79600002896,
            "sendEnd" : 503,
            "sendStart" : 503,
            "type" : "application/x-javascript"
         }
      },
      {
         "when_comp_start" : -1,
         "url" : "http://cdn.optimizely.com/js/62709401.js",
         "id" : "r14",
         "comps" : [],
         "download" : {
            "receiveFirst" : 490,
            "len" : 169441,
            "dns" : 172,
            "dnsEnd" : 205,
            "receiveHeadersEnd" : 1000,
            "sslEnd" : -1,
            "connectEnd" : 510,
            "connectStart" : 0,
            "id" : "download_5",
            "receivedTime" : "2301.7440000549",
            "sslStart" : -1,
            "dnsStart" : 33,
            "receiveLast" : 1301.7440000549,
            "s_time" : 495.774000068195,
            "sendEnd" : 510,
            "sendStart" : 510,
            "type" : "text/javascript"
         }
      },
      {
         "when_comp_start" : -1,
         "url" : "http://launch.newsinc.com/84/js/embed.js",
         "id" : "r15",
         "comps" : [],
         "download" : {
            "receiveFirst" : 591,
            "len" : 36623,
            "dns" : 0,
            "dnsEnd" : -1,
            "receiveHeadersEnd" : 597,
            "sslEnd" : -1,
            "connectEnd" : 6,
            "connectStart" : 0,
            "id" : "download_6",
            "receivedTime" : "2282.45699999388",
            "sslStart" : -1,
            "dnsStart" : -1,
            "receiveLast" : 1685.45699999388,
            "s_time" : 1544.78500003461,
            "sendEnd" : 6,
            "sendStart" : 6,
            "type" : "application/javascript"
         }
      }
   ],
   "deps" : [
      {
         "a2" : "r1_c2",
         "time" : -1,
         "id" : "dep1",
         "a1" : "comp_26"
      },
      {
         "a2" : "download_6",
         "time" : -1,
         "id" : "dep2",
         "a1" : "r1_c2"
      },
      {
         "a2" : "download_5",
         "time" : -1,
         "id" : "dep3",
         "a1" : "r1_c1"
      },
      {
         "a2" : "download_5",
         "time" : 163.786999997683,
         "id" : "dep4",
         "a1" : "r1_c1"
      },
      {
         "a2" : "download_4",
         "time" : -1,
         "id" : "dep5",
         "a1" : "r1_c1"
      },
      {
         "a2" : "download_4",
         "time" : 166.808999958448,
         "id" : "dep6",
         "a1" : "r1_c1"
      },
      {
         "a2" : "download_3",
         "time" : 88.042999967002,
         "id" : "dep7",
         "a1" : "r1_c1"
      },
      {
         "a2" : "download_2",
         "time" : 109.007999999449,
         "id" : "dep8",
         "a1" : "r1_c1"
      },
      {
         "a2" : "download_1",
         "time" : 87.096999981441,
         "id" : "dep9",
         "a1" : "r1_c1"
      }
   ]
}
