{
   "n_download_no_trigger" : 1,
   "start_activity" : "download_0",
   "name" : "original.testbed.localhost_www.google.de_",
   "load_activity" : -1,
   "objs" : [
      {
         "when_comp_start" : 1,
         "url" : "http://original.testbed.localhost/www.google.de/",
         "id" : "r1",
         "comps" : [
            {
               "s_time" : 138.305999993463,
               "time" : 267.089000000851,
               "type" : "evalhtml",
               "id" : "r1_c1",
               "e_time" : 405.394999994314
            }
         ],
         "download" : {
            "receiveFirst" : 14,
            "len" : 153606,
            "dns" : 0,
            "dnsEnd" : -1,
            "receiveHeadersEnd" : 21,
            "sslEnd" : -1,
            "connectEnd" : 6,
            "connectStart" : 0,
            "id" : "download_0",
            "receivedTime" : "137.542999989819",
            "sslStart" : -1,
            "dnsStart" : -1,
            "receiveLast" : 116.542999989819,
            "s_time" : 0,
            "sendEnd" : 7,
            "sendStart" : 6,
            "type" : "text/html"
         }
      },
      {
         "when_comp_start" : -1,
         "url" : "http://original.testbed.localhost/www.google.de/images/icons/product/chrome-48.png",
         "id" : "r2",
         "comps" : [],
         "download" : {
            "receiveFirst" : 7,
            "len" : 1834,
            "dns" : 0,
            "dnsEnd" : -1,
            "receiveHeadersEnd" : 19,
            "sslEnd" : -1,
            "connectEnd" : 11,
            "connectStart" : 0,
            "id" : "download_1",
            "receivedTime" : "404.174999988754",
            "sslStart" : -1,
            "dnsStart" : -1,
            "receiveLast" : 385.174999988754,
            "s_time" : 166.24399999273,
            "sendEnd" : 12,
            "sendStart" : 11,
            "type" : "image/png"
         }
      },
      {
         "when_comp_start" : -1,
         "url" : "http://original.testbed.localhost/www.google.de/images/branding/googlelogo/1x/googlelogo_white_background_color_272x92dp.png",
         "id" : "r3",
         "comps" : [],
         "download" : {
            "receiveFirst" : 7,
            "len" : 5482,
            "dns" : 0,
            "dnsEnd" : -1,
            "receiveHeadersEnd" : 11,
            "sslEnd" : -1,
            "connectEnd" : 4,
            "connectStart" : 0,
            "id" : "download_2",
            "receivedTime" : "408.660999994026",
            "sslStart" : -1,
            "dnsStart" : -1,
            "receiveLast" : 397.660999994026,
            "s_time" : 229.719999988447,
            "sendEnd" : 4,
            "sendStart" : 4,
            "type" : "image/png"
         }
      },
      {
         "when_comp_start" : -1,
         "url" : "http://original.testbed.localhost/www.google.de/images/srpr/nav_logo80.png",
         "id" : "r4",
         "comps" : [],
         "download" : {
            "receiveFirst" : 9,
            "len" : 35615,
            "dns" : 0,
            "dnsEnd" : -1,
            "receiveHeadersEnd" : 17,
            "sslEnd" : -1,
            "connectEnd" : 8,
            "connectStart" : 0,
            "id" : "download_3",
            "receivedTime" : "421.843999996781",
            "sslStart" : -1,
            "dnsStart" : -1,
            "receiveLast" : 404.843999996781,
            "s_time" : 267.058999990695,
            "sendEnd" : 8,
            "sendStart" : 8,
            "type" : "image/png"
         }
      },
      {
         "when_comp_start" : 1,
         "url" : "http://original.testbed.localhost/client_204&atyp=i&biw=360&bih=576&ei=VJT4Vc-oEMX6-AHy9ongCA",
         "id" : "r5",
         "comps" : [],
         "download" : {
            "receiveFirst" : 20,
            "len" : 300,
            "dns" : 0,
            "dnsEnd" : -1,
            "receiveHeadersEnd" : 30,
            "sslEnd" : -1,
            "connectEnd" : 10,
            "connectStart" : 0,
            "id" : "download_4",
            "receivedTime" : "438.599000000977",
            "sslStart" : -1,
            "dnsStart" : -1,
            "receiveLast" : 408.599000000977,
            "s_time" : 401.427999997395,
            "sendEnd" : 10,
            "sendStart" : 10,
            "type" : "text/html"
         }
      }
   ],
   "deps" : [
      {
         "a2" : "download_4",
         "time" : 263.122000003932,
         "id" : "dep1",
         "a1" : "r1_c1"
      },
      {
         "a2" : "download_3",
         "time" : 128.752999997232,
         "id" : "dep2",
         "a1" : "r1_c1"
      },
      {
         "a2" : "download_2",
         "time" : 91.413999994984,
         "id" : "dep3",
         "a1" : "r1_c1"
      },
      {
         "a2" : "download_1",
         "time" : 27.937999999267,
         "id" : "dep4",
         "a1" : "r1_c1"
      }
   ]
}
