{
   "n_download_no_trigger" : 1,
   "start_activity" : "download_0",
   "name" : "original.testbed.localhost_www.cnbc.com_",
   "load_activity" : -1,
   "objs" : [
      {
         "when_comp_start" : 1,
         "url" : "http://original.testbed.localhost/www.cnbc.com/",
         "id" : "r1",
         "comps" : [
            {
               "s_time" : 138.734000000113,
               "time" : 15.715999998065,
               "id" : "r1_c1",
               "type" : "evalhtml",
               "e_time" : 154.449999998178
            },
            {
               "s_time" : 281.158999998297,
               "time" : 264.404000001378,
               "id" : "r1_c2",
               "type" : "evalhtml",
               "e_time" : 545.562999999675
            },
            {
               "s_time" : 545.990999999049,
               "time" : -25735947.861,
               "id" : "r1_c3",
               "type" : "evalhtml",
               "e_time" : -25735401.87
            },
            {
               "s_time" : 609.558999996807,
               "time" : 47.302000002674,
               "id" : "r1_c4",
               "type" : "evalhtml",
               "e_time" : 656.860999999481
            },
            {
               "s_time" : 658.783999999287,
               "time" : 572.722999997493,
               "id" : "r1_c5",
               "type" : "evalhtml",
               "e_time" : 1231.50699999678
            },
            {
               "s_time" : 1233.1239999985,
               "time" : 29.9980000017899,
               "id" : "r1_c6",
               "type" : "evalhtml",
               "e_time" : 1263.12200000029
            },
            {
               "s_time" : 1287.07999999824,
               "time" : 237.8690000005,
               "id" : "r1_c7",
               "type" : "evalhtml",
               "e_time" : 1524.94899999874
            },
            {
               "s_time" : 1588.41000000029,
               "time" : 1079.07099999648,
               "id" : "r1_c8",
               "type" : "evalhtml",
               "e_time" : 2667.48099999677
            },
            {
               "s_time" : 3519.89799999865,
               "time" : 439.46800000049,
               "id" : "r1_c9",
               "type" : "evalhtml",
               "e_time" : 3959.36599999914
            },
            {
               "s_time" : 4188.6599999998,
               "time" : -25739590.53,
               "id" : "r1_c10",
               "type" : "evalhtml",
               "e_time" : -25735401.87
            },
            {
               "s_time" : 4208.7709999978,
               "time" : -25739610.641,
               "id" : "r1_c11",
               "type" : "evalhtml",
               "e_time" : -25735401.87
            },
            {
               "s_time" : 4399.07899999889,
               "time" : -25739800.949,
               "id" : "r1_c12",
               "type" : "evalhtml",
               "e_time" : -25735401.87
            },
            {
               "s_time" : 4724.15199999887,
               "time" : -25740126.022,
               "id" : "r1_c13",
               "type" : "evalhtml",
               "e_time" : -25735401.87
            },
            {
               "s_time" : 5020.08099999875,
               "time" : -25740421.951,
               "id" : "r1_c14",
               "type" : "evalhtml",
               "e_time" : -25735401.87
            },
            {
               "s_time" : 5183.59399999827,
               "time" : -25740585.464,
               "id" : "r1_c15",
               "type" : "evalhtml",
               "e_time" : -25735401.87
            },
            {
               "s_time" : 5376.1599999998,
               "time" : 305.05400000038,
               "id" : "r1_c16",
               "type" : "evalhtml",
               "e_time" : 5681.21400000018
            },
            {
               "s_time" : 5688.20299999788,
               "time" : -25741090.073,
               "id" : "r1_c17",
               "type" : "evalhtml",
               "e_time" : -25735401.87
            },
            {
               "s_time" : 5904.14499999679,
               "time" : -25741306.015,
               "id" : "r1_c18",
               "type" : "evalhtml",
               "e_time" : -25735401.87
            },
            {
               "s_time" : 5940.42999999874,
               "time" : -25741342.3,
               "id" : "r1_c19",
               "type" : "evalhtml",
               "e_time" : -25735401.87
            },
            {
               "s_time" : 5943.54299999759,
               "time" : 5.28000000121938,
               "id" : "r1_c20",
               "type" : "evalhtml",
               "e_time" : 5948.82299999881
            },
            {
               "s_time" : 5951.9659999969,
               "time" : -25741353.836,
               "id" : "r1_c21",
               "type" : "evalhtml",
               "e_time" : -25735401.87
            },
            {
               "s_time" : 6031.52499999851,
               "time" : 23.0719999999601,
               "id" : "r1_c22",
               "type" : "evalhtml",
               "e_time" : 6054.59699999847
            },
            {
               "s_time" : 6058.44199999774,
               "time" : -25741460.312,
               "id" : "r1_c23",
               "type" : "evalhtml",
               "e_time" : -25735401.87
            },
            {
               "s_time" : 6147.0339999978,
               "time" : -25741548.904,
               "id" : "r1_c24",
               "type" : "evalhtml",
               "e_time" : -25735401.87
            },
            {
               "s_time" : 6192.23099999726,
               "time" : -25741594.101,
               "id" : "r1_c25",
               "type" : "evalhtml",
               "e_time" : -25735401.87
            },
            {
               "s_time" : 6244.50799999977,
               "time" : 692.19899999734,
               "type" : "evalhtml",
               "id" : "r1_c26",
               "e_time" : 6936.70699999711
            }
         ],
         "download" : {
            "receiveFirst" : 14,
            "len" : 290363,
            "dns" : 0,
            "dnsEnd" : -1,
            "receiveHeadersEnd" : 25,
            "sslEnd" : -1,
            "connectEnd" : 11,
            "connectStart" : 0,
            "id" : "download_0",
            "receivedTime" : "137.481999998272",
            "sslStart" : -1,
            "dnsStart" : -1,
            "receiveLast" : 112.481999998272,
            "s_time" : 0,
            "sendEnd" : 11,
            "sendStart" : 11,
            "type" : "text/html"
         }
      },
      {
         "when_comp_start" : -1,
         "url" : "http://original.testbed.localhost/static.chartbeat.com/js/chartbeat_mab.js",
         "id" : "r2",
         "comps" : [
            {
               "s_time" : 209.350999997696,
               "time" : 60.669000002235,
               "type" : 3,
               "id" : "comp_2",
               "e_time" : 270.019999999931
            }
         ],
         "download" : {
            "receiveFirst" : 33,
            "len" : 13372,
            "dns" : 0,
            "dnsEnd" : -1,
            "receiveHeadersEnd" : 40,
            "sslEnd" : -1,
            "connectEnd" : 7,
            "connectStart" : 0,
            "id" : "download_1",
            "receivedTime" : "208.282999999938",
            "sslStart" : -1,
            "dnsStart" : -1,
            "receiveLast" : 168.282999999938,
            "s_time" : 144.745999998122,
            "sendEnd" : 7,
            "sendStart" : 7,
            "type" : "application/javascript"
         }
      },
      {
         "when_comp_start" : -1,
         "url" : "http://original.testbed.localhost/www.cnbc.com/staticcontent/partner_experience.js%3Fvn=178",
         "id" : "r3",
         "comps" : [
            {
               "s_time" : 273.071999999956,
               "time" : 8.08699999834101,
               "type" : 1,
               "id" : "comp_3",
               "e_time" : 281.158999998297
            }
         ],
         "download" : {
            "receiveFirst" : 38,
            "len" : 3996,
            "dns" : 0,
            "dnsEnd" : -1,
            "receiveHeadersEnd" : 52,
            "sslEnd" : -1,
            "connectEnd" : 14,
            "connectStart" : 0,
            "id" : "download_2",
            "receivedTime" : "272.675000000163",
            "sslStart" : -1,
            "dnsStart" : -1,
            "receiveLast" : 220.675000000163,
            "s_time" : 151.33699999933,
            "sendEnd" : 14,
            "sendStart" : 14,
            "type" : "text/plain"
         }
      },
      {
         "when_comp_start" : -1,
         "url" : "http://original.testbed.localhost/www.cnbc.com/staticcontent/global.2.css%3Fvn=170.css",
         "id" : "r4",
         "comps" : [
            {
               "s_time" : 324.708000000101,
               "time" : 176.085999999486,
               "type" : 4,
               "id" : "comp_5",
               "e_time" : 500.793999999587
            }
         ],
         "download" : {
            "receiveFirst" : 46,
            "len" : 373790,
            "dns" : 0,
            "dnsEnd" : 16,
            "receiveHeadersEnd" : 69,
            "sslEnd" : -1,
            "connectEnd" : 22,
            "connectStart" : 0,
            "id" : "download_3",
            "receivedTime" : "323.761999999988",
            "sslStart" : -1,
            "dnsStart" : 16,
            "receiveLast" : 254.761999999988,
            "s_time" : 152.49699999913,
            "sendEnd" : 23,
            "sendStart" : 22,
            "type" : "text/css"
         }
      },
      {
         "when_comp_start" : -1,
         "url" : "http://original.testbed.localhost/fm.cnbc.com/applications/cnbc.com/resources/files/2012/08/08/cnbc-global.1_0.css%3Fvn=1441728946.css",
         "id" : "r5",
         "comps" : [
            {
               "s_time" : 286.987999999837,
               "time" : 23.925999998028,
               "type" : 4,
               "id" : "comp_4",
               "e_time" : 310.913999997865
            }
         ],
         "download" : {
            "receiveFirst" : 46,
            "len" : 26313,
            "dns" : 1,
            "dnsEnd" : 18,
            "receiveHeadersEnd" : 70,
            "sslEnd" : -1,
            "connectEnd" : 24,
            "connectStart" : 0,
            "id" : "download_4",
            "receivedTime" : "286.377999997057",
            "sslStart" : -1,
            "dnsStart" : 17,
            "receiveLast" : 216.377999997057,
            "s_time" : 153.320999997959,
            "sendEnd" : 24,
            "sendStart" : 24,
            "type" : "text/css"
         }
      },
      {
         "when_comp_start" : -1,
         "url" : "http://original.testbed.localhost/www.nbcudigitaladops.com/hosted/global_header.js",
         "id" : "r6",
         "comps" : [],
         "download" : {
            "receiveFirst" : 47,
            "len" : 2859,
            "dns" : 0,
            "dnsEnd" : 19,
            "receiveHeadersEnd" : 73,
            "sslEnd" : -1,
            "connectEnd" : 25,
            "connectStart" : 0,
            "id" : "download_5",
            "receivedTime" : "311.310999997659",
            "sslStart" : -1,
            "dnsStart" : 19,
            "receiveLast" : 238.310999997659,
            "s_time" : 154.449999998178,
            "sendEnd" : 26,
            "sendStart" : 25,
            "type" : "application/javascript"
         }
      },
      {
         "when_comp_start" : -1,
         "url" : "http://original.testbed.localhost/fm.cnbc.com/applications/cnbc.com/staticcontent/img/cnbc-hdr-logo2.png",
         "id" : "r8",
         "comps" : [],
         "download" : {
            "receiveFirst" : 7,
            "len" : 9511,
            "dns" : 0,
            "dnsEnd" : -1,
            "receiveHeadersEnd" : 21,
            "sslEnd" : -1,
            "connectEnd" : 14,
            "connectStart" : 0,
            "id" : "download_6",
            "receivedTime" : "506.500999999844",
            "sslStart" : -1,
            "dnsStart" : -1,
            "receiveLast" : 485.500999999844,
            "s_time" : 317.748999998003,
            "sendEnd" : 14,
            "sendStart" : 14,
            "type" : "image/png"
         }
      },
      {
         "when_comp_start" : -1,
         "url" : "http://original.testbed.localhost/fm.cnbc.com/applications/cnbc.com/resources/img/editorial/2015/04/22/102609825-464270836.530x298.jpg%3Fv=1442334379",
         "id" : "r26",
         "comps" : [],
         "download" : {
            "receiveFirst" : 6,
            "len" : 47292,
            "dns" : 0,
            "dnsEnd" : -1,
            "receiveHeadersEnd" : 11,
            "sslEnd" : -1,
            "connectEnd" : 4,
            "connectStart" : 0,
            "id" : "download_7",
            "receivedTime" : "642.730999999912",
            "sslStart" : -1,
            "dnsStart" : -1,
            "receiveLast" : 631.730999999912,
            "s_time" : 545.562999999675,
            "sendEnd" : 5,
            "sendStart" : 4,
            "type" : "image/jpeg"
         }
      },
      {
         "when_comp_start" : -1,
         "url" : "http://original.testbed.localhost/www.bankrate.com/jsfeeds/mtgDefault.js",
         "id" : "r29",
         "comps" : [
            {
               "s_time" : 1281.86099999948,
               "time" : 5.21899999875995,
               "type" : 1,
               "id" : "comp_24",
               "e_time" : 1287.07999999824
            }
         ],
         "download" : {
            "receiveFirst" : 37,
            "len" : 5031,
            "dns" : 0,
            "dnsEnd" : -1,
            "receiveHeadersEnd" : 46,
            "sslEnd" : -1,
            "connectEnd" : 9,
            "connectStart" : 0,
            "id" : "download_8",
            "receivedTime" : "1221.37499999735",
            "sslStart" : -1,
            "dnsStart" : -1,
            "receiveLast" : 1175.37499999735,
            "s_time" : 643.554999998742,
            "sendEnd" : 9,
            "sendStart" : 9,
            "type" : "application/javascript"
         }
      },
      {
         "when_comp_start" : -1,
         "url" : "http://original.testbed.localhost/www.bankrate.com/jsfeeds/cnbc-maintab-mtg-avgs.js",
         "id" : "r30",
         "comps" : [
            {
               "s_time" : 1550.44599999746,
               "time" : 37.9640000028301,
               "type" : 1,
               "id" : "comp_26",
               "e_time" : 1588.41000000029
            }
         ],
         "download" : {
            "receiveFirst" : 33,
            "len" : 6810,
            "dns" : 0,
            "dnsEnd" : -1,
            "receiveHeadersEnd" : 49,
            "sslEnd" : -1,
            "connectEnd" : 15,
            "connectStart" : 0,
            "id" : "download_9",
            "receivedTime" : "1228.79099999773",
            "sslStart" : -1,
            "dnsStart" : -1,
            "receiveLast" : 1179.79099999773,
            "s_time" : 644.317999998748,
            "sendEnd" : 16,
            "sendStart" : 15,
            "type" : "application/javascript"
         }
      },
      {
         "when_comp_start" : -1,
         "url" : "http://original.testbed.localhost/fm.cnbc.com/applications/cnbc.com/staticcontent/img/sprite.png%3Fvn=4",
         "id" : "r31",
         "comps" : [],
         "download" : {
            "receiveFirst" : 31,
            "len" : 21076,
            "dns" : 0,
            "dnsEnd" : -1,
            "receiveHeadersEnd" : 46,
            "sslEnd" : -1,
            "connectEnd" : 15,
            "connectStart" : 0,
            "id" : "download_10",
            "receivedTime" : "1227.84499999761",
            "sslStart" : -1,
            "dnsStart" : -1,
            "receiveLast" : 1181.84499999761,
            "s_time" : 647.430999997596,
            "sendEnd" : 15,
            "sendStart" : 15,
            "type" : "image/png"
         }
      },
      {
         "when_comp_start" : -1,
         "url" : "http://original.testbed.localhost/www.bankrate.com/jsfeeds/cnbc-maintab-loan-avgs.js",
         "id" : "r32",
         "comps" : [
            {
               "s_time" : 1903.04599999945,
               "time" : 32.4709999986201,
               "type" : 2,
               "id" : "comp_30",
               "e_time" : 1935.51699999807
            }
         ],
         "download" : {
            "receiveFirst" : 32,
            "len" : 6321,
            "dns" : 0,
            "dnsEnd" : -1,
            "receiveHeadersEnd" : 52,
            "sslEnd" : -1,
            "connectEnd" : 20,
            "connectStart" : 0,
            "id" : "download_11",
            "receivedTime" : "1230.13399999763",
            "sslStart" : -1,
            "dnsStart" : -1,
            "receiveLast" : 1178.13399999763,
            "s_time" : 656.097999999474,
            "sendEnd" : 20,
            "sendStart" : 20,
            "type" : "application/javascript"
         }
      },
      {
         "when_comp_start" : -1,
         "url" : "http://original.testbed.localhost/www.bankrate.com/jsfeeds/cnbc-maintab-auto-avgs.js",
         "id" : "r33",
         "comps" : [
            {
               "s_time" : 2620.54499999795,
               "time" : 43.5790000010397,
               "type" : null,
               "id" : "comp_71",
               "e_time" : 2664.12399999899
            }
         ],
         "download" : {
            "receiveFirst" : 44,
            "len" : 6226,
            "dns" : 0,
            "dnsEnd" : -1,
            "receiveHeadersEnd" : 66,
            "sslEnd" : -1,
            "connectEnd" : 22,
            "connectStart" : 0,
            "id" : "download_12",
            "receivedTime" : "1230.68299999795",
            "sslStart" : -1,
            "dnsStart" : -1,
            "receiveLast" : 1164.68299999795,
            "s_time" : 656.860999999481,
            "sendEnd" : 22,
            "sendStart" : 22,
            "type" : "application/javascript"
         }
      },
      {
         "when_comp_start" : -1,
         "url" : "http://original.testbed.localhost/fm.cnbc.com/applications/cnbc.com/staticcontent/img/hSprite.png",
         "id" : "r35",
         "comps" : [],
         "download" : {
            "receiveFirst" : 8,
            "len" : 2792,
            "dns" : 0,
            "dnsEnd" : -1,
            "receiveHeadersEnd" : 17,
            "sslEnd" : -1,
            "connectEnd" : 9,
            "connectStart" : 0,
            "id" : "download_13",
            "receivedTime" : "1293.94599999796",
            "sslStart" : -1,
            "dnsStart" : -1,
            "receiveLast" : 1276.94599999796,
            "s_time" : 1085.46500000011,
            "sendEnd" : 9,
            "sendStart" : 9,
            "type" : "image/png"
         }
      },
      {
         "when_comp_start" : -1,
         "url" : "http://original.testbed.localhost/fm.cnbc.com/applications/cnbc.com/staticcontent/img/tab-marker.png",
         "id" : "r36",
         "comps" : [],
         "download" : {
            "receiveFirst" : 10,
            "len" : 3695,
            "dns" : 0,
            "dnsEnd" : -1,
            "receiveHeadersEnd" : 14,
            "sslEnd" : -1,
            "connectEnd" : 4,
            "connectStart" : 0,
            "id" : "download_14",
            "receivedTime" : "1298.00499999692",
            "sslStart" : -1,
            "dnsStart" : -1,
            "receiveLast" : 1284.00499999692,
            "s_time" : 1094.81799999776,
            "sendEnd" : 4,
            "sendStart" : 4,
            "type" : "image/png"
         }
      },
      {
         "when_comp_start" : -1,
         "url" : "http://original.testbed.localhost/fm.cnbc.com/applications/cnbc.com/staticcontent/img/listPointer.png",
         "id" : "r37",
         "comps" : [],
         "download" : {
            "receiveFirst" : 8,
            "len" : 171,
            "dns" : 0,
            "dnsEnd" : -1,
            "receiveHeadersEnd" : 12,
            "sslEnd" : -1,
            "connectEnd" : 4,
            "connectStart" : 0,
            "id" : "download_15",
            "receivedTime" : "1301.45300000004",
            "sslStart" : -1,
            "dnsStart" : -1,
            "receiveLast" : 1289.45300000004,
            "s_time" : 1138.48999999755,
            "sendEnd" : 4,
            "sendStart" : 4,
            "type" : "image/png"
         }
      },
      {
         "when_comp_start" : -1,
         "url" : "http://original.testbed.localhost/fm.cnbc.com/applications/cnbc.com/staticcontent/img/pointer.png",
         "id" : "r38",
         "comps" : [],
         "download" : {
            "receiveFirst" : 25,
            "len" : 1297,
            "dns" : 0,
            "dnsEnd" : -1,
            "receiveHeadersEnd" : 31,
            "sslEnd" : -1,
            "connectEnd" : 6,
            "connectStart" : 0,
            "id" : "download_16",
            "receivedTime" : "1404.84699999797",
            "sslStart" : -1,
            "dnsStart" : -1,
            "receiveLast" : 1373.84699999797,
            "s_time" : 1210.29699999781,
            "sendEnd" : 6,
            "sendStart" : 6,
            "type" : "image/png"
         }
      },
      {
         "when_comp_start" : -1,
         "url" : "http://original.testbed.localhost/www.bankrate.com/jsfeeds/cnbc-maintab-mmacd-avgs.js",
         "id" : "r39",
         "comps" : [
            {
               "s_time" : 3481.65999999765,
               "time" : 38.2380000009998,
               "type" : 1,
               "id" : "comp_75",
               "e_time" : 3519.89799999865
            }
         ],
         "download" : {
            "receiveFirst" : 29,
            "len" : 6639,
            "dns" : 0,
            "dnsEnd" : -1,
            "receiveHeadersEnd" : 38,
            "sslEnd" : -1,
            "connectEnd" : 9,
            "connectStart" : 0,
            "id" : "download_17",
            "receivedTime" : "1406.3419999984",
            "sslStart" : -1,
            "dnsStart" : -1,
            "receiveLast" : 1368.3419999984,
            "s_time" : 1218.96399999969,
            "sendEnd" : 9,
            "sendStart" : 9,
            "type" : "application/javascript"
         }
      },
      {
         "when_comp_start" : 1,
         "url" : "http://original.testbed.localhost/api-chart.cnbc.com/api/movers/movers.asp%3FchartType=both&rowCount=5&link=quote&region=us.html",
         "id" : "r41",
         "comps" : [
            {
               "s_time" : 1755.49399999727,
               "time" : 662.01800000272,
               "type" : "evalhtml",
               "id" : "r41_c1",
               "e_time" : 2417.51199999999
            }
         ],
         "download" : {
            "receiveFirst" : 7,
            "len" : 2674,
            "dns" : 0,
            "dnsEnd" : -1,
            "receiveHeadersEnd" : 19,
            "sslEnd" : -1,
            "connectEnd" : 12,
            "connectStart" : 0,
            "id" : "download_18",
            "receivedTime" : "1407.80699999959",
            "sslStart" : -1,
            "dnsStart" : -1,
            "receiveLast" : 1388.80699999959,
            "s_time" : 1263.12200000029,
            "sendEnd" : 12,
            "sendStart" : 12,
            "type" : "text/html"
         }
      },
      {
         "when_comp_start" : -1,
         "url" : "http://original.testbed.localhost/cdn.gigya.com/JS/socialize.js%3Fapikey=2_Jx5rsFp18pauXYlKGzHQVpbahcR1iJ30bbyfqZsn69A6vbt3dQ7gYFCESWKMM1sP",
         "id" : "r40",
         "comps" : [
            {
               "s_time" : 4213.07399999932,
               "time" : 186.00499999957,
               "type" : 1,
               "id" : "comp_84",
               "e_time" : 4399.07899999889
            }
         ],
         "download" : {
            "receiveFirst" : 212,
            "len" : 156081,
            "dns" : 0,
            "dnsEnd" : -1,
            "receiveHeadersEnd" : 226,
            "sslEnd" : -1,
            "connectEnd" : 14,
            "connectStart" : 0,
            "id" : "download_19",
            "receivedTime" : "1774.47599999869",
            "sslStart" : -1,
            "dnsStart" : -1,
            "receiveLast" : 1548.47599999869,
            "s_time" : 1231.50699999678,
            "sendEnd" : 14,
            "sendStart" : 14,
            "type" : "text/plain"
         }
      },
      {
         "when_comp_start" : -1,
         "url" : "http://original.testbed.localhost/platform.twitter.com/widgets.js",
         "id" : "r44",
         "comps" : [
            {
               "s_time" : 4737.06099999981,
               "time" : 283.01999999894,
               "type" : 1,
               "id" : "comp_89",
               "e_time" : 5020.08099999875
            }
         ],
         "download" : {
            "receiveFirst" : 43,
            "len" : 134898,
            "dns" : 0,
            "dnsEnd" : -1,
            "receiveHeadersEnd" : 50,
            "sslEnd" : -1,
            "connectEnd" : 6,
            "connectStart" : 0,
            "id" : "download_20",
            "receivedTime" : "1766.17499999702",
            "sslStart" : -1,
            "dnsStart" : -1,
            "receiveLast" : 1716.17499999702,
            "s_time" : 1433.53299999944,
            "sendEnd" : 7,
            "sendStart" : 6,
            "type" : "application/javascript"
         }
      },
      {
         "when_comp_start" : -1,
         "url" : "http://original.testbed.localhost/fm.cnbc.com/applications/cnbc.com/resources/styles/skin/PRODUCT/2013/HOMEPAGE/img/social-sprite-38.png",
         "id" : "r45",
         "comps" : [],
         "download" : {
            "receiveFirst" : 9,
            "len" : 34056,
            "dns" : 0,
            "dnsEnd" : -1,
            "receiveHeadersEnd" : 17,
            "sslEnd" : -1,
            "connectEnd" : 8,
            "connectStart" : 0,
            "id" : "download_21",
            "receivedTime" : "1775.20799999911",
            "sslStart" : -1,
            "dnsStart" : -1,
            "receiveLast" : 1758.20799999911,
            "s_time" : 1524.94899999874,
            "sendEnd" : 8,
            "sendStart" : 8,
            "type" : "image/png"
         }
      },
      {
         "when_comp_start" : -1,
         "url" : "http://original.testbed.localhost/www.cnbc.com/staticcontent/jquery-global.js%3Fvn=178",
         "id" : "r43",
         "comps" : [
            {
               "s_time" : 4400.23899999869,
               "time" : 323.913000000181,
               "type" : 1,
               "id" : "comp_85",
               "e_time" : 4724.15199999887
            }
         ],
         "download" : {
            "receiveFirst" : 274,
            "len" : 331078,
            "dns" : 0,
            "dnsEnd" : -1,
            "receiveHeadersEnd" : 287,
            "sslEnd" : -1,
            "connectEnd" : 13,
            "connectStart" : 0,
            "id" : "download_22",
            "receivedTime" : "2669.18999999689",
            "sslStart" : -1,
            "dnsStart" : -1,
            "receiveLast" : 2382.18999999689,
            "s_time" : 1403.59600000011,
            "sendEnd" : 13,
            "sendStart" : 13,
            "type" : "text/plain"
         }
      },
      {
         "when_comp_start" : -1,
         "url" : "http://original.testbed.localhost/content.markitcdn.com/cnbc/api/movers/common/style/scriptsCache.asp%3Fversion=39414.768460648156.css",
         "id" : "r56",
         "comps" : [
            {
               "s_time" : 2163.78899999836,
               "time" : 6.34699999864006,
               "type" : 2,
               "id" : "comp_32",
               "e_time" : 2170.135999997
            }
         ],
         "download" : {
            "receiveFirst" : 22,
            "len" : 2302,
            "dns" : 0,
            "dnsEnd" : -1,
            "receiveHeadersEnd" : 37,
            "sslEnd" : -1,
            "connectEnd" : 14,
            "connectStart" : 0,
            "id" : "download_23",
            "receivedTime" : "2163.0559999976",
            "sslStart" : -1,
            "dnsStart" : -1,
            "receiveLast" : 2126.0559999976,
            "s_time" : 1756.16499999887,
            "sendEnd" : 15,
            "sendStart" : 14,
            "type" : "text/css"
         }
      },
      {
         "when_comp_start" : -1,
         "url" : "http://original.testbed.localhost/content.markitcdn.com/cnbc/api/movers/common/lib/js/scriptsCache.asp%3Fversion=39414.768460648156",
         "id" : "r57",
         "comps" : [
            {
               "s_time" : 2180.17599999803,
               "time" : 25.5440000000799,
               "type" : 2,
               "id" : "comp_33",
               "e_time" : 2205.71999999811
            }
         ],
         "download" : {
            "receiveFirst" : 24,
            "len" : 48921,
            "dns" : 0,
            "dnsEnd" : -1,
            "receiveHeadersEnd" : 48,
            "sslEnd" : -1,
            "connectEnd" : 23,
            "connectStart" : 0,
            "id" : "download_24",
            "receivedTime" : "2179.2609999975",
            "sslStart" : -1,
            "dnsStart" : -1,
            "receiveLast" : 2131.2609999975,
            "s_time" : 1759.52200000029,
            "sendEnd" : 24,
            "sendStart" : 23,
            "type" : "text/plain"
         }
      },
      {
         "when_comp_start" : -1,
         "url" : "http://original.testbed.localhost/surf.nbcuni.com/rdk/surf.js.php",
         "id" : "r58",
         "comps" : [
            {
               "s_time" : 5021.24099999855,
               "time" : 162.35299999972,
               "type" : 1,
               "id" : "comp_91",
               "e_time" : 5183.59399999827
            }
         ],
         "download" : {
            "receiveFirst" : 37,
            "len" : 210190,
            "dns" : 0,
            "dnsEnd" : -1,
            "receiveHeadersEnd" : 50,
            "sslEnd" : -1,
            "connectEnd" : 13,
            "connectStart" : 0,
            "id" : "download_25",
            "receivedTime" : "2433.65599999743",
            "sslStart" : -1,
            "dnsStart" : -1,
            "receiveLast" : 2383.65599999743,
            "s_time" : 1776.27599999687,
            "sendEnd" : 13,
            "sendStart" : 13,
            "type" : "application/x-httpd-php"
         }
      },
      {
         "when_comp_start" : -1,
         "url" : "http://original.testbed.localhost/www.cnbc.com/fonts/cnbc_font_icons.woff%3F-k1ej6q",
         "id" : "r19",
         "comps" : [],
         "download" : {
            "receiveFirst" : 7,
            "len" : 1556,
            "dns" : 0,
            "dnsEnd" : -1,
            "receiveHeadersEnd" : 11,
            "sslEnd" : -1,
            "connectEnd" : 4,
            "connectStart" : 0,
            "id" : "download_26",
            "receivedTime" : "2878.78499999715",
            "sslStart" : -1,
            "dnsStart" : -1,
            "receiveLast" : 2867.78499999715,
            "s_time" : 2150.10099999927,
            "sendEnd" : 4,
            "sendStart" : 4,
            "type" : "application/octet-stream"
         }
      },
      {
         "when_comp_start" : -1,
         "url" : "http://original.testbed.localhost/www.cnbc.com/staticcontent/global.js%3Fvn=178",
         "id" : "r72",
         "comps" : [
            {
               "s_time" : 5184.96799999775,
               "time" : 191.19200000205,
               "type" : 1,
               "id" : "comp_93",
               "e_time" : 5376.1599999998
            }
         ],
         "download" : {
            "receiveFirst" : 31,
            "len" : 342369,
            "dns" : 0,
            "dnsEnd" : -1,
            "receiveHeadersEnd" : 81,
            "sslEnd" : -1,
            "connectEnd" : 50,
            "connectStart" : 0,
            "id" : "download_27",
            "receivedTime" : "3969.36099999948",
            "sslStart" : -1,
            "dnsStart" : -1,
            "receiveLast" : 3888.36099999948,
            "s_time" : 2667.48099999677,
            "sendEnd" : 50,
            "sendStart" : 50,
            "type" : "text/plain"
         }
      },
      {
         "when_comp_start" : -1,
         "url" : "http://original.testbed.localhost/www.cnbc.com/staticcontent/home_page_redesign.js%3Fvn=178",
         "id" : "r77",
         "comps" : [
            {
               "s_time" : 5684.99799999699,
               "time" : 3.20500000089032,
               "type" : 1,
               "id" : "comp_96",
               "e_time" : 5688.20299999788
            }
         ],
         "download" : {
            "receiveFirst" : 43,
            "len" : 4895,
            "dns" : 0,
            "dnsEnd" : -1,
            "receiveHeadersEnd" : 106,
            "sslEnd" : -1,
            "connectEnd" : 63,
            "connectStart" : 0,
            "id" : "download_28",
            "receivedTime" : "3971.31399999853",
            "sslStart" : -1,
            "dnsStart" : -1,
            "receiveLast" : 3865.31399999853,
            "s_time" : 3528.413,
            "sendEnd" : 63,
            "sendStart" : 63,
            "type" : "text/plain"
         }
      },
      {
         "when_comp_start" : -1,
         "url" : "http://original.testbed.localhost/cdn.tinypass.com/api/tinypass.min.js",
         "id" : "r79",
         "comps" : [
            {
               "s_time" : 5689.148999998,
               "time" : 214.99599999879,
               "type" : 1,
               "id" : "comp_98",
               "e_time" : 5904.14499999679
            }
         ],
         "download" : {
            "receiveFirst" : 15,
            "len" : 212149,
            "dns" : 0,
            "dnsEnd" : -1,
            "receiveHeadersEnd" : 22,
            "sslEnd" : -1,
            "connectEnd" : 6,
            "connectStart" : 0,
            "id" : "download_29",
            "receivedTime" : "4126.86199999735",
            "sslStart" : -1,
            "dnsStart" : -1,
            "receiveLast" : 4104.86199999735,
            "s_time" : 3797.08899999969,
            "sendEnd" : 7,
            "sendStart" : 6,
            "type" : "application/javascript"
         }
      },
      {
         "when_comp_start" : -1,
         "url" : "http://original.testbed.localhost/fm.cnbc.com/applications/cnbc.com/staticcontent/img/footer-sprite.png",
         "id" : "r80",
         "comps" : [],
         "download" : {
            "receiveFirst" : 12,
            "len" : 8558,
            "dns" : 0,
            "dnsEnd" : -1,
            "receiveHeadersEnd" : 19,
            "sslEnd" : -1,
            "connectEnd" : 7,
            "connectStart" : 0,
            "id" : "download_30",
            "receivedTime" : "4195.83199999761",
            "sslStart" : -1,
            "dnsStart" : -1,
            "receiveLast" : 4176.83199999761,
            "s_time" : 3959.36599999914,
            "sendEnd" : 7,
            "sendStart" : 7,
            "type" : "image/png"
         }
      },
      {
         "when_comp_start" : -1,
         "url" : "http://original.testbed.localhost/fm.cnbc.com/applications/cnbc.com/resources/files/2014/10/20/addIcon.js%3Fvn=1433374990",
         "id" : "r83",
         "comps" : [
            {
               "s_time" : 5908.72299999683,
               "time" : 31.7070000019094,
               "type" : 1,
               "id" : "comp_101",
               "e_time" : 5940.42999999874
            }
         ],
         "download" : {
            "receiveFirst" : 9,
            "len" : 204,
            "dns" : 0,
            "dnsEnd" : -1,
            "receiveHeadersEnd" : 18,
            "sslEnd" : -1,
            "connectEnd" : 9,
            "connectStart" : 0,
            "id" : "download_31",
            "receivedTime" : "5908.38699999949",
            "sslStart" : -1,
            "dnsStart" : -1,
            "receiveLast" : 5890.38699999949,
            "s_time" : 5376.46599999789,
            "sendEnd" : 9,
            "sendStart" : 9,
            "type" : "text/plain"
         }
      },
      {
         "when_comp_start" : -1,
         "url" : "http://original.testbed.localhost/fm.cnbc.com/applications/cnbc.com/resources/files/2013/07/12/badge-ad-css-update.js%3Fvn=1386587276",
         "id" : "r84",
         "comps" : [
            {
               "s_time" : 5942.10899999962,
               "time" : 1.4339999979702,
               "type" : 1,
               "id" : "comp_103",
               "e_time" : 5943.54299999759
            }
         ],
         "download" : {
            "receiveFirst" : 14,
            "len" : 193,
            "dns" : 0,
            "dnsEnd" : -1,
            "receiveHeadersEnd" : 26,
            "sslEnd" : -1,
            "connectEnd" : 12,
            "connectStart" : 0,
            "id" : "download_32",
            "receivedTime" : "5941.83399999747",
            "sslStart" : -1,
            "dnsStart" : -1,
            "receiveLast" : 5915.83399999747,
            "s_time" : 5377.3199999996,
            "sendEnd" : 12,
            "sendStart" : 12,
            "type" : "text/plain"
         }
      },
      {
         "when_comp_start" : -1,
         "url" : "http://original.testbed.localhost/ddrn6tjst80qg.cloudfront.net/api/8765304/api_dynamic.js",
         "id" : "r85",
         "comps" : [
            {
               "s_time" : 5950.19599999796,
               "time" : 1.76999999893997,
               "type" : 1,
               "id" : "comp_107",
               "e_time" : 5951.9659999969
            }
         ],
         "download" : {
            "receiveFirst" : 10,
            "len" : 928,
            "dns" : 0,
            "dnsEnd" : -1,
            "receiveHeadersEnd" : 22,
            "sslEnd" : -1,
            "connectEnd" : 12,
            "connectStart" : 0,
            "id" : "download_33",
            "receivedTime" : "5949.82999999775",
            "sslStart" : -1,
            "dnsStart" : -1,
            "receiveLast" : 5927.82999999775,
            "s_time" : 5680.4209999973,
            "sendEnd" : 12,
            "sendStart" : 12,
            "type" : "application/javascript"
         }
      },
      {
         "when_comp_start" : -1,
         "url" : "http://original.testbed.localhost/ddrn6tjst80qg.cloudfront.net/api/8765304/api_static.js",
         "id" : "r86",
         "comps" : [
            {
               "s_time" : 5954.2849999998,
               "time" : 77.2399999987101,
               "type" : 1,
               "id" : "comp_109",
               "e_time" : 6031.52499999851
            }
         ],
         "download" : {
            "receiveFirst" : 23,
            "len" : 99595,
            "dns" : 0,
            "dnsEnd" : -1,
            "receiveHeadersEnd" : 40,
            "sslEnd" : -1,
            "connectEnd" : 17,
            "connectStart" : 0,
            "id" : "download_34",
            "receivedTime" : "5953.88899999671",
            "sslStart" : -1,
            "dnsStart" : -1,
            "receiveLast" : 5913.88899999671,
            "s_time" : 5681.21400000018,
            "sendEnd" : 17,
            "sendStart" : 17,
            "type" : "application/javascript"
         }
      },
      {
         "when_comp_start" : -1,
         "url" : "http://original.testbed.localhost/nvg.newsvine.com/setVid.min.js",
         "id" : "r87",
         "comps" : [
            {
               "s_time" : 6055.99999999686,
               "time" : 2.44200000087949,
               "type" : 1,
               "id" : "comp_112",
               "e_time" : 6058.44199999774
            }
         ],
         "download" : {
            "receiveFirst" : 6,
            "len" : 1462,
            "dns" : 0,
            "dnsEnd" : -1,
            "receiveHeadersEnd" : 12,
            "sslEnd" : -1,
            "connectEnd" : 5,
            "connectStart" : 0,
            "id" : "download_35",
            "receivedTime" : "6055.6039999974",
            "sslStart" : -1,
            "dnsStart" : -1,
            "receiveLast" : 6043.6039999974,
            "s_time" : 5948.82299999881,
            "sendEnd" : 6,
            "sendStart" : 5,
            "type" : "application/javascript"
         }
      },
      {
         "when_comp_start" : -1,
         "url" : "http://original.testbed.localhost/www.nbcudigitaladops.com/hosted/global.js",
         "id" : "r89",
         "comps" : [],
         "download" : {
            "receiveFirst" : 12,
            "len" : 1244,
            "dns" : 0,
            "dnsEnd" : -1,
            "receiveHeadersEnd" : 23,
            "sslEnd" : -1,
            "connectEnd" : 11,
            "connectStart" : 0,
            "id" : "download_36",
            "receivedTime" : "6153.71799999775",
            "sslStart" : -1,
            "dnsStart" : -1,
            "receiveLast" : 6130.71799999775,
            "s_time" : 6053.89499999728,
            "sendEnd" : 11,
            "sendStart" : 11,
            "type" : "application/javascript"
         }
      },
      {
         "when_comp_start" : -1,
         "url" : "http://original.testbed.localhost/widget.perfectmarket.com/cnbc/load.js",
         "id" : "r90",
         "comps" : [
            {
               "s_time" : 6234.8639999982,
               "time" : 9.64400000157002,
               "type" : 1,
               "id" : "comp_125",
               "e_time" : 6244.50799999977
            }
         ],
         "download" : {
            "receiveFirst" : 23,
            "len" : 15846,
            "dns" : 0,
            "dnsEnd" : -1,
            "receiveHeadersEnd" : 35,
            "sslEnd" : -1,
            "connectEnd" : 11,
            "connectStart" : 0,
            "id" : "download_37",
            "receivedTime" : "6166.8099999988",
            "sslStart" : -1,
            "dnsStart" : -1,
            "receiveLast" : 6131.8099999988,
            "s_time" : 6054.59699999847,
            "sendEnd" : 12,
            "sendStart" : 11,
            "type" : "application/javascript"
         }
      }
   ],
   "deps" : [
      {
         "a2" : "r1_c2",
         "time" : -1,
         "id" : "dep1",
         "a1" : "comp_3"
      },
      {
         "a2" : "r1_c3",
         "time" : -1,
         "id" : "dep2",
         "a1" : "comp_14"
      },
      {
         "a2" : "r1_c4",
         "time" : -1,
         "id" : "dep3",
         "a1" : "comp_16"
      },
      {
         "a2" : "r1_c5",
         "time" : -1,
         "id" : "dep4",
         "a1" : "comp_19"
      },
      {
         "a2" : "r1_c6",
         "time" : -1,
         "id" : "dep5",
         "a1" : "comp_21"
      },
      {
         "a2" : "r1_c7",
         "time" : -1,
         "id" : "dep6",
         "a1" : "comp_24"
      },
      {
         "a2" : "r1_c8",
         "time" : -1,
         "id" : "dep7",
         "a1" : "comp_26"
      },
      {
         "a2" : "r1_c9",
         "time" : -1,
         "id" : "dep8",
         "a1" : "comp_75"
      },
      {
         "a2" : "r1_c10",
         "time" : -1,
         "id" : "dep9",
         "a1" : "comp_79"
      },
      {
         "a2" : "r1_c11",
         "time" : -1,
         "id" : "dep10",
         "a1" : "comp_81"
      },
      {
         "a2" : "r1_c12",
         "time" : -1,
         "id" : "dep11",
         "a1" : "comp_84"
      },
      {
         "a2" : "r1_c13",
         "time" : -1,
         "id" : "dep12",
         "a1" : "comp_85"
      },
      {
         "a2" : "r1_c14",
         "time" : -1,
         "id" : "dep13",
         "a1" : "comp_89"
      },
      {
         "a2" : "r1_c15",
         "time" : -1,
         "id" : "dep14",
         "a1" : "comp_91"
      },
      {
         "a2" : "r1_c16",
         "time" : -1,
         "id" : "dep15",
         "a1" : "comp_93"
      },
      {
         "a2" : "r1_c17",
         "time" : -1,
         "id" : "dep16",
         "a1" : "comp_96"
      },
      {
         "a2" : "r1_c18",
         "time" : -1,
         "id" : "dep17",
         "a1" : "comp_98"
      },
      {
         "a2" : "r1_c19",
         "time" : -1,
         "id" : "dep18",
         "a1" : "comp_101"
      },
      {
         "a2" : "r1_c20",
         "time" : -1,
         "id" : "dep19",
         "a1" : "comp_103"
      },
      {
         "a2" : "r1_c21",
         "time" : -1,
         "id" : "dep20",
         "a1" : "comp_107"
      },
      {
         "a2" : "r1_c22",
         "time" : -1,
         "id" : "dep21",
         "a1" : "comp_109"
      },
      {
         "a2" : "r1_c23",
         "time" : -1,
         "id" : "dep22",
         "a1" : "comp_112"
      },
      {
         "a2" : "r1_c24",
         "time" : -1,
         "id" : "dep23",
         "a1" : "comp_117"
      },
      {
         "a2" : "r1_c25",
         "time" : -1,
         "id" : "dep24",
         "a1" : "comp_122"
      },
      {
         "a2" : "r1_c26",
         "time" : -1,
         "id" : "dep25",
         "a1" : "comp_125"
      },
      {
         "a2" : "comp_24",
         "time" : -1,
         "id" : "dep26",
         "a1" : "comp_21"
      },
      {
         "a2" : "comp_26",
         "time" : -1,
         "id" : "dep27",
         "a1" : "comp_24"
      },
      {
         "a2" : "comp_26",
         "time" : -1,
         "id" : "dep28",
         "a1" : "comp_25"
      },
      {
         "a2" : "comp_75",
         "time" : -1,
         "id" : "dep29",
         "a1" : "comp_25"
      },
      {
         "a2" : "comp_85",
         "time" : -1,
         "id" : "dep30",
         "a1" : "comp_84"
      },
      {
         "a2" : "comp_89",
         "time" : -1,
         "id" : "dep31",
         "a1" : "comp_85"
      },
      {
         "a2" : "comp_91",
         "time" : -1,
         "id" : "dep32",
         "a1" : "comp_89"
      },
      {
         "a2" : "comp_93",
         "time" : -1,
         "id" : "dep33",
         "a1" : "comp_91"
      },
      {
         "a2" : "comp_96",
         "time" : -1,
         "id" : "dep34",
         "a1" : "comp_93"
      },
      {
         "a2" : "comp_98",
         "time" : -1,
         "id" : "dep35",
         "a1" : "comp_96"
      },
      {
         "a2" : "comp_103",
         "time" : -1,
         "id" : "dep36",
         "a1" : "comp_101"
      },
      {
         "a2" : "comp_109",
         "time" : -1,
         "id" : "dep37",
         "a1" : "comp_107"
      },
      {
         "a2" : "download_37",
         "time" : -1,
         "id" : "dep38",
         "a1" : "r1_c22"
      },
      {
         "a2" : "download_37",
         "time" : 23.0719999999601,
         "id" : "dep39",
         "a1" : "r1_c22"
      },
      {
         "a2" : "download_36",
         "time" : 22.3699999987703,
         "id" : "dep40",
         "a1" : "r1_c22"
      },
      {
         "a2" : "download_36",
         "time" : 22.3699999987703,
         "id" : "dep41",
         "a1" : "r1_c22"
      },
      {
         "a2" : "download_35",
         "time" : -1,
         "id" : "dep42",
         "a1" : "r1_c20"
      },
      {
         "a2" : "download_35",
         "time" : 5.28000000121938,
         "id" : "dep43",
         "a1" : "r1_c20"
      },
      {
         "a2" : "download_34",
         "time" : -1,
         "id" : "dep44",
         "a1" : "r1_c16"
      },
      {
         "a2" : "download_34",
         "time" : 305.05400000038,
         "id" : "dep45",
         "a1" : "r1_c16"
      },
      {
         "a2" : "download_33",
         "time" : 304.2609999975,
         "id" : "dep46",
         "a1" : "r1_c16"
      },
      {
         "a2" : "download_33",
         "time" : 304.2609999975,
         "id" : "dep47",
         "a1" : "r1_c16"
      },
      {
         "a2" : "download_32",
         "time" : 1.15999999980068,
         "id" : "dep48",
         "a1" : "r1_c16"
      },
      {
         "a2" : "download_32",
         "time" : 1.15999999980068,
         "id" : "dep49",
         "a1" : "r1_c16"
      },
      {
         "a2" : "download_31",
         "time" : 0.305999998090556,
         "id" : "dep50",
         "a1" : "r1_c16"
      },
      {
         "a2" : "download_31",
         "time" : 0.305999998090556,
         "id" : "dep51",
         "a1" : "r1_c16"
      },
      {
         "a2" : "download_30",
         "time" : -1,
         "id" : "dep52",
         "a1" : "r1_c9"
      },
      {
         "a2" : "download_29",
         "time" : 277.19100000104,
         "id" : "dep53",
         "a1" : "r1_c9"
      },
      {
         "a2" : "download_29",
         "time" : 277.19100000104,
         "id" : "dep54",
         "a1" : "r1_c9"
      },
      {
         "a2" : "download_28",
         "time" : 8.51500000135002,
         "id" : "dep55",
         "a1" : "r1_c9"
      },
      {
         "a2" : "download_28",
         "time" : 8.51500000135002,
         "id" : "dep56",
         "a1" : "r1_c9"
      },
      {
         "a2" : "download_27",
         "time" : -1,
         "id" : "dep57",
         "a1" : "r1_c8"
      },
      {
         "a2" : "download_27",
         "time" : 1079.07099999648,
         "id" : "dep58",
         "a1" : "r1_c8"
      },
      {
         "a2" : "download_26",
         "time" : 394.607000002,
         "id" : "dep59",
         "a1" : "r41_c1"
      },
      {
         "a2" : "download_26",
         "time" : 561.69099999898,
         "id" : "dep60",
         "a1" : "r1_c8"
      },
      {
         "a2" : "download_25",
         "time" : 187.86599999658,
         "id" : "dep61",
         "a1" : "r1_c8"
      },
      {
         "a2" : "download_25",
         "time" : 20.7819999996,
         "id" : "dep62",
         "a1" : "r41_c1"
      },
      {
         "a2" : "download_25",
         "time" : 187.86599999658,
         "id" : "dep63",
         "a1" : "r1_c8"
      },
      {
         "a2" : "download_24",
         "time" : 4.02800000302,
         "id" : "dep64",
         "a1" : "r41_c1"
      },
      {
         "a2" : "download_24",
         "time" : 171.112,
         "id" : "dep65",
         "a1" : "r1_c8"
      },
      {
         "a2" : "download_23",
         "time" : 0.67100000159985,
         "id" : "dep66",
         "a1" : "r41_c1"
      },
      {
         "a2" : "download_23",
         "time" : 167.75499999858,
         "id" : "dep67",
         "a1" : "r1_c8"
      },
      {
         "a2" : "download_22",
         "time" : -1,
         "id" : "dep68",
         "a1" : "r1_c7"
      },
      {
         "a2" : "download_22",
         "time" : 116.51600000187,
         "id" : "dep69",
         "a1" : "r1_c7"
      },
      {
         "a2" : "download_21",
         "time" : -1,
         "id" : "dep70",
         "a1" : "r1_c7"
      },
      {
         "a2" : "download_20",
         "time" : 146.4530000012,
         "id" : "dep71",
         "a1" : "r1_c7"
      },
      {
         "a2" : "download_20",
         "time" : 146.4530000012,
         "id" : "dep72",
         "a1" : "r1_c7"
      },
      {
         "a2" : "download_19",
         "time" : -1,
         "id" : "dep73",
         "a1" : "r1_c5"
      },
      {
         "a2" : "download_19",
         "time" : 572.722999997493,
         "id" : "dep74",
         "a1" : "r1_c5"
      },
      {
         "a2" : "download_18",
         "time" : -1,
         "id" : "dep75",
         "a1" : "r1_c6"
      },
      {
         "a2" : "download_17",
         "time" : 560.180000000403,
         "id" : "dep76",
         "a1" : "r1_c5"
      },
      {
         "a2" : "download_17",
         "time" : 560.180000000403,
         "id" : "dep77",
         "a1" : "r1_c5"
      },
      {
         "a2" : "download_16",
         "time" : 551.512999998523,
         "id" : "dep78",
         "a1" : "r1_c5"
      },
      {
         "a2" : "download_15",
         "time" : 479.705999998263,
         "id" : "dep79",
         "a1" : "r1_c5"
      },
      {
         "a2" : "download_14",
         "time" : 436.033999998473,
         "id" : "dep80",
         "a1" : "r1_c5"
      },
      {
         "a2" : "download_13",
         "time" : 426.681000000823,
         "id" : "dep81",
         "a1" : "r1_c5"
      },
      {
         "a2" : "download_12",
         "time" : -1,
         "id" : "dep82",
         "a1" : "r1_c4"
      },
      {
         "a2" : "download_12",
         "time" : 47.302000002674,
         "id" : "dep83",
         "a1" : "r1_c4"
      },
      {
         "a2" : "download_11",
         "time" : 46.5390000026671,
         "id" : "dep84",
         "a1" : "r1_c4"
      },
      {
         "a2" : "download_11",
         "time" : 46.5390000026671,
         "id" : "dep85",
         "a1" : "r1_c4"
      },
      {
         "a2" : "download_10",
         "time" : 37.8720000007891,
         "id" : "dep86",
         "a1" : "r1_c4"
      },
      {
         "a2" : "download_9",
         "time" : 34.759000001941,
         "id" : "dep87",
         "a1" : "r1_c4"
      },
      {
         "a2" : "download_9",
         "time" : 34.759000001941,
         "id" : "dep88",
         "a1" : "r1_c4"
      },
      {
         "a2" : "download_8",
         "time" : 33.996000001935,
         "id" : "dep89",
         "a1" : "r1_c4"
      },
      {
         "a2" : "download_8",
         "time" : 33.996000001935,
         "id" : "dep90",
         "a1" : "r1_c4"
      },
      {
         "a2" : "download_7",
         "time" : -1,
         "id" : "dep91",
         "a1" : "r1_c2"
      },
      {
         "a2" : "download_7",
         "time" : 264.404000001378,
         "id" : "dep92",
         "a1" : "r1_c2"
      },
      {
         "a2" : "download_6",
         "time" : 36.589999999706,
         "id" : "dep93",
         "a1" : "r1_c2"
      },
      {
         "a2" : "download_6",
         "time" : 36.589999999706,
         "id" : "dep94",
         "a1" : "r1_c2"
      },
      {
         "a2" : "download_5",
         "time" : -1,
         "id" : "dep95",
         "a1" : "r1_c1"
      },
      {
         "a2" : "download_5",
         "time" : 15.715999998065,
         "id" : "dep96",
         "a1" : "r1_c1"
      },
      {
         "a2" : "download_4",
         "time" : 14.586999997846,
         "id" : "dep97",
         "a1" : "r1_c1"
      },
      {
         "a2" : "download_4",
         "time" : 14.586999997846,
         "id" : "dep98",
         "a1" : "r1_c1"
      },
      {
         "a2" : "download_3",
         "time" : 13.762999999017,
         "id" : "dep99",
         "a1" : "r1_c1"
      },
      {
         "a2" : "download_3",
         "time" : 13.762999999017,
         "id" : "dep100",
         "a1" : "r1_c1"
      },
      {
         "a2" : "download_2",
         "time" : 12.602999999217,
         "id" : "dep101",
         "a1" : "r1_c1"
      },
      {
         "a2" : "download_1",
         "time" : 6.01199999800897,
         "id" : "dep102",
         "a1" : "r1_c1"
      }
   ]
}
