{
   "objs" : [
      {
         "id" : "r1",
         "comps" : [
            {
               "type" : "evalhtml",
               "time" : 1.419999985956,
               "s_time" : 210.304000007454,
               "e_time" : 211.72399999341,
               "id" : "r1_c1"
            },
            {
               "s_time" : 376.856999995653,
               "type" : "evalhtml",
               "time" : 142.770000005839,
               "id" : "r1_c2",
               "e_time" : 519.627000001492
            },
            {
               "type" : "evalhtml",
               "time" : -191446778.297,
               "s_time" : 521.399000019301,
               "e_time" : -191446256.898,
               "id" : "r1_c3"
            },
            {
               "s_time" : 521.984000020893,
               "type" : "evalhtml",
               "time" : 0.550999975530999,
               "id" : "r1_c4",
               "e_time" : 522.534999996424
            },
            {
               "time" : -191446780.449,
               "type" : "evalhtml",
               "s_time" : 523.551000020234,
               "e_time" : -191446256.898,
               "id" : "r1_c5"
            },
            {
               "time" : -191446781.39,
               "type" : "evalhtml",
               "s_time" : 524.491999996826,
               "e_time" : -191446256.898,
               "id" : "r1_c6"
            },
            {
               "e_time" : 1291.12999999779,
               "id" : "r1_c7",
               "type" : "evalhtml",
               "time" : 765.830999996976,
               "s_time" : 525.299000000814
            }
         ],
         "when_comp_start" : 1,
         "download" : {
            "receiveFirst" : 152,
            "sendStart" : 41,
            "connectEnd" : 41,
            "receiveHeadersEnd" : 193,
            "dns" : 0,
            "connectStart" : 0,
            "len" : 6880,
            "type" : "text/html",
            "sslStart" : -1,
            "receivedTime" : "194.278000009945",
            "dnsStart" : 0,
            "receiveLast" : 1.27800000994466,
            "dnsEnd" : 0,
            "sslEnd" : -1,
            "sendEnd" : 41,
            "id" : "download_0",
            "s_time" : 0
         },
         "url" : "http://original.testbed.localhost/www.liveeyewear.com/"
      },
      {
         "comps" : [
            {
               "id" : "comp_3",
               "e_time" : 366.451000008965,
               "s_time" : 366.437999997288,
               "time" : 0.0130000116770361,
               "type" : 4
            }
         ],
         "when_comp_start" : -1,
         "download" : {
            "receiveFirst" : 152,
            "sendStart" : 2,
            "connectEnd" : 2,
            "connectStart" : 0,
            "len" : 3208,
            "type" : "text/css",
            "sslStart" : -1,
            "receiveHeadersEnd" : 154,
            "dns" : 0,
            "dnsStart" : -1,
            "receiveLast" : 212.345999995247,
            "receivedTime" : "366.345999995247",
            "sendEnd" : 2,
            "id" : "download_1",
            "s_time" : 211.127999995369,
            "dnsEnd" : -1,
            "sslEnd" : -1
         },
         "url" : "http://original.testbed.localhost/www.liveeyewear.com/css/style.css",
         "id" : "r3"
      },
      {
         "when_comp_start" : -1,
         "download" : {
            "receiveFirst" : 153,
            "sendStart" : 2,
            "connectEnd" : 2,
            "receiveHeadersEnd" : 155,
            "dns" : 0,
            "connectStart" : 0,
            "len" : 19075,
            "type" : "application/javascript",
            "sslStart" : -1,
            "receivedTime" : "367.800000007264",
            "dnsStart" : -1,
            "receiveLast" : 212.800000007264,
            "dnsEnd" : -1,
            "sslEnd" : -1,
            "sendEnd" : 2,
            "id" : "download_2",
            "s_time" : 210.974999994505
         },
         "url" : "http://original.testbed.localhost/fast.fonts.com/jsapi/a1ae08c2-5050-41d0-b924-08e4f8aafb4d.js",
         "comps" : [
            {
               "e_time" : 376.856999995653,
               "id" : "comp_4",
               "type" : 1,
               "time" : 8.97799999802396,
               "s_time" : 367.878999997629
            }
         ],
         "id" : "r2"
      },
      {
         "url" : "http://original.testbed.localhost/www.liveeyewear.com/js/dw_event.js",
         "when_comp_start" : -1,
         "download" : {
            "receiveFirst" : 151,
            "sendStart" : 153,
            "connectEnd" : 153,
            "receiveHeadersEnd" : 304,
            "dns" : 0,
            "len" : 1372,
            "connectStart" : 0,
            "sslStart" : -1,
            "type" : "application/javascript",
            "receivedTime" : "516.923999995925",
            "dnsStart" : 2,
            "receiveLast" : 212.923999995925,
            "dnsEnd" : 2,
            "sslEnd" : -1,
            "sendEnd" : 153,
            "id" : "download_3",
            "s_time" : 211.307999998098
         },
         "comps" : [
            {
               "time" : 0.439000024925917,
               "type" : 1,
               "s_time" : 521.544999995967,
               "e_time" : 521.984000020893,
               "id" : "comp_12"
            }
         ],
         "id" : "r5"
      },
      {
         "id" : "r4",
         "comps" : [
            {
               "time" : 4.15500000235693,
               "type" : 1,
               "s_time" : 517.244000016944,
               "e_time" : 521.399000019301,
               "id" : "comp_10"
            }
         ],
         "when_comp_start" : -1,
         "download" : {
            "dnsStart" : 2,
            "receiveLast" : 212.175999993924,
            "receivedTime" : "517.175999993924",
            "id" : "download_4",
            "sendEnd" : 153,
            "s_time" : 211.228000000119,
            "dnsEnd" : 2,
            "sslEnd" : -1,
            "receiveFirst" : 152,
            "sendStart" : 153,
            "connectEnd" : 153,
            "connectStart" : 0,
            "len" : 2492,
            "type" : "application/javascript",
            "sslStart" : -1,
            "receiveHeadersEnd" : 305,
            "dns" : 0
         },
         "url" : "http://original.testbed.localhost/www.liveeyewear.com/js/functions.js"
      },
      {
         "id" : "r6",
         "download" : {
            "dnsStart" : 1,
            "receiveLast" : 217.47600001283,
            "receivedTime" : "522.47600001283",
            "id" : "download_5",
            "sendEnd" : 153,
            "s_time" : 211.424000008265,
            "dnsEnd" : 1,
            "sslEnd" : -1,
            "receiveFirst" : 152,
            "sendStart" : 153,
            "connectEnd" : 153,
            "connectStart" : 0,
            "len" : 9328,
            "type" : "application/javascript",
            "sslStart" : -1,
            "receiveHeadersEnd" : 305,
            "dns" : 0
         },
         "when_comp_start" : -1,
         "url" : "http://original.testbed.localhost/www.liveeyewear.com/js/dw_scroll.js",
         "comps" : [
            {
               "e_time" : 523.551000020234,
               "id" : "comp_14",
               "type" : 1,
               "time" : 1.01900001755007,
               "s_time" : 522.532000002684
            }
         ]
      },
      {
         "comps" : [
            {
               "s_time" : 523.814000014681,
               "type" : 1,
               "time" : 0.677999982145025,
               "id" : "comp_16",
               "e_time" : 524.491999996826
            }
         ],
         "when_comp_start" : -1,
         "download" : {
            "receivedTime" : "523.757000017213",
            "receiveLast" : 217.757000017213,
            "dnsStart" : 1,
            "sslEnd" : -1,
            "dnsEnd" : 1,
            "s_time" : 211.511000001337,
            "id" : "download_6",
            "sendEnd" : 153,
            "connectEnd" : 153,
            "sendStart" : 153,
            "receiveFirst" : 153,
            "dns" : 0,
            "receiveHeadersEnd" : 306,
            "sslStart" : -1,
            "type" : "application/javascript",
            "len" : 13385,
            "connectStart" : 0
         },
         "url" : "http://original.testbed.localhost/www.liveeyewear.com/js/dw_scrollbar.js",
         "id" : "r7"
      },
      {
         "id" : "r8",
         "comps" : [
            {
               "e_time" : 525.299000000814,
               "id" : "comp_18",
               "time" : 0.526999996508948,
               "type" : 1,
               "s_time" : 524.772000004305
            }
         ],
         "when_comp_start" : -1,
         "download" : {
            "connectEnd" : 154,
            "receiveFirst" : 152,
            "sendStart" : 154,
            "dns" : 0,
            "receiveHeadersEnd" : 306,
            "type" : "application/javascript",
            "sslStart" : -1,
            "connectStart" : 0,
            "len" : 11233,
            "receivedTime" : "524.727000010898",
            "receiveLast" : 218.727000010898,
            "dnsStart" : -1,
            "sslEnd" : -1,
            "dnsEnd" : -1,
            "s_time" : 211.599000002025,
            "id" : "download_7",
            "sendEnd" : 154
         },
         "url" : "http://original.testbed.localhost/www.liveeyewear.com/js/scroll_controls.js"
      },
      {
         "id" : "r9",
         "download" : {
            "dnsEnd" : -1,
            "sslEnd" : -1,
            "sendEnd" : 156,
            "id" : "download_8",
            "s_time" : 211.72399999341,
            "receivedTime" : "545.071000000462",
            "dnsStart" : -1,
            "receiveLast" : 235.071000000462,
            "receiveHeadersEnd" : 310,
            "dns" : 0,
            "connectStart" : 0,
            "len" : 9176,
            "type" : "image/png",
            "sslStart" : -1,
            "sendStart" : 156,
            "receiveFirst" : 154,
            "connectEnd" : 156
         },
         "when_comp_start" : -1,
         "url" : "http://original.testbed.localhost/www.liveeyewear.com/images/live_eyewear_logo.png",
         "comps" : []
      },
      {
         "id" : "r31",
         "comps" : [],
         "url" : "http://original.testbed.localhost/www.liveeyewear.com/images/background.gif",
         "download" : {
            "connectEnd" : 3,
            "receiveFirst" : 152,
            "sendStart" : 3,
            "type" : "image/gif",
            "sslStart" : -1,
            "connectStart" : 0,
            "len" : 1870,
            "dns" : 0,
            "receiveHeadersEnd" : 155,
            "receiveLast" : 519.574000004213,
            "dnsStart" : -1,
            "receivedTime" : "674.574000004213",
            "s_time" : 518.742000014754,
            "id" : "download_9",
            "sendEnd" : 3,
            "sslEnd" : -1,
            "dnsEnd" : -1
         },
         "when_comp_start" : -1
      },
      {
         "id" : "r10",
         "download" : {
            "receivedTime" : "676.739000016823",
            "receiveLast" : 521.739000016823,
            "dnsStart" : -1,
            "sslEnd" : -1,
            "dnsEnd" : -1,
            "s_time" : 518.642000010004,
            "sendEnd" : 3,
            "id" : "download_10",
            "connectEnd" : 3,
            "receiveFirst" : 152,
            "sendStart" : 3,
            "dns" : 0,
            "receiveHeadersEnd" : 155,
            "sslStart" : -1,
            "type" : "image/gif",
            "len" : 206,
            "connectStart" : 0
         },
         "when_comp_start" : -1,
         "url" : "http://original.testbed.localhost/www.liveeyewear.com/images/menu_home_on.gif",
         "comps" : []
      },
      {
         "id" : "r11",
         "comps" : [],
         "url" : "http://original.testbed.localhost/www.liveeyewear.com/images/menu_contact_us_off.gif",
         "download" : {
            "dnsStart" : -1,
            "receiveLast" : 521.980999996886,
            "receivedTime" : "676.980999996886",
            "id" : "download_11",
            "sendEnd" : 3,
            "s_time" : 518.762000021525,
            "dnsEnd" : -1,
            "sslEnd" : -1,
            "receiveFirst" : 152,
            "sendStart" : 3,
            "connectEnd" : 3,
            "connectStart" : 0,
            "len" : 290,
            "type" : "image/gif",
            "sslStart" : -1,
            "receiveHeadersEnd" : 155,
            "dns" : 0
         },
         "when_comp_start" : -1
      },
      {
         "id" : "r12",
         "comps" : [],
         "download" : {
            "connectEnd" : 3,
            "receiveFirst" : 152,
            "sendStart" : 3,
            "sslStart" : -1,
            "type" : "image/gif",
            "len" : 344,
            "connectStart" : 0,
            "dns" : 0,
            "receiveHeadersEnd" : 155,
            "receiveLast" : 522.077000000281,
            "dnsStart" : -1,
            "receivedTime" : "677.077000000281",
            "s_time" : 518.933000013931,
            "sendEnd" : 3,
            "id" : "download_12",
            "sslEnd" : -1,
            "dnsEnd" : -1
         },
         "when_comp_start" : -1,
         "url" : "http://original.testbed.localhost/www.liveeyewear.com/images/menu_dealer_locator_off.gif"
      },
      {
         "comps" : [],
         "download" : {
            "receiveLast" : 521.162000007229,
            "dnsStart" : -1,
            "receivedTime" : "677.162000007229",
            "s_time" : 519.060000020545,
            "id" : "download_13",
            "sendEnd" : 3,
            "sslEnd" : -1,
            "dnsEnd" : -1,
            "connectEnd" : 3,
            "receiveFirst" : 153,
            "sendStart" : 3,
            "type" : "image/gif",
            "sslStart" : -1,
            "connectStart" : 0,
            "len" : 636,
            "dns" : 0,
            "receiveHeadersEnd" : 156
         },
         "when_comp_start" : -1,
         "url" : "http://original.testbed.localhost/www.liveeyewear.com/images/menu_register_warranty_off.gif",
         "id" : "r13"
      },
      {
         "comps" : [],
         "url" : "http://original.testbed.localhost/www.liveeyewear.com/images/menu_opportunities_off.gif",
         "download" : {
            "receiveLast" : 520.393000019947,
            "dnsStart" : -1,
            "receivedTime" : "677.393000019947",
            "s_time" : 519.182000018191,
            "id" : "download_14",
            "sendEnd" : 4,
            "sslEnd" : -1,
            "dnsEnd" : -1,
            "connectEnd" : 4,
            "receiveFirst" : 153,
            "sendStart" : 4,
            "type" : "image/gif",
            "sslStart" : -1,
            "connectStart" : 0,
            "len" : 307,
            "dns" : 0,
            "receiveHeadersEnd" : 157
         },
         "when_comp_start" : -1,
         "id" : "r14"
      },
      {
         "comps" : [],
         "when_comp_start" : 1,
         "download" : {
            "connectEnd" : 152,
            "receiveFirst" : 152,
            "sendStart" : 152,
            "dns" : 0,
            "receiveHeadersEnd" : 304,
            "type" : "text/html",
            "sslStart" : -1,
            "connectStart" : 0,
            "len" : 312,
            "receivedTime" : "828.124000021489",
            "receiveLast" : 524.124000021489,
            "dnsStart" : -1,
            "sslEnd" : -1,
            "dnsEnd" : -1,
            "s_time" : 522.534999996424,
            "id" : "download_15",
            "sendEnd" : 152
         },
         "url" : "http://original.testbed.localhost/images/menu_home_on.gif",
         "id" : "r32"
      },
      {
         "id" : "r15",
         "url" : "http://original.testbed.localhost/www.liveeyewear.com/images/menu_employment_off.gif",
         "download" : {
            "dnsEnd" : -1,
            "sslEnd" : -1,
            "sendEnd" : 156,
            "id" : "download_16",
            "s_time" : 519.323999993503,
            "receivedTime" : "829.226000001654",
            "dnsStart" : -1,
            "receiveLast" : 520.226000001654,
            "receiveHeadersEnd" : 309,
            "dns" : 0,
            "connectStart" : 0,
            "len" : 303,
            "type" : "image/gif",
            "sslStart" : -1,
            "receiveFirst" : 153,
            "sendStart" : 156,
            "connectEnd" : 156
         },
         "when_comp_start" : -1,
         "comps" : []
      },
      {
         "id" : "r16",
         "comps" : [],
         "download" : {
            "dnsEnd" : -1,
            "sslEnd" : -1,
            "sendEnd" : 156,
            "id" : "download_17",
            "s_time" : 519.467000005534,
            "receivedTime" : "829.748999996809",
            "dnsStart" : -1,
            "receiveLast" : 520.748999996809,
            "receiveHeadersEnd" : 309,
            "dns" : 0,
            "len" : 299,
            "connectStart" : 0,
            "sslStart" : -1,
            "type" : "image/gif",
            "receiveFirst" : 153,
            "sendStart" : 156,
            "connectEnd" : 156
         },
         "when_comp_start" : -1,
         "url" : "http://original.testbed.localhost/www.liveeyewear.com/images/menu_dealer_login_off.gif"
      },
      {
         "download" : {
            "connectEnd" : 156,
            "sendStart" : 156,
            "receiveFirst" : 154,
            "dns" : 0,
            "receiveHeadersEnd" : 310,
            "sslStart" : -1,
            "type" : "image/gif",
            "len" : 186,
            "connectStart" : 0,
            "receivedTime" : "830.806000012672",
            "receiveLast" : 520.806000012672,
            "dnsStart" : -1,
            "sslEnd" : -1,
            "dnsEnd" : -1,
            "s_time" : 519.627000001492,
            "sendEnd" : 156,
            "id" : "download_18"
         },
         "when_comp_start" : -1,
         "url" : "http://original.testbed.localhost/www.liveeyewear.com/images/menu_legal_off.gif",
         "comps" : [],
         "id" : "r17"
      },
      {
         "id" : "r33",
         "download" : {
            "s_time" : 673.815000016475,
            "id" : "download_19",
            "sendEnd" : 2,
            "sslEnd" : -1,
            "dnsEnd" : -1,
            "receiveLast" : 676.067999999505,
            "dnsStart" : -1,
            "receivedTime" : "831.067999999505",
            "type" : "text/html",
            "sslStart" : -1,
            "connectStart" : 0,
            "len" : 313,
            "dns" : 0,
            "receiveHeadersEnd" : 155,
            "connectEnd" : 2,
            "receiveFirst" : 153,
            "sendStart" : 2
         },
         "when_comp_start" : 1,
         "url" : "http://original.testbed.localhost/images/menu_home_off.gif",
         "comps" : []
      },
      {
         "url" : "http://original.testbed.localhost/images/menu_contact_us_on.gif",
         "when_comp_start" : 1,
         "download" : {
            "receiveLast" : 676.53600001242,
            "dnsStart" : -1,
            "receivedTime" : "831.53600001242",
            "s_time" : 674.595000018599,
            "sendEnd" : 1,
            "id" : "download_20",
            "sslEnd" : -1,
            "dnsEnd" : -1,
            "connectEnd" : 1,
            "sendStart" : 1,
            "receiveFirst" : 154,
            "type" : "text/html",
            "sslStart" : -1,
            "connectStart" : 0,
            "len" : 318,
            "dns" : 0,
            "receiveHeadersEnd" : 155
         },
         "comps" : [],
         "id" : "r34"
      },
      {
         "comps" : [],
         "when_comp_start" : 1,
         "download" : {
            "receivedTime" : "981.362000020454",
            "dnsStart" : -1,
            "receiveLast" : 676.362000020454,
            "dnsEnd" : -1,
            "sslEnd" : -1,
            "sendEnd" : 153,
            "id" : "download_21",
            "s_time" : 674.985999998171,
            "receiveFirst" : 152,
            "sendStart" : 153,
            "connectEnd" : 153,
            "receiveHeadersEnd" : 305,
            "dns" : 0,
            "len" : 319,
            "connectStart" : 0,
            "sslStart" : -1,
            "type" : "text/html"
         },
         "url" : "http://original.testbed.localhost/images/menu_contact_us_off.gif",
         "id" : "r35"
      },
      {
         "url" : "http://original.testbed.localhost/images/menu_dealer_locator_on.gif",
         "when_comp_start" : 1,
         "download" : {
            "id" : "download_22",
            "sendEnd" : 154,
            "s_time" : 675.217000010889,
            "dnsEnd" : -1,
            "sslEnd" : -1,
            "dnsStart" : -1,
            "receiveLast" : 676.300000003306,
            "receivedTime" : "982.300000003306",
            "len" : 322,
            "connectStart" : 0,
            "sslStart" : -1,
            "type" : "text/html",
            "receiveHeadersEnd" : 306,
            "dns" : 0,
            "sendStart" : 154,
            "receiveFirst" : 152,
            "connectEnd" : 154
         },
         "comps" : [],
         "id" : "r36"
      },
      {
         "id" : "r37",
         "comps" : [],
         "download" : {
            "receiveLast" : 676.950000005076,
            "dnsStart" : -1,
            "receivedTime" : "982.950000005076",
            "s_time" : 675.623000017367,
            "sendEnd" : 154,
            "id" : "download_23",
            "sslEnd" : -1,
            "dnsEnd" : -1,
            "connectEnd" : 154,
            "receiveFirst" : 152,
            "sendStart" : 154,
            "type" : "text/html",
            "sslStart" : -1,
            "connectStart" : 0,
            "len" : 323,
            "dns" : 0,
            "receiveHeadersEnd" : 306
         },
         "when_comp_start" : 1,
         "url" : "http://original.testbed.localhost/images/menu_dealer_locator_off.gif"
      },
      {
         "id" : "r38",
         "comps" : [],
         "url" : "http://original.testbed.localhost/images/menu_register_warranty_on.gif",
         "when_comp_start" : 1,
         "download" : {
            "dns" : 0,
            "receiveHeadersEnd" : 306,
            "type" : "text/html",
            "sslStart" : -1,
            "connectStart" : 0,
            "len" : 325,
            "connectEnd" : 154,
            "receiveFirst" : 152,
            "sendStart" : 154,
            "sslEnd" : -1,
            "dnsEnd" : -1,
            "s_time" : 676.441000017803,
            "id" : "download_24",
            "sendEnd" : 154,
            "receivedTime" : "984.220000013011",
            "receiveLast" : 678.220000013011,
            "dnsStart" : -1
         }
      },
      {
         "id" : "r39",
         "url" : "http://original.testbed.localhost/images/menu_register_warranty_off.gif",
         "when_comp_start" : 1,
         "download" : {
            "receivedTime" : "984.334000007948",
            "dnsStart" : -1,
            "receiveLast" : 829.334000007948,
            "dnsEnd" : -1,
            "sslEnd" : -1,
            "id" : "download_25",
            "sendEnd" : 3,
            "s_time" : 827.695000014501,
            "sendStart" : 3,
            "receiveFirst" : 152,
            "connectEnd" : 3,
            "receiveHeadersEnd" : 155,
            "dns" : 0,
            "connectStart" : 0,
            "len" : 326,
            "type" : "text/html",
            "sslStart" : -1
         },
         "comps" : []
      },
      {
         "id" : "r40",
         "url" : "http://original.testbed.localhost/images/menu_opportunities_on.gif",
         "download" : {
            "receiveFirst" : 152,
            "sendStart" : 2,
            "connectEnd" : 2,
            "receiveHeadersEnd" : 154,
            "dns" : 0,
            "connectStart" : 0,
            "len" : 321,
            "type" : "text/html",
            "sslStart" : -1,
            "receivedTime" : "984.530000016093",
            "dnsStart" : -1,
            "receiveLast" : 830.530000016093,
            "dnsEnd" : -1,
            "sslEnd" : -1,
            "sendEnd" : 2,
            "id" : "download_26",
            "s_time" : 828.796999994665
         },
         "when_comp_start" : 1,
         "comps" : []
      },
      {
         "id" : "r41",
         "comps" : [],
         "url" : "http://original.testbed.localhost/images/menu_opportunities_off.gif",
         "when_comp_start" : 1,
         "download" : {
            "receiveLast" : 830.931000018492,
            "dnsStart" : -1,
            "receivedTime" : "1133.93100001849",
            "s_time" : 829.392000014195,
            "sendEnd" : 151,
            "id" : "download_27",
            "sslEnd" : -1,
            "dnsEnd" : -1,
            "connectEnd" : 151,
            "receiveFirst" : 152,
            "sendStart" : 151,
            "sslStart" : -1,
            "type" : "text/html",
            "len" : 322,
            "connectStart" : 0,
            "dns" : 0,
            "receiveHeadersEnd" : 303
         }
      },
      {
         "id" : "r42",
         "comps" : [],
         "url" : "http://original.testbed.localhost/images/menu_employment_on.gif",
         "download" : {
            "dnsStart" : -1,
            "receiveLast" : 831.820000006584,
            "receivedTime" : "1134.82000000658",
            "id" : "download_28",
            "sendEnd" : 151,
            "s_time" : 830.335000006016,
            "dnsEnd" : -1,
            "sslEnd" : -1,
            "receiveFirst" : 152,
            "sendStart" : 151,
            "connectEnd" : 151,
            "len" : 318,
            "connectStart" : 0,
            "sslStart" : -1,
            "type" : "text/html",
            "receiveHeadersEnd" : 303,
            "dns" : 0
         },
         "when_comp_start" : 1
      },
      {
         "id" : "r43",
         "comps" : [],
         "url" : "http://original.testbed.localhost/images/menu_employment_off.gif",
         "download" : {
            "sslStart" : -1,
            "type" : "text/html",
            "len" : 319,
            "connectStart" : 0,
            "dns" : 0,
            "receiveHeadersEnd" : 303,
            "connectEnd" : 152,
            "sendStart" : 152,
            "receiveFirst" : 151,
            "s_time" : 830.761000019265,
            "sendEnd" : 152,
            "id" : "download_29",
            "sslEnd" : -1,
            "dnsEnd" : -1,
            "receiveLast" : 832.422000021208,
            "dnsStart" : -1,
            "receivedTime" : "1135.42200002121"
         },
         "when_comp_start" : 1
      },
      {
         "id" : "r44",
         "url" : "http://original.testbed.localhost/images/menu_dealer_login_on.gif",
         "download" : {
            "connectEnd" : 153,
            "sendStart" : 153,
            "receiveFirst" : 151,
            "dns" : 0,
            "receiveHeadersEnd" : 304,
            "type" : "text/html",
            "sslStart" : -1,
            "connectStart" : 0,
            "len" : 320,
            "receivedTime" : "1136.76799999666",
            "receiveLast" : 832.767999996664,
            "dnsStart" : -1,
            "sslEnd" : -1,
            "dnsEnd" : -1,
            "s_time" : 831.244000000879,
            "sendEnd" : 153,
            "id" : "download_30"
         },
         "when_comp_start" : 1,
         "comps" : []
      },
      {
         "id" : "r45",
         "comps" : [],
         "when_comp_start" : 1,
         "download" : {
            "receiveHeadersEnd" : 155,
            "dns" : 0,
            "len" : 321,
            "connectStart" : 0,
            "sslStart" : -1,
            "type" : "text/html",
            "receiveFirst" : 152,
            "sendStart" : 3,
            "connectEnd" : 3,
            "dnsEnd" : -1,
            "sslEnd" : -1,
            "sendEnd" : 3,
            "id" : "download_31",
            "s_time" : 981.040000013309,
            "receivedTime" : "1136.99900000938",
            "dnsStart" : -1,
            "receiveLast" : 981.999000009382
         },
         "url" : "http://original.testbed.localhost/images/menu_dealer_login_off.gif"
      },
      {
         "comps" : [],
         "download" : {
            "receiveFirst" : 152,
            "sendStart" : 2,
            "connectEnd" : 2,
            "receiveHeadersEnd" : 154,
            "dns" : 0,
            "len" : 313,
            "connectStart" : 0,
            "sslStart" : -1,
            "type" : "text/html",
            "receivedTime" : "1137.26899999892",
            "dnsStart" : -1,
            "receiveLast" : 983.268999998923,
            "dnsEnd" : -1,
            "sslEnd" : -1,
            "sendEnd" : 2,
            "id" : "download_32",
            "s_time" : 982.03199999989
         },
         "when_comp_start" : 1,
         "url" : "http://original.testbed.localhost/images/menu_legal_on.gif",
         "id" : "r46"
      },
      {
         "id" : "r47",
         "download" : {
            "dns" : 0,
            "receiveHeadersEnd" : 303,
            "type" : "text/html",
            "sslStart" : -1,
            "connectStart" : 0,
            "len" : 314,
            "connectEnd" : 151,
            "receiveFirst" : 152,
            "sendStart" : 151,
            "sslEnd" : -1,
            "dnsEnd" : -1,
            "s_time" : 982.745000015711,
            "id" : "download_33",
            "sendEnd" : 151,
            "receivedTime" : "1286.54299999471",
            "receiveLast" : 983.542999994708,
            "dnsStart" : -1
         },
         "when_comp_start" : 1,
         "url" : "http://original.testbed.localhost/images/menu_legal_off.gif",
         "comps" : []
      },
      {
         "id" : "r18",
         "comps" : [],
         "url" : "http://original.testbed.localhost/www.liveeyewear.com/images/btn-up.gif",
         "when_comp_start" : -1,
         "download" : {
            "connectEnd" : 150,
            "receiveFirst" : 152,
            "sendStart" : 150,
            "sslStart" : -1,
            "type" : "image/gif",
            "len" : 243,
            "connectStart" : 0,
            "dns" : 0,
            "receiveHeadersEnd" : 302,
            "receiveLast" : 985.393000005977,
            "dnsStart" : -1,
            "receivedTime" : "1287.39300000598",
            "s_time" : 983.864000008907,
            "sendEnd" : 150,
            "id" : "download_34",
            "sslEnd" : -1,
            "dnsEnd" : -1
         }
      },
      {
         "id" : "r19",
         "url" : "http://original.testbed.localhost/www.liveeyewear.com/images/btn-dn.gif",
         "download" : {
            "dnsStart" : -1,
            "receiveLast" : 985.136999995913,
            "receivedTime" : "1288.13699999591",
            "sendEnd" : 151,
            "id" : "download_35",
            "s_time" : 984.075999993365,
            "dnsEnd" : -1,
            "sslEnd" : -1,
            "receiveFirst" : 152,
            "sendStart" : 151,
            "connectEnd" : 151,
            "len" : 186,
            "connectStart" : 0,
            "sslStart" : -1,
            "type" : "image/gif",
            "receiveHeadersEnd" : 303,
            "dns" : 0
         },
         "when_comp_start" : -1,
         "comps" : []
      },
      {
         "id" : "r20",
         "comps" : [],
         "when_comp_start" : -1,
         "download" : {
            "connectStart" : 0,
            "len" : 35719,
            "type" : "image/jpeg",
            "sslStart" : -1,
            "receiveHeadersEnd" : 304,
            "dns" : 0,
            "receiveFirst" : 151,
            "sendStart" : 153,
            "connectEnd" : 153,
            "sendEnd" : 153,
            "id" : "download_36",
            "s_time" : 984.334000007948,
            "dnsEnd" : -1,
            "sslEnd" : -1,
            "dnsStart" : -1,
            "receiveLast" : 1137.73900000169,
            "receivedTime" : "1441.73900000169"
         },
         "url" : "http://original.testbed.localhost/www.liveeyewear.com/images/button_cocoons.jpg"
      },
      {
         "download" : {
            "id" : "download_37",
            "sendEnd" : 3,
            "s_time" : 1133.66399999359,
            "dnsEnd" : -1,
            "sslEnd" : -1,
            "dnsStart" : -1,
            "receiveLast" : 1134.45400000177,
            "receivedTime" : "1290.45400000177",
            "len" : 6325,
            "connectStart" : 0,
            "sslStart" : -1,
            "type" : "image/png",
            "receiveHeadersEnd" : 156,
            "dns" : 0,
            "receiveFirst" : 153,
            "sendStart" : 3,
            "connectEnd" : 3
         },
         "when_comp_start" : -1,
         "url" : "http://original.testbed.localhost/www.liveeyewear.com/images/button_vistana.png",
         "comps" : [],
         "id" : "r21"
      },
      {
         "comps" : [],
         "url" : "http://original.testbed.localhost/www.liveeyewear.com/images/button_cocoons_clipons.png",
         "when_comp_start" : -1,
         "download" : {
            "sslEnd" : -1,
            "dnsEnd" : -1,
            "s_time" : 1134.55200000317,
            "sendEnd" : 2,
            "id" : "download_38",
            "receivedTime" : "1291.24099999899",
            "receiveLast" : 1135.24099999899,
            "dnsStart" : -1,
            "dns" : 0,
            "receiveHeadersEnd" : 156,
            "sslStart" : -1,
            "type" : "image/png",
            "len" : 5629,
            "connectStart" : 0,
            "connectEnd" : 2,
            "sendStart" : 2,
            "receiveFirst" : 154
         },
         "id" : "r22"
      },
      {
         "id" : "r23",
         "url" : "http://original.testbed.localhost/www.liveeyewear.com/images/button_cocoons_goggles.png",
         "when_comp_start" : -1,
         "download" : {
            "dns" : 0,
            "receiveHeadersEnd" : 303,
            "sslStart" : -1,
            "type" : "image/png",
            "len" : 7504,
            "connectStart" : 0,
            "connectEnd" : 151,
            "receiveFirst" : 152,
            "sendStart" : 151,
            "sslEnd" : -1,
            "dnsEnd" : -1,
            "s_time" : 1135.26500001899,
            "id" : "download_39",
            "sendEnd" : 151,
            "receivedTime" : "1439.0790000034",
            "receiveLast" : 1136.0790000034,
            "dnsStart" : -1
         },
         "comps" : []
      },
      {
         "comps" : [],
         "download" : {
            "connectEnd" : 150,
            "receiveFirst" : 151,
            "sendStart" : 150,
            "dns" : 0,
            "receiveHeadersEnd" : 302,
            "type" : "image/png",
            "sslStart" : -1,
            "connectStart" : 0,
            "len" : 7084,
            "receivedTime" : "1439.80300001567",
            "receiveLast" : 1137.80300001567,
            "dnsStart" : -1,
            "sslEnd" : -1,
            "dnsEnd" : -1,
            "s_time" : 1136.60500000697,
            "sendEnd" : 151,
            "id" : "download_40"
         },
         "when_comp_start" : -1,
         "url" : "http://original.testbed.localhost/www.liveeyewear.com/images/button_cocoons_sidekick.png",
         "id" : "r24"
      },
      {
         "id" : "r25",
         "download" : {
            "dnsEnd" : -1,
            "sslEnd" : -1,
            "id" : "download_41",
            "sendEnd" : 151,
            "s_time" : 1136.851999996,
            "receivedTime" : "1440.67599999835",
            "dnsStart" : -1,
            "receiveLast" : 1137.67599999835,
            "receiveHeadersEnd" : 303,
            "dns" : 0,
            "len" : 5553,
            "connectStart" : 0,
            "sslStart" : -1,
            "type" : "image/png",
            "sendStart" : 151,
            "receiveFirst" : 152,
            "connectEnd" : 151
         },
         "when_comp_start" : -1,
         "url" : "http://original.testbed.localhost/www.liveeyewear.com/images/overx_banner.png",
         "comps" : []
      },
      {
         "id" : "r26",
         "url" : "http://original.testbed.localhost/www.liveeyewear.com/images/best_sunglass.png",
         "download" : {
            "len" : 1956,
            "connectStart" : 0,
            "sslStart" : -1,
            "type" : "image/png",
            "receiveHeadersEnd" : 304,
            "dns" : 0,
            "receiveFirst" : 151,
            "sendStart" : 153,
            "connectEnd" : 153,
            "id" : "download_42",
            "sendEnd" : 153,
            "s_time" : 1137.11599999806,
            "dnsEnd" : -1,
            "sslEnd" : -1,
            "dnsStart" : -1,
            "receiveLast" : 1138.29400000768,
            "receivedTime" : "1442.29400000768"
         },
         "when_comp_start" : -1,
         "comps" : []
      },
      {
         "id" : "r27",
         "comps" : [],
         "url" : "http://original.testbed.localhost/www.liveeyewear.com/images/copyright.png",
         "when_comp_start" : -1,
         "download" : {
            "dns" : 0,
            "receiveHeadersEnd" : 156,
            "type" : "image/png",
            "sslStart" : -1,
            "connectStart" : 0,
            "len" : 973,
            "connectEnd" : 4,
            "receiveFirst" : 152,
            "sendStart" : 4,
            "sslEnd" : -1,
            "dnsEnd" : -1,
            "s_time" : 1286.35500001837,
            "sendEnd" : 4,
            "id" : "download_43",
            "receivedTime" : "1442.76400000672",
            "receiveLast" : 1286.76400000672,
            "dnsStart" : -1
         }
      },
      {
         "comps" : [],
         "download" : {
            "sendEnd" : 151,
            "id" : "download_44",
            "s_time" : 1287.2689999931,
            "dnsEnd" : -1,
            "sslEnd" : -1,
            "dnsStart" : -1,
            "receiveLast" : 1288.55199999805,
            "receivedTime" : "1591.55199999805",
            "connectStart" : 0,
            "len" : 3117,
            "type" : "image/png",
            "sslStart" : -1,
            "receiveHeadersEnd" : 303,
            "dns" : 0,
            "receiveFirst" : 152,
            "sendStart" : 151,
            "connectEnd" : 151
         },
         "when_comp_start" : -1,
         "url" : "http://original.testbed.localhost/www.liveeyewear.com/images/facebook_icon.png",
         "id" : "r28"
      },
      {
         "url" : "http://original.testbed.localhost/www.liveeyewear.com/images/background.jpg",
         "download" : {
            "receiveHeadersEnd" : 303,
            "dns" : 0,
            "connectStart" : 0,
            "len" : 28244,
            "type" : "image/jpeg",
            "sslStart" : -1,
            "receiveFirst" : 152,
            "sendStart" : 151,
            "connectEnd" : 151,
            "dnsEnd" : -1,
            "sslEnd" : -1,
            "id" : "download_45",
            "sendEnd" : 151,
            "s_time" : 1288.15199999372,
            "receivedTime" : "1745.02500001108",
            "dnsStart" : -1,
            "receiveLast" : 1442.02500001108
         },
         "when_comp_start" : -1,
         "comps" : [],
         "id" : "r48"
      },
      {
         "id" : "r49",
         "comps" : [],
         "url" : "http://original.testbed.localhost/www.liveeyewear.com/images/leftnav_divider.gif",
         "when_comp_start" : -1,
         "download" : {
            "dnsEnd" : -1,
            "sslEnd" : -1,
            "sendEnd" : 150,
            "id" : "download_46",
            "s_time" : 1290.48500000499,
            "receivedTime" : "1592.8530000092",
            "dnsStart" : -1,
            "receiveLast" : 1290.8530000092,
            "receiveHeadersEnd" : 302,
            "dns" : 0,
            "connectStart" : 0,
            "len" : 516,
            "type" : "image/gif",
            "sslStart" : -1,
            "receiveFirst" : 152,
            "sendStart" : 150,
            "connectEnd" : 150
         }
      },
      {
         "url" : "http://original.testbed.localhost/www.liveeyewear.com/images/content_bg.png",
         "when_comp_start" : -1,
         "download" : {
            "receivedTime" : "1593.48999999929",
            "dnsStart" : -1,
            "receiveLast" : 1291.48999999929,
            "dnsEnd" : -1,
            "sslEnd" : -1,
            "sendEnd" : 150,
            "id" : "download_47",
            "s_time" : 1291.12999999779,
            "receiveFirst" : 152,
            "sendStart" : 150,
            "connectEnd" : 150,
            "receiveHeadersEnd" : 302,
            "dns" : 0,
            "len" : 1639,
            "connectStart" : 0,
            "sslStart" : -1,
            "type" : "image/png"
         },
         "comps" : [],
         "id" : "r50"
      }
   ],
   "start_activity" : "download_0",
   "load_activity" : -1,
   "n_download_no_trigger" : 1,
   "deps" : [
      {
         "time" : -1,
         "id" : "dep1",
         "a1" : "comp_4",
         "a2" : "r1_c2"
      },
      {
         "time" : -1,
         "id" : "dep2",
         "a1" : "comp_10",
         "a2" : "r1_c3"
      },
      {
         "id" : "dep3",
         "time" : -1,
         "a2" : "r1_c4",
         "a1" : "comp_12"
      },
      {
         "a1" : "comp_14",
         "a2" : "r1_c5",
         "id" : "dep4",
         "time" : -1
      },
      {
         "a2" : "r1_c6",
         "a1" : "comp_16",
         "id" : "dep5",
         "time" : -1
      },
      {
         "a2" : "r1_c7",
         "a1" : "comp_18",
         "time" : -1,
         "id" : "dep6"
      },
      {
         "a1" : "comp_4",
         "a2" : "comp_10",
         "time" : -1,
         "id" : "dep7"
      },
      {
         "a2" : "comp_10",
         "a1" : "comp_3",
         "id" : "dep8",
         "time" : -1
      },
      {
         "a2" : "comp_12",
         "a1" : "comp_10",
         "time" : -1,
         "id" : "dep9"
      },
      {
         "time" : -1,
         "id" : "dep10",
         "a2" : "comp_14",
         "a1" : "comp_12"
      },
      {
         "a1" : "comp_14",
         "a2" : "comp_16",
         "time" : -1,
         "id" : "dep11"
      },
      {
         "a2" : "comp_18",
         "a1" : "comp_16",
         "id" : "dep12",
         "time" : -1
      },
      {
         "a2" : "download_47",
         "a1" : "r1_c7",
         "time" : -1,
         "id" : "dep13"
      },
      {
         "a1" : "r1_c7",
         "a2" : "download_46",
         "id" : "dep14",
         "time" : 765.186000004176
      },
      {
         "a2" : "download_45",
         "a1" : "r1_c7",
         "time" : 762.852999992906,
         "id" : "dep15"
      },
      {
         "a2" : "download_44",
         "a1" : "r1_c7",
         "id" : "dep16",
         "time" : 761.969999992286
      },
      {
         "id" : "dep17",
         "time" : 761.056000017556,
         "a1" : "r1_c7",
         "a2" : "download_43"
      },
      {
         "a2" : "download_42",
         "a1" : "r1_c7",
         "id" : "dep18",
         "time" : 611.816999997246
      },
      {
         "a1" : "r1_c7",
         "a2" : "download_41",
         "id" : "dep19",
         "time" : 611.552999995186
      },
      {
         "a1" : "r1_c7",
         "a2" : "download_40",
         "id" : "dep20",
         "time" : 611.306000006156
      },
      {
         "time" : 609.966000018176,
         "id" : "dep21",
         "a1" : "r1_c7",
         "a2" : "download_39"
      },
      {
         "time" : 609.253000002356,
         "id" : "dep22",
         "a2" : "download_38",
         "a1" : "r1_c7"
      },
      {
         "time" : 608.364999992776,
         "id" : "dep23",
         "a1" : "r1_c7",
         "a2" : "download_37"
      },
      {
         "a2" : "download_36",
         "a1" : "r1_c7",
         "id" : "dep24",
         "time" : 459.035000007134
      },
      {
         "id" : "dep25",
         "time" : 458.776999992551,
         "a1" : "r1_c7",
         "a2" : "download_35"
      },
      {
         "a1" : "r1_c7",
         "a2" : "download_34",
         "id" : "dep26",
         "time" : 458.565000008093
      },
      {
         "a1" : "r1_c7",
         "a2" : "download_33",
         "time" : 457.446000014897,
         "id" : "dep27"
      },
      {
         "id" : "dep28",
         "time" : 456.732999999076,
         "a2" : "download_32",
         "a1" : "r1_c7"
      },
      {
         "time" : 455.741000012495,
         "id" : "dep29",
         "a2" : "download_31",
         "a1" : "r1_c7"
      },
      {
         "a2" : "download_30",
         "a1" : "r1_c7",
         "time" : 305.945000000065,
         "id" : "dep30"
      },
      {
         "time" : 305.462000018451,
         "id" : "dep31",
         "a1" : "r1_c7",
         "a2" : "download_29"
      },
      {
         "time" : 305.036000005202,
         "id" : "dep32",
         "a2" : "download_28",
         "a1" : "r1_c7"
      },
      {
         "a2" : "download_27",
         "a1" : "r1_c7",
         "time" : 304.093000013381,
         "id" : "dep33"
      },
      {
         "time" : 303.497999993851,
         "id" : "dep34",
         "a1" : "r1_c7",
         "a2" : "download_26"
      },
      {
         "a1" : "r1_c7",
         "a2" : "download_25",
         "id" : "dep35",
         "time" : 302.396000013687
      },
      {
         "a2" : "download_24",
         "a1" : "r1_c7",
         "time" : 151.142000016989,
         "id" : "dep36"
      },
      {
         "time" : 150.324000016553,
         "id" : "dep37",
         "a2" : "download_23",
         "a1" : "r1_c7"
      },
      {
         "a1" : "r1_c7",
         "a2" : "download_22",
         "time" : 149.918000010075,
         "id" : "dep38"
      },
      {
         "id" : "dep39",
         "time" : 149.686999997357,
         "a1" : "r1_c7",
         "a2" : "download_21"
      },
      {
         "time" : 149.296000017785,
         "id" : "dep40",
         "a1" : "r1_c7",
         "a2" : "download_20"
      },
      {
         "a1" : "r1_c7",
         "a2" : "download_19",
         "id" : "dep41",
         "time" : 148.516000015661
      },
      {
         "a2" : "download_18",
         "a1" : "r1_c2",
         "id" : "dep42",
         "time" : -1
      },
      {
         "a1" : "r1_c2",
         "a2" : "download_17",
         "id" : "dep43",
         "time" : 142.610000009881
      },
      {
         "a2" : "download_16",
         "a1" : "r1_c2",
         "time" : 142.46699999785,
         "id" : "dep44"
      },
      {
         "id" : "dep45",
         "time" : -1,
         "a2" : "download_15",
         "a1" : "r1_c4"
      },
      {
         "a1" : "r1_c2",
         "a2" : "download_14",
         "time" : 142.325000022538,
         "id" : "dep46"
      },
      {
         "id" : "dep47",
         "time" : 142.203000024892,
         "a2" : "download_13",
         "a1" : "r1_c2"
      },
      {
         "a2" : "download_12",
         "a1" : "r1_c2",
         "id" : "dep48",
         "time" : 142.076000018278
      },
      {
         "a2" : "download_11",
         "a1" : "r1_c2",
         "time" : 141.905000025872,
         "id" : "dep49"
      },
      {
         "a2" : "download_10",
         "a1" : "r1_c2",
         "id" : "dep50",
         "time" : 141.785000014351
      },
      {
         "a1" : "r1_c2",
         "a2" : "download_9",
         "time" : 141.885000019101,
         "id" : "dep51"
      },
      {
         "time" : -1,
         "id" : "dep52",
         "a1" : "r1_c1",
         "a2" : "download_8"
      },
      {
         "time" : 1.419999985956,
         "id" : "dep53",
         "a2" : "download_8",
         "a1" : "r1_c1"
      },
      {
         "a1" : "r1_c1",
         "a2" : "download_7",
         "time" : 1.29499999457101,
         "id" : "dep54"
      },
      {
         "id" : "dep55",
         "time" : 1.29499999457101,
         "a1" : "r1_c1",
         "a2" : "download_7"
      },
      {
         "id" : "dep56",
         "time" : 1.20699999388302,
         "a1" : "r1_c1",
         "a2" : "download_6"
      },
      {
         "time" : 1.20699999388302,
         "id" : "dep57",
         "a1" : "r1_c1",
         "a2" : "download_6"
      },
      {
         "a2" : "download_5",
         "a1" : "r1_c1",
         "time" : 1.12000000081102,
         "id" : "dep58"
      },
      {
         "id" : "dep59",
         "time" : 1.12000000081102,
         "a2" : "download_5",
         "a1" : "r1_c1"
      },
      {
         "a2" : "download_4",
         "a1" : "r1_c1",
         "id" : "dep60",
         "time" : 0.923999992665017
      },
      {
         "time" : 0.923999992665017,
         "id" : "dep61",
         "a2" : "download_4",
         "a1" : "r1_c1"
      },
      {
         "id" : "dep62",
         "time" : 1.00399999064402,
         "a1" : "r1_c1",
         "a2" : "download_3"
      },
      {
         "a1" : "r1_c1",
         "a2" : "download_3",
         "id" : "dep63",
         "time" : 1.00399999064402
      },
      {
         "time" : 0.670999987051005,
         "id" : "dep64",
         "a1" : "r1_c1",
         "a2" : "download_2"
      },
      {
         "id" : "dep65",
         "time" : 0.823999987915016,
         "a2" : "download_1",
         "a1" : "r1_c1"
      },
      {
         "a1" : "r1_c1",
         "a2" : "download_1",
         "id" : "dep66",
         "time" : 0.823999987915016
      }
   ],
   "name" : "original.testbed.localhost_www.liveeyewear.com_"
}
