{
   "load_activity" : -1,
   "objs" : [
      {
         "download" : {
            "connectStart" : 0,
            "sslEnd" : -1,
            "receivedTime" : "194.35499998508",
            "s_time" : 0,
            "sendStart" : 28,
            "type" : "text/html",
            "dnsStart" : 0,
            "receiveHeadersEnd" : 181,
            "id" : "download_0",
            "dnsEnd" : 0,
            "dns" : 0,
            "receiveLast" : 13.3549999850802,
            "connectEnd" : 28,
            "sendEnd" : 28,
            "len" : 11277,
            "receiveFirst" : 153,
            "sslStart" : -1
         },
         "when_comp_start" : 1,
         "id" : "r1",
         "comps" : [
            {
               "s_time" : 194.699999992736,
               "time" : 15.007999987574,
               "id" : "r1_c1",
               "type" : "evalhtml",
               "e_time" : 209.70799998031
            }
         ],
         "url" : "http://original.testbed.localhost/www.google.co.jp/"
      },
      {
         "url" : "http://original.testbed.localhost/www.google.co.jp/logos/doodles/2016/mothers-day-2016-6332195926966272-hp.jpg",
         "comps" : [],
         "id" : "r2",
         "when_comp_start" : -1,
         "download" : {
            "sendStart" : 0,
            "sslEnd" : -1,
            "receivedTime" : "655.1529999997",
            "s_time" : 199.217999994289,
            "connectStart" : 0,
            "receiveHeadersEnd" : 152,
            "dnsEnd" : -1,
            "id" : "download_1",
            "dnsStart" : -1,
            "type" : "image/jpeg",
            "sendEnd" : 0,
            "len" : 68004,
            "connectEnd" : 0,
            "dns" : 0,
            "receiveLast" : 503.1529999997,
            "sslStart" : -1,
            "receiveFirst" : 152
         }
      },
      {
         "download" : {
            "receiveFirst" : 151,
            "sslStart" : -1,
            "dns" : 0,
            "receiveLast" : 201.480000001378,
            "connectEnd" : 0,
            "sendEnd" : 0,
            "len" : 299,
            "type" : "text/html",
            "dnsStart" : -1,
            "receiveHeadersEnd" : 151,
            "id" : "download_2",
            "dnsEnd" : -1,
            "connectStart" : 0,
            "sslEnd" : -1,
            "receivedTime" : "352.480000001378",
            "s_time" : 200.377000001026,
            "sendStart" : 0
         },
         "when_comp_start" : 1,
         "id" : "r3",
         "comps" : [],
         "url" : "http://original.testbed.localhost/client_204?&atyp=i&biw=904&bih=883&ei=NbcuV43nLoLXeaSkoegK"
      },
      {
         "when_comp_start" : -1,
         "download" : {
            "connectStart" : 0,
            "sslEnd" : -1,
            "receivedTime" : "664.110999990953",
            "s_time" : 209.70799998031,
            "sendStart" : 151,
            "type" : "image/png",
            "dnsStart" : 0,
            "receiveHeadersEnd" : 303,
            "dnsEnd" : 0,
            "id" : "download_3",
            "dns" : 0,
            "receiveLast" : 361.110999990953,
            "connectEnd" : 151,
            "sendEnd" : 151,
            "len" : 17284,
            "receiveFirst" : 152,
            "sslStart" : -1
         },
         "id" : "r4",
         "comps" : [],
         "url" : "http://original.testbed.localhost/www.google.co.jp/images/nav_logo229.png"
      }
   ],
   "name" : "original.testbed.localhost_www.google.co.jp_",
   "deps" : [
      {
         "id" : "dep1",
         "time" : -1,
         "a2" : "download_3",
         "a1" : "r1_c1"
      },
      {
         "time" : 5.67700000829001,
         "a2" : "download_2",
         "id" : "dep2",
         "a1" : "r1_c1"
      },
      {
         "a1" : "r1_c1",
         "a2" : "download_1",
         "time" : 4.51800000155299,
         "id" : "dep3"
      }
   ],
   "start_activity" : "download_0",
   "n_download_no_trigger" : 1
}
