{
   "name" : "original.testbed.localhost_www.ok.ru_",
   "n_download_no_trigger" : 1,
   "load_activity" : -1,
   "start_activity" : "download_0",
   "objs" : [
      {
         "id" : "r1",
         "when_comp_start" : 1,
         "download" : {
            "sendEnd" : 67,
            "dnsEnd" : 0,
            "s_time" : 0,
            "id" : "download_0",
            "receiveHeadersEnd" : 222,
            "dns" : 0,
            "sendStart" : 67,
            "len" : 140583,
            "type" : "text/html",
            "dnsStart" : 0,
            "receiveLast" : 156.331999992952,
            "connectEnd" : 67,
            "sslStart" : -1,
            "sslEnd" : -1,
            "connectStart" : 0,
            "receivedTime" : "378.331999992952",
            "receiveFirst" : 155
         },
         "comps" : [
            {
               "s_time" : 248.261000000639,
               "id" : "r1_c1",
               "e_time" : -191173579.722,
               "type" : "evalhtml",
               "time" : -191173827.983
            },
            {
               "s_time" : 256.97700001183,
               "id" : "r1_c2",
               "e_time" : -191173579.722,
               "type" : "evalhtml",
               "time" : -191173836.699
            },
            {
               "type" : "evalhtml",
               "time" : -191173836.769,
               "id" : "r1_c3",
               "e_time" : -191173579.722,
               "s_time" : 257.046999991871
            },
            {
               "s_time" : 257.111000013538,
               "id" : "r1_c4",
               "e_time" : 411.833999998635,
               "type" : "evalhtml",
               "time" : 154.722999985097
            }
         ],
         "url" : "http://original.testbed.localhost/www.ok.ru/"
      }
   ],
   "deps" : [
      {
         "a1" : "comp_8",
         "id" : "dep1",
         "a2" : "r1_c2",
         "time" : -1
      },
      {
         "id" : "dep2",
         "a1" : "comp_9",
         "time" : -1,
         "a2" : "r1_c3"
      },
      {
         "a1" : "comp_10",
         "id" : "dep3",
         "time" : -1,
         "a2" : "r1_c4"
      }
   ]
}
