{
   "load_activity" : -1,
   "deps" : [
      {
         "id" : "dep1",
         "a1" : "r1_c1",
         "a2" : "download_17",
         "time" : -1
      },
      {
         "time" : 341.542000009212,
         "a2" : "download_16",
         "a1" : "r1_c1",
         "id" : "dep2"
      },
      {
         "id" : "dep3",
         "a1" : "r1_c1",
         "time" : 306.73999999999,
         "a2" : "download_15"
      },
      {
         "time" : 306.372999999439,
         "a2" : "download_14",
         "a1" : "r1_c1",
         "id" : "dep4"
      },
      {
         "id" : "dep5",
         "a1" : "r1_c1",
         "time" : 153.896000003442,
         "a2" : "download_13"
      },
      {
         "a2" : "download_12",
         "time" : 305.666000000201,
         "a1" : "r1_c1",
         "id" : "dep6"
      },
      {
         "a1" : "r1_c1",
         "id" : "dep7",
         "a2" : "download_11",
         "time" : 153.313000017078
      },
      {
         "id" : "dep8",
         "a1" : "r1_c1",
         "time" : 18.543000012869,
         "a2" : "download_10"
      },
      {
         "a2" : "download_9",
         "time" : 17.868000024464,
         "id" : "dep9",
         "a1" : "r1_c1"
      },
      {
         "a2" : "download_8",
         "time" : 17.514000006485,
         "id" : "dep10",
         "a1" : "r1_c1"
      },
      {
         "id" : "dep11",
         "a1" : "r1_c1",
         "a2" : "download_7",
         "time" : 17.747000005329
      },
      {
         "id" : "dep12",
         "a1" : "r1_c1",
         "time" : 17.63500002562,
         "a2" : "download_6"
      },
      {
         "a1" : "r1_c1",
         "id" : "dep13",
         "a2" : "download_5",
         "time" : 17.386000021361
      },
      {
         "time" : 17.227000003913,
         "a2" : "download_4",
         "id" : "dep14",
         "a1" : "r1_c1"
      },
      {
         "time" : 1.814000017475,
         "a2" : "download_3",
         "id" : "dep15",
         "a1" : "r1_c1"
      },
      {
         "a1" : "r1_c1",
         "id" : "dep16",
         "time" : 0.921000028028999,
         "a2" : "download_2"
      },
      {
         "time" : 0.777000008383993,
         "a2" : "download_1",
         "id" : "dep17",
         "a1" : "r1_c1"
      }
   ],
   "objs" : [
      {
         "id" : "r1",
         "download" : {
            "sendStart" : 30,
            "dnsEnd" : 0,
            "sslStart" : -1,
            "dns" : 0,
            "connectEnd" : 30,
            "s_time" : 0,
            "receiveFirst" : 153,
            "connectStart" : 0,
            "dnsStart" : 0,
            "receiveHeadersEnd" : 183,
            "receivedTime" : "194.703000015579",
            "id" : "download_0",
            "type" : "text/html",
            "receiveLast" : 11.7030000155792,
            "len" : 18670,
            "sendEnd" : 30,
            "sslEnd" : -1
         },
         "when_comp_start" : 1,
         "url" : "http://original.testbed.localhost/www.yahoo.co.jp/",
         "comps" : [
            {
               "e_time" : 536.683000012999,
               "time" : 341.823000024305,
               "s_time" : 194.859999988694,
               "id" : "r1_c1",
               "type" : "evalhtml"
            }
         ]
      },
      {
         "when_comp_start" : -1,
         "id" : "r2",
         "download" : {
            "dns" : 0,
            "sslStart" : -1,
            "connectEnd" : 0,
            "dnsEnd" : -1,
            "sendStart" : 0,
            "len" : 43,
            "receiveLast" : 309.387999996077,
            "sslEnd" : -1,
            "sendEnd" : 0,
            "dnsStart" : -1,
            "connectStart" : 0,
            "s_time" : 195.636999997078,
            "receiveFirst" : 152,
            "type" : "image/gif",
            "id" : "download_1",
            "receiveHeadersEnd" : 152,
            "receivedTime" : "461.387999996077"
         },
         "comps" : [],
         "url" : "http://original.testbed.localhost/k.yimg.jp/images/clear.gif"
      },
      {
         "when_comp_start" : -1,
         "id" : "r3",
         "download" : {
            "len" : 6135,
            "receiveLast" : 309.871000006795,
            "sslEnd" : -1,
            "sendEnd" : 0,
            "dnsStart" : -1,
            "connectStart" : 0,
            "receiveFirst" : 152,
            "s_time" : 195.781000016723,
            "id" : "download_2",
            "type" : "image/gif",
            "receiveHeadersEnd" : 152,
            "receivedTime" : "461.871000006795",
            "dns" : 0,
            "sslStart" : -1,
            "connectEnd" : 0,
            "sendStart" : 0,
            "dnsEnd" : -1
         },
         "comps" : [],
         "url" : "http://original.testbed.localhost/k.yimg.jp/images/top/sp/cgrade/logo-mh-151110.gif"
      },
      {
         "comps" : [],
         "url" : "http://original.testbed.localhost/k.yimg.jp/images/top/sp/cgrade/iconPhoto_150713.gif",
         "when_comp_start" : -1,
         "id" : "r4",
         "download" : {
            "dnsEnd" : -1,
            "sendStart" : 151,
            "dns" : 0,
            "sslStart" : -1,
            "connectEnd" : 151,
            "connectStart" : 0,
            "s_time" : 196.674000006169,
            "receiveFirst" : 152,
            "dnsStart" : -1,
            "receivedTime" : "500.487999990582",
            "receiveHeadersEnd" : 303,
            "type" : "image/gif",
            "id" : "download_3",
            "len" : 334,
            "receiveLast" : 197.487999990582,
            "sendEnd" : 151,
            "sslEnd" : -1
         }
      },
      {
         "url" : "http://original.testbed.localhost/k.yimg.jp/images/top/searchbox/s_w-140325.gif",
         "comps" : [],
         "download" : {
            "receiveHeadersEnd" : 288,
            "receivedTime" : "501.382000016747",
            "type" : "image/gif",
            "id" : "download_4",
            "receiveFirst" : 152,
            "s_time" : 212.086999992607,
            "connectStart" : 0,
            "dnsStart" : 0,
            "sendEnd" : 136,
            "sslEnd" : -1,
            "receiveLast" : 213.382000016747,
            "len" : 264,
            "dnsEnd" : 0,
            "sendStart" : 136,
            "connectEnd" : 136,
            "sslStart" : -1,
            "dns" : 0
         },
         "id" : "r5",
         "when_comp_start" : -1
      },
      {
         "url" : "http://original.testbed.localhost/k.yimg.jp/images/top/searchbox/s_i-140325.gif",
         "comps" : [],
         "id" : "r6",
         "download" : {
            "sslEnd" : -1,
            "sendEnd" : 136,
            "receiveLast" : 213.974999991944,
            "len" : 233,
            "id" : "download_5",
            "type" : "image/gif",
            "receivedTime" : "501.974999991944",
            "receiveHeadersEnd" : 288,
            "dnsStart" : -1,
            "receiveFirst" : 152,
            "s_time" : 212.246000010055,
            "connectStart" : 0,
            "connectEnd" : 136,
            "dns" : 0,
            "sslStart" : -1,
            "sendStart" : 136,
            "dnsEnd" : -1
         },
         "when_comp_start" : -1
      },
      {
         "url" : "http://original.testbed.localhost/k.yimg.jp/images/top/searchbox/s_d-140325.gif",
         "comps" : [],
         "id" : "r8",
         "download" : {
            "sendStart" : 171,
            "dnsEnd" : 20,
            "sslStart" : -1,
            "dns" : 0,
            "connectEnd" : 171,
            "connectStart" : 0,
            "s_time" : 212.495000014314,
            "receiveFirst" : 152,
            "dnsStart" : 20,
            "receivedTime" : "542.340000014519",
            "receiveHeadersEnd" : 323,
            "type" : "image/gif",
            "id" : "download_6",
            "len" : 225,
            "receiveLast" : 219.340000014519,
            "sendEnd" : 171,
            "sslEnd" : -1
         },
         "when_comp_start" : -1
      },
      {
         "when_comp_start" : -1,
         "id" : "r9",
         "download" : {
            "sendEnd" : 171,
            "sslEnd" : -1,
            "len" : 245,
            "receiveLast" : 219.472000000998,
            "receivedTime" : "542.472000000998",
            "receiveHeadersEnd" : 323,
            "type" : "image/gif",
            "id" : "download_7",
            "connectStart" : 0,
            "s_time" : 212.606999994023,
            "receiveFirst" : 152,
            "dnsStart" : 20,
            "connectEnd" : 171,
            "sslStart" : -1,
            "dns" : 0,
            "dnsEnd" : 20,
            "sendStart" : 171
         },
         "comps" : [],
         "url" : "http://original.testbed.localhost/k.yimg.jp/images/top/searchbox/s_k-140325.gif"
      },
      {
         "comps" : [],
         "url" : "http://original.testbed.localhost/k.yimg.jp/images/top/searchbox/s_m-140325.gif",
         "when_comp_start" : -1,
         "id" : "r7",
         "download" : {
            "sslStart" : -1,
            "dns" : 0,
            "connectEnd" : 171,
            "dnsEnd" : 20,
            "sendStart" : 171,
            "receiveLast" : 219.56400000304,
            "len" : 237,
            "sendEnd" : 171,
            "sslEnd" : -1,
            "receiveFirst" : 152,
            "s_time" : 212.373999995179,
            "connectStart" : 0,
            "dnsStart" : 20,
            "receiveHeadersEnd" : 323,
            "receivedTime" : "542.56400000304",
            "type" : "image/gif",
            "id" : "download_8"
         }
      },
      {
         "when_comp_start" : -1,
         "download" : {
            "dnsStart" : -1,
            "connectStart" : 0,
            "s_time" : 212.728000013158,
            "receiveFirst" : 151,
            "type" : "image/gif",
            "id" : "download_9",
            "receivedTime" : "652.904999995371",
            "receiveHeadersEnd" : 439,
            "len" : 237,
            "receiveLast" : 213.904999995371,
            "sslEnd" : -1,
            "sendEnd" : 288,
            "dnsEnd" : -1,
            "sendStart" : 288,
            "dns" : 0,
            "sslStart" : -1,
            "connectEnd" : 288
         },
         "id" : "r10",
         "comps" : [],
         "url" : "http://original.testbed.localhost/k.yimg.jp/images/top/searchbox/s_mp-140325.gif"
      },
      {
         "id" : "r11",
         "download" : {
            "connectStart" : 0,
            "receiveFirst" : 151,
            "s_time" : 213.403000001563,
            "dnsStart" : -1,
            "receivedTime" : "653.571000002557",
            "receiveHeadersEnd" : 439,
            "id" : "download_10",
            "type" : "image/gif",
            "len" : 362,
            "receiveLast" : 214.571000002557,
            "sendEnd" : 288,
            "sslEnd" : -1,
            "dnsEnd" : -1,
            "sendStart" : 288,
            "dns" : 0,
            "sslStart" : -1,
            "connectEnd" : 288
         },
         "when_comp_start" : -1,
         "url" : "http://original.testbed.localhost/k.yimg.jp/images/top/sp/cgrade/iconNew_150713.gif",
         "comps" : []
      },
      {
         "url" : "http://original.testbed.localhost/k.yimg.jp/images/top/sp/cgrade/iconVideo_150713.gif",
         "comps" : [],
         "download" : {
            "connectEnd" : 153,
            "sslStart" : -1,
            "dns" : 0,
            "sendStart" : 153,
            "dnsEnd" : -1,
            "sendEnd" : 153,
            "sslEnd" : -1,
            "receiveLast" : 348.698000009172,
            "len" : 183,
            "receivedTime" : "653.698000009172",
            "receiveHeadersEnd" : 305,
            "type" : "image/gif",
            "id" : "download_11",
            "s_time" : 348.173000005772,
            "receiveFirst" : 152,
            "connectStart" : 0,
            "dnsStart" : -1
         },
         "id" : "r12",
         "when_comp_start" : -1
      },
      {
         "id" : "r14",
         "download" : {
            "dns" : 0,
            "sslStart" : -1,
            "connectEnd" : 36,
            "sendStart" : 36,
            "dnsEnd" : -1,
            "receiveLast" : 501.317000011215,
            "len" : 229,
            "sslEnd" : -1,
            "sendEnd" : 36,
            "dnsStart" : -1,
            "s_time" : 500.525999988895,
            "receiveFirst" : 152,
            "connectStart" : 0,
            "id" : "download_12",
            "type" : "image/gif",
            "receivedTime" : "689.317000011215",
            "receiveHeadersEnd" : 188
         },
         "when_comp_start" : -1,
         "url" : "http://original.testbed.localhost/k.yimg.jp/images/top/sp/cgrade/info_btn-140325.gif",
         "comps" : []
      },
      {
         "download" : {
            "len" : 5557,
            "receiveLast" : 350.471000008984,
            "sendEnd" : 188,
            "sslEnd" : -1,
            "connectStart" : 0,
            "receiveFirst" : 152,
            "s_time" : 348.755999992136,
            "dnsStart" : -1,
            "receiveHeadersEnd" : 340,
            "receivedTime" : "690.471000008984",
            "type" : "image/jpeg",
            "id" : "download_13",
            "dns" : 0,
            "sslStart" : -1,
            "connectEnd" : 188,
            "dnsEnd" : -1,
            "sendStart" : 188
         },
         "id" : "r13",
         "when_comp_start" : -1,
         "url" : "http://original.testbed.localhost/lpt.c.yimg.jp/im_siggCMuSrmBw1_jsn6.QIdy1cQ---x120-y120/amd/20160508-00000002-khks-000-view.jpg",
         "comps" : []
      },
      {
         "download" : {
            "dnsStart" : -1,
            "connectStart" : 0,
            "s_time" : 501.232999988133,
            "receiveFirst" : 154,
            "type" : "image/gif",
            "id" : "download_14",
            "receivedTime" : "690.969999996014",
            "receiveHeadersEnd" : 189,
            "len" : 209,
            "receiveLast" : 501.969999996014,
            "sslEnd" : -1,
            "sendEnd" : 35,
            "dnsEnd" : -1,
            "sendStart" : 35,
            "dns" : 0,
            "sslStart" : -1,
            "connectEnd" : 35
         },
         "id" : "r15",
         "when_comp_start" : -1,
         "url" : "http://original.testbed.localhost/k.yimg.jp/images/top/sp/cgrade/iconMail.gif",
         "comps" : []
      },
      {
         "when_comp_start" : -1,
         "id" : "r16",
         "download" : {
            "dnsEnd" : -1,
            "sendStart" : 151,
            "sslStart" : -1,
            "dns" : 0,
            "connectEnd" : 151,
            "dnsStart" : -1,
            "s_time" : 501.599999988684,
            "receiveFirst" : 152,
            "connectStart" : 0,
            "type" : "image/gif",
            "id" : "download_15",
            "receiveHeadersEnd" : 303,
            "receivedTime" : "805.051000003004",
            "receiveLast" : 502.051000003004,
            "len" : 256,
            "sslEnd" : -1,
            "sendEnd" : 151
         },
         "comps" : [],
         "url" : "http://original.testbed.localhost/i.yimg.jp/images/sicons/box16.gif"
      },
      {
         "url" : "http://original.testbed.localhost/k.yimg.jp/images/top/sp/cgrade/icon_point.gif",
         "comps" : [],
         "download" : {
            "sslStart" : -1,
            "dns" : 0,
            "connectEnd" : 117,
            "dnsEnd" : -1,
            "sendStart" : 117,
            "receiveLast" : 537.741999996826,
            "len" : 100,
            "sslEnd" : -1,
            "sendEnd" : 117,
            "dnsStart" : -1,
            "receiveFirst" : 151,
            "s_time" : 536.401999997906,
            "connectStart" : 0,
            "type" : "image/gif",
            "id" : "download_16",
            "receiveHeadersEnd" : 268,
            "receivedTime" : "805.741999996826"
         },
         "id" : "r17",
         "when_comp_start" : -1
      },
      {
         "comps" : [],
         "url" : "http://original.testbed.localhost/k.yimg.jp/images/top/sp/cgrade/pb_bg.gif",
         "when_comp_start" : -1,
         "download" : {
            "receiveLast" : 537.866999988211,
            "len" : 94,
            "sslEnd" : -1,
            "sendEnd" : 117,
            "dnsStart" : -1,
            "receiveFirst" : 151,
            "s_time" : 536.683000012999,
            "connectStart" : 0,
            "type" : "image/gif",
            "id" : "download_17",
            "receivedTime" : "805.866999988211",
            "receiveHeadersEnd" : 268,
            "sslStart" : -1,
            "dns" : 0,
            "connectEnd" : 117,
            "dnsEnd" : -1,
            "sendStart" : 117
         },
         "id" : "r18"
      }
   ],
   "n_download_no_trigger" : 1,
   "start_activity" : "download_0",
   "name" : "original.testbed.localhost_www.yahoo.co.jp_"
}
