{
   "n_download_no_trigger" : 1,
   "start_activity" : "download_0",
   "name" : "original.testbed.localhost_www.ltconline.ca_",
   "load_activity" : -1,
   "objs" : [
      {
         "when_comp_start" : 1,
         "url" : "http://original.testbed.localhost/www.ltconline.ca/",
         "id" : "r1",
         "comps" : [
            {
               "s_time" : 100.541000000021,
               "time" : 775.374999999997,
               "id" : "r1_c1",
               "type" : "evalhtml",
               "e_time" : 875.916000000018
            },
            {
               "s_time" : 1442.58200000002,
               "time" : 0.365999999980204,
               "type" : "evalhtml",
               "id" : "r1_c2",
               "e_time" : 1442.948
            }
         ],
         "download" : {
            "receiveFirst" : 9,
            "len" : 30762,
            "dns" : 0,
            "dnsEnd" : -1,
            "receiveHeadersEnd" : 15,
            "sslEnd" : -1,
            "connectEnd" : 6,
            "connectStart" : 0,
            "id" : "download_0",
            "receivedTime" : "98.9840000000299",
            "sslStart" : -1,
            "dnsStart" : -1,
            "receiveLast" : 83.9840000000299,
            "s_time" : 0,
            "sendEnd" : 6,
            "sendStart" : 6,
            "type" : "text/html"
         }
      },
      {
         "when_comp_start" : -1,
         "url" : "http://original.testbed.localhost/www.ltconline.ca/ltc.css",
         "id" : "r2",
         "comps" : [
            {
               "s_time" : 124.863000000005,
               "time" : 78.797000000008,
               "type" : 4,
               "id" : "comp_0",
               "e_time" : 203.660000000013
            }
         ],
         "download" : {
            "receiveFirst" : 13,
            "len" : 1578,
            "dns" : 0,
            "dnsEnd" : -1,
            "receiveHeadersEnd" : 18,
            "sslEnd" : -1,
            "connectEnd" : 5,
            "connectStart" : 0,
            "id" : "download_1",
            "receivedTime" : "124.25300000001",
            "sslStart" : -1,
            "dnsStart" : -1,
            "receiveLast" : 106.25300000001,
            "s_time" : 102.372000000003,
            "sendEnd" : 5,
            "sendStart" : 5,
            "type" : "text/css"
         }
      },
      {
         "when_comp_start" : -1,
         "url" : "http://original.testbed.localhost/www.ltconline.ca/images/ltcbanner.jpg",
         "id" : "r3",
         "comps" : [],
         "download" : {
            "receiveFirst" : 16,
            "len" : 54765,
            "dns" : 0,
            "dnsEnd" : -1,
            "receiveHeadersEnd" : 21,
            "sslEnd" : -1,
            "connectEnd" : 4,
            "connectStart" : 0,
            "id" : "download_2",
            "receivedTime" : "482.682000000011",
            "sslStart" : -1,
            "dnsStart" : -1,
            "receiveLast" : 461.682000000011,
            "s_time" : 114.150999999993,
            "sendEnd" : 5,
            "sendStart" : 4,
            "type" : "image/jpeg"
         }
      },
      {
         "when_comp_start" : -1,
         "url" : "http://original.testbed.localhost/www.ltconline.ca/images/MyBusInfo_Icon.jpg",
         "id" : "r4",
         "comps" : [],
         "download" : {
            "receiveFirst" : 9,
            "len" : 8828,
            "dns" : 0,
            "dnsEnd" : -1,
            "receiveHeadersEnd" : 13,
            "sslEnd" : -1,
            "connectEnd" : 4,
            "connectStart" : 0,
            "id" : "download_3",
            "receivedTime" : "568.925000000036",
            "sslStart" : -1,
            "dnsStart" : -1,
            "receiveLast" : 555.925000000036,
            "s_time" : 248.504000000025,
            "sendEnd" : 4,
            "sendStart" : 4,
            "type" : "image/jpeg"
         }
      },
      {
         "when_comp_start" : -1,
         "url" : "http://original.testbed.localhost/www.ltconline.ca/images/WWicon.jpg",
         "id" : "r5",
         "comps" : [],
         "download" : {
            "receiveFirst" : 21,
            "len" : 8689,
            "dns" : 0,
            "dnsEnd" : -1,
            "receiveHeadersEnd" : 25,
            "sslEnd" : -1,
            "connectEnd" : 3,
            "connectStart" : 0,
            "id" : "download_4",
            "receivedTime" : "572.006999999985",
            "sslStart" : -1,
            "dnsStart" : -1,
            "receiveLast" : 547.006999999985,
            "s_time" : 255.738000000008,
            "sendEnd" : 4,
            "sendStart" : 3,
            "type" : "image/jpeg"
         }
      },
      {
         "when_comp_start" : -1,
         "url" : "http://original.testbed.localhost/www.ltconline.ca/images/drivingchangelogo.jpg",
         "id" : "r6",
         "comps" : [],
         "download" : {
            "receiveFirst" : 101,
            "len" : 6126,
            "dns" : 0,
            "dnsEnd" : -1,
            "receiveHeadersEnd" : 109,
            "sslEnd" : -1,
            "connectEnd" : 8,
            "connectStart" : 0,
            "id" : "download_5",
            "receivedTime" : "574.265000000025",
            "sslStart" : -1,
            "dnsStart" : -1,
            "receiveLast" : 465.265000000025,
            "s_time" : 267.71500000001,
            "sendEnd" : 8,
            "sendStart" : 8,
            "type" : "image/jpeg"
         }
      },
      {
         "when_comp_start" : -1,
         "url" : "http://original.testbed.localhost/www.ltconline.ca/images/SmartCard_Icon.png",
         "id" : "r7",
         "comps" : [],
         "download" : {
            "receiveFirst" : 154,
            "len" : 10940,
            "dns" : 0,
            "dnsEnd" : -1,
            "receiveHeadersEnd" : 192,
            "sslEnd" : -1,
            "connectEnd" : 38,
            "connectStart" : 0,
            "id" : "download_6",
            "receivedTime" : "928.513000000009",
            "sslStart" : -1,
            "dnsStart" : -1,
            "receiveLast" : 736.513000000009,
            "s_time" : 284.333000000004,
            "sendEnd" : 38,
            "sendStart" : 38,
            "type" : "image/png"
         }
      },
      {
         "when_comp_start" : -1,
         "url" : "http://original.testbed.localhost/www.ltconline.ca/images/BikeAndRide.jpg",
         "id" : "r8",
         "comps" : [],
         "download" : {
            "receiveFirst" : 147,
            "len" : 8833,
            "dns" : 0,
            "dnsEnd" : -1,
            "receiveHeadersEnd" : 212,
            "sslEnd" : -1,
            "connectEnd" : 64,
            "connectStart" : 0,
            "id" : "download_7",
            "receivedTime" : "975.693000000035",
            "sslStart" : -1,
            "dnsStart" : -1,
            "receiveLast" : 763.693000000035,
            "s_time" : 315.994999999987,
            "sendEnd" : 65,
            "sendStart" : 64,
            "type" : "image/jpeg"
         }
      },
      {
         "when_comp_start" : -1,
         "url" : "http://original.testbed.localhost/www.ltconline.ca/images/PrioritySeating_Icon.png",
         "id" : "r9",
         "comps" : [],
         "download" : {
            "receiveFirst" : 137,
            "len" : 6489,
            "dns" : 0,
            "dnsEnd" : 64,
            "receiveHeadersEnd" : 216,
            "sslEnd" : -1,
            "connectEnd" : 78,
            "connectStart" : 0,
            "id" : "download_8",
            "receivedTime" : "1034.897",
            "sslStart" : -1,
            "dnsStart" : 64,
            "receiveLast" : 818.897000000001,
            "s_time" : 322.051999999985,
            "sendEnd" : 79,
            "sendStart" : 78,
            "type" : "image/png"
         }
      },
      {
         "when_comp_start" : -1,
         "url" : "http://original.testbed.localhost/www.ltconline.ca/images/ServNotes.jpg",
         "id" : "r10",
         "comps" : [],
         "download" : {
            "receiveFirst" : 469,
            "len" : 6173,
            "dns" : 0,
            "dnsEnd" : 62,
            "receiveHeadersEnd" : 543,
            "sslEnd" : -1,
            "connectEnd" : 74,
            "connectStart" : 0,
            "id" : "download_9",
            "receivedTime" : "1050.76700000001",
            "sslStart" : -1,
            "dnsStart" : 62,
            "receiveLast" : 507.767000000008,
            "s_time" : 327.438000000029,
            "sendEnd" : 74,
            "sendStart" : 74,
            "type" : "image/jpeg"
         }
      },
      {
         "when_comp_start" : -1,
         "url" : "http://original.testbed.localhost/www.ltconline.ca/images/IndexHeader1.png",
         "id" : "r11",
         "comps" : [],
         "download" : {
            "receiveFirst" : 520,
            "len" : 6221,
            "dns" : 0,
            "dnsEnd" : 52,
            "receiveHeadersEnd" : 580,
            "sslEnd" : -1,
            "connectEnd" : 60,
            "connectStart" : 0,
            "id" : "download_10",
            "receivedTime" : "1137.86399999998",
            "sslStart" : -1,
            "dnsStart" : 52,
            "receiveLast" : 557.863999999979,
            "s_time" : 338.24199999998,
            "sendEnd" : 60,
            "sendStart" : 60,
            "type" : "image/png"
         }
      },
      {
         "when_comp_start" : -1,
         "url" : "http://original.testbed.localhost/www.ltconline.ca/images/PlanYourTripWith.png",
         "id" : "r12",
         "comps" : [],
         "download" : {
            "receiveFirst" : 525,
            "len" : 2055,
            "dns" : 0,
            "dnsEnd" : -1,
            "receiveHeadersEnd" : 666,
            "sslEnd" : -1,
            "connectEnd" : 141,
            "connectStart" : 0,
            "id" : "download_11",
            "receivedTime" : "1130.26500000001",
            "sslStart" : -1,
            "dnsStart" : -1,
            "receiveLast" : 464.265000000009,
            "s_time" : 341.232999999988,
            "sendEnd" : 141,
            "sendStart" : 141,
            "type" : "image/png"
         }
      },
      {
         "when_comp_start" : -1,
         "url" : "http://original.testbed.localhost/www.statcounter.com/counter/counter.js",
         "id" : "r18",
         "comps" : [
            {
               "s_time" : 1331.254,
               "time" : 111.32800000002,
               "type" : 1,
               "id" : "comp_6",
               "e_time" : 1442.58200000002
            }
         ],
         "download" : {
            "receiveFirst" : 428,
            "len" : 21400,
            "dns" : 0,
            "dnsEnd" : -1,
            "receiveHeadersEnd" : 838,
            "sslEnd" : -1,
            "connectEnd" : 410,
            "connectStart" : 0,
            "id" : "download_12",
            "receivedTime" : "1330.735",
            "sslStart" : -1,
            "dnsStart" : -1,
            "receiveLast" : 492.735000000004,
            "s_time" : 466.995999999995,
            "sendEnd" : 410,
            "sendStart" : 410,
            "type" : "application/javascript"
         }
      },
      {
         "when_comp_start" : -1,
         "url" : "http://original.testbed.localhost/www.google.com/images/logos/maps_logo_sm.gif",
         "id" : "r13",
         "comps" : [],
         "download" : {
            "receiveFirst" : 342,
            "len" : 2499,
            "dns" : 0,
            "dnsEnd" : -1,
            "receiveHeadersEnd" : 971,
            "sslEnd" : -1,
            "connectEnd" : 629,
            "connectStart" : 0,
            "id" : "download_13",
            "receivedTime" : "1327.653",
            "sslStart" : -1,
            "dnsStart" : -1,
            "receiveLast" : 356.652999999998,
            "s_time" : 342.118000000028,
            "sendEnd" : 629,
            "sendStart" : 629,
            "type" : "image/gif"
         }
      },
      {
         "when_comp_start" : -1,
         "url" : "http://original.testbed.localhost/maps.google.com/intl/en_us/mapfiles/dd-icon-start.gif",
         "id" : "r14",
         "comps" : [],
         "download" : {
            "receiveFirst" : 289,
            "len" : 209,
            "dns" : 0,
            "dnsEnd" : -1,
            "receiveHeadersEnd" : 976,
            "sslEnd" : -1,
            "connectEnd" : 687,
            "connectStart" : 0,
            "id" : "download_14",
            "receivedTime" : "1501.45000000003",
            "sslStart" : -1,
            "dnsStart" : -1,
            "receiveLast" : 525.450000000034,
            "s_time" : 342.940999999996,
            "sendEnd" : 687,
            "sendStart" : 687,
            "type" : "image/gif"
         }
      },
      {
         "when_comp_start" : -1,
         "url" : "http://original.testbed.localhost/maps.google.com/intl/en_us/mapfiles/dd-icon-dest.gif",
         "id" : "r15",
         "comps" : [],
         "download" : {
            "receiveFirst" : 275,
            "len" : 208,
            "dns" : 0,
            "dnsEnd" : -1,
            "receiveHeadersEnd" : 977,
            "sslEnd" : -1,
            "connectEnd" : 702,
            "connectStart" : 0,
            "id" : "download_15",
            "receivedTime" : "1502.88399999999",
            "sslStart" : -1,
            "dnsStart" : -1,
            "receiveLast" : 525.883999999995,
            "s_time" : 344.268999999997,
            "sendEnd" : 702,
            "sendStart" : 702,
            "type" : "image/gif"
         }
      },
      {
         "when_comp_start" : -1,
         "url" : "http://original.testbed.localhost/www.ltconline.ca/images/IndexHeader2.png",
         "id" : "r16",
         "comps" : [],
         "download" : {
            "receiveFirst" : 204,
            "len" : 6659,
            "dns" : 0,
            "dnsEnd" : -1,
            "receiveHeadersEnd" : 849,
            "sslEnd" : -1,
            "connectEnd" : 645,
            "connectStart" : 0,
            "id" : "download_16",
            "receivedTime" : "1504.929",
            "sslStart" : -1,
            "dnsStart" : -1,
            "receiveLast" : 655.929000000004,
            "s_time" : 483.308000000022,
            "sendEnd" : 645,
            "sendStart" : 645,
            "type" : "image/png"
         }
      },
      {
         "when_comp_start" : -1,
         "url" : "http://original.testbed.localhost/www.ltconline.ca/images/IndexHeader3.png",
         "id" : "r17",
         "comps" : [],
         "download" : {
            "receiveFirst" : 193,
            "len" : 5594,
            "dns" : 0,
            "dnsEnd" : -1,
            "receiveHeadersEnd" : 457,
            "sslEnd" : -1,
            "connectEnd" : 264,
            "connectStart" : 0,
            "id" : "download_17",
            "receivedTime" : "1505.81399999999",
            "sslStart" : -1,
            "dnsStart" : -1,
            "receiveLast" : 1048.81399999999,
            "s_time" : 875.916000000018,
            "sendEnd" : 264,
            "sendStart" : 264,
            "type" : "image/png"
         }
      }
   ],
   "deps" : [
      {
         "a2" : "r1_c2",
         "time" : -1,
         "id" : "dep1",
         "a1" : "comp_6"
      },
      {
         "a2" : "download_17",
         "time" : -1,
         "id" : "dep2",
         "a1" : "r1_c1"
      },
      {
         "a2" : "download_16",
         "time" : 382.767000000001,
         "id" : "dep3",
         "a1" : "r1_c1"
      },
      {
         "a2" : "download_15",
         "time" : 243.727999999976,
         "id" : "dep4",
         "a1" : "r1_c1"
      },
      {
         "a2" : "download_14",
         "time" : 242.399999999975,
         "id" : "dep5",
         "a1" : "r1_c1"
      },
      {
         "a2" : "download_13",
         "time" : 241.577000000007,
         "id" : "dep6",
         "a1" : "r1_c1"
      },
      {
         "a2" : "download_12",
         "time" : 366.454999999974,
         "id" : "dep7",
         "a1" : "r1_c1"
      },
      {
         "a2" : "download_11",
         "time" : 240.691999999967,
         "id" : "dep8",
         "a1" : "r1_c1"
      },
      {
         "a2" : "download_10",
         "time" : 237.700999999959,
         "id" : "dep9",
         "a1" : "r1_c1"
      },
      {
         "a2" : "download_9",
         "time" : 226.897000000008,
         "id" : "dep10",
         "a1" : "r1_c1"
      },
      {
         "a2" : "download_8",
         "time" : 221.510999999964,
         "id" : "dep11",
         "a1" : "r1_c1"
      },
      {
         "a2" : "download_7",
         "time" : 215.453999999966,
         "id" : "dep12",
         "a1" : "r1_c1"
      },
      {
         "a2" : "download_6",
         "time" : 183.791999999983,
         "id" : "dep13",
         "a1" : "r1_c1"
      },
      {
         "a2" : "download_5",
         "time" : 167.173999999989,
         "id" : "dep14",
         "a1" : "r1_c1"
      },
      {
         "a2" : "download_4",
         "time" : 155.196999999987,
         "id" : "dep15",
         "a1" : "r1_c1"
      },
      {
         "a2" : "download_3",
         "time" : 147.963000000004,
         "id" : "dep16",
         "a1" : "r1_c1"
      },
      {
         "a2" : "download_2",
         "time" : 13.609999999972,
         "id" : "dep17",
         "a1" : "r1_c1"
      },
      {
         "a2" : "download_2",
         "time" : 13.609999999972,
         "id" : "dep18",
         "a1" : "r1_c1"
      },
      {
         "a2" : "download_1",
         "time" : 1.830999999982,
         "id" : "dep19",
         "a1" : "r1_c1"
      }
   ]
}
