{
   "n_download_no_trigger" : 1,
   "start_activity" : "download_0",
   "name" : "original.testbed.localhost_www.weibo.com_",
   "load_activity" : -1,
   "objs" : [
      {
         "when_comp_start" : 1,
         "url" : "http://original.testbed.localhost/www.weibo.com/",
         "id" : "r1",
         "comps" : [
            {
               "s_time" : 125.655999989249,
               "time" : 2.83900000795201,
               "id" : "r1_c1",
               "type" : "evalhtml",
               "e_time" : 128.494999997201
            },
            {
               "s_time" : 212.234999999055,
               "time" : 2.16699999873501,
               "type" : "evalhtml",
               "id" : "r1_c2",
               "e_time" : 214.40199999779
            }
         ],
         "download" : {
            "receiveFirst" : 7,
            "len" : 5666,
            "dns" : 0,
            "dnsEnd" : -1,
            "receiveHeadersEnd" : 12,
            "sslEnd" : -1,
            "connectEnd" : 4,
            "connectStart" : 0,
            "id" : "download_0",
            "receivedTime" : "15.3659999923548",
            "sslStart" : -1,
            "dnsStart" : -1,
            "receiveLast" : 3.36599999235477,
            "s_time" : 0,
            "sendEnd" : 5,
            "sendStart" : 4,
            "type" : "text/html"
         }
      },
      {
         "when_comp_start" : -1,
         "url" : "http://original.testbed.localhost/passport.weibo.com/js/visitor/mini.js",
         "id" : "r2",
         "comps" : [
            {
               "s_time" : 164.718999993056,
               "time" : 47.516000005999,
               "type" : 1,
               "id" : "comp_0",
               "e_time" : 212.234999999055
            }
         ],
         "download" : {
            "receiveFirst" : 8,
            "len" : 27244,
            "dns" : 0,
            "dnsEnd" : -1,
            "receiveHeadersEnd" : 19,
            "sslEnd" : -1,
            "connectEnd" : 11,
            "connectStart" : 0,
            "id" : "download_1",
            "receivedTime" : "164.169999989099",
            "sslStart" : -1,
            "dnsStart" : -1,
            "receiveLast" : 145.169999989099,
            "s_time" : 128.494999997201,
            "sendEnd" : 11,
            "sendStart" : 11,
            "type" : "application/javascript"
         }
      }
   ],
   "deps" : [
      {
         "a2" : "r1_c2",
         "time" : -1,
         "id" : "dep1",
         "a1" : "comp_0"
      },
      {
         "a2" : "download_1",
         "time" : -1,
         "id" : "dep2",
         "a1" : "r1_c1"
      }
   ]
}
