{
   "n_download_no_trigger" : 1,
   "start_activity" : "download_0",
   "name" : "original.testbed.localhost_www.ft.com_",
   "load_activity" : -1,
   "objs" : [
      {
         "when_comp_start" : 1,
         "url" : "http://original.testbed.localhost/www.ft.com/",
         "id" : "r1",
         "comps" : [
            {
               "s_time" : 166.900999989593,
               "time" : 9.948999999324,
               "type" : "evalhtml",
               "id" : "r1_c1",
               "e_time" : 176.849999988917
            }
         ],
         "download" : {
            "receiveFirst" : 13,
            "len" : 1109,
            "dns" : 0,
            "dnsEnd" : -1,
            "receiveHeadersEnd" : 17,
            "sslEnd" : -1,
            "connectEnd" : 4,
            "connectStart" : 0,
            "id" : "download_0",
            "receivedTime" : "37.5979999953415",
            "sslStart" : -1,
            "dnsStart" : -1,
            "receiveLast" : 20.5979999953415,
            "s_time" : 0,
            "sendEnd" : 4,
            "sendStart" : 4,
            "type" : "text/html"
         }
      },
      {
         "when_comp_start" : -1,
         "url" : "http://original.testbed.localhost/icons/blank.gif",
         "id" : "r2",
         "comps" : [],
         "download" : {
            "receiveFirst" : 34,
            "len" : 148,
            "dns" : 0,
            "dnsEnd" : -1,
            "receiveHeadersEnd" : 46,
            "sslEnd" : -1,
            "connectEnd" : 12,
            "connectStart" : 0,
            "id" : "download_1",
            "receivedTime" : "226.134999989881",
            "sslStart" : -1,
            "dnsStart" : -1,
            "receiveLast" : 180.134999989881,
            "s_time" : 171.233999994001,
            "sendEnd" : 12,
            "sendStart" : 12,
            "type" : "image/gif"
         }
      },
      {
         "when_comp_start" : -1,
         "url" : "http://original.testbed.localhost/icons/back.gif",
         "id" : "r3",
         "comps" : [],
         "download" : {
            "receiveFirst" : 35,
            "len" : 216,
            "dns" : 0,
            "dnsEnd" : -1,
            "receiveHeadersEnd" : 49,
            "sslEnd" : -1,
            "connectEnd" : 13,
            "connectStart" : 0,
            "id" : "download_2",
            "receivedTime" : "231.2619999866",
            "sslStart" : -1,
            "dnsStart" : -1,
            "receiveLast" : 182.2619999866,
            "s_time" : 173.400999992737,
            "sendEnd" : 14,
            "sendStart" : 13,
            "type" : "image/gif"
         }
      },
      {
         "when_comp_start" : -1,
         "url" : "http://original.testbed.localhost/icons/folder.gif",
         "id" : "r4",
         "comps" : [],
         "download" : {
            "receiveFirst" : 40,
            "len" : 225,
            "dns" : 0,
            "dnsEnd" : 22,
            "receiveHeadersEnd" : 68,
            "sslEnd" : -1,
            "connectEnd" : 28,
            "connectStart" : 0,
            "id" : "download_3",
            "receivedTime" : "247.06999999762",
            "sslStart" : -1,
            "dnsStart" : 22,
            "receiveLast" : 179.06999999762,
            "s_time" : 175.109999996494,
            "sendEnd" : 28,
            "sendStart" : 28,
            "type" : "image/gif"
         }
      }
   ],
   "deps" : [
      {
         "a2" : "download_3",
         "time" : 8.20900000690099,
         "id" : "dep1",
         "a1" : "r1_c1"
      },
      {
         "a2" : "download_2",
         "time" : 6.50000000314401,
         "id" : "dep2",
         "a1" : "r1_c1"
      },
      {
         "a2" : "download_1",
         "time" : 4.33300000440801,
         "id" : "dep3",
         "a1" : "r1_c1"
      }
   ]
}
