{
   "n_download_no_trigger" : 1,
   "start_activity" : "download_0",
   "name" : "original.testbed.localhost_www.ask.com_",
   "load_activity" : -1,
   "objs" : [
      {
         "when_comp_start" : 1,
         "url" : "http://original.testbed.localhost/www.ask.com/",
         "id" : "r1",
         "comps" : [
            {
               "s_time" : 25.9339999174699,
               "time" : 206.836000084877,
               "id" : "r1_c1",
               "type" : "evalhtml",
               "e_time" : 232.770000002347
            },
            {
               "s_time" : 1764.29299998563,
               "time" : -986652346.843,
               "id" : "r1_c2",
               "type" : "evalhtml",
               "e_time" : -986650582.55
            },
            {
               "s_time" : 1765.20499994513,
               "time" : -986652347.755,
               "id" : "r1_c3",
               "type" : "evalhtml",
               "e_time" : -986650582.55
            },
            {
               "s_time" : 1770.99699992687,
               "time" : 83.37200002279,
               "type" : "evalhtml",
               "id" : "r1_c4",
               "e_time" : 1854.36899994966
            }
         ],
         "download" : {
            "receiveFirst" : 9,
            "len" : 41329,
            "dns" : 0,
            "dnsEnd" : -1,
            "receiveHeadersEnd" : 9,
            "sslEnd" : -1,
            "connectEnd" : 0,
            "connectStart" : 0,
            "id" : "download_0",
            "receivedTime" : "120.920999906957",
            "sslStart" : -1,
            "dnsStart" : -1,
            "receiveLast" : 111.920999906957,
            "s_time" : 0,
            "sendEnd" : 0,
            "sendStart" : 0,
            "type" : "text/html"
         }
      },
      {
         "when_comp_start" : -1,
         "url" : "http://original.testbed.localhost/sp.ask.com/sh/i/images/homepage-sprite-1.0.2.png",
         "id" : "r3",
         "comps" : [],
         "download" : {
            "receiveFirst" : 106,
            "len" : 7056,
            "dns" : 0,
            "dnsEnd" : -1,
            "receiveHeadersEnd" : 106,
            "sslEnd" : -1,
            "connectEnd" : 0,
            "connectStart" : 0,
            "id" : "download_1",
            "receivedTime" : "220.751999993809",
            "sslStart" : -1,
            "dnsStart" : -1,
            "receiveLast" : 114.751999993809,
            "s_time" : 27.8129999060184,
            "sendEnd" : 0,
            "sendStart" : 0,
            "type" : "image/png"
         }
      },
      {
         "when_comp_start" : -1,
         "url" : "http://original.testbed.localhost/www.ask.com/st/c/css/ask_home.min.343c9b0a.css",
         "id" : "r2",
         "comps" : [
            {
               "s_time" : 221.068999962881,
               "time" : 15.161999966949,
               "type" : 4,
               "id" : "comp_7",
               "e_time" : 236.23099992983
            }
         ],
         "download" : {
            "receiveFirst" : 169,
            "len" : 10120,
            "dns" : 0,
            "dnsEnd" : -1,
            "receiveHeadersEnd" : 169,
            "sslEnd" : -1,
            "connectEnd" : 0,
            "connectStart" : 0,
            "id" : "download_2",
            "receivedTime" : "220.967999892309",
            "sslStart" : -1,
            "dnsStart" : -1,
            "receiveLast" : 51.9679998923093,
            "s_time" : 27.144999941811,
            "sendEnd" : 0,
            "sendStart" : 0,
            "type" : "text/css"
         }
      },
      {
         "when_comp_start" : -1,
         "url" : "http://original.testbed.localhost/cx.aos.ask.com/question/aq/300px-300px/kind-sugar-used-make-cotton-candy_66e54d85178991f9.jpg",
         "id" : "r4",
         "comps" : [],
         "download" : {
            "receiveFirst" : 177,
            "len" : 7920,
            "dns" : 0,
            "dnsEnd" : -1,
            "receiveHeadersEnd" : 178,
            "sslEnd" : -1,
            "connectEnd" : 1,
            "connectStart" : 0,
            "id" : "download_3",
            "receivedTime" : "312.064999947324",
            "sslStart" : -1,
            "dnsStart" : -1,
            "receiveLast" : 134.064999947324,
            "s_time" : 49.165999982506,
            "sendEnd" : 1,
            "sendStart" : 1,
            "type" : "image/jpeg"
         }
      },
      {
         "when_comp_start" : -1,
         "url" : "http://original.testbed.localhost/cx.aos.ask.com/question/aq/300px-300px/can-dogs-eat-ice-cream_f07c629d34b8b9f2.jpg",
         "id" : "r5",
         "comps" : [],
         "download" : {
            "receiveFirst" : 238,
            "len" : 10015,
            "dns" : 0,
            "dnsEnd" : -1,
            "receiveHeadersEnd" : 238,
            "sslEnd" : -1,
            "connectEnd" : 0,
            "connectStart" : 0,
            "id" : "download_4",
            "receivedTime" : "380.775999976322",
            "sslStart" : -1,
            "dnsStart" : -1,
            "receiveLast" : 142.775999976322,
            "s_time" : 49.4379999581724,
            "sendEnd" : 0,
            "sendStart" : 0,
            "type" : "image/jpeg"
         }
      },
      {
         "when_comp_start" : -1,
         "url" : "http://original.testbed.localhost/www.ask.com/st/c/js/ask_home.min.303129f5.js",
         "id" : "r7",
         "comps" : [
            {
               "s_time" : 1728.56199997477,
               "time" : 35.73100001086,
               "type" : 1,
               "id" : "comp_14",
               "e_time" : 1764.29299998563
            }
         ],
         "download" : {
            "receiveFirst" : 263,
            "len" : 122247,
            "dns" : 0,
            "dnsEnd" : -1,
            "receiveHeadersEnd" : 287,
            "sslEnd" : -1,
            "connectEnd" : 24,
            "connectStart" : 0,
            "id" : "download_5",
            "receivedTime" : "1728.41699991841",
            "sslStart" : -1,
            "dnsStart" : -1,
            "receiveLast" : 1441.41699991841,
            "s_time" : 97.2699999110773,
            "sendEnd" : 24,
            "sendStart" : 24,
            "type" : "application/javascript"
         }
      },
      {
         "when_comp_start" : -1,
         "url" : "http://original.testbed.localhost/sp.ask.com/sh/ads/ads.js",
         "id" : "r8",
         "comps" : [
            {
               "s_time" : 1764.83100000769,
               "time" : 0.373999937440203,
               "type" : 1,
               "id" : "comp_17",
               "e_time" : 1765.20499994513
            }
         ],
         "download" : {
            "receiveFirst" : 314,
            "len" : 21,
            "dns" : 0,
            "dnsEnd" : -1,
            "receiveHeadersEnd" : 436,
            "sslEnd" : -1,
            "connectEnd" : 122,
            "connectStart" : 0,
            "id" : "download_6",
            "receivedTime" : "535.122999921441",
            "sslStart" : -1,
            "dnsStart" : -1,
            "receiveLast" : 99.1229999214411,
            "s_time" : 97.4609999684617,
            "sendEnd" : 122,
            "sendStart" : 122,
            "type" : "application/javascript"
         }
      },
      {
         "when_comp_start" : -1,
         "url" : "http://original.testbed.localhost/www.ask.com/st/c/js/ask_unified.min.c7f61e55.js",
         "id" : "r9",
         "comps" : [
            {
               "s_time" : 1765.5959998956,
               "time" : 5.40100003127009,
               "type" : 1,
               "id" : "comp_20",
               "e_time" : 1770.99699992687
            }
         ],
         "download" : {
            "receiveFirst" : 317,
            "len" : 14839,
            "dns" : 0,
            "dnsEnd" : -1,
            "receiveHeadersEnd" : 440,
            "sslEnd" : -1,
            "connectEnd" : 123,
            "connectStart" : 0,
            "id" : "download_7",
            "receivedTime" : "910.638999892399",
            "sslStart" : -1,
            "dnsStart" : -1,
            "receiveLast" : 470.638999892399,
            "s_time" : 97.6129999617115,
            "sendEnd" : 123,
            "sendStart" : 123,
            "type" : "application/javascript"
         }
      },
      {
         "when_comp_start" : -1,
         "url" : "http://original.testbed.localhost/cx.aos.ask.com/question/aq/300px-300px/long-sugar-rush-last_d04934f02b36bdba.jpg",
         "id" : "r6",
         "comps" : [],
         "download" : {
            "receiveFirst" : 344,
            "len" : 7187,
            "dns" : 0,
            "dnsEnd" : 0,
            "receiveHeadersEnd" : 519,
            "sslEnd" : -1,
            "connectEnd" : 175,
            "connectStart" : 0,
            "id" : "download_8",
            "receivedTime" : "629.855999955907",
            "sslStart" : -1,
            "dnsStart" : 0,
            "receiveLast" : 110.855999955907,
            "s_time" : 49.6359999524429,
            "sendEnd" : 175,
            "sendStart" : 175,
            "type" : "image/jpeg"
         }
      },
      {
         "when_comp_start" : -1,
         "url" : "http://original.testbed.localhost/cx.aos.ask.com/question/28fa25c496d170c747bad135552197da/aq/invented-cotton-candy-machine_2f20a7b5228dafb9_gOmF1RmuTYGK-Pr-XalPQw.jpg",
         "id" : "r10",
         "comps" : [],
         "download" : {
            "receiveFirst" : 328,
            "len" : 89658,
            "dns" : 0,
            "dnsEnd" : -1,
            "receiveHeadersEnd" : 407,
            "sslEnd" : -1,
            "connectEnd" : 79,
            "connectStart" : 0,
            "id" : "download_9",
            "receivedTime" : "1692.39699991886",
            "sslStart" : -1,
            "dnsStart" : -1,
            "receiveLast" : 1285.39699991886,
            "s_time" : 232.770000002347,
            "sendEnd" : 79,
            "sendStart" : 79,
            "type" : "image/jpeg"
         }
      },
      {
         "when_comp_start" : 1,
         "url" : "http://original.testbed.localhost/ulog?anxuu=7E6886D4-E1C4-42DF-9A76-2B08F5F73F5D&anxa=T2_AskUS&anxv=90f062d&anxd=2015-09-12T00%3A22%3A00Z&anxsn=askus037iad.io.askjeeves.info&anxu=http%3A%2F%2Foriginal.testbed.localhost%2Fwww.ask.com%2F&anxl=en-US&anxlv=0&anxrd=none&anxrk=-&anxsq=2&pl_cm=true&anxi=3",
         "id" : "r11",
         "comps" : [],
         "download" : {
            "receiveFirst" : 7,
            "len" : 294,
            "dns" : 0,
            "dnsEnd" : -1,
            "receiveHeadersEnd" : 7,
            "sslEnd" : -1,
            "connectEnd" : 0,
            "connectStart" : 0,
            "id" : "download_10",
            "receivedTime" : "1927.86499997601",
            "sslStart" : -1,
            "dnsStart" : -1,
            "receiveLast" : 1920.86499997601,
            "s_time" : 1775.58099990711,
            "sendEnd" : 0,
            "sendStart" : 0,
            "type" : "text/html"
         }
      },
      {
         "when_comp_start" : -1,
         "url" : "http://tags.crwdcntrl.net/c/4737/cc.js?ns=_cc4737",
         "id" : "r15",
         "comps" : [
            {
               "s_time" : 1929.92799996864,
               "time" : 12.2679999330999,
               "type" : null,
               "id" : "comp_77",
               "e_time" : 1942.19599990174
            }
         ],
         "download" : {
            "receiveFirst" : 9,
            "len" : 65862,
            "dns" : 10,
            "dnsEnd" : 10,
            "receiveHeadersEnd" : 28,
            "sslEnd" : -1,
            "connectEnd" : 19,
            "connectStart" : 0,
            "id" : "download_11",
            "receivedTime" : "1929.25199994352",
            "sslStart" : -1,
            "dnsStart" : 0,
            "receiveLast" : 1901.25199994352,
            "s_time" : 1779.54999997746,
            "sendEnd" : 19,
            "sendStart" : 19,
            "type" : "application/x-javascript"
         }
      },
      {
         "when_comp_start" : -1,
         "url" : "http://b.scorecardresearch.com/beacon.js",
         "id" : "r14",
         "comps" : [
            {
               "s_time" : 1942.54499999806,
               "time" : 2.49699992128012,
               "type" : null,
               "id" : "comp_80",
               "e_time" : 1945.04199991934
            }
         ],
         "download" : {
            "receiveFirst" : 121,
            "len" : 1900,
            "dns" : 10,
            "dnsEnd" : 10,
            "receiveHeadersEnd" : 140,
            "sslEnd" : -1,
            "connectEnd" : 19,
            "connectStart" : 0,
            "id" : "download_12",
            "receivedTime" : "1929.6659999527",
            "sslStart" : -1,
            "dnsStart" : 0,
            "receiveLast" : 1789.6659999527,
            "s_time" : 1778.57699990273,
            "sendEnd" : 19,
            "sendStart" : 19,
            "type" : "application/x-javascript"
         }
      },
      {
         "when_comp_start" : -1,
         "url" : "http://ad.crwdcntrl.net/5/c=4736/pe=y/var=ccauds",
         "id" : "r12",
         "comps" : [
            {
               "s_time" : 1945.73599996511,
               "time" : 0.512999948109837,
               "type" : null,
               "id" : "comp_82",
               "e_time" : 1946.24899991322
            }
         ],
         "download" : {
            "receiveFirst" : 128,
            "len" : 70,
            "dns" : 10,
            "dnsEnd" : 10,
            "receiveHeadersEnd" : 154,
            "sslEnd" : -1,
            "connectEnd" : 26,
            "connectStart" : 0,
            "id" : "download_13",
            "receivedTime" : "1945.42399991769",
            "sslStart" : -1,
            "dnsStart" : 0,
            "receiveLast" : 1791.42399991769,
            "s_time" : 1777.37899997737,
            "sendEnd" : 26,
            "sendStart" : 26,
            "type" : "application/javascript"
         }
      },
      {
         "when_comp_start" : -1,
         "url" : "http://asset.pagefair.com/measure.min.js",
         "id" : "r16",
         "comps" : [
            {
               "s_time" : 1969.10200000275,
               "time" : 9.19999997131004,
               "type" : null,
               "id" : "comp_85",
               "e_time" : 1978.30199997406
            }
         ],
         "download" : {
            "receiveFirst" : 9,
            "len" : 10761,
            "dns" : 80,
            "dnsEnd" : 80,
            "receiveHeadersEnd" : 98,
            "sslEnd" : -1,
            "connectEnd" : 89,
            "connectStart" : 0,
            "id" : "download_14",
            "receivedTime" : "1968.88599998783",
            "sslStart" : -1,
            "dnsStart" : 0,
            "receiveLast" : 1870.88599998783,
            "s_time" : 1854.36899994966,
            "sendEnd" : 89,
            "sendStart" : 89,
            "type" : "application/x-javascript"
         }
      },
      {
         "when_comp_start" : -1,
         "url" : "http://www.google-analytics.com/ga.js",
         "id" : "r13",
         "comps" : [
            {
               "s_time" : 2120.5829998944,
               "time" : 85.05600003991,
               "type" : null,
               "id" : "comp_91",
               "e_time" : 2205.63899993431
            }
         ],
         "download" : {
            "receiveFirst" : 58,
            "len" : 41100,
            "dns" : 10,
            "dnsEnd" : 10,
            "receiveHeadersEnd" : 210,
            "sslEnd" : -1,
            "connectEnd" : 152,
            "connectStart" : 0,
            "id" : "download_15",
            "receivedTime" : "2120.23299990688",
            "sslStart" : -1,
            "dnsStart" : 0,
            "receiveLast" : 1910.23299990688,
            "s_time" : 1778.09699997306,
            "sendEnd" : 152,
            "sendStart" : 152,
            "type" : "text/javascript"
         }
      },
      {
         "when_comp_start" : -1,
         "url" : "http://asset.pagefair.com/adimages/textlink-ads.jpg",
         "id" : "r19",
         "comps" : [],
         "download" : {
            "receiveFirst" : 128,
            "len" : 518,
            "dns" : 0,
            "dnsEnd" : -1,
            "receiveHeadersEnd" : 129,
            "sslEnd" : -1,
            "connectEnd" : 0,
            "connectStart" : 0,
            "id" : "download_16",
            "receivedTime" : "2111.287000007",
            "sslStart" : -1,
            "dnsStart" : -1,
            "receiveLast" : 1982.287000007,
            "s_time" : 1977.40899992641,
            "sendEnd" : 1,
            "sendStart" : 0,
            "type" : "image/jpeg"
         }
      },
      {
         "when_comp_start" : -1,
         "url" : "http://asset.pagefair.net/adimages/textlink-ads.jpg",
         "id" : "r18",
         "comps" : [],
         "download" : {
            "receiveFirst" : 11,
            "len" : 518,
            "dns" : 137,
            "dnsEnd" : 137,
            "receiveHeadersEnd" : 178,
            "sslEnd" : -1,
            "connectEnd" : 167,
            "connectStart" : 0,
            "id" : "download_17",
            "receivedTime" : "2206.32899994962",
            "sslStart" : -1,
            "dnsStart" : 0,
            "receiveLast" : 2028.32899994962,
            "s_time" : 1976.29399993457,
            "sendEnd" : 167,
            "sendStart" : 167,
            "type" : "image/jpeg"
         }
      },
      {
         "when_comp_start" : -1,
         "url" : "http://www.google-analytics.com/r/__utm.gif?utmwv=5.6.6&utms=1&utmn=1000219149&utmhn=original.testbed.localhost&utme=8(LD)9(0)&utmcs=UTF-8&utmsr=1024x768&utmvp=1009x601&utmsc=24-bit&utmul=en-us&utmje=1&utmfl=-&utmdt=Ask.com%20-%20Whats%20Your%20Question%3F&utmhid=1762835244&utmr=-&utmp=%2Fwww.ask.c",
         "id" : "r21",
         "comps" : [],
         "download" : {
            "receiveFirst" : 38,
            "len" : 35,
            "dns" : 0,
            "dnsEnd" : -1,
            "receiveHeadersEnd" : 39,
            "sslEnd" : -1,
            "connectEnd" : 1,
            "connectStart" : 0,
            "id" : "download_18",
            "receivedTime" : "2242.12399998214",
            "sslStart" : -1,
            "dnsStart" : -1,
            "receiveLast" : 2203.12399998214,
            "s_time" : 2201.85599999968,
            "sendEnd" : 1,
            "sendStart" : 1,
            "type" : "image/gif"
         }
      }
   ],
   "deps" : [
      {
         "a2" : "r1_c2",
         "time" : -1,
         "id" : "dep1",
         "a1" : "comp_14"
      },
      {
         "a2" : "r1_c3",
         "time" : -1,
         "id" : "dep2",
         "a1" : "comp_17"
      },
      {
         "a2" : "r1_c4",
         "time" : -1,
         "id" : "dep3",
         "a1" : "comp_20"
      },
      {
         "a2" : "comp_14",
         "time" : -1,
         "id" : "dep4",
         "a1" : "comp_7"
      },
      {
         "a2" : "download_18",
         "time" : 81.2730001052801,
         "id" : "dep5",
         "a1" : "comp_91"
      },
      {
         "a2" : "download_17",
         "time" : 7.19199993181996,
         "id" : "dep6",
         "a1" : "comp_85"
      },
      {
         "a2" : "download_16",
         "time" : 8.30699992365999,
         "id" : "dep7",
         "a1" : "comp_85"
      },
      {
         "a2" : "download_15",
         "time" : 7.10000004618996,
         "id" : "dep8",
         "a1" : "r1_c4"
      },
      {
         "a2" : "download_14",
         "time" : -1,
         "id" : "dep9",
         "a1" : "r1_c4"
      },
      {
         "a2" : "download_13",
         "time" : 6.38200005049998,
         "id" : "dep10",
         "a1" : "r1_c4"
      },
      {
         "a2" : "download_12",
         "time" : 7.57999997585989,
         "id" : "dep11",
         "a1" : "r1_c4"
      },
      {
         "a2" : "download_11",
         "time" : 8.55300005058984,
         "id" : "dep12",
         "a1" : "r1_c4"
      },
      {
         "a2" : "download_10",
         "time" : 4.58399998023992,
         "id" : "dep13",
         "a1" : "r1_c4"
      },
      {
         "a2" : "download_9",
         "time" : -1,
         "id" : "dep14",
         "a1" : "r1_c1"
      },
      {
         "a2" : "download_8",
         "time" : 23.702000034973,
         "id" : "dep15",
         "a1" : "r1_c1"
      },
      {
         "a2" : "download_7",
         "time" : 71.6790000442416,
         "id" : "dep16",
         "a1" : "r1_c1"
      },
      {
         "a2" : "download_7",
         "time" : 71.6790000442416,
         "id" : "dep17",
         "a1" : "r1_c1"
      },
      {
         "a2" : "download_6",
         "time" : 71.5270000509918,
         "id" : "dep18",
         "a1" : "r1_c1"
      },
      {
         "a2" : "download_6",
         "time" : 71.5270000509918,
         "id" : "dep19",
         "a1" : "r1_c1"
      },
      {
         "a2" : "download_5",
         "time" : 71.3359999936074,
         "id" : "dep20",
         "a1" : "r1_c1"
      },
      {
         "a2" : "download_4",
         "time" : 23.5040000407025,
         "id" : "dep21",
         "a1" : "r1_c1"
      },
      {
         "a2" : "download_3",
         "time" : 23.2320000650361,
         "id" : "dep22",
         "a1" : "r1_c1"
      },
      {
         "a2" : "download_2",
         "time" : 1.2110000243411,
         "id" : "dep23",
         "a1" : "r1_c1"
      },
      {
         "a2" : "download_1",
         "time" : 1.8789999885485,
         "id" : "dep24",
         "a1" : "r1_c1"
      }
   ]
}
