{
   "n_download_no_trigger" : 1,
   "start_activity" : "download_0",
   "name" : "original.testbed.localhost_www.vk.com_",
   "load_activity" : -1,
   "objs" : [
      {
         "when_comp_start" : 1,
         "url" : "http://original.testbed.localhost/www.vk.com/",
         "id" : "r1",
         "comps" : [
            {
               "s_time" : 26.6109999502078,
               "time" : 5.1930000772699,
               "id" : "r1_c1",
               "type" : "evalhtml",
               "e_time" : 31.8040000274777
            },
            {
               "s_time" : 665.81999999471,
               "time" : 1454.27600003313,
               "id" : "r1_c2",
               "type" : "evalhtml",
               "e_time" : 2120.09600002784
            },
            {
               "s_time" : 4464.03999999166,
               "time" : -973034158.943,
               "id" : "r1_c3",
               "type" : "evalhtml",
               "e_time" : -973029694.903
            },
            {
               "s_time" : 4464.59799993318,
               "time" : -973034159.501,
               "id" : "r1_c4",
               "type" : "evalhtml",
               "e_time" : -973029694.903
            },
            {
               "s_time" : 4466.05699998327,
               "time" : -973034160.96,
               "id" : "r1_c5",
               "type" : "evalhtml",
               "e_time" : -973029694.903
            },
            {
               "s_time" : 4478.31699997187,
               "time" : 40.3200000291699,
               "type" : "evalhtml",
               "id" : "r1_c6",
               "e_time" : 4518.63700000104
            }
         ],
         "download" : {
            "receiveFirst" : 7,
            "len" : 17730,
            "dns" : 0,
            "dnsEnd" : -1,
            "receiveHeadersEnd" : 7,
            "sslEnd" : -1,
            "connectEnd" : 0,
            "connectStart" : 0,
            "id" : "download_0",
            "receivedTime" : "42.7350000245497",
            "sslStart" : -1,
            "dnsStart" : -1,
            "receiveLast" : 35.7350000245497,
            "s_time" : 0,
            "sendEnd" : 0,
            "sendStart" : 0,
            "type" : "text/html"
         }
      },
      {
         "when_comp_start" : -1,
         "url" : "http://original.testbed.localhost/vk.com/css/al/index.css%3F27.css",
         "id" : "r3",
         "comps" : [
            {
               "s_time" : 93.7840000260621,
               "time" : 0.7479999912903,
               "type" : 4,
               "id" : "comp_1",
               "e_time" : 94.5320000173524
            }
         ],
         "download" : {
            "receiveFirst" : 47,
            "len" : 6173,
            "dns" : 0,
            "dnsEnd" : -1,
            "receiveHeadersEnd" : 50,
            "sslEnd" : -1,
            "connectEnd" : 3,
            "connectStart" : 0,
            "id" : "download_1",
            "receivedTime" : "93.7080000294372",
            "sslStart" : -1,
            "dnsStart" : -1,
            "receiveLast" : 43.7080000294372,
            "s_time" : 30.5099999532104,
            "sendEnd" : 3,
            "sendStart" : 3,
            "type" : "text/css"
         }
      },
      {
         "when_comp_start" : -1,
         "url" : "http://original.testbed.localhost/vk.com/js/loader_nav18352_3.js",
         "id" : "r5",
         "comps" : [
            {
               "s_time" : 664.058999973349,
               "time" : 1.76100002136093,
               "type" : 1,
               "id" : "comp_10",
               "e_time" : 665.81999999471
            }
         ],
         "download" : {
            "receiveFirst" : 64,
            "len" : 3434,
            "dns" : 0,
            "dnsEnd" : -1,
            "receiveHeadersEnd" : 67,
            "sslEnd" : -1,
            "connectEnd" : 3,
            "connectStart" : 0,
            "id" : "download_2",
            "receivedTime" : "123.007999965921",
            "sslStart" : -1,
            "dnsStart" : -1,
            "receiveLast" : 56.007999965921,
            "s_time" : 30.8410000288859,
            "sendEnd" : 3,
            "sendStart" : 3,
            "type" : "application/javascript"
         }
      },
      {
         "when_comp_start" : -1,
         "url" : "http://original.testbed.localhost/vk.com/css/ui_controls.css%3F64.css",
         "id" : "r4",
         "comps" : [
            {
               "s_time" : 235.829000012018,
               "time" : 3.246999927796,
               "type" : 4,
               "id" : "comp_7",
               "e_time" : 239.075999939814
            }
         ],
         "download" : {
            "receiveFirst" : 98,
            "len" : 23808,
            "dns" : 0,
            "dnsEnd" : -1,
            "receiveHeadersEnd" : 101,
            "sslEnd" : -1,
            "connectEnd" : 3,
            "connectStart" : 0,
            "id" : "download_3",
            "receivedTime" : "235.698999953456",
            "sslStart" : -1,
            "dnsStart" : -1,
            "receiveLast" : 134.698999953456,
            "s_time" : 30.8019999647513,
            "sendEnd" : 3,
            "sendStart" : 3,
            "type" : "text/css"
         }
      },
      {
         "when_comp_start" : -1,
         "url" : "http://original.testbed.localhost/vk.com/css/al/common.css%3F502.css",
         "id" : "r2",
         "comps" : [
            {
               "s_time" : 651.995999971405,
               "time" : 13.962000026367,
               "type" : 4,
               "id" : "comp_9",
               "e_time" : 665.957999997772
            }
         ],
         "download" : {
            "receiveFirst" : 139,
            "len" : 75595,
            "dns" : 0,
            "dnsEnd" : -1,
            "receiveHeadersEnd" : 142,
            "sslEnd" : -1,
            "connectEnd" : 3,
            "connectStart" : 0,
            "id" : "download_4",
            "receivedTime" : "651.907999999821",
            "sslStart" : -1,
            "dnsStart" : -1,
            "receiveLast" : 509.907999999821,
            "s_time" : 30.2750000264496,
            "sendEnd" : 3,
            "sendStart" : 3,
            "type" : "text/css"
         }
      },
      {
         "when_comp_start" : -1,
         "url" : "http://original.testbed.localhost/vk.com/js/al/common.js%3F1125_166",
         "id" : "r6",
         "comps" : [
            {
               "s_time" : 4408.79699995276,
               "time" : 55.2430000388995,
               "type" : 1,
               "id" : "comp_11",
               "e_time" : 4464.03999999166
            }
         ],
         "download" : {
            "receiveFirst" : 251,
            "len" : 252358,
            "dns" : 0,
            "dnsEnd" : -1,
            "receiveHeadersEnd" : 262,
            "sslEnd" : -1,
            "connectEnd" : 11,
            "connectStart" : 0,
            "id" : "download_5",
            "receivedTime" : "4408.70699996594",
            "sslStart" : -1,
            "dnsStart" : -1,
            "receiveLast" : 4146.70699996594,
            "s_time" : 31.0210000025108,
            "sendEnd" : 11,
            "sendStart" : 11,
            "type" : "text/plain"
         }
      },
      {
         "when_comp_start" : -1,
         "url" : "http://original.testbed.localhost/vk.com/js/lang3_0.js%3F3515",
         "id" : "r7",
         "comps" : [
            {
               "s_time" : 4464.19899992179,
               "time" : 0.399000011389944,
               "type" : 1,
               "id" : "comp_13",
               "e_time" : 4464.59799993318
            }
         ],
         "download" : {
            "receiveFirst" : 332,
            "len" : 8534,
            "dns" : 0,
            "dnsEnd" : -1,
            "receiveHeadersEnd" : 394,
            "sslEnd" : -1,
            "connectEnd" : 62,
            "connectStart" : 0,
            "id" : "download_6",
            "receivedTime" : "499.102999921888",
            "sslStart" : -1,
            "dnsStart" : -1,
            "receiveLast" : 105.102999921888,
            "s_time" : 31.1910000164062,
            "sendEnd" : 62,
            "sendStart" : 62,
            "type" : "application/x-gzip"
         }
      },
      {
         "when_comp_start" : -1,
         "url" : "http://original.testbed.localhost/vk.com/js/al/index.js%3F33",
         "id" : "r8",
         "comps" : [
            {
               "s_time" : 4464.7549999645,
               "time" : 1.30200001876983,
               "type" : 1,
               "id" : "comp_15",
               "e_time" : 4466.05699998327
            }
         ],
         "download" : {
            "receiveFirst" : 407,
            "len" : 20324,
            "dns" : 0,
            "dnsEnd" : -1,
            "receiveHeadersEnd" : 498,
            "sslEnd" : -1,
            "connectEnd" : 91,
            "connectStart" : 0,
            "id" : "download_7",
            "receivedTime" : "1072.3800000269",
            "sslStart" : -1,
            "dnsStart" : -1,
            "receiveLast" : 574.380000026897,
            "s_time" : 31.3679999671876,
            "sendEnd" : 91,
            "sendStart" : 91,
            "type" : "text/plain"
         }
      },
      {
         "when_comp_start" : -1,
         "url" : "http://original.testbed.localhost/vk.com/js/lib/ui_controls.js%3F186",
         "id" : "r9",
         "comps" : [
            {
               "s_time" : 4466.13900002558,
               "time" : 12.1779999462906,
               "type" : 1,
               "id" : "comp_17",
               "e_time" : 4478.31699997187
            }
         ],
         "download" : {
            "receiveFirst" : 418,
            "len" : 128941,
            "dns" : 0,
            "dnsEnd" : -1,
            "receiveHeadersEnd" : 623,
            "sslEnd" : -1,
            "connectEnd" : 205,
            "connectStart" : 0,
            "id" : "download_8",
            "receivedTime" : "3885.36199997179",
            "sslStart" : -1,
            "dnsStart" : -1,
            "receiveLast" : 3262.36199997179,
            "s_time" : 31.6129999700934,
            "sendEnd" : 205,
            "sendStart" : 205,
            "type" : "text/plain"
         }
      },
      {
         "when_comp_start" : -1,
         "url" : "http://original.testbed.localhost/vk.com/images/join/prof_vk_m.png%3F4",
         "id" : "r10",
         "comps" : [],
         "download" : {
            "receiveFirst" : 427,
            "len" : 24393,
            "dns" : 0,
            "dnsEnd" : -1,
            "receiveHeadersEnd" : 893,
            "sslEnd" : -1,
            "connectEnd" : 466,
            "connectStart" : 0,
            "id" : "download_9",
            "receivedTime" : "1435.55699998979",
            "sslStart" : -1,
            "dnsStart" : -1,
            "receiveLast" : 542.556999989785,
            "s_time" : 31.8040000274777,
            "sendEnd" : 466,
            "sendStart" : 466,
            "type" : "image/png"
         }
      },
      {
         "when_comp_start" : -1,
         "url" : "http://original.testbed.localhost/vk.com/images/join/news_vk_m.png%3F4",
         "id" : "r11",
         "comps" : [],
         "download" : {
            "receiveFirst" : 271,
            "len" : 20981,
            "dns" : 0,
            "dnsEnd" : -1,
            "receiveHeadersEnd" : 271,
            "sslEnd" : -1,
            "connectEnd" : 0,
            "connectStart" : 0,
            "id" : "download_10",
            "receivedTime" : "2120.9159999853",
            "sslStart" : -1,
            "dnsStart" : -1,
            "receiveLast" : 1849.9159999853,
            "s_time" : 1434.71699999645,
            "sendEnd" : 0,
            "sendStart" : 0,
            "type" : "image/png"
         }
      },
      {
         "when_comp_start" : -1,
         "url" : "http://original.testbed.localhost/vk.com/images/join/dial_vk_m.png%3F4",
         "id" : "r12",
         "comps" : [],
         "download" : {
            "receiveFirst" : 299,
            "len" : 18599,
            "dns" : 0,
            "dnsEnd" : -1,
            "receiveHeadersEnd" : 299,
            "sslEnd" : -1,
            "connectEnd" : 0,
            "connectStart" : 0,
            "id" : "download_11",
            "receivedTime" : "2880.03599992953",
            "sslStart" : -1,
            "dnsStart" : -1,
            "receiveLast" : 2581.03599992953,
            "s_time" : 2120.09600002784,
            "sendEnd" : 0,
            "sendStart" : 0,
            "type" : "image/png"
         }
      },
      {
         "when_comp_start" : 1,
         "url" : "http://original.testbed.localhost/login.vk.com/index.html%3Frole=al_frame&_origin=http:%252F%252Fvk.com&ip_h=efcff97aa28d43576c.html",
         "id" : "r13",
         "comps" : [
            {
               "s_time" : 4534.41299998667,
               "time" : 0.156000023709566,
               "type" : "evalhtml",
               "id" : "r13_c1",
               "e_time" : 4534.56900001038
            }
         ],
         "download" : {
            "receiveFirst" : 6,
            "len" : 450,
            "dns" : 0,
            "dnsEnd" : -1,
            "receiveHeadersEnd" : 6,
            "sslEnd" : -1,
            "connectEnd" : 0,
            "connectStart" : 0,
            "id" : "download_12",
            "receivedTime" : "4523.26899999753",
            "sslStart" : -1,
            "dnsStart" : -1,
            "receiveLast" : 4517.26899999753,
            "s_time" : 4493.18200000562,
            "sendEnd" : 0,
            "sendStart" : 0,
            "type" : "text/html"
         }
      },
      {
         "when_comp_start" : -1,
         "url" : "http://original.testbed.localhost/vk.com/images/hatf_vk.gif%3F1",
         "id" : "r14",
         "comps" : [],
         "download" : {
            "receiveFirst" : 6,
            "len" : 1798,
            "dns" : 0,
            "dnsEnd" : -1,
            "receiveHeadersEnd" : 6,
            "sslEnd" : -1,
            "connectEnd" : 0,
            "connectStart" : 0,
            "id" : "download_13",
            "receivedTime" : "4527.78000000399",
            "sslStart" : -1,
            "dnsStart" : -1,
            "receiveLast" : 4521.78000000399,
            "s_time" : 4498.50699992385,
            "sendEnd" : 0,
            "sendStart" : 0,
            "type" : "image/gif"
         }
      },
      {
         "when_comp_start" : -1,
         "url" : "http://original.testbed.localhost/vk.com/images/backlink.gif%3F4",
         "id" : "r15",
         "comps" : [],
         "download" : {
            "receiveFirst" : 11,
            "len" : 963,
            "dns" : 0,
            "dnsEnd" : -1,
            "receiveHeadersEnd" : 11,
            "sslEnd" : -1,
            "connectEnd" : 0,
            "connectStart" : 0,
            "id" : "download_14",
            "receivedTime" : "4533.54700002819",
            "sslStart" : -1,
            "dnsStart" : -1,
            "receiveLast" : 4522.54700002819,
            "s_time" : 4498.98099992424,
            "sendEnd" : 0,
            "sendStart" : 0,
            "type" : "image/gif"
         }
      },
      {
         "when_comp_start" : -1,
         "url" : "http://original.testbed.localhost/vk.com/images/upload.gif",
         "id" : "r16",
         "comps" : [],
         "download" : {
            "receiveFirst" : 15,
            "len" : 265,
            "dns" : 0,
            "dnsEnd" : -1,
            "receiveHeadersEnd" : 15,
            "sslEnd" : -1,
            "connectEnd" : 0,
            "connectStart" : 0,
            "id" : "download_15",
            "receivedTime" : "4534.00300000794",
            "sslStart" : -1,
            "dnsStart" : -1,
            "receiveLast" : 4519.00300000794,
            "s_time" : 4505.79800002743,
            "sendEnd" : 0,
            "sendStart" : 0,
            "type" : "image/gif"
         }
      }
   ],
   "deps" : [
      {
         "a2" : "r1_c2",
         "time" : -1,
         "id" : "dep1",
         "a1" : "comp_10"
      },
      {
         "a2" : "r1_c3",
         "time" : -1,
         "id" : "dep2",
         "a1" : "comp_11"
      },
      {
         "a2" : "r1_c4",
         "time" : -1,
         "id" : "dep3",
         "a1" : "comp_13"
      },
      {
         "a2" : "r1_c5",
         "time" : -1,
         "id" : "dep4",
         "a1" : "comp_15"
      },
      {
         "a2" : "r1_c6",
         "time" : -1,
         "id" : "dep5",
         "a1" : "comp_17"
      },
      {
         "a2" : "comp_10",
         "time" : -1,
         "id" : "dep6",
         "a1" : "comp_9"
      },
      {
         "a2" : "comp_10",
         "time" : -1,
         "id" : "dep7",
         "a1" : "comp_1"
      },
      {
         "a2" : "comp_10",
         "time" : -1,
         "id" : "dep8",
         "a1" : "comp_7"
      },
      {
         "a2" : "comp_11",
         "time" : -1,
         "id" : "dep9",
         "a1" : "comp_10"
      },
      {
         "a2" : "comp_13",
         "time" : -1,
         "id" : "dep10",
         "a1" : "comp_11"
      },
      {
         "a2" : "comp_15",
         "time" : -1,
         "id" : "dep11",
         "a1" : "comp_13"
      },
      {
         "a2" : "comp_17",
         "time" : -1,
         "id" : "dep12",
         "a1" : "comp_15"
      },
      {
         "a2" : "download_15",
         "time" : 27.4810000555599,
         "id" : "dep13",
         "a1" : "r1_c6"
      },
      {
         "a2" : "download_14",
         "time" : 20.6639999523695,
         "id" : "dep14",
         "a1" : "r1_c6"
      },
      {
         "a2" : "download_13",
         "time" : 20.1899999519801,
         "id" : "dep15",
         "a1" : "r1_c6"
      },
      {
         "a2" : "download_12",
         "time" : 14.8650000337493,
         "id" : "dep16",
         "a1" : "r1_c6"
      },
      {
         "a2" : "download_11",
         "time" : -1,
         "id" : "dep17",
         "a1" : "r1_c2"
      },
      {
         "a2" : "download_10",
         "time" : 768.89700000174,
         "id" : "dep18",
         "a1" : "r1_c2"
      },
      {
         "a2" : "download_9",
         "time" : -1,
         "id" : "dep19",
         "a1" : "r1_c1"
      },
      {
         "a2" : "download_9",
         "time" : 5.1930000772699,
         "id" : "dep20",
         "a1" : "r1_c1"
      },
      {
         "a2" : "download_8",
         "time" : 5.0020000198856,
         "id" : "dep21",
         "a1" : "r1_c1"
      },
      {
         "a2" : "download_8",
         "time" : 5.0020000198856,
         "id" : "dep22",
         "a1" : "r1_c1"
      },
      {
         "a2" : "download_7",
         "time" : 4.7570000169798,
         "id" : "dep23",
         "a1" : "r1_c1"
      },
      {
         "a2" : "download_7",
         "time" : 4.7570000169798,
         "id" : "dep24",
         "a1" : "r1_c1"
      },
      {
         "a2" : "download_6",
         "time" : 4.5800000661984,
         "id" : "dep25",
         "a1" : "r1_c1"
      },
      {
         "a2" : "download_6",
         "time" : 4.5800000661984,
         "id" : "dep26",
         "a1" : "r1_c1"
      },
      {
         "a2" : "download_5",
         "time" : 4.410000052303,
         "id" : "dep27",
         "a1" : "r1_c1"
      },
      {
         "a2" : "download_5",
         "time" : 4.410000052303,
         "id" : "dep28",
         "a1" : "r1_c1"
      },
      {
         "a2" : "download_4",
         "time" : 3.6640000762418,
         "id" : "dep29",
         "a1" : "r1_c1"
      },
      {
         "a2" : "download_3",
         "time" : 4.1910000145435,
         "id" : "dep30",
         "a1" : "r1_c1"
      },
      {
         "a2" : "download_2",
         "time" : 4.2300000786781,
         "id" : "dep31",
         "a1" : "r1_c1"
      },
      {
         "a2" : "download_1",
         "time" : 3.8990000030026,
         "id" : "dep32",
         "a1" : "r1_c1"
      }
   ]
}
