{
   "n_download_no_trigger" : 1,
   "start_activity" : "download_0",
   "name" : "original.testbed.localhost_www.live.com_",
   "load_activity" : -1,
   "objs" : [
      {
         "when_comp_start" : 1,
         "url" : "http://original.testbed.localhost/www.live.com/",
         "id" : "r1",
         "comps" : [
            {
               "s_time" : 21.9839999917895,
               "time" : 1.2629999546334,
               "id" : "r1_c1",
               "type" : "evalhtml",
               "e_time" : 23.2469999464229
            },
            {
               "s_time" : 119.355999981053,
               "time" : 111.352000036277,
               "id" : "r1_c2",
               "type" : "evalhtml",
               "e_time" : 230.70800001733
            },
            {
               "s_time" : 490.901999990456,
               "time" : 0.882999971509037,
               "type" : "evalhtml",
               "id" : "r1_c3",
               "e_time" : 491.784999961965
            }
         ],
         "download" : {
            "receiveFirst" : 6,
            "len" : 9559,
            "dns" : 0,
            "dnsEnd" : -1,
            "receiveHeadersEnd" : 6,
            "sslEnd" : -1,
            "connectEnd" : 0,
            "connectStart" : 0,
            "id" : "download_0",
            "receivedTime" : "21.8259999528527",
            "sslStart" : -1,
            "dnsStart" : -1,
            "receiveLast" : 15.8259999528527,
            "s_time" : 0,
            "sendEnd" : 0,
            "sendStart" : 0,
            "type" : "text/html"
         }
      },
      {
         "when_comp_start" : -1,
         "url" : "http://original.testbed.localhost/auth.gfx.ms/16.000.25828.00/Login_Strings_JS1033.js",
         "id" : "r3",
         "comps" : [
            {
               "s_time" : 119.154999963939,
               "time" : 0.201000017113998,
               "type" : 1,
               "id" : "comp_7",
               "e_time" : 119.355999981053
            }
         ],
         "download" : {
            "receiveFirst" : 36,
            "len" : 4644,
            "dns" : 0,
            "dnsEnd" : -1,
            "receiveHeadersEnd" : 36,
            "sslEnd" : -1,
            "connectEnd" : 0,
            "connectStart" : 0,
            "id" : "download_1",
            "receivedTime" : "71.3759999489412",
            "sslStart" : -1,
            "dnsStart" : -1,
            "receiveLast" : 35.3759999489412,
            "s_time" : 23.1170000042766,
            "sendEnd" : 0,
            "sendStart" : 0,
            "type" : "application/javascript"
         }
      },
      {
         "when_comp_start" : -1,
         "url" : "http://original.testbed.localhost/auth.gfx.ms/16.000.25828.00/R3WinLive1033.css",
         "id" : "r2",
         "comps" : [
            {
               "s_time" : 113.95199992694,
               "time" : 5.46200003009299,
               "type" : 4,
               "id" : "comp_3",
               "e_time" : 119.413999957033
            }
         ],
         "download" : {
            "receiveFirst" : 53,
            "len" : 25806,
            "dns" : 0,
            "dnsEnd" : -1,
            "receiveHeadersEnd" : 54,
            "sslEnd" : -1,
            "connectEnd" : 0,
            "connectStart" : 0,
            "id" : "download_2",
            "receivedTime" : "113.862999947742",
            "sslStart" : -1,
            "dnsStart" : -1,
            "receiveLast" : 59.8629999477416,
            "s_time" : 22.7849999209866,
            "sendEnd" : 1,
            "sendStart" : 0,
            "type" : "text/css"
         }
      },
      {
         "when_comp_start" : -1,
         "url" : "http://original.testbed.localhost/auth.gfx.ms/16.000.25828.00/Login_Core.js",
         "id" : "r4",
         "comps" : [
            {
               "s_time" : 474.410000024363,
               "time" : 16.491999966093,
               "type" : 1,
               "id" : "comp_13",
               "e_time" : 490.901999990456
            }
         ],
         "download" : {
            "receiveFirst" : 99,
            "len" : 114599,
            "dns" : 0,
            "dnsEnd" : -1,
            "receiveHeadersEnd" : 99,
            "sslEnd" : -1,
            "connectEnd" : 0,
            "connectStart" : 0,
            "id" : "download_3",
            "receivedTime" : "474.321999936365",
            "sslStart" : -1,
            "dnsStart" : -1,
            "receiveLast" : 375.321999936365,
            "s_time" : 23.2469999464229,
            "sendEnd" : 0,
            "sendStart" : 0,
            "type" : "application/javascript"
         }
      },
      {
         "when_comp_start" : -1,
         "url" : "http://original.testbed.localhost/auth.gfx.ms/16.000.25828.00/hig/img/controls.png",
         "id" : "r5",
         "comps" : [],
         "download" : {
            "receiveFirst" : 157,
            "len" : 3728,
            "dns" : 0,
            "dnsEnd" : -1,
            "receiveHeadersEnd" : 160,
            "sslEnd" : -1,
            "connectEnd" : 3,
            "connectStart" : 0,
            "id" : "download_4",
            "receivedTime" : "415.827999939211",
            "sslStart" : -1,
            "dnsStart" : -1,
            "receiveLast" : 255.827999939211,
            "s_time" : 230.70800001733,
            "sendEnd" : 3,
            "sendStart" : 3,
            "type" : "image/png"
         }
      }
   ],
   "deps" : [
      {
         "a2" : "r1_c2",
         "time" : -1,
         "id" : "dep1",
         "a1" : "comp_7"
      },
      {
         "a2" : "r1_c3",
         "time" : -1,
         "id" : "dep2",
         "a1" : "comp_13"
      },
      {
         "a2" : "comp_13",
         "time" : -1,
         "id" : "dep3",
         "a1" : "comp_7"
      },
      {
         "a2" : "download_4",
         "time" : -1,
         "id" : "dep4",
         "a1" : "r1_c2"
      },
      {
         "a2" : "download_3",
         "time" : -1,
         "id" : "dep5",
         "a1" : "r1_c1"
      },
      {
         "a2" : "download_3",
         "time" : 1.2629999546334,
         "id" : "dep6",
         "a1" : "r1_c1"
      },
      {
         "a2" : "download_2",
         "time" : 0.800999929197101,
         "id" : "dep7",
         "a1" : "r1_c1"
      },
      {
         "a2" : "download_1",
         "time" : 1.1330000124871,
         "id" : "dep8",
         "a1" : "r1_c1"
      },
      {
         "a2" : "download_1",
         "time" : 1.1330000124871,
         "id" : "dep9",
         "a1" : "r1_c1"
      }
   ]
}
