{
   "n_download_no_trigger" : 1,
   "start_activity" : "download_0",
   "name" : "original.testbed.localhost_www.google.com.br_",
   "load_activity" : -1,
   "objs" : [
      {
         "when_comp_start" : 1,
         "url" : "http://original.testbed.localhost/www.google.com.br/",
         "id" : "r1",
         "comps" : [
            {
               "s_time" : 27.0010000094771,
               "time" : 28.4560000291095,
               "type" : "evalhtml",
               "id" : "r1_c1",
               "e_time" : 55.4570000385866
            }
         ],
         "download" : {
            "receiveFirst" : 6,
            "len" : 19474,
            "dns" : 0,
            "dnsEnd" : -1,
            "receiveHeadersEnd" : 6,
            "sslEnd" : -1,
            "connectEnd" : 0,
            "connectStart" : 0,
            "id" : "download_0",
            "receivedTime" : "54.6620000386611",
            "sslStart" : -1,
            "dnsStart" : -1,
            "receiveLast" : 48.6620000386611,
            "s_time" : 0,
            "sendEnd" : 0,
            "sendStart" : 0,
            "type" : "text/html"
         }
      },
      {
         "when_comp_start" : -1,
         "url" : "http://original.testbed.localhost/www.google.com.br/images/icons/product/chrome-48.png",
         "id" : "r2",
         "comps" : [],
         "download" : {
            "receiveFirst" : 60,
            "len" : 1834,
            "dns" : 0,
            "dnsEnd" : -1,
            "receiveHeadersEnd" : 60,
            "sslEnd" : -1,
            "connectEnd" : 0,
            "connectStart" : 0,
            "id" : "download_1",
            "receivedTime" : "112.001999979839",
            "sslStart" : -1,
            "dnsStart" : -1,
            "receiveLast" : 52.0019999798387,
            "s_time" : 30.568000045605,
            "sendEnd" : 0,
            "sendStart" : 0,
            "type" : "image/png"
         }
      },
      {
         "when_comp_start" : -1,
         "url" : "http://original.testbed.localhost/www.google.com.br/textinputassistant/tia.png",
         "id" : "r3",
         "comps" : [],
         "download" : {
            "receiveFirst" : 67,
            "len" : 387,
            "dns" : 0,
            "dnsEnd" : -1,
            "receiveHeadersEnd" : 67,
            "sslEnd" : -1,
            "connectEnd" : 0,
            "connectStart" : 0,
            "id" : "download_2",
            "receivedTime" : "116.871000034735",
            "sslStart" : -1,
            "dnsStart" : -1,
            "receiveLast" : 49.8710000347346,
            "s_time" : 43.9430000260472,
            "sendEnd" : 0,
            "sendStart" : 0,
            "type" : "image/png"
         }
      },
      {
         "when_comp_start" : 1,
         "url" : "http://original.testbed.localhost/client_204?&atyp=i&biw=1024&bih=673&ei=M5X4Vd7dNYjx-AH1gZGwBQ",
         "id" : "r4",
         "comps" : [],
         "download" : {
            "receiveFirst" : 74,
            "len" : 300,
            "dns" : 0,
            "dnsEnd" : -1,
            "receiveHeadersEnd" : 74,
            "sslEnd" : -1,
            "connectEnd" : 0,
            "connectStart" : 0,
            "id" : "download_3",
            "receivedTime" : "119.82599995099",
            "sslStart" : -1,
            "dnsStart" : -1,
            "receiveLast" : 45.8259999509901,
            "s_time" : 45.2819999773055,
            "sendEnd" : 0,
            "sendStart" : 0,
            "type" : "text/html"
         }
      },
      {
         "when_comp_start" : -1,
         "url" : "http://original.testbed.localhost/www.google.com.br/images/branding/googlelogo/1x/googlelogo_white_background_color_272x92dp.png",
         "id" : "r5",
         "comps" : [],
         "download" : {
            "receiveFirst" : 77,
            "len" : 5482,
            "dns" : 0,
            "dnsEnd" : -1,
            "receiveHeadersEnd" : 79,
            "sslEnd" : -1,
            "connectEnd" : 2,
            "connectStart" : 0,
            "id" : "download_4",
            "receivedTime" : "160.914000007324",
            "sslStart" : -1,
            "dnsStart" : -1,
            "receiveLast" : 81.9140000073239,
            "s_time" : 45.5610000062734,
            "sendEnd" : 2,
            "sendStart" : 2,
            "type" : "image/png"
         }
      },
      {
         "when_comp_start" : -1,
         "url" : "http://original.testbed.localhost/www.google.com.br/images/srpr/nav_logo80.png",
         "id" : "r6",
         "comps" : [],
         "download" : {
            "receiveFirst" : 122,
            "len" : 35615,
            "dns" : 0,
            "dnsEnd" : -1,
            "receiveHeadersEnd" : 122,
            "sslEnd" : -1,
            "connectEnd" : 0,
            "connectStart" : 0,
            "id" : "download_5",
            "receivedTime" : "502.16899998486",
            "sslStart" : -1,
            "dnsStart" : -1,
            "receiveLast" : 380.16899998486,
            "s_time" : 51.0329999960959,
            "sendEnd" : 0,
            "sendStart" : 0,
            "type" : "image/png"
         }
      }
   ],
   "deps" : [
      {
         "a2" : "download_5",
         "time" : 24.0319999866188,
         "id" : "dep1",
         "a1" : "r1_c1"
      },
      {
         "a2" : "download_4",
         "time" : 18.5599999967963,
         "id" : "dep2",
         "a1" : "r1_c1"
      },
      {
         "a2" : "download_3",
         "time" : 18.2809999678284,
         "id" : "dep3",
         "a1" : "r1_c1"
      },
      {
         "a2" : "download_2",
         "time" : 16.9420000165701,
         "id" : "dep4",
         "a1" : "r1_c1"
      },
      {
         "a2" : "download_1",
         "time" : 3.5670000361279,
         "id" : "dep5",
         "a1" : "r1_c1"
      }
   ]
}
