{
   "n_download_no_trigger" : 1,
   "start_activity" : "download_0",
   "name" : "original.testbed.localhost_www.adcash.com_",
   "load_activity" : -1,
   "objs" : [
      {
         "when_comp_start" : 1,
         "url" : "http://original.testbed.localhost/www.adcash.com/",
         "id" : "r1",
         "comps" : [
            {
               "s_time" : 127.029999974184,
               "time" : 1153.25899992604,
               "id" : "r1_c1",
               "type" : "evalhtml",
               "e_time" : 1280.28899990022
            },
            {
               "s_time" : 1697.61699996889,
               "time" : -903438203.846,
               "id" : "r1_c2",
               "type" : "evalhtml",
               "e_time" : -903436506.229
            },
            {
               "s_time" : 1700.97399991937,
               "time" : 301.97200004477,
               "type" : "evalhtml",
               "id" : "r1_c3",
               "e_time" : 2002.94599996414
            }
         ],
         "download" : {
            "receiveFirst" : 13,
            "len" : 109814,
            "dns" : 0,
            "dnsEnd" : -1,
            "receiveHeadersEnd" : 18,
            "sslEnd" : -1,
            "connectEnd" : 5,
            "connectStart" : 0,
            "id" : "download_0",
            "receivedTime" : "126.053999993019",
            "sslStart" : -1,
            "dnsStart" : -1,
            "receiveLast" : 108.053999993019,
            "s_time" : 0,
            "sendEnd" : 5,
            "sendStart" : 5,
            "type" : "text/html"
         }
      },
      {
         "when_comp_start" : -1,
         "url" : "http://original.testbed.localhost/www.adcash.com/cssv5_dist/semantic-base.css%3Fv=3.1.css",
         "id" : "r2",
         "comps" : [
            {
               "s_time" : 220.871999976225,
               "time" : 204.253999982029,
               "type" : 4,
               "id" : "comp_0",
               "e_time" : 425.125999958254
            }
         ],
         "download" : {
            "receiveFirst" : 33,
            "len" : 229654,
            "dns" : 0,
            "dnsEnd" : -1,
            "receiveHeadersEnd" : 41,
            "sslEnd" : -1,
            "connectEnd" : 8,
            "connectStart" : 0,
            "id" : "download_1",
            "receivedTime" : "216.324999928474",
            "sslStart" : -1,
            "dnsStart" : -1,
            "receiveLast" : 175.324999928474,
            "s_time" : 131.271999911405,
            "sendEnd" : 8,
            "sendStart" : 8,
            "type" : "text/css"
         }
      },
      {
         "when_comp_start" : -1,
         "url" : "http://original.testbed.localhost/www.adcash.com/cssv5_dist/semantic.css%3Fv=3.1.css",
         "id" : "r3",
         "comps" : [
            {
               "s_time" : 426.89599993173,
               "time" : 232.422000030056,
               "type" : 4,
               "id" : "comp_1",
               "e_time" : 659.317999961786
            }
         ],
         "download" : {
            "receiveFirst" : 46,
            "len" : 218740,
            "dns" : 0,
            "dnsEnd" : -1,
            "receiveHeadersEnd" : 56,
            "sslEnd" : -1,
            "connectEnd" : 10,
            "connectStart" : 0,
            "id" : "download_2",
            "receivedTime" : "426.468999939971",
            "sslStart" : -1,
            "dnsStart" : -1,
            "receiveLast" : 370.468999939971,
            "s_time" : 131.973999901675,
            "sendEnd" : 10,
            "sendStart" : 10,
            "type" : "text/css"
         }
      },
      {
         "when_comp_start" : -1,
         "url" : "http://original.testbed.localhost/www.adcash.com/en/imgv5/delete_icon.png",
         "id" : "r4",
         "comps" : [],
         "download" : {
            "receiveFirst" : 55,
            "len" : 403,
            "dns" : 0,
            "dnsEnd" : -1,
            "receiveHeadersEnd" : 82,
            "sslEnd" : -1,
            "connectEnd" : 27,
            "connectStart" : 0,
            "id" : "download_3",
            "receivedTime" : "659.988999948837",
            "sslStart" : -1,
            "dnsStart" : -1,
            "receiveLast" : 577.988999948837,
            "s_time" : 192.779999924824,
            "sendEnd" : 27,
            "sendStart" : 27,
            "type" : "image/png"
         }
      },
      {
         "when_comp_start" : -1,
         "url" : "http://original.testbed.localhost/www.adcash.com/en/imgv5/adcash_logo_new.svg",
         "id" : "r5",
         "comps" : [],
         "download" : {
            "receiveFirst" : 49,
            "len" : 8512,
            "dns" : 0,
            "dnsEnd" : -1,
            "receiveHeadersEnd" : 73,
            "sslEnd" : -1,
            "connectEnd" : 24,
            "connectStart" : 0,
            "id" : "download_4",
            "receivedTime" : "703.903999994509",
            "sslStart" : -1,
            "dnsStart" : -1,
            "receiveLast" : 630.903999994509,
            "s_time" : 225.373999914154,
            "sendEnd" : 24,
            "sendStart" : 24,
            "type" : "image/svg+xml"
         }
      },
      {
         "when_comp_start" : -1,
         "url" : "http://original.testbed.localhost/www.adcash.com/en/imgv5/language_selector.png",
         "id" : "r6",
         "comps" : [],
         "download" : {
            "receiveFirst" : 43,
            "len" : 440,
            "dns" : 0,
            "dnsEnd" : 25,
            "receiveHeadersEnd" : 78,
            "sslEnd" : -1,
            "connectEnd" : 35,
            "connectStart" : 0,
            "id" : "download_5",
            "receivedTime" : "662.155999918468",
            "sslStart" : -1,
            "dnsStart" : 25,
            "receiveLast" : 584.155999918468,
            "s_time" : 226.853000000119,
            "sendEnd" : 35,
            "sendStart" : 35,
            "type" : "image/png"
         }
      },
      {
         "when_comp_start" : -1,
         "url" : "http://original.testbed.localhost/www.adcash.com/en/imgv5/responsive.svg",
         "id" : "r7",
         "comps" : [],
         "download" : {
            "receiveFirst" : 45,
            "len" : 196,
            "dns" : 0,
            "dnsEnd" : 27,
            "receiveHeadersEnd" : 80,
            "sslEnd" : -1,
            "connectEnd" : 35,
            "connectStart" : 0,
            "id" : "download_6",
            "receivedTime" : "662.948999903165",
            "sslStart" : -1,
            "dnsStart" : 27,
            "receiveLast" : 582.948999903165,
            "s_time" : 227.722999989055,
            "sendEnd" : 35,
            "sendStart" : 35,
            "type" : "image/svg+xml"
         }
      },
      {
         "when_comp_start" : -1,
         "url" : "http://original.testbed.localhost/www.adcash.com/en/imgv5/social_icons/social_1_i.png",
         "id" : "r8",
         "comps" : [],
         "download" : {
            "receiveFirst" : 50,
            "len" : 229,
            "dns" : 0,
            "dnsEnd" : 28,
            "receiveHeadersEnd" : 86,
            "sslEnd" : -1,
            "connectEnd" : 36,
            "connectStart" : 0,
            "id" : "download_7",
            "receivedTime" : "749.313999898732",
            "sslStart" : -1,
            "dnsStart" : 28,
            "receiveLast" : 663.313999898732,
            "s_time" : 228.652999969199,
            "sendEnd" : 36,
            "sendStart" : 36,
            "type" : "image/png"
         }
      },
      {
         "when_comp_start" : -1,
         "url" : "http://original.testbed.localhost/www.adcash.com/en/imgv5/social_icons/social_2_i.png",
         "id" : "r9",
         "comps" : [],
         "download" : {
            "receiveFirst" : 53,
            "len" : 333,
            "dns" : 0,
            "dnsEnd" : 28,
            "receiveHeadersEnd" : 89,
            "sslEnd" : -1,
            "connectEnd" : 36,
            "connectStart" : 0,
            "id" : "download_8",
            "receivedTime" : "750.138000003062",
            "sslStart" : -1,
            "dnsStart" : 28,
            "receiveLast" : 661.138000003062,
            "s_time" : 230.163999949582,
            "sendEnd" : 36,
            "sendStart" : 36,
            "type" : "image/png"
         }
      },
      {
         "when_comp_start" : -1,
         "url" : "http://original.testbed.localhost/www.adcash.com/en/imgv5/social_icons/social_3_i.png",
         "id" : "r10",
         "comps" : [],
         "download" : {
            "receiveFirst" : 48,
            "len" : 274,
            "dns" : 0,
            "dnsEnd" : -1,
            "receiveHeadersEnd" : 103,
            "sslEnd" : -1,
            "connectEnd" : 55,
            "connectStart" : 0,
            "id" : "download_9",
            "receivedTime" : "751.236999989487",
            "sslStart" : -1,
            "dnsStart" : -1,
            "receiveLast" : 648.236999989487,
            "s_time" : 231.551999924704,
            "sendEnd" : 55,
            "sendStart" : 55,
            "type" : "image/png"
         }
      },
      {
         "when_comp_start" : -1,
         "url" : "http://original.testbed.localhost/www.adcash.com/en/imgv5/social_icons/social_4_i.png",
         "id" : "r11",
         "comps" : [],
         "download" : {
            "receiveFirst" : 44,
            "len" : 421,
            "dns" : 0,
            "dnsEnd" : -1,
            "receiveHeadersEnd" : 134,
            "sslEnd" : -1,
            "connectEnd" : 90,
            "connectStart" : 0,
            "id" : "download_10",
            "receivedTime" : "753.311999957077",
            "sslStart" : -1,
            "dnsStart" : -1,
            "receiveLast" : 619.311999957077,
            "s_time" : 232.818999909796,
            "sendEnd" : 90,
            "sendStart" : 90,
            "type" : "image/png"
         }
      },
      {
         "when_comp_start" : -1,
         "url" : "http://original.testbed.localhost/www.adcash.com/en/imgv5/square-image.png",
         "id" : "r12",
         "comps" : [],
         "download" : {
            "receiveFirst" : 42,
            "len" : 1641,
            "dns" : 0,
            "dnsEnd" : -1,
            "receiveHeadersEnd" : 135,
            "sslEnd" : -1,
            "connectEnd" : 92,
            "connectStart" : 0,
            "id" : "download_11",
            "receivedTime" : "755.508999922313",
            "sslStart" : -1,
            "dnsStart" : -1,
            "receiveLast" : 620.508999922313,
            "s_time" : 233.642999897711,
            "sendEnd" : 93,
            "sendStart" : 92,
            "type" : "image/png"
         }
      },
      {
         "when_comp_start" : -1,
         "url" : "http://original.testbed.localhost/www.adcash.com/en/imgv5/logo_carousel/logo_travian.png",
         "id" : "r13",
         "comps" : [],
         "download" : {
            "receiveFirst" : 45,
            "len" : 1819,
            "dns" : 0,
            "dnsEnd" : -1,
            "receiveHeadersEnd" : 139,
            "sslEnd" : -1,
            "connectEnd" : 94,
            "connectStart" : 0,
            "id" : "download_12",
            "receivedTime" : "756.851999904029",
            "sslStart" : -1,
            "dnsStart" : -1,
            "receiveLast" : 617.851999904029,
            "s_time" : 235.489999991842,
            "sendEnd" : 94,
            "sendStart" : 94,
            "type" : "image/png"
         }
      },
      {
         "when_comp_start" : -1,
         "url" : "http://original.testbed.localhost/www.adcash.com/en/imgv5/logo_carousel/logo_digitalvirgo.png",
         "id" : "r14",
         "comps" : [],
         "download" : {
            "receiveFirst" : 42,
            "len" : 1374,
            "dns" : 0,
            "dnsEnd" : -1,
            "receiveHeadersEnd" : 92,
            "sslEnd" : -1,
            "connectEnd" : 49,
            "connectStart" : 0,
            "id" : "download_13",
            "receivedTime" : "757.553999894299",
            "sslStart" : -1,
            "dnsStart" : -1,
            "receiveLast" : 665.553999894299,
            "s_time" : 284.164999960922,
            "sendEnd" : 50,
            "sendStart" : 49,
            "type" : "image/png"
         }
      },
      {
         "when_comp_start" : -1,
         "url" : "http://original.testbed.localhost/www.adcash.com/en/imgv5/logo_carousel/logo_youzu.png",
         "id" : "r15",
         "comps" : [],
         "download" : {
            "receiveFirst" : 43,
            "len" : 2528,
            "dns" : 0,
            "dnsEnd" : -1,
            "receiveHeadersEnd" : 64,
            "sslEnd" : -1,
            "connectEnd" : 20,
            "connectStart" : 0,
            "id" : "download_14",
            "receivedTime" : "758.34699999541",
            "sslStart" : -1,
            "dnsStart" : -1,
            "receiveLast" : 694.34699999541,
            "s_time" : 318.206999916583,
            "sendEnd" : 21,
            "sendStart" : 20,
            "type" : "image/png"
         }
      },
      {
         "when_comp_start" : -1,
         "url" : "http://original.testbed.localhost/www.adcash.com/en/imgv5/logo_carousel/logo_alibaba.png",
         "id" : "r16",
         "comps" : [],
         "download" : {
            "receiveFirst" : 41,
            "len" : 1665,
            "dns" : 0,
            "dnsEnd" : -1,
            "receiveHeadersEnd" : 71,
            "sslEnd" : -1,
            "connectEnd" : 30,
            "connectStart" : 0,
            "id" : "download_15",
            "receivedTime" : "759.018999990076",
            "sslStart" : -1,
            "dnsStart" : -1,
            "receiveLast" : 688.018999990076,
            "s_time" : 322.0989999827,
            "sendEnd" : 30,
            "sendStart" : 30,
            "type" : "image/png"
         }
      },
      {
         "when_comp_start" : -1,
         "url" : "http://original.testbed.localhost/www.adcash.com/en/imgv5/logo_carousel/logo_innogames.png",
         "id" : "r17",
         "comps" : [],
         "download" : {
            "receiveFirst" : 45,
            "len" : 3269,
            "dns" : 0,
            "dnsEnd" : -1,
            "receiveHeadersEnd" : 102,
            "sslEnd" : -1,
            "connectEnd" : 57,
            "connectStart" : 0,
            "id" : "download_16",
            "receivedTime" : "893.265999970026",
            "sslStart" : -1,
            "dnsStart" : -1,
            "receiveLast" : 791.265999970026,
            "s_time" : 325.256999931298,
            "sendEnd" : 57,
            "sendStart" : 57,
            "type" : "image/png"
         }
      },
      {
         "when_comp_start" : -1,
         "url" : "http://original.testbed.localhost/www.adcash.com/en/imgv5/logo_carousel/logo_goodgame.png",
         "id" : "r18",
         "comps" : [],
         "download" : {
            "receiveFirst" : 43,
            "len" : 3654,
            "dns" : 0,
            "dnsEnd" : -1,
            "receiveHeadersEnd" : 109,
            "sslEnd" : -1,
            "connectEnd" : 66,
            "connectStart" : 0,
            "id" : "download_17",
            "receivedTime" : "895.981999929063",
            "sslStart" : -1,
            "dnsStart" : -1,
            "receiveLast" : 786.981999929063,
            "s_time" : 328.414999996312,
            "sendEnd" : 66,
            "sendStart" : 66,
            "type" : "image/png"
         }
      },
      {
         "when_comp_start" : -1,
         "url" : "http://original.testbed.localhost/www.adcash.com/en/imgv5/logo_carousel/logo_ea.png",
         "id" : "r19",
         "comps" : [],
         "download" : {
            "receiveFirst" : 43,
            "len" : 1550,
            "dns" : 0,
            "dnsEnd" : -1,
            "receiveHeadersEnd" : 115,
            "sslEnd" : -1,
            "connectEnd" : 72,
            "connectStart" : 0,
            "id" : "download_18",
            "receivedTime" : "899.429999990389",
            "sslStart" : -1,
            "dnsStart" : -1,
            "receiveLast" : 784.429999990389,
            "s_time" : 331.756999948993,
            "sendEnd" : 72,
            "sendStart" : 72,
            "type" : "image/png"
         }
      },
      {
         "when_comp_start" : -1,
         "url" : "http://original.testbed.localhost/www.adcash.com/en/imgv5/logo_carousel/logo_ubisoft.png",
         "id" : "r20",
         "comps" : [],
         "download" : {
            "receiveFirst" : 44,
            "len" : 5208,
            "dns" : 0,
            "dnsEnd" : -1,
            "receiveHeadersEnd" : 99,
            "sslEnd" : -1,
            "connectEnd" : 55,
            "connectStart" : 0,
            "id" : "download_19",
            "receivedTime" : "900.2239999827",
            "sslStart" : -1,
            "dnsStart" : -1,
            "receiveLast" : 801.2239999827,
            "s_time" : 349.898999906145,
            "sendEnd" : 55,
            "sendStart" : 55,
            "type" : "image/png"
         }
      },
      {
         "when_comp_start" : -1,
         "url" : "http://original.testbed.localhost/www.adcash.com/en/imgv5/logo_carousel/logo_kromtech.png",
         "id" : "r21",
         "comps" : [],
         "download" : {
            "receiveFirst" : 44,
            "len" : 1446,
            "dns" : 0,
            "dnsEnd" : -1,
            "receiveHeadersEnd" : 74,
            "sslEnd" : -1,
            "connectEnd" : 30,
            "connectStart" : 0,
            "id" : "download_20",
            "receivedTime" : "898.331000003964",
            "sslStart" : -1,
            "dnsStart" : -1,
            "receiveLast" : 824.331000003964,
            "s_time" : 379.577999934554,
            "sendEnd" : 30,
            "sendStart" : 30,
            "type" : "image/png"
         }
      },
      {
         "when_comp_start" : -1,
         "url" : "http://original.testbed.localhost/www.adcash.com/en/imgv5/home_animated/home_advertisers_4.svg",
         "id" : "r22",
         "comps" : [],
         "download" : {
            "receiveFirst" : 41,
            "len" : 394,
            "dns" : 0,
            "dnsEnd" : -1,
            "receiveHeadersEnd" : 70,
            "sslEnd" : -1,
            "connectEnd" : 29,
            "connectStart" : 0,
            "id" : "download_21",
            "receivedTime" : "901.32199996151",
            "sslStart" : -1,
            "dnsStart" : -1,
            "receiveLast" : 831.32199996151,
            "s_time" : 391.24999998603,
            "sendEnd" : 29,
            "sendStart" : 29,
            "type" : "image/svg+xml"
         }
      },
      {
         "when_comp_start" : -1,
         "url" : "http://original.testbed.localhost/www.adcash.com/en/imgv5/home_animated/home_advertisers_3.svg",
         "id" : "r23",
         "comps" : [],
         "download" : {
            "receiveFirst" : 38,
            "len" : 33727,
            "dns" : 0,
            "dnsEnd" : -1,
            "receiveHeadersEnd" : 86,
            "sslEnd" : -1,
            "connectEnd" : 48,
            "connectStart" : 0,
            "id" : "download_22",
            "receivedTime" : "931.503999978304",
            "sslStart" : -1,
            "dnsStart" : -1,
            "receiveLast" : 845.503999978304,
            "s_time" : 396.789999911562,
            "sendEnd" : 48,
            "sendStart" : 48,
            "type" : "image/svg+xml"
         }
      },
      {
         "when_comp_start" : -1,
         "url" : "http://original.testbed.localhost/www.adcash.com/en/imgv5/home_animated/home_advertisers_1.svg",
         "id" : "r24",
         "comps" : [],
         "download" : {
            "receiveFirst" : 41,
            "len" : 1796,
            "dns" : 0,
            "dnsEnd" : -1,
            "receiveHeadersEnd" : 99,
            "sslEnd" : -1,
            "connectEnd" : 58,
            "connectStart" : 0,
            "id" : "download_23",
            "receivedTime" : "1037.58299991023",
            "sslStart" : -1,
            "dnsStart" : -1,
            "receiveLast" : 938.582999910228,
            "s_time" : 401.138999965042,
            "sendEnd" : 58,
            "sendStart" : 58,
            "type" : "image/svg+xml"
         }
      },
      {
         "when_comp_start" : -1,
         "url" : "http://original.testbed.localhost/www.adcash.com/en/imgv5/home_animated/home_advertisers_2.svg",
         "id" : "r25",
         "comps" : [],
         "download" : {
            "receiveFirst" : 45,
            "len" : 39499,
            "dns" : 0,
            "dnsEnd" : -1,
            "receiveHeadersEnd" : 106,
            "sslEnd" : -1,
            "connectEnd" : 61,
            "connectStart" : 0,
            "id" : "download_24",
            "receivedTime" : "1094.28499999922",
            "sslStart" : -1,
            "dnsStart" : -1,
            "receiveLast" : 988.284999999218,
            "s_time" : 407.821999979205,
            "sendEnd" : 61,
            "sendStart" : 61,
            "type" : "image/svg+xml"
         }
      },
      {
         "when_comp_start" : -1,
         "url" : "http://original.testbed.localhost/www.adcash.com/en/imgv5/back_to_top.png",
         "id" : "r26",
         "comps" : [],
         "download" : {
            "receiveFirst" : 38,
            "len" : 218,
            "dns" : 0,
            "dnsEnd" : -1,
            "receiveHeadersEnd" : 100,
            "sslEnd" : -1,
            "connectEnd" : 62,
            "connectStart" : 0,
            "id" : "download_25",
            "receivedTime" : "1089.61599995382",
            "sslStart" : -1,
            "dnsStart" : -1,
            "receiveLast" : 989.615999953821,
            "s_time" : 417.159999953583,
            "sendEnd" : 62,
            "sendStart" : 62,
            "type" : "image/png"
         }
      },
      {
         "when_comp_start" : -1,
         "url" : "http://original.testbed.localhost/www.adcash.com/en/imgv5/home_animated/home_publishers_4.png",
         "id" : "r27",
         "comps" : [],
         "download" : {
            "receiveFirst" : 38,
            "len" : 10865,
            "dns" : 0,
            "dnsEnd" : -1,
            "receiveHeadersEnd" : 77,
            "sslEnd" : -1,
            "connectEnd" : 39,
            "connectStart" : 0,
            "id" : "download_26",
            "receivedTime" : "1093.09499990195",
            "sslStart" : -1,
            "dnsStart" : -1,
            "receiveLast" : 1016.09499990195,
            "s_time" : 441.925999941304,
            "sendEnd" : 39,
            "sendStart" : 39,
            "type" : "image/png"
         }
      },
      {
         "when_comp_start" : -1,
         "url" : "http://original.testbed.localhost/www.adcash.com/en/imgv5/home_animated/home_publishers_3.png",
         "id" : "r28",
         "comps" : [],
         "download" : {
            "receiveFirst" : 40,
            "len" : 8404,
            "dns" : 0,
            "dnsEnd" : -1,
            "receiveHeadersEnd" : 64,
            "sslEnd" : -1,
            "connectEnd" : 24,
            "connectStart" : 0,
            "id" : "download_27",
            "receivedTime" : "1093.70500000659",
            "sslStart" : -1,
            "dnsStart" : -1,
            "receiveLast" : 1029.70500000659,
            "s_time" : 457.061999943107,
            "sendEnd" : 24,
            "sendStart" : 24,
            "type" : "image/png"
         }
      },
      {
         "when_comp_start" : -1,
         "url" : "http://original.testbed.localhost/www.adcash.com/en/imgv5/home_animated/home_publishers_2.png",
         "id" : "r29",
         "comps" : [],
         "download" : {
            "receiveFirst" : 41,
            "len" : 4976,
            "dns" : 0,
            "dnsEnd" : -1,
            "receiveHeadersEnd" : 88,
            "sslEnd" : -1,
            "connectEnd" : 47,
            "connectStart" : 0,
            "id" : "download_28",
            "receivedTime" : "1141.37299999129",
            "sslStart" : -1,
            "dnsStart" : -1,
            "receiveLast" : 1053.37299999129,
            "s_time" : 466.689999913797,
            "sendEnd" : 47,
            "sendStart" : 47,
            "type" : "image/png"
         }
      },
      {
         "when_comp_start" : -1,
         "url" : "http://original.testbed.localhost/www.adcash.com/en/imgv5/home_animated/home_publishers_1.png",
         "id" : "r30",
         "comps" : [],
         "download" : {
            "receiveFirst" : 41,
            "len" : 14467,
            "dns" : 0,
            "dnsEnd" : -1,
            "receiveHeadersEnd" : 86,
            "sslEnd" : -1,
            "connectEnd" : 45,
            "connectStart" : 0,
            "id" : "download_29",
            "receivedTime" : "1142.13599998038",
            "sslStart" : -1,
            "dnsStart" : -1,
            "receiveLast" : 1056.13599998038,
            "s_time" : 470.932999975048,
            "sendEnd" : 45,
            "sendStart" : 45,
            "type" : "image/png"
         }
      },
      {
         "when_comp_start" : -1,
         "url" : "http://original.testbed.localhost/www.adcash.com/en/imgv5/home_facts/facts_dynamic.svg",
         "id" : "r31",
         "comps" : [],
         "download" : {
            "receiveFirst" : 37,
            "len" : 3536,
            "dns" : 0,
            "dnsEnd" : -1,
            "receiveHeadersEnd" : 95,
            "sslEnd" : -1,
            "connectEnd" : 58,
            "connectStart" : 0,
            "id" : "download_30",
            "receivedTime" : "1142.83799997065",
            "sslStart" : -1,
            "dnsStart" : -1,
            "receiveLast" : 1047.83799997065,
            "s_time" : 474.380999919958,
            "sendEnd" : 58,
            "sendStart" : 58,
            "type" : "image/svg+xml"
         }
      },
      {
         "when_comp_start" : -1,
         "url" : "http://original.testbed.localhost/www.adcash.com/en/imgv5/home_facts/facts_predictive.svg",
         "id" : "r32",
         "comps" : [],
         "download" : {
            "receiveFirst" : 34,
            "len" : 3930,
            "dns" : 0,
            "dnsEnd" : -1,
            "receiveHeadersEnd" : 108,
            "sslEnd" : -1,
            "connectEnd" : 74,
            "connectStart" : 0,
            "id" : "download_31",
            "receivedTime" : "1178.48299990874",
            "sslStart" : -1,
            "dnsStart" : -1,
            "receiveLast" : 1070.48299990874,
            "s_time" : 477.906999993138,
            "sendEnd" : 74,
            "sendStart" : 74,
            "type" : "image/svg+xml"
         }
      },
      {
         "when_comp_start" : -1,
         "url" : "http://original.testbed.localhost/www.adcash.com/en/imgv5/home_facts/facts_advanced.svg",
         "id" : "r33",
         "comps" : [],
         "download" : {
            "receiveFirst" : 35,
            "len" : 2421,
            "dns" : 0,
            "dnsEnd" : -1,
            "receiveHeadersEnd" : 81,
            "sslEnd" : -1,
            "connectEnd" : 46,
            "connectStart" : 0,
            "id" : "download_32",
            "receivedTime" : "1214.52399995178",
            "sslStart" : -1,
            "dnsStart" : -1,
            "receiveLast" : 1133.52399995178,
            "s_time" : 507.691000006162,
            "sendEnd" : 46,
            "sendStart" : 46,
            "type" : "image/svg+xml"
         }
      },
      {
         "when_comp_start" : -1,
         "url" : "http://original.testbed.localhost/www.adcash.com/en/imgv5/home_facts/fact_global.svg",
         "id" : "r34",
         "comps" : [],
         "download" : {
            "receiveFirst" : 35,
            "len" : 2458,
            "dns" : 0,
            "dnsEnd" : -1,
            "receiveHeadersEnd" : 78,
            "sslEnd" : -1,
            "connectEnd" : 42,
            "connectStart" : 0,
            "id" : "download_33",
            "receivedTime" : "1244.88899996504",
            "sslStart" : -1,
            "dnsStart" : -1,
            "receiveLast" : 1166.88899996504,
            "s_time" : 511.886999942362,
            "sendEnd" : 43,
            "sendStart" : 42,
            "type" : "image/svg+xml"
         }
      },
      {
         "when_comp_start" : -1,
         "url" : "http://original.testbed.localhost/www.adcash.com/en/imgv5/home_facts/fact_ads.svg",
         "id" : "r35",
         "comps" : [],
         "download" : {
            "receiveFirst" : 34,
            "len" : 973,
            "dns" : 0,
            "dnsEnd" : -1,
            "receiveHeadersEnd" : 85,
            "sslEnd" : -1,
            "connectEnd" : 50,
            "connectStart" : 0,
            "id" : "download_34",
            "receivedTime" : "1281.2359998934",
            "sslStart" : -1,
            "dnsStart" : -1,
            "receiveLast" : 1196.2359998934,
            "s_time" : 528.411999926902,
            "sendEnd" : 51,
            "sendStart" : 50,
            "type" : "image/svg+xml"
         }
      },
      {
         "when_comp_start" : -1,
         "url" : "http://original.testbed.localhost/www.adcash.com/en/imgv5/home_facts/fact_premium.svg",
         "id" : "r36",
         "comps" : [],
         "download" : {
            "receiveFirst" : 34,
            "len" : 787,
            "dns" : 0,
            "dnsEnd" : -1,
            "receiveHeadersEnd" : 75,
            "sslEnd" : -1,
            "connectEnd" : 41,
            "connectStart" : 0,
            "id" : "download_35",
            "receivedTime" : "1327.19499990344",
            "sslStart" : -1,
            "dnsStart" : -1,
            "receiveLast" : 1252.19499990344,
            "s_time" : 540.77199997846,
            "sendEnd" : 41,
            "sendStart" : 41,
            "type" : "image/svg+xml"
         }
      },
      {
         "when_comp_start" : -1,
         "url" : "http://original.testbed.localhost/www.adcash.com/en/imgv5/home_facts/fact_campaigns.svg",
         "id" : "r37",
         "comps" : [],
         "download" : {
            "receiveFirst" : 35,
            "len" : 1207,
            "dns" : 0,
            "dnsEnd" : -1,
            "receiveHeadersEnd" : 72,
            "sslEnd" : -1,
            "connectEnd" : 37,
            "connectStart" : 0,
            "id" : "download_36",
            "receivedTime" : "1355.11899995618",
            "sslStart" : -1,
            "dnsStart" : -1,
            "receiveLast" : 1283.11899995618,
            "s_time" : 546.158999903128,
            "sendEnd" : 37,
            "sendStart" : 37,
            "type" : "image/svg+xml"
         }
      },
      {
         "when_comp_start" : -1,
         "url" : "http://original.testbed.localhost/www.adcash.com/en/imgv5/home_facts/fact_team.svg",
         "id" : "r38",
         "comps" : [],
         "download" : {
            "receiveFirst" : 31,
            "len" : 1910,
            "dns" : 0,
            "dnsEnd" : -1,
            "receiveHeadersEnd" : 83,
            "sslEnd" : -1,
            "connectEnd" : 52,
            "connectStart" : 0,
            "id" : "download_37",
            "receivedTime" : "1386.55199995264",
            "sslStart" : -1,
            "dnsStart" : -1,
            "receiveLast" : 1303.55199995264,
            "s_time" : 550.278999959119,
            "sendEnd" : 52,
            "sendStart" : 52,
            "type" : "image/svg+xml"
         }
      },
      {
         "when_comp_start" : -1,
         "url" : "http://fonts.googleapis.com/cssfamily=Open+Sans:300,400,700%7CLato:400,700,400italic,700italic&subset=latin,cyrillic,latin-ext,latin,latin-ext",
         "id" : "r51",
         "comps" : [
            {
               "s_time" : 1412.39999991376,
               "time" : 79.1019999887801,
               "type" : 2,
               "id" : "comp_120",
               "e_time" : 1491.50199990254
            }
         ],
         "download" : {
            "receiveFirst" : 29,
            "len" : 1700,
            "dns" : 378,
            "dnsEnd" : 385,
            "receiveHeadersEnd" : 434,
            "sslEnd" : -1,
            "connectEnd" : 405,
            "connectStart" : 0,
            "id" : "download_38",
            "receivedTime" : "1411.69799992349",
            "sslStart" : -1,
            "dnsStart" : 7,
            "receiveLast" : 977.69799992349,
            "s_time" : 658.188999979757,
            "sendEnd" : 405,
            "sendStart" : 405,
            "type" : "text/css"
         }
      },
      {
         "when_comp_start" : -1,
         "url" : "http://original.testbed.localhost/www.adcash.com/en/imgv5/adcash_logo_w.svg",
         "id" : "r52",
         "comps" : [],
         "download" : {
            "receiveFirst" : 71,
            "len" : 3311,
            "dns" : 0,
            "dnsEnd" : -1,
            "receiveHeadersEnd" : 76,
            "sslEnd" : -1,
            "connectEnd" : 4,
            "connectStart" : 0,
            "id" : "download_39",
            "receivedTime" : "1501.60299998242",
            "sslStart" : -1,
            "dnsStart" : -1,
            "receiveLast" : 1425.60299998242,
            "s_time" : 1271.46999991965,
            "sendEnd" : 5,
            "sendStart" : 4,
            "type" : "image/svg+xml"
         }
      },
      {
         "when_comp_start" : -1,
         "url" : "http://original.testbed.localhost/www.adcash.com/en/imgv5/social_icons/social_1.png",
         "id" : "r53",
         "comps" : [],
         "download" : {
            "receiveFirst" : 56,
            "len" : 230,
            "dns" : 0,
            "dnsEnd" : -1,
            "receiveHeadersEnd" : 73,
            "sslEnd" : -1,
            "connectEnd" : 16,
            "connectStart" : 0,
            "id" : "download_40",
            "receivedTime" : "1494.82799996622",
            "sslStart" : -1,
            "dnsStart" : -1,
            "receiveLast" : 1421.82799996622,
            "s_time" : 1277.55799994338,
            "sendEnd" : 17,
            "sendStart" : 16,
            "type" : "image/png"
         }
      },
      {
         "when_comp_start" : -1,
         "url" : "http://original.testbed.localhost/www.adcash.com/en/imgv5/social_icons/social_2.png",
         "id" : "r54",
         "comps" : [],
         "download" : {
            "receiveFirst" : 57,
            "len" : 331,
            "dns" : 0,
            "dnsEnd" : -1,
            "receiveHeadersEnd" : 77,
            "sslEnd" : -1,
            "connectEnd" : 20,
            "connectStart" : 0,
            "id" : "download_41",
            "receivedTime" : "1498.58199991286",
            "sslStart" : -1,
            "dnsStart" : -1,
            "receiveLast" : 1421.58199991286,
            "s_time" : 1278.47299992573,
            "sendEnd" : 20,
            "sendStart" : 20,
            "type" : "image/png"
         }
      },
      {
         "when_comp_start" : -1,
         "url" : "http://original.testbed.localhost/www.adcash.com/en/imgv5/social_icons/social_3.png",
         "id" : "r55",
         "comps" : [],
         "download" : {
            "receiveFirst" : 55,
            "len" : 267,
            "dns" : 0,
            "dnsEnd" : -1,
            "receiveHeadersEnd" : 78,
            "sslEnd" : -1,
            "connectEnd" : 23,
            "connectStart" : 0,
            "id" : "download_42",
            "receivedTime" : "1499.71099989489",
            "sslStart" : -1,
            "dnsStart" : -1,
            "receiveLast" : 1421.71099989489,
            "s_time" : 1279.49599991553,
            "sendEnd" : 23,
            "sendStart" : 23,
            "type" : "image/png"
         }
      },
      {
         "when_comp_start" : -1,
         "url" : "http://original.testbed.localhost/www.adcash.com/en/imgv5/social_icons/social_4.png",
         "id" : "r56",
         "comps" : [],
         "download" : {
            "receiveFirst" : 53,
            "len" : 424,
            "dns" : 0,
            "dnsEnd" : -1,
            "receiveHeadersEnd" : 79,
            "sslEnd" : -1,
            "connectEnd" : 26,
            "connectStart" : 0,
            "id" : "download_43",
            "receivedTime" : "1500.71799999569",
            "sslStart" : -1,
            "dnsStart" : -1,
            "receiveLast" : 1421.71799999569,
            "s_time" : 1280.28899990022,
            "sendEnd" : 26,
            "sendStart" : 26,
            "type" : "image/png"
         }
      },
      {
         "when_comp_start" : -1,
         "url" : "http://original.testbed.localhost/ajax.googleapis.com/ajax/libs/jquery/2.1.3/jquery.min.js",
         "id" : "r57",
         "comps" : [
            {
               "s_time" : 1526.96299995296,
               "time" : 170.65400001593,
               "type" : 1,
               "id" : "comp_133",
               "e_time" : 1697.61699996889
            }
         ],
         "download" : {
            "receiveFirst" : 62,
            "len" : 84320,
            "dns" : 0,
            "dnsEnd" : -1,
            "receiveHeadersEnd" : 92,
            "sslEnd" : -1,
            "connectEnd" : 29,
            "connectStart" : 0,
            "id" : "download_44",
            "receivedTime" : "1526.32199996151",
            "sslStart" : -1,
            "dnsStart" : -1,
            "receiveLast" : 1434.32199996151,
            "s_time" : 1278.45799992792,
            "sendEnd" : 30,
            "sendStart" : 29,
            "type" : "application/javascript"
         }
      },
      {
         "when_comp_start" : -1,
         "url" : "http://original.testbed.localhost/www.adcash.com/jsv5_dist/jquery_cookie.js%3Fv=3.1",
         "id" : "r58",
         "comps" : [
            {
               "s_time" : 1699.20399994589,
               "time" : 1.76999997348003,
               "type" : 1,
               "id" : "comp_135",
               "e_time" : 1700.97399991937
            }
         ],
         "download" : {
            "receiveFirst" : 41,
            "len" : 1263,
            "dns" : 0,
            "dnsEnd" : -1,
            "receiveHeadersEnd" : 129,
            "sslEnd" : -1,
            "connectEnd" : 87,
            "connectStart" : 0,
            "id" : "download_45",
            "receivedTime" : "1698.9599999506",
            "sslStart" : -1,
            "dnsStart" : -1,
            "receiveLast" : 1569.9599999506,
            "s_time" : 1278.94699992612,
            "sendEnd" : 88,
            "sendStart" : 87,
            "type" : "text/plain"
         }
      },
      {
         "when_comp_start" : -1,
         "url" : "http://original.testbed.localhost/www.adcash.com/imgv5/geo.png",
         "id" : "r67",
         "comps" : [],
         "download" : {
            "receiveFirst" : 36,
            "len" : 141572,
            "dns" : 0,
            "dnsEnd" : -1,
            "receiveHeadersEnd" : 42,
            "sslEnd" : -1,
            "connectEnd" : 6,
            "connectStart" : 0,
            "id" : "download_46",
            "receivedTime" : "2287.33899991494",
            "sslStart" : -1,
            "dnsStart" : -1,
            "receiveLast" : 2245.33899991494,
            "s_time" : 1711.19800000452,
            "sendEnd" : 6,
            "sendStart" : 6,
            "type" : "image/png"
         }
      },
      {
         "when_comp_start" : -1,
         "url" : "http://original.testbed.localhost/www.adcash.com/imgv5/intro_background.jpg",
         "id" : "r68",
         "comps" : [],
         "download" : {
            "receiveFirst" : 15,
            "len" : 274210,
            "dns" : 0,
            "dnsEnd" : -1,
            "receiveHeadersEnd" : 20,
            "sslEnd" : -1,
            "connectEnd" : 4,
            "connectStart" : 0,
            "id" : "download_47",
            "receivedTime" : "2291.85599996708",
            "sslStart" : -1,
            "dnsStart" : -1,
            "receiveLast" : 2271.85599996708,
            "s_time" : 1742.61600000318,
            "sendEnd" : 5,
            "sendStart" : 4,
            "type" : "image/jpeg"
         }
      },
      {
         "when_comp_start" : -1,
         "url" : "http://www.google-analytics.com/analytics.js",
         "id" : "r69",
         "comps" : [
            {
               "s_time" : 2523.48400000483,
               "time" : 113.64799994044,
               "type" : null,
               "id" : "comp_227",
               "e_time" : 2637.13199994527
            }
         ],
         "download" : {
            "receiveFirst" : 11,
            "len" : 25252,
            "dns" : 237,
            "dnsEnd" : 257,
            "receiveHeadersEnd" : 274,
            "sslEnd" : -1,
            "connectEnd" : 262,
            "connectStart" : 0,
            "id" : "download_48",
            "receivedTime" : "2522.75199990254",
            "sslStart" : -1,
            "dnsStart" : 20,
            "receiveLast" : 2248.75199990254,
            "s_time" : 1998.39899991639,
            "sendEnd" : 263,
            "sendStart" : 262,
            "type" : "text/javascript"
         }
      }
   ],
   "deps" : [
      {
         "a2" : "r1_c2",
         "time" : -1,
         "id" : "dep1",
         "a1" : "comp_133"
      },
      {
         "a2" : "r1_c3",
         "time" : -1,
         "id" : "dep2",
         "a1" : "comp_135"
      },
      {
         "a2" : "comp_135",
         "time" : -1,
         "id" : "dep3",
         "a1" : "comp_133"
      },
      {
         "a2" : "download_48",
         "time" : 297.42499999702,
         "id" : "dep4",
         "a1" : "r1_c3"
      },
      {
         "a2" : "download_47",
         "time" : 41.64200008381,
         "id" : "dep5",
         "a1" : "r1_c3"
      },
      {
         "a2" : "download_46",
         "time" : 10.22400008515,
         "id" : "dep6",
         "a1" : "r1_c3"
      },
      {
         "a2" : "download_45",
         "time" : -1,
         "id" : "dep7",
         "a1" : "r1_c1"
      },
      {
         "a2" : "download_45",
         "time" : 1151.91699995194,
         "id" : "dep8",
         "a1" : "r1_c1"
      },
      {
         "a2" : "download_44",
         "time" : 1151.42799995374,
         "id" : "dep9",
         "a1" : "r1_c1"
      },
      {
         "a2" : "download_44",
         "time" : 1151.42799995374,
         "id" : "dep10",
         "a1" : "r1_c1"
      },
      {
         "a2" : "download_43",
         "time" : -1,
         "id" : "dep11",
         "a1" : "r1_c1"
      },
      {
         "a2" : "download_42",
         "time" : 1152.46599994135,
         "id" : "dep12",
         "a1" : "r1_c1"
      },
      {
         "a2" : "download_41",
         "time" : 1151.44299995155,
         "id" : "dep13",
         "a1" : "r1_c1"
      },
      {
         "a2" : "download_40",
         "time" : 1150.5279999692,
         "id" : "dep14",
         "a1" : "r1_c1"
      },
      {
         "a2" : "download_40",
         "time" : 1150.5279999692,
         "id" : "dep15",
         "a1" : "r1_c1"
      },
      {
         "a2" : "download_39",
         "time" : 1144.43999994547,
         "id" : "dep16",
         "a1" : "r1_c1"
      },
      {
         "a2" : "download_39",
         "time" : 1144.43999994547,
         "id" : "dep17",
         "a1" : "r1_c1"
      },
      {
         "a2" : "download_38",
         "time" : 531.159000005573,
         "id" : "dep18",
         "a1" : "r1_c1"
      },
      {
         "a2" : "download_37",
         "time" : 423.248999984935,
         "id" : "dep19",
         "a1" : "r1_c1"
      },
      {
         "a2" : "download_36",
         "time" : 419.128999928944,
         "id" : "dep20",
         "a1" : "r1_c1"
      },
      {
         "a2" : "download_35",
         "time" : 413.742000004276,
         "id" : "dep21",
         "a1" : "r1_c1"
      },
      {
         "a2" : "download_34",
         "time" : 401.381999952718,
         "id" : "dep22",
         "a1" : "r1_c1"
      },
      {
         "a2" : "download_33",
         "time" : 384.856999968178,
         "id" : "dep23",
         "a1" : "r1_c1"
      },
      {
         "a2" : "download_32",
         "time" : 380.661000031978,
         "id" : "dep24",
         "a1" : "r1_c1"
      },
      {
         "a2" : "download_31",
         "time" : 350.877000018954,
         "id" : "dep25",
         "a1" : "r1_c1"
      },
      {
         "a2" : "download_30",
         "time" : 347.350999945774,
         "id" : "dep26",
         "a1" : "r1_c1"
      },
      {
         "a2" : "download_29",
         "time" : 343.903000000864,
         "id" : "dep27",
         "a1" : "r1_c1"
      },
      {
         "a2" : "download_28",
         "time" : 339.659999939613,
         "id" : "dep28",
         "a1" : "r1_c1"
      },
      {
         "a2" : "download_27",
         "time" : 330.031999968923,
         "id" : "dep29",
         "a1" : "r1_c1"
      },
      {
         "a2" : "download_26",
         "time" : 314.89599996712,
         "id" : "dep30",
         "a1" : "r1_c1"
      },
      {
         "a2" : "download_25",
         "time" : 290.129999979399,
         "id" : "dep31",
         "a1" : "r1_c1"
      },
      {
         "a2" : "download_24",
         "time" : 280.792000005021,
         "id" : "dep32",
         "a1" : "r1_c1"
      },
      {
         "a2" : "download_23",
         "time" : 274.108999990858,
         "id" : "dep33",
         "a1" : "r1_c1"
      },
      {
         "a2" : "download_22",
         "time" : 269.759999937378,
         "id" : "dep34",
         "a1" : "r1_c1"
      },
      {
         "a2" : "download_21",
         "time" : 264.220000011846,
         "id" : "dep35",
         "a1" : "r1_c1"
      },
      {
         "a2" : "download_20",
         "time" : 252.54799996037,
         "id" : "dep36",
         "a1" : "r1_c1"
      },
      {
         "a2" : "download_19",
         "time" : 222.868999931961,
         "id" : "dep37",
         "a1" : "r1_c1"
      },
      {
         "a2" : "download_18",
         "time" : 204.726999974809,
         "id" : "dep38",
         "a1" : "r1_c1"
      },
      {
         "a2" : "download_17",
         "time" : 201.385000022128,
         "id" : "dep39",
         "a1" : "r1_c1"
      },
      {
         "a2" : "download_16",
         "time" : 198.226999957114,
         "id" : "dep40",
         "a1" : "r1_c1"
      },
      {
         "a2" : "download_15",
         "time" : 195.069000008516,
         "id" : "dep41",
         "a1" : "r1_c1"
      },
      {
         "a2" : "download_14",
         "time" : 191.176999942399,
         "id" : "dep42",
         "a1" : "r1_c1"
      },
      {
         "a2" : "download_13",
         "time" : 157.134999986738,
         "id" : "dep43",
         "a1" : "r1_c1"
      },
      {
         "a2" : "download_12",
         "time" : 108.460000017658,
         "id" : "dep44",
         "a1" : "r1_c1"
      },
      {
         "a2" : "download_11",
         "time" : 106.612999923527,
         "id" : "dep45",
         "a1" : "r1_c1"
      },
      {
         "a2" : "download_10",
         "time" : 105.788999935612,
         "id" : "dep46",
         "a1" : "r1_c1"
      },
      {
         "a2" : "download_9",
         "time" : 104.52199995052,
         "id" : "dep47",
         "a1" : "r1_c1"
      },
      {
         "a2" : "download_8",
         "time" : 103.133999975398,
         "id" : "dep48",
         "a1" : "r1_c1"
      },
      {
         "a2" : "download_7",
         "time" : 101.622999995015,
         "id" : "dep49",
         "a1" : "r1_c1"
      },
      {
         "a2" : "download_6",
         "time" : 100.693000014871,
         "id" : "dep50",
         "a1" : "r1_c1"
      },
      {
         "a2" : "download_5",
         "time" : 99.823000025935,
         "id" : "dep51",
         "a1" : "r1_c1"
      },
      {
         "a2" : "download_4",
         "time" : 98.34399993997,
         "id" : "dep52",
         "a1" : "r1_c1"
      },
      {
         "a2" : "download_3",
         "time" : 65.74999995064,
         "id" : "dep53",
         "a1" : "r1_c1"
      },
      {
         "a2" : "download_2",
         "time" : 4.94399992749101,
         "id" : "dep54",
         "a1" : "r1_c1"
      },
      {
         "a2" : "download_1",
         "time" : 4.24199993722101,
         "id" : "dep55",
         "a1" : "r1_c1"
      }
   ]
}
