{
   "n_download_no_trigger" : 1,
   "start_activity" : "download_0",
   "name" : "original.testbed.localhost_www.bisport.cz_",
   "load_activity" : -1,
   "objs" : [
      {
         "when_comp_start" : 1,
         "url" : "http://original.testbed.localhost/www.bisport.cz/",
         "id" : "r18",
         "comps" : [
            {
               "s_time" : 83.8930000318214,
               "time" : -951915054.005,
               "id" : "r18_c1",
               "type" : "evalhtml",
               "e_time" : -951914970.112
            },
            {
               "s_time" : 244.506999966688,
               "time" : -951915214.619,
               "id" : "r18_c2",
               "type" : "evalhtml",
               "e_time" : -951914970.112
            },
            {
               "s_time" : 251.098999986425,
               "time" : -951915221.211,
               "id" : "r18_c3",
               "type" : "evalhtml",
               "e_time" : -951914970.112
            },
            {
               "s_time" : 255.127000040375,
               "time" : -951915225.239,
               "id" : "r18_c4",
               "type" : "evalhtml",
               "e_time" : -951914970.112
            },
            {
               "s_time" : 257.630000007339,
               "time" : 148.65099999588,
               "type" : "evalhtml",
               "id" : "r18_c5",
               "e_time" : 406.281000003219
            }
         ],
         "download" : {
            "receiveFirst" : 8,
            "len" : 6673,
            "dns" : 0,
            "dnsEnd" : -1,
            "receiveHeadersEnd" : 13,
            "sslEnd" : -1,
            "connectEnd" : 4,
            "connectStart" : 0,
            "id" : "download_0",
            "receivedTime" : "17.5169999711215",
            "sslStart" : -1,
            "dnsStart" : -1,
            "receiveLast" : 4.51699997112155,
            "s_time" : 0,
            "sendEnd" : 5,
            "sendStart" : 4,
            "type" : "text/html"
         }
      },
      {
         "when_comp_start" : -1,
         "url" : "http://www.google-analytics.com/__utm.gifutmwv=5.6.6&utms=2&utmn=321282466&utmhn=original.testbed.localhost&utmcs=UTF-8&utmsr=360x640&utmvp=360x576&utmsc=32-bit&utmul=en-us&utmje=1&utmfl=-&utmdt=P%C5%AFj%C4%8Dovna%20lod%C3%AD%20a%20kol%2C%20ubytov%C3%A1n%C3%AD%20na%20s%C3%A1zav%C4%9B%20%7C%20Bispor",
         "id" : "r33",
         "comps" : [],
         "download" : {
            "receiveFirst" : 48,
            "len" : 35,
            "dns" : 0,
            "dnsEnd" : -1,
            "receiveHeadersEnd" : 53,
            "sslEnd" : -1,
            "connectEnd" : 5,
            "connectStart" : 0,
            "id" : "download_1",
            "receivedTime" : "462.676999974065",
            "sslStart" : -1,
            "dnsStart" : -1,
            "receiveLast" : 409.676999974065,
            "s_time" : 406.281000003219,
            "sendEnd" : 5,
            "sendStart" : 5,
            "type" : "image/gif"
         }
      }
   ],
   "deps" : [
      {
         "a2" : "r18_c2",
         "time" : -1,
         "id" : "dep1",
         "a1" : "comp_4"
      },
      {
         "a2" : "r18_c3",
         "time" : -1,
         "id" : "dep2",
         "a1" : "comp_7"
      },
      {
         "a2" : "r18_c4",
         "time" : -1,
         "id" : "dep3",
         "a1" : "comp_9"
      },
      {
         "a2" : "r18_c5",
         "time" : -1,
         "id" : "dep4",
         "a1" : "comp_11"
      },
      {
         "a2" : "download_1",
         "time" : -1,
         "id" : "dep5",
         "a1" : "r18_c5"
      }
   ]
}
