{
   "n_download_no_trigger" : 1,
   "start_activity" : "download_0",
   "name" : "original.testbed.localhost_www.google.co.jp_",
   "load_activity" : -1,
   "objs" : [
      {
         "when_comp_start" : 1,
         "url" : "http://original.testbed.localhost/www.google.co.jp/",
         "id" : "r1",
         "comps" : [
            {
               "s_time" : 109.511999995448,
               "time" : 98.281000042334,
               "type" : "evalhtml",
               "id" : "r1_c1",
               "e_time" : 207.793000037782
            }
         ],
         "download" : {
            "receiveFirst" : 9,
            "len" : 19036,
            "dns" : 0,
            "dnsEnd" : -1,
            "receiveHeadersEnd" : 15,
            "sslEnd" : -1,
            "connectEnd" : 6,
            "connectStart" : 0,
            "id" : "download_0",
            "receivedTime" : "108.474000007845",
            "sslStart" : -1,
            "dnsStart" : -1,
            "receiveLast" : 93.4740000078455,
            "s_time" : 0,
            "sendEnd" : 6,
            "sendStart" : 6,
            "type" : "text/html"
         }
      },
      {
         "when_comp_start" : -1,
         "url" : "http://original.testbed.localhost/www.google.co.jp/images/icons/product/chrome-48.png",
         "id" : "r2",
         "comps" : [],
         "download" : {
            "receiveFirst" : 6,
            "len" : 1834,
            "dns" : 0,
            "dnsEnd" : -1,
            "receiveHeadersEnd" : 15,
            "sslEnd" : -1,
            "connectEnd" : 9,
            "connectStart" : 0,
            "id" : "download_1",
            "receivedTime" : "213.57700007502",
            "sslStart" : -1,
            "dnsStart" : -1,
            "receiveLast" : 198.57700007502,
            "s_time" : 142.22600008361,
            "sendEnd" : 9,
            "sendStart" : 9,
            "type" : "image/png"
         }
      },
      {
         "when_comp_start" : 1,
         "url" : "http://original.testbed.localhost/client_204&atyp=i&biw=360&bih=576&ei=ujrfVcDrCofZesOwgoAG",
         "id" : "r3",
         "comps" : [],
         "download" : {
            "receiveFirst" : 6,
            "len" : 300,
            "dns" : 0,
            "dnsEnd" : -1,
            "receiveHeadersEnd" : 16,
            "sslEnd" : -1,
            "connectEnd" : 10,
            "connectStart" : 0,
            "id" : "download_2",
            "receivedTime" : "214.67500005383",
            "sslStart" : -1,
            "dnsStart" : -1,
            "receiveLast" : 198.67500005383,
            "s_time" : 162.842000019737,
            "sendEnd" : 10,
            "sendStart" : 10,
            "type" : "text/html"
         }
      },
      {
         "when_comp_start" : -1,
         "url" : "http://original.testbed.localhost/www.google.co.jp/images/srpr/logo9w.png",
         "id" : "r4",
         "comps" : [],
         "download" : {
            "receiveFirst" : 6,
            "len" : 8228,
            "dns" : 0,
            "dnsEnd" : -1,
            "receiveHeadersEnd" : 11,
            "sslEnd" : -1,
            "connectEnd" : 5,
            "connectStart" : 0,
            "id" : "download_3",
            "receivedTime" : "216.049000038765",
            "sslStart" : -1,
            "dnsStart" : -1,
            "receiveLast" : 205.049000038765,
            "s_time" : 184.55400003586,
            "sendEnd" : 5,
            "sendStart" : 5,
            "type" : "image/png"
         }
      },
      {
         "when_comp_start" : -1,
         "url" : "http://original.testbed.localhost/www.google.co.jp/images/srpr/nav_logo80.png",
         "id" : "r5",
         "comps" : [],
         "download" : {
            "receiveFirst" : 23,
            "len" : 35615,
            "dns" : 0,
            "dnsEnd" : -1,
            "receiveHeadersEnd" : 34,
            "sslEnd" : -1,
            "connectEnd" : 11,
            "connectStart" : 0,
            "id" : "download_4",
            "receivedTime" : "256.454000016674",
            "sslStart" : -1,
            "dnsStart" : -1,
            "receiveLast" : 222.454000016674,
            "s_time" : 207.793000037782,
            "sendEnd" : 11,
            "sendStart" : 11,
            "type" : "image/png"
         }
      }
   ],
   "deps" : [
      {
         "a2" : "download_4",
         "time" : -1,
         "id" : "dep1",
         "a1" : "r1_c1"
      },
      {
         "a2" : "download_3",
         "time" : 75.042000040412,
         "id" : "dep2",
         "a1" : "r1_c1"
      },
      {
         "a2" : "download_2",
         "time" : 53.330000024289,
         "id" : "dep3",
         "a1" : "r1_c1"
      },
      {
         "a2" : "download_1",
         "time" : 32.714000088162,
         "id" : "dep4",
         "a1" : "r1_c1"
      }
   ]
}
