{
   "n_download_no_trigger" : 1,
   "start_activity" : "download_0",
   "name" : "original.testbed.localhost_www.linkedin.com_",
   "load_activity" : -1,
   "objs" : [
      {
         "when_comp_start" : 1,
         "url" : "http://original.testbed.localhost/www.linkedin.com/",
         "id" : "r19",
         "comps" : [
            {
               "s_time" : 68.7559999059886,
               "time" : -828154671.228,
               "id" : "r19_c1",
               "type" : "evalhtml",
               "e_time" : -828154602.472
            },
            {
               "s_time" : 97.8699999395758,
               "time" : -828154700.342,
               "id" : "r19_c2",
               "type" : "evalhtml",
               "e_time" : -828154602.472
            },
            {
               "s_time" : 279.753999901004,
               "time" : -828154882.226,
               "id" : "r19_c3",
               "type" : "evalhtml",
               "e_time" : -828154602.472
            },
            {
               "s_time" : 284.69799994491,
               "time" : -828154887.17,
               "id" : "r19_c4",
               "type" : "evalhtml",
               "e_time" : -828154602.472
            },
            {
               "s_time" : 302.581999916583,
               "time" : -828154905.054,
               "id" : "r19_c5",
               "type" : "evalhtml",
               "e_time" : -828154602.472
            },
            {
               "s_time" : 440.367999952286,
               "time" : -828155042.84,
               "id" : "r19_c6",
               "type" : "evalhtml",
               "e_time" : -828154602.472
            },
            {
               "s_time" : 456.115999957547,
               "time" : 0.975999981164989,
               "type" : "evalhtml",
               "id" : "r19_c7",
               "e_time" : 457.091999938712
            }
         ],
         "download" : {
            "receiveFirst" : 6,
            "len" : 41986,
            "dns" : 0,
            "dnsEnd" : -1,
            "receiveHeadersEnd" : 9,
            "sslEnd" : -1,
            "connectEnd" : 3,
            "connectStart" : 0,
            "id" : "download_0",
            "receivedTime" : "65.9479999449104",
            "sslStart" : -1,
            "dnsStart" : -1,
            "receiveLast" : 56.9479999449104,
            "s_time" : 0,
            "sendEnd" : 3,
            "sendStart" : 3,
            "type" : "text/html"
         }
      }
   ],
   "deps" : [
      {
         "a2" : "r19_c2",
         "time" : -1,
         "id" : "dep1",
         "a1" : "comp_7"
      },
      {
         "a2" : "r19_c3",
         "time" : -1,
         "id" : "dep2",
         "a1" : "comp_20"
      },
      {
         "a2" : "r19_c4",
         "time" : -1,
         "id" : "dep3",
         "a1" : "comp_22"
      },
      {
         "a2" : "r19_c5",
         "time" : -1,
         "id" : "dep4",
         "a1" : "comp_23"
      },
      {
         "a2" : "r19_c6",
         "time" : -1,
         "id" : "dep5",
         "a1" : "comp_25"
      },
      {
         "a2" : "r19_c7",
         "time" : -1,
         "id" : "dep6",
         "a1" : "comp_27"
      }
   ]
}
