load:	5802.96400000225
HTMLParse:	3667.923000000883
TTFB:	152.665000001434
Parse:	0.0
PostParse:	0.0
level:	0
time_download:	4253.3729999850075
time_comp:	4696.6400000092135
time_block:	87.97999995296104
whatif_matrix:	0.0
download_blocking:	0.0
download_proxy:	0.0
download_dns:	0
download_conn:	0.0
download_ssl:	0.0
download_send::	0.0
download_receiveFirst:	0.0
download_receiveLast:	0.0
parse_style:	20.691000012448
parse_script:	920.046000042921
parse_layout:	0.0
parse_paint:	0.0
parse_other:	0.0
parse_undefined:	0.0
dep_D2E:	0.0
dep_E2D_html:	0.0
dep_E2D_css:	0.0
dep_E2D_js:	0.0
dep_E2D_timer:	0.0
dep_RFB:	0.0
dep_HOL_css:	0.0
dep_HOL_js:	0.0
time_download_html:	151.71899998677
time_download_css:	136.505000002217
time_download_js:	41.15299999829995
time_download_img:	3923.99599999772
time_download_o:	0.0
time_block_css:	0.0
time_block_js:	0.0
time_ttfb:	0.0
num_domains_cp:	0.0
num_domains_all:	0
text_domains_cp:	{}
text_domains_all:	{}
num_bytes_cp:	879009.0
num_bytes_all:	2431932
num_send_cp:	0.0
num_send_all:	0.0
num_conn_cp:	0.0
num_conn_all:	0.0
num_objs_cp:	21
num_objs_all:	112
num_js_cp:	2
num_js_all:	17
num_css_cp:	1
num_css_all:	7
text_domain_tcp_net_cp:	[]
text_domain_tcp_net_all:	[]
critical_path:	['download_0', 'r1_c1', 'download_2', 'comp_2', 'comp_3', 'comp_4', 'comp_7', 'comp_10', 'comp_12', 'comp_14', 'comp_16', 'comp_18', 'comp_20', 'comp_24', 'comp_27', 'r1_c12', 'download_24', 'download_24', 'comp_53', 'r1_c18', 'download_50']
domains_all:	1
domains_cp:	1
