{
   "n_download_no_trigger" : 1,
   "start_activity" : "download_0",
   "name" : "original.testbed.localhost_www.foxbusiness.com",
   "load_activity" : -1,
   "objs" : [
      {
         "when_comp_start" : 1,
         "url" : "http://original.testbed.localhost/www.foxbusiness.com",
         "id" : "r1",
         "comps" : [
            {
               "s_time" : 24.3140000093263,
               "time" : 0.297999999020199,
               "type" : "evalhtml",
               "id" : "r1_c1",
               "e_time" : 24.6120000083465
            }
         ],
         "download" : {
            "receiveFirst" : 6,
            "len" : 309,
            "dns" : 0,
            "dnsEnd" : -1,
            "receiveHeadersEnd" : 8,
            "sslEnd" : -1,
            "connectEnd" : 2,
            "connectStart" : 0,
            "id" : "download_0",
            "receivedTime" : "9.06499999109656",
            "sslStart" : -1,
            "dnsStart" : -1,
            "receiveLast" : 1.06499999109656,
            "s_time" : 0,
            "sendEnd" : 2,
            "sendStart" : 2,
            "type" : "text/html"
         }
      }
   ],
   "deps" : []
}
