{
   "n_download_no_trigger" : 1,
   "start_activity" : "download_0",
   "name" : "original.testbed.localhost_www.googleadservices.com",
   "load_activity" : -1,
   "objs" : [
      {
         "when_comp_start" : 1,
         "url" : "http://original.testbed.localhost/www.googleadservices.com",
         "id" : "r1",
         "comps" : [
            {
               "s_time" : 231.017999991309,
               "time" : 0.824000017018989,
               "type" : "evalhtml",
               "id" : "r1_c1",
               "e_time" : 231.842000008328
            }
         ],
         "download" : {
            "receiveFirst" : 53,
            "len" : 314,
            "dns" : 0,
            "dnsEnd" : -1,
            "receiveHeadersEnd" : 118,
            "sslEnd" : -1,
            "connectEnd" : 65,
            "connectStart" : 0,
            "id" : "download_0",
            "receivedTime" : "125.092000002041",
            "sslStart" : -1,
            "dnsStart" : -1,
            "receiveLast" : 7.09200000204146,
            "s_time" : 0,
            "sendEnd" : 65,
            "sendStart" : 65,
            "type" : "text/html"
         }
      }
   ],
   "deps" : []
}
