{
   "n_download_no_trigger" : 1,
   "start_activity" : "download_0",
   "name" : "original.testbed.localhost_townhall.com_",
   "load_activity" : -1,
   "objs" : [
      {
         "when_comp_start" : 1,
         "url" : "http://original.testbed.localhost/townhall.com/",
         "id" : "r1",
         "comps" : [
            {
               "s_time" : 193.649000000732,
               "time" : 19.118000003801,
               "id" : "r1_c1",
               "type" : "evalhtml",
               "e_time" : 212.767000004533
            },
            {
               "s_time" : 1480.60600000463,
               "time" : -46148607.468,
               "id" : "r1_c2",
               "type" : "evalhtml",
               "e_time" : -46147126.862
            },
            {
               "s_time" : 1485.18300000433,
               "time" : -46148612.045,
               "id" : "r1_c3",
               "type" : "evalhtml",
               "e_time" : -46147126.862
            },
            {
               "s_time" : 1501.2360000037,
               "time" : 35.0340000004501,
               "id" : "r1_c4",
               "type" : "evalhtml",
               "e_time" : 1536.27000000415
            },
            {
               "s_time" : 1537.03300000052,
               "time" : 3.14200000138999,
               "id" : "r1_c5",
               "type" : "evalhtml",
               "e_time" : 1540.17500000191
            },
            {
               "s_time" : 1597.82400000404,
               "time" : 491.82099999598,
               "id" : "r1_c6",
               "type" : "evalhtml",
               "e_time" : 2089.64500000002
            },
            {
               "s_time" : 2189.86500000028,
               "time" : -46149316.727,
               "id" : "r1_c7",
               "type" : "evalhtml",
               "e_time" : -46147126.862
            },
            {
               "s_time" : 2634.20100000076,
               "time" : 274.27700000407,
               "id" : "r1_c8",
               "type" : "evalhtml",
               "e_time" : 2908.47800000483
            },
            {
               "s_time" : 2931.44200000097,
               "time" : -46150058.304,
               "id" : "r1_c9",
               "type" : "evalhtml",
               "e_time" : -46147126.862
            },
            {
               "s_time" : 2938.7360000037,
               "time" : -46150065.598,
               "id" : "r1_c10",
               "type" : "evalhtml",
               "e_time" : -46147126.862
            },
            {
               "s_time" : 2940.93300000532,
               "time" : 448.50099999894,
               "id" : "r1_c11",
               "type" : "evalhtml",
               "e_time" : 3389.43400000426
            },
            {
               "s_time" : 3405.89900000487,
               "time" : 2163.3440000005,
               "type" : "evalhtml",
               "id" : "r1_c12",
               "e_time" : 5569.24300000537
            }
         ],
         "download" : {
            "receiveFirst" : 56,
            "len" : 105550,
            "dns" : 0,
            "dnsEnd" : -1,
            "receiveHeadersEnd" : 62,
            "sslEnd" : -1,
            "connectEnd" : 6,
            "connectStart" : 0,
            "id" : "download_0",
            "receivedTime" : "256.057000005967",
            "sslStart" : -1,
            "dnsStart" : -1,
            "receiveLast" : 194.057000005967,
            "s_time" : 0,
            "sendEnd" : 6,
            "sendStart" : 6,
            "type" : "text/html"
         }
      },
      {
         "when_comp_start" : -1,
         "url" : "http://original.testbed.localhost/media.townhall.com/_townhall/resources/css/bundle/home.css%3Fv=573621783.css",
         "id" : "r2",
         "comps" : [
            {
               "s_time" : 283.035000000382,
               "time" : 3.326000005472,
               "type" : 4,
               "id" : "comp_1",
               "e_time" : 286.361000005854
            }
         ],
         "download" : {
            "receiveFirst" : 56,
            "len" : 5890,
            "dns" : 0,
            "dnsEnd" : -1,
            "receiveHeadersEnd" : 76,
            "sslEnd" : -1,
            "connectEnd" : 20,
            "connectStart" : 0,
            "id" : "download_1",
            "receivedTime" : "282.333000002836",
            "sslStart" : -1,
            "dnsStart" : -1,
            "receiveLast" : 206.333000002836,
            "s_time" : 200.271000001521,
            "sendEnd" : 20,
            "sendStart" : 20,
            "type" : "text/css"
         }
      },
      {
         "when_comp_start" : -1,
         "url" : "http://original.testbed.localhost/media.townhall.com/_townhall/resources/css/bootstrap/2.3.2/bootstrap.min.css%3Fv=573621783.css",
         "id" : "r3",
         "comps" : [
            {
               "s_time" : 845.809000005829,
               "time" : 149.169999996957,
               "type" : 4,
               "id" : "comp_3",
               "e_time" : 994.979000002786
            }
         ],
         "download" : {
            "receiveFirst" : 57,
            "len" : 106044,
            "dns" : 0,
            "dnsEnd" : -1,
            "receiveHeadersEnd" : 110,
            "sslEnd" : -1,
            "connectEnd" : 53,
            "connectStart" : 0,
            "id" : "download_2",
            "receivedTime" : "845.108000001346",
            "sslStart" : -1,
            "dnsStart" : -1,
            "receiveLast" : 735.108000001346,
            "s_time" : 201.461000004201,
            "sendEnd" : 53,
            "sendStart" : 53,
            "type" : "text/css"
         }
      },
      {
         "when_comp_start" : -1,
         "url" : "http://original.testbed.localhost/media.townhall.com/_townhall/resources/css/bundle/global.css%3Fv=573621783.css",
         "id" : "r4",
         "comps" : [
            {
               "s_time" : 507.675000000745,
               "time" : 51.727000005485,
               "type" : 4,
               "id" : "comp_2",
               "e_time" : 559.40200000623
            }
         ],
         "download" : {
            "receiveFirst" : 143,
            "len" : 64330,
            "dns" : 0,
            "dnsEnd" : 22,
            "receiveHeadersEnd" : 217,
            "sslEnd" : -1,
            "connectEnd" : 73,
            "connectStart" : 0,
            "id" : "download_3",
            "receivedTime" : "506.485000005341",
            "sslStart" : -1,
            "dnsStart" : 22,
            "receiveLast" : 289.485000005341,
            "s_time" : 202.498999999079,
            "sendEnd" : 74,
            "sendStart" : 73,
            "type" : "text/css"
         }
      },
      {
         "when_comp_start" : -1,
         "url" : "http://original.testbed.localhost/media.townhall.com/_townhall/resources/js/bundle/jquery.lazyload.min.js",
         "id" : "r6",
         "comps" : [
            {
               "s_time" : 1481.52100000152,
               "time" : 3.66200000281015,
               "type" : 1,
               "id" : "comp_6",
               "e_time" : 1485.18300000433
            }
         ],
         "download" : {
            "receiveFirst" : 233,
            "len" : 3381,
            "dns" : 0,
            "dnsEnd" : 22,
            "receiveHeadersEnd" : 307,
            "sslEnd" : -1,
            "connectEnd" : 74,
            "connectStart" : 0,
            "id" : "download_4",
            "receivedTime" : "561.386000001221",
            "sslStart" : -1,
            "dnsStart" : 22,
            "receiveLast" : 254.386000001221,
            "s_time" : 205.001000002085,
            "sendEnd" : 74,
            "sendStart" : 74,
            "type" : "application/javascript"
         }
      },
      {
         "when_comp_start" : -1,
         "url" : "http://original.testbed.localhost/c.amazon-adsystem.com/aax2/amzn_ads.js",
         "id" : "r7",
         "comps" : [
            {
               "s_time" : 1490.31000000105,
               "time" : 10.92600000265,
               "type" : 1,
               "id" : "comp_9",
               "e_time" : 1501.2360000037
            }
         ],
         "download" : {
            "receiveFirst" : 250,
            "len" : 15033,
            "dns" : 1,
            "dnsEnd" : 24,
            "receiveHeadersEnd" : 325,
            "sslEnd" : -1,
            "connectEnd" : 74,
            "connectStart" : 0,
            "id" : "download_5",
            "receivedTime" : "566.787000003387",
            "sslStart" : -1,
            "dnsStart" : 23,
            "receiveLast" : 241.787000003387,
            "s_time" : 206.710000005842,
            "sendEnd" : 75,
            "sendStart" : 74,
            "type" : "application/javascript"
         }
      },
      {
         "when_comp_start" : -1,
         "url" : "http://original.testbed.localhost/ox-d.townhallmedia.servedbyopenx.com/w/1.0/jstag%3Fnc=6177-Townhall",
         "id" : "r8",
         "comps" : [
            {
               "s_time" : 1538.49700000137,
               "time" : 59.32700000267,
               "type" : 1,
               "id" : "comp_13",
               "e_time" : 1597.82400000404
            }
         ],
         "download" : {
            "receiveFirst" : 287,
            "len" : 47446,
            "dns" : 0,
            "dnsEnd" : 25,
            "receiveHeadersEnd" : 363,
            "sslEnd" : -1,
            "connectEnd" : 76,
            "connectStart" : 0,
            "id" : "download_6",
            "receivedTime" : "1513.25899999938",
            "sslStart" : -1,
            "dnsStart" : 25,
            "receiveLast" : 1150.25899999938,
            "s_time" : 207.687000001897,
            "sendEnd" : 76,
            "sendStart" : 76,
            "type" : "text/plain"
         }
      },
      {
         "when_comp_start" : -1,
         "url" : "http://original.testbed.localhost/ajax.googleapis.com/ajax/libs/jquery/1.11.3/jquery.min.js",
         "id" : "r5",
         "comps" : [
            {
               "s_time" : 1278.36600000592,
               "time" : 202.23999999871,
               "type" : 1,
               "id" : "comp_4",
               "e_time" : 1480.60600000463
            }
         ],
         "download" : {
            "receiveFirst" : 413,
            "len" : 95992,
            "dns" : 0,
            "dnsEnd" : -1,
            "receiveHeadersEnd" : 488,
            "sslEnd" : -1,
            "connectEnd" : 75,
            "connectStart" : 0,
            "id" : "download_7",
            "receivedTime" : "1276.99199999915",
            "sslStart" : -1,
            "dnsStart" : -1,
            "receiveLast" : 788.991999999154,
            "s_time" : 203.750000000582,
            "sendEnd" : 75,
            "sendStart" : 75,
            "type" : "application/javascript"
         }
      },
      {
         "when_comp_start" : -1,
         "url" : "http://original.testbed.localhost/media.townhall.com/_townhall/resources/images/mic.png",
         "id" : "r9",
         "comps" : [],
         "download" : {
            "receiveFirst" : 351,
            "len" : 311,
            "dns" : 0,
            "dnsEnd" : -1,
            "receiveHeadersEnd" : 646,
            "sslEnd" : -1,
            "connectEnd" : 295,
            "connectStart" : 0,
            "id" : "download_8",
            "receivedTime" : "995.773000002373",
            "sslStart" : -1,
            "dnsStart" : -1,
            "receiveLast" : 349.773000002373,
            "s_time" : 212.767000004533,
            "sendEnd" : 295,
            "sendStart" : 295,
            "type" : "image/png"
         }
      },
      {
         "when_comp_start" : -1,
         "url" : "http://original.testbed.localhost/media.townhall.com/townhall/townhallvideothumbs/hc/screen-shot-2015-09-15-at-4.59.05-pm.png",
         "id" : "r36",
         "comps" : [],
         "download" : {
            "receiveFirst" : 54,
            "len" : 19126,
            "dns" : 0,
            "dnsEnd" : -1,
            "receiveHeadersEnd" : 69,
            "sslEnd" : -1,
            "connectEnd" : 15,
            "connectStart" : 0,
            "id" : "download_9",
            "receivedTime" : "1974.4720000017",
            "sslStart" : -1,
            "dnsStart" : -1,
            "receiveLast" : 1905.4720000017,
            "s_time" : 1514.81500000227,
            "sendEnd" : 15,
            "sendStart" : 15,
            "type" : "image/png"
         }
      },
      {
         "when_comp_start" : -1,
         "url" : "http://original.testbed.localhost/media.townhall.com/townhall/reu/hd/uploads/2015/9/15/11.png",
         "id" : "r37",
         "comps" : [],
         "download" : {
            "receiveFirst" : 155,
            "len" : 7854,
            "dns" : 0,
            "dnsEnd" : -1,
            "receiveHeadersEnd" : 174,
            "sslEnd" : -1,
            "connectEnd" : 19,
            "connectStart" : 0,
            "id" : "download_10",
            "receivedTime" : "1892.77600000059",
            "sslStart" : -1,
            "dnsStart" : -1,
            "receiveLast" : 1718.77600000059,
            "s_time" : 1531.63100000529,
            "sendEnd" : 19,
            "sendStart" : 19,
            "type" : "image/png"
         }
      },
      {
         "when_comp_start" : -1,
         "url" : "http://original.testbed.localhost/media.townhall.com/townhall/reu/hd/2015/139/2015-05-19t142610z_3_lynxmpeb4i0l8_rtroptp_3_filmfestival-cannes.jpg",
         "id" : "r38",
         "comps" : [],
         "download" : {
            "receiveFirst" : 219,
            "len" : 5536,
            "dns" : 0,
            "dnsEnd" : -1,
            "receiveHeadersEnd" : 241,
            "sslEnd" : -1,
            "connectEnd" : 22,
            "connectStart" : 0,
            "id" : "download_11",
            "receivedTime" : "1968.42900000047",
            "sslStart" : -1,
            "dnsStart" : -1,
            "receiveLast" : 1727.42900000047,
            "s_time" : 1532.40899999946,
            "sendEnd" : 22,
            "sendStart" : 22,
            "type" : "image/jpeg"
         }
      },
      {
         "when_comp_start" : -1,
         "url" : "http://original.testbed.localhost/media.townhall.com/Townhall/ColPics/John%20Hawkins.gif",
         "id" : "r39",
         "comps" : [],
         "download" : {
            "receiveFirst" : 286,
            "len" : 4906,
            "dns" : 0,
            "dnsEnd" : -1,
            "receiveHeadersEnd" : 309,
            "sslEnd" : -1,
            "connectEnd" : 23,
            "connectStart" : 0,
            "id" : "download_12",
            "receivedTime" : "1970.32100000069",
            "sslStart" : -1,
            "dnsStart" : -1,
            "receiveLast" : 1661.32100000069,
            "s_time" : 1533.21700000379,
            "sendEnd" : 23,
            "sendStart" : 23,
            "type" : "image/gif"
         }
      },
      {
         "when_comp_start" : -1,
         "url" : "http://original.testbed.localhost/media.townhall.com/Townhall/ColPics/Sowell.jpg",
         "id" : "r40",
         "comps" : [],
         "download" : {
            "receiveFirst" : 311,
            "len" : 5300,
            "dns" : 0,
            "dnsEnd" : -1,
            "receiveHeadersEnd" : 336,
            "sslEnd" : -1,
            "connectEnd" : 25,
            "connectStart" : 0,
            "id" : "download_13",
            "receivedTime" : "1973.34200000478",
            "sslStart" : -1,
            "dnsStart" : -1,
            "receiveLast" : 1637.34200000478,
            "s_time" : 1534.27100000408,
            "sendEnd" : 25,
            "sendStart" : 25,
            "type" : "image/jpeg"
         }
      },
      {
         "when_comp_start" : -1,
         "url" : "http://original.testbed.localhost/media.townhall.com/Townhall/ColPics/Barone.jpg",
         "id" : "r42",
         "comps" : [],
         "download" : {
            "receiveFirst" : 179,
            "len" : 5578,
            "dns" : 0,
            "dnsEnd" : -1,
            "receiveHeadersEnd" : 409,
            "sslEnd" : -1,
            "connectEnd" : 229,
            "connectStart" : 0,
            "id" : "download_14",
            "receivedTime" : "1991.80600000545",
            "sslStart" : -1,
            "dnsStart" : -1,
            "receiveLast" : 1582.80600000545,
            "s_time" : 1536.27000000415,
            "sendEnd" : 230,
            "sendStart" : 229,
            "type" : "image/jpeg"
         }
      },
      {
         "when_comp_start" : 1,
         "url" : "http://original.testbed.localhost/twitchy.com/embed/recent/index.html",
         "id" : "r78",
         "comps" : [
            {
               "s_time" : 2035.93399999954,
               "time" : 8.2089999996299,
               "type" : "evalhtml",
               "id" : "r78_c1",
               "e_time" : 2044.14299999917
            }
         ],
         "download" : {
            "receiveFirst" : 172,
            "len" : 3067,
            "dns" : 0,
            "dnsEnd" : -1,
            "receiveHeadersEnd" : 189,
            "sslEnd" : -1,
            "connectEnd" : 16,
            "connectStart" : 0,
            "id" : "download_15",
            "receivedTime" : "2033.27900000295",
            "sslStart" : -1,
            "dnsStart" : -1,
            "receiveLast" : 1844.27900000295,
            "s_time" : 1815.978000006,
            "sendEnd" : 17,
            "sendStart" : 16,
            "type" : "text/html"
         }
      },
      {
         "when_comp_start" : -1,
         "url" : "http://original.testbed.localhost/media.townhall.com/Townhall/colpics/columnisttelford.gif",
         "id" : "r46",
         "comps" : [],
         "download" : {
            "receiveFirst" : 167,
            "len" : 3928,
            "dns" : 0,
            "dnsEnd" : -1,
            "receiveHeadersEnd" : 262,
            "sslEnd" : -1,
            "connectEnd" : 95,
            "connectStart" : 0,
            "id" : "download_16",
            "receivedTime" : "2046.9510000039",
            "sslStart" : -1,
            "dnsStart" : -1,
            "receiveLast" : 1784.9510000039,
            "s_time" : 1764.57099999971,
            "sendEnd" : 95,
            "sendStart" : 95,
            "type" : "image/gif"
         }
      },
      {
         "when_comp_start" : -1,
         "url" : "http://original.testbed.localhost/media.townhall.com/Townhall/ColPics/York.jpg",
         "id" : "r41",
         "comps" : [],
         "download" : {
            "receiveFirst" : 491,
            "len" : 5207,
            "dns" : 0,
            "dnsEnd" : -1,
            "receiveHeadersEnd" : 518,
            "sslEnd" : -1,
            "connectEnd" : 27,
            "connectStart" : 0,
            "id" : "download_17",
            "receivedTime" : "2088.33299999969",
            "sslStart" : -1,
            "dnsStart" : -1,
            "receiveLast" : 1570.33299999969,
            "s_time" : 1535.12400000182,
            "sendEnd" : 27,
            "sendStart" : 27,
            "type" : "image/jpeg"
         }
      },
      {
         "when_comp_start" : -1,
         "url" : "http://original.testbed.localhost/media.townhall.com/_townhall/resources/js/bundle/th.js%3Fv=573621783",
         "id" : "r89",
         "comps" : [
            {
               "s_time" : 2149.24600000086,
               "time" : 3.54000000515998,
               "type" : null,
               "id" : "comp_41",
               "e_time" : 2152.78600000602
            }
         ],
         "download" : {
            "receiveFirst" : 176,
            "len" : 6299,
            "dns" : 0,
            "dnsEnd" : -1,
            "receiveHeadersEnd" : 218,
            "sslEnd" : -1,
            "connectEnd" : 41,
            "connectStart" : 0,
            "id" : "download_18",
            "receivedTime" : "2145.98000000115",
            "sslStart" : -1,
            "dnsStart" : -1,
            "receiveLast" : 1927.98000000115,
            "s_time" : 1880.96600000426,
            "sendEnd" : 42,
            "sendStart" : 41,
            "type" : "text/plain"
         }
      },
      {
         "when_comp_start" : -1,
         "url" : "http://original.testbed.localhost/media.townhall.com/_townhall/resources/js/lib/jquery/jquery.cookie.1.4.1.js%3Fv=573621783",
         "id" : "r90",
         "comps" : [
            {
               "s_time" : 2179.64100000245,
               "time" : 10.2239999978301,
               "type" : 1,
               "id" : "comp_43",
               "e_time" : 2189.86500000028
            }
         ],
         "download" : {
            "receiveFirst" : 218,
            "len" : 3121,
            "dns" : 0,
            "dnsEnd" : -1,
            "receiveHeadersEnd" : 275,
            "sslEnd" : -1,
            "connectEnd" : 57,
            "connectStart" : 0,
            "id" : "download_19",
            "receivedTime" : "2177.78000000544",
            "sslStart" : -1,
            "dnsStart" : -1,
            "receiveLast" : 1902.78000000544,
            "s_time" : 1881.85100000555,
            "sendEnd" : 57,
            "sendStart" : 57,
            "type" : "text/plain"
         }
      },
      {
         "when_comp_start" : -1,
         "url" : "http://original.testbed.localhost/media.townhall.com/_townhall/resources/js/bootstrap/2.3.2/bootstrap.min.js%3Fv=573621783",
         "id" : "r92",
         "comps" : [
            {
               "s_time" : 2863.57100000168,
               "time" : 67.8709999992898,
               "type" : 1,
               "id" : "comp_53",
               "e_time" : 2931.44200000097
            }
         ],
         "download" : {
            "receiveFirst" : 183,
            "len" : 28631,
            "dns" : 0,
            "dnsEnd" : -1,
            "receiveHeadersEnd" : 311,
            "sslEnd" : -1,
            "connectEnd" : 128,
            "connectStart" : 0,
            "id" : "download_20",
            "receivedTime" : "2861.8620000052",
            "sslStart" : -1,
            "dnsStart" : -1,
            "receiveLast" : 2550.8620000052,
            "s_time" : 1885.0550000061,
            "sendEnd" : 128,
            "sendStart" : 128,
            "type" : "text/plain"
         }
      },
      {
         "when_comp_start" : -1,
         "url" : "http://original.testbed.localhost/media.townhall.com/_townhall/resources/js/popup/popupmanager.js%3Fv=573621783",
         "id" : "r93",
         "comps" : [
            {
               "s_time" : 2932.63200000365,
               "time" : 6.10400000005029,
               "type" : 1,
               "id" : "comp_55",
               "e_time" : 2938.7360000037
            }
         ],
         "download" : {
            "receiveFirst" : 268,
            "len" : 13618,
            "dns" : 0,
            "dnsEnd" : -1,
            "receiveHeadersEnd" : 420,
            "sslEnd" : -1,
            "connectEnd" : 152,
            "connectStart" : 0,
            "id" : "download_21",
            "receivedTime" : "2728.65300000558",
            "sslStart" : -1,
            "dnsStart" : -1,
            "receiveLast" : 2308.65300000558,
            "s_time" : 1886.91700000345,
            "sendEnd" : 152,
            "sendStart" : 152,
            "type" : "text/plain"
         }
      },
      {
         "when_comp_start" : -1,
         "url" : "http://original.testbed.localhost/s0.wp.com/wp-content/themes/vip/twitchy/css/twitchy-widget.css",
         "id" : "r101",
         "comps" : [
            {
               "s_time" : 2442.12300000072,
               "time" : 39.9780000006999,
               "type" : 2,
               "id" : "comp_45",
               "e_time" : 2482.10100000142
            }
         ],
         "download" : {
            "receiveFirst" : 319,
            "len" : 1351,
            "dns" : 0,
            "dnsEnd" : -1,
            "receiveHeadersEnd" : 373,
            "sslEnd" : -1,
            "connectEnd" : 53,
            "connectStart" : 0,
            "id" : "download_22",
            "receivedTime" : "2440.5670000051",
            "sslStart" : -1,
            "dnsStart" : -1,
            "receiveLast" : 2067.5670000051,
            "s_time" : 2037.18500000105,
            "sendEnd" : 54,
            "sendStart" : 53,
            "type" : "text/css"
         }
      },
      {
         "when_comp_start" : -1,
         "url" : "http://original.testbed.localhost/media.townhall.com/_townhall/resources/js/thmdfp.js%3Fv=573621783",
         "id" : "r94",
         "comps" : [
            {
               "s_time" : 2939.77300000552,
               "time" : 1.15999999980022,
               "type" : 1,
               "id" : "comp_57",
               "e_time" : 2940.93300000532
            }
         ],
         "download" : {
            "receiveFirst" : 334,
            "len" : 5525,
            "dns" : 0,
            "dnsEnd" : -1,
            "receiveHeadersEnd" : 593,
            "sslEnd" : -1,
            "connectEnd" : 258,
            "connectStart" : 0,
            "id" : "download_23",
            "receivedTime" : "2517.25699999952",
            "sslStart" : -1,
            "dnsStart" : -1,
            "receiveLast" : 1924.25699999952,
            "s_time" : 1887.619000001,
            "sendEnd" : 259,
            "sendStart" : 258,
            "type" : "text/plain"
         }
      },
      {
         "when_comp_start" : -1,
         "url" : "http://original.testbed.localhost/static.adsnative.com/static/js/render.v1.js",
         "id" : "r100",
         "comps" : [
            {
               "s_time" : 2951.79700000153,
               "time" : 454.10200000334,
               "type" : 1,
               "id" : "comp_63",
               "e_time" : 3405.89900000487
            }
         ],
         "download" : {
            "receiveFirst" : 318,
            "len" : 40970,
            "dns" : 0,
            "dnsEnd" : -1,
            "receiveHeadersEnd" : 527,
            "sslEnd" : -1,
            "connectEnd" : 209,
            "connectStart" : 0,
            "id" : "download_24",
            "receivedTime" : "2564.71199999942",
            "sslStart" : -1,
            "dnsStart" : -1,
            "receiveLast" : 2037.71199999942,
            "s_time" : 1972.27399999974,
            "sendEnd" : 209,
            "sendStart" : 209,
            "type" : "application/javascript"
         }
      },
      {
         "when_comp_start" : -1,
         "url" : "http://original.testbed.localhost/media.townhall.com/_townhall/resources/js/bundle/modal.js%3Fv=573621783",
         "id" : "r91",
         "comps" : [
            {
               "s_time" : 2630.93500000105,
               "time" : 3.26599999970995,
               "type" : 1,
               "id" : "comp_48",
               "e_time" : 2634.20100000076
            }
         ],
         "download" : {
            "receiveFirst" : 620,
            "len" : 2790,
            "dns" : 0,
            "dnsEnd" : -1,
            "receiveHeadersEnd" : 727,
            "sslEnd" : -1,
            "connectEnd" : 107,
            "connectStart" : 0,
            "id" : "download_25",
            "receivedTime" : "2630.11100000585",
            "sslStart" : -1,
            "dnsStart" : -1,
            "receiveLast" : 1903.11100000585,
            "s_time" : 1883.28500000353,
            "sendEnd" : 107,
            "sendStart" : 107,
            "type" : "text/plain"
         }
      },
      {
         "when_comp_start" : -1,
         "url" : "http://original.testbed.localhost/media.townhall.com/Townhall/ColPics/Prager.jpg",
         "id" : "r47",
         "comps" : [],
         "download" : {
            "receiveFirst" : 246,
            "len" : 4967,
            "dns" : 0,
            "dnsEnd" : -1,
            "receiveHeadersEnd" : 844,
            "sslEnd" : -1,
            "connectEnd" : 597,
            "connectStart" : 0,
            "id" : "download_26",
            "receivedTime" : "2707.7780000036",
            "sslStart" : -1,
            "dnsStart" : -1,
            "receiveLast" : 1863.7780000036,
            "s_time" : 1831.13100000628,
            "sendEnd" : 598,
            "sendStart" : 597,
            "type" : "image/jpeg"
         }
      },
      {
         "when_comp_start" : -1,
         "url" : "http://original.testbed.localhost/media.townhall.com/Townhall/ColPics/Buchanan.jpg",
         "id" : "r48",
         "comps" : [],
         "download" : {
            "receiveFirst" : 235,
            "len" : 5092,
            "dns" : 0,
            "dnsEnd" : -1,
            "receiveHeadersEnd" : 882,
            "sslEnd" : -1,
            "connectEnd" : 647,
            "connectStart" : 0,
            "id" : "download_27",
            "receivedTime" : "2764.29700000153",
            "sslStart" : -1,
            "dnsStart" : -1,
            "receiveLast" : 1882.29700000153,
            "s_time" : 1858.39800000394,
            "sendEnd" : 647,
            "sendStart" : 647,
            "type" : "image/jpeg"
         }
      },
      {
         "when_comp_start" : -1,
         "url" : "http://original.testbed.localhost/media.townhall.com/Townhall/ColPics/Saunders.jpg",
         "id" : "r49",
         "comps" : [],
         "download" : {
            "receiveFirst" : 223,
            "len" : 5665,
            "dns" : 0,
            "dnsEnd" : -1,
            "receiveHeadersEnd" : 862,
            "sslEnd" : -1,
            "connectEnd" : 639,
            "connectStart" : 0,
            "id" : "download_28",
            "receivedTime" : "2822.95200000226",
            "sslStart" : -1,
            "dnsStart" : -1,
            "receiveLast" : 1960.95200000226,
            "s_time" : 1920.94300000463,
            "sendEnd" : 639,
            "sendStart" : 639,
            "type" : "image/jpeg"
         }
      },
      {
         "when_comp_start" : -1,
         "url" : "http://original.testbed.localhost/media.townhall.com/Townhall/ColPics/jackson.jpg",
         "id" : "r50",
         "comps" : [],
         "download" : {
            "receiveFirst" : 253,
            "len" : 5350,
            "dns" : 0,
            "dnsEnd" : -1,
            "receiveHeadersEnd" : 936,
            "sslEnd" : -1,
            "connectEnd" : 683,
            "connectStart" : 0,
            "id" : "download_29",
            "receivedTime" : "3836.95900000021",
            "sslStart" : -1,
            "dnsStart" : -1,
            "receiveLast" : 2900.95900000021,
            "s_time" : 1938.72000000556,
            "sendEnd" : 683,
            "sendStart" : 683,
            "type" : "image/jpeg"
         }
      },
      {
         "when_comp_start" : -1,
         "url" : "http://original.testbed.localhost/media.townhall.com/Townhall/colpics/greenberg.jpg",
         "id" : "r51",
         "comps" : [],
         "download" : {
            "receiveFirst" : 218,
            "len" : 5350,
            "dns" : 0,
            "dnsEnd" : -1,
            "receiveHeadersEnd" : 936,
            "sslEnd" : -1,
            "connectEnd" : 718,
            "connectStart" : 0,
            "id" : "download_30",
            "receivedTime" : "3839.18700000504",
            "sslStart" : -1,
            "dnsStart" : -1,
            "receiveLast" : 2903.18700000504,
            "s_time" : 1992.33900000399,
            "sendEnd" : 718,
            "sendStart" : 718,
            "type" : "image/jpeg"
         }
      },
      {
         "when_comp_start" : -1,
         "url" : "http://original.testbed.localhost/media.townhall.com/Townhall/ColPics/Schlafly.jpg",
         "id" : "r52",
         "comps" : [],
         "download" : {
            "receiveFirst" : 526,
            "len" : 5194,
            "dns" : 0,
            "dnsEnd" : -1,
            "receiveHeadersEnd" : 1214,
            "sslEnd" : -1,
            "connectEnd" : 688,
            "connectStart" : 0,
            "id" : "download_31",
            "receivedTime" : "3946.60900000599",
            "sslStart" : -1,
            "dnsStart" : -1,
            "receiveLast" : 2732.60900000599,
            "s_time" : 2042.40299999947,
            "sendEnd" : 688,
            "sendStart" : 688,
            "type" : "image/jpeg"
         }
      },
      {
         "when_comp_start" : -1,
         "url" : "http://original.testbed.localhost/media.townhall.com/Townhall/ColPics/Murchison.jpg",
         "id" : "r53",
         "comps" : [],
         "download" : {
            "receiveFirst" : 490,
            "len" : 4627,
            "dns" : 0,
            "dnsEnd" : -1,
            "receiveHeadersEnd" : 1169,
            "sslEnd" : -1,
            "connectEnd" : 679,
            "connectStart" : 0,
            "id" : "download_32",
            "receivedTime" : "3947.15800000267",
            "sslStart" : -1,
            "dnsStart" : -1,
            "receiveLast" : 2778.15800000267,
            "s_time" : 2089.64500000002,
            "sendEnd" : 679,
            "sendStart" : 679,
            "type" : "image/jpeg"
         }
      },
      {
         "when_comp_start" : -1,
         "url" : "http://original.testbed.localhost/media.townhall.com/Townhall/colpics/isaac%20orr.gif",
         "id" : "r54",
         "comps" : [],
         "download" : {
            "receiveFirst" : 435,
            "len" : 4422,
            "dns" : 0,
            "dnsEnd" : -1,
            "receiveHeadersEnd" : 552,
            "sslEnd" : -1,
            "connectEnd" : 117,
            "connectStart" : 0,
            "id" : "download_33",
            "receivedTime" : "3947.64700000087",
            "sslStart" : -1,
            "dnsStart" : -1,
            "receiveLast" : 3395.64700000087,
            "s_time" : 2708.49500000622,
            "sendEnd" : 117,
            "sendStart" : 117,
            "type" : "image/gif"
         }
      },
      {
         "when_comp_start" : -1,
         "url" : "http://original.testbed.localhost/media.townhall.com/Townhall/ColPics/AWilliams.jpg",
         "id" : "r55",
         "comps" : [],
         "download" : {
            "receiveFirst" : 402,
            "len" : 4711,
            "dns" : 0,
            "dnsEnd" : -1,
            "receiveHeadersEnd" : 498,
            "sslEnd" : -1,
            "connectEnd" : 95,
            "connectStart" : 0,
            "id" : "download_34",
            "receivedTime" : "3948.135000006",
            "sslStart" : -1,
            "dnsStart" : -1,
            "receiveLast" : 3450.135000006,
            "s_time" : 2765.02900000196,
            "sendEnd" : 96,
            "sendStart" : 95,
            "type" : "image/jpeg"
         }
      },
      {
         "when_comp_start" : -1,
         "url" : "http://original.testbed.localhost/media.townhall.com/Townhall/colpics/Toombs%20(1).gif",
         "id" : "r56",
         "comps" : [],
         "download" : {
            "receiveFirst" : 355,
            "len" : 5150,
            "dns" : 0,
            "dnsEnd" : -1,
            "receiveHeadersEnd" : 444,
            "sslEnd" : -1,
            "connectEnd" : 89,
            "connectStart" : 0,
            "id" : "download_35",
            "receivedTime" : "3948.56200000504",
            "sslStart" : -1,
            "dnsStart" : -1,
            "receiveLast" : 3504.56200000504,
            "s_time" : 2821.73200000398,
            "sendEnd" : 89,
            "sendStart" : 89,
            "type" : "image/gif"
         }
      },
      {
         "when_comp_start" : -1,
         "url" : "http://original.testbed.localhost/media.townhall.com/Townhall/colpics/JoyO.gif",
         "id" : "r57",
         "comps" : [],
         "download" : {
            "receiveFirst" : 303,
            "len" : 5023,
            "dns" : 0,
            "dnsEnd" : -1,
            "receiveHeadersEnd" : 360,
            "sslEnd" : -1,
            "connectEnd" : 56,
            "connectStart" : 0,
            "id" : "download_36",
            "receivedTime" : "3949.11200000206",
            "sslStart" : -1,
            "dnsStart" : -1,
            "receiveLast" : 3589.11200000206,
            "s_time" : 2908.47800000483,
            "sendEnd" : 57,
            "sendStart" : 56,
            "type" : "image/gif"
         }
      },
      {
         "when_comp_start" : -1,
         "url" : "http://original.testbed.localhost/media.townhall.com/Townhall/colpics/olaskymarvin.jpg",
         "id" : "r58",
         "comps" : [],
         "download" : {
            "receiveFirst" : 53,
            "len" : 3563,
            "dns" : 0,
            "dnsEnd" : -1,
            "receiveHeadersEnd" : 376,
            "sslEnd" : -1,
            "connectEnd" : 322,
            "connectStart" : 0,
            "id" : "download_37",
            "receivedTime" : "3953.07900000626",
            "sslStart" : -1,
            "dnsStart" : -1,
            "receiveLast" : 3577.07900000626,
            "s_time" : 2961.86700000544,
            "sendEnd" : 323,
            "sendStart" : 322,
            "type" : "image/jpeg"
         }
      },
      {
         "when_comp_start" : -1,
         "url" : "http://original.testbed.localhost/media.townhall.com/Townhall/ColPics/Adams.jpg",
         "id" : "r43",
         "comps" : [],
         "download" : {
            "receiveFirst" : 64,
            "len" : 5388,
            "dns" : 0,
            "dnsEnd" : -1,
            "receiveHeadersEnd" : 1820,
            "sslEnd" : -1,
            "connectEnd" : 1756,
            "connectStart" : 0,
            "id" : "download_38",
            "receivedTime" : "3956.5270000021",
            "sslStart" : -1,
            "dnsStart" : -1,
            "receiveLast" : 2136.5270000021,
            "s_time" : 1537.33700000157,
            "sendEnd" : 1756,
            "sendStart" : 1756,
            "type" : "image/jpeg"
         }
      },
      {
         "when_comp_start" : -1,
         "url" : "http://original.testbed.localhost/media.townhall.com/Townhall/colpics/StephenMoore.gif",
         "id" : "r44",
         "comps" : [],
         "download" : {
            "receiveFirst" : 112,
            "len" : 3445,
            "dns" : 0,
            "dnsEnd" : -1,
            "receiveHeadersEnd" : 1873,
            "sslEnd" : -1,
            "connectEnd" : 1760,
            "connectStart" : 0,
            "id" : "download_39",
            "receivedTime" : "3961.41000000353",
            "sslStart" : -1,
            "dnsStart" : -1,
            "receiveLast" : 2088.41000000353,
            "s_time" : 1539.13800000009,
            "sendEnd" : 1761,
            "sendStart" : 1760,
            "type" : "image/gif"
         }
      },
      {
         "when_comp_start" : -1,
         "url" : "http://original.testbed.localhost/media.townhall.com/Townhall/ColPics/limbaugh.jpg",
         "id" : "r45",
         "comps" : [],
         "download" : {
            "receiveFirst" : 137,
            "len" : 5661,
            "dns" : 0,
            "dnsEnd" : -1,
            "receiveHeadersEnd" : 1897,
            "sslEnd" : -1,
            "connectEnd" : 1760,
            "connectStart" : 0,
            "id" : "download_40",
            "receivedTime" : "3972.24400000414",
            "sslStart" : -1,
            "dnsStart" : -1,
            "receiveLast" : 2075.24400000414,
            "s_time" : 1540.17500000191,
            "sendEnd" : 1760,
            "sendStart" : 1760,
            "type" : "image/jpeg"
         }
      },
      {
         "when_comp_start" : -1,
         "url" : "http://original.testbed.localhost/media.townhall.com/Townhall/colpics/JohnWarren.gif",
         "id" : "r60",
         "comps" : [],
         "download" : {
            "receiveFirst" : 189,
            "len" : 4545,
            "dns" : 0,
            "dnsEnd" : -1,
            "receiveHeadersEnd" : 208,
            "sslEnd" : -1,
            "connectEnd" : 19,
            "connectStart" : 0,
            "id" : "download_41",
            "receivedTime" : "3978.62200000236",
            "sslStart" : -1,
            "dnsStart" : -1,
            "receiveLast" : 3770.62200000236,
            "s_time" : 3286.86500000185,
            "sendEnd" : 19,
            "sendStart" : 19,
            "type" : "image/gif"
         }
      },
      {
         "when_comp_start" : -1,
         "url" : "http://original.testbed.localhost/media.townhall.com/Townhall/colpics/columnistmotley.gif",
         "id" : "r61",
         "comps" : [],
         "download" : {
            "receiveFirst" : 223,
            "len" : 3837,
            "dns" : 0,
            "dnsEnd" : -1,
            "receiveHeadersEnd" : 242,
            "sslEnd" : -1,
            "connectEnd" : 19,
            "connectStart" : 0,
            "id" : "download_42",
            "receivedTime" : "3982.49800000485",
            "sslStart" : -1,
            "dnsStart" : -1,
            "receiveLast" : 3740.49800000485,
            "s_time" : 3289.62700000557,
            "sendEnd" : 19,
            "sendStart" : 19,
            "type" : "image/gif"
         }
      },
      {
         "when_comp_start" : -1,
         "url" : "http://original.testbed.localhost/media.townhall.com/Townhall/ColPics/obrien.gif",
         "id" : "r62",
         "comps" : [],
         "download" : {
            "receiveFirst" : 212,
            "len" : 3909,
            "dns" : 0,
            "dnsEnd" : -1,
            "receiveHeadersEnd" : 270,
            "sslEnd" : -1,
            "connectEnd" : 58,
            "connectStart" : 0,
            "id" : "download_43",
            "receivedTime" : "3985.94600000069",
            "sslStart" : -1,
            "dnsStart" : -1,
            "receiveLast" : 3715.94600000069,
            "s_time" : 3292.64700000203,
            "sendEnd" : 58,
            "sendStart" : 58,
            "type" : "image/gif"
         }
      },
      {
         "when_comp_start" : -1,
         "url" : "http://original.testbed.localhost/media.townhall.com/Townhall/colpics/blank2.gif",
         "id" : "r63",
         "comps" : [],
         "download" : {
            "receiveFirst" : 203,
            "len" : 2815,
            "dns" : 0,
            "dnsEnd" : -1,
            "receiveHeadersEnd" : 302,
            "sslEnd" : -1,
            "connectEnd" : 99,
            "connectStart" : 0,
            "id" : "download_44",
            "receivedTime" : "3989.36400000093",
            "sslStart" : -1,
            "dnsStart" : -1,
            "receiveLast" : 3687.36400000093,
            "s_time" : 3295.76100000122,
            "sendEnd" : 99,
            "sendStart" : 99,
            "type" : "image/gif"
         }
      },
      {
         "when_comp_start" : -1,
         "url" : "http://original.testbed.localhost/media.townhall.com/Townhall/colpics/barkoukis.gif",
         "id" : "r64",
         "comps" : [],
         "download" : {
            "receiveFirst" : 205,
            "len" : 4407,
            "dns" : 0,
            "dnsEnd" : -1,
            "receiveHeadersEnd" : 337,
            "sslEnd" : -1,
            "connectEnd" : 131,
            "connectStart" : 0,
            "id" : "download_45",
            "receivedTime" : "3995.49800000386",
            "sslStart" : -1,
            "dnsStart" : -1,
            "receiveLast" : 3658.49800000386,
            "s_time" : 3298.44600000069,
            "sendEnd" : 132,
            "sendStart" : 131,
            "type" : "image/gif"
         }
      },
      {
         "when_comp_start" : -1,
         "url" : "http://original.testbed.localhost/media.townhall.com/Townhall/ColPics/benson.gif",
         "id" : "r65",
         "comps" : [],
         "download" : {
            "receiveFirst" : 188,
            "len" : 3446,
            "dns" : 0,
            "dnsEnd" : -1,
            "receiveHeadersEnd" : 367,
            "sslEnd" : -1,
            "connectEnd" : 179,
            "connectStart" : 0,
            "id" : "download_46",
            "receivedTime" : "4000.1670000056",
            "sslStart" : -1,
            "dnsStart" : -1,
            "receiveLast" : 3633.1670000056,
            "s_time" : 3307.96800000098,
            "sendEnd" : 179,
            "sendStart" : 179,
            "type" : "image/gif"
         }
      },
      {
         "when_comp_start" : -1,
         "url" : "http://original.testbed.localhost/media.townhall.com/Townhall/colpics/matt%20vespa.gif",
         "id" : "r66",
         "comps" : [],
         "download" : {
            "receiveFirst" : 188,
            "len" : 4485,
            "dns" : 0,
            "dnsEnd" : -1,
            "receiveHeadersEnd" : 364,
            "sslEnd" : -1,
            "connectEnd" : 176,
            "connectStart" : 0,
            "id" : "download_47",
            "receivedTime" : "4006.45400000212",
            "sslStart" : -1,
            "dnsStart" : -1,
            "receiveLast" : 3642.45400000212,
            "s_time" : 3348.83100000297,
            "sendEnd" : 176,
            "sendStart" : 176,
            "type" : "image/gif"
         }
      },
      {
         "when_comp_start" : -1,
         "url" : "http://original.testbed.localhost/media.townhall.com/Townhall/ColPics/katiepavlich1.gif",
         "id" : "r67",
         "comps" : [],
         "download" : {
            "receiveFirst" : 193,
            "len" : 4864,
            "dns" : 0,
            "dnsEnd" : -1,
            "receiveHeadersEnd" : 353,
            "sslEnd" : -1,
            "connectEnd" : 159,
            "connectStart" : 0,
            "id" : "download_48",
            "receivedTime" : "4011.30600000033",
            "sslStart" : -1,
            "dnsStart" : -1,
            "receiveLast" : 3658.30600000033,
            "s_time" : 3389.43400000426,
            "sendEnd" : 160,
            "sendStart" : 159,
            "type" : "image/gif"
         }
      },
      {
         "when_comp_start" : -1,
         "url" : "http://original.testbed.localhost/media.townhall.com/Townhall/Car/b/gmc13520020150915080200.jpg",
         "id" : "r68",
         "comps" : [],
         "download" : {
            "receiveFirst" : 197,
            "len" : 20785,
            "dns" : 0,
            "dnsEnd" : -1,
            "receiveHeadersEnd" : 356,
            "sslEnd" : -1,
            "connectEnd" : 159,
            "connectStart" : 0,
            "id" : "download_49",
            "receivedTime" : "4221.96900000563",
            "sslStart" : -1,
            "dnsStart" : -1,
            "receiveLast" : 3865.96900000563,
            "s_time" : 3425.17000000225,
            "sendEnd" : 159,
            "sendStart" : 159,
            "type" : "image/jpeg"
         }
      },
      {
         "when_comp_start" : -1,
         "url" : "http://original.testbed.localhost/media.townhall.com/_townhall/resources/images/homepage/th_20years2.gif",
         "id" : "r71",
         "comps" : [],
         "download" : {
            "receiveFirst" : 253,
            "len" : 10925,
            "dns" : 0,
            "dnsEnd" : -1,
            "receiveHeadersEnd" : 392,
            "sslEnd" : -1,
            "connectEnd" : 139,
            "connectStart" : 0,
            "id" : "download_50",
            "receivedTime" : "4097.732000002",
            "sslStart" : -1,
            "dnsStart" : -1,
            "receiveLast" : 3705.732000002,
            "s_time" : 3484.68000000139,
            "sendEnd" : 139,
            "sendStart" : 139,
            "type" : "image/gif"
         }
      },
      {
         "when_comp_start" : -1,
         "url" : "http://original.testbed.localhost/media.townhall.com/_townhall/resources/images/social-sprite.png",
         "id" : "r72",
         "comps" : [],
         "download" : {
            "receiveFirst" : 314,
            "len" : 37279,
            "dns" : 0,
            "dnsEnd" : -1,
            "receiveHeadersEnd" : 453,
            "sslEnd" : -1,
            "connectEnd" : 139,
            "connectStart" : 0,
            "id" : "download_51",
            "receivedTime" : "4491.4390000049",
            "sslStart" : -1,
            "dnsStart" : -1,
            "receiveLast" : 4038.4390000049,
            "s_time" : 3522.5830000054,
            "sendEnd" : 139,
            "sendStart" : 139,
            "type" : "image/png"
         }
      },
      {
         "when_comp_start" : -1,
         "url" : "http://original.testbed.localhost/media.townhall.com/_townhall/resources/images/search.png",
         "id" : "r73",
         "comps" : [],
         "download" : {
            "receiveFirst" : 427,
            "len" : 1391,
            "dns" : 0,
            "dnsEnd" : -1,
            "receiveHeadersEnd" : 566,
            "sslEnd" : -1,
            "connectEnd" : 139,
            "connectStart" : 0,
            "id" : "download_52",
            "receivedTime" : "4126.08300000284",
            "sslStart" : -1,
            "dnsStart" : -1,
            "receiveLast" : 3560.08300000284,
            "s_time" : 3551.22300000221,
            "sendEnd" : 139,
            "sendStart" : 139,
            "type" : "image/png"
         }
      },
      {
         "when_comp_start" : 1,
         "url" : "http://original.testbed.localhost/mservices/alertbar/get",
         "id" : "r108",
         "comps" : [],
         "download" : {
            "receiveFirst" : 411,
            "len" : 312,
            "dns" : 0,
            "dnsEnd" : -1,
            "receiveHeadersEnd" : 458,
            "sslEnd" : -1,
            "connectEnd" : 47,
            "connectStart" : 0,
            "id" : "download_53",
            "receivedTime" : "4161.3920000018",
            "sslStart" : -1,
            "dnsStart" : -1,
            "receiveLast" : 3703.3920000018,
            "s_time" : 3688.67400000454,
            "sendEnd" : 47,
            "sendStart" : 47,
            "type" : "text/html"
         }
      },
      {
         "when_comp_start" : -1,
         "url" : "http://original.testbed.localhost/media.townhall.com/_townhall/resources/images/Townhall_ReadersSay_Ribbon_Shadow.png",
         "id" : "r74",
         "comps" : [],
         "download" : {
            "receiveFirst" : 384,
            "len" : 1045,
            "dns" : 0,
            "dnsEnd" : -1,
            "receiveHeadersEnd" : 570,
            "sslEnd" : -1,
            "connectEnd" : 186,
            "connectStart" : 0,
            "id" : "download_54",
            "receivedTime" : "4170.54700000153",
            "sslStart" : -1,
            "dnsStart" : -1,
            "receiveLast" : 3600.54700000153,
            "s_time" : 3585.89100000245,
            "sendEnd" : 186,
            "sendStart" : 186,
            "type" : "image/png"
         }
      },
      {
         "when_comp_start" : -1,
         "url" : "http://original.testbed.localhost/media.townhall.com/_townhall/resources/images/Tipsheet_Widget_Header.png",
         "id" : "r75",
         "comps" : [],
         "download" : {
            "receiveFirst" : 271,
            "len" : 16069,
            "dns" : 0,
            "dnsEnd" : -1,
            "receiveHeadersEnd" : 612,
            "sslEnd" : -1,
            "connectEnd" : 340,
            "connectStart" : 0,
            "id" : "download_55",
            "receivedTime" : "4844.86300000572",
            "sslStart" : -1,
            "dnsStart" : -1,
            "receiveLast" : 4232.86300000572,
            "s_time" : 3621.03200000274,
            "sendEnd" : 341,
            "sendStart" : 340,
            "type" : "image/png"
         }
      },
      {
         "when_comp_start" : -1,
         "url" : "http://original.testbed.localhost/media.townhall.com/_townhall/resources/images/bootstrap/glyphicons-halflings.png",
         "id" : "r76",
         "comps" : [],
         "download" : {
            "receiveFirst" : 377,
            "len" : 12799,
            "dns" : 0,
            "dnsEnd" : -1,
            "receiveHeadersEnd" : 847,
            "sslEnd" : -1,
            "connectEnd" : 469,
            "connectStart" : 0,
            "id" : "download_56",
            "receivedTime" : "5044.50899999938",
            "sslStart" : -1,
            "dnsStart" : -1,
            "receiveLast" : 4197.50899999938,
            "s_time" : 3659.71300000092,
            "sendEnd" : 470,
            "sendStart" : 469,
            "type" : "image/png"
         }
      },
      {
         "when_comp_start" : -1,
         "url" : "http://original.testbed.localhost/media.townhall.com/_townhall/resources/images/Widget_Ribbon_Shadow.png",
         "id" : "r77",
         "comps" : [],
         "download" : {
            "receiveFirst" : 454,
            "len" : 2847,
            "dns" : 0,
            "dnsEnd" : -1,
            "receiveHeadersEnd" : 929,
            "sslEnd" : -1,
            "connectEnd" : 475,
            "connectStart" : 0,
            "id" : "download_57",
            "receivedTime" : "4636.33700000355",
            "sslStart" : -1,
            "dnsStart" : -1,
            "receiveLast" : 3707.33700000355,
            "s_time" : 3687.31700000353,
            "sendEnd" : 475,
            "sendStart" : 475,
            "type" : "image/png"
         }
      },
      {
         "when_comp_start" : -1,
         "url" : "http://original.testbed.localhost/watchdog.org/wp-content/blogs.dir/1/files/2015/09/Pension-trio.jpg",
         "id" : "r79",
         "comps" : [],
         "download" : {
            "receiveFirst" : 478,
            "len" : 141720,
            "dns" : 0,
            "dnsEnd" : -1,
            "receiveHeadersEnd" : 914,
            "sslEnd" : -1,
            "connectEnd" : 436,
            "connectStart" : 0,
            "id" : "download_58",
            "receivedTime" : "7333.3580000035",
            "sslStart" : -1,
            "dnsStart" : -1,
            "receiveLast" : 6419.3580000035,
            "s_time" : 3734.55700000341,
            "sendEnd" : 436,
            "sendStart" : 436,
            "type" : "image/jpeg"
         }
      },
      {
         "when_comp_start" : -1,
         "url" : "http://original.testbed.localhost/watchdog.org/wp-content/blogs.dir/1/files/2015/09/UAW.jpg",
         "id" : "r80",
         "comps" : [],
         "download" : {
            "receiveFirst" : 518,
            "len" : 9795,
            "dns" : 0,
            "dnsEnd" : -1,
            "receiveHeadersEnd" : 966,
            "sslEnd" : -1,
            "connectEnd" : 448,
            "connectStart" : 0,
            "id" : "download_59",
            "receivedTime" : "4808.73100000463",
            "sslStart" : -1,
            "dnsStart" : -1,
            "receiveLast" : 3842.73100000463,
            "s_time" : 3771.05600000505,
            "sendEnd" : 448,
            "sendStart" : 448,
            "type" : "image/jpeg"
         }
      },
      {
         "when_comp_start" : -1,
         "url" : "http://original.testbed.localhost/watchdog.org/wp-content/blogs.dir/1/files/2015/08/ColoradoStateCapitolSenateChamber_gobeirne-600x247.jpg",
         "id" : "r81",
         "comps" : [],
         "download" : {
            "receiveFirst" : 362,
            "len" : 67228,
            "dns" : 0,
            "dnsEnd" : -1,
            "receiveHeadersEnd" : 897,
            "sslEnd" : -1,
            "connectEnd" : 535,
            "connectStart" : 0,
            "id" : "download_60",
            "receivedTime" : "6070.29700000567",
            "sslStart" : -1,
            "dnsStart" : -1,
            "receiveLast" : 5173.29700000567,
            "s_time" : 3959.944000002,
            "sendEnd" : 535,
            "sendStart" : 535,
            "type" : "image/jpeg"
         }
      },
      {
         "when_comp_start" : -1,
         "url" : "http://original.testbed.localhost/media.townhall.com/townhall/reu/s137x98/uploads/2015/9/15/12.png",
         "id" : "r82",
         "comps" : [],
         "download" : {
            "receiveFirst" : 414,
            "len" : 4589,
            "dns" : 0,
            "dnsEnd" : -1,
            "receiveHeadersEnd" : 926,
            "sslEnd" : -1,
            "connectEnd" : 511,
            "connectStart" : 0,
            "id" : "download_61",
            "receivedTime" : "5091.35400000378",
            "sslStart" : -1,
            "dnsStart" : -1,
            "receiveLast" : 4165.35400000378,
            "s_time" : 4126.49400000373,
            "sendEnd" : 512,
            "sendStart" : 511,
            "type" : "image/png"
         }
      },
      {
         "when_comp_start" : -1,
         "url" : "http://original.testbed.localhost/media.townhall.com/townhall/reu/s137x98/2015/256/e2ff26fe-e243-4faa-a69a-a36cafc51943.jpg",
         "id" : "r83",
         "comps" : [],
         "download" : {
            "receiveFirst" : 363,
            "len" : 5642,
            "dns" : 0,
            "dnsEnd" : -1,
            "receiveHeadersEnd" : 1003,
            "sslEnd" : -1,
            "connectEnd" : 640,
            "connectStart" : 0,
            "id" : "download_62",
            "receivedTime" : "5219.13100000529",
            "sslStart" : -1,
            "dnsStart" : -1,
            "receiveLast" : 4216.13100000529,
            "s_time" : 4169.15800000424,
            "sendEnd" : 640,
            "sendStart" : 640,
            "type" : "image/jpeg"
         }
      },
      {
         "when_comp_start" : -1,
         "url" : "http://original.testbed.localhost/media.townhall.com/townhall/reu/s137x98/uploads/2015/9/15/10.png",
         "id" : "r84",
         "comps" : [],
         "download" : {
            "receiveFirst" : 388,
            "len" : 4639,
            "dns" : 0,
            "dnsEnd" : -1,
            "receiveHeadersEnd" : 1016,
            "sslEnd" : -1,
            "connectEnd" : 628,
            "connectStart" : 0,
            "id" : "download_63",
            "receivedTime" : "5267.41000000038",
            "sslStart" : -1,
            "dnsStart" : -1,
            "receiveLast" : 4251.41000000038,
            "s_time" : 4217.43799999967,
            "sendEnd" : 628,
            "sendStart" : 628,
            "type" : "image/png"
         }
      },
      {
         "when_comp_start" : -1,
         "url" : "http://original.testbed.localhost/media.townhall.com/townhall/reu/s137x98/uploads/2015/9/15/7.png",
         "id" : "r85",
         "comps" : [],
         "download" : {
            "receiveFirst" : 457,
            "len" : 4361,
            "dns" : 0,
            "dnsEnd" : -1,
            "receiveHeadersEnd" : 1010,
            "sslEnd" : -1,
            "connectEnd" : 553,
            "connectStart" : 0,
            "id" : "download_64",
            "receivedTime" : "5562.27100000251",
            "sslStart" : -1,
            "dnsStart" : -1,
            "receiveLast" : 4552.27100000251,
            "s_time" : 4491.56100000255,
            "sendEnd" : 553,
            "sendStart" : 553,
            "type" : "image/png"
         }
      },
      {
         "when_comp_start" : -1,
         "url" : "http://original.testbed.localhost/media.townhall.com/townhall/reu/s137x98/uploads/2015/6/2/2.png",
         "id" : "r86",
         "comps" : [],
         "download" : {
            "receiveFirst" : 480,
            "len" : 2736,
            "dns" : 0,
            "dnsEnd" : -1,
            "receiveHeadersEnd" : 928,
            "sslEnd" : -1,
            "connectEnd" : 448,
            "connectStart" : 0,
            "id" : "download_65",
            "receivedTime" : "5589.73700000206",
            "sslStart" : -1,
            "dnsStart" : -1,
            "receiveLast" : 4661.73700000206,
            "s_time" : 4636.139000002,
            "sendEnd" : 448,
            "sendStart" : 448,
            "type" : "image/png"
         }
      },
      {
         "when_comp_start" : -1,
         "url" : "http://original.testbed.localhost/media.townhall.com/_townhall/resources/images/thmplus.png",
         "id" : "r87",
         "comps" : [],
         "download" : {
            "receiveFirst" : 429,
            "len" : 3872,
            "dns" : 0,
            "dnsEnd" : -1,
            "receiveHeadersEnd" : 843,
            "sslEnd" : -1,
            "connectEnd" : 413,
            "connectStart" : 0,
            "id" : "download_66",
            "receivedTime" : "5825.30200000474",
            "sslStart" : -1,
            "dnsStart" : -1,
            "receiveLast" : 4982.30200000474,
            "s_time" : 4807.84600000334,
            "sendEnd" : 414,
            "sendStart" : 413,
            "type" : "image/png"
         }
      },
      {
         "when_comp_start" : -1,
         "url" : "http://original.testbed.localhost/media.townhall.com/_townhall/resources/images/TownhallLogo.png",
         "id" : "r88",
         "comps" : [],
         "download" : {
            "receiveFirst" : 428,
            "len" : 15360,
            "dns" : 0,
            "dnsEnd" : -1,
            "receiveHeadersEnd" : 843,
            "sslEnd" : -1,
            "connectEnd" : 415,
            "connectStart" : 0,
            "id" : "download_67",
            "receivedTime" : "6062.91200000123",
            "sslStart" : -1,
            "dnsStart" : -1,
            "receiveLast" : 5219.91200000123,
            "s_time" : 4844.1610000009,
            "sendEnd" : 415,
            "sendStart" : 415,
            "type" : "image/png"
         }
      },
      {
         "when_comp_start" : -1,
         "url" : "http://original.testbed.localhost/media.townhall.com/_townhall/resources/images/hotair.png",
         "id" : "r95",
         "comps" : [],
         "download" : {
            "receiveFirst" : 381,
            "len" : 2820,
            "dns" : 0,
            "dnsEnd" : -1,
            "receiveHeadersEnd" : 876,
            "sslEnd" : -1,
            "connectEnd" : 495,
            "connectStart" : 0,
            "id" : "download_68",
            "receivedTime" : "5940.53600000188",
            "sslStart" : -1,
            "dnsStart" : -1,
            "receiveLast" : 5064.53600000188,
            "s_time" : 5043.21200000413,
            "sendEnd" : 495,
            "sendStart" : 495,
            "type" : "image/png"
         }
      },
      {
         "when_comp_start" : -1,
         "url" : "http://original.testbed.localhost/media.townhall.com/_townhall/resources/images/Widget_Pointer_left.png",
         "id" : "r96",
         "comps" : [],
         "download" : {
            "receiveFirst" : 389,
            "len" : 1138,
            "dns" : 0,
            "dnsEnd" : -1,
            "receiveHeadersEnd" : 878,
            "sslEnd" : -1,
            "connectEnd" : 489,
            "connectStart" : 0,
            "id" : "download_69",
            "receivedTime" : "5962.6000000062",
            "sslStart" : -1,
            "dnsStart" : -1,
            "receiveLast" : 5084.6000000062,
            "s_time" : 5082.58000000205,
            "sendEnd" : 489,
            "sendStart" : 489,
            "type" : "image/png"
         }
      },
      {
         "when_comp_start" : -1,
         "url" : "http://original.testbed.localhost/media.townhall.com/_townhall/resources/images/fb-circle16.png",
         "id" : "r97",
         "comps" : [],
         "download" : {
            "receiveFirst" : 364,
            "len" : 509,
            "dns" : 0,
            "dnsEnd" : -1,
            "receiveHeadersEnd" : 822,
            "sslEnd" : -1,
            "connectEnd" : 458,
            "connectStart" : 0,
            "id" : "download_70",
            "receivedTime" : "6046.46300000604",
            "sslStart" : -1,
            "dnsStart" : -1,
            "receiveLast" : 5224.46300000604,
            "s_time" : 5219.89400000166,
            "sendEnd" : 458,
            "sendStart" : 458,
            "type" : "image/png"
         }
      },
      {
         "when_comp_start" : -1,
         "url" : "http://original.testbed.localhost/media.townhall.com/_townhall/resources/images/pulse.png",
         "id" : "r98",
         "comps" : [],
         "download" : {
            "receiveFirst" : 140,
            "len" : 5429,
            "dns" : 0,
            "dnsEnd" : -1,
            "receiveHeadersEnd" : 826,
            "sslEnd" : -1,
            "connectEnd" : 686,
            "connectStart" : 0,
            "id" : "download_71",
            "receivedTime" : "6118.8500000062",
            "sslStart" : -1,
            "dnsStart" : -1,
            "receiveLast" : 5292.8500000062,
            "s_time" : 5257.46100000106,
            "sendEnd" : 686,
            "sendStart" : 686,
            "type" : "image/png"
         }
      },
      {
         "when_comp_start" : -1,
         "url" : "http://original.testbed.localhost/media.townhall.com/_townhall/resources/images/footer_thm1.png",
         "id" : "r99",
         "comps" : [],
         "download" : {
            "receiveFirst" : 180,
            "len" : 35504,
            "dns" : 0,
            "dnsEnd" : -1,
            "receiveHeadersEnd" : 607,
            "sslEnd" : -1,
            "connectEnd" : 427,
            "connectStart" : 0,
            "id" : "download_72",
            "receivedTime" : "6882.88800000009",
            "sslStart" : -1,
            "dnsStart" : -1,
            "receiveLast" : 6275.88800000009,
            "s_time" : 5536.37700000399,
            "sendEnd" : 427,
            "sendStart" : 427,
            "type" : "image/png"
         }
      },
      {
         "when_comp_start" : -1,
         "url" : "http://original.testbed.localhost/s0.wp.com/wp-content/themes/vip/twitchy/images/twitchy_logo.png",
         "id" : "r102",
         "comps" : [],
         "download" : {
            "receiveFirst" : 244,
            "len" : 7726,
            "dns" : 0,
            "dnsEnd" : -1,
            "receiveHeadersEnd" : 719,
            "sslEnd" : -1,
            "connectEnd" : 475,
            "connectStart" : 0,
            "id" : "download_73",
            "receivedTime" : "6348.3120000019",
            "sslStart" : -1,
            "dnsStart" : -1,
            "receiveLast" : 5629.3120000019,
            "s_time" : 5569.24300000537,
            "sendEnd" : 475,
            "sendStart" : 475,
            "type" : "image/png"
         }
      }
   ],
   "deps" : [
      {
         "a2" : "r1_c2",
         "time" : -1,
         "id" : "dep1",
         "a1" : "comp_4"
      },
      {
         "a2" : "r1_c3",
         "time" : -1,
         "id" : "dep2",
         "a1" : "comp_6"
      },
      {
         "a2" : "r1_c4",
         "time" : -1,
         "id" : "dep3",
         "a1" : "comp_9"
      },
      {
         "a2" : "r1_c5",
         "time" : -1,
         "id" : "dep4",
         "a1" : "comp_12"
      },
      {
         "a2" : "r1_c6",
         "time" : -1,
         "id" : "dep5",
         "a1" : "comp_13"
      },
      {
         "a2" : "r1_c7",
         "time" : -1,
         "id" : "dep6",
         "a1" : "comp_43"
      },
      {
         "a2" : "r1_c8",
         "time" : -1,
         "id" : "dep7",
         "a1" : "comp_48"
      },
      {
         "a2" : "r1_c9",
         "time" : -1,
         "id" : "dep8",
         "a1" : "comp_53"
      },
      {
         "a2" : "r1_c10",
         "time" : -1,
         "id" : "dep9",
         "a1" : "comp_55"
      },
      {
         "a2" : "r1_c11",
         "time" : -1,
         "id" : "dep10",
         "a1" : "comp_57"
      },
      {
         "a2" : "r1_c12",
         "time" : -1,
         "id" : "dep11",
         "a1" : "comp_63"
      },
      {
         "a2" : "comp_4",
         "time" : -1,
         "id" : "dep12",
         "a1" : "comp_1"
      },
      {
         "a2" : "comp_4",
         "time" : -1,
         "id" : "dep13",
         "a1" : "comp_3"
      },
      {
         "a2" : "comp_4",
         "time" : -1,
         "id" : "dep14",
         "a1" : "comp_2"
      },
      {
         "a2" : "comp_6",
         "time" : -1,
         "id" : "dep15",
         "a1" : "comp_4"
      },
      {
         "a2" : "comp_13",
         "time" : -1,
         "id" : "dep16",
         "a1" : "comp_12"
      },
      {
         "a2" : "comp_48",
         "time" : -1,
         "id" : "dep17",
         "a1" : "comp_43"
      },
      {
         "a2" : "comp_53",
         "time" : -1,
         "id" : "dep18",
         "a1" : "comp_48"
      },
      {
         "a2" : "comp_55",
         "time" : -1,
         "id" : "dep19",
         "a1" : "comp_53"
      },
      {
         "a2" : "comp_57",
         "time" : -1,
         "id" : "dep20",
         "a1" : "comp_55"
      },
      {
         "a2" : "download_73",
         "time" : -1,
         "id" : "dep21",
         "a1" : "r1_c12"
      },
      {
         "a2" : "download_72",
         "time" : 2130.47799999912,
         "id" : "dep22",
         "a1" : "r1_c12"
      },
      {
         "a2" : "download_71",
         "time" : 1851.56199999619,
         "id" : "dep23",
         "a1" : "r1_c12"
      },
      {
         "a2" : "download_70",
         "time" : 1813.99499999679,
         "id" : "dep24",
         "a1" : "r1_c12"
      },
      {
         "a2" : "download_69",
         "time" : 1676.68099999718,
         "id" : "dep25",
         "a1" : "r1_c12"
      },
      {
         "a2" : "download_68",
         "time" : 1637.31299999926,
         "id" : "dep26",
         "a1" : "r1_c12"
      },
      {
         "a2" : "download_67",
         "time" : 1438.26199999603,
         "id" : "dep27",
         "a1" : "r1_c12"
      },
      {
         "a2" : "download_66",
         "time" : 1401.94699999847,
         "id" : "dep28",
         "a1" : "r1_c12"
      },
      {
         "a2" : "download_65",
         "time" : 1230.23999999713,
         "id" : "dep29",
         "a1" : "r1_c12"
      },
      {
         "a2" : "download_64",
         "time" : 1085.66199999768,
         "id" : "dep30",
         "a1" : "r1_c12"
      },
      {
         "a2" : "download_63",
         "time" : 811.5389999948,
         "id" : "dep31",
         "a1" : "r1_c12"
      },
      {
         "a2" : "download_62",
         "time" : 763.258999999371,
         "id" : "dep32",
         "a1" : "r1_c12"
      },
      {
         "a2" : "download_61",
         "time" : 720.594999998861,
         "id" : "dep33",
         "a1" : "r1_c12"
      },
      {
         "a2" : "download_60",
         "time" : 554.04499999713,
         "id" : "dep34",
         "a1" : "r1_c12"
      },
      {
         "a2" : "download_59",
         "time" : 365.15700000018,
         "id" : "dep35",
         "a1" : "r1_c12"
      },
      {
         "a2" : "download_58",
         "time" : 328.65799999854,
         "id" : "dep36",
         "a1" : "r1_c12"
      },
      {
         "a2" : "download_57",
         "time" : 281.41799999866,
         "id" : "dep37",
         "a1" : "r1_c12"
      },
      {
         "a2" : "download_56",
         "time" : 253.81399999605,
         "id" : "dep38",
         "a1" : "r1_c12"
      },
      {
         "a2" : "download_55",
         "time" : 215.13299999787,
         "id" : "dep39",
         "a1" : "r1_c12"
      },
      {
         "a2" : "download_54",
         "time" : 179.99199999758,
         "id" : "dep40",
         "a1" : "r1_c12"
      },
      {
         "a2" : "download_53",
         "time" : 282.77499999967,
         "id" : "dep41",
         "a1" : "r1_c12"
      },
      {
         "a2" : "download_52",
         "time" : 145.32399999734,
         "id" : "dep42",
         "a1" : "r1_c12"
      },
      {
         "a2" : "download_51",
         "time" : 116.68400000053,
         "id" : "dep43",
         "a1" : "r1_c12"
      },
      {
         "a2" : "download_50",
         "time" : 78.7809999965202,
         "id" : "dep44",
         "a1" : "r1_c12"
      },
      {
         "a2" : "download_49",
         "time" : 19.2709999973804,
         "id" : "dep45",
         "a1" : "r1_c12"
      },
      {
         "a2" : "download_48",
         "time" : -1,
         "id" : "dep46",
         "a1" : "r1_c11"
      },
      {
         "a2" : "download_47",
         "time" : 407.89799999765,
         "id" : "dep47",
         "a1" : "r1_c11"
      },
      {
         "a2" : "download_46",
         "time" : 367.03499999566,
         "id" : "dep48",
         "a1" : "r1_c11"
      },
      {
         "a2" : "download_45",
         "time" : 357.51299999537,
         "id" : "dep49",
         "a1" : "r1_c11"
      },
      {
         "a2" : "download_44",
         "time" : 354.8279999959,
         "id" : "dep50",
         "a1" : "r1_c11"
      },
      {
         "a2" : "download_43",
         "time" : 351.71399999671,
         "id" : "dep51",
         "a1" : "r1_c11"
      },
      {
         "a2" : "download_42",
         "time" : 348.69400000025,
         "id" : "dep52",
         "a1" : "r1_c11"
      },
      {
         "a2" : "download_41",
         "time" : 345.93199999653,
         "id" : "dep53",
         "a1" : "r1_c11"
      },
      {
         "a2" : "download_40",
         "time" : -1,
         "id" : "dep54",
         "a1" : "r1_c5"
      },
      {
         "a2" : "download_39",
         "time" : 2.10499999957005,
         "id" : "dep55",
         "a1" : "r1_c5"
      },
      {
         "a2" : "download_38",
         "time" : 0.304000001050099,
         "id" : "dep56",
         "a1" : "r1_c5"
      },
      {
         "a2" : "download_37",
         "time" : 20.9340000001198,
         "id" : "dep57",
         "a1" : "r1_c11"
      },
      {
         "a2" : "download_36",
         "time" : -1,
         "id" : "dep58",
         "a1" : "r1_c8"
      },
      {
         "a2" : "download_35",
         "time" : 187.53100000322,
         "id" : "dep59",
         "a1" : "r1_c8"
      },
      {
         "a2" : "download_34",
         "time" : 130.8280000012,
         "id" : "dep60",
         "a1" : "r1_c8"
      },
      {
         "a2" : "download_33",
         "time" : 74.29400000546,
         "id" : "dep61",
         "a1" : "r1_c8"
      },
      {
         "a2" : "download_32",
         "time" : -1,
         "id" : "dep62",
         "a1" : "r1_c6"
      },
      {
         "a2" : "download_31",
         "time" : 6.46899999993002,
         "id" : "dep63",
         "a1" : "r78_c1"
      },
      {
         "a2" : "download_31",
         "time" : 444.57899999543,
         "id" : "dep64",
         "a1" : "r1_c6"
      },
      {
         "a2" : "download_30",
         "time" : 394.51499999995,
         "id" : "dep65",
         "a1" : "r1_c6"
      },
      {
         "a2" : "download_29",
         "time" : 340.89600000152,
         "id" : "dep66",
         "a1" : "r1_c6"
      },
      {
         "a2" : "download_28",
         "time" : 323.11900000059,
         "id" : "dep67",
         "a1" : "r1_c6"
      },
      {
         "a2" : "download_27",
         "time" : 260.5739999999,
         "id" : "dep68",
         "a1" : "r1_c6"
      },
      {
         "a2" : "download_26",
         "time" : 233.30700000224,
         "id" : "dep69",
         "a1" : "r1_c6"
      },
      {
         "a2" : "download_25",
         "time" : 285.46099999949,
         "id" : "dep70",
         "a1" : "r1_c6"
      },
      {
         "a2" : "download_25",
         "time" : 285.46099999949,
         "id" : "dep71",
         "a1" : "r1_c6"
      },
      {
         "a2" : "download_24",
         "time" : 374.4499999957,
         "id" : "dep72",
         "a1" : "r1_c6"
      },
      {
         "a2" : "download_24",
         "time" : 374.4499999957,
         "id" : "dep73",
         "a1" : "r1_c6"
      },
      {
         "a2" : "download_23",
         "time" : 289.79499999696,
         "id" : "dep74",
         "a1" : "r1_c6"
      },
      {
         "a2" : "download_23",
         "time" : 289.79499999696,
         "id" : "dep75",
         "a1" : "r1_c6"
      },
      {
         "a2" : "download_22",
         "time" : 1.25100000150996,
         "id" : "dep76",
         "a1" : "r78_c1"
      },
      {
         "a2" : "download_22",
         "time" : 439.36099999701,
         "id" : "dep77",
         "a1" : "r1_c6"
      },
      {
         "a2" : "download_21",
         "time" : 289.09299999941,
         "id" : "dep78",
         "a1" : "r1_c6"
      },
      {
         "a2" : "download_21",
         "time" : 289.09299999941,
         "id" : "dep79",
         "a1" : "r1_c6"
      },
      {
         "a2" : "download_20",
         "time" : 287.23100000206,
         "id" : "dep80",
         "a1" : "r1_c6"
      },
      {
         "a2" : "download_20",
         "time" : 287.23100000206,
         "id" : "dep81",
         "a1" : "r1_c6"
      },
      {
         "a2" : "download_19",
         "time" : 284.02700000151,
         "id" : "dep82",
         "a1" : "r1_c6"
      },
      {
         "a2" : "download_19",
         "time" : 284.02700000151,
         "id" : "dep83",
         "a1" : "r1_c6"
      },
      {
         "a2" : "download_18",
         "time" : 283.14200000022,
         "id" : "dep84",
         "a1" : "r1_c6"
      },
      {
         "a2" : "download_17",
         "time" : -1,
         "id" : "dep85",
         "a1" : "r1_c4"
      },
      {
         "a2" : "download_16",
         "time" : 166.74699999567,
         "id" : "dep86",
         "a1" : "r1_c6"
      },
      {
         "a2" : "download_15",
         "time" : 218.15400000196,
         "id" : "dep87",
         "a1" : "r1_c6"
      },
      {
         "a2" : "download_14",
         "time" : -1,
         "id" : "dep88",
         "a1" : "r1_c4"
      },
      {
         "a2" : "download_13",
         "time" : 33.03500000038,
         "id" : "dep89",
         "a1" : "r1_c4"
      },
      {
         "a2" : "download_12",
         "time" : 31.98100000009,
         "id" : "dep90",
         "a1" : "r1_c4"
      },
      {
         "a2" : "download_11",
         "time" : 31.1729999957602,
         "id" : "dep91",
         "a1" : "r1_c4"
      },
      {
         "a2" : "download_10",
         "time" : 30.39500000159,
         "id" : "dep92",
         "a1" : "r1_c4"
      },
      {
         "a2" : "download_9",
         "time" : 13.57899999857,
         "id" : "dep93",
         "a1" : "r1_c4"
      },
      {
         "a2" : "download_9",
         "time" : 13.57899999857,
         "id" : "dep94",
         "a1" : "r1_c4"
      },
      {
         "a2" : "download_8",
         "time" : -1,
         "id" : "dep95",
         "a1" : "r1_c1"
      },
      {
         "a2" : "download_7",
         "time" : 10.10099999985,
         "id" : "dep96",
         "a1" : "r1_c1"
      },
      {
         "a2" : "download_6",
         "time" : 14.038000001165,
         "id" : "dep97",
         "a1" : "r1_c1"
      },
      {
         "a2" : "download_6",
         "time" : 14.038000001165,
         "id" : "dep98",
         "a1" : "r1_c1"
      },
      {
         "a2" : "download_5",
         "time" : 13.06100000511,
         "id" : "dep99",
         "a1" : "r1_c1"
      },
      {
         "a2" : "download_5",
         "time" : 13.06100000511,
         "id" : "dep100",
         "a1" : "r1_c1"
      },
      {
         "a2" : "download_4",
         "time" : 11.352000001353,
         "id" : "dep101",
         "a1" : "r1_c1"
      },
      {
         "a2" : "download_4",
         "time" : 11.352000001353,
         "id" : "dep102",
         "a1" : "r1_c1"
      },
      {
         "a2" : "download_3",
         "time" : 8.84999999834699,
         "id" : "dep103",
         "a1" : "r1_c1"
      },
      {
         "a2" : "download_2",
         "time" : 7.812000003469,
         "id" : "dep104",
         "a1" : "r1_c1"
      },
      {
         "a2" : "download_1",
         "time" : 6.622000000789,
         "id" : "dep105",
         "a1" : "r1_c1"
      }
   ]
}
