{
   "n_download_no_trigger" : 1,
   "start_activity" : "download_0",
   "name" : "original.testbed.localhost_www.paypal.com_",
   "load_activity" : -1,
   "objs" : [
      {
         "when_comp_start" : 1,
         "url" : "http://original.testbed.localhost/www.paypal.com/",
         "id" : "r1",
         "comps" : [
            {
               "s_time" : 171.309999976074,
               "time" : 648.65099999588,
               "id" : "r1_c1",
               "type" : "evalhtml",
               "e_time" : 819.960999971954
            },
            {
               "s_time" : 4320.66299999133,
               "time" : -147655036.575,
               "id" : "r1_c2",
               "type" : "evalhtml",
               "e_time" : -147650715.912
            },
            {
               "s_time" : 4428.75699998694,
               "time" : -147655144.669,
               "id" : "r1_c3",
               "type" : "evalhtml",
               "e_time" : -147650715.912
            },
            {
               "s_time" : 4433.0899999768,
               "time" : -147655149.002,
               "id" : "r1_c4",
               "type" : "evalhtml",
               "e_time" : -147650715.912
            },
            {
               "s_time" : 4508.19399999455,
               "time" : -147655224.106,
               "id" : "r1_c5",
               "type" : "evalhtml",
               "e_time" : -147650715.912
            },
            {
               "s_time" : 4525.64999999595,
               "time" : 243.56099998113,
               "type" : "evalhtml",
               "id" : "r1_c6",
               "e_time" : 4769.21099997708
            }
         ],
         "download" : {
            "receiveFirst" : 53,
            "len" : 36233,
            "dns" : 0,
            "dnsEnd" : -1,
            "receiveHeadersEnd" : 60,
            "sslEnd" : -1,
            "connectEnd" : 6,
            "connectStart" : 0,
            "id" : "download_0",
            "receivedTime" : "170.333999994909",
            "sslStart" : -1,
            "dnsStart" : -1,
            "receiveLast" : 110.333999994909,
            "s_time" : 0,
            "sendEnd" : 7,
            "sendStart" : 6,
            "type" : "text/html"
         }
      },
      {
         "when_comp_start" : -1,
         "url" : "http://original.testbed.localhost/www.paypalobjects.com/eboxapps/css/71/0509b367ed085d828436e5017a2fa16105a8be.css",
         "id" : "r2",
         "comps" : [
            {
               "s_time" : 626.509999972768,
               "time" : 250.763000018196,
               "type" : 4,
               "id" : "comp_1",
               "e_time" : 877.272999990964
            }
         ],
         "download" : {
            "receiveFirst" : 101,
            "len" : 178160,
            "dns" : 0,
            "dnsEnd" : -1,
            "receiveHeadersEnd" : 106,
            "sslEnd" : -1,
            "connectEnd" : 5,
            "connectStart" : 0,
            "id" : "download_1",
            "receivedTime" : "624.221999984002",
            "sslStart" : -1,
            "dnsStart" : -1,
            "receiveLast" : 518.221999984002,
            "s_time" : 185.256999975536,
            "sendEnd" : 5,
            "sendStart" : 5,
            "type" : "text/css"
         }
      },
      {
         "when_comp_start" : -1,
         "url" : "http://original.testbed.localhost/www.paypalobjects.com/eboxapps/js/b2/a8a52ea52c769130d4bb0dd205f2b98f4437f9.js",
         "id" : "r4",
         "comps" : [
            {
               "s_time" : 3788.28399998019,
               "time" : 532.37900001114,
               "type" : 1,
               "id" : "comp_18",
               "e_time" : 4320.66299999133
            }
         ],
         "download" : {
            "receiveFirst" : 171,
            "len" : 517051,
            "dns" : 0,
            "dnsEnd" : -1,
            "receiveHeadersEnd" : 189,
            "sslEnd" : -1,
            "connectEnd" : 17,
            "connectStart" : 0,
            "id" : "download_2",
            "receivedTime" : "3786.39199997997",
            "sslStart" : -1,
            "dnsStart" : -1,
            "receiveLast" : 3597.39199997997,
            "s_time" : 240.340999996988,
            "sendEnd" : 18,
            "sendStart" : 17,
            "type" : "application/javascript"
         }
      },
      {
         "when_comp_start" : -1,
         "url" : "http://original.testbed.localhost/www.paypalobjects.com/eboxapps/js/1f/7828f883b83b2b6f5ceb440ddfe146d7e43533.js",
         "id" : "r6",
         "comps" : [
            {
               "s_time" : 4430.83199998364,
               "time" : 2.2579999931595,
               "type" : 1,
               "id" : "comp_26",
               "e_time" : 4433.0899999768
            }
         ],
         "download" : {
            "receiveFirst" : 255,
            "len" : 7473,
            "dns" : 0,
            "dnsEnd" : 35,
            "receiveHeadersEnd" : 572,
            "sslEnd" : -1,
            "connectEnd" : 317,
            "connectStart" : 0,
            "id" : "download_3",
            "receivedTime" : "928.969999979017",
            "sslStart" : -1,
            "dnsStart" : 35,
            "receiveLast" : 356.969999979017,
            "s_time" : 241.80599997635,
            "sendEnd" : 317,
            "sendStart" : 317,
            "type" : "application/javascript"
         }
      },
      {
         "when_comp_start" : -1,
         "url" : "http://original.testbed.localhost/www.paypalobjects.com/tagmgmt/bs.js",
         "id" : "r5",
         "comps" : [
            {
               "s_time" : 4323.195999983,
               "time" : 105.561000003941,
               "type" : 1,
               "id" : "comp_24",
               "e_time" : 4428.75699998694
            }
         ],
         "download" : {
            "receiveFirst" : 279,
            "len" : 60105,
            "dns" : 0,
            "dnsEnd" : 33,
            "receiveHeadersEnd" : 597,
            "sslEnd" : -1,
            "connectEnd" : 318,
            "connectStart" : 0,
            "id" : "download_4",
            "receivedTime" : "1406.63099999074",
            "sslStart" : -1,
            "dnsStart" : 33,
            "receiveLast" : 809.630999990739,
            "s_time" : 241.133999981685,
            "sendEnd" : 318,
            "sendStart" : 318,
            "type" : "application/javascript"
         }
      },
      {
         "when_comp_start" : -1,
         "url" : "http://original.testbed.localhost/www.paypalobjects.com/js/site_catalyst/pp_jscode_080706.js",
         "id" : "r7",
         "comps" : [
            {
               "s_time" : 4436.41599998227,
               "time" : 71.7780000122802,
               "type" : 1,
               "id" : "comp_28",
               "e_time" : 4508.19399999455
            }
         ],
         "download" : {
            "receiveFirst" : 376,
            "len" : 61883,
            "dns" : 0,
            "dnsEnd" : 36,
            "receiveHeadersEnd" : 692,
            "sslEnd" : -1,
            "connectEnd" : 316,
            "connectStart" : 0,
            "id" : "download_5",
            "receivedTime" : "1607.13199997554",
            "sslStart" : -1,
            "dnsStart" : 36,
            "receiveLast" : 915.131999975536,
            "s_time" : 242.446999996901,
            "sendEnd" : 316,
            "sendStart" : 316,
            "type" : "application/javascript"
         }
      },
      {
         "when_comp_start" : -1,
         "url" : "http://original.testbed.localhost/www.paypalobjects.com/pa/js/pa.js",
         "id" : "r9",
         "comps" : [
            {
               "s_time" : 4510.51299998653,
               "time" : 15.1370000094194,
               "type" : 1,
               "id" : "comp_33",
               "e_time" : 4525.64999999595
            }
         ],
         "download" : {
            "receiveFirst" : 471,
            "len" : 67902,
            "dns" : 0,
            "dnsEnd" : 27,
            "receiveHeadersEnd" : 789,
            "sslEnd" : -1,
            "connectEnd" : 317,
            "connectStart" : 0,
            "id" : "download_6",
            "receivedTime" : "1153.94599997671",
            "sslStart" : -1,
            "dnsStart" : 27,
            "receiveLast" : 364.945999976713,
            "s_time" : 264.998999977252,
            "sendEnd" : 318,
            "sendStart" : 317,
            "type" : "application/javascript"
         }
      },
      {
         "when_comp_start" : -1,
         "url" : "http://original.testbed.localhost/www.paypalobjects.com/webstatic/i/logo/rebrand/ppcom.svg",
         "id" : "r11",
         "comps" : [],
         "download" : {
            "receiveFirst" : 529,
            "len" : 5588,
            "dns" : 0,
            "dnsEnd" : -1,
            "receiveHeadersEnd" : 535,
            "sslEnd" : -1,
            "connectEnd" : 5,
            "connectStart" : 0,
            "id" : "download_7",
            "receivedTime" : "1339.70599999884",
            "sslStart" : -1,
            "dnsStart" : -1,
            "receiveLast" : 804.705999998841,
            "s_time" : 757.781999971485,
            "sendEnd" : 6,
            "sendStart" : 5,
            "type" : "image/svg+xml"
         }
      },
      {
         "when_comp_start" : -1,
         "url" : "http://original.testbed.localhost/www.paypalobjects.com/webstatic/en_US/mktg/wright/home/devices_homepage_0802.png",
         "id" : "r13",
         "comps" : [],
         "download" : {
            "receiveFirst" : 580,
            "len" : 203696,
            "dns" : 0,
            "dnsEnd" : -1,
            "receiveHeadersEnd" : 631,
            "sslEnd" : -1,
            "connectEnd" : 51,
            "connectStart" : 0,
            "id" : "download_8",
            "receivedTime" : "4908.0659999745",
            "sslStart" : -1,
            "dnsStart" : -1,
            "receiveLast" : 4277.0659999745,
            "s_time" : 782.14999998454,
            "sendEnd" : 51,
            "sendStart" : 51,
            "type" : "image/png"
         }
      },
      {
         "when_comp_start" : -1,
         "url" : "http://original.testbed.localhost/www.paypalobjects.com/webstatic/en_US/mktg/wright/home/sprite_homepage_0325_logos.jpg",
         "id" : "r14",
         "comps" : [],
         "download" : {
            "receiveFirst" : 455,
            "len" : 38741,
            "dns" : 0,
            "dnsEnd" : -1,
            "receiveHeadersEnd" : 804,
            "sslEnd" : -1,
            "connectEnd" : 349,
            "connectStart" : 0,
            "id" : "download_9",
            "receivedTime" : "2948.195999983",
            "sslStart" : -1,
            "dnsStart" : -1,
            "receiveLast" : 2144.195999983,
            "s_time" : 802.184000000125,
            "sendEnd" : 349,
            "sendStart" : 349,
            "type" : "image/jpeg"
         }
      },
      {
         "when_comp_start" : -1,
         "url" : "http://original.testbed.localhost/www.paypalobjects.com/webstatic/mktg/icons/sprite_countries_flag4.png",
         "id" : "r15",
         "comps" : [],
         "download" : {
            "receiveFirst" : 576,
            "len" : 69730,
            "dns" : 0,
            "dnsEnd" : -1,
            "receiveHeadersEnd" : 1096,
            "sslEnd" : -1,
            "connectEnd" : 517,
            "connectStart" : 0,
            "id" : "download_10",
            "receivedTime" : "3618.72799997218",
            "sslStart" : -1,
            "dnsStart" : -1,
            "receiveLast" : 2522.72799997218,
            "s_time" : 819.960999971954,
            "sendEnd" : 520,
            "sendStart" : 517,
            "type" : "image/png"
         }
      }
   ],
   "deps" : [
      {
         "a2" : "r1_c2",
         "time" : -1,
         "id" : "dep1",
         "a1" : "comp_18"
      },
      {
         "a2" : "r1_c3",
         "time" : -1,
         "id" : "dep2",
         "a1" : "comp_24"
      },
      {
         "a2" : "r1_c4",
         "time" : -1,
         "id" : "dep3",
         "a1" : "comp_26"
      },
      {
         "a2" : "r1_c5",
         "time" : -1,
         "id" : "dep4",
         "a1" : "comp_28"
      },
      {
         "a2" : "r1_c6",
         "time" : -1,
         "id" : "dep5",
         "a1" : "comp_33"
      },
      {
         "a2" : "comp_26",
         "time" : -1,
         "id" : "dep6",
         "a1" : "comp_24"
      },
      {
         "a2" : "comp_28",
         "time" : -1,
         "id" : "dep7",
         "a1" : "comp_26"
      },
      {
         "a2" : "download_10",
         "time" : -1,
         "id" : "dep8",
         "a1" : "r1_c1"
      },
      {
         "a2" : "download_9",
         "time" : 630.874000024051,
         "id" : "dep9",
         "a1" : "r1_c1"
      },
      {
         "a2" : "download_8",
         "time" : 610.840000008466,
         "id" : "dep10",
         "a1" : "r1_c1"
      },
      {
         "a2" : "download_7",
         "time" : 586.471999995411,
         "id" : "dep11",
         "a1" : "r1_c1"
      },
      {
         "a2" : "download_6",
         "time" : 93.689000001178,
         "id" : "dep12",
         "a1" : "r1_c1"
      },
      {
         "a2" : "download_6",
         "time" : 93.689000001178,
         "id" : "dep13",
         "a1" : "r1_c1"
      },
      {
         "a2" : "download_5",
         "time" : 71.137000020827,
         "id" : "dep14",
         "a1" : "r1_c1"
      },
      {
         "a2" : "download_5",
         "time" : 71.137000020827,
         "id" : "dep15",
         "a1" : "r1_c1"
      },
      {
         "a2" : "download_4",
         "time" : 69.824000005611,
         "id" : "dep16",
         "a1" : "r1_c1"
      },
      {
         "a2" : "download_4",
         "time" : 69.824000005611,
         "id" : "dep17",
         "a1" : "r1_c1"
      },
      {
         "a2" : "download_3",
         "time" : 70.496000000276,
         "id" : "dep18",
         "a1" : "r1_c1"
      },
      {
         "a2" : "download_3",
         "time" : 70.496000000276,
         "id" : "dep19",
         "a1" : "r1_c1"
      },
      {
         "a2" : "download_2",
         "time" : 69.031000020914,
         "id" : "dep20",
         "a1" : "r1_c1"
      },
      {
         "a2" : "download_2",
         "time" : 69.031000020914,
         "id" : "dep21",
         "a1" : "r1_c1"
      },
      {
         "a2" : "download_1",
         "time" : 13.946999999462,
         "id" : "dep22",
         "a1" : "r1_c1"
      }
   ]
}
