{
   "n_download_no_trigger" : 1,
   "start_activity" : "download_0",
   "name" : "modified.testbed.localhost_www.soso.com_",
   "load_activity" : -1,
   "objs" : [
      {
         "when_comp_start" : 1,
         "url" : "http://modified.testbed.localhost/www.soso.com/",
         "id" : "r1",
         "comps" : [
            {
               "s_time" : 54.0620000101626,
               "time" : 12.6150001306087,
               "id" : "r1_c1",
               "type" : "evalhtml",
               "e_time" : 66.6770001407713
            },
            {
               "s_time" : 88.2310001179576,
               "time" : 23.8319998607044,
               "id" : "r1_c2",
               "type" : "evalhtml",
               "e_time" : 112.062999978662
            },
            {
               "s_time" : 117.439999943599,
               "time" : -1096921629.635,
               "id" : "r1_c3",
               "type" : "evalhtml",
               "e_time" : -1096921512.195
            },
            {
               "s_time" : 1311.07500009239,
               "time" : -1096922823.27,
               "id" : "r1_c4",
               "type" : "evalhtml",
               "e_time" : -1096921512.195
            },
            {
               "s_time" : 1344.77500012144,
               "time" : -1096922856.97,
               "id" : "r1_c5",
               "type" : "evalhtml",
               "e_time" : -1096921512.195
            },
            {
               "s_time" : 1346.45000007004,
               "time" : 503.9959999267,
               "type" : "evalhtml",
               "id" : "r1_c6",
               "e_time" : 1850.44599999674
            }
         ],
         "download" : {
            "receiveFirst" : 21,
            "len" : 15458,
            "dns" : 0,
            "dnsEnd" : -1,
            "receiveHeadersEnd" : 21,
            "sslEnd" : -1,
            "connectEnd" : 0,
            "connectStart" : 0,
            "id" : "download_0",
            "receivedTime" : "53.6340000107884",
            "sslStart" : -1,
            "dnsStart" : -1,
            "receiveLast" : 32.6340000107884,
            "s_time" : 0,
            "sendEnd" : 0,
            "sendStart" : 0,
            "type" : "text/html"
         }
      },
      {
         "when_comp_start" : -1,
         "url" : "http://modified.testbed.localhost/www.sogou.com/images/index/spy_h.png",
         "id" : "r2",
         "comps" : [],
         "download" : {
            "receiveFirst" : 21,
            "len" : 8136,
            "dns" : 0,
            "dnsEnd" : -1,
            "receiveHeadersEnd" : 21,
            "sslEnd" : -1,
            "connectEnd" : 0,
            "connectStart" : 0,
            "id" : "download_1",
            "receivedTime" : "79.2670000810176",
            "sslStart" : -1,
            "dnsStart" : -1,
            "receiveLast" : 58.2670000810176,
            "s_time" : 55.9750001411885,
            "sendEnd" : 0,
            "sendStart" : 0,
            "type" : "image/png"
         }
      },
      {
         "when_comp_start" : -1,
         "url" : "http://modified.testbed.localhost/www.sogou.com/images/logo/new/search400x150.png",
         "id" : "r3",
         "comps" : [],
         "download" : {
            "receiveFirst" : 22,
            "len" : 11227,
            "dns" : 0,
            "dnsEnd" : -1,
            "receiveHeadersEnd" : 22,
            "sslEnd" : -1,
            "connectEnd" : 0,
            "connectStart" : 0,
            "id" : "download_2",
            "receivedTime" : "82.5100000947714",
            "sslStart" : -1,
            "dnsStart" : -1,
            "receiveLast" : 60.5100000947714,
            "s_time" : 56.9850001484156,
            "sendEnd" : 0,
            "sendStart" : 0,
            "type" : "image/png"
         }
      },
      {
         "when_comp_start" : -1,
         "url" : "http://modified.testbed.localhost/img01.sogoucdn.com/app/a/100520122/f58cddda_index_soso.jpg",
         "id" : "r4",
         "comps" : [],
         "download" : {
            "receiveFirst" : 20,
            "len" : 42631,
            "dns" : 0,
            "dnsEnd" : -1,
            "receiveHeadersEnd" : 20,
            "sslEnd" : -1,
            "connectEnd" : 0,
            "connectStart" : 0,
            "id" : "download_3",
            "receivedTime" : "119.10600005649",
            "sslStart" : -1,
            "dnsStart" : -1,
            "receiveLast" : 99.1060000564903,
            "s_time" : 61.0640000086278,
            "sendEnd" : 0,
            "sendStart" : 0,
            "type" : "image/jpeg"
         }
      },
      {
         "when_comp_start" : -1,
         "url" : "http://modified.testbed.localhost/www.sogou.com/websearch/features/year.jsp",
         "id" : "r5",
         "comps" : [
            {
               "s_time" : 88.0539999343455,
               "time" : 0.177000183612108,
               "type" : 1,
               "id" : "comp_0",
               "e_time" : 88.2310001179576
            }
         ],
         "download" : {
            "receiveFirst" : 24,
            "len" : 22,
            "dns" : 0,
            "dnsEnd" : -1,
            "receiveHeadersEnd" : 24,
            "sslEnd" : -1,
            "connectEnd" : 0,
            "connectStart" : 0,
            "id" : "download_4",
            "receivedTime" : "87.7460001502186",
            "sslStart" : -1,
            "dnsStart" : -1,
            "receiveLast" : 63.7460001502186,
            "s_time" : 62.0079999789596,
            "sendEnd" : 0,
            "sendStart" : 0,
            "type" : "text/plain"
         }
      },
      {
         "when_comp_start" : -1,
         "url" : "http://modified.testbed.localhost/www.sogou.com/js/sugg_new.v.41.js",
         "id" : "r6",
         "comps" : [
            {
               "s_time" : 96.9930000137538,
               "time" : 20.4469999298452,
               "type" : 1,
               "id" : "comp_2",
               "e_time" : 117.439999943599
            }
         ],
         "download" : {
            "receiveFirst" : 23,
            "len" : 28213,
            "dns" : 0,
            "dnsEnd" : -1,
            "receiveHeadersEnd" : 23,
            "sslEnd" : -1,
            "connectEnd" : 0,
            "connectStart" : 0,
            "id" : "download_5",
            "receivedTime" : "96.8919999431819",
            "sslStart" : -1,
            "dnsStart" : -1,
            "receiveLast" : 73.8919999431819,
            "s_time" : 63.3529999759048,
            "sendEnd" : 0,
            "sendStart" : 0,
            "type" : "application/javascript"
         }
      },
      {
         "when_comp_start" : -1,
         "url" : "http://modified.testbed.localhost/www.sogou.com/js/pb_v.1.9.2.min.js",
         "id" : "r7",
         "comps" : [
            {
               "s_time" : 1303.32099995576,
               "time" : 7.75400013662988,
               "type" : 1,
               "id" : "comp_15",
               "e_time" : 1311.07500009239
            }
         ],
         "download" : {
            "receiveFirst" : 28,
            "len" : 6221,
            "dns" : 0,
            "dnsEnd" : -1,
            "receiveHeadersEnd" : 28,
            "sslEnd" : -1,
            "connectEnd" : 0,
            "connectStart" : 0,
            "id" : "download_6",
            "receivedTime" : "117.725000018254",
            "sslStart" : -1,
            "dnsStart" : -1,
            "receiveLast" : 89.7250000182539,
            "s_time" : 64.0420001000166,
            "sendEnd" : 0,
            "sendStart" : 0,
            "type" : "application/javascript"
         }
      },
      {
         "when_comp_start" : -1,
         "url" : "http://modified.testbed.localhost/www.sogou.com/js/common/widget/login.js%3Fv=1",
         "id" : "r9",
         "comps" : [
            {
               "s_time" : 1345.55399999954,
               "time" : 0.896000070499895,
               "type" : 1,
               "id" : "comp_20",
               "e_time" : 1346.45000007004
            }
         ],
         "download" : {
            "receiveFirst" : 23,
            "len" : 3382,
            "dns" : 0,
            "dnsEnd" : -1,
            "receiveHeadersEnd" : 39,
            "sslEnd" : -1,
            "connectEnd" : 16,
            "connectStart" : 0,
            "id" : "download_7",
            "receivedTime" : "118.265999946743",
            "sslStart" : -1,
            "dnsStart" : -1,
            "receiveLast" : 79.2659999467432,
            "s_time" : 65.2040001004934,
            "sendEnd" : 16,
            "sendStart" : 16,
            "type" : "text/plain"
         }
      },
      {
         "when_comp_start" : -1,
         "url" : "http://modified.testbed.localhost/www.sogou.com/js/jquery-1.11.0.min.js",
         "id" : "r8",
         "comps" : [
            {
               "s_time" : 1313.54900007136,
               "time" : 31.2260000500798,
               "type" : 1,
               "id" : "comp_18",
               "e_time" : 1344.77500012144
            }
         ],
         "download" : {
            "receiveFirst" : 31,
            "len" : 96381,
            "dns" : 0,
            "dnsEnd" : -1,
            "receiveHeadersEnd" : 45,
            "sslEnd" : -1,
            "connectEnd" : 14,
            "connectStart" : 0,
            "id" : "download_8",
            "receivedTime" : "134.436000138521",
            "sslStart" : -1,
            "dnsStart" : -1,
            "receiveLast" : 89.4360001385212,
            "s_time" : 66.6770001407713,
            "sendEnd" : 14,
            "sendStart" : 14,
            "type" : "application/javascript"
         }
      },
      {
         "when_comp_start" : -1,
         "url" : "http://www.sogou.com/sug/css/m3.v.23.css",
         "id" : "r10",
         "comps" : [
            {
               "s_time" : 1291.9970001094,
               "time" : 80.0579998176599,
               "type" : 2,
               "id" : "comp_14",
               "e_time" : 1372.05499992706
            }
         ],
         "download" : {
            "receiveFirst" : 291,
            "len" : 37007,
            "dns" : 24,
            "dnsEnd" : 24,
            "receiveHeadersEnd" : 602,
            "sslEnd" : -1,
            "connectEnd" : 311,
            "connectStart" : 0,
            "id" : "download_9",
            "receivedTime" : "1291.80200002156",
            "sslStart" : -1,
            "dnsStart" : 0,
            "receiveLast" : 689.802000021562,
            "s_time" : 112.062999978662,
            "sendEnd" : 311,
            "sendStart" : 311,
            "type" : "text/css"
         }
      },
      {
         "when_comp_start" : -1,
         "url" : "http://dl.web.sogoucdn.com/common/lib/iwt-min.js",
         "id" : "r12",
         "comps" : [
            {
               "s_time" : 1847.89300011471,
               "time" : 2.26700003258998,
               "type" : null,
               "id" : "comp_31",
               "e_time" : 1850.1600001473
            }
         ],
         "download" : {
            "receiveFirst" : 248,
            "len" : 3152,
            "dns" : 0,
            "dnsEnd" : 0,
            "receiveHeadersEnd" : 496,
            "sslEnd" : -1,
            "connectEnd" : 248,
            "connectStart" : 0,
            "id" : "download_10",
            "receivedTime" : "1847.71500015631",
            "sslStart" : -1,
            "dnsStart" : 0,
            "receiveLast" : 1351.71500015631,
            "s_time" : 1350.58000008576,
            "sendEnd" : 248,
            "sendStart" : 248,
            "type" : "application/x-javascript"
         }
      },
      {
         "when_comp_start" : -1,
         "url" : "http://irs01.com/irt?_iwt_UA=UA-sogou-000003&jsonp=_6DE0A",
         "id" : "r17",
         "comps" : [
            {
               "s_time" : 2367.97000002116,
               "time" : 0.792999984699691,
               "type" : null,
               "id" : "comp_33",
               "e_time" : 2368.76300000586
            }
         ],
         "download" : {
            "receiveFirst" : 258,
            "len" : 35,
            "dns" : 0,
            "dnsEnd" : 0,
            "receiveHeadersEnd" : 516,
            "sslEnd" : -1,
            "connectEnd" : 258,
            "connectStart" : 0,
            "id" : "download_11",
            "receivedTime" : "2367.84500000067",
            "sslStart" : -1,
            "dnsStart" : 0,
            "receiveLast" : 1851.84500000067,
            "s_time" : 1850.44599999674,
            "sendEnd" : 258,
            "sendStart" : 258,
            "type" : "text/javascript"
         }
      }
   ],
   "deps" : [
      {
         "a2" : "r1_c2",
         "time" : -1,
         "id" : "dep1",
         "a1" : "comp_0"
      },
      {
         "a2" : "r1_c3",
         "time" : -1,
         "id" : "dep2",
         "a1" : "comp_2"
      },
      {
         "a2" : "r1_c4",
         "time" : -1,
         "id" : "dep3",
         "a1" : "comp_15"
      },
      {
         "a2" : "r1_c5",
         "time" : -1,
         "id" : "dep4",
         "a1" : "comp_18"
      },
      {
         "a2" : "r1_c6",
         "time" : -1,
         "id" : "dep5",
         "a1" : "comp_20"
      },
      {
         "a2" : "comp_15",
         "time" : -1,
         "id" : "dep6",
         "a1" : "comp_2"
      },
      {
         "a2" : "comp_20",
         "time" : -1,
         "id" : "dep7",
         "a1" : "comp_18"
      },
      {
         "a2" : "download_11",
         "time" : -1,
         "id" : "dep8",
         "a1" : "r1_c6"
      },
      {
         "a2" : "download_10",
         "time" : 4.13000001572004,
         "id" : "dep9",
         "a1" : "r1_c6"
      },
      {
         "a2" : "download_9",
         "time" : -1,
         "id" : "dep10",
         "a1" : "r1_c2"
      },
      {
         "a2" : "download_8",
         "time" : -1,
         "id" : "dep11",
         "a1" : "r1_c1"
      },
      {
         "a2" : "download_7",
         "time" : 11.1420000903308,
         "id" : "dep12",
         "a1" : "r1_c1"
      },
      {
         "a2" : "download_7",
         "time" : 11.1420000903308,
         "id" : "dep13",
         "a1" : "r1_c1"
      },
      {
         "a2" : "download_6",
         "time" : 9.98000008985399,
         "id" : "dep14",
         "a1" : "r1_c1"
      },
      {
         "a2" : "download_6",
         "time" : 9.98000008985399,
         "id" : "dep15",
         "a1" : "r1_c1"
      },
      {
         "a2" : "download_5",
         "time" : 9.2909999657422,
         "id" : "dep16",
         "a1" : "r1_c1"
      },
      {
         "a2" : "download_5",
         "time" : 9.2909999657422,
         "id" : "dep17",
         "a1" : "r1_c1"
      },
      {
         "a2" : "download_4",
         "time" : 7.945999968797,
         "id" : "dep18",
         "a1" : "r1_c1"
      },
      {
         "a2" : "download_3",
         "time" : 7.0019999984652,
         "id" : "dep19",
         "a1" : "r1_c1"
      },
      {
         "a2" : "download_2",
         "time" : 2.923000138253,
         "id" : "dep20",
         "a1" : "r1_c1"
      },
      {
         "a2" : "download_1",
         "time" : 1.9130001310259,
         "id" : "dep21",
         "a1" : "r1_c1"
      }
   ]
}
