{
   "n_download_no_trigger" : 1,
   "start_activity" : "download_0",
   "name" : "modified.testbed.localhost_www.directrev.com_",
   "load_activity" : -1,
   "objs" : [
      {
         "when_comp_start" : 1,
         "url" : "http://modified.testbed.localhost/www.directrev.com/",
         "id" : "r1",
         "comps" : [
            {
               "s_time" : 107.539999997243,
               "time" : 153.701000148431,
               "id" : "r1_c1",
               "type" : "evalhtml",
               "e_time" : 261.241000145674
            },
            {
               "s_time" : 353.249000152573,
               "time" : -1115956367.361,
               "id" : "r1_c2",
               "type" : "evalhtml",
               "e_time" : -1115956014.112
            },
            {
               "s_time" : 372.780000092462,
               "time" : -1115956386.892,
               "id" : "r1_c3",
               "type" : "evalhtml",
               "e_time" : -1115956014.112
            },
            {
               "s_time" : 375.079000135884,
               "time" : -1115956389.191,
               "id" : "r1_c4",
               "type" : "evalhtml",
               "e_time" : -1115956014.112
            },
            {
               "s_time" : 381.629000185058,
               "time" : -1115956395.741,
               "id" : "r1_c5",
               "type" : "evalhtml",
               "e_time" : -1115956014.112
            },
            {
               "s_time" : 419.76400022395,
               "time" : -1115956433.876,
               "id" : "r1_c6",
               "type" : "evalhtml",
               "e_time" : -1115956014.112
            },
            {
               "s_time" : 420.438000001013,
               "time" : 15.742000192404,
               "id" : "r1_c7",
               "type" : "evalhtml",
               "e_time" : 436.180000193417
            },
            {
               "s_time" : 441.549000097439,
               "time" : -1115956455.661,
               "id" : "r1_c8",
               "type" : "evalhtml",
               "e_time" : -1115956014.112
            },
            {
               "s_time" : 513.780000153929,
               "time" : -1115956527.892,
               "id" : "r1_c9",
               "type" : "evalhtml",
               "e_time" : -1115956014.112
            },
            {
               "s_time" : 569.318000227213,
               "time" : -1115956583.43,
               "id" : "r1_c10",
               "type" : "evalhtml",
               "e_time" : -1115956014.112
            },
            {
               "s_time" : 580.894000129774,
               "time" : 2.39000003784906,
               "type" : "evalhtml",
               "id" : "r1_c11",
               "e_time" : 583.284000167623
            }
         ],
         "download" : {
            "receiveFirst" : 22,
            "len" : 6952,
            "dns" : 0,
            "dnsEnd" : -1,
            "receiveHeadersEnd" : 22,
            "sslEnd" : -1,
            "connectEnd" : 0,
            "connectStart" : 0,
            "id" : "download_0",
            "receivedTime" : "107.035000110045",
            "sslStart" : -1,
            "dnsStart" : -1,
            "receiveLast" : 85.0350001100451,
            "s_time" : 0,
            "sendEnd" : 0,
            "sendStart" : 0,
            "type" : "text/html"
         }
      },
      {
         "when_comp_start" : -1,
         "url" : "http://modified.testbed.localhost/www.directrev.com/css/bootstrap.css",
         "id" : "r2",
         "comps" : [
            {
               "s_time" : 176.271000178531,
               "time" : 20.788999972865,
               "type" : 4,
               "id" : "comp_3",
               "e_time" : 197.060000151396
            }
         ],
         "download" : {
            "receiveFirst" : 25,
            "len" : 139042,
            "dns" : 0,
            "dnsEnd" : -1,
            "receiveHeadersEnd" : 37,
            "sslEnd" : -1,
            "connectEnd" : 12,
            "connectStart" : 0,
            "id" : "download_1",
            "receivedTime" : "176.082000136375",
            "sslStart" : -1,
            "dnsStart" : -1,
            "receiveLast" : 139.082000136375,
            "s_time" : 109.403000213206,
            "sendEnd" : 12,
            "sendStart" : 12,
            "type" : "text/css"
         }
      },
      {
         "when_comp_start" : -1,
         "url" : "http://modified.testbed.localhost/www.directrev.com/css/owl-carousel.css",
         "id" : "r4",
         "comps" : [
            {
               "s_time" : 166.447000112385,
               "time" : 0.512999948113986,
               "type" : 4,
               "id" : "comp_0",
               "e_time" : 166.960000060499
            }
         ],
         "download" : {
            "receiveFirst" : 23,
            "len" : 5180,
            "dns" : 0,
            "dnsEnd" : 10,
            "receiveHeadersEnd" : 54,
            "sslEnd" : -1,
            "connectEnd" : 31,
            "connectStart" : 0,
            "id" : "download_2",
            "receivedTime" : "166.263000108302",
            "sslStart" : -1,
            "dnsStart" : 10,
            "receiveLast" : 112.263000108302,
            "s_time" : 109.861000208184,
            "sendEnd" : 31,
            "sendStart" : 31,
            "type" : "text/css"
         }
      },
      {
         "when_comp_start" : -1,
         "url" : "http://modified.testbed.localhost/www.directrev.com/css/animate.min.css",
         "id" : "r5",
         "comps" : [
            {
               "s_time" : 169.320000102744,
               "time" : 2.44399998337002,
               "type" : 4,
               "id" : "comp_1",
               "e_time" : 171.764000086114
            }
         ],
         "download" : {
            "receiveFirst" : 25,
            "len" : 45541,
            "dns" : 0,
            "dnsEnd" : 10,
            "receiveHeadersEnd" : 56,
            "sslEnd" : -1,
            "connectEnd" : 30,
            "connectStart" : 0,
            "id" : "download_3",
            "receivedTime" : "169.143000151962",
            "sslStart" : -1,
            "dnsStart" : 10,
            "receiveLast" : 113.143000151962,
            "s_time" : 110.045000212267,
            "sendEnd" : 31,
            "sendStart" : 30,
            "type" : "text/css"
         }
      },
      {
         "when_comp_start" : -1,
         "url" : "http://modified.testbed.localhost/www.directrev.com/style.css",
         "id" : "r3",
         "comps" : [
            {
               "s_time" : 198.628000216559,
               "time" : 40.313999867066,
               "type" : 4,
               "id" : "comp_6",
               "e_time" : 238.942000083625
            }
         ],
         "download" : {
            "receiveFirst" : 30,
            "len" : 83384,
            "dns" : 1,
            "dnsEnd" : 11,
            "receiveHeadersEnd" : 61,
            "sslEnd" : -1,
            "connectEnd" : 31,
            "connectStart" : 0,
            "id" : "download_4",
            "receivedTime" : "198.526000138372",
            "sslStart" : -1,
            "dnsStart" : 10,
            "receiveLast" : 137.526000138372,
            "s_time" : 109.658000059426,
            "sendEnd" : 31,
            "sendStart" : 31,
            "type" : "text/css"
         }
      },
      {
         "when_comp_start" : -1,
         "url" : "http://modified.testbed.localhost/fonts.googleapis.com/css%3Ffamily=PT+Sans:400,400italic,700,700italic.css",
         "id" : "r6",
         "comps" : [
            {
               "s_time" : 174.856000114232,
               "time" : 0.0899999868130124,
               "type" : 4,
               "id" : "comp_2",
               "e_time" : 174.946000101045
            }
         ],
         "download" : {
            "receiveFirst" : 32,
            "len" : 958,
            "dns" : 0,
            "dnsEnd" : 10,
            "receiveHeadersEnd" : 62,
            "sslEnd" : -1,
            "connectEnd" : 30,
            "connectStart" : 0,
            "id" : "download_5",
            "receivedTime" : "174.703000113368",
            "sslStart" : -1,
            "dnsStart" : 10,
            "receiveLast" : 112.703000113368,
            "s_time" : 110.25800020434,
            "sendEnd" : 30,
            "sendStart" : 30,
            "type" : "text/css"
         }
      },
      {
         "when_comp_start" : -1,
         "url" : "http://modified.testbed.localhost/fonts.googleapis.com/css%3Ffamily=Lato:400,300,400italic,300italic,700,700italic,900.css",
         "id" : "r7",
         "comps" : [
            {
               "s_time" : 197.28000019677,
               "time" : 0.0989998225119848,
               "type" : 4,
               "id" : "comp_4",
               "e_time" : 197.379000019282
            }
         ],
         "download" : {
            "receiveFirst" : 36,
            "len" : 1561,
            "dns" : 0,
            "dnsEnd" : 10,
            "receiveHeadersEnd" : 66,
            "sslEnd" : -1,
            "connectEnd" : 30,
            "connectStart" : 0,
            "id" : "download_6",
            "receivedTime" : "197.18400016427",
            "sslStart" : -1,
            "dnsStart" : 10,
            "receiveLast" : 131.18400016427,
            "s_time" : 110.460000112653,
            "sendEnd" : 30,
            "sendStart" : 30,
            "type" : "text/css"
         }
      },
      {
         "when_comp_start" : -1,
         "url" : "http://modified.testbed.localhost/fonts.googleapis.com/css%3Ffamily=Exo:400,300,600,500,400italic,700italic,800,900.css",
         "id" : "r8",
         "comps" : [
            {
               "s_time" : 198.374000145122,
               "time" : 0.126000028103988,
               "type" : 4,
               "id" : "comp_5",
               "e_time" : 198.500000173226
            }
         ],
         "download" : {
            "receiveFirst" : 22,
            "len" : 1718,
            "dns" : 0,
            "dnsEnd" : -1,
            "receiveHeadersEnd" : 76,
            "sslEnd" : -1,
            "connectEnd" : 54,
            "connectStart" : 0,
            "id" : "download_7",
            "receivedTime" : "197.486000135541",
            "sslStart" : -1,
            "dnsStart" : -1,
            "receiveLast" : 121.486000135541,
            "s_time" : 110.665000043809,
            "sendEnd" : 54,
            "sendStart" : 54,
            "type" : "text/css"
         }
      },
      {
         "when_comp_start" : -1,
         "url" : "http://modified.testbed.localhost/www.directrev.com/js/bootstrap.min.js",
         "id" : "r11",
         "comps" : [
            {
               "s_time" : 358.012000098825,
               "time" : 14.767999993637,
               "type" : 1,
               "id" : "comp_10",
               "e_time" : 372.780000092462
            }
         ],
         "download" : {
            "receiveFirst" : 22,
            "len" : 29165,
            "dns" : 0,
            "dnsEnd" : -1,
            "receiveHeadersEnd" : 84,
            "sslEnd" : -1,
            "connectEnd" : 62,
            "connectStart" : 0,
            "id" : "download_8",
            "receivedTime" : "261.698000133038",
            "sslStart" : -1,
            "dnsStart" : -1,
            "receiveLast" : 177.698000133038,
            "s_time" : 111.542000202462,
            "sendEnd" : 62,
            "sendStart" : 62,
            "type" : "application/javascript"
         }
      },
      {
         "when_comp_start" : -1,
         "url" : "http://modified.testbed.localhost/www.directrev.com/js/menu.js",
         "id" : "r12",
         "comps" : [
            {
               "s_time" : 372.858000220731,
               "time" : 2.22099991515296,
               "type" : 1,
               "id" : "comp_12",
               "e_time" : 375.079000135884
            }
         ],
         "download" : {
            "receiveFirst" : 22,
            "len" : 4098,
            "dns" : 0,
            "dnsEnd" : -1,
            "receiveHeadersEnd" : 87,
            "sslEnd" : -1,
            "connectEnd" : 65,
            "connectStart" : 0,
            "id" : "download_9",
            "receivedTime" : "261.920000193641",
            "sslStart" : -1,
            "dnsStart" : -1,
            "receiveLast" : 174.920000193641,
            "s_time" : 111.655000131577,
            "sendEnd" : 65,
            "sendStart" : 65,
            "type" : "application/javascript"
         }
      },
      {
         "when_comp_start" : -1,
         "url" : "http://modified.testbed.localhost/www.directrev.com/js/jquery.js",
         "id" : "r10",
         "comps" : [
            {
               "s_time" : 265.219000168145,
               "time" : 88.029999984428,
               "type" : 1,
               "id" : "comp_8",
               "e_time" : 353.249000152573
            }
         ],
         "download" : {
            "receiveFirst" : 30,
            "len" : 96382,
            "dns" : 0,
            "dnsEnd" : -1,
            "receiveHeadersEnd" : 89,
            "sslEnd" : -1,
            "connectEnd" : 59,
            "connectStart" : 0,
            "id" : "download_10",
            "receivedTime" : "265.09500015527",
            "sslStart" : -1,
            "dnsStart" : -1,
            "receiveLast" : 176.09500015527,
            "s_time" : 111.317000119016,
            "sendEnd" : 59,
            "sendStart" : 59,
            "type" : "application/javascript"
         }
      },
      {
         "when_comp_start" : -1,
         "url" : "http://modified.testbed.localhost/www.directrev.com/js/owl.carousel.min.js",
         "id" : "r13",
         "comps" : [
            {
               "s_time" : 378.650000086054,
               "time" : 2.979000099004,
               "type" : 1,
               "id" : "comp_14",
               "e_time" : 381.629000185058
            }
         ],
         "download" : {
            "receiveFirst" : 23,
            "len" : 24210,
            "dns" : 0,
            "dnsEnd" : -1,
            "receiveHeadersEnd" : 91,
            "sslEnd" : -1,
            "connectEnd" : 68,
            "connectStart" : 0,
            "id" : "download_11",
            "receivedTime" : "262.778000207618",
            "sslStart" : -1,
            "dnsStart" : -1,
            "receiveLast" : 171.778000207618,
            "s_time" : 111.849000211805,
            "sendEnd" : 68,
            "sendStart" : 68,
            "type" : "application/javascript"
         }
      },
      {
         "when_comp_start" : -1,
         "url" : "http://modified.testbed.localhost/www.directrev.com/js/jquery.parallax-1.1.3.js",
         "id" : "r14",
         "comps" : [
            {
               "s_time" : 381.694000214338,
               "time" : 38.070000009612,
               "type" : 1,
               "id" : "comp_16",
               "e_time" : 419.76400022395
            }
         ],
         "download" : {
            "receiveFirst" : 21,
            "len" : 1828,
            "dns" : 0,
            "dnsEnd" : -1,
            "receiveHeadersEnd" : 92,
            "sslEnd" : -1,
            "connectEnd" : 71,
            "connectStart" : 0,
            "id" : "download_12",
            "receivedTime" : "262.961000204086",
            "sslStart" : -1,
            "dnsStart" : -1,
            "receiveLast" : 170.961000204086,
            "s_time" : 114.083000225946,
            "sendEnd" : 71,
            "sendStart" : 71,
            "type" : "application/javascript"
         }
      },
      {
         "when_comp_start" : -1,
         "url" : "http://modified.testbed.localhost/www.directrev.com/js/jquery.simple-text-rotator.js",
         "id" : "r15",
         "comps" : [
            {
               "s_time" : 419.886999996379,
               "time" : 0.551000004633977,
               "type" : 1,
               "id" : "comp_19",
               "e_time" : 420.438000001013
            }
         ],
         "download" : {
            "receiveFirst" : 23,
            "len" : 6000,
            "dns" : 0,
            "dnsEnd" : -1,
            "receiveHeadersEnd" : 94,
            "sslEnd" : -1,
            "connectEnd" : 71,
            "connectStart" : 0,
            "id" : "download_13",
            "receivedTime" : "263.166000135243",
            "sslStart" : -1,
            "dnsStart" : -1,
            "receiveLast" : 169.166000135243,
            "s_time" : 114.310000091791,
            "sendEnd" : 71,
            "sendStart" : 71,
            "type" : "application/javascript"
         }
      },
      {
         "when_comp_start" : -1,
         "url" : "http://modified.testbed.localhost/www.directrev.com/js/wow.min.js",
         "id" : "r16",
         "comps" : [
            {
               "s_time" : 440.881000133231,
               "time" : 0.667999964207979,
               "type" : 1,
               "id" : "comp_21",
               "e_time" : 441.549000097439
            }
         ],
         "download" : {
            "receiveFirst" : 22,
            "len" : 3419,
            "dns" : 0,
            "dnsEnd" : -1,
            "receiveHeadersEnd" : 102,
            "sslEnd" : -1,
            "connectEnd" : 80,
            "connectStart" : 0,
            "id" : "download_14",
            "receivedTime" : "440.750000067055",
            "sslStart" : -1,
            "dnsStart" : -1,
            "receiveLast" : 338.750000067055,
            "s_time" : 114.95600012131,
            "sendEnd" : 80,
            "sendStart" : 80,
            "type" : "application/javascript"
         }
      },
      {
         "when_comp_start" : -1,
         "url" : "http://modified.testbed.localhost/www.directrev.com/js/custom.js",
         "id" : "r17",
         "comps" : [
            {
               "s_time" : 442.202000180259,
               "time" : 71.57799997367,
               "type" : 1,
               "id" : "comp_23",
               "e_time" : 513.780000153929
            }
         ],
         "download" : {
            "receiveFirst" : 25,
            "len" : 3385,
            "dns" : 0,
            "dnsEnd" : -1,
            "receiveHeadersEnd" : 107,
            "sslEnd" : -1,
            "connectEnd" : 82,
            "connectStart" : 0,
            "id" : "download_15",
            "receivedTime" : "442.064000060782",
            "sslStart" : -1,
            "dnsStart" : -1,
            "receiveLast" : 335.064000060782,
            "s_time" : 115.007000043988,
            "sendEnd" : 82,
            "sendStart" : 82,
            "type" : "application/javascript"
         }
      },
      {
         "when_comp_start" : -1,
         "url" : "http://modified.testbed.localhost/www.directrev.com/js/jquery.isotope.min.js",
         "id" : "r18",
         "comps" : [
            {
               "s_time" : 527.689000125974,
               "time" : 41.6290001012391,
               "type" : 1,
               "id" : "comp_31",
               "e_time" : 569.318000227213
            }
         ],
         "download" : {
            "receiveFirst" : 22,
            "len" : 16020,
            "dns" : 0,
            "dnsEnd" : -1,
            "receiveHeadersEnd" : 109,
            "sslEnd" : -1,
            "connectEnd" : 87,
            "connectStart" : 0,
            "id" : "download_16",
            "receivedTime" : "526.540000224486",
            "sslStart" : -1,
            "dnsStart" : -1,
            "receiveLast" : 417.540000224486,
            "s_time" : 115.116000175476,
            "sendEnd" : 87,
            "sendStart" : 87,
            "type" : "application/javascript"
         }
      },
      {
         "when_comp_start" : -1,
         "url" : "http://modified.testbed.localhost/www.directrev.com/logo.png",
         "id" : "r9",
         "comps" : [],
         "download" : {
            "receiveFirst" : 21,
            "len" : 7280,
            "dns" : 0,
            "dnsEnd" : -1,
            "receiveHeadersEnd" : 119,
            "sslEnd" : -1,
            "connectEnd" : 98,
            "connectStart" : 0,
            "id" : "download_17",
            "receivedTime" : "569.46500018239",
            "sslStart" : -1,
            "dnsStart" : -1,
            "receiveLast" : 450.46500018239,
            "s_time" : 111.247000051662,
            "sendEnd" : 98,
            "sendStart" : 98,
            "type" : "image/png"
         }
      },
      {
         "when_comp_start" : -1,
         "url" : "http://modified.testbed.localhost/www.directrev.com/images/loading.gif",
         "id" : "r47",
         "comps" : [],
         "download" : {
            "receiveFirst" : 21,
            "len" : 13999,
            "dns" : 0,
            "dnsEnd" : -1,
            "receiveHeadersEnd" : 84,
            "sslEnd" : -1,
            "connectEnd" : 62,
            "connectStart" : 0,
            "id" : "download_18",
            "receivedTime" : "570.491000078619",
            "sslStart" : -1,
            "dnsStart" : -1,
            "receiveLast" : 486.491000078619,
            "s_time" : 222.024000016972,
            "sendEnd" : 63,
            "sendStart" : 62,
            "type" : "image/gif"
         }
      },
      {
         "when_comp_start" : -1,
         "url" : "http://modified.testbed.localhost/www.directrev.com/images/arrow.png",
         "id" : "r48",
         "comps" : [],
         "download" : {
            "receiveFirst" : 25,
            "len" : 1008,
            "dns" : 0,
            "dnsEnd" : -1,
            "receiveHeadersEnd" : 50,
            "sslEnd" : -1,
            "connectEnd" : 25,
            "connectStart" : 0,
            "id" : "download_19",
            "receivedTime" : "570.719000184909",
            "sslStart" : -1,
            "dnsStart" : -1,
            "receiveLast" : 520.719000184909,
            "s_time" : 261.241000145674,
            "sendEnd" : 25,
            "sendStart" : 25,
            "type" : "image/png"
         }
      },
      {
         "when_comp_start" : -1,
         "url" : "http://modified.testbed.localhost/www.directrev.com/js/custom-portfolio.js",
         "id" : "r49",
         "comps" : [
            {
               "s_time" : 579.097000183538,
               "time" : 1.79699994623604,
               "type" : 1,
               "id" : "comp_36",
               "e_time" : 580.894000129774
            }
         ],
         "download" : {
            "receiveFirst" : 21,
            "len" : 1812,
            "dns" : 0,
            "dnsEnd" : -1,
            "receiveHeadersEnd" : 22,
            "sslEnd" : -1,
            "connectEnd" : 1,
            "connectStart" : 0,
            "id" : "download_20",
            "receivedTime" : "578.963000094518",
            "sslStart" : -1,
            "dnsStart" : -1,
            "receiveLast" : 556.963000094518,
            "s_time" : 422.418000176549,
            "sendEnd" : 1,
            "sendStart" : 1,
            "type" : "application/javascript"
         }
      },
      {
         "when_comp_start" : -1,
         "url" : "http://modified.testbed.localhost/fonts.gstatic.com/s/lato/v11/nj47mAZe0mYUIySgfn0wpQ.ttf",
         "id" : "r32",
         "comps" : [],
         "download" : {
            "receiveFirst" : 21,
            "len" : 83300,
            "dns" : 0,
            "dnsEnd" : -1,
            "receiveHeadersEnd" : 23,
            "sslEnd" : -1,
            "connectEnd" : 2,
            "connectStart" : 0,
            "id" : "download_21",
            "receivedTime" : "592.023000121117",
            "sslStart" : -1,
            "dnsStart" : -1,
            "receiveLast" : 569.023000121117,
            "s_time" : 431.812000228092,
            "sendEnd" : 2,
            "sendStart" : 2,
            "type" : "application/octet-stream"
         }
      },
      {
         "when_comp_start" : -1,
         "url" : "http://modified.testbed.localhost/fonts.gstatic.com/s/ptsans/v8/0XxGQsSc1g4rdRdjJKZrNC3USBnSvpkopQaUR-2r7iU.ttf",
         "id" : "r29",
         "comps" : [],
         "download" : {
            "receiveFirst" : 22,
            "len" : 115048,
            "dns" : 0,
            "dnsEnd" : -1,
            "receiveHeadersEnd" : 22,
            "sslEnd" : -1,
            "connectEnd" : 0,
            "connectStart" : 0,
            "id" : "download_22",
            "receivedTime" : "602.037000004202",
            "sslStart" : -1,
            "dnsStart" : -1,
            "receiveLast" : 580.037000004202,
            "s_time" : 436.180000193417,
            "sendEnd" : 0,
            "sendStart" : 0,
            "type" : "application/octet-stream"
         }
      },
      {
         "when_comp_start" : -1,
         "url" : "http://modified.testbed.localhost/www.directrev.com/fonts/fontawesome-webfont.woff%3Fv=4.0.3",
         "id" : "r22",
         "comps" : [],
         "download" : {
            "receiveFirst" : 21,
            "len" : 44432,
            "dns" : 0,
            "dnsEnd" : -1,
            "receiveHeadersEnd" : 22,
            "sslEnd" : -1,
            "connectEnd" : 1,
            "connectStart" : 0,
            "id" : "download_23",
            "receivedTime" : "704.482000088319",
            "sslStart" : -1,
            "dnsStart" : -1,
            "receiveLast" : 682.482000088319,
            "s_time" : 583.284000167623,
            "sendEnd" : 1,
            "sendStart" : 1,
            "type" : "application/octet-stream"
         }
      },
      {
         "when_comp_start" : -1,
         "url" : "http://www.googletagmanager.com/gtm.js?id=GTM-5SWKRK",
         "id" : "r50",
         "comps" : [
            {
               "s_time" : 776.809000177309,
               "time" : 40.4069998767229,
               "type" : null,
               "id" : "comp_45",
               "e_time" : 817.216000054032
            }
         ],
         "download" : {
            "receiveFirst" : 39,
            "len" : 34776,
            "dns" : 0,
            "dnsEnd" : 0,
            "receiveHeadersEnd" : 63,
            "sslEnd" : -1,
            "connectEnd" : 24,
            "connectStart" : 0,
            "id" : "download_24",
            "receivedTime" : "743.115000193939",
            "sslStart" : -1,
            "dnsStart" : 0,
            "receiveLast" : 680.115000193939,
            "s_time" : 581.743000075221,
            "sendEnd" : 24,
            "sendStart" : 24,
            "type" : "text/javascript"
         }
      },
      {
         "when_comp_start" : -1,
         "url" : "http://modified.testbed.localhost/fonts.gstatic.com/s/ptsans/v8/FUDHvzEKSJww3kCxuiAo2A.ttf",
         "id" : "r28",
         "comps" : [],
         "download" : {
            "receiveFirst" : 260,
            "len" : 102144,
            "dns" : 0,
            "dnsEnd" : -1,
            "receiveHeadersEnd" : 260,
            "sslEnd" : -1,
            "connectEnd" : 0,
            "connectStart" : 0,
            "id" : "download_25",
            "receivedTime" : "826.139000011608",
            "sslStart" : -1,
            "dnsStart" : -1,
            "receiveLast" : 566.139000011608,
            "s_time" : 425.706000067294,
            "sendEnd" : 0,
            "sendStart" : 0,
            "type" : "application/octet-stream"
         }
      },
      {
         "when_comp_start" : -1,
         "url" : "http://www.google-analytics.com/analytics.js",
         "id" : "r51",
         "comps" : [
            {
               "s_time" : 867.211000062525,
               "time" : 112.505000084639,
               "type" : null,
               "id" : "comp_48",
               "e_time" : 979.716000147164
            }
         ],
         "download" : {
            "receiveFirst" : 24,
            "len" : 25252,
            "dns" : 0,
            "dnsEnd" : 0,
            "receiveHeadersEnd" : 48,
            "sslEnd" : -1,
            "connectEnd" : 24,
            "connectStart" : 0,
            "id" : "download_26",
            "receivedTime" : "866.779000032693",
            "sslStart" : -1,
            "dnsStart" : 0,
            "receiveLast" : 818.779000032693,
            "s_time" : 815.825000172481,
            "sendEnd" : 24,
            "sendStart" : 24,
            "type" : "text/javascript"
         }
      },
      {
         "when_comp_start" : -1,
         "url" : "http://www.google-analytics.com/collect?v=1&_v=j37&a=837855860&t=pageview&_s=1&dl=http%3A%2F%2Fmodified.testbed.localhost%2Fwww.directrev.com%2F&ul=en-us&de=UTF-8&dt=DirectREV%20-%20Media%20Delivery%20Platform&sd=24-bit&sr=1024x768&vp=989x601&je=1&_utma=10762024.1625294456.1435733487.1435733487.1435",
         "id" : "r52",
         "comps" : [],
         "download" : {
            "receiveFirst" : 24,
            "len" : 35,
            "dns" : 0,
            "dnsEnd" : -1,
            "receiveHeadersEnd" : 24,
            "sslEnd" : -1,
            "connectEnd" : 0,
            "connectStart" : 0,
            "id" : "download_27",
            "receivedTime" : "1002.85600009374",
            "sslStart" : -1,
            "dnsStart" : -1,
            "receiveLast" : 978.856000093743,
            "s_time" : 977.143000112846,
            "sendEnd" : 0,
            "sendStart" : 0,
            "type" : "image/gif"
         }
      },
      {
         "when_comp_start" : -1,
         "url" : "https://stats.g.doubleclick.net/r/collect?t=dc&aip=1&_r=3&v=1&_v=j37&tid=UA-44188354-1&cid=1625294456.1435733487&jid=63096858&_u=QCECgAQ~&z=616534737",
         "id" : "r53",
         "comps" : [],
         "download" : {
            "receiveFirst" : 39,
            "len" : 35,
            "dns" : 0,
            "dnsEnd" : 0,
            "receiveHeadersEnd" : 130,
            "sslEnd" : 90,
            "connectEnd" : 91,
            "connectStart" : 0,
            "id" : "download_28",
            "receivedTime" : "1110.21800013259",
            "sslStart" : 37,
            "dnsStart" : 0,
            "receiveLast" : 980.218000132591,
            "s_time" : 978.948000119999,
            "sendEnd" : 91,
            "sendStart" : 91,
            "type" : "image/gif"
         }
      }
   ],
   "deps" : [
      {
         "a2" : "r1_c2",
         "time" : -1,
         "id" : "dep1",
         "a1" : "comp_8"
      },
      {
         "a2" : "r1_c3",
         "time" : -1,
         "id" : "dep2",
         "a1" : "comp_10"
      },
      {
         "a2" : "r1_c4",
         "time" : -1,
         "id" : "dep3",
         "a1" : "comp_12"
      },
      {
         "a2" : "r1_c5",
         "time" : -1,
         "id" : "dep4",
         "a1" : "comp_14"
      },
      {
         "a2" : "r1_c6",
         "time" : -1,
         "id" : "dep5",
         "a1" : "comp_16"
      },
      {
         "a2" : "r1_c7",
         "time" : -1,
         "id" : "dep6",
         "a1" : "comp_19"
      },
      {
         "a2" : "r1_c8",
         "time" : -1,
         "id" : "dep7",
         "a1" : "comp_21"
      },
      {
         "a2" : "r1_c9",
         "time" : -1,
         "id" : "dep8",
         "a1" : "comp_23"
      },
      {
         "a2" : "r1_c10",
         "time" : -1,
         "id" : "dep9",
         "a1" : "comp_31"
      },
      {
         "a2" : "r1_c11",
         "time" : -1,
         "id" : "dep10",
         "a1" : "comp_36"
      },
      {
         "a2" : "comp_10",
         "time" : -1,
         "id" : "dep11",
         "a1" : "comp_8"
      },
      {
         "a2" : "comp_12",
         "time" : -1,
         "id" : "dep12",
         "a1" : "comp_10"
      },
      {
         "a2" : "comp_14",
         "time" : -1,
         "id" : "dep13",
         "a1" : "comp_12"
      },
      {
         "a2" : "comp_16",
         "time" : -1,
         "id" : "dep14",
         "a1" : "comp_14"
      },
      {
         "a2" : "comp_19",
         "time" : -1,
         "id" : "dep15",
         "a1" : "comp_16"
      },
      {
         "a2" : "comp_21",
         "time" : -1,
         "id" : "dep16",
         "a1" : "comp_19"
      },
      {
         "a2" : "comp_23",
         "time" : -1,
         "id" : "dep17",
         "a1" : "comp_21"
      },
      {
         "a2" : "comp_31",
         "time" : -1,
         "id" : "dep18",
         "a1" : "comp_23"
      },
      {
         "a2" : "comp_36",
         "time" : -1,
         "id" : "dep19",
         "a1" : "comp_31"
      },
      {
         "a2" : "download_28",
         "time" : 111.737000057474,
         "id" : "dep20",
         "a1" : "comp_48"
      },
      {
         "a2" : "download_27",
         "time" : 109.932000050321,
         "id" : "dep21",
         "a1" : "comp_48"
      },
      {
         "a2" : "download_26",
         "time" : 39.015999995172,
         "id" : "dep22",
         "a1" : "comp_45"
      },
      {
         "a2" : "download_25",
         "time" : -1,
         "id" : "dep23",
         "a1" : "r1_c7"
      },
      {
         "a2" : "download_24",
         "time" : 0.848999945446963,
         "id" : "dep24",
         "a1" : "r1_c11"
      },
      {
         "a2" : "download_23",
         "time" : -1,
         "id" : "dep25",
         "a1" : "r1_c11"
      },
      {
         "a2" : "download_22",
         "time" : -1,
         "id" : "dep26",
         "a1" : "r1_c7"
      },
      {
         "a2" : "download_21",
         "time" : 11.374000227079,
         "id" : "dep27",
         "a1" : "r1_c7"
      },
      {
         "a2" : "download_20",
         "time" : 1.98000017553602,
         "id" : "dep28",
         "a1" : "r1_c7"
      },
      {
         "a2" : "download_20",
         "time" : 1.98000017553602,
         "id" : "dep29",
         "a1" : "r1_c7"
      },
      {
         "a2" : "download_19",
         "time" : -1,
         "id" : "dep30",
         "a1" : "r1_c1"
      },
      {
         "a2" : "download_18",
         "time" : 114.484000019729,
         "id" : "dep31",
         "a1" : "r1_c1"
      },
      {
         "a2" : "download_17",
         "time" : 3.707000054419,
         "id" : "dep32",
         "a1" : "r1_c1"
      },
      {
         "a2" : "download_16",
         "time" : 7.576000178233,
         "id" : "dep33",
         "a1" : "r1_c1"
      },
      {
         "a2" : "download_15",
         "time" : 7.467000046745,
         "id" : "dep34",
         "a1" : "r1_c1"
      },
      {
         "a2" : "download_14",
         "time" : 7.416000124067,
         "id" : "dep35",
         "a1" : "r1_c1"
      },
      {
         "a2" : "download_13",
         "time" : 6.770000094548,
         "id" : "dep36",
         "a1" : "r1_c1"
      },
      {
         "a2" : "download_12",
         "time" : 6.54300022870299,
         "id" : "dep37",
         "a1" : "r1_c1"
      },
      {
         "a2" : "download_11",
         "time" : 4.309000214562,
         "id" : "dep38",
         "a1" : "r1_c1"
      },
      {
         "a2" : "download_10",
         "time" : 3.777000121773,
         "id" : "dep39",
         "a1" : "r1_c1"
      },
      {
         "a2" : "download_9",
         "time" : 4.115000134334,
         "id" : "dep40",
         "a1" : "r1_c1"
      },
      {
         "a2" : "download_8",
         "time" : 4.00200020521901,
         "id" : "dep41",
         "a1" : "r1_c1"
      },
      {
         "a2" : "download_7",
         "time" : 3.125000046566,
         "id" : "dep42",
         "a1" : "r1_c1"
      },
      {
         "a2" : "download_6",
         "time" : 2.92000011541001,
         "id" : "dep43",
         "a1" : "r1_c1"
      },
      {
         "a2" : "download_5",
         "time" : 2.71800020709699,
         "id" : "dep44",
         "a1" : "r1_c1"
      },
      {
         "a2" : "download_4",
         "time" : 2.118000062183,
         "id" : "dep45",
         "a1" : "r1_c1"
      },
      {
         "a2" : "download_3",
         "time" : 2.505000215024,
         "id" : "dep46",
         "a1" : "r1_c1"
      },
      {
         "a2" : "download_2",
         "time" : 2.32100021094099,
         "id" : "dep47",
         "a1" : "r1_c1"
      },
      {
         "a2" : "download_1",
         "time" : 1.863000215963,
         "id" : "dep48",
         "a1" : "r1_c1"
      }
   ]
}
