{
   "objs" : [
      {
         "id" : "r1",
         "url" : "http://original.testbed.localhost/www.collegehumor.com/",
         "download" : {
            "receiveLast" : 200.801000000793,
            "s_time" : 0,
            "type" : "text/html",
            "receiveFirst" : 205,
            "receiveHeadersEnd" : 205,
            "sslEnd" : -1,
            "sendEnd" : 0,
            "dnsStart" : -1,
            "dnsEnd" : -1,
            "len" : 92820,
            "dns" : 0,
            "connectStart" : 0,
            "sendStart" : 0,
            "sslStart" : -1,
            "id" : "download_0",
            "connectEnd" : 0,
            "receivedTime" : "405.801000000793"
         },
         "when_comp_start" : 1,
         "comps" : [
            {
               "type" : "evalhtml",
               "time" : 4.20700000177098,
               "id" : "r1_c1",
               "s_time" : 219.94099999938,
               "e_time" : 224.148000001151
            },
            {
               "e_time" : 1085.83600000202,
               "id" : "r1_c2",
               "s_time" : 1058.5370000008,
               "type" : "evalhtml",
               "time" : 27.2990000012201
            },
            {
               "e_time" : 1837.37400000246,
               "s_time" : 1087.14800000234,
               "id" : "r1_c3",
               "time" : 750.22600000012,
               "type" : "evalhtml"
            }
         ]
      },
      {
         "id" : "r2",
         "comps" : [
            {
               "s_time" : 632.119000001694,
               "id" : "comp_1",
               "time" : 18.597999998747,
               "type" : 4,
               "e_time" : 650.717000000441
            }
         ],
         "when_comp_start" : -1,
         "url" : "http://original.testbed.localhost/0.static.collegehumor.cvcdn.com/css/packages/778617aa5ed34176af011c66f4489144.css",
         "download" : {
            "receivedTime" : "631.924000001163",
            "connectEnd" : 1,
            "id" : "download_1",
            "sslStart" : -1,
            "connectStart" : 0,
            "sendStart" : 1,
            "dns" : 0,
            "len" : 118063,
            "sendEnd" : 1,
            "sslEnd" : -1,
            "receiveHeadersEnd" : 207,
            "dnsStart" : -1,
            "dnsEnd" : -1,
            "receiveFirst" : 206,
            "s_time" : 223.901000001206,
            "receiveLast" : 424.924000001163,
            "type" : "text/css"
         }
      },
      {
         "comps" : [
            {
               "time" : 43.63499999818,
               "type" : 1,
               "s_time" : 1014.90200000262,
               "id" : "comp_3",
               "e_time" : 1058.5370000008
            }
         ],
         "when_comp_start" : -1,
         "download" : {
            "receiveFirst" : 208,
            "type" : "application/javascript",
            "receiveLast" : 624.811000000918,
            "s_time" : 224.148000001151,
            "len" : 95404,
            "dns" : 0,
            "dnsEnd" : -1,
            "dnsStart" : -1,
            "receiveHeadersEnd" : 390,
            "sslEnd" : -1,
            "sendEnd" : 182,
            "sslStart" : -1,
            "sendStart" : 182,
            "connectStart" : 0,
            "receivedTime" : "1014.81100000092",
            "id" : "download_2",
            "connectEnd" : 182
         },
         "url" : "http://original.testbed.localhost/0.static.collegehumor.cvcdn.com/js/packages/4541b5138bf3666f43eaa1f4d2aad1dc.js",
         "id" : "r3"
      },
      {
         "id" : "r19",
         "url" : "http://original.testbed.localhost/0.static.collegehumor.cvcdn.com/images/nav-collegehumor-logo.svg",
         "download" : {
            "receivedTime" : "1271.94000000236",
            "id" : "download_3",
            "connectEnd" : 0,
            "sslStart" : -1,
            "connectStart" : 0,
            "sendStart" : 0,
            "len" : 4567,
            "dns" : 0,
            "receiveHeadersEnd" : 201,
            "sslEnd" : -1,
            "sendEnd" : 0,
            "dnsEnd" : -1,
            "dnsStart" : -1,
            "receiveFirst" : 201,
            "receiveLast" : 1070.94000000236,
            "s_time" : 1070.03400000031,
            "type" : "image/svg+xml"
         },
         "when_comp_start" : -1,
         "comps" : []
      },
      {
         "id" : "r20",
         "when_comp_start" : 1,
         "comps" : [],
         "url" : "http://original.testbed.localhost/0.static.collegehumor.cvcdn.com/js/packages/jquery.min.map",
         "download" : {
            "receivedTime" : "1281.99900000254",
            "id" : "download_4",
            "connectEnd" : 1,
            "sslStart" : -1,
            "sendStart" : 1,
            "connectStart" : 0,
            "len" : 347,
            "dns" : 0,
            "dnsStart" : -1,
            "dnsEnd" : -1,
            "receiveHeadersEnd" : 202,
            "sendEnd" : 1,
            "sslEnd" : -1,
            "receiveFirst" : 201,
            "type" : "text/html",
            "receiveLast" : 1079.99900000254,
            "s_time" : 1070.68400000207
         }
      },
      {
         "url" : "http://original.testbed.localhost/0.static.collegehumor.cvcdn.com/jument/images/placeholders/175x98.png",
         "download" : {
            "connectStart" : 0,
            "sendStart" : 1,
            "sslStart" : -1,
            "connectEnd" : 1,
            "id" : "download_5",
            "receivedTime" : "1282.25400000156",
            "s_time" : 1070.93600000007,
            "receiveLast" : 1080.25400000156,
            "type" : "image/png",
            "receiveFirst" : 201,
            "sslEnd" : -1,
            "sendEnd" : 1,
            "receiveHeadersEnd" : 202,
            "dnsStart" : -1,
            "dnsEnd" : -1,
            "dns" : 0,
            "len" : 458
         },
         "when_comp_start" : -1,
         "comps" : [],
         "id" : "r21"
      },
      {
         "id" : "r23",
         "comps" : [
            {
               "e_time" : -19269410.782,
               "type" : "evalhtml",
               "time" : -19270889.595,
               "id" : "r23_c1",
               "s_time" : 1478.81300000154
            },
            {
               "e_time" : 1484.3890000011,
               "time" : 0.398000000129969,
               "type" : "evalhtml",
               "s_time" : 1483.99100000097,
               "id" : "r23_c2"
            }
         ],
         "when_comp_start" : 1,
         "download" : {
            "sslStart" : -1,
            "sendStart" : 199,
            "connectStart" : 0,
            "receivedTime" : "1473.9980000013",
            "connectEnd" : 199,
            "id" : "download_6",
            "receiveFirst" : 201,
            "type" : "text/html",
            "s_time" : 1073.10499999949,
            "receiveLast" : 1073.9980000013,
            "dns" : 0,
            "len" : 2847,
            "dnsEnd" : -1,
            "dnsStart" : -1,
            "sendEnd" : 199,
            "sslEnd" : -1,
            "receiveHeadersEnd" : 400
         },
         "url" : "http://original.testbed.localhost/www.collegehumor.com/jument/ads/dfp.html%3Fzone=%252F8422%252Fcollegehumor.com%252Fhomepage&size=%255B%255B1%252C2%255D%255D&targeting%255Brating%255D=unrated.html"
      },
      {
         "id" : "r22",
         "url" : "http://original.testbed.localhost/0.static.collegehumor.cvcdn.com/jument/images/placeholders/300x168.png",
         "download" : {
            "dns" : 0,
            "len" : 100,
            "dnsEnd" : -1,
            "dnsStart" : -1,
            "sendEnd" : 202,
            "sslEnd" : -1,
            "receiveHeadersEnd" : 403,
            "receiveFirst" : 201,
            "type" : "image/png",
            "s_time" : 1071.18600000103,
            "receiveLast" : 1074.93699999966,
            "receivedTime" : "1477.93699999966",
            "connectEnd" : 202,
            "id" : "download_7",
            "sslStart" : -1,
            "sendStart" : 202,
            "connectStart" : 0
         },
         "comps" : [],
         "when_comp_start" : -1
      },
      {
         "download" : {
            "id" : "download_8",
            "connectEnd" : 80,
            "receivedTime" : "1681.12500000279",
            "sendStart" : 80,
            "connectStart" : 0,
            "sslStart" : -1,
            "dnsStart" : -1,
            "dnsEnd" : -1,
            "receiveHeadersEnd" : 280,
            "sendEnd" : 80,
            "sslEnd" : -1,
            "len" : 25207,
            "dns" : 0,
            "type" : "image/png",
            "receiveLast" : 1401.12500000279,
            "s_time" : 1193.86700000177,
            "receiveFirst" : 200
         },
         "url" : "http://original.testbed.localhost/0.static.collegehumor.cvcdn.com/images/sprite.png",
         "when_comp_start" : -1,
         "comps" : [],
         "id" : "r27"
      },
      {
         "id" : "r25",
         "comps" : [],
         "when_comp_start" : -1,
         "url" : "http://original.testbed.localhost/1.static.collegehumor.cvcdn.com/js/packages/41474bdd8a110c1611a4768ecf33801a.js",
         "download" : {
            "s_time" : 1085.83600000202,
            "receiveLast" : 1291.53300000267,
            "type" : "application/javascript",
            "receiveFirst" : 204,
            "sendEnd" : 186,
            "sslEnd" : -1,
            "receiveHeadersEnd" : 390,
            "dnsStart" : 0,
            "dnsEnd" : 0,
            "dns" : 0,
            "len" : 59425,
            "connectStart" : 0,
            "sendStart" : 186,
            "sslStart" : -1,
            "connectEnd" : 186,
            "id" : "download_9",
            "receivedTime" : "1681.53300000267"
         }
      },
      {
         "id" : "r7",
         "url" : "http://original.testbed.localhost/www.collegehumor.com/jument/fonts/din/bold/DINWeb-Bold.woff",
         "download" : {
            "sendStart" : 1,
            "connectStart" : 0,
            "sslStart" : -1,
            "connectEnd" : 1,
            "id" : "download_10",
            "receivedTime" : "2067.33900000108",
            "type" : "application/x-font-woff",
            "s_time" : 1465.10000000126,
            "receiveLast" : 1866.33900000108,
            "receiveFirst" : 200,
            "dnsStart" : -1,
            "dnsEnd" : -1,
            "sslEnd" : -1,
            "sendEnd" : 1,
            "receiveHeadersEnd" : 201,
            "dns" : 0,
            "len" : 30356
         },
         "when_comp_start" : -1,
         "comps" : []
      },
      {
         "url" : "http://original.testbed.localhost/www.collegehumor.com/jument/fonts/din/medium/DINWeb-Medium.woff",
         "download" : {
            "connectEnd" : 0,
            "id" : "download_11",
            "receivedTime" : "2068.65599999946",
            "sendStart" : 0,
            "connectStart" : 0,
            "sslStart" : -1,
            "dnsEnd" : -1,
            "dnsStart" : -1,
            "sendEnd" : 0,
            "sslEnd" : -1,
            "receiveHeadersEnd" : 202,
            "dns" : 0,
            "len" : 30248,
            "type" : "application/x-font-woff",
            "s_time" : 1465.23000000161,
            "receiveLast" : 1866.65599999946,
            "receiveFirst" : 202
         },
         "when_comp_start" : -1,
         "comps" : [],
         "id" : "r11"
      },
      {
         "comps" : [],
         "when_comp_start" : -1,
         "url" : "http://original.testbed.localhost/www.collegehumor.com/jument/fonts/icomoon/icomoon.woff%3F-hfr6lypk",
         "download" : {
            "receiveFirst" : 201,
            "type" : "application/octet-stream",
            "receiveLast" : 1466.59500000061,
            "s_time" : 1465.35199999926,
            "len" : 14976,
            "dns" : 0,
            "dnsStart" : -1,
            "dnsEnd" : -1,
            "receiveHeadersEnd" : 209,
            "sslEnd" : -1,
            "sendEnd" : 8,
            "sslStart" : -1,
            "sendStart" : 8,
            "connectStart" : 0,
            "receivedTime" : "1675.59500000061",
            "id" : "download_12",
            "connectEnd" : 8
         },
         "id" : "r4"
      },
      {
         "id" : "r9",
         "comps" : [],
         "when_comp_start" : -1,
         "url" : "http://original.testbed.localhost/www.collegehumor.com/jument/fonts/din/regular/DINWeb.woff",
         "download" : {
            "receiveFirst" : 202,
            "s_time" : 1465.48299999995,
            "receiveLast" : 1871.0870000025,
            "type" : "application/x-font-woff",
            "dns" : 0,
            "len" : 30972,
            "sslEnd" : -1,
            "sendEnd" : 9,
            "receiveHeadersEnd" : 211,
            "dnsStart" : -1,
            "dnsEnd" : -1,
            "sslStart" : -1,
            "connectStart" : 0,
            "sendStart" : 9,
            "receivedTime" : "2082.0870000025",
            "connectEnd" : 9,
            "id" : "download_13"
         }
      }
   ],
   "start_activity" : "download_0",
   "name" : "original.testbed.localhost_www.collegehumor.com_",
   "load_activity" : -1,
   "deps" : [
      {
         "a1" : "comp_3",
         "a2" : "r1_c2",
         "time" : -1,
         "id" : "dep1"
      },
      {
         "a2" : "r1_c3",
         "a1" : "comp_17",
         "time" : -1,
         "id" : "dep2"
      },
      {
         "id" : "dep3",
         "time" : -1,
         "a2" : "comp_3",
         "a1" : "comp_1"
      },
      {
         "id" : "dep4",
         "time" : -1,
         "a2" : "r23_c2",
         "a1" : "comp_62"
      },
      {
         "a2" : "download_13",
         "a1" : "r1_c3",
         "time" : 378.33499999761,
         "id" : "dep5"
      },
      {
         "id" : "dep6",
         "time" : 378.20399999692,
         "a2" : "download_12",
         "a1" : "r1_c3"
      },
      {
         "a2" : "download_11",
         "a1" : "r1_c3",
         "time" : 378.08199999927,
         "id" : "dep7"
      },
      {
         "a2" : "download_10",
         "a1" : "r1_c3",
         "id" : "dep8",
         "time" : 377.95199999892
      },
      {
         "a2" : "download_9",
         "a1" : "r1_c2",
         "id" : "dep9",
         "time" : -1
      },
      {
         "time" : 27.2990000012201,
         "id" : "dep10",
         "a2" : "download_9",
         "a1" : "r1_c2"
      },
      {
         "time" : 106.71899999943,
         "id" : "dep11",
         "a1" : "r1_c3",
         "a2" : "download_8"
      },
      {
         "a1" : "r1_c2",
         "a2" : "download_7",
         "time" : 12.64900000023,
         "id" : "dep12"
      },
      {
         "a1" : "r1_c2",
         "a2" : "download_6",
         "time" : 14.5679999986901,
         "id" : "dep13"
      },
      {
         "a1" : "r1_c2",
         "a2" : "download_5",
         "id" : "dep14",
         "time" : 12.39899999927
      },
      {
         "time" : 12.14700000127,
         "id" : "dep15",
         "a2" : "download_4",
         "a1" : "r1_c2"
      },
      {
         "time" : 11.4969999995101,
         "id" : "dep16",
         "a1" : "r1_c2",
         "a2" : "download_3"
      },
      {
         "time" : -1,
         "id" : "dep17",
         "a1" : "r1_c1",
         "a2" : "download_2"
      },
      {
         "id" : "dep18",
         "time" : 3.96000000182599,
         "a1" : "r1_c1",
         "a2" : "download_1"
      }
   ],
   "n_download_no_trigger" : 1
}
