{
   "start_activity" : "download_0",
   "name" : "original.testbed.localhost_www.youtube.com_",
   "load_activity" : -1,
   "n_download_no_trigger" : 1,
   "objs" : [
      {
         "url" : "http://original.testbed.localhost/www.youtube.com/",
         "comps" : [
            {
               "type" : "evalhtml",
               "e_time" : 233.861000000616,
               "id" : "r1_c1",
               "s_time" : 221.944000000803,
               "time" : 11.916999999813
            },
            {
               "s_time" : 441.409999999451,
               "id" : "r1_c2",
               "e_time" : 1653.51999999984,
               "type" : "evalhtml",
               "time" : 1212.11000000039
            },
            {
               "time" : 376.55499999892,
               "type" : "evalhtml",
               "e_time" : 2055.15999999989,
               "id" : "r1_c3",
               "s_time" : 1678.60500000097
            }
         ],
         "id" : "r1",
         "download" : {
            "receivedTime" : "607.837999999902",
            "receiveLast" : 400.837999999902,
            "sendStart" : 0,
            "connectStart" : 0,
            "type" : "text/html",
            "len" : 413820,
            "dns" : 0,
            "dnsEnd" : -1,
            "dnsStart" : -1,
            "sendEnd" : 0,
            "sslStart" : -1,
            "receiveFirst" : 207,
            "connectEnd" : 0,
            "receiveHeadersEnd" : 207,
            "sslEnd" : -1,
            "id" : "download_0",
            "s_time" : 0
         },
         "when_comp_start" : 1
      },
      {
         "when_comp_start" : -1,
         "id" : "r6",
         "download" : {
            "receiveFirst" : 201,
            "receiveHeadersEnd" : 204,
            "connectEnd" : 3,
            "s_time" : 232.893000000331,
            "sslEnd" : -1,
            "id" : "download_1",
            "dns" : 0,
            "sslStart" : -1,
            "sendEnd" : 3,
            "dnsEnd" : -1,
            "dnsStart" : -1,
            "receiveLast" : 234.419999998587,
            "receivedTime" : "438.419999998587",
            "type" : "application/javascript",
            "connectStart" : 0,
            "sendStart" : 3,
            "len" : 3912
         },
         "comps" : [
            {
               "time" : 2.73399999787296,
               "id" : "comp_7",
               "e_time" : 441.409999999451,
               "s_time" : 438.676000001578,
               "type" : 1
            }
         ],
         "url" : "http://original.testbed.localhost/s.ytimg.com/yts/jsbin/scheduler-vfl2Ljsz3/scheduler.js"
      },
      {
         "when_comp_start" : -1,
         "download" : {
            "sendEnd" : 202,
            "sslStart" : -1,
            "dnsEnd" : 1,
            "dnsStart" : 1,
            "dns" : 0,
            "s_time" : 233.694999998988,
            "sslEnd" : -1,
            "id" : "download_2",
            "connectEnd" : 202,
            "receiveHeadersEnd" : 403,
            "receiveFirst" : 201,
            "len" : 16923,
            "type" : "text/css",
            "connectStart" : 0,
            "sendStart" : 202,
            "receiveLast" : 235.494999999239,
            "receivedTime" : "638.494999999239"
         },
         "id" : "r10",
         "comps" : [
            {
               "time" : 1.70499999876495,
               "type" : 4,
               "id" : "comp_9",
               "e_time" : 640.378000000055,
               "s_time" : 638.67300000129
            }
         ],
         "url" : "http://original.testbed.localhost/s.ytimg.com/yts/cssbin/www-guide-vflmYVKfq.css"
      },
      {
         "url" : "http://original.testbed.localhost/s.ytimg.com/yts/img/pixel-vfl3z5WfW.gif",
         "comps" : [],
         "id" : "r11",
         "download" : {
            "receivedTime" : "640.874000000622",
            "receiveLast" : 235.874000000622,
            "len" : 43,
            "sendStart" : 204,
            "connectStart" : 0,
            "type" : "image/gif",
            "receiveFirst" : 201,
            "sslEnd" : -1,
            "id" : "download_3",
            "s_time" : 233.861000000616,
            "receiveHeadersEnd" : 405,
            "connectEnd" : 204,
            "dns" : 0,
            "dnsStart" : -1,
            "dnsEnd" : -1,
            "sendEnd" : 204,
            "sslStart" : -1
         },
         "when_comp_start" : -1
      },
      {
         "url" : "http://original.testbed.localhost/s.ytimg.com/yts/cssbin/www-pageframe-vflNP8pTX.css",
         "comps" : [
            {
               "type" : 4,
               "s_time" : 641.196000000491,
               "id" : "comp_20",
               "e_time" : 645.259000000806,
               "time" : 4.06300000031501
            }
         ],
         "id" : "r9",
         "download" : {
            "receiveFirst" : 204,
            "connectEnd" : 202,
            "receiveHeadersEnd" : 406,
            "s_time" : 233.48999999871,
            "id" : "download_4",
            "sslEnd" : -1,
            "dns" : 0,
            "sendEnd" : 202,
            "sslStart" : -1,
            "dnsEnd" : 1,
            "dnsStart" : 1,
            "receiveLast" : 235.131000000314,
            "receivedTime" : "641.131000000314",
            "type" : "text/css",
            "connectStart" : 0,
            "sendStart" : 202,
            "len" : 51075
         },
         "when_comp_start" : -1
      },
      {
         "download" : {
            "receiveLast" : 436.238999998197,
            "receivedTime" : "844.238999998197",
            "len" : 130037,
            "type" : "text/css",
            "sendStart" : 202,
            "connectStart" : 0,
            "dns" : 1,
            "sendEnd" : 202,
            "sslStart" : -1,
            "dnsStart" : 1,
            "dnsEnd" : 2,
            "receiveFirst" : 206,
            "s_time" : 233.295999998518,
            "id" : "download_5",
            "sslEnd" : -1,
            "connectEnd" : 202,
            "receiveHeadersEnd" : 408
         },
         "id" : "r8",
         "when_comp_start" : -1,
         "comps" : [
            {
               "s_time" : 844.41599999991,
               "id" : "comp_22",
               "e_time" : 855.405999998766,
               "type" : 4,
               "time" : 10.989999998856
            }
         ],
         "url" : "http://original.testbed.localhost/s.ytimg.com/yts/cssbin/www-home-c4-vflW6eIpi.css"
      },
      {
         "comps" : [
            {
               "type" : 4,
               "id" : "comp_23",
               "e_time" : 1057.38600000041,
               "s_time" : 855.792999998812,
               "time" : 201.593000001598
            }
         ],
         "url" : "http://original.testbed.localhost/s.ytimg.com/yts/cssbin/www-core-vfltm8NQD.css",
         "when_comp_start" : -1,
         "id" : "r7",
         "download" : {
            "receiveLast" : 442.702000000747,
            "receivedTime" : "855.702000000747",
            "len" : 230587,
            "type" : "text/css",
            "connectStart" : 0,
            "sendStart" : 202,
            "dns" : 0,
            "sendEnd" : 202,
            "sslStart" : -1,
            "dnsStart" : 2,
            "dnsEnd" : 2,
            "receiveFirst" : 211,
            "s_time" : 233.088000000862,
            "id" : "download_6",
            "sslEnd" : -1,
            "receiveHeadersEnd" : 413,
            "connectEnd" : 202
         }
      },
      {
         "url" : "http://original.testbed.localhost/i.ytimg.com/vi/c7nRTF2SowQ/hqdefault.jpg",
         "comps" : [],
         "download" : {
            "receiveFirst" : 200,
            "receiveHeadersEnd" : 366,
            "connectEnd" : 166,
            "id" : "download_7",
            "sslEnd" : -1,
            "s_time" : 441.801000000851,
            "dns" : 0,
            "dnsEnd" : -1,
            "dnsStart" : -1,
            "sslStart" : -1,
            "sendEnd" : 166,
            "receivedTime" : "811.666999998124",
            "receiveLast" : 445.666999998124,
            "connectStart" : 0,
            "sendStart" : 166,
            "type" : "image/jpeg",
            "len" : 35012
         },
         "id" : "r12",
         "when_comp_start" : -1
      },
      {
         "url" : "http://original.testbed.localhost/i.ytimg.com/vi/WB4sGX0R5ak/hqdefault.jpg%3Fcustom=true&w=196&h=110&stc=true&jpg444=true&jpgq=90&sp=68&sigh=5SdaWj2QQHG2j7a3Si7SksjMlc4",
         "comps" : [],
         "id" : "r13",
         "download" : {
            "receivedTime" : "840.559000000212",
            "receiveLast" : 443.559000000212,
            "len" : 9298,
            "connectStart" : 0,
            "sendStart" : 196,
            "type" : "image/jpeg",
            "receiveFirst" : 201,
            "id" : "download_8",
            "sslEnd" : -1,
            "s_time" : 441.992000000027,
            "connectEnd" : 196,
            "receiveHeadersEnd" : 397,
            "dns" : 0,
            "dnsEnd" : -1,
            "dnsStart" : -1,
            "sendEnd" : 196,
            "sslStart" : -1
         },
         "when_comp_start" : -1
      },
      {
         "id" : "r14",
         "download" : {
            "receiveLast" : 444.314000001352,
            "receivedTime" : "842.314000001352",
            "len" : 7974,
            "type" : "image/jpeg",
            "connectStart" : 0,
            "sendStart" : 198,
            "receiveFirst" : 200,
            "s_time" : 442.156000000978,
            "id" : "download_9",
            "sslEnd" : -1,
            "connectEnd" : 198,
            "receiveHeadersEnd" : 398,
            "dns" : 0,
            "sendEnd" : 198,
            "sslStart" : -1,
            "dnsEnd" : -1,
            "dnsStart" : -1
         },
         "when_comp_start" : -1,
         "url" : "http://original.testbed.localhost/i.ytimg.com/vi/Pgmx7z49OEk/hqdefault.jpg%3Fcustom=true&w=196&h=110&stc=true&jpg444=true&jpgq=90&sp=68&sigh=lMtlhOREHjDkUY3T6WoiUEQKhgc",
         "comps" : []
      },
      {
         "comps" : [],
         "url" : "http://original.testbed.localhost/i.ytimg.com/vi/XHplocNJIk8/hqdefault.jpg%3Fcustom=true&w=196&h=110&stc=true&jpg444=true&jpgq=90&sp=68&sigh=mjrx6UeVEv_pMhpZbP6EOAtxTFA",
         "when_comp_start" : -1,
         "id" : "r15",
         "download" : {
            "receiveHeadersEnd" : 400,
            "connectEnd" : 198,
            "s_time" : 442.351000001509,
            "id" : "download_10",
            "sslEnd" : -1,
            "receiveFirst" : 202,
            "sendEnd" : 198,
            "sslStart" : -1,
            "dnsEnd" : -1,
            "dnsStart" : -1,
            "dns" : 0,
            "type" : "image/jpeg",
            "sendStart" : 198,
            "connectStart" : 0,
            "len" : 13550,
            "receiveLast" : 443.562999998539,
            "receivedTime" : "843.562999998539"
         }
      },
      {
         "url" : "http://original.testbed.localhost/yt3.ggpht.com/-x3CU1CXklQI/AAAAAAAAAAI/AAAAAAAAAAA/jPQ9GJeU53g/s88-c-k-no-rj-c0xffffff/photo.jpg",
         "comps" : [],
         "id" : "r16",
         "download" : {
            "receivedTime" : "1181.14399999831",
            "receiveLast" : 611.143999998312,
            "len" : 3933,
            "sendStart" : 369,
            "connectStart" : 0,
            "type" : "image/jpeg",
            "receiveFirst" : 201,
            "id" : "download_11",
            "sslEnd" : -1,
            "s_time" : 442.500000001019,
            "connectEnd" : 369,
            "receiveHeadersEnd" : 570,
            "dns" : 0,
            "dnsEnd" : -1,
            "dnsStart" : -1,
            "sendEnd" : 369,
            "sslStart" : -1
         },
         "when_comp_start" : -1
      },
      {
         "comps" : [],
         "url" : "http://original.testbed.localhost/i.ytimg.com/vi/sU7LmmyQHRc/hqdefault.jpg%3Fcustom=true&w=196&h=110&stc=true&jpg444=true&jpgq=90&sp=68&sigh=aUgforGki0KGhS2Gwzik0vwuxAg",
         "when_comp_start" : -1,
         "id" : "r17",
         "download" : {
            "len" : 13400,
            "sendStart" : 397,
            "connectStart" : 0,
            "type" : "image/jpeg",
            "receivedTime" : "1185.69099999877",
            "receiveLast" : 587.690999998769,
            "dnsStart" : -1,
            "dnsEnd" : -1,
            "sslStart" : -1,
            "sendEnd" : 397,
            "dns" : 0,
            "sslEnd" : -1,
            "id" : "download_12",
            "s_time" : 442.985000001499,
            "connectEnd" : 397,
            "receiveHeadersEnd" : 598,
            "receiveFirst" : 201
         }
      },
      {
         "id" : "r18",
         "download" : {
            "receivedTime" : "1186.2340000007",
            "receiveLast" : 587.234000000695,
            "len" : 15168,
            "sendStart" : 399,
            "connectStart" : 0,
            "type" : "image/jpeg",
            "dns" : 0,
            "dnsStart" : -1,
            "dnsEnd" : -1,
            "sendEnd" : 399,
            "sslStart" : -1,
            "receiveFirst" : 200,
            "sslEnd" : -1,
            "id" : "download_13",
            "s_time" : 443.094999998721,
            "connectEnd" : 399,
            "receiveHeadersEnd" : 599
         },
         "when_comp_start" : -1,
         "url" : "http://original.testbed.localhost/i.ytimg.com/vi/HnMUrxzzjlY/hqdefault.jpg%3Fcustom=true&w=196&h=110&stc=true&jpg444=true&jpgq=90&sp=68&sigh=EOBNvblEDzk1NHFr8mLncNcXd_I",
         "comps" : []
      },
      {
         "download" : {
            "sendEnd" : 401,
            "sslStart" : -1,
            "dnsStart" : -1,
            "dnsEnd" : -1,
            "dns" : 0,
            "s_time" : 443.236999999499,
            "id" : "download_14",
            "sslEnd" : -1,
            "receiveHeadersEnd" : 601,
            "connectEnd" : 401,
            "receiveFirst" : 200,
            "len" : 13252,
            "type" : "image/jpeg",
            "sendStart" : 401,
            "connectStart" : 0,
            "receiveLast" : 597.834999999235,
            "receivedTime" : "1198.83499999924"
         },
         "id" : "r19",
         "when_comp_start" : -1,
         "url" : "http://original.testbed.localhost/i.ytimg.com/vi/o9iVXxFt1Wg/hqdefault.jpg%3Fcustom=true&w=196&h=110&stc=true&jpg444=true&jpgq=90&sp=68&sigh=1m6nQAPYL_aNFSB5wtAy3VDojyc",
         "comps" : []
      },
      {
         "url" : "http://original.testbed.localhost/i.ytimg.com/vi/1Ty8BH3ArKY/hqdefault.jpg%3Fcustom=true&w=196&h=110&stc=true&jpg444=true&jpgq=90&sp=68&sigh=noeiiCx7PfN930ngDeZ7ffhjcxE",
         "comps" : [],
         "when_comp_start" : -1,
         "id" : "r20",
         "download" : {
            "dnsStart" : -1,
            "dnsEnd" : -1,
            "sendEnd" : 401,
            "sslStart" : -1,
            "dns" : 0,
            "id" : "download_15",
            "sslEnd" : -1,
            "s_time" : 443.407999999181,
            "receiveHeadersEnd" : 602,
            "connectEnd" : 401,
            "receiveFirst" : 201,
            "len" : 14963,
            "connectStart" : 0,
            "sendStart" : 401,
            "type" : "image/jpeg",
            "receivedTime" : "1199.3169999987",
            "receiveLast" : 597.3169999987
         }
      },
      {
         "url" : "http://original.testbed.localhost/i.ytimg.com/vi/wcUU7Ka_esI/hqdefault.jpg%3Fcustom=true&w=196&h=110&stc=true&jpg444=true&jpgq=90&sp=68&sigh=IgVMwViBIzPvfpjtsaVY-spULfc",
         "comps" : [],
         "when_comp_start" : -1,
         "download" : {
            "dns" : 0,
            "sslStart" : -1,
            "sendEnd" : 208,
            "dnsStart" : -1,
            "dnsEnd" : -1,
            "receiveFirst" : 200,
            "connectEnd" : 208,
            "receiveHeadersEnd" : 408,
            "s_time" : 640.03700000103,
            "sslEnd" : -1,
            "id" : "download_16",
            "receiveLast" : 791.647000001278,
            "receivedTime" : "1199.64700000128",
            "type" : "image/jpeg",
            "sendStart" : 208,
            "connectStart" : 0,
            "len" : 12307
         },
         "id" : "r21"
      },
      {
         "when_comp_start" : -1,
         "download" : {
            "receivedTime" : "1249.19600000067",
            "receiveLast" : 847.196000000666,
            "connectStart" : 0,
            "sendStart" : 202,
            "type" : "image/jpeg",
            "len" : 11840,
            "dns" : 0,
            "dnsStart" : -1,
            "dnsEnd" : -1,
            "sendEnd" : 202,
            "sslStart" : -1,
            "receiveFirst" : 200,
            "connectEnd" : 202,
            "receiveHeadersEnd" : 402,
            "sslEnd" : -1,
            "id" : "download_17",
            "s_time" : 811.695000000327
         },
         "id" : "r22",
         "url" : "http://original.testbed.localhost/i.ytimg.com/vi/dnzA9bYc7I8/hqdefault.jpg%3Fcustom=true&w=196&h=110&stc=true&jpg444=true&jpgq=90&sp=68&sigh=y-usJDtwGNpfED04Xp-ZbF8eF0Y",
         "comps" : []
      },
      {
         "when_comp_start" : -1,
         "id" : "r50",
         "download" : {
            "id" : "download_18",
            "sslEnd" : -1,
            "s_time" : 1013.77199999843,
            "receiveHeadersEnd" : 229,
            "connectEnd" : 28,
            "receiveFirst" : 201,
            "dnsStart" : -1,
            "dnsEnd" : -1,
            "sendEnd" : 28,
            "sslStart" : -1,
            "dns" : 0,
            "len" : 28391,
            "connectStart" : 0,
            "sendStart" : 28,
            "type" : "image/png",
            "receivedTime" : "1272.71199999814",
            "receiveLast" : 1043.71199999814
         },
         "url" : "http://original.testbed.localhost/s.ytimg.com/yts/imgbin/www-hitchhiker-vflvB63an.png",
         "comps" : []
      },
      {
         "url" : "http://original.testbed.localhost/yt3.ggpht.com/-k_GkTGK0POM/AAAAAAAAAAI/AAAAAAAAAAA/0GrhY5eKm4I/s88-c-k-no-rj-c0xffffff/photo.jpg",
         "comps" : [],
         "download" : {
            "sendEnd" : 203,
            "sslStart" : -1,
            "dnsEnd" : -1,
            "dnsStart" : -1,
            "dns" : 0,
            "connectEnd" : 203,
            "receiveHeadersEnd" : 405,
            "s_time" : 840.366000000358,
            "sslEnd" : -1,
            "id" : "download_19",
            "receiveFirst" : 202,
            "type" : "image/jpeg",
            "sendStart" : 203,
            "connectStart" : 0,
            "len" : 4409,
            "receiveLast" : 868.299000000407,
            "receivedTime" : "1273.29900000041"
         },
         "id" : "r23",
         "when_comp_start" : -1
      },
      {
         "download" : {
            "receivedTime" : "1273.60300000146",
            "receiveLast" : 869.603000001458,
            "len" : 10188,
            "connectStart" : 0,
            "sendStart" : 204,
            "type" : "image/jpeg",
            "receiveFirst" : 200,
            "id" : "download_20",
            "sslEnd" : -1,
            "s_time" : 842.164999998204,
            "receiveHeadersEnd" : 404,
            "connectEnd" : 204,
            "dns" : 0,
            "dnsEnd" : -1,
            "dnsStart" : -1,
            "sslStart" : -1,
            "sendEnd" : 204
         },
         "id" : "r24",
         "when_comp_start" : -1,
         "url" : "http://original.testbed.localhost/i.ytimg.com/vi/OIoj5W9yFaE/hqdefault.jpg%3Fcustom=true&w=196&h=110&stc=true&jpg444=true&jpgq=90&sp=68&sigh=mKiKx7RR0C01RyRgbIzfIvd9Mwk",
         "comps" : []
      },
      {
         "comps" : [],
         "url" : "http://original.testbed.localhost/i.ytimg.com/vi/owZFQuats1k/hqdefault.jpg%3Fcustom=true&w=196&h=110&stc=true&jpg444=true&jpgq=90&sp=68&sigh=UHvaYmyT1BJw62L-KSyrGtTrN84",
         "when_comp_start" : -1,
         "id" : "r25",
         "download" : {
            "len" : 12704,
            "sendStart" : 203,
            "connectStart" : 0,
            "type" : "image/jpeg",
            "receivedTime" : "1281.49800000028",
            "receiveLast" : 877.498000000283,
            "dnsStart" : -1,
            "dnsEnd" : -1,
            "sendEnd" : 203,
            "sslStart" : -1,
            "dns" : 0,
            "sslEnd" : -1,
            "id" : "download_21",
            "s_time" : 843.54600000006,
            "connectEnd" : 203,
            "receiveHeadersEnd" : 404,
            "receiveFirst" : 201
         }
      },
      {
         "download" : {
            "dns" : 0,
            "sendEnd" : 7,
            "sslStart" : -1,
            "dnsEnd" : -1,
            "dnsStart" : -1,
            "receiveFirst" : 201,
            "s_time" : 1042.07200000019,
            "sslEnd" : -1,
            "id" : "download_22",
            "connectEnd" : 7,
            "receiveHeadersEnd" : 208,
            "receiveLast" : 1073.95000000051,
            "receivedTime" : "1281.95000000051",
            "len" : 11382,
            "type" : "image/jpeg",
            "connectStart" : 0,
            "sendStart" : 7
         },
         "id" : "r26",
         "when_comp_start" : -1,
         "comps" : [],
         "url" : "http://original.testbed.localhost/i.ytimg.com/vi/kdf1gSHWMKE/hqdefault.jpg%3Fcustom=true&w=196&h=110&stc=true&jpg444=true&jpgq=90&sp=68&sigh=hyNItltJnDvGWvskfdzuY-VfwSM"
      },
      {
         "url" : "http://original.testbed.localhost/fonts.gstatic.com/s/roboto/v15/zN7GBFwfMP4uA6AR0HCoLQ.ttf",
         "comps" : [],
         "download" : {
            "len" : 32652,
            "type" : "application/octet-stream",
            "sendStart" : 157,
            "connectStart" : 0,
            "receiveLast" : 1059.72499999954,
            "receivedTime" : "1418.72499999954",
            "s_time" : 1057.66500000027,
            "sslEnd" : -1,
            "id" : "download_23",
            "receiveHeadersEnd" : 359,
            "connectEnd" : 157,
            "receiveFirst" : 201,
            "sendEnd" : 158,
            "sslStart" : -1,
            "dnsEnd" : -1,
            "dnsStart" : -1,
            "dns" : 0
         },
         "id" : "r2",
         "when_comp_start" : -1
      },
      {
         "comps" : [],
         "url" : "http://original.testbed.localhost/fonts.gstatic.com/s/roboto/v15/RxZJdnzeo3R5zSexge8UUaCWcynf_cDxXwCLxiixG1c.ttf",
         "download" : {
            "receivedTime" : "1544.5409999993",
            "receiveLast" : 1156.5409999993,
            "len" : 32580,
            "sendStart" : 187,
            "connectStart" : 0,
            "type" : "application/octet-stream",
            "receiveFirst" : 201,
            "sslEnd" : -1,
            "id" : "download_24",
            "s_time" : 1057.85599999945,
            "receiveHeadersEnd" : 388,
            "connectEnd" : 187,
            "dns" : 0,
            "dnsStart" : -1,
            "dnsEnd" : -1,
            "sendEnd" : 187,
            "sslStart" : -1
         },
         "id" : "r5",
         "when_comp_start" : -1
      },
      {
         "comps" : [],
         "url" : "http://original.testbed.localhost/s.ytimg.com/yts/jsbin/spf-vfldNIm25/spf.js",
         "when_comp_start" : -1,
         "id" : "r54",
         "download" : {
            "connectEnd" : 47,
            "receiveHeadersEnd" : 250,
            "sslEnd" : -1,
            "id" : "download_25",
            "s_time" : 1198.58699999895,
            "receiveFirst" : 203,
            "dnsStart" : -1,
            "dnsEnd" : -1,
            "sendEnd" : 47,
            "sslStart" : -1,
            "dns" : 0,
            "sendStart" : 47,
            "connectStart" : 0,
            "type" : "application/javascript",
            "len" : 34173,
            "receivedTime" : "1545.16599999988",
            "receiveLast" : 1295.16599999988
         }
      },
      {
         "url" : "http://original.testbed.localhost/yt3.ggpht.com/qgAMspKekhapIIu6oDpA1L9jTVqOdGsfRAV0UnNunasrAK7vmHAnF3roDJmcUUxWX0Asbzh1HTuGJIQ1Lw=s88-nd-c-c0xffffffff-rj-k-no",
         "comps" : [],
         "when_comp_start" : -1,
         "id" : "r30",
         "download" : {
            "receiveFirst" : 201,
            "s_time" : 1049.81499999849,
            "sslEnd" : -1,
            "id" : "download_26",
            "connectEnd" : 199,
            "receiveHeadersEnd" : 400,
            "dns" : 0,
            "sendEnd" : 199,
            "sslStart" : -1,
            "dnsStart" : -1,
            "dnsEnd" : -1,
            "receiveLast" : 1153.43200000061,
            "receivedTime" : "1553.43200000061",
            "len" : 2776,
            "type" : "image/jpeg",
            "connectStart" : 0,
            "sendStart" : 199
         }
      },
      {
         "id" : "r31",
         "download" : {
            "dnsStart" : -1,
            "dnsEnd" : -1,
            "sendEnd" : 36,
            "sslStart" : -1,
            "dns" : 0,
            "sslEnd" : -1,
            "id" : "download_27",
            "s_time" : 1215.33400000044,
            "receiveHeadersEnd" : 236,
            "connectEnd" : 36,
            "receiveFirst" : 200,
            "len" : 10601,
            "connectStart" : 0,
            "sendStart" : 36,
            "type" : "image/jpeg",
            "receivedTime" : "1553.92500000016",
            "receiveLast" : 1317.92500000016
         },
         "when_comp_start" : -1,
         "comps" : [],
         "url" : "http://original.testbed.localhost/i.ytimg.com/vi/EeF3UTkCoxY/hqdefault.jpg%3Fcustom=true&w=196&h=110&stc=true&jpg444=true&jpgq=90&sp=68&sigh=x4Pyko1rqMW_Qor1oDMl1ga5K1c"
      },
      {
         "download" : {
            "sendEnd" : 48,
            "sslStart" : -1,
            "dnsEnd" : -1,
            "dnsStart" : -1,
            "dns" : 0,
            "s_time" : 1199.16100000046,
            "sslEnd" : -1,
            "id" : "download_28",
            "connectEnd" : 48,
            "receiveHeadersEnd" : 254,
            "receiveFirst" : 206,
            "len" : 87480,
            "type" : "application/javascript",
            "sendStart" : 48,
            "connectStart" : 0,
            "receiveLast" : 1400.133,
            "receivedTime" : "1654.133"
         },
         "id" : "r55",
         "when_comp_start" : -1,
         "url" : "http://original.testbed.localhost/s.ytimg.com/yts/jsbin/www-en_US-vflBAUmx0/base.js",
         "comps" : [
            {
               "time" : 24.4039999997799,
               "type" : 1,
               "s_time" : 1654.20100000119,
               "id" : "comp_155",
               "e_time" : 1678.60500000097
            }
         ]
      },
      {
         "url" : "http://original.testbed.localhost/i.ytimg.com/vi/y685gVGRQ98/hqdefault.jpg%3Fcustom=true&w=196&h=110&stc=true&jpg444=true&jpgq=90&sp=68&sigh=GYArbjIRlCz10eZhj8oghViPAv4",
         "comps" : [],
         "download" : {
            "receiveLast" : 1250.02999999904,
            "receivedTime" : "1624.02999999904",
            "len" : 13029,
            "type" : "image/jpeg",
            "connectStart" : 0,
            "sendStart" : 174,
            "receiveFirst" : 200,
            "s_time" : 1244.86899999829,
            "id" : "download_29",
            "sslEnd" : -1,
            "receiveHeadersEnd" : 374,
            "connectEnd" : 174,
            "dns" : 0,
            "sslStart" : -1,
            "sendEnd" : 174,
            "dnsEnd" : -1,
            "dnsStart" : -1
         },
         "id" : "r32",
         "when_comp_start" : -1
      },
      {
         "comps" : [],
         "url" : "http://original.testbed.localhost/i.ytimg.com/vi/gUa_R9HRARc/hqdefault.jpg%3Fcustom=true&w=196&h=110&stc=true&jpg444=true&jpgq=90&sp=68&sigh=-yJN6pk2KUnBiseiwwX32ghBddA",
         "id" : "r33",
         "download" : {
            "dnsStart" : -1,
            "dnsEnd" : -1,
            "sslStart" : -1,
            "sendEnd" : 202,
            "dns" : 0,
            "connectEnd" : 202,
            "receiveHeadersEnd" : 403,
            "id" : "download_30",
            "sslEnd" : -1,
            "s_time" : 1245.77499999941,
            "receiveFirst" : 201,
            "connectStart" : 0,
            "sendStart" : 202,
            "type" : "image/jpeg",
            "len" : 14332,
            "receivedTime" : "1651.6440000014",
            "receiveLast" : 1248.6440000014
         },
         "when_comp_start" : -1
      },
      {
         "url" : "http://original.testbed.localhost/i.ytimg.com/vi/iKCw-kqo3cs/hqdefault.jpg%3Fcustom=true&w=196&h=110&stc=true&jpg444=true&jpgq=90&sp=68&sigh=B-qIBOjSlVO2YFCX98n12V0maRI",
         "comps" : [],
         "when_comp_start" : -1,
         "id" : "r34",
         "download" : {
            "type" : "image/jpeg",
            "sendStart" : 202,
            "connectStart" : 0,
            "len" : 12587,
            "receiveLast" : 1248.94100000008,
            "receivedTime" : "1651.94100000008",
            "sendEnd" : 202,
            "sslStart" : -1,
            "dnsEnd" : -1,
            "dnsStart" : -1,
            "dns" : 0,
            "connectEnd" : 202,
            "receiveHeadersEnd" : 403,
            "s_time" : 1247.10499999856,
            "sslEnd" : -1,
            "id" : "download_31",
            "receiveFirst" : 201
         }
      },
      {
         "url" : "http://original.testbed.localhost/i.ytimg.com/vi/KPDqb45P2Mg/hqdefault.jpg%3Fcustom=true&w=196&h=110&stc=true&jpg444=true&jpgq=90&sp=68&sigh=StK7hk6Yr_nHMa8N9XjcCAD1HOE",
         "comps" : [],
         "when_comp_start" : -1,
         "download" : {
            "receiveFirst" : 201,
            "s_time" : 1248.82699999944,
            "id" : "download_32",
            "sslEnd" : -1,
            "connectEnd" : 201,
            "receiveHeadersEnd" : 402,
            "dns" : 0,
            "sendEnd" : 201,
            "sslStart" : -1,
            "dnsEnd" : -1,
            "dnsStart" : -1,
            "receiveLast" : 1251.35799999957,
            "receivedTime" : "1653.35799999957",
            "len" : 8461,
            "type" : "image/jpeg",
            "connectStart" : 0,
            "sendStart" : 201
         },
         "id" : "r35"
      },
      {
         "when_comp_start" : -1,
         "id" : "r36",
         "download" : {
            "receiveFirst" : 200,
            "sslEnd" : -1,
            "id" : "download_33",
            "s_time" : 1251.10099999802,
            "connectEnd" : 201,
            "receiveHeadersEnd" : 401,
            "dns" : 0,
            "dnsStart" : -1,
            "dnsEnd" : -1,
            "sendEnd" : 201,
            "sslStart" : -1,
            "receivedTime" : "1653.75099999801",
            "receiveLast" : 1252.75099999801,
            "len" : 10794,
            "connectStart" : 0,
            "sendStart" : 201,
            "type" : "image/jpeg"
         },
         "comps" : [],
         "url" : "http://original.testbed.localhost/i.ytimg.com/vi/9mdJV5-eias/hqdefault.jpg%3Fcustom=true&w=196&h=110&stc=true&jpg444=true&jpgq=90&sp=68&sigh=48qkYy0c4RwG1z1lyIGYyIhi77k"
      },
      {
         "when_comp_start" : -1,
         "download" : {
            "receiveFirst" : 200,
            "receiveHeadersEnd" : 370,
            "connectEnd" : 170,
            "s_time" : 1450.59300000139,
            "sslEnd" : -1,
            "id" : "download_34",
            "dns" : 0,
            "sendEnd" : 170,
            "sslStart" : -1,
            "dnsEnd" : -1,
            "dnsStart" : -1,
            "receiveLast" : 1452.19400000031,
            "receivedTime" : "1822.19400000031",
            "type" : "image/jpeg",
            "sendStart" : 170,
            "connectStart" : 0,
            "len" : 7262
         },
         "id" : "r37",
         "url" : "http://original.testbed.localhost/yt3.ggpht.com/-QIVF0Bs4QQo/AAAAAAAAAAI/AAAAAAAAAAA/5jwZ65D3bUU/s88-c-k-no-rj-c0xffffff/photo.jpg",
         "comps" : []
      },
      {
         "url" : "http://original.testbed.localhost/i.ytimg.com/vi/g3Rf5qDuq7M/hqdefault.jpg%3Fcustom=true&w=196&h=110&stc=true&jpg444=true&jpgq=90&sp=68&sigh=DAQln3PHCbi3nb5i1PKjgTLCHEk",
         "comps" : [],
         "download" : {
            "receiveLast" : 1454.41200000019,
            "receivedTime" : "1852.41200000019",
            "len" : 12093,
            "type" : "image/jpeg",
            "sendStart" : 198,
            "connectStart" : 0,
            "receiveFirst" : 200,
            "s_time" : 1452.48899999933,
            "id" : "download_35",
            "sslEnd" : -1,
            "connectEnd" : 198,
            "receiveHeadersEnd" : 398,
            "dns" : 0,
            "sendEnd" : 198,
            "sslStart" : -1,
            "dnsEnd" : -1,
            "dnsStart" : -1
         },
         "id" : "r38",
         "when_comp_start" : -1
      },
      {
         "comps" : [],
         "url" : "http://original.testbed.localhost/i.ytimg.com/vi/gO_KyTtJg10/hqdefault.jpg%3Fcustom=true&w=196&h=110&stc=true&jpg444=true&jpgq=90&sp=68&sigh=aG_HXqjumjvQ8oPUeJu-40gZce8",
         "id" : "r39",
         "download" : {
            "receivedTime" : "1855.54899999988",
            "receiveLast" : 1623.54899999988,
            "connectStart" : 0,
            "sendStart" : 31,
            "type" : "image/jpeg",
            "len" : 11299,
            "dns" : 0,
            "dnsStart" : -1,
            "dnsEnd" : -1,
            "sendEnd" : 31,
            "sslStart" : -1,
            "receiveFirst" : 201,
            "receiveHeadersEnd" : 232,
            "connectEnd" : 31,
            "id" : "download_36",
            "sslEnd" : -1,
            "s_time" : 1620.27099999978
         },
         "when_comp_start" : -1
      },
      {
         "url" : "http://original.testbed.localhost/i.ytimg.com/vi/aEjGQB9BKWA/hqdefault.jpg%3Fcustom=true&w=196&h=110&stc=true&jpg444=true&jpgq=90&sp=68&sigh=e4rkN0JWj_epQbJPK1-9RaC0Elw",
         "comps" : [],
         "id" : "r40",
         "download" : {
            "dns" : 0,
            "sendEnd" : 2,
            "sslStart" : -1,
            "dnsEnd" : -1,
            "dnsStart" : -1,
            "receiveFirst" : 201,
            "s_time" : 1650.12500000012,
            "id" : "download_37",
            "sslEnd" : -1,
            "connectEnd" : 1,
            "receiveHeadersEnd" : 203,
            "receiveLast" : 1653.02699999799,
            "receivedTime" : "1856.02699999799",
            "len" : 13259,
            "type" : "image/jpeg",
            "connectStart" : 0,
            "sendStart" : 1
         },
         "when_comp_start" : -1
      },
      {
         "when_comp_start" : -1,
         "id" : "r41",
         "download" : {
            "sslStart" : -1,
            "sendEnd" : 2,
            "dnsEnd" : -1,
            "dnsStart" : -1,
            "dns" : 0,
            "s_time" : 1651.03399999862,
            "sslEnd" : -1,
            "id" : "download_38",
            "connectEnd" : 2,
            "receiveHeadersEnd" : 204,
            "receiveFirst" : 202,
            "len" : 13460,
            "type" : "image/jpeg",
            "sendStart" : 2,
            "connectStart" : 0,
            "receiveLast" : 1655.83100000158,
            "receivedTime" : "1859.83100000158"
         },
         "url" : "http://original.testbed.localhost/i.ytimg.com/vi/NVUEOXZEuT4/hqdefault.jpg%3Fcustom=true&w=196&h=110&stc=true&jpg444=true&jpgq=90&sp=68&sigh=pgyrzGO46S7WSvc8uJwVOend9rk",
         "comps" : []
      },
      {
         "download" : {
            "receiveLast" : 1656.41100000148,
            "receivedTime" : "1860.41100000148",
            "type" : "image/jpeg",
            "sendStart" : 2,
            "connectStart" : 0,
            "len" : 11113,
            "dns" : 0,
            "sendEnd" : 2,
            "sslStart" : -1,
            "dnsStart" : -1,
            "dnsEnd" : -1,
            "receiveFirst" : 202,
            "receiveHeadersEnd" : 204,
            "connectEnd" : 2,
            "s_time" : 1651.87700000024,
            "sslEnd" : -1,
            "id" : "download_39"
         },
         "id" : "r42",
         "when_comp_start" : -1,
         "comps" : [],
         "url" : "http://original.testbed.localhost/i.ytimg.com/vi/oin0djnH0OM/hqdefault.jpg%3Fcustom=true&w=196&h=110&stc=true&jpg444=true&jpgq=90&sp=68&sigh=L49KH8-48qvot4DRo78wxw45w-U"
      },
      {
         "url" : "http://original.testbed.localhost/i.ytimg.com/vi/dK_FiuyVU2Y/hqdefault.jpg%3Fcustom=true&w=196&h=110&stc=true&jpg444=true&jpgq=90&sp=68&sigh=ovXWF5BVzn2jXjHo8jdUMUS4Gws",
         "comps" : [],
         "when_comp_start" : -1,
         "download" : {
            "connectEnd" : 168,
            "receiveHeadersEnd" : 369,
            "sslEnd" : -1,
            "id" : "download_40",
            "s_time" : 1653.51999999984,
            "receiveFirst" : 201,
            "dnsStart" : -1,
            "dnsEnd" : -1,
            "sendEnd" : 168,
            "sslStart" : -1,
            "dns" : 0,
            "connectStart" : 0,
            "sendStart" : 168,
            "type" : "image/jpeg",
            "len" : 21025,
            "receivedTime" : "2024.68700000099",
            "receiveLast" : 1655.68700000099
         },
         "id" : "r43"
      },
      {
         "when_comp_start" : -1,
         "download" : {
            "receiveLast" : 1822.82499999905,
            "receivedTime" : "2053.82499999905",
            "type" : "image/jpeg",
            "connectStart" : 0,
            "sendStart" : 30,
            "len" : 2204,
            "receiveFirst" : 201,
            "connectEnd" : 30,
            "receiveHeadersEnd" : 231,
            "s_time" : 1821.91700000112,
            "id" : "download_41",
            "sslEnd" : -1,
            "dns" : 0,
            "sslStart" : -1,
            "sendEnd" : 30,
            "dnsStart" : -1,
            "dnsEnd" : -1
         },
         "id" : "r44",
         "url" : "http://original.testbed.localhost/yt3.ggpht.com/-dDZUkj9sY4g/AAAAAAAAAAI/AAAAAAAAAAA/oy6dm2Uy8dc/s88-c-k-no-rj-c0xffffff/photo.jpg",
         "comps" : []
      },
      {
         "when_comp_start" : -1,
         "id" : "r45",
         "download" : {
            "receiveLast" : 1854.60500000158,
            "receivedTime" : "2056.60500000158",
            "type" : "image/jpeg",
            "sendStart" : 1,
            "connectStart" : 0,
            "len" : 11019,
            "receiveFirst" : 200,
            "connectEnd" : 1,
            "receiveHeadersEnd" : 202,
            "s_time" : 1851.95599999861,
            "sslEnd" : -1,
            "id" : "download_42",
            "dns" : 0,
            "sslStart" : -1,
            "sendEnd" : 2,
            "dnsEnd" : -1,
            "dnsStart" : -1
         },
         "comps" : [],
         "url" : "http://original.testbed.localhost/i.ytimg.com/vi/TvAMdsIc_Ow/hqdefault.jpg%3Fcustom=true&w=196&h=110&stc=true&jpg444=true&jpgq=90&sp=68&sigh=EEUI7m9UC56DTeA8pyslc0h3bVg"
      },
      {
         "url" : "http://original.testbed.localhost/i.ytimg.com/vi/NxgD40qFjVs/hqdefault.jpg%3Fcustom=true&w=196&h=110&stc=true&jpg444=true&jpgq=90&sp=68&sigh=rl75-pyiseMG1E5pfufPq1YYIrA",
         "comps" : [],
         "when_comp_start" : -1,
         "id" : "r46",
         "download" : {
            "type" : "image/jpeg",
            "connectStart" : 0,
            "sendStart" : 1,
            "len" : 12964,
            "receiveLast" : 1855.0919999991,
            "receivedTime" : "2057.0919999991",
            "sslStart" : -1,
            "sendEnd" : 1,
            "dnsStart" : -1,
            "dnsEnd" : -1,
            "dns" : 0,
            "connectEnd" : 1,
            "receiveHeadersEnd" : 202,
            "s_time" : 1853.52399999829,
            "sslEnd" : -1,
            "id" : "download_43",
            "receiveFirst" : 201
         }
      },
      {
         "id" : "r47",
         "download" : {
            "receiveLast" : 1858.86700000014,
            "receivedTime" : "2060.86700000014",
            "type" : "image/jpeg",
            "connectStart" : 0,
            "sendStart" : 1,
            "len" : 12777,
            "receiveFirst" : 201,
            "receiveHeadersEnd" : 202,
            "connectEnd" : 1,
            "s_time" : 1854.49199999857,
            "id" : "download_44",
            "sslEnd" : -1,
            "dns" : 0,
            "sendEnd" : 1,
            "sslStart" : -1,
            "dnsEnd" : -1,
            "dnsStart" : -1
         },
         "when_comp_start" : -1,
         "url" : "http://original.testbed.localhost/i.ytimg.com/vi/3Ugj7nq-mlg/hqdefault.jpg%3Fcustom=true&w=196&h=110&stc=true&jpg444=true&jpgq=90&sp=68&sigh=IiihMar2OIubgdcXLIn17Hwp7C0",
         "comps" : []
      },
      {
         "url" : "http://original.testbed.localhost/i.ytimg.com/vi/mAxvK2aGtQU/hqdefault.jpg%3Fcustom=true&w=196&h=110&stc=true&jpg444=true&jpgq=90&sp=68&sigh=KjFgA0nyjfUbFHtRxkPJ47dtXjM",
         "comps" : [],
         "download" : {
            "receiveLast" : 1859.62899999981,
            "receivedTime" : "2061.62899999981",
            "type" : "image/jpeg",
            "sendStart" : 1,
            "connectStart" : 0,
            "len" : 14732,
            "dns" : 0,
            "sendEnd" : 1,
            "sslStart" : -1,
            "dnsStart" : -1,
            "dnsEnd" : -1,
            "receiveFirst" : 201,
            "receiveHeadersEnd" : 202,
            "connectEnd" : 1,
            "s_time" : 1855.85100000026,
            "id" : "download_45",
            "sslEnd" : -1
         },
         "id" : "r48",
         "when_comp_start" : -1
      },
      {
         "when_comp_start" : -1,
         "id" : "r49",
         "download" : {
            "s_time" : 1856.94099999819,
            "id" : "download_46",
            "sslEnd" : -1,
            "connectEnd" : 168,
            "receiveHeadersEnd" : 368,
            "receiveFirst" : 200,
            "sendEnd" : 168,
            "sslStart" : -1,
            "dnsStart" : -1,
            "dnsEnd" : -1,
            "dns" : 0,
            "len" : 14289,
            "type" : "image/jpeg",
            "sendStart" : 168,
            "connectStart" : 0,
            "receiveLast" : 1859.31500000009,
            "receivedTime" : "2227.31500000009"
         },
         "comps" : [],
         "url" : "http://original.testbed.localhost/i.ytimg.com/vi/H-q0zh-XGVc/hqdefault.jpg%3Fcustom=true&w=196&h=110&stc=true&jpg444=true&jpgq=90&sp=68&sigh=Rp0Bkj4OToLoq1o34dUJWXqDNVs"
      },
      {
         "comps" : [],
         "url" : "http://original.testbed.localhost/i.ytimg.com/vi/na5yOfZJmPQ/hqdefault.jpg%3Fcustom=true&w=196&h=110&stc=true&jpg444=true&jpgq=90&sp=68&sigh=QHC8LH15o2YR2DwIUqcOtkgLZVM",
         "download" : {
            "receiveFirst" : 201,
            "connectEnd" : 29,
            "receiveHeadersEnd" : 230,
            "id" : "download_47",
            "sslEnd" : -1,
            "s_time" : 2024.54299999954,
            "dns" : 0,
            "dnsEnd" : -1,
            "dnsStart" : -1,
            "sendEnd" : 29,
            "sslStart" : -1,
            "receivedTime" : "2255.86800000019",
            "receiveLast" : 2025.86800000019,
            "sendStart" : 29,
            "connectStart" : 0,
            "type" : "image/jpeg",
            "len" : 9958
         },
         "id" : "r51",
         "when_comp_start" : -1
      },
      {
         "url" : "http://original.testbed.localhost/yt3.ggpht.com/-x-pKW1yb6y8/AAAAAAAAAAI/AAAAAAAAAAA/jPbMU4ZW0sA/s88-c-k-no-rj-c0xffffff/photo.jpg",
         "comps" : [],
         "id" : "r52",
         "download" : {
            "dns" : 0,
            "sslStart" : -1,
            "sendEnd" : 1,
            "dnsStart" : -1,
            "dnsEnd" : -1,
            "receiveFirst" : 201,
            "s_time" : 2053.74500000107,
            "sslEnd" : -1,
            "id" : "download_48",
            "connectEnd" : 1,
            "receiveHeadersEnd" : 202,
            "receiveLast" : 2054.69500000004,
            "receivedTime" : "2256.69500000004",
            "len" : 3116,
            "type" : "image/jpeg",
            "connectStart" : 0,
            "sendStart" : 1
         },
         "when_comp_start" : -1
      },
      {
         "id" : "r53",
         "download" : {
            "dns" : 0,
            "dnsEnd" : -1,
            "dnsStart" : -1,
            "sslStart" : -1,
            "sendEnd" : 1,
            "receiveFirst" : 200,
            "id" : "download_49",
            "sslEnd" : -1,
            "s_time" : 2055.15999999989,
            "receiveHeadersEnd" : 201,
            "connectEnd" : 1,
            "receivedTime" : "2259.61599999937",
            "receiveLast" : 2058.61599999937,
            "len" : 2461,
            "sendStart" : 1,
            "connectStart" : 0,
            "type" : "image/jpeg"
         },
         "when_comp_start" : -1,
         "url" : "http://original.testbed.localhost/yt3.ggpht.com/dtJRjCV0a2FCiwqvzY7u5JoMSnOGSe4vEr8YJqY2jJ_sLL-GpugyxWgseh_ITDZHdVatISs2pqQA_AZgYw=s88-nd-c-c0xffffffff-rj-k-no",
         "comps" : []
      },
      {
         "id" : "r27",
         "download" : {
            "connectEnd" : 1014,
            "receiveHeadersEnd" : 1214,
            "id" : "download_50",
            "sslEnd" : -1,
            "s_time" : 1043.96199999974,
            "receiveFirst" : 200,
            "dnsStart" : -1,
            "dnsEnd" : -1,
            "sslStart" : -1,
            "sendEnd" : 1014,
            "dns" : 0,
            "sendStart" : 1014,
            "connectStart" : 0,
            "type" : "image/jpeg",
            "len" : 11300,
            "receivedTime" : "2260.12899999841",
            "receiveLast" : 1046.12899999841
         },
         "when_comp_start" : -1,
         "url" : "http://original.testbed.localhost/i.ytimg.com/vi/rBg9gL0fs9U/hqdefault.jpg%3Fcustom=true&w=196&h=110&stc=true&jpg444=true&jpgq=90&sp=68&sigh=JTZpVRPLre9zyQvNwh5epDRgJws",
         "comps" : []
      },
      {
         "download" : {
            "type" : "image/jpeg",
            "sendStart" : 1013,
            "connectStart" : 0,
            "len" : 7816,
            "receiveLast" : 1048.67400000122,
            "receivedTime" : "2261.67400000122",
            "sendEnd" : 1013,
            "sslStart" : -1,
            "dnsEnd" : -1,
            "dnsStart" : -1,
            "dns" : 0,
            "connectEnd" : 1013,
            "receiveHeadersEnd" : 1213,
            "s_time" : 1045.93499999828,
            "id" : "download_51",
            "sslEnd" : -1,
            "receiveFirst" : 200
         },
         "id" : "r28",
         "when_comp_start" : -1,
         "comps" : [],
         "url" : "http://original.testbed.localhost/i.ytimg.com/vi/oPALbYj1ylY/hqdefault.jpg%3Fcustom=true&w=196&h=110&stc=true&jpg444=true&jpgq=90&sp=68&sigh=jw4lXjgaaTL6dfje5QMnUmpi6Wc"
      },
      {
         "id" : "r29",
         "download" : {
            "receivedTime" : "2429.05400000018",
            "receiveLast" : 1049.05400000018,
            "len" : 11545,
            "connectStart" : 0,
            "sendStart" : 1179,
            "type" : "image/jpeg",
            "dns" : 0,
            "dnsStart" : -1,
            "dnsEnd" : -1,
            "sendEnd" : 1179,
            "sslStart" : -1,
            "receiveFirst" : 201,
            "sslEnd" : -1,
            "id" : "download_52",
            "s_time" : 1047.19100000148,
            "connectEnd" : 1179,
            "receiveHeadersEnd" : 1380
         },
         "when_comp_start" : -1,
         "comps" : [],
         "url" : "http://original.testbed.localhost/i.ytimg.com/vi/Lra44ZeUFe8/hqdefault.jpg%3Fcustom=true&w=196&h=110&stc=true&jpg444=true&jpgq=90&sp=68&sigh=N07h4hn7iAAnmNXdGfqbhpqEoDw"
      }
   ],
   "deps" : [
      {
         "time" : -1,
         "id" : "dep1",
         "a2" : "r1_c2",
         "a1" : "comp_7"
      },
      {
         "time" : -1,
         "a1" : "comp_155",
         "id" : "dep2",
         "a2" : "r1_c3"
      },
      {
         "id" : "dep3",
         "a2" : "download_52",
         "a1" : "r1_c2",
         "time" : -1
      },
      {
         "a2" : "download_51",
         "id" : "dep4",
         "a1" : "r1_c2",
         "time" : 604.524999998829
      },
      {
         "time" : 602.552000000289,
         "a1" : "r1_c2",
         "a2" : "download_50",
         "id" : "dep5"
      },
      {
         "a1" : "r1_c3",
         "a2" : "download_49",
         "id" : "dep6",
         "time" : -1
      },
      {
         "id" : "dep7",
         "a2" : "download_48",
         "a1" : "r1_c3",
         "time" : 375.1400000001
      },
      {
         "a2" : "download_47",
         "id" : "dep8",
         "a1" : "r1_c3",
         "time" : 345.93799999857
      },
      {
         "time" : 178.33599999722,
         "a2" : "download_46",
         "id" : "dep9",
         "a1" : "r1_c3"
      },
      {
         "a1" : "r1_c3",
         "id" : "dep10",
         "a2" : "download_45",
         "time" : 177.24599999929
      },
      {
         "time" : 175.8869999976,
         "a1" : "r1_c3",
         "a2" : "download_44",
         "id" : "dep11"
      },
      {
         "time" : 174.91899999732,
         "a1" : "r1_c3",
         "id" : "dep12",
         "a2" : "download_43"
      },
      {
         "a1" : "r1_c3",
         "id" : "dep13",
         "a2" : "download_42",
         "time" : 173.35099999764
      },
      {
         "time" : 143.31200000015,
         "a2" : "download_41",
         "id" : "dep14",
         "a1" : "r1_c3"
      },
      {
         "time" : -1,
         "a2" : "download_40",
         "id" : "dep15",
         "a1" : "r1_c2"
      },
      {
         "a1" : "r1_c2",
         "id" : "dep16",
         "a2" : "download_39",
         "time" : 1210.46700000079
      },
      {
         "time" : 1209.62399999917,
         "a1" : "r1_c2",
         "a2" : "download_38",
         "id" : "dep17"
      },
      {
         "a1" : "r1_c2",
         "a2" : "download_37",
         "id" : "dep18",
         "time" : 1208.71500000067
      },
      {
         "time" : 1178.86100000033,
         "a1" : "r1_c2",
         "a2" : "download_36",
         "id" : "dep19"
      },
      {
         "time" : 1011.07899999988,
         "a2" : "download_35",
         "id" : "dep20",
         "a1" : "r1_c2"
      },
      {
         "a2" : "download_34",
         "id" : "dep21",
         "a1" : "r1_c2",
         "time" : 1009.18300000194
      },
      {
         "id" : "dep22",
         "a2" : "download_33",
         "a1" : "r1_c2",
         "time" : 809.690999998569
      },
      {
         "time" : 807.416999999989,
         "id" : "dep23",
         "a2" : "download_32",
         "a1" : "r1_c2"
      },
      {
         "time" : 805.694999999109,
         "a2" : "download_31",
         "id" : "dep24",
         "a1" : "r1_c2"
      },
      {
         "a2" : "download_30",
         "id" : "dep25",
         "a1" : "r1_c2",
         "time" : 804.364999999959
      },
      {
         "a2" : "download_29",
         "id" : "dep26",
         "a1" : "r1_c2",
         "time" : 803.458999998839
      },
      {
         "a2" : "download_28",
         "id" : "dep27",
         "a1" : "r1_c2",
         "time" : 757.751000001009
      },
      {
         "time" : 757.751000001009,
         "a1" : "r1_c2",
         "id" : "dep28",
         "a2" : "download_28"
      },
      {
         "time" : 773.924000000989,
         "a1" : "r1_c2",
         "a2" : "download_27",
         "id" : "dep29"
      },
      {
         "time" : 608.404999999039,
         "a1" : "r1_c2",
         "a2" : "download_26",
         "id" : "dep30"
      },
      {
         "time" : 757.176999999499,
         "a1" : "r1_c2",
         "id" : "dep31",
         "a2" : "download_25"
      },
      {
         "time" : 616.445999999999,
         "a1" : "r1_c2",
         "id" : "dep32",
         "a2" : "download_24"
      },
      {
         "a2" : "download_23",
         "id" : "dep33",
         "a1" : "r1_c2",
         "time" : 616.255000000819
      },
      {
         "id" : "dep34",
         "a2" : "download_22",
         "a1" : "r1_c2",
         "time" : 600.662000000739
      },
      {
         "time" : 402.136000000609,
         "a1" : "r1_c2",
         "id" : "dep35",
         "a2" : "download_21"
      },
      {
         "time" : 400.754999998753,
         "a1" : "r1_c2",
         "id" : "dep36",
         "a2" : "download_20"
      },
      {
         "id" : "dep37",
         "a2" : "download_19",
         "a1" : "r1_c2",
         "time" : 398.956000000907
      },
      {
         "id" : "dep38",
         "a2" : "download_18",
         "a1" : "r1_c2",
         "time" : 572.361999998979
      },
      {
         "time" : 370.285000000876,
         "a1" : "r1_c2",
         "a2" : "download_17",
         "id" : "dep39"
      },
      {
         "time" : 198.627000001579,
         "a2" : "download_16",
         "id" : "dep40",
         "a1" : "r1_c2"
      },
      {
         "time" : 1.99799999973004,
         "a2" : "download_15",
         "id" : "dep41",
         "a1" : "r1_c2"
      },
      {
         "id" : "dep42",
         "a2" : "download_14",
         "a1" : "r1_c2",
         "time" : 1.82700000004803
      },
      {
         "id" : "dep43",
         "a2" : "download_13",
         "a1" : "r1_c2",
         "time" : 1.68499999927002
      },
      {
         "time" : 1.575000002048,
         "a2" : "download_12",
         "id" : "dep44",
         "a1" : "r1_c2"
      },
      {
         "time" : 1.090000001568,
         "a1" : "r1_c2",
         "a2" : "download_11",
         "id" : "dep45"
      },
      {
         "id" : "dep46",
         "a2" : "download_10",
         "a1" : "r1_c2",
         "time" : 0.941000002058047
      },
      {
         "time" : 0.746000001527023,
         "a1" : "r1_c2",
         "id" : "dep47",
         "a2" : "download_9"
      },
      {
         "id" : "dep48",
         "a2" : "download_8",
         "a1" : "r1_c2",
         "time" : 0.582000000576045
      },
      {
         "a1" : "r1_c2",
         "id" : "dep49",
         "a2" : "download_7",
         "time" : 0.391000001400016
      },
      {
         "a2" : "download_6",
         "id" : "dep50",
         "a1" : "r1_c1",
         "time" : -1
      },
      {
         "a1" : "r1_c1",
         "id" : "dep51",
         "a2" : "download_6",
         "time" : 11.144000000059
      },
      {
         "time" : -1,
         "a1" : "r1_c1",
         "id" : "dep52",
         "a2" : "download_5"
      },
      {
         "time" : 11.351999997715,
         "a2" : "download_5",
         "id" : "dep53",
         "a1" : "r1_c1"
      },
      {
         "time" : -1,
         "id" : "dep54",
         "a2" : "download_4",
         "a1" : "r1_c1"
      },
      {
         "time" : 11.545999997907,
         "a2" : "download_4",
         "id" : "dep55",
         "a1" : "r1_c1"
      },
      {
         "id" : "dep56",
         "a2" : "download_3",
         "a1" : "r1_c1",
         "time" : -1
      },
      {
         "time" : 11.916999999813,
         "id" : "dep57",
         "a2" : "download_3",
         "a1" : "r1_c1"
      },
      {
         "time" : 11.750999998185,
         "id" : "dep58",
         "a2" : "download_2",
         "a1" : "r1_c1"
      },
      {
         "id" : "dep59",
         "a2" : "download_2",
         "a1" : "r1_c1",
         "time" : 11.750999998185
      },
      {
         "time" : 10.948999999528,
         "a2" : "download_1",
         "id" : "dep60",
         "a1" : "r1_c1"
      }
   ]
}
