{
   "deps" : [
      {
         "id" : "dep1",
         "a1" : "r1_c1",
         "a2" : "download_5",
         "time" : 1.64299999960301
      },
      {
         "time" : 1.16700000217,
         "a2" : "download_4",
         "a1" : "r1_c1",
         "id" : "dep2"
      },
      {
         "id" : "dep3",
         "a1" : "r1_c1",
         "time" : 1.42200000118501,
         "a2" : "download_3"
      },
      {
         "time" : 0.895000001037005,
         "a2" : "download_2",
         "a1" : "r1_c1",
         "id" : "dep4"
      },
      {
         "a2" : "download_1",
         "time" : 0.576999998883991,
         "a1" : "r1_c1",
         "id" : "dep5"
      }
   ],
   "objs" : [
      {
         "url" : "http://original.testbed.localhost/www.deseretnews.com/",
         "id" : "r1",
         "comps" : [
            {
               "s_time" : 217.41099999781,
               "time" : 1.703000001726,
               "id" : "r1_c1",
               "type" : "evalhtml",
               "e_time" : 219.113999999536
            }
         ],
         "when_comp_start" : 1,
         "download" : {
            "sendEnd" : 0,
            "receiveFirst" : 202,
            "dnsEnd" : -1,
            "type" : "text/html",
            "dnsStart" : -1,
            "receivedTime" : "203.915999998571",
            "id" : "download_0",
            "connectEnd" : 0,
            "receiveLast" : 1.91599999857135,
            "len" : 1929,
            "s_time" : 0,
            "receiveHeadersEnd" : 202,
            "connectStart" : 0,
            "sendStart" : 0,
            "sslEnd" : -1,
            "sslStart" : -1,
            "dns" : 0
         }
      },
      {
         "when_comp_start" : -1,
         "download" : {
            "dnsEnd" : -1,
            "sendEnd" : 2,
            "receiveFirst" : 201,
            "type" : "image/gif",
            "dnsStart" : -1,
            "id" : "download_1",
            "receivedTime" : "421.890999998141",
            "connectEnd" : 2,
            "receiveLast" : 218.890999998141,
            "len" : 148,
            "s_time" : 217.987999996694,
            "receiveHeadersEnd" : 203,
            "connectStart" : 0,
            "sslEnd" : -1,
            "sendStart" : 2,
            "sslStart" : -1,
            "dns" : 0
         },
         "comps" : [],
         "id" : "r2",
         "url" : "http://original.testbed.localhost/icons/blank.gif"
      },
      {
         "id" : "r3",
         "url" : "http://original.testbed.localhost/icons/back.gif",
         "when_comp_start" : -1,
         "download" : {
            "type" : "image/gif",
            "dnsEnd" : -1,
            "sendEnd" : 2,
            "receiveFirst" : 201,
            "connectEnd" : 2,
            "receivedTime" : "422.458999997616",
            "id" : "download_2",
            "dnsStart" : -1,
            "connectStart" : 0,
            "receiveHeadersEnd" : 203,
            "s_time" : 218.305999998847,
            "len" : 216,
            "receiveLast" : 219.458999997616,
            "dns" : 0,
            "sslStart" : -1,
            "sslEnd" : -1,
            "sendStart" : 2
         },
         "comps" : []
      },
      {
         "id" : "r5",
         "url" : "http://original.testbed.localhost/icons/text.gif",
         "download" : {
            "id" : "download_3",
            "receivedTime" : "622.518999996828",
            "connectEnd" : 201,
            "dnsStart" : 1,
            "dnsEnd" : 1,
            "receiveFirst" : 201,
            "sendEnd" : 201,
            "type" : "image/gif",
            "dns" : 0,
            "sendStart" : 201,
            "sslEnd" : -1,
            "sslStart" : -1,
            "receiveHeadersEnd" : 402,
            "connectStart" : 0,
            "receiveLast" : 220.518999996828,
            "len" : 229,
            "s_time" : 218.832999998995
         },
         "when_comp_start" : -1,
         "comps" : []
      },
      {
         "id" : "r4",
         "url" : "http://original.testbed.localhost/icons/folder.gif",
         "when_comp_start" : -1,
         "download" : {
            "dnsStart" : 1,
            "receivedTime" : "623.617999997805",
            "id" : "download_4",
            "connectEnd" : 201,
            "receiveFirst" : 202,
            "sendEnd" : 201,
            "dnsEnd" : 1,
            "type" : "image/gif",
            "sendStart" : 201,
            "sslEnd" : -1,
            "sslStart" : -1,
            "dns" : 0,
            "receiveLast" : 220.617999997805,
            "s_time" : 218.57799999998,
            "len" : 225,
            "receiveHeadersEnd" : 403,
            "connectStart" : 0
         },
         "comps" : []
      },
      {
         "comps" : [],
         "download" : {
            "dns" : 0,
            "sslEnd" : -1,
            "sendStart" : 201,
            "sslStart" : -1,
            "receiveHeadersEnd" : 403,
            "connectStart" : 0,
            "receiveLast" : 220.81799999639,
            "s_time" : 219.053999997413,
            "len" : 245,
            "receivedTime" : "623.81799999639",
            "id" : "download_5",
            "connectEnd" : 201,
            "dnsStart" : 1,
            "dnsEnd" : 1,
            "receiveFirst" : 202,
            "sendEnd" : 201,
            "type" : "image/gif"
         },
         "when_comp_start" : -1,
         "url" : "http://original.testbed.localhost/icons/unknown.gif",
         "id" : "r6"
      }
   ],
   "n_download_no_trigger" : 1,
   "name" : "original.testbed.localhost_www.deseretnews.com_",
   "load_activity" : -1,
   "start_activity" : "download_0"
}
