{
   "n_download_no_trigger" : 1,
   "start_activity" : "download_0",
   "deps" : [
      {
         "time" : -1,
         "a2" : "r1_c2",
         "id" : "dep1",
         "a1" : "comp_101"
      },
      {
         "time" : -1,
         "id" : "dep2",
         "a1" : "comp_108",
         "a2" : "r1_c3"
      },
      {
         "a2" : "r1_c4",
         "id" : "dep3",
         "a1" : "comp_111",
         "time" : -1
      },
      {
         "time" : -1,
         "a2" : "r1_c5",
         "a1" : "comp_114",
         "id" : "dep4"
      },
      {
         "a2" : "comp_108",
         "a1" : "comp_101",
         "id" : "dep5",
         "time" : -1
      },
      {
         "time" : -1,
         "a1" : "comp_108",
         "id" : "dep6",
         "a2" : "comp_111"
      },
      {
         "a1" : "comp_111",
         "id" : "dep7",
         "a2" : "comp_114",
         "time" : -1
      },
      {
         "time" : -1,
         "a2" : "download_60",
         "id" : "dep8",
         "a1" : "r1_c5"
      },
      {
         "time" : 647.46300000116,
         "a2" : "download_59",
         "id" : "dep9",
         "a1" : "r1_c5"
      },
      {
         "time" : 469.76600000199,
         "a1" : "r1_c5",
         "id" : "dep10",
         "a2" : "download_58"
      },
      {
         "id" : "dep11",
         "a1" : "r1_c5",
         "a2" : "download_57",
         "time" : 468.4400000042
      },
      {
         "time" : 459.30500000395,
         "a1" : "r1_c5",
         "id" : "dep12",
         "a2" : "download_56"
      },
      {
         "a1" : "r1_c5",
         "id" : "dep13",
         "a2" : "download_55",
         "time" : 458.06100000482
      },
      {
         "time" : 456.94000000367,
         "id" : "dep14",
         "a1" : "r1_c5",
         "a2" : "download_54"
      },
      {
         "time" : 445.22600000346,
         "a2" : "download_53",
         "a1" : "r1_c5",
         "id" : "dep15"
      },
      {
         "time" : 267.76700000483,
         "id" : "dep16",
         "a1" : "r1_c5",
         "a2" : "download_52"
      },
      {
         "time" : 266.66300000216,
         "a2" : "download_51",
         "a1" : "r1_c5",
         "id" : "dep17"
      },
      {
         "a1" : "r1_c5",
         "id" : "dep18",
         "a2" : "download_50",
         "time" : 257.94500000484
      },
      {
         "a2" : "download_49",
         "id" : "dep19",
         "a1" : "r1_c5",
         "time" : 256.85000000522
      },
      {
         "a2" : "download_48",
         "a1" : "r1_c5",
         "id" : "dep20",
         "time" : 255.44100000116
      },
      {
         "time" : 66.17700000061,
         "id" : "dep21",
         "a1" : "r1_c5",
         "a2" : "download_47"
      },
      {
         "a1" : "r1_c5",
         "id" : "dep22",
         "a2" : "download_46",
         "time" : 65.19100000151
      },
      {
         "time" : 55.7929999995401,
         "id" : "dep23",
         "a1" : "r1_c5",
         "a2" : "download_45"
      },
      {
         "time" : 55.2590000006601,
         "a2" : "download_44",
         "a1" : "r1_c5",
         "id" : "dep24"
      },
      {
         "a2" : "download_43",
         "a1" : "r1_c5",
         "id" : "dep25",
         "time" : 53.8520000045601
      },
      {
         "id" : "dep26",
         "a1" : "r1_c5",
         "a2" : "download_42",
         "time" : 42.51800000202
      },
      {
         "a1" : "r1_c1",
         "id" : "dep27",
         "a2" : "download_41",
         "time" : -1
      },
      {
         "time" : 1484.06299999624,
         "a1" : "r1_c1",
         "id" : "dep28",
         "a2" : "download_40"
      },
      {
         "time" : 1483.61799999839,
         "a2" : "download_39",
         "id" : "dep29",
         "a1" : "r1_c1"
      },
      {
         "a2" : "download_38",
         "id" : "dep30",
         "a1" : "r1_c1",
         "time" : 1481.82000000088
      },
      {
         "time" : 17.4460000053,
         "a2" : "download_37",
         "id" : "dep31",
         "a1" : "r1_c5"
      },
      {
         "time" : 1470.53500000038,
         "id" : "dep32",
         "a1" : "r1_c1",
         "a2" : "download_36"
      },
      {
         "time" : 22.8819999974799,
         "id" : "dep33",
         "a1" : "comp_77",
         "a2" : "download_35"
      },
      {
         "time" : 12.3989999992798,
         "id" : "dep34",
         "a1" : "comp_77",
         "a2" : "download_34"
      },
      {
         "time" : 12.1419999995899,
         "a2" : "download_33",
         "a1" : "comp_77",
         "id" : "dep35"
      },
      {
         "id" : "dep36",
         "a1" : "comp_77",
         "a2" : "download_32",
         "time" : 11.0199999980998
      },
      {
         "time" : 199.24799999717,
         "a1" : "r51_c1",
         "id" : "dep37",
         "a2" : "download_31"
      },
      {
         "time" : 1090.02099999634,
         "a1" : "r1_c1",
         "id" : "dep38",
         "a2" : "download_31"
      },
      {
         "time" : 877.085000000079,
         "id" : "dep39",
         "a1" : "r1_c1",
         "a2" : "download_30"
      },
      {
         "id" : "dep40",
         "a1" : "r1_c1",
         "a2" : "download_29",
         "time" : 857.263999998399
      },
      {
         "time" : 679.651999998896,
         "a2" : "download_28",
         "id" : "dep41",
         "a1" : "r1_c1"
      },
      {
         "a2" : "download_27",
         "a1" : "r1_c1",
         "id" : "dep42",
         "time" : 678.702999997768
      },
      {
         "time" : 677.910999998858,
         "a2" : "download_26",
         "a1" : "r1_c1",
         "id" : "dep43"
      },
      {
         "a1" : "r1_c1",
         "id" : "dep44",
         "a2" : "download_25",
         "time" : 672.002999999677
      },
      {
         "a1" : "r1_c1",
         "id" : "dep45",
         "a2" : "download_24",
         "time" : 474.825999997847
      },
      {
         "a2" : "download_23",
         "id" : "dep46",
         "a1" : "r1_c1",
         "time" : 473.935000001802
      },
      {
         "time" : 3.88699999893993,
         "id" : "dep47",
         "a1" : "r51_c1",
         "a2" : "download_22"
      },
      {
         "time" : 894.659999998109,
         "a2" : "download_22",
         "a1" : "r1_c1",
         "id" : "dep48"
      },
      {
         "id" : "dep49",
         "a1" : "r1_c1",
         "a2" : "download_21",
         "time" : 473.610000000917
      },
      {
         "time" : 472.927000002528,
         "a2" : "download_20",
         "id" : "dep50",
         "a1" : "r1_c1"
      },
      {
         "time" : 509.97500000085,
         "id" : "dep51",
         "a1" : "r1_c1",
         "a2" : "download_19"
      },
      {
         "time" : 509.97500000085,
         "id" : "dep52",
         "a1" : "r1_c1",
         "a2" : "download_19"
      },
      {
         "time" : 509.778999999981,
         "a2" : "download_18",
         "id" : "dep53",
         "a1" : "r1_c1"
      },
      {
         "a2" : "download_18",
         "a1" : "r1_c1",
         "id" : "dep54",
         "time" : 509.778999999981
      },
      {
         "a2" : "download_17",
         "a1" : "r1_c1",
         "id" : "dep55",
         "time" : 509.586000000127
      },
      {
         "a2" : "download_17",
         "id" : "dep56",
         "a1" : "r1_c1",
         "time" : 509.586000000127
      },
      {
         "a2" : "download_16",
         "a1" : "r1_c1",
         "id" : "dep57",
         "time" : 509.132999999565
      },
      {
         "a2" : "download_15",
         "a1" : "r1_c1",
         "id" : "dep58",
         "time" : 509.429999998247
      },
      {
         "time" : 509.429999998247,
         "a2" : "download_15",
         "a1" : "r1_c1",
         "id" : "dep59"
      },
      {
         "time" : 504.625000001397,
         "a1" : "r1_c1",
         "id" : "dep60",
         "a2" : "download_14"
      },
      {
         "id" : "dep61",
         "a1" : "r1_c1",
         "a2" : "download_13",
         "time" : 503.802999999607
      },
      {
         "time" : 472.588999997242,
         "a1" : "r1_c1",
         "id" : "dep62",
         "a2" : "download_12"
      },
      {
         "a2" : "download_11",
         "id" : "dep63",
         "a1" : "r1_c1",
         "time" : 472.272999999405
      },
      {
         "time" : 472.025999995822,
         "a1" : "r1_c1",
         "id" : "dep64",
         "a2" : "download_10"
      },
      {
         "time" : 471.754999998666,
         "id" : "dep65",
         "a1" : "r1_c1",
         "a2" : "download_9"
      },
      {
         "a2" : "download_8",
         "a1" : "r1_c1",
         "id" : "dep66",
         "time" : 470.1120000027
      },
      {
         "time" : 455.419999998412,
         "a1" : "r1_c1",
         "id" : "dep67",
         "a2" : "download_7"
      },
      {
         "a2" : "download_6",
         "a1" : "r1_c1",
         "id" : "dep68",
         "time" : 9.719000001496
      },
      {
         "id" : "dep69",
         "a1" : "r1_c1",
         "a2" : "download_5",
         "time" : 9.926999999152
      },
      {
         "time" : 9.52500000130402,
         "a2" : "download_4",
         "id" : "dep70",
         "a1" : "r1_c1"
      },
      {
         "a2" : "download_3",
         "a1" : "r1_c1",
         "id" : "dep71",
         "time" : 10.247999998683
      },
      {
         "a1" : "r1_c1",
         "id" : "dep72",
         "a2" : "download_3",
         "time" : 10.247999998683
      },
      {
         "time" : 9.352000000945,
         "id" : "dep73",
         "a1" : "r1_c1",
         "a2" : "download_2"
      },
      {
         "time" : 9.14599999669002,
         "a2" : "download_1",
         "id" : "dep74",
         "a1" : "r1_c1"
      }
   ],
   "name" : "original.testbed.localhost_www.imdb.com_",
   "load_activity" : -1,
   "objs" : [
      {
         "id" : "r1",
         "url" : "http://original.testbed.localhost/www.imdb.com/",
         "download" : {
            "dns" : 0,
            "s_time" : 0,
            "id" : "download_0",
            "receiveHeadersEnd" : 205,
            "connectStart" : 0,
            "sendStart" : 0,
            "receivedTime" : "406.46199999901",
            "sslEnd" : -1,
            "type" : "text/html",
            "sslStart" : -1,
            "dnsEnd" : -1,
            "receiveFirst" : 205,
            "len" : 155804,
            "dnsStart" : -1,
            "sendEnd" : 0,
            "connectEnd" : 0,
            "receiveLast" : 201.46199999901
         },
         "comps" : [
            {
               "type" : "evalhtml",
               "id" : "r1_c1",
               "e_time" : 1712.79800000048,
               "s_time" : 218.937999998161,
               "time" : 1493.86000000232
            },
            {
               "s_time" : 1839.07199999521,
               "e_time" : -33918942.279,
               "id" : "r1_c2",
               "type" : "evalhtml",
               "time" : -33920781.351
            },
            {
               "type" : "evalhtml",
               "id" : "r1_c3",
               "e_time" : -33918942.279,
               "s_time" : 1840.86599999864,
               "time" : -33920783.145
            },
            {
               "s_time" : 1845.46799999953,
               "e_time" : -33918942.279,
               "id" : "r1_c4",
               "type" : "evalhtml",
               "time" : -33920787.747
            },
            {
               "type" : "evalhtml",
               "id" : "r1_c5",
               "e_time" : 2507.53499999701,
               "s_time" : 1848.74099999433,
               "time" : 658.79400000268
            }
         ],
         "when_comp_start" : 1
      },
      {
         "id" : "r3",
         "comps" : [
            {
               "time" : 29.771000001347,
               "id" : "comp_12",
               "type" : 4,
               "s_time" : 640.95599999564,
               "e_time" : 670.726999996987
            }
         ],
         "when_comp_start" : -1,
         "url" : "http://original.testbed.localhost/ia.media-imdb.com/images/G/01/imdb/css/collections/pagelayout-flat-903233829._CB298432192_.css",
         "download" : {
            "sendEnd" : 2,
            "connectEnd" : 2,
            "receiveLast" : 428.858999999182,
            "dnsStart" : -1,
            "receiveFirst" : 210,
            "len" : 144004,
            "type" : "text/css",
            "dnsEnd" : -1,
            "sslStart" : -1,
            "receivedTime" : "640.858999999182",
            "sslEnd" : -1,
            "sendStart" : 2,
            "connectStart" : 0,
            "dns" : 0,
            "s_time" : 228.083999994851,
            "id" : "download_1",
            "receiveHeadersEnd" : 212
         }
      },
      {
         "id" : "r4",
         "when_comp_start" : -1,
         "comps" : [
            {
               "id" : "comp_8",
               "type" : 4,
               "s_time" : 609.408999996958,
               "e_time" : 611.154999998689,
               "time" : 1.74600000173109
            }
         ],
         "download" : {
            "dnsEnd" : -1,
            "sslStart" : -1,
            "type" : "text/css",
            "receiveFirst" : 202,
            "len" : 10006,
            "dnsStart" : -1,
            "connectEnd" : 178,
            "sendEnd" : 178,
            "receiveLast" : 229.252999995078,
            "s_time" : 228.289999999106,
            "dns" : 0,
            "id" : "download_2",
            "receiveHeadersEnd" : 380,
            "sendStart" : 178,
            "connectStart" : 0,
            "receivedTime" : "609.252999995078",
            "sslEnd" : -1
         },
         "url" : "http://original.testbed.localhost/ia.media-imdb.com/images/G/01/imdb/css/site/consumer-navbar-mega-3796876714._CB298540748_.css"
      },
      {
         "download" : {
            "len" : 1340,
            "receiveFirst" : 201,
            "type" : "image/png",
            "sslStart" : -1,
            "dnsEnd" : 0,
            "sendEnd" : 201,
            "connectEnd" : 201,
            "receiveLast" : 231.689999995113,
            "dnsStart" : 0,
            "dns" : 0,
            "s_time" : 229.185999996844,
            "id" : "download_3",
            "receiveHeadersEnd" : 402,
            "receivedTime" : "633.689999995113",
            "sslEnd" : -1,
            "sendStart" : 201,
            "connectStart" : 0
         },
         "url" : "http://original.testbed.localhost/ia.media-imdb.com/images/G/01/imdb/images/navbar/imdbpro_logo_nb-720143162._CB306318304_.png",
         "when_comp_start" : -1,
         "comps" : [],
         "id" : "r8"
      },
      {
         "id" : "r5",
         "when_comp_start" : -1,
         "comps" : [
            {
               "e_time" : 634.588999993866,
               "s_time" : 634.004999999888,
               "type" : 4,
               "id" : "comp_9",
               "time" : 0.583999993977955
            }
         ],
         "download" : {
            "receivedTime" : "633.947999995144",
            "sslEnd" : -1,
            "sendStart" : 201,
            "connectStart" : 0,
            "dns" : 0,
            "s_time" : 228.462999999465,
            "id" : "download_4",
            "receiveHeadersEnd" : 403,
            "sendEnd" : 201,
            "connectEnd" : 201,
            "receiveLast" : 230.947999995144,
            "dnsStart" : 1,
            "len" : 3602,
            "receiveFirst" : 202,
            "type" : "text/css",
            "dnsEnd" : 1,
            "sslStart" : -1
         },
         "url" : "http://original.testbed.localhost/ia.media-imdb.com/images/G/01/imdb/css/collections/starbarwidget-2454701167._CB293329573_.css"
      },
      {
         "id" : "r7",
         "comps" : [
            {
               "time" : 0.797000000601997,
               "s_time" : 634.728999997606,
               "e_time" : 635.525999998208,
               "id" : "comp_10",
               "type" : 4
            }
         ],
         "when_comp_start" : -1,
         "url" : "http://original.testbed.localhost/ia.media-imdb.com/images/G/01/imdb/css/collections/recommendations-3988610918._CB289934424_.css",
         "download" : {
            "receiveLast" : 231.668999999121,
            "sendEnd" : 201,
            "connectEnd" : 201,
            "dnsStart" : 1,
            "receiveFirst" : 202,
            "len" : 7361,
            "type" : "text/css",
            "dnsEnd" : 1,
            "sslStart" : -1,
            "sslEnd" : -1,
            "receivedTime" : "634.668999999121",
            "sendStart" : 201,
            "connectStart" : 0,
            "receiveHeadersEnd" : 403,
            "id" : "download_5",
            "dns" : 0,
            "s_time" : 228.864999997313
         }
      },
      {
         "id" : "r6",
         "download" : {
            "dnsEnd" : 1,
            "sslStart" : -1,
            "type" : "text/css",
            "len" : 7470,
            "receiveFirst" : 202,
            "dnsStart" : 1,
            "connectEnd" : 201,
            "sendEnd" : 201,
            "receiveLast" : 232.625999995682,
            "s_time" : 228.656999999657,
            "dns" : 0,
            "receiveHeadersEnd" : 403,
            "id" : "download_6",
            "connectStart" : 0,
            "sendStart" : 201,
            "receivedTime" : "635.625999995682",
            "sslEnd" : -1
         },
         "url" : "http://original.testbed.localhost/ia.media-imdb.com/images/G/01/imdb/css/collections/watchlistButton-2508181169._CB288096406_.css",
         "when_comp_start" : -1,
         "comps" : [
            {
               "type" : 4,
               "id" : "comp_11",
               "s_time" : 635.684999993828,
               "e_time" : 636.473999998998,
               "time" : 0.78900000517001
            }
         ]
      },
      {
         "url" : "http://original.testbed.localhost/ia.media-imdb.com/images/G/01/imdb/images/navbar/navbar_sprite-580289297._V_.png",
         "download" : {
            "receivedTime" : "1076.11099999485",
            "sslEnd" : -1,
            "sendStart" : 0,
            "connectStart" : 0,
            "s_time" : 674.357999996573,
            "dns" : 0,
            "receiveHeadersEnd" : 201,
            "id" : "download_7",
            "connectEnd" : 0,
            "sendEnd" : 0,
            "receiveLast" : 875.110999994853,
            "dnsStart" : -1,
            "receiveFirst" : 201,
            "len" : 41408,
            "sslStart" : -1,
            "dnsEnd" : -1,
            "type" : "image/png"
         },
         "comps" : [],
         "when_comp_start" : -1,
         "id" : "r9"
      },
      {
         "comps" : [],
         "when_comp_start" : -1,
         "url" : "http://original.testbed.localhost/ia.media-imdb.com/images/G/01/imdb/images/navbar/imdbpro_logo_menu-2185879182._CB306318245_.png",
         "download" : {
            "receiveHeadersEnd" : 201,
            "id" : "download_8",
            "s_time" : 689.050000000861,
            "dns" : 0,
            "sslEnd" : -1,
            "receivedTime" : "891.049999998359",
            "sendStart" : 0,
            "connectStart" : 0,
            "len" : 1024,
            "receiveFirst" : 201,
            "dnsEnd" : -1,
            "sslStart" : -1,
            "type" : "image/png",
            "receiveLast" : 690.049999998359,
            "connectEnd" : 0,
            "sendEnd" : 0,
            "dnsStart" : -1
         },
         "id" : "r10"
      },
      {
         "download" : {
            "connectEnd" : 3,
            "sendEnd" : 3,
            "receiveLast" : 899.446000000986,
            "dnsStart" : -1,
            "len" : 24014,
            "receiveFirst" : 201,
            "sslStart" : -1,
            "dnsEnd" : -1,
            "type" : "image/jpeg",
            "receivedTime" : "1103.44600000099",
            "sslEnd" : -1,
            "connectStart" : 0,
            "sendStart" : 3,
            "s_time" : 690.692999996827,
            "dns" : 0,
            "receiveHeadersEnd" : 204,
            "id" : "download_9"
         },
         "url" : "http://original.testbed.localhost/ia.media-imdb.com/images/M/MV5BMTcyMDQ1OTE3MF5BMl5BanBnXkFtZTgwNjE3Nzk0ODE@._V1_SY298_CR4,0,201,298_AL_.jpg",
         "when_comp_start" : -1,
         "comps" : [],
         "id" : "r11"
      },
      {
         "when_comp_start" : -1,
         "comps" : [],
         "download" : {
            "sslEnd" : -1,
            "receivedTime" : "896.823999995831",
            "sendStart" : 3,
            "connectStart" : 0,
            "receiveHeadersEnd" : 205,
            "id" : "download_10",
            "dns" : 0,
            "s_time" : 690.963999993983,
            "receiveLast" : 691.823999995831,
            "sendEnd" : 3,
            "connectEnd" : 3,
            "dnsStart" : -1,
            "len" : 1872,
            "receiveFirst" : 202,
            "type" : "image/png",
            "dnsEnd" : -1,
            "sslStart" : -1
         },
         "url" : "http://original.testbed.localhost/ia.media-imdb.com/images/G/01/IMDb/icon/play-button._CB318667375_.png",
         "id" : "r12"
      },
      {
         "url" : "http://original.testbed.localhost/ia.media-imdb.com/images/G/01/IMDb/icon/play-button-hover._CB318667374_.png",
         "download" : {
            "receiveFirst" : 202,
            "len" : 1902,
            "type" : "image/png",
            "dnsEnd" : -1,
            "sslStart" : -1,
            "receiveLast" : 692.604999998293,
            "sendEnd" : 3,
            "connectEnd" : 3,
            "dnsStart" : -1,
            "id" : "download_11",
            "receiveHeadersEnd" : 205,
            "dns" : 0,
            "s_time" : 691.210999997566,
            "sslEnd" : -1,
            "receivedTime" : "897.604999998293",
            "connectStart" : 0,
            "sendStart" : 3
         },
         "comps" : [],
         "when_comp_start" : -1,
         "id" : "r13"
      },
      {
         "id" : "r14",
         "comps" : [],
         "when_comp_start" : -1,
         "url" : "http://original.testbed.localhost/ia.media-imdb.com/images/M/MV5BMTQ3NzYwNjIxOF5BMl5BanBnXkFtZTgwODU1NzE4ODE@._V1_SX201_CR0,0,201,298_AL_.jpg",
         "download" : {
            "receiveHeadersEnd" : 206,
            "id" : "download_12",
            "dns" : 0,
            "s_time" : 691.526999995403,
            "sslEnd" : -1,
            "receivedTime" : "898.568999997224",
            "connectStart" : 0,
            "sendStart" : 3,
            "len" : 11615,
            "receiveFirst" : 203,
            "type" : "image/jpeg",
            "dnsEnd" : -1,
            "sslStart" : -1,
            "receiveLast" : 692.568999997224,
            "sendEnd" : 3,
            "connectEnd" : 3,
            "dnsStart" : -1
         }
      },
      {
         "id" : "r51",
         "comps" : [
            {
               "time" : 422.90099999809,
               "s_time" : 1109.71099999733,
               "e_time" : 1532.61199999542,
               "id" : "r51_c1",
               "type" : "evalhtml"
            }
         ],
         "when_comp_start" : 1,
         "url" : "http://original.testbed.localhost/ia.media-imdb.com/images/G/01/imdb/html/twitter-3626940295._CB298540565_.html%3Fconfig=%257B%2522width%2522%253A%2522300px%2522%252C%2522height%2522%253A%2522500px%2522%252C%2522href%2522%253A%2522https%253A%252F%252Ftwitter.com%252FIMDb%2522%252C%2522heading%2522%2",
         "download" : {
            "id" : "download_13",
            "receiveHeadersEnd" : 370,
            "dns" : 0,
            "s_time" : 722.740999997768,
            "sslEnd" : -1,
            "receivedTime" : "1093.76199999679",
            "sendStart" : 168,
            "connectStart" : 0,
            "len" : 1996,
            "receiveFirst" : 202,
            "type" : "text/html",
            "sslStart" : -1,
            "dnsEnd" : -1,
            "receiveLast" : 723.761999996786,
            "sendEnd" : 168,
            "connectEnd" : 168,
            "dnsStart" : -1
         }
      },
      {
         "when_comp_start" : 1,
         "comps" : [
            {
               "s_time" : 1114.50199999672,
               "e_time" : 1116.6499999963,
               "id" : "r52_c1",
               "type" : "evalhtml",
               "time" : 2.14799999957995
            }
         ],
         "download" : {
            "s_time" : 723.562999999558,
            "dns" : 0,
            "id" : "download_14",
            "receiveHeadersEnd" : 375,
            "receivedTime" : "1103.78599999967",
            "sslEnd" : -1,
            "sendStart" : 173,
            "connectStart" : 0,
            "receiveFirst" : 202,
            "len" : 840,
            "sslStart" : -1,
            "dnsEnd" : -1,
            "type" : "text/html",
            "connectEnd" : 173,
            "sendEnd" : 173,
            "receiveLast" : 728.785999999673,
            "dnsStart" : -1
         },
         "url" : "http://original.testbed.localhost/ia.media-imdb.com/images/G/01/imdb/html/facebook-869486875._CB313935095_.html",
         "id" : "r52"
      },
      {
         "url" : "http://original.testbed.localhost/ia.media-imdb.com/images/G/01/imdb/js/collections/pagelayout-1236922041._CB274690342_.js",
         "download" : {
            "s_time" : 728.367999996408,
            "dns" : 0,
            "receiveHeadersEnd" : 376,
            "id" : "download_15",
            "receivedTime" : "1114.30799999653",
            "sslEnd" : -1,
            "sendStart" : 170,
            "connectStart" : 0,
            "receiveFirst" : 206,
            "len" : 88198,
            "dnsEnd" : -1,
            "sslStart" : -1,
            "type" : "application/javascript",
            "connectEnd" : 170,
            "sendEnd" : 170,
            "receiveLast" : 738.307999996527,
            "dnsStart" : -1
         },
         "comps" : [
            {
               "type" : 1,
               "id" : "comp_101",
               "s_time" : 1808.52699999377,
               "e_time" : 1839.07199999521,
               "time" : 30.54500000144
            }
         ],
         "when_comp_start" : -1,
         "id" : "r55"
      },
      {
         "id" : "r54",
         "when_comp_start" : -1,
         "comps" : [
            {
               "time" : 89.8870000019099,
               "id" : "comp_99",
               "type" : null,
               "e_time" : 1808.4600000002,
               "s_time" : 1718.57299999829
            }
         ],
         "download" : {
            "dnsStart" : -1,
            "sendEnd" : 170,
            "connectEnd" : 170,
            "receiveLast" : 1336.46299999743,
            "type" : "application/javascript",
            "dnsEnd" : -1,
            "sslStart" : -1,
            "len" : 366484,
            "receiveFirst" : 212,
            "sendStart" : 170,
            "connectStart" : 0,
            "receivedTime" : "1718.46299999743",
            "sslEnd" : -1,
            "dns" : 0,
            "s_time" : 728.070999997726,
            "id" : "download_16",
            "receiveHeadersEnd" : 382
         },
         "url" : "http://original.testbed.localhost/ia.media-imdb.com/images/G/01/imdb/js/collections/common-1944661907._CB274936654_.js"
      },
      {
         "download" : {
            "dnsStart" : -1,
            "receiveLast" : 729.647999999521,
            "connectEnd" : 347,
            "sendEnd" : 348,
            "dnsEnd" : -1,
            "sslStart" : -1,
            "type" : "application/javascript",
            "len" : 5726,
            "receiveFirst" : 201,
            "sendStart" : 347,
            "connectStart" : 0,
            "sslEnd" : -1,
            "receivedTime" : "1278.64799999952",
            "receiveHeadersEnd" : 549,
            "id" : "download_17",
            "s_time" : 728.523999998288,
            "dns" : 0
         },
         "url" : "http://original.testbed.localhost/ia.media-imdb.com/images/G/01/imdb/js/collections/starbarwidget-335260898._CB289148898_.js",
         "when_comp_start" : -1,
         "comps" : [
            {
               "time" : 1.72800000290999,
               "e_time" : 1840.86599999864,
               "s_time" : 1839.13799999573,
               "id" : "comp_108",
               "type" : 1
            }
         ],
         "id" : "r56"
      },
      {
         "id" : "r57",
         "comps" : [
            {
               "type" : 1,
               "id" : "comp_111",
               "s_time" : 1840.90099999594,
               "e_time" : 1845.46799999953,
               "time" : 4.56700000359001
            }
         ],
         "when_comp_start" : -1,
         "url" : "http://original.testbed.localhost/ia.media-imdb.com/images/G/01/imdb/js/collections/watchlistButton-194820129._CB286493173_.js",
         "download" : {
            "receivedTime" : "1296.99099999561",
            "sslEnd" : -1,
            "sendStart" : 364,
            "connectStart" : 0,
            "dns" : 0,
            "s_time" : 728.716999998142,
            "id" : "download_18",
            "receiveHeadersEnd" : 567,
            "sendEnd" : 364,
            "connectEnd" : 364,
            "receiveLast" : 729.990999995614,
            "dnsStart" : -1,
            "receiveFirst" : 203,
            "len" : 23976,
            "type" : "application/javascript",
            "dnsEnd" : -1,
            "sslStart" : -1
         }
      },
      {
         "when_comp_start" : -1,
         "comps" : [
            {
               "s_time" : 1845.50299999682,
               "e_time" : 1848.74099999433,
               "id" : "comp_114",
               "type" : 1,
               "time" : 3.23799999750986
            }
         ],
         "download" : {
            "dnsEnd" : -1,
            "sslStart" : -1,
            "type" : "application/javascript",
            "len" : 18979,
            "receiveFirst" : 201,
            "dnsStart" : -1,
            "receiveLast" : 730.513999994611,
            "connectEnd" : 367,
            "sendEnd" : 367,
            "receiveHeadersEnd" : 568,
            "id" : "download_19",
            "s_time" : 728.912999999011,
            "dns" : 0,
            "sendStart" : 367,
            "connectStart" : 0,
            "sslEnd" : -1,
            "receivedTime" : "1298.51399999461"
         },
         "url" : "http://original.testbed.localhost/ia.media-imdb.com/images/G/01/imdb/js/collections/recommendations-2126106747._CB289323193_.js",
         "id" : "r58"
      },
      {
         "id" : "r15",
         "comps" : [],
         "when_comp_start" : -1,
         "url" : "http://original.testbed.localhost/ia.media-imdb.com/images/M/MV5BMjA1MTA4MzU4Ml5BMl5BanBnXkFtZTgwNjUxNjczODE@._V1_SY298_CR0,0,201,298_AL_.jpg",
         "download" : {
            "sslEnd" : -1,
            "receivedTime" : "1545.11899999488",
            "sendStart" : 407,
            "connectStart" : 0,
            "id" : "download_20",
            "receiveHeadersEnd" : 607,
            "dns" : 0,
            "s_time" : 691.865000000689,
            "receiveLast" : 938.118999994884,
            "sendEnd" : 407,
            "connectEnd" : 407,
            "dnsStart" : -1,
            "len" : 15771,
            "receiveFirst" : 200,
            "type" : "image/jpeg",
            "dnsEnd" : -1,
            "sslStart" : -1
         }
      },
      {
         "id" : "r16",
         "when_comp_start" : -1,
         "comps" : [],
         "download" : {
            "receiveFirst" : 200,
            "len" : 12603,
            "dnsEnd" : -1,
            "sslStart" : -1,
            "type" : "image/jpeg",
            "receiveLast" : 693.869000000414,
            "connectEnd" : 415,
            "sendEnd" : 415,
            "dnsStart" : -1,
            "receiveHeadersEnd" : 615,
            "id" : "download_21",
            "s_time" : 692.547999999078,
            "dns" : 0,
            "sslEnd" : -1,
            "receivedTime" : "1308.86900000041",
            "sendStart" : 415,
            "connectStart" : 0
         },
         "url" : "http://original.testbed.localhost/ia.media-imdb.com/images/M/MV5BZjgzZTFkMmQtM2JjZS00MmIyLWFmNWItZmNiODBiNTFhNzlhXkEyXkFqcGdeQXVyNjUwNzk3NDc@._UY460_CR190,0,614,460_SY230_SX307_AL_.jpg"
      },
      {
         "id" : "r59",
         "when_comp_start" : -1,
         "comps" : [
            {
               "s_time" : 1487.96199999924,
               "e_time" : 1532.56200000033,
               "type" : null,
               "id" : "comp_77",
               "time" : 44.6000000010899
            }
         ],
         "download" : {
            "dnsStart" : -1,
            "sendEnd" : 165,
            "connectEnd" : 165,
            "receiveLast" : 1115.83600000024,
            "type" : "application/javascript",
            "dnsEnd" : -1,
            "sslStart" : -1,
            "receiveFirst" : 207,
            "len" : 95204,
            "connectStart" : 0,
            "sendStart" : 165,
            "receivedTime" : "1487.83600000024",
            "sslEnd" : -1,
            "dns" : 0,
            "s_time" : 1113.59799999627,
            "receiveHeadersEnd" : 372,
            "id" : "download_22"
         },
         "url" : "http://original.testbed.localhost/platform.twitter.com/widgets.js"
      },
      {
         "id" : "r17",
         "url" : "http://original.testbed.localhost/ia.media-imdb.com/images/M/MV5BMTA0OTQwMDc1NTReQTJeQWpwZ15BbWU3MDg4MzA5NzI@._UX614_CR0,84,614,460_SY230_SX307_AL_.jpg",
         "download" : {
            "sendStart" : 604,
            "connectStart" : 0,
            "receivedTime" : "1544.63099999703",
            "sslEnd" : -1,
            "s_time" : 692.872999999963,
            "dns" : 0,
            "receiveHeadersEnd" : 805,
            "id" : "download_23",
            "dnsStart" : -1,
            "connectEnd" : 604,
            "sendEnd" : 604,
            "receiveLast" : 739.630999997025,
            "dnsEnd" : -1,
            "sslStart" : -1,
            "type" : "image/jpeg",
            "receiveFirst" : 201,
            "len" : 14399
         },
         "comps" : [],
         "when_comp_start" : -1
      },
      {
         "when_comp_start" : -1,
         "comps" : [],
         "download" : {
            "dnsEnd" : -1,
            "sslStart" : -1,
            "type" : "image/jpeg",
            "len" : 9998,
            "receiveFirst" : 200,
            "dnsStart" : -1,
            "connectEnd" : 604,
            "sendEnd" : 605,
            "receiveLast" : 740.001999998931,
            "s_time" : 693.763999996008,
            "dns" : 0,
            "receiveHeadersEnd" : 805,
            "id" : "download_24",
            "connectStart" : 0,
            "sendStart" : 604,
            "receivedTime" : "1545.00199999893",
            "sslEnd" : -1
         },
         "url" : "http://original.testbed.localhost/ia.media-imdb.com/images/M/MV5BMjExMzQxNTMxMl5BMl5BanBnXkFtZTgwMDY1NzE4ODE@._UX1500_CR540,60,402,402_SY201_SX201_AL_.jpg",
         "id" : "r18"
      },
      {
         "id" : "r19",
         "when_comp_start" : -1,
         "comps" : [],
         "download" : {
            "s_time" : 890.940999997838,
            "dns" : 0,
            "receiveHeadersEnd" : 619,
            "id" : "download_25",
            "receivedTime" : "1545.5129999973",
            "sslEnd" : -1,
            "connectStart" : 0,
            "sendStart" : 418,
            "receiveFirst" : 201,
            "len" : 8485,
            "sslStart" : -1,
            "dnsEnd" : -1,
            "type" : "image/jpeg",
            "connectEnd" : 418,
            "sendEnd" : 418,
            "receiveLast" : 926.5129999973,
            "dnsStart" : -1
         },
         "url" : "http://original.testbed.localhost/ia.media-imdb.com/images/M/MV5BMTk3NTA2MjE0N15BMl5BanBnXkFtZTgwNzU1NzE4ODE@._UX500_CR70,60,402,402_SY201_SX201_AL_.jpg"
      },
      {
         "id" : "r20",
         "comps" : [],
         "when_comp_start" : -1,
         "url" : "http://original.testbed.localhost/ia.media-imdb.com/images/M/MV5BMTg5NzI0NTI0OF5BMl5BanBnXkFtZTgwNjU1NzE4ODE@._UY402_CR70,0,402,402_SY201_SX201_AL_.jpg",
         "download" : {
            "s_time" : 896.848999997019,
            "dns" : 0,
            "receiveHeadersEnd" : 791,
            "id" : "download_26",
            "sendStart" : 591,
            "connectStart" : 0,
            "receivedTime" : "1689.42299999617",
            "sslEnd" : -1,
            "dnsEnd" : -1,
            "sslStart" : -1,
            "type" : "image/jpeg",
            "receiveFirst" : 200,
            "len" : 9366,
            "dnsStart" : -1,
            "connectEnd" : 591,
            "sendEnd" : 591,
            "receiveLast" : 898.422999996168
         }
      },
      {
         "when_comp_start" : -1,
         "comps" : [],
         "download" : {
            "receivedTime" : "1700.77799999854",
            "sslEnd" : -1,
            "connectStart" : 0,
            "sendStart" : 601,
            "s_time" : 897.640999995929,
            "dns" : 0,
            "receiveHeadersEnd" : 802,
            "id" : "download_27",
            "connectEnd" : 601,
            "sendEnd" : 601,
            "receiveLast" : 898.777999998536,
            "dnsStart" : -1,
            "len" : 6963,
            "receiveFirst" : 201,
            "dnsEnd" : -1,
            "sslStart" : -1,
            "type" : "image/jpeg"
         },
         "url" : "http://original.testbed.localhost/ia.media-imdb.com/images/M/MV5BMjQ0MTgyNjAxMV5BMl5BanBnXkFtZTgwNjUzMDkyODE@._V1_SY150_CR0,0,101,150_AL_.jpg",
         "id" : "r21"
      },
      {
         "id" : "r22",
         "comps" : [],
         "when_comp_start" : -1,
         "url" : "http://original.testbed.localhost/ia.media-imdb.com/images/M/MV5BNzQxMzA3NzQzM15BMl5BanBnXkFtZTcwMTQxMDc3MQ@@._V1_SY150_CR2,0,101,150_AL_.jpg",
         "download" : {
            "receivedTime" : "1702.57799999672",
            "sslEnd" : -1,
            "connectStart" : 0,
            "sendStart" : 602,
            "dns" : 0,
            "s_time" : 898.589999997057,
            "id" : "download_28",
            "receiveHeadersEnd" : 803,
            "sendEnd" : 602,
            "connectEnd" : 602,
            "receiveLast" : 899.57799999672,
            "dnsStart" : -1,
            "len" : 4392,
            "receiveFirst" : 201,
            "type" : "image/jpeg",
            "sslStart" : -1,
            "dnsEnd" : -1
         }
      },
      {
         "comps" : [],
         "when_comp_start" : -1,
         "url" : "http://original.testbed.localhost/ia.media-imdb.com/images/M/MV5BOTMxMjEwNDk2NF5BMl5BanBnXkFtZTcwMDY1MjE2Mw@@._V1_SX101_AL_.jpg",
         "download" : {
            "s_time" : 1076.20199999656,
            "dns" : 0,
            "id" : "download_29",
            "receiveHeadersEnd" : 625,
            "receivedTime" : "1702.99299999897",
            "sslEnd" : -1,
            "sendStart" : 424,
            "connectStart" : 0,
            "receiveFirst" : 201,
            "len" : 4642,
            "dnsEnd" : -1,
            "sslStart" : -1,
            "type" : "image/jpeg",
            "connectEnd" : 424,
            "sendEnd" : 424,
            "receiveLast" : 1077.99299999897,
            "dnsStart" : -1
         },
         "id" : "r23"
      },
      {
         "when_comp_start" : -1,
         "comps" : [],
         "download" : {
            "s_time" : 1096.02299999824,
            "dns" : 0,
            "receiveHeadersEnd" : 615,
            "id" : "download_30",
            "receivedTime" : "1713.28899999935",
            "sslEnd" : -1,
            "sendStart" : 415,
            "connectStart" : 0,
            "receiveFirst" : 200,
            "len" : 12147,
            "dnsEnd" : -1,
            "sslStart" : -1,
            "type" : "image/jpeg",
            "connectEnd" : 415,
            "sendEnd" : 415,
            "receiveLast" : 1098.28899999935,
            "dnsStart" : -1
         },
         "url" : "http://original.testbed.localhost/ia.media-imdb.com/images/M/MV5BMjIwMjUyODExOV5BMl5BanBnXkFtZTgwMjE0NDM4ODE@._UX402_CR0,150,402,402_SY201_SX201_AL_.jpg",
         "id" : "r24"
      },
      {
         "id" : "r25",
         "comps" : [],
         "when_comp_start" : -1,
         "url" : "http://original.testbed.localhost/ia.media-imdb.com/images/M/MV5BOTk1MjQ2OTI5M15BMl5BanBnXkFtZTgwMzU3NDM4ODE@._V1_SY201_CR54,0,201,201_AL_.jpg",
         "download" : {
            "receivedTime" : "1900.3459999949",
            "sslEnd" : -1,
            "sendStart" : 380,
            "connectStart" : 0,
            "dns" : 0,
            "s_time" : 1308.9589999945,
            "receiveHeadersEnd" : 581,
            "id" : "download_31",
            "sendEnd" : 381,
            "connectEnd" : 380,
            "receiveLast" : 1319.3459999949,
            "dnsStart" : -1,
            "len" : 11577,
            "receiveFirst" : 200,
            "type" : "image/jpeg",
            "dnsEnd" : -1,
            "sslStart" : -1
         }
      },
      {
         "id" : "r26",
         "comps" : [],
         "when_comp_start" : -1,
         "url" : "http://original.testbed.localhost/ia.media-imdb.com/images/M/MV5BMTcyMjcxNTc3M15BMl5BanBnXkFtZTgwMTcxNTM4ODE@._UX404_CR2,10,402,402_SY201_SX201_AL_.jpg",
         "download" : {
            "type" : "image/jpeg",
            "dnsEnd" : -1,
            "sslStart" : -1,
            "len" : 10315,
            "receiveFirst" : 201,
            "dnsStart" : -1,
            "receiveLast" : 1501.04899999703,
            "sendEnd" : 202,
            "connectEnd" : 202,
            "receiveHeadersEnd" : 403,
            "id" : "download_32",
            "dns" : 0,
            "s_time" : 1498.98199999734,
            "sendStart" : 202,
            "connectStart" : 0,
            "sslEnd" : -1,
            "receivedTime" : "1904.04899999703"
         }
      },
      {
         "url" : "http://original.testbed.localhost/ia.media-imdb.com/images/M/MV5BMjI1ODUyMDg2Nl5BMl5BanBnXkFtZTgwNTcwNTU1NTE@._V1_SY172_CR28,0,116,172_AL_.jpg",
         "download" : {
            "connectEnd" : 203,
            "sendEnd" : 203,
            "receiveLast" : 1502.25199999684,
            "dnsStart" : -1,
            "len" : 5525,
            "receiveFirst" : 200,
            "sslStart" : -1,
            "dnsEnd" : -1,
            "type" : "image/jpeg",
            "receivedTime" : "1905.25199999684",
            "sslEnd" : -1,
            "sendStart" : 203,
            "connectStart" : 0,
            "s_time" : 1500.10399999883,
            "dns" : 0,
            "id" : "download_33",
            "receiveHeadersEnd" : 403
         },
         "comps" : [],
         "when_comp_start" : -1,
         "id" : "r27"
      },
      {
         "download" : {
            "sslEnd" : -1,
            "receivedTime" : "1910.74200000003",
            "connectStart" : 0,
            "sendStart" : 203,
            "receiveHeadersEnd" : 403,
            "id" : "download_34",
            "dns" : 0,
            "s_time" : 1500.36099999852,
            "receiveLast" : 1507.74200000003,
            "sendEnd" : 203,
            "connectEnd" : 203,
            "dnsStart" : -1,
            "len" : 4981,
            "receiveFirst" : 200,
            "type" : "image/jpeg",
            "dnsEnd" : -1,
            "sslStart" : -1
         },
         "url" : "http://original.testbed.localhost/ia.media-imdb.com/images/M/MV5BMTI4OTY5Nzg5NV5BMl5BanBnXkFtZTcwMzM0ODEyMw@@._V1_SY172_CR71,0,116,172_AL_.jpg",
         "when_comp_start" : -1,
         "comps" : [],
         "id" : "r28"
      },
      {
         "url" : "http://original.testbed.localhost/ia.media-imdb.com/images/M/MV5BNzU4MzE3NTc4M15BMl5BanBnXkFtZTgwNjcxODY3NzE@._V1_SY172_CR6,0,116,172_AL_.jpg",
         "download" : {
            "receiveLast" : 1513.34400000091,
            "connectEnd" : 202,
            "sendEnd" : 202,
            "dnsStart" : -1,
            "receiveFirst" : 200,
            "len" : 5793,
            "dnsEnd" : -1,
            "sslStart" : -1,
            "type" : "image/jpeg",
            "sslEnd" : -1,
            "receivedTime" : "1915.34400000091",
            "sendStart" : 202,
            "connectStart" : 0,
            "id" : "download_35",
            "receiveHeadersEnd" : 402,
            "s_time" : 1510.84399999672,
            "dns" : 0
         },
         "comps" : [],
         "when_comp_start" : -1,
         "id" : "r29"
      },
      {
         "download" : {
            "connectStart" : 0,
            "sendStart" : 24,
            "receivedTime" : "1917.16699999961",
            "sslEnd" : -1,
            "dns" : 0,
            "s_time" : 1689.47299999854,
            "id" : "download_36",
            "receiveHeadersEnd" : 225,
            "dnsStart" : -1,
            "sendEnd" : 24,
            "connectEnd" : 24,
            "receiveLast" : 1692.16699999961,
            "type" : "image/jpeg",
            "sslStart" : -1,
            "dnsEnd" : -1,
            "receiveFirst" : 201,
            "len" : 4480
         },
         "url" : "http://original.testbed.localhost/ia.media-imdb.com/images/M/MV5BNjg3OTc2MTA3NV5BMl5BanBnXkFtZTcwODc0MTU0NQ@@._V1_SY172_CR6,0,116,172_AL_.jpg",
         "when_comp_start" : -1,
         "comps" : [],
         "id" : "r30"
      },
      {
         "comps" : [],
         "when_comp_start" : 1,
         "url" : "http://original.testbed.localhost/widget/recommendations/recs",
         "download" : {
            "id" : "download_37",
            "receiveHeadersEnd" : 225,
            "dns" : 0,
            "s_time" : 1866.18699999963,
            "connectStart" : 0,
            "sendStart" : 25,
            "sslEnd" : -1,
            "receivedTime" : "2092.64499999699",
            "type" : "text/html",
            "dnsEnd" : -1,
            "sslStart" : -1,
            "receiveFirst" : 200,
            "len" : 316,
            "dnsStart" : -1,
            "receiveLast" : 1867.64499999699,
            "sendEnd" : 25,
            "connectEnd" : 25
         },
         "id" : "r63"
      },
      {
         "id" : "r31",
         "download" : {
            "dns" : 0,
            "s_time" : 1700.75799999904,
            "id" : "download_38",
            "receiveHeadersEnd" : 402,
            "receivedTime" : "2106.54199999408",
            "sslEnd" : -1,
            "connectStart" : 0,
            "sendStart" : 202,
            "receiveFirst" : 200,
            "len" : 4895,
            "type" : "image/jpeg",
            "dnsEnd" : -1,
            "sslStart" : -1,
            "sendEnd" : 202,
            "connectEnd" : 202,
            "receiveLast" : 1704.54199999408,
            "dnsStart" : -1
         },
         "url" : "http://original.testbed.localhost/ia.media-imdb.com/images/M/MV5BMTUyMjI1MDEyN15BMl5BanBnXkFtZTYwNzkwNjI2._V1_SY172_CR1,0,116,172_AL_.jpg",
         "when_comp_start" : -1,
         "comps" : []
      },
      {
         "id" : "r32",
         "when_comp_start" : -1,
         "comps" : [],
         "download" : {
            "sendEnd" : 201,
            "connectEnd" : 201,
            "receiveLast" : 1705.03300000023,
            "dnsStart" : -1,
            "len" : 12741,
            "receiveFirst" : 201,
            "type" : "image/jpeg",
            "sslStart" : -1,
            "dnsEnd" : -1,
            "receivedTime" : "2107.03300000023",
            "sslEnd" : -1,
            "connectStart" : 0,
            "sendStart" : 201,
            "dns" : 0,
            "s_time" : 1702.55599999655,
            "receiveHeadersEnd" : 402,
            "id" : "download_39"
         },
         "url" : "http://original.testbed.localhost/ia.media-imdb.com/images/M/MV5BMTc1ODQ0MTg5N15BMl5BanBnXkFtZTgwOTg1Mzg2ODE@._V1_SY230_CR52,0,307,230_AL_.jpg"
      },
      {
         "download" : {
            "dnsStart" : -1,
            "receiveLast" : 1705.73499999434,
            "connectEnd" : 201,
            "sendEnd" : 201,
            "dnsEnd" : -1,
            "sslStart" : -1,
            "type" : "image/jpeg",
            "len" : 10773,
            "receiveFirst" : 202,
            "connectStart" : 0,
            "sendStart" : 201,
            "sslEnd" : -1,
            "receivedTime" : "2108.73499999434",
            "id" : "download_40",
            "receiveHeadersEnd" : 403,
            "s_time" : 1703.0009999944,
            "dns" : 0
         },
         "url" : "http://original.testbed.localhost/ia.media-imdb.com/images/M/MV5BNjE4MjcyMDAxN15BMl5BanBnXkFtZTgwNzA2NTA1NDE@._V1_SX307_CR0,0,307,230_AL_.jpg",
         "when_comp_start" : -1,
         "comps" : [],
         "id" : "r33"
      },
      {
         "comps" : [],
         "when_comp_start" : -1,
         "url" : "http://original.testbed.localhost/ia.media-imdb.com/images/M/MV5BMjIzMDIwOTA1OF5BMl5BanBnXkFtZTcwMjk0NjM5NA@@._V1_SX201_CR0,0,201,201_AL_.jpg",
         "download" : {
            "receiveHeadersEnd" : 402,
            "id" : "download_41",
            "s_time" : 1712.79800000048,
            "dns" : 0,
            "sendStart" : 201,
            "connectStart" : 0,
            "sslEnd" : -1,
            "receivedTime" : "2115.47799999971",
            "dnsEnd" : -1,
            "sslStart" : -1,
            "type" : "image/jpeg",
            "len" : 9363,
            "receiveFirst" : 201,
            "dnsStart" : -1,
            "receiveLast" : 1713.47799999971,
            "connectEnd" : 201,
            "sendEnd" : 201
         },
         "id" : "r34"
      },
      {
         "download" : {
            "receiveHeadersEnd" : 224,
            "id" : "download_42",
            "dns" : 0,
            "s_time" : 1891.25899999635,
            "sslEnd" : -1,
            "receivedTime" : "2117.64799999946",
            "connectStart" : 0,
            "sendStart" : 23,
            "len" : 11107,
            "receiveFirst" : 201,
            "type" : "image/jpeg",
            "dnsEnd" : -1,
            "sslStart" : -1,
            "receiveLast" : 1893.64799999946,
            "sendEnd" : 23,
            "connectEnd" : 23,
            "dnsStart" : -1
         },
         "url" : "http://original.testbed.localhost/ia.media-imdb.com/images/M/MV5BMjA0ODIzMTcxN15BMl5BanBnXkFtZTgwNjU5MDE1MTE@._UY450_CR40,47,402,402_SY201_SX201_AL_.jpg",
         "when_comp_start" : -1,
         "comps" : [],
         "id" : "r35"
      },
      {
         "comps" : [],
         "when_comp_start" : -1,
         "url" : "http://original.testbed.localhost/ia.media-imdb.com/images/M/MV5BMjE0NjY4OTEwNl5BMl5BanBnXkFtZTgwMTE0OTIwMjE@._V1_SY201_CR55,0,201,201_AL_.jpg",
         "download" : {
            "type" : "image/jpeg",
            "dnsEnd" : -1,
            "sslStart" : -1,
            "len" : 11127,
            "receiveFirst" : 200,
            "dnsStart" : -1,
            "receiveLast" : 1904.09999999916,
            "sendEnd" : 190,
            "connectEnd" : 189,
            "receiveHeadersEnd" : 390,
            "id" : "download_43",
            "dns" : 0,
            "s_time" : 1902.59299999889,
            "sendStart" : 189,
            "connectStart" : 0,
            "sslEnd" : -1,
            "receivedTime" : "2294.09999999916"
         },
         "id" : "r36"
      },
      {
         "id" : "r37",
         "comps" : [],
         "when_comp_start" : -1,
         "url" : "http://original.testbed.localhost/ia.media-imdb.com/images/M/MV5BNDE0NTQwODM5M15BMl5BanBnXkFtZTYwNzQ2Nzk5._V1_SX116_CR0,0,116,172_AL_.jpg",
         "download" : {
            "s_time" : 1903.99999999499,
            "dns" : 0,
            "id" : "download_44",
            "receiveHeadersEnd" : 401,
            "connectStart" : 0,
            "sendStart" : 200,
            "receivedTime" : "2305.71299999428",
            "sslEnd" : -1,
            "dnsEnd" : -1,
            "sslStart" : -1,
            "type" : "image/jpeg",
            "receiveFirst" : 201,
            "len" : 7391,
            "dnsStart" : -1,
            "connectEnd" : 200,
            "sendEnd" : 200,
            "receiveLast" : 1904.71299999428
         }
      },
      {
         "id" : "r38",
         "when_comp_start" : -1,
         "comps" : [],
         "download" : {
            "connectStart" : 0,
            "sendStart" : 201,
            "sslEnd" : -1,
            "receivedTime" : "2312.99199999921",
            "id" : "download_45",
            "receiveHeadersEnd" : 401,
            "s_time" : 1904.53399999387,
            "dns" : 0,
            "dnsStart" : -1,
            "receiveLast" : 1911.99199999921,
            "connectEnd" : 201,
            "sendEnd" : 201,
            "sslStart" : -1,
            "dnsEnd" : -1,
            "type" : "image/png",
            "len" : 637,
            "receiveFirst" : 200
         },
         "url" : "http://original.testbed.localhost/ia.media-imdb.com/images/G/01/IMDb/icon/external-button._CB304896345_.png"
      },
      {
         "id" : "r39",
         "download" : {
            "sendEnd" : 193,
            "connectEnd" : 193,
            "receiveLast" : 1920.41599999723,
            "dnsStart" : -1,
            "len" : 631,
            "receiveFirst" : 200,
            "type" : "image/png",
            "dnsEnd" : -1,
            "sslStart" : -1,
            "receivedTime" : "2313.41599999723",
            "sslEnd" : -1,
            "sendStart" : 193,
            "connectStart" : 0,
            "dns" : 0,
            "s_time" : 1913.93199999584,
            "receiveHeadersEnd" : 393,
            "id" : "download_46"
         },
         "url" : "http://original.testbed.localhost/ia.media-imdb.com/images/G/01/IMDb/icon/external-button-hover._CB304896345_.png",
         "when_comp_start" : -1,
         "comps" : []
      },
      {
         "comps" : [],
         "when_comp_start" : -1,
         "url" : "http://original.testbed.localhost/ia.media-imdb.com/images/M/MV5BMTI4ODIzMDYxN15BMl5BanBnXkFtZTcwOTY2NzMyMQ@@._V1_SY172_CR2,0,116,172_AL_.jpg",
         "download" : {
            "dnsStart" : -1,
            "connectEnd" : 200,
            "sendEnd" : 201,
            "receiveLast" : 1916.23199999396,
            "dnsEnd" : -1,
            "sslStart" : -1,
            "type" : "image/jpeg",
            "receiveFirst" : 200,
            "len" : 7902,
            "connectStart" : 0,
            "sendStart" : 200,
            "receivedTime" : "2317.23199999396",
            "sslEnd" : -1,
            "s_time" : 1914.91799999494,
            "dns" : 0,
            "receiveHeadersEnd" : 401,
            "id" : "download_47"
         },
         "id" : "r40"
      },
      {
         "comps" : [],
         "when_comp_start" : -1,
         "url" : "http://original.testbed.localhost/ia.media-imdb.com/images/M/MV5BMjEzOTE3ODM3OF5BMl5BanBnXkFtZTcwMzYyODI4Mg@@._V1_SX116_CR0,0,116,172_AL_.jpg",
         "download" : {
            "receivedTime" : "2319.82900000003",
            "sslEnd" : -1,
            "sendStart" : 12,
            "connectStart" : 0,
            "dns" : 0,
            "s_time" : 2104.18199999549,
            "receiveHeadersEnd" : 213,
            "id" : "download_48",
            "sendEnd" : 12,
            "connectEnd" : 12,
            "receiveLast" : 2106.82900000003,
            "dnsStart" : -1,
            "len" : 7022,
            "receiveFirst" : 201,
            "type" : "image/jpeg",
            "dnsEnd" : -1,
            "sslStart" : -1
         },
         "id" : "r41"
      },
      {
         "id" : "r42",
         "url" : "http://original.testbed.localhost/ia.media-imdb.com/images/M/MV5BMTI3OTM0MzY3M15BMl5BanBnXkFtZTcwNzY3NzQyMw@@._V1._CR28,1,298,465_SX116_CR0,0,116,172_AL_.jpg",
         "download" : {
            "sendEnd" : 189,
            "connectEnd" : 188,
            "receiveLast" : 2107.20899999718,
            "dnsStart" : -1,
            "len" : 8138,
            "receiveFirst" : 200,
            "type" : "image/jpeg",
            "dnsEnd" : -1,
            "sslStart" : -1,
            "receivedTime" : "2496.20899999718",
            "sslEnd" : -1,
            "sendStart" : 188,
            "connectStart" : 0,
            "dns" : 0,
            "s_time" : 2105.59099999955,
            "receiveHeadersEnd" : 389,
            "id" : "download_49"
         },
         "comps" : [],
         "when_comp_start" : -1
      },
      {
         "when_comp_start" : -1,
         "comps" : [],
         "download" : {
            "receiveLast" : 2107.72599999618,
            "sendEnd" : 199,
            "connectEnd" : 199,
            "dnsStart" : -1,
            "receiveFirst" : 201,
            "len" : 7162,
            "type" : "image/jpeg",
            "sslStart" : -1,
            "dnsEnd" : -1,
            "sslEnd" : -1,
            "receivedTime" : "2507.72599999618",
            "sendStart" : 199,
            "connectStart" : 0,
            "id" : "download_50",
            "receiveHeadersEnd" : 400,
            "dns" : 0,
            "s_time" : 2106.68599999917
         },
         "url" : "http://original.testbed.localhost/ia.media-imdb.com/images/M/MV5BMTI2OTk4MDk3OF5BMl5BanBnXkFtZTcwMTY3NTc3Mg@@._V1_SX116_CR0,0,116,172_AL_.jpg",
         "id" : "r43"
      },
      {
         "id" : "r44",
         "download" : {
            "sslEnd" : -1,
            "receivedTime" : "2511.47299999866",
            "sendStart" : 191,
            "connectStart" : 0,
            "receiveHeadersEnd" : 393,
            "id" : "download_51",
            "s_time" : 2115.40399999649,
            "dns" : 0,
            "receiveLast" : 2118.47299999866,
            "connectEnd" : 191,
            "sendEnd" : 191,
            "dnsStart" : -1,
            "len" : 5096,
            "receiveFirst" : 202,
            "dnsEnd" : -1,
            "sslStart" : -1,
            "type" : "image/jpeg"
         },
         "url" : "http://original.testbed.localhost/ia.media-imdb.com/images/M/MV5BODYzMjc5NDEzNF5BMl5BanBnXkFtZTgwMzI3ODcyODE@._V1_SY132_CR0,0,89,132_AL_.jpg",
         "when_comp_start" : -1,
         "comps" : []
      },
      {
         "id" : "r45",
         "when_comp_start" : -1,
         "comps" : [],
         "download" : {
            "receivedTime" : "2512.84199999645",
            "sslEnd" : -1,
            "connectStart" : 0,
            "sendStart" : 191,
            "s_time" : 2116.50799999916,
            "dns" : 0,
            "receiveHeadersEnd" : 392,
            "id" : "download_52",
            "connectEnd" : 191,
            "sendEnd" : 191,
            "receiveLast" : 2120.84199999645,
            "dnsStart" : -1,
            "receiveFirst" : 201,
            "len" : 5035,
            "dnsEnd" : -1,
            "sslStart" : -1,
            "type" : "image/jpeg"
         },
         "url" : "http://original.testbed.localhost/ia.media-imdb.com/images/M/MV5BMTkyODMxNDUyNl5BMl5BanBnXkFtZTcwMjcxOTcxNA@@._V1_SY207_CR85,0,140,207_AL_.jpg"
      },
      {
         "id" : "r46",
         "when_comp_start" : -1,
         "comps" : [],
         "download" : {
            "receiveHeadersEnd" : 224,
            "id" : "download_53",
            "s_time" : 2293.96699999779,
            "dns" : 0,
            "sslEnd" : -1,
            "receivedTime" : "2521.57799999986",
            "sendStart" : 23,
            "connectStart" : 0,
            "receiveFirst" : 201,
            "len" : 7808,
            "sslStart" : -1,
            "dnsEnd" : -1,
            "type" : "image/jpeg",
            "receiveLast" : 2297.57799999986,
            "connectEnd" : 23,
            "sendEnd" : 23,
            "dnsStart" : -1
         },
         "url" : "http://original.testbed.localhost/ia.media-imdb.com/images/M/MV5BNzA4NjU3ODA0OV5BMl5BanBnXkFtZTcwMTY3NDc4MQ@@._V1_SX140_CR0,0,140,207_AL_.jpg"
      },
      {
         "when_comp_start" : -1,
         "comps" : [],
         "download" : {
            "receiveHeadersEnd" : 213,
            "id" : "download_54",
            "dns" : 0,
            "s_time" : 2305.680999998,
            "connectStart" : 0,
            "sendStart" : 13,
            "sslEnd" : -1,
            "receivedTime" : "2522.21299999655",
            "type" : "image/jpeg",
            "sslStart" : -1,
            "dnsEnd" : -1,
            "receiveFirst" : 200,
            "len" : 4721,
            "dnsStart" : -1,
            "receiveLast" : 2309.21299999655,
            "sendEnd" : 13,
            "connectEnd" : 13
         },
         "url" : "http://original.testbed.localhost/ia.media-imdb.com/images/M/MV5BZjI0YzgxY2UtMjc1OS00ZTJiLTg2NWMtN2E5OWQ3NGRlN2RlXkEyXkFqcGdeQXVyNjUwNzk3NDc@._V1_SY207_CR173,0,140,207_AL_.jpg",
         "id" : "r47"
      },
      {
         "url" : "http://original.testbed.localhost/ia.media-imdb.com/images/M/MV5BMTEwNTAyNjgxNjheQTJeQWpwZ15BbWU3MDAzMzU1Mjc@._V1_SY207_CR114,0,140,207_AL_.jpg",
         "download" : {
            "id" : "download_55",
            "receiveHeadersEnd" : 390,
            "dns" : 0,
            "s_time" : 2306.80199999915,
            "connectStart" : 0,
            "sendStart" : 189,
            "sslEnd" : -1,
            "receivedTime" : "2698.37700000062",
            "type" : "image/jpeg",
            "dnsEnd" : -1,
            "sslStart" : -1,
            "len" : 5423,
            "receiveFirst" : 200,
            "dnsStart" : -1,
            "receiveLast" : 2308.37700000062,
            "sendEnd" : 190,
            "connectEnd" : 189
         },
         "comps" : [],
         "when_comp_start" : -1,
         "id" : "r48"
      },
      {
         "id" : "r49",
         "comps" : [],
         "when_comp_start" : -1,
         "url" : "http://original.testbed.localhost/ia.media-imdb.com/images/M/MV5BMTAzNzg4MDcyMDFeQTJeQWpwZ15BbWU3MDExNDQ1NzU@._V1_SY207_CR6,0,140,207_AL_.jpg",
         "download" : {
            "receiveHeadersEnd" : 400,
            "id" : "download_56",
            "s_time" : 2308.04599999828,
            "dns" : 0,
            "sendStart" : 200,
            "connectStart" : 0,
            "sslEnd" : -1,
            "receivedTime" : "2709.80399999826",
            "dnsEnd" : -1,
            "sslStart" : -1,
            "type" : "image/jpeg",
            "len" : 6730,
            "receiveFirst" : 200,
            "dnsStart" : -1,
            "receiveLast" : 2309.80399999826,
            "connectEnd" : 200,
            "sendEnd" : 200
         }
      },
      {
         "id" : "r50",
         "download" : {
            "receiveLast" : 2517.17599999759,
            "connectEnd" : 192,
            "sendEnd" : 192,
            "dnsStart" : -1,
            "len" : 39923,
            "receiveFirst" : 201,
            "dnsEnd" : -1,
            "sslStart" : -1,
            "type" : "image/jpeg",
            "sslEnd" : -1,
            "receivedTime" : "2910.17599999759",
            "connectStart" : 0,
            "sendStart" : 192,
            "id" : "download_57",
            "receiveHeadersEnd" : 393,
            "s_time" : 2317.18099999853,
            "dns" : 0
         },
         "url" : "http://original.testbed.localhost/ia.media-imdb.com/images/M/MV5BMTExNTA2MDQ2MTdeQTJeQWpwZ15BbWU4MDU0MzAyODMx._V1_CR0,47,500,281_AL_.jpg",
         "when_comp_start" : -1,
         "comps" : []
      },
      {
         "id" : "r53",
         "comps" : [],
         "when_comp_start" : -1,
         "url" : "http://original.testbed.localhost/ia.media-imdb.com/images/M/MV5BMTQ3NTA1NTIyMF5BMl5BanBnXkFtZTgwOTc4MDM1ODE@._V1_SY230_CR19,0,307,230_AL_.jpg",
         "download" : {
            "dnsStart" : -1,
            "receiveLast" : 2320.53099999781,
            "sendEnd" : 191,
            "connectEnd" : 191,
            "type" : "image/jpeg",
            "dnsEnd" : -1,
            "sslStart" : -1,
            "len" : 11257,
            "receiveFirst" : 203,
            "sendStart" : 191,
            "connectStart" : 0,
            "sslEnd" : -1,
            "receivedTime" : "2714.53099999781",
            "receiveHeadersEnd" : 394,
            "id" : "download_58",
            "dns" : 0,
            "s_time" : 2318.50699999632
         }
      },
      {
         "when_comp_start" : -1,
         "comps" : [],
         "download" : {
            "receiveFirst" : 200,
            "len" : 47963,
            "type" : "image/png",
            "sslStart" : -1,
            "dnsEnd" : -1,
            "sendEnd" : 23,
            "connectEnd" : 23,
            "receiveLast" : 2697.66199999681,
            "dnsStart" : -1,
            "dns" : 0,
            "s_time" : 2496.20399999549,
            "receiveHeadersEnd" : 223,
            "id" : "download_59",
            "receivedTime" : "2920.66199999681",
            "sslEnd" : -1,
            "sendStart" : 23,
            "connectStart" : 0
         },
         "url" : "http://original.testbed.localhost/ia.media-imdb.com/images/G/01/imdb/images/lb/overlay-1511558127._V_.png",
         "id" : "r62"
      },
      {
         "when_comp_start" : -1,
         "comps" : [],
         "download" : {
            "type" : "image/png",
            "dnsEnd" : -1,
            "sslStart" : -1,
            "len" : 932,
            "receiveFirst" : 203,
            "dnsStart" : -1,
            "receiveLast" : 2509.36799999559,
            "sendEnd" : 12,
            "connectEnd" : 12,
            "id" : "download_60",
            "receiveHeadersEnd" : 215,
            "dns" : 0,
            "s_time" : 2507.53499999701,
            "connectStart" : 0,
            "sendStart" : 12,
            "sslEnd" : -1,
            "receivedTime" : "2724.36799999559"
         },
         "url" : "http://original.testbed.localhost/ia.media-imdb.com/images/G/01/imdb/images/jquery/plugins/watchlist-ribbon-sprite-sm-771043870._V_.png",
         "id" : "r64"
      }
   ]
}
