{
   "n_download_no_trigger" : 1,
   "start_activity" : "download_0",
   "name" : "original.testbed.localhost_www.thedailybeast.com_",
   "load_activity" : -1,
   "objs" : [
      {
         "when_comp_start" : 1,
         "url" : "http://original.testbed.localhost/www.thedailybeast.com/",
         "id" : "r1",
         "comps" : [
            {
               "s_time" : 221.11600000062,
               "time" : 136.031999998522,
               "id" : "r1_c1",
               "type" : "evalhtml",
               "e_time" : 357.147999999142
            },
            {
               "s_time" : 705.247000001691,
               "time" : 2797.30299999938,
               "id" : "r1_c2",
               "type" : "evalhtml",
               "e_time" : 3502.55000000107
            },
            {
               "s_time" : 4257.95099999959,
               "time" : 7262.32900000101,
               "type" : "evalhtml",
               "id" : "r1_c3",
               "e_time" : 11520.2800000006
            }
         ],
         "download" : {
            "receiveFirst" : 61,
            "len" : 462308,
            "dns" : 0,
            "dnsEnd" : -1,
            "receiveHeadersEnd" : 67,
            "sslEnd" : -1,
            "connectEnd" : 6,
            "connectStart" : 0,
            "id" : "download_0",
            "receivedTime" : "249.741999999969",
            "sslStart" : -1,
            "dnsStart" : -1,
            "receiveLast" : 182.741999999969,
            "s_time" : 0,
            "sendEnd" : 6,
            "sendStart" : 6,
            "type" : "text/html"
         }
      },
      {
         "when_comp_start" : -1,
         "url" : "http://original.testbed.localhost/www.thedailybeast.com/etc/clientlibs/dailybeast2/styles.dca01cc-1441304432.cached.css",
         "id" : "r2",
         "comps" : [
            {
               "s_time" : 357.834999998886,
               "time" : 383.118000001559,
               "type" : 4,
               "id" : "comp_0",
               "e_time" : 740.953000000445
            }
         ],
         "download" : {
            "receiveFirst" : 63,
            "len" : 156511,
            "dns" : 0,
            "dnsEnd" : -1,
            "receiveHeadersEnd" : 76,
            "sslEnd" : -1,
            "connectEnd" : 13,
            "connectStart" : 0,
            "id" : "download_1",
            "receivedTime" : "356.370000001334",
            "sslStart" : -1,
            "dnsStart" : -1,
            "receiveLast" : 280.370000001334,
            "s_time" : 230.332999999519,
            "sendEnd" : 13,
            "sendStart" : 13,
            "type" : "text/css"
         }
      },
      {
         "when_comp_start" : -1,
         "url" : "http://original.testbed.localhost/www.thedailybeast.com/etc/clientlibs/dailybeast2/head.dca01cc-1441304432.cached.js",
         "id" : "r3",
         "comps" : [
            {
               "s_time" : 488.420000001497,
               "time" : 216.827000000194,
               "type" : 1,
               "id" : "comp_1",
               "e_time" : 705.247000001691
            }
         ],
         "download" : {
            "receiveFirst" : 80,
            "len" : 20623,
            "dns" : 0,
            "dnsEnd" : -1,
            "receiveHeadersEnd" : 96,
            "sslEnd" : -1,
            "connectEnd" : 16,
            "connectStart" : 0,
            "id" : "download_2",
            "receivedTime" : "344.834999999875",
            "sslStart" : -1,
            "dnsStart" : -1,
            "receiveLast" : 248.834999999875,
            "s_time" : 234.636000001046,
            "sendEnd" : 16,
            "sendStart" : 16,
            "type" : "application/javascript"
         }
      },
      {
         "when_comp_start" : -1,
         "url" : "http://original.testbed.localhost/www.thedailybeast.com/etc/clientlibs/dailybeast2/img/globalnav-logo.png",
         "id" : "r4",
         "comps" : [],
         "download" : {
            "receiveFirst" : 54,
            "len" : 5946,
            "dns" : 0,
            "dnsEnd" : -1,
            "receiveHeadersEnd" : 162,
            "sslEnd" : -1,
            "connectEnd" : 108,
            "connectStart" : 0,
            "id" : "download_3",
            "receivedTime" : "743.242000000464",
            "sslStart" : -1,
            "dnsStart" : -1,
            "receiveLast" : 581.242000000464,
            "s_time" : 237.733000001754,
            "sendEnd" : 108,
            "sendStart" : 108,
            "type" : "image/png"
         }
      },
      {
         "when_comp_start" : -1,
         "url" : "http://original.testbed.localhost/cdn.thedailybeast.com/content/dailybeast/articles/2015/09/15/the-shady-family-behind-america-s-iran-lobby/jcr:content/image.crop.600.400.jpg/48076534.cached.jpg",
         "id" : "r5",
         "comps" : [],
         "download" : {
            "receiveFirst" : 54,
            "len" : 51951,
            "dns" : 0,
            "dnsEnd" : -1,
            "receiveHeadersEnd" : 63,
            "sslEnd" : -1,
            "connectEnd" : 9,
            "connectStart" : 0,
            "id" : "download_4",
            "receivedTime" : "759.476999999606",
            "sslStart" : -1,
            "dnsStart" : -1,
            "receiveLast" : 696.476999999606,
            "s_time" : 355.486000000383,
            "sendEnd" : 9,
            "sendStart" : 9,
            "type" : "image/jpeg"
         }
      },
      {
         "when_comp_start" : -1,
         "url" : "http://original.testbed.localhost/cdn.thedailybeast.com/content/dailybeast/articles/2015/09/15/why-the-new-campus-rape-bill-is-awful/jcr:content/image.crop.600.400.jpg/48077698.cached.jpg",
         "id" : "r6",
         "comps" : [],
         "download" : {
            "receiveFirst" : 86,
            "len" : 24296,
            "dns" : 0,
            "dnsEnd" : -1,
            "receiveHeadersEnd" : 95,
            "sslEnd" : -1,
            "connectEnd" : 9,
            "connectStart" : 0,
            "id" : "download_5",
            "receivedTime" : "757.370999999694",
            "sslStart" : -1,
            "dnsStart" : -1,
            "receiveLast" : 662.370999999694,
            "s_time" : 357.147999999142,
            "sendEnd" : 9,
            "sendStart" : 9,
            "type" : "image/jpeg"
         }
      },
      {
         "when_comp_start" : -1,
         "url" : "http://original.testbed.localhost/cdn.thedailybeast.com/content/dailybeast/articles/2015/09/15/professor-hunted-in-mississippi-double-murder-turns-his-gun-on-himself/jcr:content/image.crop.600.400.jpg/48077456.cached.jpg",
         "id" : "r22",
         "comps" : [],
         "download" : {
            "receiveFirst" : 55,
            "len" : 42827,
            "dns" : 0,
            "dnsEnd" : -1,
            "receiveHeadersEnd" : 64,
            "sslEnd" : -1,
            "connectEnd" : 8,
            "connectStart" : 0,
            "id" : "download_6",
            "receivedTime" : "1559.92300000071",
            "sslStart" : -1,
            "dnsStart" : -1,
            "receiveLast" : 1495.92300000071,
            "s_time" : 844.590000000608,
            "sendEnd" : 9,
            "sendStart" : 8,
            "type" : "image/jpeg"
         }
      },
      {
         "when_comp_start" : -1,
         "url" : "http://original.testbed.localhost/cdn.thedailybeast.com/content/dailybeast/articles/2015/09/15/ovaprime-the-end-of-women-s-biological-clock/jcr:content/image.crop.600.400.jpg/48078314.cached.jpg",
         "id" : "r23",
         "comps" : [],
         "download" : {
            "receiveFirst" : 75,
            "len" : 46009,
            "dns" : 0,
            "dnsEnd" : -1,
            "receiveHeadersEnd" : 82,
            "sslEnd" : -1,
            "connectEnd" : 7,
            "connectStart" : 0,
            "id" : "download_7",
            "receivedTime" : "1564.07300000137",
            "sslStart" : -1,
            "dnsStart" : -1,
            "receiveLast" : 1482.07300000137,
            "s_time" : 846.773000001122,
            "sendEnd" : 7,
            "sendStart" : 7,
            "type" : "image/jpeg"
         }
      },
      {
         "when_comp_start" : -1,
         "url" : "http://original.testbed.localhost/cdn.thedailybeast.com/content/dailybeast/articles/2015/09/14/how-kim-davis-violated-the-first-amendment/jcr:content/image.crop.174.116.jpg/48076546.cached.jpg",
         "id" : "r24",
         "comps" : [],
         "download" : {
            "receiveFirst" : 97,
            "len" : 8644,
            "dns" : 0,
            "dnsEnd" : -1,
            "receiveHeadersEnd" : 103,
            "sslEnd" : -1,
            "connectEnd" : 6,
            "connectStart" : 0,
            "id" : "download_8",
            "receivedTime" : "1549.08900000009",
            "sslStart" : -1,
            "dnsStart" : -1,
            "receiveLast" : 1446.08900000009,
            "s_time" : 855.531000001065,
            "sendEnd" : 6,
            "sendStart" : 6,
            "type" : "image/jpeg"
         }
      },
      {
         "when_comp_start" : -1,
         "url" : "http://original.testbed.localhost/cdn.thedailybeast.com/content/dailybeast/articles/2015/09/15/woman-who-convinced-her-girlfriend-she-was-a-man-by-making-her-wear-a-blindfold-for-years-convicted-of-strap-on-sex-assault/jcr:content/image.crop.174.116.jpg/48078264.cached.jpg",
         "id" : "r25",
         "comps" : [],
         "download" : {
            "receiveFirst" : 93,
            "len" : 5899,
            "dns" : 0,
            "dnsEnd" : -1,
            "receiveHeadersEnd" : 205,
            "sslEnd" : -1,
            "connectEnd" : 111,
            "connectStart" : 0,
            "id" : "download_9",
            "receivedTime" : "1559.40399999963",
            "sslStart" : -1,
            "dnsStart" : -1,
            "receiveLast" : 1354.40399999963,
            "s_time" : 857.223999999405,
            "sendEnd" : 112,
            "sendStart" : 111,
            "type" : "image/jpeg"
         }
      },
      {
         "when_comp_start" : -1,
         "url" : "http://original.testbed.localhost/cdn.thedailybeast.com/content/dailybeast/articles/2015/09/15/we-need-to-talk-about-islam-s-jihad-problem/jcr:content/image.crop.174.116.jpg/48077466.cached.jpg",
         "id" : "r26",
         "comps" : [],
         "download" : {
            "receiveFirst" : 128,
            "len" : 10086,
            "dns" : 0,
            "dnsEnd" : 2,
            "receiveHeadersEnd" : 236,
            "sslEnd" : -1,
            "connectEnd" : 108,
            "connectStart" : 0,
            "id" : "download_10",
            "receivedTime" : "1561.81500000093",
            "sslStart" : -1,
            "dnsStart" : 2,
            "receiveLast" : 1325.81500000093,
            "s_time" : 864.35100000017,
            "sendEnd" : 108,
            "sendStart" : 108,
            "type" : "image/jpeg"
         }
      },
      {
         "when_comp_start" : -1,
         "url" : "http://original.testbed.localhost/cdn.thedailybeast.com/content/dailybeast/articles/2015/09/14/kanye-west-ruined-my-fashion-week-show-but-i-ll-survive/jcr:content/image.crop.300.200.jpg/48077505.cached.jpg",
         "id" : "r27",
         "comps" : [],
         "download" : {
            "receiveFirst" : 134,
            "len" : 13345,
            "dns" : 0,
            "dnsEnd" : 1,
            "receiveHeadersEnd" : 235,
            "sslEnd" : -1,
            "connectEnd" : 101,
            "connectStart" : 0,
            "id" : "download_11",
            "receivedTime" : "1562.668999999",
            "sslStart" : -1,
            "dnsStart" : 1,
            "receiveLast" : 1327.668999999,
            "s_time" : 871.902999999293,
            "sendEnd" : 101,
            "sendStart" : 101,
            "type" : "image/jpeg"
         }
      },
      {
         "when_comp_start" : -1,
         "url" : "http://original.testbed.localhost/cdn.thedailybeast.com/content/dailybeast/articles/2015/09/15/ivy-league-professor-gives-students-the-alf-test/jcr:content/image.crop.300.200.jpg/48078030.cached.jpg",
         "id" : "r28",
         "comps" : [],
         "download" : {
            "receiveFirst" : 164,
            "len" : 18055,
            "dns" : 0,
            "dnsEnd" : 9,
            "receiveHeadersEnd" : 269,
            "sslEnd" : -1,
            "connectEnd" : 98,
            "connectStart" : 0,
            "id" : "download_12",
            "receivedTime" : "1567.64399999884",
            "sslStart" : -1,
            "dnsStart" : 9,
            "receiveLast" : 1298.64399999884,
            "s_time" : 874.771999999211,
            "sendEnd" : 105,
            "sendStart" : 98,
            "type" : "image/jpeg"
         }
      },
      {
         "when_comp_start" : -1,
         "url" : "http://original.testbed.localhost/cdn.thedailybeast.com/content/dailybeast/articles/2015/09/15/will-cnn-trump-fox-news-s-republican-debate/jcr:content/image.crop.174.116.jpg/48078346.cached.jpg",
         "id" : "r29",
         "comps" : [],
         "download" : {
            "receiveFirst" : 89,
            "len" : 8943,
            "dns" : 0,
            "dnsEnd" : -1,
            "receiveHeadersEnd" : 284,
            "sslEnd" : -1,
            "connectEnd" : 195,
            "connectStart" : 0,
            "id" : "download_13",
            "receivedTime" : "1566.11799999882",
            "sslStart" : -1,
            "dnsStart" : -1,
            "receiveLast" : 1282.11799999882,
            "s_time" : 878.099000001384,
            "sendEnd" : 195,
            "sendStart" : 195,
            "type" : "image/jpeg"
         }
      },
      {
         "when_comp_start" : -1,
         "url" : "http://original.testbed.localhost/cdn.thedailybeast.com/content/dailybeast/articles/2015/09/15/airline-grounds-125-flight-attendants-for-being-fat/jcr:content/image.crop.174.116.jpg/48076548.cached.jpg",
         "id" : "r30",
         "comps" : [],
         "download" : {
            "receiveFirst" : 95,
            "len" : 8144,
            "dns" : 0,
            "dnsEnd" : -1,
            "receiveHeadersEnd" : 295,
            "sslEnd" : -1,
            "connectEnd" : 200,
            "connectStart" : 0,
            "id" : "download_14",
            "receivedTime" : "1568.07100000151",
            "sslStart" : -1,
            "dnsStart" : -1,
            "receiveLast" : 1273.07100000151,
            "s_time" : 879.684999999881,
            "sendEnd" : 200,
            "sendStart" : 200,
            "type" : "image/jpeg"
         }
      },
      {
         "when_comp_start" : -1,
         "url" : "http://original.testbed.localhost/cdn.thedailybeast.com/content/dailybeast/articles/2015/09/15/e-skin-that-changes-color-like-a-chameleon/jcr:content/image.crop.174.116.jpg/48078290.cached.jpg",
         "id" : "r31",
         "comps" : [],
         "download" : {
            "receiveFirst" : 80,
            "len" : 9411,
            "dns" : 0,
            "dnsEnd" : -1,
            "receiveHeadersEnd" : 314,
            "sslEnd" : -1,
            "connectEnd" : 234,
            "connectStart" : 0,
            "id" : "download_15",
            "receivedTime" : "1569.47500000024",
            "sslStart" : -1,
            "dnsStart" : -1,
            "receiveLast" : 1255.47500000024,
            "s_time" : 882.111999999324,
            "sendEnd" : 234,
            "sendStart" : 234,
            "type" : "image/jpeg"
         }
      },
      {
         "when_comp_start" : -1,
         "url" : "http://original.testbed.localhost/cdn.thedailybeast.com/content/dailybeast/videos/2015/09/15/48-hours-backstage-at-new-york-fashion-week/jcr:content/image.crop.300.200.jpg/48078436.cached.jpg",
         "id" : "r32",
         "comps" : [],
         "download" : {
            "receiveFirst" : 82,
            "len" : 12960,
            "dns" : 0,
            "dnsEnd" : -1,
            "receiveHeadersEnd" : 243,
            "sslEnd" : -1,
            "connectEnd" : 161,
            "connectStart" : 0,
            "id" : "download_16",
            "receivedTime" : "1571.30600000164",
            "sslStart" : -1,
            "dnsStart" : -1,
            "receiveLast" : 1328.30600000164,
            "s_time" : 966.339999999036,
            "sendEnd" : 161,
            "sendStart" : 161,
            "type" : "image/jpeg"
         }
      },
      {
         "when_comp_start" : 1,
         "url" : "http://original.testbed.localhost/www.thedailybeast.com/etc/clientlibs/dailybeast2/font/dailybeast-icon-font.woff.html",
         "id" : "r19",
         "comps" : [],
         "download" : {
            "receiveFirst" : 75,
            "len" : 5292,
            "dns" : 0,
            "dnsEnd" : -1,
            "receiveHeadersEnd" : 116,
            "sslEnd" : -1,
            "connectEnd" : 41,
            "connectStart" : 0,
            "id" : "download_17",
            "receivedTime" : "1572.80100000207",
            "sslStart" : -1,
            "dnsStart" : -1,
            "receiveLast" : 1456.80100000207,
            "s_time" : 1112.67199999929,
            "sendEnd" : 41,
            "sendStart" : 41,
            "type" : "text/html"
         }
      },
      {
         "when_comp_start" : 1,
         "url" : "http://original.testbed.localhost/www.thedailybeast.com/etc/clientlibs/dailybeast2/font/Titling-Gothic-FB-Cond-Regular.woff.html",
         "id" : "r16",
         "comps" : [],
         "download" : {
            "receiveFirst" : 66,
            "len" : 36306,
            "dns" : 0,
            "dnsEnd" : -1,
            "receiveHeadersEnd" : 128,
            "sslEnd" : -1,
            "connectEnd" : 62,
            "connectStart" : 0,
            "id" : "download_18",
            "receivedTime" : "1589.79900000122",
            "sslStart" : -1,
            "dnsStart" : -1,
            "receiveLast" : 1461.79900000122,
            "s_time" : 1113.48100000032,
            "sendEnd" : 62,
            "sendStart" : 62,
            "type" : "text/html"
         }
      },
      {
         "when_comp_start" : -1,
         "url" : "http://original.testbed.localhost/cdn.thedailybeast.com/content/dailybeast/articles/2015/09/15/topless-protesters-expose-radical-islam-s-real-boobs/jcr:content/image.crop.300.200.jpg/48078052.cached.jpg",
         "id" : "r33",
         "comps" : [],
         "download" : {
            "receiveFirst" : 61,
            "len" : 10942,
            "dns" : 0,
            "dnsEnd" : -1,
            "receiveHeadersEnd" : 184,
            "sslEnd" : -1,
            "connectEnd" : 123,
            "connectStart" : 0,
            "id" : "download_19",
            "receivedTime" : "1578.96600000095",
            "sslStart" : -1,
            "dnsStart" : -1,
            "receiveLast" : 1394.96600000095,
            "s_time" : 1070.58799999868,
            "sendEnd" : 123,
            "sendStart" : 123,
            "type" : "image/jpeg"
         }
      },
      {
         "when_comp_start" : -1,
         "url" : "http://original.testbed.localhost/cdn.thedailybeast.com/content/dailybeast/articles/2015/09/15/max-beauvoir-the-voodoo-priest-who-saved-haiti-dies-at-age-79/jcr:content/image.crop.174.116.jpg/48076489.cached.jpg",
         "id" : "r34",
         "comps" : [],
         "download" : {
            "receiveFirst" : 85,
            "len" : 7753,
            "dns" : 0,
            "dnsEnd" : -1,
            "receiveHeadersEnd" : 201,
            "sslEnd" : -1,
            "connectEnd" : 116,
            "connectStart" : 0,
            "id" : "download_20",
            "receivedTime" : "1580.91899999999",
            "sslStart" : -1,
            "dnsStart" : -1,
            "receiveLast" : 1379.91899999999,
            "s_time" : 1078.55299999937,
            "sendEnd" : 116,
            "sendStart" : 116,
            "type" : "image/jpeg"
         }
      },
      {
         "when_comp_start" : -1,
         "url" : "http://original.testbed.localhost/cdn.thedailybeast.com/content/dailybeast/articles/2015/09/15/hollywood-gets-cpr-dangerously-wrong/jcr:content/image.crop.174.116.jpg/48077936.cached.jpg",
         "id" : "r35",
         "comps" : [],
         "download" : {
            "receiveFirst" : 82,
            "len" : 7520,
            "dns" : 0,
            "dnsEnd" : -1,
            "receiveHeadersEnd" : 184,
            "sslEnd" : -1,
            "connectEnd" : 101,
            "connectStart" : 0,
            "id" : "download_21",
            "receivedTime" : "1582.90200000192",
            "sslStart" : -1,
            "dnsStart" : -1,
            "receiveLast" : 1398.90200000192,
            "s_time" : 1111.14599999928,
            "sendEnd" : 102,
            "sendStart" : 101,
            "type" : "image/jpeg"
         }
      },
      {
         "when_comp_start" : -1,
         "url" : "http://original.testbed.localhost/cdn.thedailybeast.com/content/dailybeast/articles/2015/09/14/obama-won-t-sanction-china-for-cyber-spying-yet/jcr:content/image.crop.174.116.jpg/48077540.cached.jpg",
         "id" : "r36",
         "comps" : [],
         "download" : {
            "receiveFirst" : 84,
            "len" : 8893,
            "dns" : 0,
            "dnsEnd" : -1,
            "receiveHeadersEnd" : 183,
            "sslEnd" : -1,
            "connectEnd" : 99,
            "connectStart" : 0,
            "id" : "download_22",
            "receivedTime" : "3183.51900000198",
            "sslStart" : -1,
            "dnsStart" : -1,
            "receiveLast" : 3000.51900000198,
            "s_time" : 1125.85500000205,
            "sendEnd" : 99,
            "sendStart" : 99,
            "type" : "image/jpeg"
         }
      },
      {
         "when_comp_start" : -1,
         "url" : "http://original.testbed.localhost/cdn.thedailybeast.com/content/dailybeast/articles/2015/09/15/is-this-the-end-of-edm/jcr:content/image.crop.174.116.jpg/48077356.cached.jpg",
         "id" : "r37",
         "comps" : [],
         "download" : {
            "receiveFirst" : 82,
            "len" : 9426,
            "dns" : 0,
            "dnsEnd" : -1,
            "receiveHeadersEnd" : 172,
            "sslEnd" : -1,
            "connectEnd" : 90,
            "connectStart" : 0,
            "id" : "download_23",
            "receivedTime" : "1587.78499999971",
            "sslStart" : -1,
            "dnsStart" : -1,
            "receiveLast" : 1415.78499999971,
            "s_time" : 1151.87100000185,
            "sendEnd" : 90,
            "sendStart" : 90,
            "type" : "image/jpeg"
         }
      },
      {
         "when_comp_start" : -1,
         "url" : "http://original.testbed.localhost/cdn.thedailybeast.com/content/dailybeast/articles/2015/09/14/no-kanye-but-jeremy-scott-s-nyfw-show-was-a-starry-tangy-acid-trip/jcr:content/image.crop.174.116.jpg/48077156.cached.jpg",
         "id" : "r38",
         "comps" : [],
         "download" : {
            "receiveFirst" : 94,
            "len" : 7895,
            "dns" : 0,
            "dnsEnd" : -1,
            "receiveHeadersEnd" : 194,
            "sslEnd" : -1,
            "connectEnd" : 100,
            "connectStart" : 0,
            "id" : "download_24",
            "receivedTime" : "1595.62799999912",
            "sslStart" : -1,
            "dnsStart" : -1,
            "receiveLast" : 1401.62799999912,
            "s_time" : 1172.426000001,
            "sendEnd" : 100,
            "sendStart" : 100,
            "type" : "image/jpeg"
         }
      },
      {
         "when_comp_start" : -1,
         "url" : "http://original.testbed.localhost/cdn.thedailybeast.com/content/dailybeast/articles/2015/09/15/don-t-let-feelings-drive-u-s-policy/jcr:content/image.crop.174.116.jpg/48076489.cached.jpg",
         "id" : "r39",
         "comps" : [],
         "download" : {
            "receiveFirst" : 99,
            "len" : 7707,
            "dns" : 0,
            "dnsEnd" : -1,
            "receiveHeadersEnd" : 198,
            "sslEnd" : -1,
            "connectEnd" : 98,
            "connectStart" : 0,
            "id" : "download_25",
            "receivedTime" : "3182.75600000197",
            "sslStart" : -1,
            "dnsStart" : -1,
            "receiveLast" : 2984.75600000197,
            "s_time" : 1187.88200000199,
            "sendEnd" : 99,
            "sendStart" : 98,
            "type" : "image/jpeg"
         }
      },
      {
         "when_comp_start" : -1,
         "url" : "http://original.testbed.localhost/cdn.thedailybeast.com/content/dailybeast/cheats/2015/09/15/a-dislike-button-is-coming-to-facebook/jcr:content/image.crop.174.116.jpg/48078146.cached.jpg",
         "id" : "r40",
         "comps" : [],
         "download" : {
            "receiveFirst" : 101,
            "len" : 3210,
            "dns" : 0,
            "dnsEnd" : -1,
            "receiveHeadersEnd" : 210,
            "sslEnd" : -1,
            "connectEnd" : 109,
            "connectStart" : 0,
            "id" : "download_26",
            "receivedTime" : "3185.19699999888",
            "sslStart" : -1,
            "dnsStart" : -1,
            "receiveLast" : 2975.19699999888,
            "s_time" : 1192.00300000011,
            "sendEnd" : 109,
            "sendStart" : 109,
            "type" : "image/jpeg"
         }
      },
      {
         "when_comp_start" : -1,
         "url" : "http://original.testbed.localhost/cdn.thedailybeast.com/content/dailybeast/cheats/2015/09/15/china-building-more-in-contested-waters/jcr:content/image.crop.174.116.jpg/48078012.cached.jpg",
         "id" : "r41",
         "comps" : [],
         "download" : {
            "receiveFirst" : 73,
            "len" : 3976,
            "dns" : 0,
            "dnsEnd" : -1,
            "receiveHeadersEnd" : 205,
            "sslEnd" : -1,
            "connectEnd" : 132,
            "connectStart" : 0,
            "id" : "download_27",
            "receivedTime" : "3186.84500000018",
            "sslStart" : -1,
            "dnsStart" : -1,
            "receiveLast" : 2981.84500000018,
            "s_time" : 1207.68899999894,
            "sendEnd" : 132,
            "sendStart" : 132,
            "type" : "image/jpeg"
         }
      },
      {
         "when_comp_start" : -1,
         "url" : "http://original.testbed.localhost/cdn.thedailybeast.com/content/dailybeast/articles/2015/09/15/lady-gaga-s-stylist-wants-to-dress-you-too/jcr:content/square.crop.490.600.jpg/48078031.cached.jpg",
         "id" : "r42",
         "comps" : [],
         "download" : {
            "receiveFirst" : 64,
            "len" : 38044,
            "dns" : 0,
            "dnsEnd" : -1,
            "receiveHeadersEnd" : 202,
            "sslEnd" : -1,
            "connectEnd" : 138,
            "connectStart" : 0,
            "id" : "download_28",
            "receivedTime" : "3489.5800000013",
            "sslStart" : -1,
            "dnsStart" : -1,
            "receiveLast" : 3287.5800000013,
            "s_time" : 1223.06899999967,
            "sendEnd" : 138,
            "sendStart" : 138,
            "type" : "image/jpeg"
         }
      },
      {
         "when_comp_start" : -1,
         "url" : "http://original.testbed.localhost/cdn.thedailybeast.com/content/dailybeast/articles/2015/09/15/hairy-harry-does-it-his-way/jcr:content/jumbotron.crop.400.225.jpg/48078335.cached.jpg",
         "id" : "r43",
         "comps" : [],
         "download" : {
            "receiveFirst" : 85,
            "len" : 15712,
            "dns" : 0,
            "dnsEnd" : -1,
            "receiveHeadersEnd" : 191,
            "sslEnd" : -1,
            "connectEnd" : 106,
            "connectStart" : 0,
            "id" : "download_29",
            "receivedTime" : "3199.08299999952",
            "sslStart" : -1,
            "dnsStart" : -1,
            "receiveLast" : 3008.08299999952,
            "s_time" : 1270.82900000096,
            "sendEnd" : 106,
            "sendStart" : 106,
            "type" : "image/jpeg"
         }
      },
      {
         "when_comp_start" : -1,
         "url" : "http://original.testbed.localhost/cdn.thedailybeast.com/content/dailybeast/articles/2015/09/15/mathematical-visionary-terrence-howard-says-one-times-one-equals-two/jcr:content/image.crop.300.225.jpg/48078217.cached.jpg",
         "id" : "r44",
         "comps" : [],
         "download" : {
            "receiveFirst" : 98,
            "len" : 11915,
            "dns" : 0,
            "dnsEnd" : -1,
            "receiveHeadersEnd" : 209,
            "sslEnd" : -1,
            "connectEnd" : 111,
            "connectStart" : 0,
            "id" : "download_30",
            "receivedTime" : "3202.31799999965",
            "sslStart" : -1,
            "dnsStart" : -1,
            "receiveLast" : 2993.31799999965,
            "s_time" : 1284.7299999994,
            "sendEnd" : 111,
            "sendStart" : 111,
            "type" : "image/jpeg"
         }
      },
      {
         "when_comp_start" : -1,
         "url" : "http://original.testbed.localhost/cdn.thedailybeast.com/etc/authors/n/nick-gillespie/image.crop.200.200.png/46131236.cached.png",
         "id" : "r45",
         "comps" : [],
         "download" : {
            "receiveFirst" : 108,
            "len" : 19760,
            "dns" : 0,
            "dnsEnd" : -1,
            "receiveHeadersEnd" : 213,
            "sslEnd" : -1,
            "connectEnd" : 104,
            "connectStart" : 0,
            "id" : "download_31",
            "receivedTime" : "3217.78999999879",
            "sslStart" : -1,
            "dnsStart" : -1,
            "receiveLast" : 3004.78999999879,
            "s_time" : 1297.45600000024,
            "sendEnd" : 105,
            "sendStart" : 104,
            "type" : "image/png"
         }
      },
      {
         "when_comp_start" : -1,
         "url" : "http://original.testbed.localhost/cdn.thedailybeast.com/etc/authors/k/keli-goff/image.crop.200.200.jpg/46202664.cached.jpg",
         "id" : "r46",
         "comps" : [],
         "download" : {
            "receiveFirst" : 156,
            "len" : 6975,
            "dns" : 0,
            "dnsEnd" : -1,
            "receiveHeadersEnd" : 233,
            "sslEnd" : -1,
            "connectEnd" : 77,
            "connectStart" : 0,
            "id" : "download_32",
            "receivedTime" : "3216.66099999857",
            "sslStart" : -1,
            "dnsStart" : -1,
            "receiveLast" : 2983.66099999857,
            "s_time" : 1337.70899999945,
            "sendEnd" : 77,
            "sendStart" : 77,
            "type" : "image/jpeg"
         }
      },
      {
         "when_comp_start" : -1,
         "url" : "http://original.testbed.localhost/cdn.thedailybeast.com/etc/authors/s/sally-kohn/image.crop.200.200.jpg/47458367.cached.jpg",
         "id" : "r47",
         "comps" : [],
         "download" : {
            "receiveFirst" : 152,
            "len" : 7796,
            "dns" : 0,
            "dnsEnd" : -1,
            "receiveHeadersEnd" : 204,
            "sslEnd" : -1,
            "connectEnd" : 52,
            "connectStart" : 0,
            "id" : "download_33",
            "receivedTime" : "3218.82800000094",
            "sslStart" : -1,
            "dnsStart" : -1,
            "receiveLast" : 3014.82800000094,
            "s_time" : 1373.35299999904,
            "sendEnd" : 52,
            "sendStart" : 52,
            "type" : "image/jpeg"
         }
      },
      {
         "when_comp_start" : -1,
         "url" : "http://original.testbed.localhost/cdn.thedailybeast.com/content/dailybeast/galleries/2015/01/02/photo-of-the-day/jcr:content/gallery/de72f80e-b1a6-406b-88cf-2a3b21cc8f20/image.crop.250.250.jpg/48074592.cached.jpg",
         "id" : "r48",
         "comps" : [],
         "download" : {
            "receiveFirst" : 73,
            "len" : 8621,
            "dns" : 0,
            "dnsEnd" : -1,
            "receiveHeadersEnd" : 85,
            "sslEnd" : -1,
            "connectEnd" : 12,
            "connectStart" : 0,
            "id" : "download_34",
            "receivedTime" : "3439.4089999987",
            "sslStart" : -1,
            "dnsStart" : -1,
            "receiveLast" : 3354.4089999987,
            "s_time" : 1521.80600000065,
            "sendEnd" : 12,
            "sendStart" : 12,
            "type" : "image/jpeg"
         }
      },
      {
         "when_comp_start" : -1,
         "url" : "http://original.testbed.localhost/cdn.thedailybeast.com/content/dailybeast/galleries/2015/01/02/photo-of-the-day/jcr:content/gallery/99e6e24b-07b9-4f67-98a5-54bd3cadd225/image.crop.250.250.jpg/48073276.cached.jpg",
         "id" : "r49",
         "comps" : [],
         "download" : {
            "receiveFirst" : 69,
            "len" : 18887,
            "dns" : 0,
            "dnsEnd" : -1,
            "receiveHeadersEnd" : 84,
            "sslEnd" : -1,
            "connectEnd" : 15,
            "connectStart" : 0,
            "id" : "download_35",
            "receivedTime" : "3438.85900000168",
            "sslStart" : -1,
            "dnsStart" : -1,
            "receiveLast" : 3354.85900000168,
            "s_time" : 1523.39299999949,
            "sendEnd" : 15,
            "sendStart" : 15,
            "type" : "image/jpeg"
         }
      },
      {
         "when_comp_start" : -1,
         "url" : "http://original.testbed.localhost/cdn.thedailybeast.com/content/dailybeast/galleries/2015/01/02/photo-of-the-day/jcr:content/gallery/9de4190a-867e-41e6-b0c6-a56bb7992b3f/image.crop.250.250.jpg/48073276.cached.jpg",
         "id" : "r50",
         "comps" : [],
         "download" : {
            "receiveFirst" : 59,
            "len" : 18786,
            "dns" : 0,
            "dnsEnd" : -1,
            "receiveHeadersEnd" : 130,
            "sslEnd" : -1,
            "connectEnd" : 71,
            "connectStart" : 0,
            "id" : "download_36",
            "receivedTime" : "3453.47699999911",
            "sslStart" : -1,
            "dnsStart" : -1,
            "receiveLast" : 3323.47699999911,
            "s_time" : 1525.68199999951,
            "sendEnd" : 71,
            "sendStart" : 71,
            "type" : "image/jpeg"
         }
      },
      {
         "when_comp_start" : -1,
         "url" : "http://original.testbed.localhost/cdn.thedailybeast.com/content/dailybeast/galleries/2015/01/02/photo-of-the-day/jcr:content/gallery/0fdb1222-cef3-4e05-a5bf-1edf12e07916/image.crop.250.250.jpg/48069841.cached.jpg",
         "id" : "r51",
         "comps" : [],
         "download" : {
            "receiveFirst" : 73,
            "len" : 26139,
            "dns" : 0,
            "dnsEnd" : -1,
            "receiveHeadersEnd" : 143,
            "sslEnd" : -1,
            "connectEnd" : 70,
            "connectStart" : 0,
            "id" : "download_37",
            "receivedTime" : "3448.53299999886",
            "sslStart" : -1,
            "dnsStart" : -1,
            "receiveLast" : 3305.53299999886,
            "s_time" : 1526.90300000177,
            "sendEnd" : 70,
            "sendStart" : 70,
            "type" : "image/jpeg"
         }
      },
      {
         "when_comp_start" : -1,
         "url" : "http://original.testbed.localhost/www.thedailybeast.com/etc/clientlibs/dailybeast2/components/pages/home/js/publish.dca01cc-1441304432.cached.js",
         "id" : "r52",
         "comps" : [
            {
               "s_time" : 3511.21699999931,
               "time" : 746.73400000028,
               "type" : 1,
               "id" : "comp_47",
               "e_time" : 4257.95099999959
            }
         ],
         "download" : {
            "receiveFirst" : 122,
            "len" : 628818,
            "dns" : 0,
            "dnsEnd" : -1,
            "receiveHeadersEnd" : 177,
            "sslEnd" : -1,
            "connectEnd" : 55,
            "connectStart" : 0,
            "id" : "download_38",
            "receivedTime" : "3510.30100000207",
            "sslStart" : -1,
            "dnsStart" : -1,
            "receiveLast" : 3333.30100000207,
            "s_time" : 1540.90999999971,
            "sendEnd" : 55,
            "sendStart" : 55,
            "type" : "application/javascript"
         }
      },
      {
         "when_comp_start" : 1,
         "url" : "http://original.testbed.localhost/www.thedailybeast.com/etc/clientlibs/dailybeast2/font/Titling-Gothic-FB-Comp-Medium.woff.html",
         "id" : "r7",
         "comps" : [],
         "download" : {
            "receiveFirst" : 59,
            "len" : 32086,
            "dns" : 0,
            "dnsEnd" : -1,
            "receiveHeadersEnd" : 84,
            "sslEnd" : -1,
            "connectEnd" : 25,
            "connectStart" : 0,
            "id" : "download_39",
            "receivedTime" : "11718.6450000008",
            "sslStart" : -1,
            "dnsStart" : -1,
            "receiveLast" : 11634.6450000008,
            "s_time" : 3500.48900000183,
            "sendEnd" : 25,
            "sendStart" : 25,
            "type" : "text/html"
         }
      },
      {
         "when_comp_start" : 1,
         "url" : "http://original.testbed.localhost/www.thedailybeast.com/etc/clientlibs/dailybeast2/font/Titling-Gothic-FB-Cond-Standard.woff.html",
         "id" : "r10",
         "comps" : [],
         "download" : {
            "receiveFirst" : 317,
            "len" : 38222,
            "dns" : 0,
            "dnsEnd" : -1,
            "receiveHeadersEnd" : 342,
            "sslEnd" : -1,
            "connectEnd" : 25,
            "connectStart" : 0,
            "id" : "download_40",
            "receivedTime" : "13603.868000002",
            "sslStart" : -1,
            "dnsStart" : -1,
            "receiveLast" : 13261.868000002,
            "s_time" : 3501.37399999949,
            "sendEnd" : 25,
            "sendStart" : 25,
            "type" : "text/html"
         }
      },
      {
         "when_comp_start" : 1,
         "url" : "http://original.testbed.localhost/www.thedailybeast.com/etc/clientlibs/dailybeast2/font/Titling-Gothic-FB-Cond-Light.woff.html",
         "id" : "r13",
         "comps" : [],
         "download" : {
            "receiveFirst" : 337,
            "len" : 35514,
            "dns" : 0,
            "dnsEnd" : -1,
            "receiveHeadersEnd" : 362,
            "sslEnd" : -1,
            "connectEnd" : 24,
            "connectStart" : 0,
            "id" : "download_41",
            "receivedTime" : "13619.0959999985",
            "sslStart" : -1,
            "dnsStart" : -1,
            "receiveLast" : 13257.0959999985,
            "s_time" : 3502.55000000107,
            "sendEnd" : 25,
            "sendStart" : 24,
            "type" : "text/html"
         }
      }
   ],
   "deps" : [
      {
         "a2" : "r1_c2",
         "time" : -1,
         "id" : "dep1",
         "a1" : "comp_1"
      },
      {
         "a2" : "r1_c3",
         "time" : -1,
         "id" : "dep2",
         "a1" : "comp_47"
      },
      {
         "a2" : "comp_1",
         "time" : -1,
         "id" : "dep3",
         "a1" : "comp_0"
      },
      {
         "a2" : "download_41",
         "time" : -1,
         "id" : "dep4",
         "a1" : "r1_c2"
      },
      {
         "a2" : "download_40",
         "time" : 2796.1269999978,
         "id" : "dep5",
         "a1" : "r1_c2"
      },
      {
         "a2" : "download_39",
         "time" : 2795.24200000014,
         "id" : "dep6",
         "a1" : "r1_c2"
      },
      {
         "a2" : "download_38",
         "time" : 835.662999998019,
         "id" : "dep7",
         "a1" : "r1_c2"
      },
      {
         "a2" : "download_37",
         "time" : 821.656000000079,
         "id" : "dep8",
         "a1" : "r1_c2"
      },
      {
         "a2" : "download_36",
         "time" : 820.434999997819,
         "id" : "dep9",
         "a1" : "r1_c2"
      },
      {
         "a2" : "download_35",
         "time" : 818.145999997799,
         "id" : "dep10",
         "a1" : "r1_c2"
      },
      {
         "a2" : "download_34",
         "time" : 816.558999998959,
         "id" : "dep11",
         "a1" : "r1_c2"
      },
      {
         "a2" : "download_33",
         "time" : 668.105999997349,
         "id" : "dep12",
         "a1" : "r1_c2"
      },
      {
         "a2" : "download_32",
         "time" : 632.461999997759,
         "id" : "dep13",
         "a1" : "r1_c2"
      },
      {
         "a2" : "download_31",
         "time" : 592.208999998549,
         "id" : "dep14",
         "a1" : "r1_c2"
      },
      {
         "a2" : "download_30",
         "time" : 579.482999997709,
         "id" : "dep15",
         "a1" : "r1_c2"
      },
      {
         "a2" : "download_29",
         "time" : 565.581999999269,
         "id" : "dep16",
         "a1" : "r1_c2"
      },
      {
         "a2" : "download_28",
         "time" : 517.821999997979,
         "id" : "dep17",
         "a1" : "r1_c2"
      },
      {
         "a2" : "download_27",
         "time" : 502.441999997249,
         "id" : "dep18",
         "a1" : "r1_c2"
      },
      {
         "a2" : "download_26",
         "time" : 486.755999998419,
         "id" : "dep19",
         "a1" : "r1_c2"
      },
      {
         "a2" : "download_25",
         "time" : 482.635000000299,
         "id" : "dep20",
         "a1" : "r1_c2"
      },
      {
         "a2" : "download_24",
         "time" : 467.178999999309,
         "id" : "dep21",
         "a1" : "r1_c2"
      },
      {
         "a2" : "download_23",
         "time" : 446.624000000159,
         "id" : "dep22",
         "a1" : "r1_c2"
      },
      {
         "a2" : "download_22",
         "time" : 420.608000000359,
         "id" : "dep23",
         "a1" : "r1_c2"
      },
      {
         "a2" : "download_21",
         "time" : 405.898999997589,
         "id" : "dep24",
         "a1" : "r1_c2"
      },
      {
         "a2" : "download_20",
         "time" : 373.305999997679,
         "id" : "dep25",
         "a1" : "r1_c2"
      },
      {
         "a2" : "download_19",
         "time" : 365.340999996989,
         "id" : "dep26",
         "a1" : "r1_c2"
      },
      {
         "a2" : "download_18",
         "time" : 408.233999998629,
         "id" : "dep27",
         "a1" : "r1_c2"
      },
      {
         "a2" : "download_17",
         "time" : 407.424999997599,
         "id" : "dep28",
         "a1" : "r1_c2"
      },
      {
         "a2" : "download_16",
         "time" : 261.092999997345,
         "id" : "dep29",
         "a1" : "r1_c2"
      },
      {
         "a2" : "download_15",
         "time" : 176.864999997633,
         "id" : "dep30",
         "a1" : "r1_c2"
      },
      {
         "a2" : "download_14",
         "time" : 174.43799999819,
         "id" : "dep31",
         "a1" : "r1_c2"
      },
      {
         "a2" : "download_13",
         "time" : 172.851999999693,
         "id" : "dep32",
         "a1" : "r1_c2"
      },
      {
         "a2" : "download_12",
         "time" : 169.52499999752,
         "id" : "dep33",
         "a1" : "r1_c2"
      },
      {
         "a2" : "download_11",
         "time" : 166.655999997602,
         "id" : "dep34",
         "a1" : "r1_c2"
      },
      {
         "a2" : "download_10",
         "time" : 159.103999998479,
         "id" : "dep35",
         "a1" : "r1_c2"
      },
      {
         "a2" : "download_9",
         "time" : 151.976999997714,
         "id" : "dep36",
         "a1" : "r1_c2"
      },
      {
         "a2" : "download_8",
         "time" : 150.283999999374,
         "id" : "dep37",
         "a1" : "r1_c2"
      },
      {
         "a2" : "download_7",
         "time" : 141.525999999431,
         "id" : "dep38",
         "a1" : "r1_c2"
      },
      {
         "a2" : "download_6",
         "time" : 139.342999998917,
         "id" : "dep39",
         "a1" : "r1_c2"
      },
      {
         "a2" : "download_5",
         "time" : -1,
         "id" : "dep40",
         "a1" : "r1_c1"
      },
      {
         "a2" : "download_4",
         "time" : 134.369999999763,
         "id" : "dep41",
         "a1" : "r1_c1"
      },
      {
         "a2" : "download_3",
         "time" : 16.617000001134,
         "id" : "dep42",
         "a1" : "r1_c1"
      },
      {
         "a2" : "download_2",
         "time" : 13.520000000426,
         "id" : "dep43",
         "a1" : "r1_c1"
      },
      {
         "a2" : "download_1",
         "time" : 9.21699999889898,
         "id" : "dep44",
         "a1" : "r1_c1"
      }
   ]
}
