{
   "n_download_no_trigger" : 1,
   "start_activity" : "download_0",
   "name" : "original.testbed.localhost_www.ask.com_",
   "load_activity" : -1,
   "objs" : [
      {
         "when_comp_start" : 1,
         "url" : "http://original.testbed.localhost/www.ask.com/",
         "id" : "r1",
         "comps" : [
            {
               "s_time" : 171.327000018209,
               "time" : 176.176999986638,
               "id" : "r1_c1",
               "type" : "evalhtml",
               "e_time" : 347.504000004847
            },
            {
               "s_time" : 786.500000016531,
               "time" : -139333821.762,
               "id" : "r1_c2",
               "type" : "evalhtml",
               "e_time" : -139333035.262
            },
            {
               "s_time" : 788.240000023507,
               "time" : -139333823.502,
               "id" : "r1_c3",
               "type" : "evalhtml",
               "e_time" : -139333035.262
            },
            {
               "s_time" : 817.536000016844,
               "time" : 307.922999985746,
               "type" : "evalhtml",
               "id" : "r1_c4",
               "e_time" : 1125.45900000259
            }
         ],
         "download" : {
            "receiveFirst" : 53,
            "len" : 41329,
            "dns" : 0,
            "dnsEnd" : -1,
            "receiveHeadersEnd" : 60,
            "sslEnd" : -1,
            "connectEnd" : 7,
            "connectStart" : 0,
            "id" : "download_0",
            "receivedTime" : "170.289000001503",
            "sslStart" : -1,
            "dnsStart" : -1,
            "receiveLast" : 110.289000001503,
            "s_time" : 0,
            "sendEnd" : 7,
            "sendStart" : 7,
            "type" : "text/html"
         }
      },
      {
         "when_comp_start" : -1,
         "url" : "http://original.testbed.localhost/www.ask.com/st/c/css/ask_home.min.343c9b0a.css",
         "id" : "r2",
         "comps" : [
            {
               "s_time" : 285.85899999598,
               "time" : 73.059000016656,
               "type" : 4,
               "id" : "comp_2",
               "e_time" : 358.918000012636
            }
         ],
         "download" : {
            "receiveFirst" : 98,
            "len" : 10120,
            "dns" : 0,
            "dnsEnd" : -1,
            "receiveHeadersEnd" : 105,
            "sslEnd" : -1,
            "connectEnd" : 6,
            "connectStart" : 0,
            "id" : "download_1",
            "receivedTime" : "285.340000002179",
            "sslStart" : -1,
            "dnsStart" : -1,
            "receiveLast" : 180.340000002179,
            "s_time" : 177.339000016218,
            "sendEnd" : 7,
            "sendStart" : 6,
            "type" : "text/css"
         }
      },
      {
         "when_comp_start" : -1,
         "url" : "http://original.testbed.localhost/sp.ask.com/sh/i/images/homepage-sprite-1.0.2.png",
         "id" : "r3",
         "comps" : [],
         "download" : {
            "receiveFirst" : 53,
            "len" : 7056,
            "dns" : 0,
            "dnsEnd" : -1,
            "receiveHeadersEnd" : 107,
            "sslEnd" : -1,
            "connectEnd" : 53,
            "connectStart" : 0,
            "id" : "download_2",
            "receivedTime" : "360.780000017257",
            "sslStart" : -1,
            "dnsStart" : -1,
            "receiveLast" : 253.780000017257,
            "s_time" : 197.434000001522,
            "sendEnd" : 54,
            "sendStart" : 53,
            "type" : "image/png"
         }
      },
      {
         "when_comp_start" : -1,
         "url" : "http://original.testbed.localhost/www.ask.com/st/c/js/ask_home.min.303129f5.js",
         "id" : "r7",
         "comps" : [
            {
               "s_time" : 516.969000018435,
               "time" : 269.530999998096,
               "type" : 1,
               "id" : "comp_7",
               "e_time" : 786.500000016531
            }
         ],
         "download" : {
            "receiveFirst" : 59,
            "len" : 122247,
            "dns" : 0,
            "dnsEnd" : -1,
            "receiveHeadersEnd" : 100,
            "sslEnd" : -1,
            "connectEnd" : 41,
            "connectStart" : 0,
            "id" : "download_3",
            "receivedTime" : "515.779000008479",
            "sslStart" : -1,
            "dnsStart" : -1,
            "receiveLast" : 415.779000008479,
            "s_time" : 235.016999999061,
            "sendEnd" : 41,
            "sendStart" : 41,
            "type" : "application/javascript"
         }
      },
      {
         "when_comp_start" : -1,
         "url" : "http://original.testbed.localhost/sp.ask.com/sh/ads/ads.js",
         "id" : "r8",
         "comps" : [
            {
               "s_time" : 787.873000022955,
               "time" : 0.367000000552025,
               "type" : 1,
               "id" : "comp_10",
               "e_time" : 788.240000023507
            }
         ],
         "download" : {
            "receiveFirst" : 60,
            "len" : 21,
            "dns" : 0,
            "dnsEnd" : 7,
            "receiveHeadersEnd" : 126,
            "sslEnd" : -1,
            "connectEnd" : 66,
            "connectStart" : 0,
            "id" : "download_4",
            "receivedTime" : "385.223999997834",
            "sslStart" : -1,
            "dnsStart" : 7,
            "receiveLast" : 259.223999997834,
            "s_time" : 235.84100001608,
            "sendEnd" : 66,
            "sendStart" : 66,
            "type" : "application/javascript"
         }
      },
      {
         "when_comp_start" : -1,
         "url" : "http://original.testbed.localhost/cx.aos.ask.com/question/aq/300px-300px/kind-sugar-used-make-cotton-candy_66e54d85178991f9.jpg",
         "id" : "r4",
         "comps" : [],
         "download" : {
            "receiveFirst" : 61,
            "len" : 7920,
            "dns" : 0,
            "dnsEnd" : 52,
            "receiveHeadersEnd" : 164,
            "sslEnd" : -1,
            "connectEnd" : 103,
            "connectStart" : 0,
            "id" : "download_5",
            "receivedTime" : "413.087000022642",
            "sslStart" : -1,
            "dnsStart" : 52,
            "receiveLast" : 249.087000022642,
            "s_time" : 213.394999998854,
            "sendEnd" : 103,
            "sendStart" : 103,
            "type" : "image/jpeg"
         }
      },
      {
         "when_comp_start" : -1,
         "url" : "http://original.testbed.localhost/www.ask.com/st/c/js/ask_unified.min.c7f61e55.js",
         "id" : "r9",
         "comps" : [
            {
               "s_time" : 789.826000022003,
               "time" : 27.709999994841,
               "type" : 1,
               "id" : "comp_13",
               "e_time" : 817.536000016844
            }
         ],
         "download" : {
            "receiveFirst" : 75,
            "len" : 14839,
            "dns" : 0,
            "dnsEnd" : -1,
            "receiveHeadersEnd" : 144,
            "sslEnd" : -1,
            "connectEnd" : 69,
            "connectStart" : 0,
            "id" : "download_6",
            "receivedTime" : "418.579999997746",
            "sslStart" : -1,
            "dnsStart" : -1,
            "receiveLast" : 274.579999997746,
            "s_time" : 236.848000000464,
            "sendEnd" : 69,
            "sendStart" : 69,
            "type" : "application/javascript"
         }
      },
      {
         "when_comp_start" : -1,
         "url" : "http://original.testbed.localhost/cx.aos.ask.com/question/aq/300px-300px/can-dogs-eat-ice-cream_f07c629d34b8b9f2.jpg",
         "id" : "r5",
         "comps" : [],
         "download" : {
            "receiveFirst" : 87,
            "len" : 10015,
            "dns" : 0,
            "dnsEnd" : 53,
            "receiveHeadersEnd" : 192,
            "sslEnd" : -1,
            "connectEnd" : 104,
            "connectStart" : 0,
            "id" : "download_7",
            "receivedTime" : "425.599000009242",
            "sslStart" : -1,
            "dnsStart" : 53,
            "receiveLast" : 233.599000009242,
            "s_time" : 218.40000001248,
            "sendEnd" : 105,
            "sendStart" : 104,
            "type" : "image/jpeg"
         }
      },
      {
         "when_comp_start" : -1,
         "url" : "http://original.testbed.localhost/cx.aos.ask.com/question/aq/300px-300px/long-sugar-rush-last_d04934f02b36bdba.jpg",
         "id" : "r6",
         "comps" : [],
         "download" : {
            "receiveFirst" : 94,
            "len" : 7187,
            "dns" : 0,
            "dnsEnd" : 36,
            "receiveHeadersEnd" : 181,
            "sslEnd" : -1,
            "connectEnd" : 87,
            "connectStart" : 0,
            "id" : "download_8",
            "receivedTime" : "430.177000002004",
            "sslStart" : -1,
            "dnsStart" : 36,
            "receiveLast" : 249.177000002004,
            "s_time" : 230.439000006299,
            "sendEnd" : 87,
            "sendStart" : 87,
            "type" : "image/jpeg"
         }
      },
      {
         "when_comp_start" : -1,
         "url" : "http://original.testbed.localhost/sp.ask.com/sh/i/images/homepage-sprite-1.0.2-@2x.png",
         "id" : "r10",
         "comps" : [],
         "download" : {
            "receiveFirst" : 68,
            "len" : 14862,
            "dns" : 0,
            "dnsEnd" : -1,
            "receiveHeadersEnd" : 121,
            "sslEnd" : -1,
            "connectEnd" : 53,
            "connectStart" : 0,
            "id" : "download_9",
            "receivedTime" : "847.200000018347",
            "sslStart" : -1,
            "dnsStart" : -1,
            "receiveLast" : 726.200000018347,
            "s_time" : 324.860000022454,
            "sendEnd" : 53,
            "sendStart" : 53,
            "type" : "image/png"
         }
      },
      {
         "when_comp_start" : -1,
         "url" : "http://original.testbed.localhost/cx.aos.ask.com/question/28fa25c496d170c747bad135552197da/aq/invented-cotton-candy-machine_2f20a7b5228dafb9_gOmF1RmuTYGK-Pr-XalPQw.jpg",
         "id" : "r11",
         "comps" : [],
         "download" : {
            "receiveFirst" : 84,
            "len" : 89658,
            "dns" : 0,
            "dnsEnd" : -1,
            "receiveHeadersEnd" : 121,
            "sslEnd" : -1,
            "connectEnd" : 37,
            "connectStart" : 0,
            "id" : "download_10",
            "receivedTime" : "889.496999996481",
            "sslStart" : -1,
            "dnsStart" : -1,
            "receiveLast" : 768.496999996481,
            "s_time" : 347.504000004847,
            "sendEnd" : 37,
            "sendStart" : 37,
            "type" : "image/jpeg"
         }
      },
      {
         "when_comp_start" : 1,
         "url" : "http://original.testbed.localhost/uloganxuu=EB184DAC-55B1-41F8-8A01-727673DF1953&anxa=T2_AskUS&anxv=90f062d&anxd=2015-09-12T00%3A22%3A00Z&anxsn=askus015iad.io.askjeeves.info&anxu=http%3A%2F%2Foriginal.testbed.localhost%2Fwww.ask.com%2F&anxl=en-US&anxlv=0&anxrd=none&anxrk=-&anxsq=2&pl_cm=true&anxi=0",
         "id" : "r12",
         "comps" : [],
         "download" : {
            "receiveFirst" : 52,
            "len" : 294,
            "dns" : 0,
            "dnsEnd" : -1,
            "receiveHeadersEnd" : 72,
            "sslEnd" : -1,
            "connectEnd" : 19,
            "connectStart" : 0,
            "id" : "download_11",
            "receivedTime" : "1295.01400000299",
            "sslStart" : -1,
            "dnsStart" : -1,
            "receiveLast" : 1223.01400000299,
            "s_time" : 834.946999995736,
            "sendEnd" : 20,
            "sendStart" : 19,
            "type" : "text/html"
         }
      }
   ],
   "deps" : [
      {
         "a2" : "r1_c2",
         "time" : -1,
         "id" : "dep1",
         "a1" : "comp_7"
      },
      {
         "a2" : "r1_c3",
         "time" : -1,
         "id" : "dep2",
         "a1" : "comp_10"
      },
      {
         "a2" : "r1_c4",
         "time" : -1,
         "id" : "dep3",
         "a1" : "comp_13"
      },
      {
         "a2" : "comp_7",
         "time" : -1,
         "id" : "dep4",
         "a1" : "comp_2"
      },
      {
         "a2" : "download_11",
         "time" : 17.4109999788919,
         "id" : "dep5",
         "a1" : "r1_c4"
      },
      {
         "a2" : "download_10",
         "time" : -1,
         "id" : "dep6",
         "a1" : "r1_c1"
      },
      {
         "a2" : "download_9",
         "time" : 153.533000004245,
         "id" : "dep7",
         "a1" : "r1_c1"
      },
      {
         "a2" : "download_8",
         "time" : 59.11199998809,
         "id" : "dep8",
         "a1" : "r1_c1"
      },
      {
         "a2" : "download_7",
         "time" : 47.072999994271,
         "id" : "dep9",
         "a1" : "r1_c1"
      },
      {
         "a2" : "download_6",
         "time" : 65.520999982255,
         "id" : "dep10",
         "a1" : "r1_c1"
      },
      {
         "a2" : "download_6",
         "time" : 65.520999982255,
         "id" : "dep11",
         "a1" : "r1_c1"
      },
      {
         "a2" : "download_5",
         "time" : 42.067999980645,
         "id" : "dep12",
         "a1" : "r1_c1"
      },
      {
         "a2" : "download_4",
         "time" : 64.513999997871,
         "id" : "dep13",
         "a1" : "r1_c1"
      },
      {
         "a2" : "download_4",
         "time" : 64.513999997871,
         "id" : "dep14",
         "a1" : "r1_c1"
      },
      {
         "a2" : "download_3",
         "time" : 63.689999980852,
         "id" : "dep15",
         "a1" : "r1_c1"
      },
      {
         "a2" : "download_2",
         "time" : 26.106999983313,
         "id" : "dep16",
         "a1" : "r1_c1"
      },
      {
         "a2" : "download_1",
         "time" : 6.011999998009,
         "id" : "dep17",
         "a1" : "r1_c1"
      }
   ]
}
