{
   "n_download_no_trigger" : 1,
   "start_activity" : "download_0",
   "name" : "original.testbed.localhost_www.imdb.com_",
   "load_activity" : -1,
   "objs" : [
      {
         "when_comp_start" : 1,
         "url" : "http://original.testbed.localhost/www.imdb.com/",
         "id" : "r1",
         "comps" : [
            {
               "s_time" : 196.914000000106,
               "time" : 992.995999986304,
               "id" : "r1_c1",
               "type" : "evalhtml",
               "e_time" : 1189.90999998641
            },
            {
               "s_time" : 1991.6839999787,
               "time" : -154749795.792,
               "id" : "r1_c2",
               "type" : "evalhtml",
               "e_time" : -154747804.108
            },
            {
               "s_time" : 2014.26699999138,
               "time" : -154749818.375,
               "id" : "r1_c3",
               "type" : "evalhtml",
               "e_time" : -154747804.108
            },
            {
               "s_time" : 2036.2089999835,
               "time" : 685.42500000331,
               "type" : "evalhtml",
               "id" : "r1_c4",
               "e_time" : 2721.63399998681
            }
         ],
         "download" : {
            "receiveFirst" : 57,
            "len" : 156245,
            "dns" : 0,
            "dnsEnd" : -1,
            "receiveHeadersEnd" : 61,
            "sslEnd" : -1,
            "connectEnd" : 4,
            "connectStart" : 0,
            "id" : "download_0",
            "receivedTime" : "195.510999998078",
            "sslStart" : -1,
            "dnsStart" : -1,
            "receiveLast" : 134.510999998078,
            "s_time" : 0,
            "sendEnd" : 4,
            "sendStart" : 4,
            "type" : "text/html"
         }
      },
      {
         "when_comp_start" : -1,
         "url" : "http://original.testbed.localhost/ia.media-imdb.com/images/G/01/imdb/css/collections/pagelayout-flat-3859843826._CB310498986_.css",
         "id" : "r3",
         "comps" : [
            {
               "s_time" : 406.935999984853,
               "time" : 113.616999995429,
               "type" : 4,
               "id" : "comp_9",
               "e_time" : 520.552999980282
            }
         ],
         "download" : {
            "receiveFirst" : 60,
            "len" : 143657,
            "dns" : 0,
            "dnsEnd" : -1,
            "receiveHeadersEnd" : 72,
            "sslEnd" : -1,
            "connectEnd" : 12,
            "connectStart" : 0,
            "id" : "download_1",
            "receivedTime" : "405.989999999292",
            "sslStart" : -1,
            "dnsStart" : -1,
            "receiveLast" : 333.989999999292,
            "s_time" : 242.201999993995,
            "sendEnd" : 12,
            "sendStart" : 12,
            "type" : "text/css"
         }
      },
      {
         "when_comp_start" : -1,
         "url" : "http://original.testbed.localhost/ia.media-imdb.com/images/G/01/imdb/css/site/consumer-navbar-mega-485555676._CB318510215_.css",
         "id" : "r4",
         "comps" : [
            {
               "s_time" : 393.752999982098,
               "time" : 11.656999995466,
               "type" : 4,
               "id" : "comp_8",
               "e_time" : 405.409999977564
            }
         ],
         "download" : {
            "receiveFirst" : 66,
            "len" : 10052,
            "dns" : 1,
            "dnsEnd" : 16,
            "receiveHeadersEnd" : 133,
            "sslEnd" : -1,
            "connectEnd" : 67,
            "connectStart" : 0,
            "id" : "download_2",
            "receivedTime" : "392.86799999536",
            "sslStart" : -1,
            "dnsStart" : 15,
            "receiveLast" : 259.86799999536,
            "s_time" : 243.392999982461,
            "sendEnd" : 67,
            "sendStart" : 67,
            "type" : "text/css"
         }
      },
      {
         "when_comp_start" : -1,
         "url" : "http://original.testbed.localhost/ia.media-imdb.com/images/G/01/imdb/css/collections/starbarwidget-247421025._CB318510254_.css",
         "id" : "r5",
         "comps" : [
            {
               "s_time" : 522.383999981685,
               "time" : 2.25900000077604,
               "type" : 4,
               "id" : "comp_10",
               "e_time" : 524.642999982461
            }
         ],
         "download" : {
            "receiveFirst" : 80,
            "len" : 3681,
            "dns" : 0,
            "dnsEnd" : 17,
            "receiveHeadersEnd" : 170,
            "sslEnd" : -1,
            "connectEnd" : 89,
            "connectStart" : 0,
            "id" : "download_3",
            "receivedTime" : "522.109999990789",
            "sslStart" : -1,
            "dnsStart" : 17,
            "receiveLast" : 352.109999990789,
            "s_time" : 244.399999995949,
            "sendEnd" : 90,
            "sendStart" : 89,
            "type" : "text/css"
         }
      },
      {
         "when_comp_start" : -1,
         "url" : "http://original.testbed.localhost/ia.media-imdb.com/images/G/01/imdb/css/collections/watchlistButton-3978168775._CB318510288_.css",
         "id" : "r6",
         "comps" : [
            {
               "s_time" : 525.588999997126,
               "time" : 4.24199999542896,
               "type" : 4,
               "id" : "comp_11",
               "e_time" : 529.830999992555
            }
         ],
         "download" : {
            "receiveFirst" : 83,
            "len" : 8350,
            "dns" : 0,
            "dnsEnd" : 18,
            "receiveHeadersEnd" : 172,
            "sslEnd" : -1,
            "connectEnd" : 89,
            "connectStart" : 0,
            "id" : "download_4",
            "receivedTime" : "525.19200000097",
            "sslStart" : -1,
            "dnsStart" : 18,
            "receiveLast" : 353.19200000097,
            "s_time" : 245.436999975936,
            "sendEnd" : 89,
            "sendStart" : 89,
            "type" : "text/css"
         }
      },
      {
         "when_comp_start" : -1,
         "url" : "http://original.testbed.localhost/ia.media-imdb.com/images/G/01/imdb/css/collections/recommendations-1541130848._CB318510255_.css",
         "id" : "r7",
         "comps" : [
            {
               "s_time" : 530.257999984315,
               "time" : 59.051000018371,
               "type" : 4,
               "id" : "comp_12",
               "e_time" : 589.309000002686
            }
         ],
         "download" : {
            "receiveFirst" : 85,
            "len" : 8234,
            "dns" : 0,
            "dnsEnd" : 20,
            "receiveHeadersEnd" : 173,
            "sslEnd" : -1,
            "connectEnd" : 88,
            "connectStart" : 0,
            "id" : "download_5",
            "receivedTime" : "530.013999989023",
            "sslStart" : -1,
            "dnsStart" : 20,
            "receiveLast" : 357.013999989023,
            "s_time" : 246.840999985579,
            "sendEnd" : 88,
            "sendStart" : 88,
            "type" : "text/css"
         }
      },
      {
         "when_comp_start" : -1,
         "url" : "http://original.testbed.localhost/ia.media-imdb.com/images/G/01/imdb/images/navbar/imdbpro_logo_nb-720143162._CB306318304_.png",
         "id" : "r8",
         "comps" : [],
         "download" : {
            "receiveFirst" : 55,
            "len" : 1340,
            "dns" : 0,
            "dnsEnd" : -1,
            "receiveHeadersEnd" : 195,
            "sslEnd" : -1,
            "connectEnd" : 140,
            "connectStart" : 0,
            "id" : "download_6",
            "receivedTime" : "590.224999992643",
            "sslStart" : -1,
            "dnsStart" : -1,
            "receiveLast" : 395.224999992643,
            "s_time" : 251.96799999685,
            "sendEnd" : 140,
            "sendStart" : 140,
            "type" : "image/png"
         }
      },
      {
         "when_comp_start" : -1,
         "url" : "http://original.testbed.localhost/ia.media-imdb.com/images/G/01/imdb/images/navbar/navbar_sprite-580289297._V_.png",
         "id" : "r9",
         "comps" : [],
         "download" : {
            "receiveFirst" : 77,
            "len" : 41408,
            "dns" : 0,
            "dnsEnd" : -1,
            "receiveHeadersEnd" : 83,
            "sslEnd" : -1,
            "connectEnd" : 6,
            "connectStart" : 0,
            "id" : "download_7",
            "receivedTime" : "932.723999983864",
            "sslStart" : -1,
            "dnsStart" : -1,
            "receiveLast" : 849.723999983864,
            "s_time" : 618.514000001596,
            "sendEnd" : 6,
            "sendStart" : 6,
            "type" : "image/png"
         }
      },
      {
         "when_comp_start" : -1,
         "url" : "http://original.testbed.localhost/ia.media-imdb.com/images/G/01/imdb/images/navbar/imdbpro_logo_menu-2185879182._CB306318245_.png",
         "id" : "r10",
         "comps" : [],
         "download" : {
            "receiveFirst" : 55,
            "len" : 1024,
            "dns" : 0,
            "dnsEnd" : -1,
            "receiveHeadersEnd" : 62,
            "sslEnd" : -1,
            "connectEnd" : 7,
            "connectStart" : 0,
            "id" : "download_8",
            "receivedTime" : "919.997999997577",
            "sslStart" : -1,
            "dnsStart" : -1,
            "receiveLast" : 857.997999997577,
            "s_time" : 645.140999986324,
            "sendEnd" : 7,
            "sendStart" : 7,
            "type" : "image/png"
         }
      },
      {
         "when_comp_start" : -1,
         "url" : "http://original.testbed.localhost/ia.media-imdb.com/images/M/MV5BMjI3MDM4NTk5OV5BMl5BanBnXkFtZTgwMDg1MDc2NTE@._V1_SY298_CR11,0,201,298_AL_.jpg",
         "id" : "r11",
         "comps" : [],
         "download" : {
            "receiveFirst" : 59,
            "len" : 10312,
            "dns" : 0,
            "dnsEnd" : -1,
            "receiveHeadersEnd" : 83,
            "sslEnd" : -1,
            "connectEnd" : 24,
            "connectStart" : 0,
            "id" : "download_9",
            "receivedTime" : "923.354999977164",
            "sslStart" : -1,
            "dnsStart" : -1,
            "receiveLast" : 840.354999977164,
            "s_time" : 652.846999990288,
            "sendEnd" : 24,
            "sendStart" : 24,
            "type" : "image/jpeg"
         }
      },
      {
         "when_comp_start" : -1,
         "url" : "http://original.testbed.localhost/ia.media-imdb.com/images/G/01/IMDb/icon/play-button._CB318667375_.png",
         "id" : "r12",
         "comps" : [],
         "download" : {
            "receiveFirst" : 89,
            "len" : 1872,
            "dns" : 0,
            "dnsEnd" : -1,
            "receiveHeadersEnd" : 115,
            "sslEnd" : -1,
            "connectEnd" : 25,
            "connectStart" : 0,
            "id" : "download_10",
            "receivedTime" : "926.283999986481",
            "sslStart" : -1,
            "dnsStart" : -1,
            "receiveLast" : 811.283999986481,
            "s_time" : 653.731999977026,
            "sendEnd" : 26,
            "sendStart" : 25,
            "type" : "image/png"
         }
      },
      {
         "when_comp_start" : -1,
         "url" : "http://original.testbed.localhost/ia.media-imdb.com/images/M/MV5BMjI3OTE1NTI0MF5BMl5BanBnXkFtZTgwNzM0ODc3NjE@._V1._CR2,115,595,783_SY298_CR12,0,201,298_AL_.jpg",
         "id" : "r14",
         "comps" : [],
         "download" : {
            "receiveFirst" : 72,
            "len" : 13682,
            "dns" : 0,
            "dnsEnd" : -1,
            "receiveHeadersEnd" : 126,
            "sslEnd" : -1,
            "connectEnd" : 54,
            "connectStart" : 0,
            "id" : "download_11",
            "receivedTime" : "928.389999986393",
            "sslStart" : -1,
            "dnsStart" : -1,
            "receiveLast" : 802.389999986393,
            "s_time" : 656.156999990344,
            "sendEnd" : 54,
            "sendStart" : 54,
            "type" : "image/jpeg"
         }
      },
      {
         "when_comp_start" : -1,
         "url" : "http://original.testbed.localhost/ia.media-imdb.com/images/M/MV5BMjIxNDE1NDQ5M15BMl5BanBnXkFtZTgwODI2ODQ2NjE@._V1_SY298_CR0,0,201,298_AL_.jpg",
         "id" : "r15",
         "comps" : [],
         "download" : {
            "receiveFirst" : 66,
            "len" : 17590,
            "dns" : 0,
            "dnsEnd" : -1,
            "receiveHeadersEnd" : 160,
            "sslEnd" : -1,
            "connectEnd" : 93,
            "connectStart" : 0,
            "id" : "download_12",
            "receivedTime" : "936.751999979606",
            "sslStart" : -1,
            "dnsStart" : -1,
            "receiveLast" : 776.751999979606,
            "s_time" : 658.234000002267,
            "sendEnd" : 94,
            "sendStart" : 93,
            "type" : "image/jpeg"
         }
      },
      {
         "when_comp_start" : -1,
         "url" : "http://original.testbed.localhost/ia.media-imdb.com/images/M/MV5BMTU1OTUwMDQ4Ml5BMl5BanBnXkFtZTgwNjAxOTk3NjE@._V1._SY351_SX624_AL_.jpg",
         "id" : "r16",
         "comps" : [],
         "download" : {
            "receiveFirst" : 83,
            "len" : 27665,
            "dns" : 0,
            "dnsEnd" : -1,
            "receiveHeadersEnd" : 207,
            "sslEnd" : -1,
            "connectEnd" : 124,
            "connectStart" : 0,
            "id" : "download_13",
            "receivedTime" : "1002.33399998979",
            "sslStart" : -1,
            "dnsStart" : -1,
            "receiveLast" : 795.333999989787,
            "s_time" : 660.810999979731,
            "sendEnd" : 124,
            "sendStart" : 124,
            "type" : "image/jpeg"
         }
      },
      {
         "when_comp_start" : -1,
         "url" : "http://original.testbed.localhost/ia.media-imdb.com/images/M/MV5BMTA0NTM1ODYwMTFeQTJeQWpwZ15BbWU4MDY2NzE2NTEx._V1_SX201_CR0,0,201,201_AL_.jpg",
         "id" : "r17",
         "comps" : [],
         "download" : {
            "receiveFirst" : 76,
            "len" : 10716,
            "dns" : 0,
            "dnsEnd" : -1,
            "receiveHeadersEnd" : 210,
            "sslEnd" : -1,
            "connectEnd" : 133,
            "connectStart" : 0,
            "id" : "download_14",
            "receivedTime" : "935.958999994909",
            "sslStart" : -1,
            "dnsStart" : -1,
            "receiveLast" : 725.958999994909,
            "s_time" : 663.832999998704,
            "sendEnd" : 134,
            "sendStart" : 133,
            "type" : "image/jpeg"
         }
      },
      {
         "when_comp_start" : 1,
         "url" : "http://original.testbed.localhost/ia.media-imdb.com/images/G/01/imdb/html/twitter-3776329187._CB305760180_.html#{screen-name:IMDb,height:500px,width:300px}",
         "id" : "r52",
         "comps" : [
            {
               "s_time" : 990.187999996124,
               "time" : 2066.46800000454,
               "type" : "evalhtml",
               "id" : "r52_c1",
               "e_time" : 3056.65600000066
            }
         ],
         "download" : {
            "receiveFirst" : 60,
            "len" : 1716,
            "dns" : 0,
            "dnsEnd" : -1,
            "receiveHeadersEnd" : 105,
            "sslEnd" : -1,
            "connectEnd" : 45,
            "connectStart" : 0,
            "id" : "download_15",
            "receivedTime" : "939.253999997163",
            "sslStart" : -1,
            "dnsStart" : -1,
            "receiveLast" : 834.253999997163,
            "s_time" : 803.267999988748,
            "sendEnd" : 45,
            "sendStart" : 45,
            "type" : "text/html"
         }
      },
      {
         "when_comp_start" : 1,
         "url" : "http://original.testbed.localhost/ia.media-imdb.com/images/G/01/imdb/html/facebook-869486875._CB313935095_.html",
         "id" : "r53",
         "comps" : [
            {
               "s_time" : 1003.24999997974,
               "time" : 7.66000000295003,
               "type" : "evalhtml",
               "id" : "r53_c1",
               "e_time" : 1010.90999998269
            }
         ],
         "download" : {
            "receiveFirst" : 53,
            "len" : 840,
            "dns" : 0,
            "dnsEnd" : -1,
            "receiveHeadersEnd" : 126,
            "sslEnd" : -1,
            "connectEnd" : 73,
            "connectStart" : 0,
            "id" : "download_16",
            "receivedTime" : "963.149999995949",
            "sslStart" : -1,
            "dnsStart" : -1,
            "receiveLast" : 837.149999995949,
            "s_time" : 815.337999985786,
            "sendEnd" : 73,
            "sendStart" : 73,
            "type" : "text/html"
         }
      },
      {
         "when_comp_start" : -1,
         "url" : "http://original.testbed.localhost/ia.media-imdb.com/images/G/01/imdb/js/collections/pagelayout-2788217861._CB310738457_.js",
         "id" : "r55",
         "comps" : [
            {
               "s_time" : 1233.53499997756,
               "time" : 747.65100001242,
               "type" : null,
               "id" : "comp_35",
               "e_time" : 1981.18599998998
            }
         ],
         "download" : {
            "receiveFirst" : 63,
            "len" : 209610,
            "dns" : 0,
            "dnsEnd" : -1,
            "receiveHeadersEnd" : 116,
            "sslEnd" : -1,
            "connectEnd" : 53,
            "connectStart" : 0,
            "id" : "download_17",
            "receivedTime" : "1232.5589999964",
            "sslStart" : -1,
            "dnsStart" : -1,
            "receiveLast" : 1116.5589999964,
            "s_time" : 834.883999981685,
            "sendEnd" : 53,
            "sendStart" : 53,
            "type" : "application/javascript"
         }
      },
      {
         "when_comp_start" : -1,
         "url" : "http://original.testbed.localhost/ia.media-imdb.com/images/G/01/imdb/js/collections/starbarwidget-1773905456._CB310738452_.js",
         "id" : "r56",
         "comps" : [
            {
               "s_time" : 1981.67399998056,
               "time" : 10.0099999981401,
               "type" : 1,
               "id" : "comp_45",
               "e_time" : 1991.6839999787
            }
         ],
         "download" : {
            "receiveFirst" : 79,
            "len" : 6669,
            "dns" : 0,
            "dnsEnd" : -1,
            "receiveHeadersEnd" : 156,
            "sslEnd" : -1,
            "connectEnd" : 76,
            "connectStart" : 0,
            "id" : "download_18",
            "receivedTime" : "1014.05299999169",
            "sslStart" : -1,
            "dnsStart" : -1,
            "receiveLast" : 858.052999991691,
            "s_time" : 835.646999999881,
            "sendEnd" : 77,
            "sendStart" : 76,
            "type" : "application/javascript"
         }
      },
      {
         "when_comp_start" : -1,
         "url" : "http://original.testbed.localhost/ia.media-imdb.com/images/G/01/IMDb/icon/play-button-hover._CB318667374_.png",
         "id" : "r13",
         "comps" : [],
         "download" : {
            "receiveFirst" : 345,
            "len" : 1902,
            "dns" : 0,
            "dnsEnd" : -1,
            "receiveHeadersEnd" : 373,
            "sslEnd" : -1,
            "connectEnd" : 27,
            "connectStart" : 0,
            "id" : "download_19",
            "receivedTime" : "1045.76099998667",
            "sslStart" : -1,
            "dnsStart" : -1,
            "receiveLast" : 672.760999986669,
            "s_time" : 654.585999989649,
            "sendEnd" : 28,
            "sendStart" : 27,
            "type" : "image/png"
         }
      },
      {
         "when_comp_start" : -1,
         "url" : "http://original.testbed.localhost/ia.media-imdb.com/images/G/01/imdb/js/collections/watchlistButton-605951042._CB311976234_.js",
         "id" : "r57",
         "comps" : [
            {
               "s_time" : 1992.26299999282,
               "time" : 22.0039999985602,
               "type" : 1,
               "id" : "comp_48",
               "e_time" : 2014.26699999138
            }
         ],
         "download" : {
            "receiveFirst" : 89,
            "len" : 16548,
            "dns" : 0,
            "dnsEnd" : -1,
            "receiveHeadersEnd" : 197,
            "sslEnd" : -1,
            "connectEnd" : 108,
            "connectStart" : 0,
            "id" : "download_20",
            "receivedTime" : "1066.81799999205",
            "sslStart" : -1,
            "dnsStart" : -1,
            "receiveLast" : 869.817999992054,
            "s_time" : 836.135999998078,
            "sendEnd" : 108,
            "sendStart" : 108,
            "type" : "application/javascript"
         }
      },
      {
         "when_comp_start" : -1,
         "url" : "http://original.testbed.localhost/ia.media-imdb.com/images/G/01/imdb/js/collections/recommendations-3991510647._CB311976197_.js",
         "id" : "r58",
         "comps" : [
            {
               "s_time" : 2015.54799999576,
               "time" : 20.6609999877401,
               "type" : 1,
               "id" : "comp_51",
               "e_time" : 2036.2089999835
            }
         ],
         "download" : {
            "receiveFirst" : 89,
            "len" : 11356,
            "dns" : 0,
            "dnsEnd" : -1,
            "receiveHeadersEnd" : 227,
            "sslEnd" : -1,
            "connectEnd" : 137,
            "connectStart" : 0,
            "id" : "download_21",
            "receivedTime" : "1081.19199998328",
            "sslStart" : -1,
            "dnsStart" : -1,
            "receiveLast" : 854.191999983275,
            "s_time" : 836.562999989837,
            "sendEnd" : 138,
            "sendStart" : 137,
            "type" : "application/javascript"
         }
      },
      {
         "when_comp_start" : -1,
         "url" : "http://original.testbed.localhost/ia.media-imdb.com/images/M/MV5BMjEwMjgxNzA3MF5BMl5BanBnXkFtZTYwODg5OTA3._V1_SY201_CR51,0,201,201_AL_.jpg",
         "id" : "r18",
         "comps" : [],
         "download" : {
            "receiveFirst" : 79,
            "len" : 12578,
            "dns" : 0,
            "dnsEnd" : -1,
            "receiveHeadersEnd" : 411,
            "sslEnd" : -1,
            "connectEnd" : 332,
            "connectStart" : 0,
            "id" : "download_22",
            "receivedTime" : "1087.53900000011",
            "sslStart" : -1,
            "dnsStart" : -1,
            "receiveLast" : 676.539000000106,
            "s_time" : 665.296999999555,
            "sendEnd" : 332,
            "sendStart" : 332,
            "type" : "image/jpeg"
         }
      },
      {
         "when_comp_start" : -1,
         "url" : "http://original.testbed.localhost/platform.twitter.com/widgets.js",
         "id" : "r59",
         "comps" : [
            {
               "s_time" : 2749.64899997576,
               "time" : 306.73200002639,
               "type" : null,
               "id" : "comp_130",
               "e_time" : 3056.38100000215
            }
         ],
         "download" : {
            "receiveFirst" : 60,
            "len" : 134898,
            "dns" : 0,
            "dnsEnd" : -1,
            "receiveHeadersEnd" : 107,
            "sslEnd" : -1,
            "connectEnd" : 47,
            "connectStart" : 0,
            "id" : "download_23",
            "receivedTime" : "2749.06899998314",
            "sslStart" : -1,
            "dnsStart" : -1,
            "receiveLast" : 2642.06899998314,
            "s_time" : 999.40499998047,
            "sendEnd" : 47,
            "sendStart" : 47,
            "type" : "application/javascript"
         }
      },
      {
         "when_comp_start" : -1,
         "url" : "http://original.testbed.localhost/ia.media-imdb.com/images/M/MV5BNTcwMjg1MTA4OV5BMl5BanBnXkFtZTgwNjY3OTMyMTE@._V1_SY201_CR50,0,201,201_AL_.jpg",
         "id" : "r19",
         "comps" : [],
         "download" : {
            "receiveFirst" : 63,
            "len" : 11920,
            "dns" : 0,
            "dnsEnd" : -1,
            "receiveHeadersEnd" : 419,
            "sslEnd" : -1,
            "connectEnd" : 356,
            "connectStart" : 0,
            "id" : "download_24",
            "receivedTime" : "1147.26199998404",
            "sslStart" : -1,
            "dnsStart" : -1,
            "receiveLast" : 728.261999984039,
            "s_time" : 708.83099999628,
            "sendEnd" : 356,
            "sendStart" : 356,
            "type" : "image/jpeg"
         }
      },
      {
         "when_comp_start" : -1,
         "url" : "http://original.testbed.localhost/ia.media-imdb.com/images/M/MV5BMTU3NDc2ODc4MF5BMl5BanBnXkFtZTcwODk2MzAyMg@@._V1_SY150_CR0,0,101,150_AL_.jpg",
         "id" : "r20",
         "comps" : [],
         "download" : {
            "receiveFirst" : 81,
            "len" : 3926,
            "dns" : 0,
            "dnsEnd" : -1,
            "receiveHeadersEnd" : 414,
            "sslEnd" : -1,
            "connectEnd" : 333,
            "connectStart" : 0,
            "id" : "download_25",
            "receivedTime" : "1167.09899998386",
            "sslStart" : -1,
            "dnsStart" : -1,
            "receiveLast" : 753.098999983864,
            "s_time" : 749.87699999474,
            "sendEnd" : 333,
            "sendStart" : 333,
            "type" : "image/jpeg"
         }
      },
      {
         "when_comp_start" : -1,
         "url" : "http://original.testbed.localhost/ia.media-imdb.com/images/M/MV5BMjE0NTA2MTEwOV5BMl5BanBnXkFtZTgwNzg4NzU2NjE@._V1_SX101_AL_.jpg",
         "id" : "r21",
         "comps" : [],
         "download" : {
            "receiveFirst" : 91,
            "len" : 1771,
            "dns" : 0,
            "dnsEnd" : -1,
            "receiveHeadersEnd" : 399,
            "sslEnd" : -1,
            "connectEnd" : 308,
            "connectStart" : 0,
            "id" : "download_26",
            "receivedTime" : "1188.52199998219",
            "sslStart" : -1,
            "dnsStart" : -1,
            "receiveLast" : 789.521999982186,
            "s_time" : 782.134999986738,
            "sendEnd" : 308,
            "sendStart" : 308,
            "type" : "image/jpeg"
         }
      },
      {
         "when_comp_start" : -1,
         "url" : "http://original.testbed.localhost/ia.media-imdb.com/images/M/MV5BMTM0Nzc5ODkyM15BMl5BanBnXkFtZTcwOTczMTgxNw@@._V1_SY150_CR0,0,101,150_AL_.jpg",
         "id" : "r23",
         "comps" : [],
         "download" : {
            "receiveFirst" : 77,
            "len" : 3647,
            "dns" : 0,
            "dnsEnd" : -1,
            "receiveHeadersEnd" : 402,
            "sslEnd" : -1,
            "connectEnd" : 325,
            "connectStart" : 0,
            "id" : "download_27",
            "receivedTime" : "2746.77999998676",
            "sslStart" : -1,
            "dnsStart" : -1,
            "receiveLast" : 2344.77999998676,
            "s_time" : 845.778999995673,
            "sendEnd" : 325,
            "sendStart" : 325,
            "type" : "image/jpeg"
         }
      },
      {
         "when_comp_start" : -1,
         "url" : "http://original.testbed.localhost/ia.media-imdb.com/images/M/MV5BMTQ0Mjg4MjQ5OF5BMl5BanBnXkFtZTgwNTcwMDA4NjE@._V1_SX201_CR0,0,201,201_AL_.jpg",
         "id" : "r24",
         "comps" : [],
         "download" : {
            "receiveFirst" : 71,
            "len" : 10600,
            "dns" : 0,
            "dnsEnd" : -1,
            "receiveHeadersEnd" : 381,
            "sslEnd" : -1,
            "connectEnd" : 309,
            "connectStart" : 0,
            "id" : "download_28",
            "receivedTime" : "2748.36699999287",
            "sslStart" : -1,
            "dnsStart" : -1,
            "receiveLast" : 2367.36699999287,
            "s_time" : 883.238999987952,
            "sendEnd" : 310,
            "sendStart" : 309,
            "type" : "image/jpeg"
         }
      },
      {
         "when_comp_start" : -1,
         "url" : "http://original.testbed.localhost/ia.media-imdb.com/images/M/MV5BMTc5MTc0NjQ5MF5BMl5BanBnXkFtZTgwODU0NTc2NjE@._V1_SY150_CR9,0,101,150_AL_.jpg",
         "id" : "r22",
         "comps" : [],
         "download" : {
            "receiveFirst" : 146,
            "len" : 4682,
            "dns" : 0,
            "dnsEnd" : -1,
            "receiveHeadersEnd" : 502,
            "sslEnd" : -1,
            "connectEnd" : 356,
            "connectStart" : 0,
            "id" : "download_29",
            "receivedTime" : "3122.4209999782",
            "sslStart" : -1,
            "dnsStart" : -1,
            "receiveLast" : 2620.4209999782,
            "s_time" : 794.585999974515,
            "sendEnd" : 356,
            "sendStart" : 356,
            "type" : "image/jpeg"
         }
      },
      {
         "when_comp_start" : -1,
         "url" : "http://original.testbed.localhost/ia.media-imdb.com/images/M/MV5BMTUwMDYwMDA0OV5BMl5BanBnXkFtZTgwNDg2OTk3NjE@._V1_SY201_CR47,0,201,201_AL_.jpg",
         "id" : "r25",
         "comps" : [],
         "download" : {
            "receiveFirst" : 70,
            "len" : 14118,
            "dns" : 0,
            "dnsEnd" : -1,
            "receiveHeadersEnd" : 421,
            "sslEnd" : -1,
            "connectEnd" : 351,
            "connectStart" : 0,
            "id" : "download_30",
            "receivedTime" : "3132.67500000075",
            "sslStart" : -1,
            "dnsStart" : -1,
            "receiveLast" : 2711.67500000075,
            "s_time" : 886.367999977665,
            "sendEnd" : 351,
            "sendStart" : 351,
            "type" : "image/jpeg"
         }
      },
      {
         "when_comp_start" : -1,
         "url" : "http://original.testbed.localhost/ia.media-imdb.com/images/M/MV5BMjM4MTM5NzM1OV5BMl5BanBnXkFtZTgwNjM0MTk3NjE@._V1_SX201_CR0,0,201,201_AL_.jpg",
         "id" : "r26",
         "comps" : [],
         "download" : {
            "receiveFirst" : 55,
            "len" : 9983,
            "dns" : 0,
            "dnsEnd" : -1,
            "receiveHeadersEnd" : 341,
            "sslEnd" : -1,
            "connectEnd" : 285,
            "connectStart" : 0,
            "id" : "download_31",
            "receivedTime" : "3125.77799998689",
            "sslStart" : -1,
            "dnsStart" : -1,
            "receiveLast" : 2784.77799998689,
            "s_time" : 976.897999993525,
            "sendEnd" : 286,
            "sendStart" : 285,
            "type" : "image/jpeg"
         }
      },
      {
         "when_comp_start" : -1,
         "url" : "http://original.testbed.localhost/ia.media-imdb.com/images/M/MV5BMTQ3ODEyNjA4Nl5BMl5BanBnXkFtZTgwMTE4ODMyMjE@._V1_SX116_CR0,0,116,172_AL_.jpg",
         "id" : "r27",
         "comps" : [],
         "download" : {
            "receiveFirst" : 64,
            "len" : 3302,
            "dns" : 0,
            "dnsEnd" : -1,
            "receiveHeadersEnd" : 299,
            "sslEnd" : -1,
            "connectEnd" : 235,
            "connectStart" : 0,
            "id" : "download_32",
            "receivedTime" : "3131.20999999228",
            "sslStart" : -1,
            "dnsStart" : -1,
            "receiveLast" : 2832.20999999228,
            "s_time" : 1044.43300000275,
            "sendEnd" : 235,
            "sendStart" : 235,
            "type" : "image/jpeg"
         }
      },
      {
         "when_comp_start" : -1,
         "url" : "http://original.testbed.localhost/ia.media-imdb.com/images/M/MV5BMTM4ODU2OTU5M15BMl5BanBnXkFtZTgwMzE4NzUwMDE@._V1_SY172_CR28,0,116,172_AL_.jpg",
         "id" : "r28",
         "comps" : [],
         "download" : {
            "receiveFirst" : 61,
            "len" : 4017,
            "dns" : 0,
            "dnsEnd" : -1,
            "receiveHeadersEnd" : 260,
            "sslEnd" : -1,
            "connectEnd" : 199,
            "connectStart" : 0,
            "id" : "download_33",
            "receivedTime" : "3132.18699998106",
            "sslStart" : -1,
            "dnsStart" : -1,
            "receiveLast" : 2872.18699998106,
            "s_time" : 1087.69099999336,
            "sendEnd" : 199,
            "sendStart" : 199,
            "type" : "image/jpeg"
         }
      },
      {
         "when_comp_start" : -1,
         "url" : "http://original.testbed.localhost/ia.media-imdb.com/images/M/MV5BMTkyNjc4MDc0OV5BMl5BanBnXkFtZTcwOTc5OTUwOQ@@._V1_SX116_CR0,0,116,172_AL_.jpg",
         "id" : "r29",
         "comps" : [],
         "download" : {
            "receiveFirst" : 76,
            "len" : 5616,
            "dns" : 0,
            "dnsEnd" : -1,
            "receiveHeadersEnd" : 236,
            "sslEnd" : -1,
            "connectEnd" : 160,
            "connectStart" : 0,
            "id" : "download_34",
            "receivedTime" : "3134.04799997807",
            "sslStart" : -1,
            "dnsStart" : -1,
            "receiveLast" : 2898.04799997807,
            "s_time" : 1148.58999999706,
            "sendEnd" : 160,
            "sendStart" : 160,
            "type" : "image/jpeg"
         }
      },
      {
         "when_comp_start" : -1,
         "url" : "http://original.testbed.localhost/ia.media-imdb.com/images/M/MV5BMTMyNjE3NDU3OV5BMl5BanBnXkFtZTcwMDI2NzU3MQ@@._V1_SX116_CR0,0,116,172_AL_.jpg",
         "id" : "r30",
         "comps" : [],
         "download" : {
            "receiveFirst" : 65,
            "len" : 6040,
            "dns" : 0,
            "dnsEnd" : -1,
            "receiveHeadersEnd" : 230,
            "sslEnd" : -1,
            "connectEnd" : 165,
            "connectStart" : 0,
            "id" : "download_35",
            "receivedTime" : "3135.32999999006",
            "sslStart" : -1,
            "dnsStart" : -1,
            "receiveLast" : 2905.32999999006,
            "s_time" : 1167.66300000018,
            "sendEnd" : 165,
            "sendStart" : 165,
            "type" : "image/jpeg"
         }
      },
      {
         "when_comp_start" : -1,
         "url" : "http://original.testbed.localhost/ia.media-imdb.com/images/M/MV5BMTI0MzIwMzc0OV5BMl5BanBnXkFtZTYwNTEwMTk0._V1_SX116_CR0,0,116,172_AL_.jpg",
         "id" : "r31",
         "comps" : [],
         "download" : {
            "receiveFirst" : 68,
            "len" : 5849,
            "dns" : 0,
            "dnsEnd" : -1,
            "receiveHeadersEnd" : 234,
            "sslEnd" : -1,
            "connectEnd" : 166,
            "connectStart" : 0,
            "id" : "download_36",
            "receivedTime" : "3137.19099998707",
            "sslStart" : -1,
            "dnsStart" : -1,
            "receiveLast" : 2903.19099998707,
            "s_time" : 1189.90999998641,
            "sendEnd" : 166,
            "sendStart" : 166,
            "type" : "image/jpeg"
         }
      },
      {
         "when_comp_start" : -1,
         "url" : "http://original.testbed.localhost/ia.media-imdb.com/images/M/MV5BMTc2NzQyNTA2MF5BMl5BanBnXkFtZTgwMDQ0ODc3NjE@._V1_SY201_CR50,0,201,201_AL_.jpg",
         "id" : "r32",
         "comps" : [],
         "download" : {
            "receiveFirst" : 64,
            "len" : 10804,
            "dns" : 0,
            "dnsEnd" : -1,
            "receiveHeadersEnd" : 171,
            "sslEnd" : -1,
            "connectEnd" : 107,
            "connectStart" : 0,
            "id" : "download_37",
            "receivedTime" : "3138.01499997498",
            "sslStart" : -1,
            "dnsStart" : -1,
            "receiveLast" : 2967.01499997498,
            "s_time" : 1259.79599999846,
            "sendEnd" : 107,
            "sendStart" : 107,
            "type" : "image/jpeg"
         }
      },
      {
         "when_comp_start" : -1,
         "url" : "http://original.testbed.localhost/ia.media-imdb.com/images/M/MV5BMjI3OTE1NTI0MF5BMl5BanBnXkFtZTgwNzM0ODc3NjE@._V1._CR2,115,595,783_SX201_CR0,0,201,201_AL_.jpg",
         "id" : "r33",
         "comps" : [],
         "download" : {
            "receiveFirst" : 93,
            "len" : 10085,
            "dns" : 0,
            "dnsEnd" : -1,
            "receiveHeadersEnd" : 184,
            "sslEnd" : -1,
            "connectEnd" : 91,
            "connectStart" : 0,
            "id" : "download_38",
            "receivedTime" : "3139.96899998165",
            "sslStart" : -1,
            "dnsStart" : -1,
            "receiveLast" : 2955.96899998165,
            "s_time" : 1277.17600000324,
            "sendEnd" : 91,
            "sendStart" : 91,
            "type" : "image/jpeg"
         }
      },
      {
         "when_comp_start" : -1,
         "url" : "http://original.testbed.localhost/ia.media-imdb.com/images/M/MV5BNzU4ODgyMjEyM15BMl5BanBnXkFtZTgwMjQ0ODc3NjE@._V1_SY201_CR50,0,201,201_AL_.jpg",
         "id" : "r34",
         "comps" : [],
         "download" : {
            "receiveFirst" : 71,
            "len" : 12603,
            "dns" : 0,
            "dnsEnd" : -1,
            "receiveHeadersEnd" : 164,
            "sslEnd" : -1,
            "connectEnd" : 93,
            "connectStart" : 0,
            "id" : "download_39",
            "receivedTime" : "3147.87299997988",
            "sslStart" : -1,
            "dnsStart" : -1,
            "receiveLast" : 2983.87299997988,
            "s_time" : 1305.72499998379,
            "sendEnd" : 93,
            "sendStart" : 93,
            "type" : "image/jpeg"
         }
      },
      {
         "when_comp_start" : -1,
         "url" : "http://original.testbed.localhost/ia.media-imdb.com/images/M/MV5BNzM3NjI5MDgxOF5BMl5BanBnXkFtZTgwNzYwODA1NjE@._V1_SY201_CR50,0,201,201_AL_.jpg",
         "id" : "r35",
         "comps" : [],
         "download" : {
            "receiveFirst" : 86,
            "len" : 13032,
            "dns" : 0,
            "dnsEnd" : -1,
            "receiveHeadersEnd" : 163,
            "sslEnd" : -1,
            "connectEnd" : 77,
            "connectStart" : 0,
            "id" : "download_40",
            "receivedTime" : "3143.35599998594",
            "sslStart" : -1,
            "dnsStart" : -1,
            "receiveLast" : 2980.35599998594,
            "s_time" : 1330.01700000023,
            "sendEnd" : 77,
            "sendStart" : 77,
            "type" : "image/jpeg"
         }
      },
      {
         "when_comp_start" : -1,
         "url" : "http://original.testbed.localhost/ia.media-imdb.com/images/M/MV5BNjgyMjQzODA0OF5BMl5BanBnXkFtZTgwMTE4MjA3NjE@._V1_SY201_CR50,0,201,201_AL_.jpg",
         "id" : "r36",
         "comps" : [],
         "download" : {
            "receiveFirst" : 75,
            "len" : 8172,
            "dns" : 0,
            "dnsEnd" : -1,
            "receiveHeadersEnd" : 160,
            "sslEnd" : -1,
            "connectEnd" : 84,
            "connectStart" : 0,
            "id" : "download_41",
            "receivedTime" : "3145.33999998821",
            "sslStart" : -1,
            "dnsStart" : -1,
            "receiveLast" : 2985.33999998821,
            "s_time" : 1353.23999999673,
            "sendEnd" : 85,
            "sendStart" : 84,
            "type" : "image/jpeg"
         }
      },
      {
         "when_comp_start" : -1,
         "url" : "http://original.testbed.localhost/ia.media-imdb.com/images/M/MV5BMTU3OTk1NDgyOV5BMl5BanBnXkFtZTgwMjE5NTc2NjE@._V1_SX201_CR0,0,201,201_AL_.jpg",
         "id" : "r37",
         "comps" : [],
         "download" : {
            "receiveFirst" : 67,
            "len" : 14575,
            "dns" : 0,
            "dnsEnd" : -1,
            "receiveHeadersEnd" : 164,
            "sslEnd" : -1,
            "connectEnd" : 97,
            "connectStart" : 0,
            "id" : "download_42",
            "receivedTime" : "3148.7269999925",
            "sslStart" : -1,
            "dnsStart" : -1,
            "receiveLast" : 2984.7269999925,
            "s_time" : 1360.82400000305,
            "sendEnd" : 97,
            "sendStart" : 97,
            "type" : "image/jpeg"
         }
      },
      {
         "when_comp_start" : -1,
         "url" : "http://original.testbed.localhost/ia.media-imdb.com/images/M/MV5BMTUwMzAyMjgyNV5BMl5BanBnXkFtZTgwOTU3ODUzNjE@._V1_SY172_CR0,0,116,172_AL_.jpg",
         "id" : "r38",
         "comps" : [],
         "download" : {
            "receiveFirst" : 76,
            "len" : 3817,
            "dns" : 0,
            "dnsEnd" : -1,
            "receiveHeadersEnd" : 193,
            "sslEnd" : -1,
            "connectEnd" : 117,
            "connectStart" : 0,
            "id" : "download_43",
            "receivedTime" : "3150.67999999155",
            "sslStart" : -1,
            "dnsStart" : -1,
            "receiveLast" : 2957.67999999155,
            "s_time" : 1365.29499999597,
            "sendEnd" : 117,
            "sendStart" : 117,
            "type" : "image/jpeg"
         }
      },
      {
         "when_comp_start" : -1,
         "url" : "http://original.testbed.localhost/ia.media-imdb.com/images/G/01/IMDb/icon/external-button._CB304896345_.png",
         "id" : "r39",
         "comps" : [],
         "download" : {
            "receiveFirst" : 66,
            "len" : 637,
            "dns" : 0,
            "dnsEnd" : -1,
            "receiveHeadersEnd" : 174,
            "sslEnd" : -1,
            "connectEnd" : 108,
            "connectStart" : 0,
            "id" : "download_44",
            "receivedTime" : "3152.11499997531",
            "sslStart" : -1,
            "dnsStart" : -1,
            "receiveLast" : 2978.11499997531,
            "s_time" : 1395.27899998939,
            "sendEnd" : 108,
            "sendStart" : 108,
            "type" : "image/png"
         }
      },
      {
         "when_comp_start" : -1,
         "url" : "http://original.testbed.localhost/ia.media-imdb.com/images/G/01/IMDb/icon/external-button-hover._CB304896345_.png",
         "id" : "r40",
         "comps" : [],
         "download" : {
            "receiveFirst" : 55,
            "len" : 631,
            "dns" : 0,
            "dnsEnd" : -1,
            "receiveHeadersEnd" : 176,
            "sslEnd" : -1,
            "connectEnd" : 121,
            "connectStart" : 0,
            "id" : "download_45",
            "receivedTime" : "3153.9150000026",
            "sslStart" : -1,
            "dnsStart" : -1,
            "receiveLast" : 2977.9150000026,
            "s_time" : 1405.05799997482,
            "sendEnd" : 121,
            "sendStart" : 121,
            "type" : "image/png"
         }
      },
      {
         "when_comp_start" : -1,
         "url" : "http://original.testbed.localhost/ia.media-imdb.com/images/M/MV5BMTQ0MjQ3MTY3OF5BMl5BanBnXkFtZTgwMjg2MjQ5NTE@._V1_SY172_CR0,0,116,172_AL_.jpg",
         "id" : "r41",
         "comps" : [],
         "download" : {
            "receiveFirst" : 53,
            "len" : 5647,
            "dns" : 0,
            "dnsEnd" : -1,
            "receiveHeadersEnd" : 163,
            "sslEnd" : -1,
            "connectEnd" : 109,
            "connectStart" : 0,
            "id" : "download_46",
            "receivedTime" : "3156.60099999513",
            "sslStart" : -1,
            "dnsStart" : -1,
            "receiveLast" : 2993.60099999513,
            "s_time" : 1435.95799998729,
            "sendEnd" : 110,
            "sendStart" : 109,
            "type" : "image/jpeg"
         }
      },
      {
         "when_comp_start" : -1,
         "url" : "http://original.testbed.localhost/ia.media-imdb.com/images/M/MV5BMjAzMzMxMDI0NF5BMl5BanBnXkFtZTgwNDE5NDExMzE@._V1_SY172_CR2,0,116,172_AL_.jpg",
         "id" : "r42",
         "comps" : [],
         "download" : {
            "receiveFirst" : 68,
            "len" : 7497,
            "dns" : 0,
            "dnsEnd" : -1,
            "receiveHeadersEnd" : 164,
            "sslEnd" : -1,
            "connectEnd" : 96,
            "connectStart" : 0,
            "id" : "download_47",
            "receivedTime" : "3158.55399999418",
            "sslStart" : -1,
            "dnsStart" : -1,
            "receiveLast" : 2994.55399999418,
            "s_time" : 1450.46999998158,
            "sendEnd" : 96,
            "sendStart" : 96,
            "type" : "image/jpeg"
         }
      },
      {
         "when_comp_start" : -1,
         "url" : "http://original.testbed.localhost/ia.media-imdb.com/images/M/MV5BMTkyOTkxOTc1MF5BMl5BanBnXkFtZTgwODAwODQ2NjE@._V1_SY172_CR0,0,116,172_AL_.jpg",
         "id" : "r43",
         "comps" : [],
         "download" : {
            "receiveFirst" : 59,
            "len" : 7332,
            "dns" : 0,
            "dnsEnd" : -1,
            "receiveHeadersEnd" : 153,
            "sslEnd" : -1,
            "connectEnd" : 94,
            "connectStart" : 0,
            "id" : "download_48",
            "receivedTime" : "3163.46699997666",
            "sslStart" : -1,
            "dnsStart" : -1,
            "receiveLast" : 3010.46699997666,
            "s_time" : 1477.05099999439,
            "sendEnd" : 94,
            "sendStart" : 94,
            "type" : "image/jpeg"
         }
      },
      {
         "when_comp_start" : -1,
         "url" : "http://original.testbed.localhost/ia.media-imdb.com/images/M/MV5BNTEyNjk5MzUxNl5BMl5BanBnXkFtZTgwODU4MjUzNTE@._V1_SY172_CR1,0,116,172_AL_.jpg",
         "id" : "r44",
         "comps" : [],
         "download" : {
            "receiveFirst" : 61,
            "len" : 7536,
            "dns" : 0,
            "dnsEnd" : -1,
            "receiveHeadersEnd" : 136,
            "sslEnd" : -1,
            "connectEnd" : 74,
            "connectStart" : 0,
            "id" : "download_49",
            "receivedTime" : "3165.38999998011",
            "sslStart" : -1,
            "dnsStart" : -1,
            "receiveLast" : 3029.38999998011,
            "s_time" : 1500.56399998721,
            "sendEnd" : 75,
            "sendStart" : 74,
            "type" : "image/jpeg"
         }
      },
      {
         "when_comp_start" : -1,
         "url" : "http://original.testbed.localhost/ia.media-imdb.com/images/M/MV5BMzk2MDg5MDczMl5BMl5BanBnXkFtZTgwNTE2NjYyNjE@._V1_SY132_CR0,0,89,132_AL_.jpg",
         "id" : "r45",
         "comps" : [],
         "download" : {
            "receiveFirst" : 64,
            "len" : 5757,
            "dns" : 0,
            "dnsEnd" : -1,
            "receiveHeadersEnd" : 125,
            "sslEnd" : -1,
            "connectEnd" : 60,
            "connectStart" : 0,
            "id" : "download_50",
            "receivedTime" : "3167.34299997916",
            "sslStart" : -1,
            "dnsStart" : -1,
            "receiveLast" : 3042.34299997916,
            "s_time" : 1524.53599998262,
            "sendEnd" : 61,
            "sendStart" : 60,
            "type" : "image/jpeg"
         }
      },
      {
         "when_comp_start" : -1,
         "url" : "http://original.testbed.localhost/ia.media-imdb.com/images/M/MV5BMTY2NDY3OTk3NF5BMl5BanBnXkFtZTgwODE2MjI1NjE@._V1_SX140_CR0,0,140,207_AL_.jpg",
         "id" : "r46",
         "comps" : [],
         "download" : {
            "receiveFirst" : 53,
            "len" : 3295,
            "dns" : 0,
            "dnsEnd" : -1,
            "receiveHeadersEnd" : 121,
            "sslEnd" : -1,
            "connectEnd" : 67,
            "connectStart" : 0,
            "id" : "download_51",
            "receivedTime" : "3168.7769999844",
            "sslStart" : -1,
            "dnsStart" : -1,
            "receiveLast" : 3047.7769999844,
            "s_time" : 1538.45199997886,
            "sendEnd" : 68,
            "sendStart" : 67,
            "type" : "image/jpeg"
         }
      },
      {
         "when_comp_start" : -1,
         "url" : "http://original.testbed.localhost/ia.media-imdb.com/images/M/MV5BMjAxMDg2NTc4OV5BMl5BanBnXkFtZTgwNTI2NTIzNjE@._V1_SY207_CR13,0,140,207_AL_.jpg",
         "id" : "r47",
         "comps" : [],
         "download" : {
            "receiveFirst" : 53,
            "len" : 10511,
            "dns" : 0,
            "dnsEnd" : -1,
            "receiveHeadersEnd" : 128,
            "sslEnd" : -1,
            "connectEnd" : 75,
            "connectStart" : 0,
            "id" : "download_52",
            "receivedTime" : "3171.49300000165",
            "sslStart" : -1,
            "dnsStart" : -1,
            "receiveLast" : 3043.49300000165,
            "s_time" : 1542.83099999884,
            "sendEnd" : 75,
            "sendStart" : 75,
            "type" : "image/jpeg"
         }
      },
      {
         "when_comp_start" : -1,
         "url" : "http://original.testbed.localhost/ia.media-imdb.com/images/M/MV5BMTg3NTc5NTc2N15BMl5BanBnXkFtZTgwNTIzMDYxMjE@._V1_SX140_CR0,0,140,207_AL_.jpg",
         "id" : "r48",
         "comps" : [],
         "download" : {
            "receiveFirst" : 55,
            "len" : 8023,
            "dns" : 0,
            "dnsEnd" : -1,
            "receiveHeadersEnd" : 121,
            "sslEnd" : -1,
            "connectEnd" : 66,
            "connectStart" : 0,
            "id" : "download_53",
            "receivedTime" : "3173.75099999481",
            "sslStart" : -1,
            "dnsStart" : -1,
            "receiveLast" : 3052.75099999481,
            "s_time" : 1567.79400000232,
            "sendEnd" : 66,
            "sendStart" : 66,
            "type" : "image/jpeg"
         }
      },
      {
         "when_comp_start" : -1,
         "url" : "http://original.testbed.localhost/ia.media-imdb.com/images/M/MV5BMTgwNzUyNjUxNF5BMl5BanBnXkFtZTgwMzgyNjE4MTE@._V1_SY207_CR7,0,140,207_AL_.jpg",
         "id" : "r49",
         "comps" : [],
         "download" : {
            "receiveFirst" : 58,
            "len" : 9885,
            "dns" : 0,
            "dnsEnd" : -1,
            "receiveHeadersEnd" : 130,
            "sslEnd" : -1,
            "connectEnd" : 71,
            "connectStart" : 0,
            "id" : "download_54",
            "receivedTime" : "3176.3149999897",
            "sslStart" : -1,
            "dnsStart" : -1,
            "receiveLast" : 3046.3149999897,
            "s_time" : 1573.25699998182,
            "sendEnd" : 72,
            "sendStart" : 71,
            "type" : "image/jpeg"
         }
      },
      {
         "when_comp_start" : -1,
         "url" : "http://original.testbed.localhost/ia.media-imdb.com/images/M/MV5BNzg0NTE4NjMwN15BMl5BanBnXkFtZTgwOTY3NTc2NjE@._V1_SX140_CR0,0,140,207_AL_.jpg",
         "id" : "r50",
         "comps" : [],
         "download" : {
            "receiveFirst" : 67,
            "len" : 10338,
            "dns" : 0,
            "dnsEnd" : -1,
            "receiveHeadersEnd" : 139,
            "sslEnd" : -1,
            "connectEnd" : 72,
            "connectStart" : 0,
            "id" : "download_55",
            "receivedTime" : "3178.87799997698",
            "sslStart" : -1,
            "dnsStart" : -1,
            "receiveLast" : 3039.87799997698,
            "s_time" : 1583.70899999863,
            "sendEnd" : 72,
            "sendStart" : 72,
            "type" : "image/jpeg"
         }
      },
      {
         "when_comp_start" : -1,
         "url" : "http://original.testbed.localhost/ia.media-imdb.com/images/M/MV5BMTQ4MjA3MzUwOF5BMl5BanBnXkFtZTgwNDU1MjMxNjE@._V1_CR0,255,600,337_AL_.jpg",
         "id" : "r51",
         "comps" : [],
         "download" : {
            "receiveFirst" : 77,
            "len" : 14024,
            "dns" : 0,
            "dnsEnd" : -1,
            "receiveHeadersEnd" : 134,
            "sslEnd" : -1,
            "connectEnd" : 57,
            "connectStart" : 0,
            "id" : "download_56",
            "receivedTime" : "3183.73099999735",
            "sslStart" : -1,
            "dnsStart" : -1,
            "receiveLast" : 3049.73099999735,
            "s_time" : 1604.68999997829,
            "sendEnd" : 57,
            "sendStart" : 57,
            "type" : "image/jpeg"
         }
      },
      {
         "when_comp_start" : -1,
         "url" : "http://original.testbed.localhost/ia.media-imdb.com/images/M/MV5BMTU2MjE2MTk0MV5BMl5BanBnXkFtZTgwMzQ0OTc5MjE@._V1_.jpg",
         "id" : "r54",
         "comps" : [],
         "download" : {
            "receiveFirst" : 71,
            "len" : 38009,
            "dns" : 0,
            "dnsEnd" : -1,
            "receiveHeadersEnd" : 139,
            "sslEnd" : -1,
            "connectEnd" : 68,
            "connectStart" : 0,
            "id" : "download_57",
            "receivedTime" : "3304.82399999164",
            "sslStart" : -1,
            "dnsStart" : -1,
            "receiveLast" : 3165.82399999164,
            "s_time" : 1617.61399998795,
            "sendEnd" : 68,
            "sendStart" : 68,
            "type" : "image/jpeg"
         }
      },
      {
         "when_comp_start" : -1,
         "url" : "http://original.testbed.localhost/ia.media-imdb.com/images/G/01/imdb/images/lb/overlay-1511558127._V_.png",
         "id" : "r61",
         "comps" : [],
         "download" : {
            "receiveFirst" : 52,
            "len" : 47963,
            "dns" : 0,
            "dnsEnd" : -1,
            "receiveHeadersEnd" : 56,
            "sslEnd" : -1,
            "connectEnd" : 4,
            "connectStart" : 0,
            "id" : "download_58",
            "receivedTime" : "3333.54199997848",
            "sslStart" : -1,
            "dnsStart" : -1,
            "receiveLast" : 3277.54199997848,
            "s_time" : 2160.61299998546,
            "sendEnd" : 4,
            "sendStart" : 4,
            "type" : "image/png"
         }
      },
      {
         "when_comp_start" : 1,
         "url" : "http://original.testbed.localhost/widget/recommendations/recs",
         "id" : "r62",
         "comps" : [],
         "download" : {
            "receiveFirst" : 55,
            "len" : 317,
            "dns" : 0,
            "dnsEnd" : -1,
            "receiveHeadersEnd" : 56,
            "sslEnd" : -1,
            "connectEnd" : 1,
            "connectStart" : 0,
            "id" : "download_59",
            "receivedTime" : "3310.37900000229",
            "sslStart" : -1,
            "dnsStart" : -1,
            "receiveLast" : 3254.37900000229,
            "s_time" : 2222.57899999386,
            "sendEnd" : 1,
            "sendStart" : 1,
            "type" : "text/html"
         }
      },
      {
         "when_comp_start" : -1,
         "url" : "http://original.testbed.localhost/ia.media-imdb.com/images/G/01/imdb/images/jquery/plugins/watchlist-ribbon-sprite-lg-1908872411._V_.png",
         "id" : "r63",
         "comps" : [],
         "download" : {
            "receiveFirst" : 53,
            "len" : 2393,
            "dns" : 0,
            "dnsEnd" : -1,
            "receiveHeadersEnd" : 57,
            "sslEnd" : -1,
            "connectEnd" : 4,
            "connectStart" : 0,
            "id" : "download_60",
            "receivedTime" : "3331.37499997974",
            "sslStart" : -1,
            "dnsStart" : -1,
            "receiveLast" : 3274.37499997974,
            "s_time" : 2299.22399998759,
            "sendEnd" : 4,
            "sendStart" : 4,
            "type" : "image/png"
         }
      }
   ],
   "deps" : [
      {
         "a2" : "r1_c2",
         "time" : -1,
         "id" : "dep1",
         "a1" : "comp_45"
      },
      {
         "a2" : "r1_c3",
         "time" : -1,
         "id" : "dep2",
         "a1" : "comp_48"
      },
      {
         "a2" : "r1_c4",
         "time" : -1,
         "id" : "dep3",
         "a1" : "comp_51"
      },
      {
         "a2" : "comp_48",
         "time" : -1,
         "id" : "dep4",
         "a1" : "comp_45"
      },
      {
         "a2" : "comp_51",
         "time" : -1,
         "id" : "dep5",
         "a1" : "comp_48"
      },
      {
         "a2" : "download_60",
         "time" : 1309.03599999147,
         "id" : "dep6",
         "a1" : "r52_c1"
      },
      {
         "a2" : "download_60",
         "time" : 263.01500000409,
         "id" : "dep7",
         "a1" : "r1_c4"
      },
      {
         "a2" : "download_59",
         "time" : 1232.39099999774,
         "id" : "dep8",
         "a1" : "r52_c1"
      },
      {
         "a2" : "download_59",
         "time" : 186.37000001036,
         "id" : "dep9",
         "a1" : "r1_c4"
      },
      {
         "a2" : "download_58",
         "time" : 1170.42499998934,
         "id" : "dep10",
         "a1" : "r52_c1"
      },
      {
         "a2" : "download_58",
         "time" : 124.40400000196,
         "id" : "dep11",
         "a1" : "r1_c4"
      },
      {
         "a2" : "download_57",
         "time" : 384.07900001039,
         "id" : "dep12",
         "a1" : "comp_35"
      },
      {
         "a2" : "download_56",
         "time" : 371.15500000073,
         "id" : "dep13",
         "a1" : "comp_35"
      },
      {
         "a2" : "download_55",
         "time" : 350.17400002107,
         "id" : "dep14",
         "a1" : "comp_35"
      },
      {
         "a2" : "download_54",
         "time" : 339.72200000426,
         "id" : "dep15",
         "a1" : "comp_35"
      },
      {
         "a2" : "download_53",
         "time" : 334.25900002476,
         "id" : "dep16",
         "a1" : "comp_35"
      },
      {
         "a2" : "download_52",
         "time" : 309.29600002128,
         "id" : "dep17",
         "a1" : "comp_35"
      },
      {
         "a2" : "download_51",
         "time" : 304.9170000013,
         "id" : "dep18",
         "a1" : "comp_35"
      },
      {
         "a2" : "download_50",
         "time" : 291.00100000506,
         "id" : "dep19",
         "a1" : "comp_35"
      },
      {
         "a2" : "download_49",
         "time" : 267.02900000965,
         "id" : "dep20",
         "a1" : "comp_35"
      },
      {
         "a2" : "download_48",
         "time" : 243.51600001683,
         "id" : "dep21",
         "a1" : "comp_35"
      },
      {
         "a2" : "download_47",
         "time" : 216.93500000402,
         "id" : "dep22",
         "a1" : "comp_35"
      },
      {
         "a2" : "download_46",
         "time" : 202.42300000973,
         "id" : "dep23",
         "a1" : "comp_35"
      },
      {
         "a2" : "download_45",
         "time" : 171.52299999726,
         "id" : "dep24",
         "a1" : "comp_35"
      },
      {
         "a2" : "download_44",
         "time" : 161.74400001183,
         "id" : "dep25",
         "a1" : "comp_35"
      },
      {
         "a2" : "download_43",
         "time" : 131.76000001841,
         "id" : "dep26",
         "a1" : "comp_35"
      },
      {
         "a2" : "download_42",
         "time" : 127.28900002549,
         "id" : "dep27",
         "a1" : "comp_35"
      },
      {
         "a2" : "download_41",
         "time" : 119.70500001917,
         "id" : "dep28",
         "a1" : "comp_35"
      },
      {
         "a2" : "download_40",
         "time" : 96.48200002267,
         "id" : "dep29",
         "a1" : "comp_35"
      },
      {
         "a2" : "download_39",
         "time" : 72.1900000062301,
         "id" : "dep30",
         "a1" : "comp_35"
      },
      {
         "a2" : "download_38",
         "time" : 43.6410000256801,
         "id" : "dep31",
         "a1" : "comp_35"
      },
      {
         "a2" : "download_37",
         "time" : 26.2610000209002,
         "id" : "dep32",
         "a1" : "comp_35"
      },
      {
         "a2" : "download_36",
         "time" : 199.721999990286,
         "id" : "dep33",
         "a1" : "r52_c1"
      },
      {
         "a2" : "download_36",
         "time" : -1,
         "id" : "dep34",
         "a1" : "r1_c1"
      },
      {
         "a2" : "download_35",
         "time" : 177.475000004056,
         "id" : "dep35",
         "a1" : "r52_c1"
      },
      {
         "a2" : "download_35",
         "time" : 970.749000000074,
         "id" : "dep36",
         "a1" : "r1_c1"
      },
      {
         "a2" : "download_34",
         "time" : 158.402000000936,
         "id" : "dep37",
         "a1" : "r52_c1"
      },
      {
         "a2" : "download_34",
         "time" : 951.675999996954,
         "id" : "dep38",
         "a1" : "r1_c1"
      },
      {
         "a2" : "download_33",
         "time" : 97.5029999972361,
         "id" : "dep39",
         "a1" : "r52_c1"
      },
      {
         "a2" : "download_33",
         "time" : 890.776999993254,
         "id" : "dep40",
         "a1" : "r1_c1"
      },
      {
         "a2" : "download_32",
         "time" : 54.2450000066261,
         "id" : "dep41",
         "a1" : "r52_c1"
      },
      {
         "a2" : "download_32",
         "time" : 847.519000002644,
         "id" : "dep42",
         "a1" : "r1_c1"
      },
      {
         "a2" : "download_31",
         "time" : 779.983999993419,
         "id" : "dep43",
         "a1" : "r1_c1"
      },
      {
         "a2" : "download_30",
         "time" : 689.453999977559,
         "id" : "dep44",
         "a1" : "r1_c1"
      },
      {
         "a2" : "download_29",
         "time" : 597.671999974409,
         "id" : "dep45",
         "a1" : "r1_c1"
      },
      {
         "a2" : "download_28",
         "time" : 686.324999987846,
         "id" : "dep46",
         "a1" : "r1_c1"
      },
      {
         "a2" : "download_27",
         "time" : 648.864999995567,
         "id" : "dep47",
         "a1" : "r1_c1"
      },
      {
         "a2" : "download_26",
         "time" : 585.220999986632,
         "id" : "dep48",
         "a1" : "r1_c1"
      },
      {
         "a2" : "download_25",
         "time" : 552.962999994634,
         "id" : "dep49",
         "a1" : "r1_c1"
      },
      {
         "a2" : "download_24",
         "time" : 511.916999996174,
         "id" : "dep50",
         "a1" : "r1_c1"
      },
      {
         "a2" : "download_23",
         "time" : 9.2169999843461,
         "id" : "dep51",
         "a1" : "r52_c1"
      },
      {
         "a2" : "download_23",
         "time" : 802.490999980364,
         "id" : "dep52",
         "a1" : "r1_c1"
      },
      {
         "a2" : "download_22",
         "time" : 468.382999999449,
         "id" : "dep53",
         "a1" : "r1_c1"
      },
      {
         "a2" : "download_21",
         "time" : 639.648999989731,
         "id" : "dep54",
         "a1" : "r1_c1"
      },
      {
         "a2" : "download_21",
         "time" : 639.648999989731,
         "id" : "dep55",
         "a1" : "r1_c1"
      },
      {
         "a2" : "download_20",
         "time" : 639.221999997972,
         "id" : "dep56",
         "a1" : "r1_c1"
      },
      {
         "a2" : "download_20",
         "time" : 639.221999997972,
         "id" : "dep57",
         "a1" : "r1_c1"
      },
      {
         "a2" : "download_19",
         "time" : 457.671999989543,
         "id" : "dep58",
         "a1" : "r1_c1"
      },
      {
         "a2" : "download_18",
         "time" : 638.732999999775,
         "id" : "dep59",
         "a1" : "r1_c1"
      },
      {
         "a2" : "download_18",
         "time" : 638.732999999775,
         "id" : "dep60",
         "a1" : "r1_c1"
      },
      {
         "a2" : "download_17",
         "time" : 637.969999981579,
         "id" : "dep61",
         "a1" : "r1_c1"
      },
      {
         "a2" : "download_16",
         "time" : 618.42399998568,
         "id" : "dep62",
         "a1" : "r1_c1"
      },
      {
         "a2" : "download_15",
         "time" : 606.353999988642,
         "id" : "dep63",
         "a1" : "r1_c1"
      },
      {
         "a2" : "download_14",
         "time" : 466.918999998598,
         "id" : "dep64",
         "a1" : "r1_c1"
      },
      {
         "a2" : "download_13",
         "time" : 463.896999979625,
         "id" : "dep65",
         "a1" : "r1_c1"
      },
      {
         "a2" : "download_12",
         "time" : 461.320000002161,
         "id" : "dep66",
         "a1" : "r1_c1"
      },
      {
         "a2" : "download_11",
         "time" : 459.242999990238,
         "id" : "dep67",
         "a1" : "r1_c1"
      },
      {
         "a2" : "download_10",
         "time" : 456.81799997692,
         "id" : "dep68",
         "a1" : "r1_c1"
      },
      {
         "a2" : "download_9",
         "time" : 455.932999990182,
         "id" : "dep69",
         "a1" : "r1_c1"
      },
      {
         "a2" : "download_8",
         "time" : 448.226999986218,
         "id" : "dep70",
         "a1" : "r1_c1"
      },
      {
         "a2" : "download_7",
         "time" : 421.60000000149,
         "id" : "dep71",
         "a1" : "r1_c1"
      },
      {
         "a2" : "download_6",
         "time" : 55.053999996744,
         "id" : "dep72",
         "a1" : "r1_c1"
      },
      {
         "a2" : "download_5",
         "time" : 49.926999985473,
         "id" : "dep73",
         "a1" : "r1_c1"
      },
      {
         "a2" : "download_4",
         "time" : 48.52299997583,
         "id" : "dep74",
         "a1" : "r1_c1"
      },
      {
         "a2" : "download_3",
         "time" : 47.485999995843,
         "id" : "dep75",
         "a1" : "r1_c1"
      },
      {
         "a2" : "download_2",
         "time" : 46.478999982355,
         "id" : "dep76",
         "a1" : "r1_c1"
      },
      {
         "a2" : "download_1",
         "time" : 45.287999993889,
         "id" : "dep77",
         "a1" : "r1_c1"
      }
   ]
}
