{
   "name" : "original.testbed.localhost_www.apple.com_",
   "n_download_no_trigger" : 1,
   "deps" : [
      {
         "a1" : "comp_5",
         "a2" : "r1_c2",
         "time" : -1,
         "id" : "dep1"
      },
      {
         "time" : -1,
         "id" : "dep2",
         "a2" : "r1_c3",
         "a1" : "comp_7"
      },
      {
         "a1" : "comp_14",
         "a2" : "r1_c4",
         "id" : "dep3",
         "time" : -1
      },
      {
         "a1" : "comp_17",
         "time" : -1,
         "id" : "dep4",
         "a2" : "r1_c5"
      },
      {
         "a2" : "r1_c6",
         "time" : -1,
         "id" : "dep5",
         "a1" : "comp_22"
      },
      {
         "a2" : "comp_5",
         "time" : -1,
         "id" : "dep6",
         "a1" : "comp_1"
      },
      {
         "a1" : "comp_0",
         "a2" : "comp_5",
         "id" : "dep7",
         "time" : -1
      },
      {
         "a1" : "comp_3",
         "id" : "dep8",
         "time" : -1,
         "a2" : "comp_5"
      },
      {
         "id" : "dep9",
         "time" : -1,
         "a2" : "comp_5",
         "a1" : "comp_2"
      },
      {
         "time" : -1,
         "id" : "dep10",
         "a2" : "comp_5",
         "a1" : "comp_4"
      },
      {
         "id" : "dep11",
         "time" : -1,
         "a2" : "comp_7",
         "a1" : "comp_5"
      },
      {
         "a1" : "comp_7",
         "a2" : "comp_14",
         "id" : "dep12",
         "time" : -1
      },
      {
         "a1" : "comp_14",
         "a2" : "comp_17",
         "time" : -1,
         "id" : "dep13"
      },
      {
         "time" : -1,
         "id" : "dep14",
         "a2" : "download_42",
         "a1" : "r1_c6"
      },
      {
         "a2" : "download_41",
         "id" : "dep15",
         "time" : 122.435999990558,
         "a1" : "r1_c6"
      },
      {
         "id" : "dep16",
         "time" : 10.7549999956981,
         "a2" : "download_40",
         "a1" : "r1_c6"
      },
      {
         "time" : 10.023999988335,
         "id" : "dep17",
         "a2" : "download_39",
         "a1" : "r1_c6"
      },
      {
         "a1" : "r1_c6",
         "id" : "dep18",
         "time" : 8.61999999324405,
         "a2" : "download_38"
      },
      {
         "a2" : "download_37",
         "time" : -1,
         "id" : "dep19",
         "a1" : "r1_c5"
      },
      {
         "a2" : "download_36",
         "id" : "dep20",
         "time" : 110.798000008799,
         "a1" : "r1_c5"
      },
      {
         "a1" : "r1_c5",
         "a2" : "download_35",
         "time" : 110.552000012831,
         "id" : "dep21"
      },
      {
         "a1" : "r1_c5",
         "time" : 110.261000008904,
         "id" : "dep22",
         "a2" : "download_34"
      },
      {
         "a2" : "download_33",
         "time" : 109.85900000378,
         "id" : "dep23",
         "a1" : "r1_c5"
      },
      {
         "time" : 152.885000003153,
         "id" : "dep24",
         "a2" : "download_32",
         "a1" : "r1_c5"
      },
      {
         "a2" : "download_31",
         "id" : "dep25",
         "time" : 152.793000001111,
         "a1" : "r1_c5"
      },
      {
         "a1" : "r1_c5",
         "a2" : "download_30",
         "id" : "dep26",
         "time" : 152.725000007195
      },
      {
         "a1" : "r1_c5",
         "time" : 152.627000003122,
         "id" : "dep27",
         "a2" : "download_29"
      },
      {
         "a2" : "download_28",
         "id" : "dep28",
         "time" : 152.511000007507,
         "a1" : "r1_c5"
      },
      {
         "time" : 85.036000004038,
         "id" : "dep29",
         "a2" : "download_27",
         "a1" : "r1_c5"
      },
      {
         "a1" : "r1_c5",
         "id" : "dep30",
         "time" : 85.4420000105171,
         "a2" : "download_26"
      },
      {
         "a2" : "download_25",
         "time" : 83.617000011145,
         "id" : "dep31",
         "a1" : "r1_c5"
      },
      {
         "id" : "dep32",
         "time" : 83.268000002136,
         "a2" : "download_24",
         "a1" : "r1_c5"
      },
      {
         "a1" : "r1_c5",
         "a2" : "download_23",
         "id" : "dep33",
         "time" : 79.526000001351
      },
      {
         "a2" : "download_22",
         "time" : -1,
         "id" : "dep34",
         "a1" : "r1_c2"
      },
      {
         "a1" : "r1_c2",
         "time" : 34.926000007545,
         "id" : "dep35",
         "a2" : "download_21"
      },
      {
         "a1" : "r1_c2",
         "a2" : "download_20",
         "time" : 34.695000009378,
         "id" : "dep36"
      },
      {
         "a1" : "r1_c2",
         "time" : 34.443000011379,
         "id" : "dep37",
         "a2" : "download_19"
      },
      {
         "id" : "dep38",
         "time" : 34.187000012025,
         "a2" : "download_18",
         "a1" : "r1_c2"
      },
      {
         "a1" : "r1_c3",
         "a2" : "download_17",
         "time" : -1,
         "id" : "dep39"
      },
      {
         "a1" : "r1_c3",
         "a2" : "download_16",
         "time" : 0.0520000030519441,
         "id" : "dep40"
      },
      {
         "a2" : "download_15",
         "time" : 33.973000012338,
         "id" : "dep41",
         "a1" : "r1_c2"
      },
      {
         "a1" : "r1_c2",
         "time" : 33.748000001651,
         "id" : "dep42",
         "a2" : "download_14"
      },
      {
         "a2" : "download_13",
         "id" : "dep43",
         "time" : 33.437000005506,
         "a1" : "r1_c2"
      },
      {
         "a1" : "r1_c2",
         "time" : 33.099000007496,
         "id" : "dep44",
         "a2" : "download_12"
      },
      {
         "a2" : "download_11",
         "id" : "dep45",
         "time" : 31.872000006842,
         "a1" : "r1_c2"
      },
      {
         "a1" : "r1_c1",
         "a2" : "download_10",
         "time" : -1,
         "id" : "dep46"
      },
      {
         "a2" : "download_10",
         "time" : 2.29999999282799,
         "id" : "dep47",
         "a1" : "r1_c1"
      },
      {
         "id" : "dep48",
         "time" : 2.19099999230799,
         "a2" : "download_9",
         "a1" : "r1_c1"
      },
      {
         "time" : 2.19099999230799,
         "id" : "dep49",
         "a2" : "download_9",
         "a1" : "r1_c1"
      },
      {
         "time" : 2.023999986704,
         "id" : "dep50",
         "a2" : "download_8",
         "a1" : "r1_c1"
      },
      {
         "a1" : "r1_c1",
         "time" : 2.023999986704,
         "id" : "dep51",
         "a2" : "download_8"
      },
      {
         "a1" : "r1_c1",
         "a2" : "download_7",
         "id" : "dep52",
         "time" : 1.90499999735
      },
      {
         "a1" : "r1_c1",
         "a2" : "download_7",
         "id" : "dep53",
         "time" : 1.90499999735
      },
      {
         "a1" : "r1_c1",
         "a2" : "download_6",
         "time" : 1.495999997132,
         "id" : "dep54"
      },
      {
         "a1" : "r1_c1",
         "a2" : "download_5",
         "id" : "dep55",
         "time" : 1.65799999376699
      },
      {
         "a2" : "download_4",
         "time" : 0.925999993340994,
         "id" : "dep56",
         "a1" : "r1_c1"
      },
      {
         "a1" : "r1_c1",
         "time" : 1.287999999476,
         "id" : "dep57",
         "a2" : "download_3"
      },
      {
         "a1" : "r1_c1",
         "time" : 0.498999987030004,
         "id" : "dep58",
         "a2" : "download_2"
      },
      {
         "id" : "dep59",
         "time" : 0.740999996195995,
         "a2" : "download_1",
         "a1" : "r1_c1"
      }
   ],
   "objs" : [
      {
         "id" : "r1",
         "comps" : [
            {
               "id" : "r1_c1",
               "time" : 2.29999999282799,
               "e_time" : 114.126999993459,
               "type" : "evalhtml",
               "s_time" : 111.827000000631
            },
            {
               "id" : "r1_c2",
               "time" : 35.184000007575,
               "type" : "evalhtml",
               "s_time" : 510.000999987824,
               "e_time" : 545.184999995399
            },
            {
               "time" : 0.757000001612937,
               "id" : "r1_c3",
               "type" : "evalhtml",
               "s_time" : 576.958999998169,
               "e_time" : 577.715999999782
            },
            {
               "type" : "evalhtml",
               "s_time" : 637.042999995174,
               "e_time" : -89497023.1,
               "time" : -89497660.143,
               "id" : "r1_c4"
            },
            {
               "type" : "evalhtml",
               "e_time" : 833.121999996365,
               "s_time" : 643.659999986994,
               "id" : "r1_c5",
               "time" : 189.462000009371
            },
            {
               "e_time" : 2844.28199999093,
               "s_time" : 845.839000001433,
               "type" : "evalhtml",
               "id" : "r1_c6",
               "time" : 1998.4429999895
            }
         ],
         "url" : "http://original.testbed.localhost/www.apple.com/",
         "download" : {
            "receivedTime" : "111.560999997891",
            "receiveFirst" : 102,
            "connectEnd" : 0,
            "len" : 32899,
            "id" : "download_0",
            "sslStart" : -1,
            "type" : "text/html",
            "dnsEnd" : -1,
            "dns" : 0,
            "s_time" : 0,
            "connectStart" : 0,
            "sendStart" : 0,
            "receiveLast" : 9.56099999789149,
            "sslEnd" : -1,
            "dnsStart" : -1,
            "sendEnd" : 0,
            "receiveHeadersEnd" : 102
         },
         "when_comp_start" : 1
      },
      {
         "when_comp_start" : -1,
         "url" : "http://original.testbed.localhost/www.apple.com/ac/globalfooter/2.0/en_US/styles/ac-globalfooter.built.css",
         "download" : {
            "sendEnd" : 3,
            "dnsStart" : -1,
            "sslEnd" : -1,
            "receiveHeadersEnd" : 105,
            "dns" : 0,
            "receiveLast" : 113.397999997251,
            "sendStart" : 3,
            "s_time" : 112.567999996827,
            "connectStart" : 0,
            "dnsEnd" : -1,
            "type" : "text/css",
            "sslStart" : -1,
            "connectEnd" : 3,
            "receiveFirst" : 102,
            "receivedTime" : "218.397999997251",
            "id" : "download_1",
            "len" : 56393
         },
         "comps" : [
            {
               "s_time" : 218.46399999049,
               "e_time" : 224.795999994967,
               "type" : 4,
               "id" : "comp_0",
               "time" : 6.33200000447698
            }
         ],
         "id" : "r3"
      },
      {
         "when_comp_start" : -1,
         "download" : {
            "dns" : 0,
            "receiveLast" : 119.221999993664,
            "sendStart" : 3,
            "s_time" : 112.325999987661,
            "connectStart" : 0,
            "sendEnd" : 3,
            "dnsStart" : -1,
            "sslEnd" : -1,
            "receiveHeadersEnd" : 106,
            "connectEnd" : 3,
            "receiveFirst" : 103,
            "receivedTime" : "225.221999993664",
            "id" : "download_2",
            "len" : 83019,
            "dnsEnd" : -1,
            "type" : "text/css",
            "sslStart" : -1
         },
         "url" : "http://original.testbed.localhost/www.apple.com/ac/globalnav/2.0/en_US/styles/ac-globalnav.built.css",
         "comps" : [
            {
               "id" : "comp_1",
               "time" : 9.20899999618899,
               "s_time" : 225.296999997227,
               "e_time" : 234.505999993416,
               "type" : 4
            }
         ],
         "id" : "r2"
      },
      {
         "download" : {
            "connectStart" : 0,
            "s_time" : 113.115000000107,
            "receiveLast" : 114.044999988866,
            "sendStart" : 102,
            "dns" : 0,
            "receiveHeadersEnd" : 203,
            "dnsStart" : -1,
            "sslEnd" : -1,
            "sendEnd" : 102,
            "len" : 8939,
            "id" : "download_3",
            "connectEnd" : 102,
            "receiveFirst" : 101,
            "receivedTime" : "317.044999988866",
            "type" : "text/css",
            "sslStart" : -1,
            "dnsEnd" : -1
         },
         "url" : "http://original.testbed.localhost/www.apple.com/wss/fonts/index.html%3Ffamily=Myriad+Set+Pro&v=2.css",
         "when_comp_start" : -1,
         "id" : "r5",
         "comps" : [
            {
               "id" : "comp_2",
               "time" : 0.349000009008989,
               "type" : 4,
               "e_time" : 317.454999996698,
               "s_time" : 317.105999987689
            }
         ]
      },
      {
         "when_comp_start" : -1,
         "url" : "http://original.testbed.localhost/www.apple.com/ac/localnav/3.0/styles/ac-localnav.built.css",
         "download" : {
            "sendEnd" : 102,
            "sslEnd" : -1,
            "dnsStart" : -1,
            "receiveHeadersEnd" : 205,
            "dns" : 0,
            "sendStart" : 102,
            "receiveLast" : 113.660999997519,
            "connectStart" : 0,
            "s_time" : 112.752999993972,
            "dnsEnd" : -1,
            "sslStart" : -1,
            "type" : "text/css",
            "receivedTime" : "318.660999997519",
            "connectEnd" : 102,
            "receiveFirst" : 103,
            "id" : "download_4",
            "len" : 85178
         },
         "comps" : [
            {
               "time" : 5.35399999353103,
               "id" : "comp_3",
               "s_time" : 318.740999995498,
               "e_time" : 324.094999989029,
               "type" : 4
            }
         ],
         "id" : "r4"
      },
      {
         "comps" : [
            {
               "e_time" : 510.000999987824,
               "type" : 1,
               "s_time" : 488.915999987512,
               "id" : "comp_5",
               "time" : 21.085000000312
            }
         ],
         "id" : "r7",
         "when_comp_start" : -1,
         "url" : "http://original.testbed.localhost/images.apple.com/v/home/cm/built/scripts/head.built.js",
         "download" : {
            "dnsEnd" : -1,
            "sslStart" : -1,
            "type" : "application/javascript",
            "id" : "download_5",
            "len" : 61384,
            "receivedTime" : "419.999999998254",
            "connectEnd" : 101,
            "receiveFirst" : 104,
            "receiveHeadersEnd" : 205,
            "sendEnd" : 101,
            "sslEnd" : -1,
            "dnsStart" : -1,
            "sendStart" : 101,
            "receiveLast" : 214.999999998254,
            "connectStart" : 0,
            "s_time" : 113.484999994398,
            "dns" : 0
         }
      },
      {
         "when_comp_start" : -1,
         "download" : {
            "receiveHeadersEnd" : 209,
            "sendEnd" : 102,
            "dnsStart" : -1,
            "sslEnd" : -1,
            "receiveLast" : 216.462999992305,
            "sendStart" : 102,
            "connectStart" : 0,
            "s_time" : 113.322999997763,
            "dns" : 0,
            "dnsEnd" : -1,
            "type" : "text/css",
            "sslStart" : -1,
            "id" : "download_6",
            "len" : 515152,
            "receiveFirst" : 107,
            "connectEnd" : 102,
            "receivedTime" : "425.462999992305"
         },
         "url" : "http://original.testbed.localhost/images.apple.com/v/home/cm/built/styles/main.built.css",
         "comps" : [
            {
               "id" : "comp_4",
               "time" : 151.522999993176,
               "type" : 4,
               "e_time" : 577.033999987179,
               "s_time" : 425.510999994003
            }
         ],
         "id" : "r6"
      },
      {
         "id" : "r8",
         "comps" : [
            {
               "s_time" : 511.315999989165,
               "e_time" : 576.958999998169,
               "type" : 1,
               "time" : 65.643000009004,
               "id" : "comp_7"
            }
         ],
         "download" : {
            "len" : 132283,
            "id" : "download_7",
            "receivedTime" : "425.291999999899",
            "receiveFirst" : 105,
            "connectEnd" : 104,
            "sslStart" : -1,
            "type" : "application/javascript",
            "dnsEnd" : -1,
            "connectStart" : 0,
            "s_time" : 113.731999997981,
            "sendStart" : 104,
            "receiveLast" : 216.291999999899,
            "dns" : 0,
            "receiveHeadersEnd" : 209,
            "sslEnd" : -1,
            "dnsStart" : -1,
            "sendEnd" : 104
         },
         "url" : "http://original.testbed.localhost/www.apple.com/ac/globalnav/2.0/en_US/scripts/ac-globalnav.built.js",
         "when_comp_start" : -1
      },
      {
         "comps" : [
            {
               "s_time" : 578.951999996207,
               "e_time" : 637.042999995174,
               "type" : 1,
               "id" : "comp_14",
               "time" : 58.090999998967
            }
         ],
         "id" : "r9",
         "when_comp_start" : -1,
         "url" : "http://original.testbed.localhost/images.apple.com/metrics/ac-analytics/1.1/scripts/ac-analytics.js",
         "download" : {
            "dnsEnd" : -1,
            "type" : "application/javascript",
            "sslStart" : -1,
            "id" : "download_8",
            "len" : 287658,
            "connectEnd" : 105,
            "receiveFirst" : 106,
            "receivedTime" : "578.889999989769",
            "receiveHeadersEnd" : 211,
            "sendEnd" : 105,
            "dnsStart" : -1,
            "sslEnd" : -1,
            "receiveLast" : 367.889999989769,
            "sendStart" : 105,
            "connectStart" : 0,
            "s_time" : 113.850999987335,
            "dns" : 0
         }
      },
      {
         "id" : "r10",
         "comps" : [
            {
               "type" : 1,
               "e_time" : 643.659999986994,
               "s_time" : 638.539999999921,
               "time" : 5.11999998707302,
               "id" : "comp_17"
            }
         ],
         "url" : "http://original.testbed.localhost/www.apple.com/ac/globalfooter/2.0/en_US/scripts/ac-globalfooter.built.js",
         "download" : {
            "id" : "download_9",
            "len" : 26317,
            "connectEnd" : 202,
            "receiveFirst" : 102,
            "receivedTime" : "419.622999994317",
            "dnsEnd" : -1,
            "type" : "application/javascript",
            "sslStart" : -1,
            "receiveLast" : 115.622999994317,
            "sendStart" : 202,
            "connectStart" : 0,
            "s_time" : 114.017999992939,
            "dns" : 0,
            "receiveHeadersEnd" : 304,
            "sendEnd" : 202,
            "dnsStart" : -1,
            "sslEnd" : -1
         },
         "when_comp_start" : -1
      },
      {
         "download" : {
            "sslStart" : -1,
            "type" : "application/javascript",
            "dnsEnd" : -1,
            "receivedTime" : "796.450999987428",
            "receiveFirst" : 110,
            "connectEnd" : 204,
            "len" : 298032,
            "id" : "download_10",
            "sslEnd" : -1,
            "dnsStart" : -1,
            "sendEnd" : 204,
            "receiveHeadersEnd" : 314,
            "dns" : 0,
            "s_time" : 114.126999993459,
            "connectStart" : 0,
            "sendStart" : 204,
            "receiveLast" : 482.450999987428
         },
         "url" : "http://original.testbed.localhost/images.apple.com/v/home/cm/built/scripts/main.built.js",
         "when_comp_start" : -1,
         "id" : "r11",
         "comps" : [
            {
               "s_time" : 796.521999989636,
               "e_time" : 845.839000001433,
               "type" : 1,
               "time" : 49.3170000117969,
               "id" : "comp_22"
            }
         ]
      },
      {
         "url" : "http://original.testbed.localhost/www.apple.com/ac/globalnav/2.0/en_US/images/ac-globalnav/globalnav/apple/image_large.svg",
         "download" : {
            "connectEnd" : 0,
            "receiveFirst" : 101,
            "receivedTime" : "846.49399999762",
            "len" : 1860,
            "id" : "download_11",
            "type" : "image/svg+xml",
            "sslStart" : -1,
            "dnsEnd" : -1,
            "dns" : 0,
            "connectStart" : 0,
            "s_time" : 541.872999994666,
            "receiveLast" : 745.49399999762,
            "sendStart" : 0,
            "dnsStart" : -1,
            "sslEnd" : -1,
            "sendEnd" : 0,
            "receiveHeadersEnd" : 101
         },
         "when_comp_start" : -1,
         "id" : "r52",
         "comps" : []
      },
      {
         "when_comp_start" : -1,
         "download" : {
            "len" : 2063,
            "id" : "download_12",
            "receivedTime" : "851.425000000745",
            "receiveFirst" : 101,
            "connectEnd" : 0,
            "sslStart" : -1,
            "type" : "image/svg+xml",
            "dnsEnd" : -1,
            "s_time" : 543.09999999532,
            "connectStart" : 0,
            "sendStart" : 0,
            "receiveLast" : 750.425000000745,
            "dns" : 0,
            "receiveHeadersEnd" : 101,
            "sslEnd" : -1,
            "dnsStart" : -1,
            "sendEnd" : 0
         },
         "url" : "http://original.testbed.localhost/www.apple.com/ac/globalnav/2.0/en_US/images/ac-globalnav/globalnav/links/mac/image_large.svg",
         "comps" : [],
         "id" : "r53"
      },
      {
         "download" : {
            "sendEnd" : 0,
            "sslEnd" : -1,
            "dnsStart" : -1,
            "receiveHeadersEnd" : 102,
            "dns" : 0,
            "sendStart" : 0,
            "receiveLast" : 753.045999996946,
            "s_time" : 543.43799999333,
            "connectStart" : 0,
            "dnsEnd" : -1,
            "sslStart" : -1,
            "type" : "image/svg+xml",
            "receivedTime" : "855.045999996946",
            "connectEnd" : 0,
            "receiveFirst" : 102,
            "id" : "download_13",
            "len" : 2737
         },
         "url" : "http://original.testbed.localhost/www.apple.com/ac/globalnav/2.0/en_US/images/ac-globalnav/globalnav/links/ipad/image_large.svg",
         "when_comp_start" : -1,
         "id" : "r54",
         "comps" : []
      },
      {
         "id" : "r55",
         "comps" : [],
         "url" : "http://original.testbed.localhost/www.apple.com/ac/globalnav/2.0/en_US/images/ac-globalnav/globalnav/links/iphone/image_large.svg",
         "download" : {
            "dnsEnd" : -1,
            "sslStart" : -1,
            "type" : "image/svg+xml",
            "receivedTime" : "858.689999993658",
            "connectEnd" : 1,
            "receiveFirst" : 101,
            "id" : "download_14",
            "len" : 3382,
            "sendEnd" : 1,
            "sslEnd" : -1,
            "dnsStart" : -1,
            "receiveHeadersEnd" : 102,
            "dns" : 0,
            "sendStart" : 1,
            "receiveLast" : 756.689999993658,
            "s_time" : 543.748999989475,
            "connectStart" : 0
         },
         "when_comp_start" : -1
      },
      {
         "id" : "r56",
         "comps" : [],
         "download" : {
            "dnsEnd" : -1,
            "type" : "image/svg+xml",
            "sslStart" : -1,
            "receiveFirst" : 101,
            "connectEnd" : 1,
            "receivedTime" : "862.648999987869",
            "id" : "download_15",
            "len" : 2706,
            "sendEnd" : 1,
            "dnsStart" : -1,
            "sslEnd" : -1,
            "receiveHeadersEnd" : 102,
            "dns" : 0,
            "receiveLast" : 760.648999987869,
            "sendStart" : 1,
            "connectStart" : 0,
            "s_time" : 543.974000000162
         },
         "url" : "http://original.testbed.localhost/www.apple.com/ac/globalnav/2.0/en_US/images/ac-globalnav/globalnav/links/watch/image_large.svg",
         "when_comp_start" : -1
      },
      {
         "comps" : [],
         "id" : "r62",
         "when_comp_start" : 1,
         "download" : {
            "receiveHeadersEnd" : 153,
            "sslEnd" : -1,
            "dnsStart" : -1,
            "sendEnd" : 53,
            "s_time" : 577.011000001221,
            "connectStart" : 0,
            "sendStart" : 53,
            "receiveLast" : 713.194999995059,
            "dns" : 0,
            "sslStart" : -1,
            "type" : "text/html",
            "dnsEnd" : -1,
            "len" : 307,
            "id" : "download_16",
            "receivedTime" : "866.194999995059",
            "receiveFirst" : 100,
            "connectEnd" : 53
         },
         "url" : "http://original.testbed.localhost/us/shop/bag/status?apikey=SFX9YPYY9PPXCU9KH"
      },
      {
         "id" : "r44",
         "comps" : [],
         "url" : "http://original.testbed.localhost/www.apple.com/wss/fonts/Myriad-Set-Pro/v2/myriad-set-pro_text.woff",
         "download" : {
            "dns" : 0,
            "s_time" : 577.715999999782,
            "connectStart" : 0,
            "receiveLast" : 700.536999998265,
            "sendStart" : 66,
            "dnsStart" : -1,
            "sslEnd" : -1,
            "sendEnd" : 66,
            "receiveHeadersEnd" : 167,
            "receiveFirst" : 101,
            "connectEnd" : 66,
            "receivedTime" : "867.536999998265",
            "len" : 97772,
            "id" : "download_17",
            "type" : "application/x-font-woff",
            "sslStart" : -1,
            "dnsEnd" : -1
         },
         "when_comp_start" : -1
      },
      {
         "when_comp_start" : -1,
         "url" : "http://original.testbed.localhost/www.apple.com/ac/globalnav/2.0/en_US/images/ac-globalnav/globalnav/links/tv/image_large.svg",
         "download" : {
            "receiveHeadersEnd" : 208,
            "sendEnd" : 101,
            "sslEnd" : -1,
            "dnsStart" : -1,
            "sendStart" : 101,
            "receiveLast" : 661.745999996667,
            "s_time" : 544.187999999849,
            "connectStart" : 0,
            "dns" : 0,
            "dnsEnd" : -1,
            "sslStart" : -1,
            "type" : "image/svg+xml",
            "id" : "download_18",
            "len" : 1112,
            "receivedTime" : "869.745999996667",
            "connectEnd" : 101,
            "receiveFirst" : 107
         },
         "comps" : [],
         "id" : "r57"
      },
      {
         "id" : "r58",
         "comps" : [],
         "download" : {
            "dns" : 0,
            "sendStart" : 102,
            "receiveLast" : 666.001999996835,
            "connectStart" : 0,
            "s_time" : 544.443999999203,
            "sendEnd" : 102,
            "sslEnd" : -1,
            "dnsStart" : -1,
            "receiveHeadersEnd" : 208,
            "receivedTime" : "874.001999996835",
            "receiveFirst" : 106,
            "connectEnd" : 102,
            "id" : "download_19",
            "len" : 3347,
            "dnsEnd" : -1,
            "sslStart" : -1,
            "type" : "image/svg+xml"
         },
         "url" : "http://original.testbed.localhost/www.apple.com/ac/globalnav/2.0/en_US/images/ac-globalnav/globalnav/links/music/image_large.svg",
         "when_comp_start" : -1
      },
      {
         "download" : {
            "len" : 4200,
            "id" : "download_20",
            "receiveFirst" : 108,
            "connectEnd" : 101,
            "receivedTime" : "877.716999995755",
            "type" : "image/svg+xml",
            "sslStart" : -1,
            "dnsEnd" : -1,
            "connectStart" : 0,
            "s_time" : 544.695999997202,
            "receiveLast" : 668.716999995755,
            "sendStart" : 101,
            "dns" : 0,
            "receiveHeadersEnd" : 209,
            "dnsStart" : -1,
            "sslEnd" : -1,
            "sendEnd" : 101
         },
         "url" : "http://original.testbed.localhost/www.apple.com/ac/globalnav/2.0/en_US/images/ac-globalnav/globalnav/links/support/image_large.svg",
         "when_comp_start" : -1,
         "id" : "r59",
         "comps" : []
      },
      {
         "id" : "r60",
         "comps" : [],
         "url" : "http://original.testbed.localhost/www.apple.com/ac/globalnav/2.0/en_US/images/ac-globalnav/globalnav/search/image_large.svg",
         "download" : {
            "receiveHeadersEnd" : 209,
            "sslEnd" : -1,
            "dnsStart" : -1,
            "sendEnd" : 101,
            "connectStart" : 0,
            "s_time" : 544.926999995369,
            "sendStart" : 101,
            "receiveLast" : 674.092999996734,
            "dns" : 0,
            "sslStart" : -1,
            "type" : "image/svg+xml",
            "dnsEnd" : -1,
            "len" : 1031,
            "id" : "download_21",
            "receivedTime" : "883.092999996734",
            "connectEnd" : 101,
            "receiveFirst" : 108
         },
         "when_comp_start" : -1
      },
      {
         "when_comp_start" : -1,
         "url" : "http://original.testbed.localhost/www.apple.com/ac/globalnav/2.0/en_US/images/ac-globalnav/globalnav/bag/image_large.svg",
         "download" : {
            "id" : "download_22",
            "len" : 464,
            "receivedTime" : "2870.35899999319",
            "receiveFirst" : 101,
            "connectEnd" : 186,
            "dnsEnd" : -1,
            "sslStart" : -1,
            "type" : "image/svg+xml",
            "sendStart" : 186,
            "receiveLast" : 2583.35899999319,
            "s_time" : 545.184999995399,
            "connectStart" : 0,
            "dns" : 0,
            "receiveHeadersEnd" : 287,
            "sendEnd" : 186,
            "sslEnd" : -1,
            "dnsStart" : -1
         },
         "comps" : [],
         "id" : "r61"
      },
      {
         "comps" : [],
         "id" : "r63",
         "when_comp_start" : -1,
         "url" : "http://original.testbed.localhost/images.apple.com/v/home/cm/images/logos/iphone_se_medium.png",
         "download" : {
            "s_time" : 723.185999988345,
            "connectStart" : 0,
            "receiveLast" : 2746.58799999917,
            "sendStart" : 29,
            "dns" : 0,
            "receiveHeadersEnd" : 130,
            "dnsStart" : -1,
            "sslEnd" : -1,
            "sendEnd" : 29,
            "len" : 4931,
            "id" : "download_23",
            "receiveFirst" : 101,
            "connectEnd" : 29,
            "receivedTime" : "2876.58799999917",
            "type" : "image/png",
            "sslStart" : -1,
            "dnsEnd" : -1
         }
      },
      {
         "when_comp_start" : -1,
         "download" : {
            "type" : "image/jpeg",
            "sslStart" : -1,
            "dnsEnd" : -1,
            "len" : 51859,
            "id" : "download_24",
            "connectEnd" : 26,
            "receiveFirst" : 102,
            "receivedTime" : "2895.83499998844",
            "receiveHeadersEnd" : 128,
            "dnsStart" : -1,
            "sslEnd" : -1,
            "sendEnd" : 26,
            "connectStart" : 0,
            "s_time" : 726.92799998913,
            "receiveLast" : 2767.83499998844,
            "sendStart" : 26,
            "dns" : 0
         },
         "url" : "http://original.testbed.localhost/images.apple.com/v/home/cm/images/heros/iphone_se_medium.jpg",
         "comps" : [],
         "id" : "r64"
      },
      {
         "when_comp_start" : -1,
         "download" : {
            "len" : 4208,
            "id" : "download_25",
            "receiveFirst" : 101,
            "connectEnd" : 27,
            "receivedTime" : "2878.43599999906",
            "type" : "image/png",
            "sslStart" : -1,
            "dnsEnd" : -1,
            "connectStart" : 0,
            "s_time" : 727.276999998139,
            "receiveLast" : 2750.43599999906,
            "sendStart" : 27,
            "dns" : 0,
            "receiveHeadersEnd" : 128,
            "dnsStart" : -1,
            "sslEnd" : -1,
            "sendEnd" : 27
         },
         "url" : "http://original.testbed.localhost/images.apple.com/v/home/cm/images/logos/ipad_pro_medium.png",
         "comps" : [],
         "id" : "r65"
      },
      {
         "download" : {
            "receivedTime" : "2879.1249999922",
            "receiveFirst" : 102,
            "connectEnd" : 25,
            "len" : 7244,
            "id" : "download_26",
            "sslStart" : -1,
            "type" : "image/png",
            "dnsEnd" : -1,
            "dns" : 0,
            "s_time" : 729.101999997511,
            "connectStart" : 0,
            "sendStart" : 25,
            "receiveLast" : 2752.1249999922,
            "sslEnd" : -1,
            "dnsStart" : -1,
            "sendEnd" : 25,
            "receiveHeadersEnd" : 127
         },
         "url" : "http://original.testbed.localhost/images.apple.com/v/home/cm/images/logos/watch_medium.png",
         "when_comp_start" : -1,
         "id" : "r67",
         "comps" : []
      },
      {
         "download" : {
            "receivedTime" : "2888.54099999298",
            "receiveFirst" : 101,
            "connectEnd" : 26,
            "id" : "download_27",
            "len" : 74651,
            "dnsEnd" : -1,
            "sslStart" : -1,
            "type" : "image/jpeg",
            "dns" : 0,
            "sendStart" : 26,
            "receiveLast" : 2761.54099999298,
            "s_time" : 728.695999991032,
            "connectStart" : 0,
            "sendEnd" : 26,
            "sslEnd" : -1,
            "dnsStart" : -1,
            "receiveHeadersEnd" : 127
         },
         "url" : "http://original.testbed.localhost/images.apple.com/v/home/cm/images/heros/ipad_pro_family_medium.jpg",
         "when_comp_start" : -1,
         "id" : "r66",
         "comps" : []
      },
      {
         "url" : "http://original.testbed.localhost/www.apple.com/wss/fonts/Myriad-Set-Pro/v2/myriad-set-pro_extrathin.woff",
         "download" : {
            "sendEnd" : 37,
            "sslEnd" : -1,
            "dnsStart" : -1,
            "receiveHeadersEnd" : 138,
            "dns" : 0,
            "sendStart" : 37,
            "receiveLast" : 2742.63599998713,
            "s_time" : 796.170999994501,
            "connectStart" : 0,
            "dnsEnd" : -1,
            "sslStart" : -1,
            "type" : "application/x-font-woff",
            "receivedTime" : "2880.63599998713",
            "receiveFirst" : 101,
            "connectEnd" : 37,
            "id" : "download_28",
            "len" : 94624
         },
         "when_comp_start" : -1,
         "id" : "r22",
         "comps" : []
      },
      {
         "when_comp_start" : -1,
         "download" : {
            "dns" : 0,
            "connectStart" : 0,
            "s_time" : 796.286999990116,
            "receiveLast" : 2725.53999999911,
            "sendStart" : 58,
            "dnsStart" : -1,
            "sslEnd" : -1,
            "sendEnd" : 58,
            "receiveHeadersEnd" : 159,
            "connectEnd" : 58,
            "receiveFirst" : 101,
            "receivedTime" : "2884.53999999911",
            "len" : 94980,
            "id" : "download_29",
            "type" : "application/x-font-woff",
            "sslStart" : -1,
            "dnsEnd" : -1
         },
         "url" : "http://original.testbed.localhost/www.apple.com/wss/fonts/Myriad-Set-Pro/v2/myriad-set-pro_thin.woff",
         "comps" : [],
         "id" : "r26"
      },
      {
         "when_comp_start" : -1,
         "url" : "http://original.testbed.localhost/images.apple.com/v/home/cm/built/assets/ac-appleicons/fonts/appleicons_thin.woff",
         "download" : {
            "sslEnd" : -1,
            "dnsStart" : -1,
            "sendEnd" : 59,
            "receiveHeadersEnd" : 167,
            "dns" : 0,
            "connectStart" : 0,
            "s_time" : 796.384999994189,
            "sendStart" : 59,
            "receiveLast" : 2720.3489999969,
            "sslStart" : -1,
            "type" : "application/x-font-woff",
            "dnsEnd" : -1,
            "receivedTime" : "2887.3489999969",
            "connectEnd" : 59,
            "receiveFirst" : 108,
            "len" : 6152,
            "id" : "download_30"
         },
         "comps" : [],
         "id" : "r48"
      },
      {
         "id" : "r46",
         "comps" : [],
         "download" : {
            "receivedTime" : "2888.03799999005",
            "receiveFirst" : 109,
            "connectEnd" : 60,
            "id" : "download_31",
            "len" : 6220,
            "dnsEnd" : -1,
            "sslStart" : -1,
            "type" : "application/x-font-woff",
            "dns" : 0,
            "sendStart" : 60,
            "receiveLast" : 2719.03799999005,
            "connectStart" : 0,
            "s_time" : 796.452999988105,
            "sendEnd" : 60,
            "sslEnd" : -1,
            "dnsStart" : -1,
            "receiveHeadersEnd" : 169
         },
         "url" : "http://original.testbed.localhost/images.apple.com/v/home/cm/built/assets/ac-appleicons/fonts/appleicons_text.woff",
         "when_comp_start" : -1
      },
      {
         "comps" : [],
         "id" : "r36",
         "when_comp_start" : -1,
         "download" : {
            "id" : "download_32",
            "len" : 100100,
            "receivedTime" : "2889.55399999395",
            "receiveFirst" : 101,
            "connectEnd" : 145,
            "dnsEnd" : -1,
            "sslStart" : -1,
            "type" : "application/x-font-woff",
            "sendStart" : 145,
            "receiveLast" : 2643.55399999395,
            "s_time" : 796.544999990147,
            "connectStart" : 0,
            "dns" : 0,
            "receiveHeadersEnd" : 246,
            "sendEnd" : 145,
            "sslEnd" : -1,
            "dnsStart" : -1
         },
         "url" : "http://original.testbed.localhost/www.apple.com/wss/fonts/Myriad-Set-Pro/v2/myriad-set-pro_semibold.woff"
      },
      {
         "url" : "http://original.testbed.localhost/images.apple.com/v/home/cm/images/heros/apple_watch_trio_medium.jpg",
         "download" : {
            "dnsEnd" : -1,
            "sslStart" : -1,
            "type" : "image/jpeg",
            "id" : "download_33",
            "len" : 75529,
            "receivedTime" : "2893.39800000016",
            "connectEnd" : 210,
            "receiveFirst" : 101,
            "receiveHeadersEnd" : 311,
            "sendEnd" : 210,
            "sslEnd" : -1,
            "dnsStart" : -1,
            "sendStart" : 210,
            "receiveLast" : 2582.39800000016,
            "s_time" : 753.518999990774,
            "connectStart" : 0,
            "dns" : 0
         },
         "when_comp_start" : -1,
         "id" : "r68",
         "comps" : []
      },
      {
         "when_comp_start" : -1,
         "download" : {
            "receiveHeadersEnd" : 317,
            "dnsStart" : -1,
            "sslEnd" : -1,
            "sendEnd" : 210,
            "connectStart" : 0,
            "s_time" : 753.920999995898,
            "receiveLast" : 2576.75499999733,
            "sendStart" : 210,
            "dns" : 0,
            "type" : "image/png",
            "sslStart" : -1,
            "dnsEnd" : -1,
            "len" : 3957,
            "id" : "download_34",
            "receiveFirst" : 107,
            "connectEnd" : 210,
            "receivedTime" : "2893.75499999733"
         },
         "url" : "http://original.testbed.localhost/images.apple.com/v/home/cm/images/logos/macbook_medium.png",
         "comps" : [],
         "id" : "r69"
      },
      {
         "when_comp_start" : -1,
         "download" : {
            "sendEnd" : 212,
            "dnsStart" : -1,
            "sslEnd" : -1,
            "receiveHeadersEnd" : 317,
            "dns" : 0,
            "receiveLast" : 2581.3969999972,
            "sendStart" : 212,
            "connectStart" : 0,
            "s_time" : 754.211999999825,
            "dnsEnd" : -1,
            "type" : "image/png",
            "sslStart" : -1,
            "connectEnd" : 212,
            "receiveFirst" : 105,
            "receivedTime" : "2898.3969999972",
            "id" : "download_35",
            "len" : 86127
         },
         "url" : "http://original.testbed.localhost/images.apple.com/v/home/cm/images/heros/macbook_medium.png",
         "comps" : [],
         "id" : "r70"
      },
      {
         "comps" : [],
         "id" : "r71",
         "when_comp_start" : -1,
         "download" : {
            "receiveHeadersEnd" : 318,
            "sendEnd" : 214,
            "dnsStart" : -1,
            "sslEnd" : -1,
            "receiveLast" : 2577.22099999886,
            "sendStart" : 214,
            "connectStart" : 0,
            "s_time" : 754.457999995793,
            "dns" : 0,
            "dnsEnd" : -1,
            "type" : "image/jpeg",
            "sslStart" : -1,
            "id" : "download_36",
            "len" : 47147,
            "connectEnd" : 214,
            "receiveFirst" : 104,
            "receivedTime" : "2895.22099999886"
         },
         "url" : "http://original.testbed.localhost/images.apple.com/v/home/cm/images/promos/drake_medium.jpg"
      },
      {
         "comps" : [],
         "id" : "r72",
         "when_comp_start" : -1,
         "url" : "http://original.testbed.localhost/images.apple.com/v/home/cm/images/promos/iphone_6s_medium.jpg",
         "download" : {
            "receiveLast" : 2576.57699998841,
            "sendStart" : 218,
            "connectStart" : 0,
            "s_time" : 833.121999996365,
            "dns" : 0,
            "receiveHeadersEnd" : 319,
            "sendEnd" : 218,
            "dnsStart" : -1,
            "sslEnd" : -1,
            "id" : "download_37",
            "len" : 12170,
            "connectEnd" : 218,
            "receiveFirst" : 101,
            "receivedTime" : "2895.57699998841",
            "dnsEnd" : -1,
            "type" : "image/jpeg",
            "sslStart" : -1
         }
      },
      {
         "when_comp_start" : -1,
         "download" : {
            "type" : "image/jpeg",
            "sslStart" : -1,
            "dnsEnd" : -1,
            "len" : 14116,
            "id" : "download_38",
            "receiveFirst" : 102,
            "connectEnd" : 216,
            "receivedTime" : "2896.55399999174",
            "receiveHeadersEnd" : 318,
            "dnsStart" : -1,
            "sslEnd" : -1,
            "sendEnd" : 216,
            "connectStart" : 0,
            "s_time" : 854.458999994677,
            "receiveLast" : 2578.55399999174,
            "sendStart" : 216,
            "dns" : 0
         },
         "url" : "http://original.testbed.localhost/images.apple.com/v/home/cm/images/promos/apple_tv_medium.jpg",
         "comps" : [],
         "id" : "r73"
      },
      {
         "id" : "r74",
         "comps" : [],
         "download" : {
            "dns" : 0,
            "sendStart" : 215,
            "receiveLast" : 2578.1590000001,
            "connectStart" : 0,
            "s_time" : 855.862999989768,
            "sendEnd" : 215,
            "sslEnd" : -1,
            "dnsStart" : -1,
            "receiveHeadersEnd" : 319,
            "receivedTime" : "2897.1590000001",
            "connectEnd" : 215,
            "receiveFirst" : 104,
            "id" : "download_39",
            "len" : 7874,
            "dnsEnd" : -1,
            "sslStart" : -1,
            "type" : "image/jpeg"
         },
         "url" : "http://original.testbed.localhost/images.apple.com/v/home/cm/images/promos/sap_medium.jpg",
         "when_comp_start" : -1
      },
      {
         "id" : "r75",
         "comps" : [],
         "url" : "http://original.testbed.localhost/images.apple.com/v/home/cm/images/misc/redcross_banner_large.jpg",
         "download" : {
            "connectStart" : 0,
            "s_time" : 856.593999997131,
            "sendStart" : 220,
            "receiveLast" : 2576.570000001,
            "dns" : 0,
            "receiveHeadersEnd" : 321,
            "sslEnd" : -1,
            "dnsStart" : -1,
            "sendEnd" : 220,
            "len" : 6808,
            "id" : "download_40",
            "receivedTime" : "2897.570000001",
            "connectEnd" : 220,
            "receiveFirst" : 101,
            "sslStart" : -1,
            "type" : "image/jpeg",
            "dnsEnd" : -1
         },
         "when_comp_start" : -1
      },
      {
         "comps" : [],
         "id" : "r76",
         "when_comp_start" : -1,
         "url" : "http://original.testbed.localhost/images.apple.com/ac/flags/1/images/us/16.png",
         "download" : {
            "dns" : 0,
            "receiveLast" : 2611.97299999918,
            "sendStart" : 185,
            "connectStart" : 0,
            "s_time" : 968.274999991991,
            "sendEnd" : 185,
            "dnsStart" : -1,
            "sslEnd" : -1,
            "receiveHeadersEnd" : 286,
            "connectEnd" : 185,
            "receiveFirst" : 101,
            "receivedTime" : "2897.97299999918",
            "id" : "download_41",
            "len" : 582,
            "dnsEnd" : -1,
            "type" : "image/png",
            "sslStart" : -1
         }
      },
      {
         "when_comp_start" : 1,
         "url" : "http://original.testbed.localhost/b/ss/appleglobal,applehome,applestoreww,applestoreamr,applestoreus/1/H.27/s94532235183287?AQB=1&ndh=1&t=15%2F4%2F2016%201%3A54%3A14%200%20240&fid=0209D35D6DBC78F4-3EEBA8DD47B4A439&pageName=apple%20-%20index%2Ftab%20%28us%29&g=http%3A%2F%2Foriginal.testbed.localhost%",
         "download" : {
            "connectStart" : 0,
            "s_time" : 2844.28199999093,
            "sendStart" : 0,
            "receiveLast" : 2887.39299999236,
            "dns" : 0,
            "receiveHeadersEnd" : 101,
            "sslEnd" : -1,
            "dnsStart" : -1,
            "sendEnd" : 0,
            "len" : 378,
            "id" : "download_42",
            "receivedTime" : "2988.39299999236",
            "connectEnd" : 0,
            "receiveFirst" : 101,
            "sslStart" : -1,
            "type" : "text/html",
            "dnsEnd" : -1
         },
         "comps" : [],
         "id" : "r77"
      }
   ],
   "start_activity" : "download_0",
   "load_activity" : -1
}
