{
   "name" : "original.testbed.localhost_www.onclickads.net_",
   "deps" : [
      {
         "a1" : "comp_2",
         "a2" : "r1_c2",
         "time" : -1,
         "id" : "dep1"
      },
      {
         "time" : -1,
         "a1" : "comp_5",
         "a2" : "r1_c3",
         "id" : "dep2"
      },
      {
         "id" : "dep3",
         "time" : -1,
         "a2" : "r1_c4",
         "a1" : "comp_9"
      },
      {
         "time" : -1,
         "a1" : "comp_0",
         "a2" : "comp_2",
         "id" : "dep4"
      },
      {
         "a2" : "comp_2",
         "a1" : "comp_1",
         "time" : -1,
         "id" : "dep5"
      },
      {
         "time" : -1,
         "a2" : "download_9",
         "a1" : "r1_c4",
         "id" : "dep6"
      },
      {
         "a1" : "r1_c4",
         "a2" : "download_8",
         "time" : -1,
         "id" : "dep7"
      },
      {
         "id" : "dep8",
         "a2" : "download_7",
         "a1" : "r1_c4",
         "time" : 85.7740000065
      },
      {
         "time" : -1,
         "a1" : "r1_c2",
         "a2" : "download_6",
         "id" : "dep9"
      },
      {
         "id" : "dep10",
         "a1" : "r1_c2",
         "a2" : "download_5",
         "time" : -1
      },
      {
         "id" : "dep11",
         "time" : -1,
         "a1" : "r1_c1",
         "a2" : "download_4"
      },
      {
         "time" : 0.921999991987988,
         "a2" : "download_4",
         "a1" : "r1_c1",
         "id" : "dep12"
      },
      {
         "a1" : "r1_c1",
         "a2" : "download_3",
         "time" : 0.748999998904992,
         "id" : "dep13"
      },
      {
         "time" : 0.576999998883991,
         "a1" : "r1_c1",
         "a2" : "download_2",
         "id" : "dep14"
      },
      {
         "time" : 0.407999992602996,
         "a1" : "r1_c1",
         "a2" : "download_1",
         "id" : "dep15"
      }
   ],
   "objs" : [
      {
         "when_comp_start" : 1,
         "comps" : [
            {
               "e_time" : 113.532999996096,
               "type" : "evalhtml",
               "time" : 0.921999991987988,
               "s_time" : 112.611000004108,
               "id" : "r1_c1"
            },
            {
               "id" : "r1_c2",
               "s_time" : 318.209999997634,
               "type" : "evalhtml",
               "e_time" : 319.743000000017,
               "time" : 1.53300000238301
            },
            {
               "s_time" : 2846.73900000053,
               "id" : "r1_c3",
               "e_time" : -90961727.132,
               "type" : "evalhtml",
               "time" : -90964573.871
            },
            {
               "s_time" : 2852.53299999749,
               "id" : "r1_c4",
               "e_time" : 3287.11200000544,
               "type" : "evalhtml",
               "time" : 434.57900000795
            }
         ],
         "url" : "http://original.testbed.localhost/www.onclickads.net/",
         "download" : {
            "id" : "download_0",
            "sendStart" : 0,
            "dnsEnd" : -1,
            "sslStart" : -1,
            "len" : 3324,
            "receiveHeadersEnd" : 101,
            "dnsStart" : -1,
            "connectStart" : 0,
            "s_time" : 0,
            "connectEnd" : 0,
            "type" : "text/html",
            "dns" : 0,
            "receivedTime" : "103.031000006013",
            "receiveLast" : 2.03100000601262,
            "sslEnd" : -1,
            "sendEnd" : 0,
            "receiveFirst" : 101
         },
         "id" : "r1"
      },
      {
         "when_comp_start" : -1,
         "comps" : [
            {
               "type" : 4,
               "e_time" : 216.354999996838,
               "time" : 0.0849999923959786,
               "id" : "comp_0",
               "s_time" : 216.270000004442
            }
         ],
         "url" : "http://original.testbed.localhost/fonts.googleapis.com/css%3Ffamily=PT+Sans&subset=latin,cyrillic-ext.css",
         "download" : {
            "receiveFirst" : 101,
            "sendEnd" : 1,
            "sslEnd" : -1,
            "receiveLast" : 114.203999996651,
            "type" : "text/css",
            "receivedTime" : "216.203999996651",
            "dns" : 0,
            "connectEnd" : 1,
            "connectStart" : 0,
            "s_time" : 113.018999996711,
            "dnsStart" : -1,
            "receiveHeadersEnd" : 102,
            "len" : 218,
            "sslStart" : -1,
            "dnsEnd" : -1,
            "id" : "download_1",
            "sendStart" : 1
         },
         "id" : "r2"
      },
      {
         "download" : {
            "sslStart" : -1,
            "receiveHeadersEnd" : 102,
            "len" : 1731,
            "dnsStart" : -1,
            "sendStart" : 1,
            "id" : "download_2",
            "dnsEnd" : -1,
            "sslEnd" : -1,
            "sendEnd" : 1,
            "receiveFirst" : 101,
            "s_time" : 113.188000002992,
            "connectStart" : 0,
            "connectEnd" : 1,
            "receivedTime" : "216.612999996869",
            "dns" : 0,
            "type" : "text/css",
            "receiveLast" : 114.612999996869
         },
         "id" : "r3",
         "url" : "http://original.testbed.localhost/www.onclickads.net/style/style.css",
         "comps" : [
            {
               "id" : "comp_1",
               "s_time" : 216.652999995858,
               "time" : 1.88100000377798,
               "type" : 4,
               "e_time" : 218.533999999636
            }
         ],
         "when_comp_start" : -1
      },
      {
         "comps" : [
            {
               "s_time" : 316.42699999793,
               "id" : "comp_2",
               "time" : 1.78299999970397,
               "e_time" : 318.209999997634,
               "type" : 1
            }
         ],
         "when_comp_start" : -1,
         "id" : "r4",
         "download" : {
            "dnsStart" : -1,
            "len" : 532,
            "receiveHeadersEnd" : 202,
            "sslStart" : -1,
            "dnsEnd" : -1,
            "sendStart" : 101,
            "id" : "download_3",
            "receiveFirst" : 101,
            "sendEnd" : 101,
            "sslEnd" : -1,
            "receiveLast" : 114.382000004523,
            "type" : "application/javascript",
            "receivedTime" : "316.382000004523",
            "dns" : 0,
            "connectEnd" : 101,
            "s_time" : 113.360000003013,
            "connectStart" : 0
         },
         "url" : "http://original.testbed.localhost/www.google.com/recaptcha/api.js"
      },
      {
         "download" : {
            "sendEnd" : 101,
            "sslEnd" : -1,
            "receiveFirst" : 101,
            "connectEnd" : 101,
            "connectStart" : 0,
            "s_time" : 113.532999996096,
            "receiveLast" : 123.228999994579,
            "dns" : 0,
            "type" : "application/javascript",
            "receivedTime" : "325.228999994579",
            "receiveHeadersEnd" : 202,
            "len" : 11781,
            "sslStart" : -1,
            "dnsStart" : -1,
            "id" : "download_4",
            "sendStart" : 101,
            "dnsEnd" : -1
         },
         "id" : "r5",
         "url" : "http://original.testbed.localhost/www.googleadservices.com/pagead/conversion.js",
         "comps" : [
            {
               "e_time" : 2846.73900000053,
               "type" : 1,
               "time" : 2521.46400000493,
               "s_time" : 325.2749999956,
               "id" : "comp_5"
            },
            {
               "time" : 5.34299999708037,
               "type" : 1,
               "e_time" : 2852.53299999749,
               "id" : "comp_9",
               "s_time" : 2847.19000000041
            }
         ],
         "when_comp_start" : -1
      },
      {
         "comps" : [],
         "when_comp_start" : -1,
         "download" : {
            "len" : 22346,
            "receiveHeadersEnd" : 101,
            "sslStart" : -1,
            "dnsStart" : -1,
            "id" : "download_5",
            "sendStart" : 0,
            "dnsEnd" : -1,
            "sendEnd" : 0,
            "sslEnd" : -1,
            "receiveFirst" : 101,
            "connectEnd" : 0,
            "connectStart" : 0,
            "s_time" : 319.743000000017,
            "receiveLast" : 2787.32300000649,
            "type" : "image/png",
            "receivedTime" : "2888.32300000649",
            "dns" : 0
         },
         "id" : "r8",
         "url" : "http://original.testbed.localhost/www.onclickads.net/images/main.png"
      },
      {
         "comps" : [
            {
               "s_time" : 2894.35400000366,
               "id" : "comp_18",
               "e_time" : 2937.92399999802,
               "type" : null,
               "time" : 43.5699999943599
            }
         ],
         "when_comp_start" : -1,
         "id" : "r7",
         "download" : {
            "dnsEnd" : -1,
            "sendStart" : 319,
            "id" : "download_6",
            "dnsStart" : -1,
            "len" : 210062,
            "receiveHeadersEnd" : 425,
            "sslStart" : 204,
            "receiveLast" : 2464.26999999967,
            "receivedTime" : "2889.26999999967",
            "dns" : 0,
            "type" : "text/javascript",
            "connectEnd" : 319,
            "s_time" : 318.301999999676,
            "connectStart" : 0,
            "receiveFirst" : 106,
            "sendEnd" : 319,
            "sslEnd" : 318
         },
         "url" : "https://www.gstatic.com/recaptcha/api2/r20160502112552/recaptcha__en.js"
      },
      {
         "url" : "http://original.testbed.localhost/fonts.gstatic.com/s/ptsans/v8/msNrBgwx3ln3jjNy5b_Syw.ttf",
         "download" : {
            "receiveLast" : 3249.38600000553,
            "type" : "application/octet-stream",
            "receivedTime" : "3350.38600000553",
            "dns" : 0,
            "connectEnd" : 0,
            "connectStart" : 0,
            "s_time" : 2938.30700000399,
            "receiveFirst" : 101,
            "sendEnd" : 0,
            "sslEnd" : -1,
            "dnsEnd" : -1,
            "id" : "download_7",
            "sendStart" : 0,
            "dnsStart" : -1,
            "receiveHeadersEnd" : 101,
            "len" : 214068,
            "sslStart" : -1
         },
         "id" : "r6",
         "comps" : [],
         "when_comp_start" : -1
      },
      {
         "url" : "https://www.google.com/ads/user-lists/995032169/?label=_iK6CP-_7xcQ6fi72gM&fmt=1&num=1&cv=8&frm=0&url=http%3A//original.testbed.localhost/www.onclickads.net/&random=2879373877",
         "download" : {
            "len" : 63,
            "receiveHeadersEnd" : 470,
            "sslStart" : 216,
            "dnsStart" : -1,
            "id" : "download_8",
            "sendStart" : 343,
            "dnsEnd" : -1,
            "sendEnd" : 344,
            "sslEnd" : 343,
            "receiveFirst" : 126,
            "connectEnd" : 343,
            "connectStart" : 0,
            "s_time" : 3287.11200000544,
            "receiveLast" : 3287.94199999655,
            "dns" : 0,
            "type" : "text/html",
            "receivedTime" : "3757.94199999655"
         },
         "id" : "r9",
         "when_comp_start" : 1,
         "comps" : [
            {
               "time" : 0.109000000520155,
               "type" : "evalhtml",
               "e_time" : 3764.19099999475,
               "id" : "r9_c1",
               "s_time" : 3764.08199999423
            }
         ]
      },
      {
         "comps" : [],
         "when_comp_start" : 1,
         "download" : {
            "id" : "download_9",
            "sendStart" : 343,
            "dnsEnd" : -1,
            "len" : 63,
            "receiveHeadersEnd" : 477,
            "sslStart" : -1,
            "dnsStart" : -1,
            "connectEnd" : 343,
            "connectStart" : 0,
            "s_time" : 3286.92100000626,
            "receiveLast" : 3288.10200000484,
            "receivedTime" : "3765.10200000484",
            "type" : "text/html",
            "dns" : 0,
            "sendEnd" : 345,
            "sslEnd" : -1,
            "receiveFirst" : 132
         },
         "id" : "r10",
         "url" : "https://www.google.com/ads/user-lists/983473429/?label=0_cMCPultwYQlbr61AM&fmt=1&num=2&cv=8&frm=0&url=http%3A//original.testbed.localhost/www.onclickads.net/&random=2091318166"
      }
   ],
   "load_activity" : -1,
   "start_activity" : "download_0",
   "n_download_no_trigger" : 1
}
