{
   "n_download_no_trigger" : 1,
   "start_activity" : "download_0",
   "name" : "original.testbed.localhost_www.stihl.ch_",
   "load_activity" : -1,
   "objs" : [
      {
         "when_comp_start" : 1,
         "url" : "http://original.testbed.localhost/www.stihl.ch/",
         "id" : "r1",
         "comps" : [
            {
               "s_time" : 163.592000026256,
               "time" : 612.508999998681,
               "id" : "r1_c1",
               "type" : "evalhtml",
               "e_time" : 776.101000024937
            },
            {
               "s_time" : 876.93800003035,
               "time" : -346233234.582,
               "id" : "r1_c2",
               "type" : "evalhtml",
               "e_time" : -346232357.644
            },
            {
               "s_time" : 880.367000005208,
               "time" : 195.456000044942,
               "type" : "evalhtml",
               "id" : "r1_c3",
               "e_time" : 1075.82300005015
            }
         ],
         "download" : {
            "receiveFirst" : 151,
            "len" : 7573,
            "dns" : 0,
            "dnsEnd" : -1,
            "receiveHeadersEnd" : 151,
            "sslEnd" : -1,
            "connectEnd" : 0,
            "connectStart" : 0,
            "id" : "download_0",
            "receivedTime" : "151.985000004061",
            "sslStart" : -1,
            "dnsStart" : -1,
            "receiveLast" : 0.985000004060566,
            "s_time" : 0,
            "sendEnd" : 0,
            "sendStart" : 0,
            "type" : "text/html"
         }
      },
      {
         "when_comp_start" : -1,
         "url" : "http://original.testbed.localhost/static.stihl.com/css/print.min.css",
         "id" : "r3",
         "comps" : [
            {
               "s_time" : 318.119000003207,
               "time" : 1.10600003972701,
               "type" : 4,
               "id" : "comp_0",
               "e_time" : 319.225000042934
            }
         ],
         "download" : {
            "receiveFirst" : 151,
            "len" : 15024,
            "dns" : 0,
            "dnsEnd" : -1,
            "receiveHeadersEnd" : 152,
            "sslEnd" : -1,
            "connectEnd" : 1,
            "connectStart" : 0,
            "id" : "download_1",
            "receivedTime" : "318.07600002503",
            "sslStart" : -1,
            "dnsStart" : -1,
            "receiveLast" : 166.07600002503,
            "s_time" : 164.454000012483,
            "sendEnd" : 1,
            "sendStart" : 1,
            "type" : "text/css"
         }
      },
      {
         "when_comp_start" : -1,
         "url" : "http://original.testbed.localhost/static.stihl.com/js/custom.min.js",
         "id" : "r6",
         "comps" : [
            {
               "s_time" : 877.054000040516,
               "time" : 3.31299996469193,
               "type" : 1,
               "id" : "comp_7",
               "e_time" : 880.367000005208
            }
         ],
         "download" : {
            "receiveFirst" : 155,
            "len" : 100929,
            "dns" : 0,
            "dnsEnd" : -1,
            "receiveHeadersEnd" : 156,
            "sslEnd" : -1,
            "connectEnd" : 1,
            "connectStart" : 0,
            "id" : "download_2",
            "receivedTime" : "472.054000012577",
            "sslStart" : -1,
            "dnsStart" : -1,
            "receiveLast" : 316.054000012577,
            "s_time" : 164.854000031482,
            "sendEnd" : 1,
            "sendStart" : 1,
            "type" : "application/javascript"
         }
      },
      {
         "when_comp_start" : -1,
         "url" : "http://original.testbed.localhost/static.stihl.com/js/lib.min.js",
         "id" : "r5",
         "comps" : [
            {
               "s_time" : 776.049000036437,
               "time" : 100.888999993913,
               "type" : 1,
               "id" : "comp_3",
               "e_time" : 876.93800003035
            }
         ],
         "download" : {
            "receiveFirst" : 158,
            "len" : 299795,
            "dns" : 0,
            "dnsEnd" : -1,
            "receiveHeadersEnd" : 159,
            "sslEnd" : -1,
            "connectEnd" : 1,
            "connectStart" : 0,
            "id" : "download_3",
            "receivedTime" : "775.990000052843",
            "sslStart" : -1,
            "dnsStart" : -1,
            "receiveLast" : 616.990000052843,
            "s_time" : 164.677000022493,
            "sendEnd" : 1,
            "sendStart" : 1,
            "type" : "application/javascript"
         }
      },
      {
         "when_comp_start" : -1,
         "url" : "http://original.testbed.localhost/static.stihl.com/css/screen.min.css",
         "id" : "r2",
         "comps" : [
            {
               "s_time" : 479.246000002604,
               "time" : 23.421999998391,
               "type" : 4,
               "id" : "comp_2",
               "e_time" : 502.668000000995
            }
         ],
         "download" : {
            "receiveFirst" : 160,
            "len" : 287229,
            "dns" : 0,
            "dnsEnd" : -1,
            "receiveHeadersEnd" : 161,
            "sslEnd" : -1,
            "connectEnd" : 1,
            "connectStart" : 0,
            "id" : "download_4",
            "receivedTime" : "479.1640000185",
            "sslStart" : -1,
            "dnsStart" : -1,
            "receiveLast" : 318.1640000185,
            "s_time" : 164.226000022609,
            "sendEnd" : 1,
            "sendStart" : 1,
            "type" : "text/css"
         }
      },
      {
         "when_comp_start" : -1,
         "url" : "http://original.testbed.localhost/static.stihl.com/css/print_dealerlocator.css",
         "id" : "r4",
         "comps" : [
            {
               "s_time" : 470.002000045497,
               "time" : 0.044999993405952,
               "type" : 4,
               "id" : "comp_1",
               "e_time" : 470.047000038903
            }
         ],
         "download" : {
            "receiveFirst" : 151,
            "len" : 546,
            "dns" : 0,
            "dnsEnd" : -1,
            "receiveHeadersEnd" : 151,
            "sslEnd" : -1,
            "connectEnd" : 0,
            "connectStart" : 0,
            "id" : "download_5",
            "receivedTime" : "469.938000023831",
            "sslStart" : -1,
            "dnsStart" : -1,
            "receiveLast" : 318.938000023831,
            "s_time" : 317.923000024166,
            "sendEnd" : 0,
            "sendStart" : 0,
            "type" : "text/css"
         }
      },
      {
         "when_comp_start" : -1,
         "url" : "http://original.testbed.localhost/static.stihl.com/img_layout/stihl_print_logo.gif",
         "id" : "r7",
         "comps" : [],
         "download" : {
            "receiveFirst" : 151,
            "len" : 1647,
            "dns" : 0,
            "dnsEnd" : -1,
            "receiveHeadersEnd" : 151,
            "sslEnd" : -1,
            "connectEnd" : 0,
            "connectStart" : 0,
            "id" : "download_6",
            "receivedTime" : "621.625000028871",
            "sslStart" : -1,
            "dnsStart" : -1,
            "receiveLast" : 470.625000028871,
            "s_time" : 469.809000031091,
            "sendEnd" : 0,
            "sendStart" : 0,
            "type" : "image/gif"
         }
      },
      {
         "when_comp_start" : -1,
         "url" : "http://original.testbed.localhost/static.stihl.com/img_layout/stihl_moodrahmen_fade.png",
         "id" : "r8",
         "comps" : [],
         "download" : {
            "receiveFirst" : 151,
            "len" : 36319,
            "dns" : 0,
            "dnsEnd" : -1,
            "receiveHeadersEnd" : 151,
            "sslEnd" : -1,
            "connectEnd" : 0,
            "connectStart" : 0,
            "id" : "download_7",
            "receivedTime" : "942.318000015803",
            "sslStart" : -1,
            "dnsStart" : -1,
            "receiveLast" : 791.318000015803,
            "s_time" : 621.472000028007,
            "sendEnd" : 0,
            "sendStart" : 0,
            "type" : "image/png"
         }
      },
      {
         "when_comp_start" : -1,
         "url" : "http://original.testbed.localhost/de.stihl.ch/p/images/teaser/vorschaltseite_kettenwerk.jpg",
         "id" : "r10",
         "comps" : [],
         "download" : {
            "receiveFirst" : 151,
            "len" : 32241,
            "dns" : 0,
            "dnsEnd" : -1,
            "receiveHeadersEnd" : 151,
            "sslEnd" : -1,
            "connectEnd" : 0,
            "connectStart" : 0,
            "id" : "download_8",
            "receivedTime" : "1079.33400000911",
            "sslStart" : -1,
            "dnsStart" : -1,
            "receiveLast" : 928.334000009112,
            "s_time" : 776.101000024937,
            "sendEnd" : 0,
            "sendStart" : 0,
            "type" : "image/jpeg"
         }
      },
      {
         "when_comp_start" : -1,
         "url" : "http://original.testbed.localhost/de.stihl.ch/p/images/teaser/ch-de/vorschaltseite_vertrieb.jpg",
         "id" : "r9",
         "comps" : [],
         "download" : {
            "receiveFirst" : 151,
            "len" : 103127,
            "dns" : 0,
            "dnsEnd" : -1,
            "receiveHeadersEnd" : 151,
            "sslEnd" : -1,
            "connectEnd" : 0,
            "connectStart" : 0,
            "id" : "download_9",
            "receivedTime" : "1231.4390000538",
            "sslStart" : -1,
            "dnsStart" : -1,
            "receiveLast" : 1080.4390000538,
            "s_time" : 775.928000046406,
            "sendEnd" : 0,
            "sendStart" : 0,
            "type" : "image/jpeg"
         }
      },
      {
         "when_comp_start" : -1,
         "url" : "http://original.testbed.localhost/de.stihl.ch/p/images/background/summer_stihl_mountains.jpg",
         "id" : "r11",
         "comps" : [],
         "download" : {
            "receiveFirst" : 151,
            "len" : 580387,
            "dns" : 0,
            "dnsEnd" : -1,
            "receiveHeadersEnd" : 152,
            "sslEnd" : -1,
            "connectEnd" : 1,
            "connectStart" : 0,
            "id" : "download_10",
            "receivedTime" : "2992.92200000491",
            "sslStart" : -1,
            "dnsStart" : -1,
            "receiveLast" : 2840.92200000491,
            "s_time" : 885.142000042833,
            "sendEnd" : 1,
            "sendStart" : 1,
            "type" : "image/jpeg"
         }
      },
      {
         "when_comp_start" : -1,
         "url" : "http://original.testbed.localhost/static.stihl.com/img_layout/topnavigation_bg.png",
         "id" : "r12",
         "comps" : [],
         "download" : {
            "receiveFirst" : 152,
            "len" : 199,
            "dns" : 0,
            "dnsEnd" : -1,
            "receiveHeadersEnd" : 153,
            "sslEnd" : -1,
            "connectEnd" : 1,
            "connectStart" : 0,
            "id" : "download_11",
            "receivedTime" : "1045.63800001051",
            "sslStart" : -1,
            "dnsStart" : -1,
            "receiveLast" : 892.638000010513,
            "s_time" : 885.525999998208,
            "sendEnd" : 1,
            "sendStart" : 1,
            "type" : "image/png"
         }
      },
      {
         "when_comp_start" : -1,
         "url" : "http://original.testbed.localhost/static.stihl.com/img_layout/backgrounds/fade.png",
         "id" : "r13",
         "comps" : [],
         "download" : {
            "receiveFirst" : 152,
            "len" : 463,
            "dns" : 0,
            "dnsEnd" : -1,
            "receiveHeadersEnd" : 153,
            "sslEnd" : -1,
            "connectEnd" : 1,
            "connectStart" : 0,
            "id" : "download_12",
            "receivedTime" : "1045.81900004996",
            "sslStart" : -1,
            "dnsStart" : -1,
            "receiveLast" : 892.81900004996,
            "s_time" : 885.83500002278,
            "sendEnd" : 1,
            "sendStart" : 1,
            "type" : "image/png"
         }
      },
      {
         "when_comp_start" : -1,
         "url" : "http://original.testbed.localhost/static.stihl.com/img_layout/top_navi_right.png",
         "id" : "r14",
         "comps" : [],
         "download" : {
            "receiveFirst" : 150,
            "len" : 796,
            "dns" : 0,
            "dnsEnd" : -1,
            "receiveHeadersEnd" : 186,
            "sslEnd" : -1,
            "connectEnd" : 36,
            "connectStart" : 0,
            "id" : "download_13",
            "receivedTime" : "1075.86000004085",
            "sslStart" : -1,
            "dnsStart" : -1,
            "receiveLast" : 889.860000040848,
            "s_time" : 888.552000047639,
            "sendEnd" : 36,
            "sendStart" : 36,
            "type" : "image/png"
         }
      },
      {
         "when_comp_start" : -1,
         "url" : "http://original.testbed.localhost/static.stihl.com/img_layout/home_button.png",
         "id" : "r15",
         "comps" : [],
         "download" : {
            "receiveFirst" : 151,
            "len" : 8091,
            "dns" : 0,
            "dnsEnd" : -1,
            "receiveHeadersEnd" : 302,
            "sslEnd" : -1,
            "connectEnd" : 151,
            "connectStart" : 0,
            "id" : "download_14",
            "receivedTime" : "1194.69299999764",
            "sslStart" : -1,
            "dnsStart" : -1,
            "receiveLast" : 892.692999997642,
            "s_time" : 888.835000048857,
            "sendEnd" : 151,
            "sendStart" : 151,
            "type" : "image/png"
         }
      },
      {
         "when_comp_start" : -1,
         "url" : "http://original.testbed.localhost/static.stihl.com/img_layout/top_navi_left.png",
         "id" : "r16",
         "comps" : [],
         "download" : {
            "receiveFirst" : 151,
            "len" : 1278,
            "dns" : 0,
            "dnsEnd" : -1,
            "receiveHeadersEnd" : 302,
            "sslEnd" : -1,
            "connectEnd" : 151,
            "connectStart" : 0,
            "id" : "download_15",
            "receivedTime" : "1194.9860000168",
            "sslStart" : -1,
            "dnsStart" : -1,
            "receiveLast" : 892.986000016797,
            "s_time" : 889.138000027742,
            "sendEnd" : 151,
            "sendStart" : 151,
            "type" : "image/png"
         }
      },
      {
         "when_comp_start" : -1,
         "url" : "http://original.testbed.localhost/static.stihl.com/img_layout/top_navi_bg.gif",
         "id" : "r17",
         "comps" : [],
         "download" : {
            "receiveFirst" : 151,
            "len" : 334,
            "dns" : 0,
            "dnsEnd" : -1,
            "receiveHeadersEnd" : 337,
            "sslEnd" : -1,
            "connectEnd" : 186,
            "connectStart" : 0,
            "id" : "download_16",
            "receivedTime" : "1227.17399999965",
            "sslStart" : -1,
            "dnsStart" : -1,
            "receiveLast" : 890.17399999965,
            "s_time" : 889.459000027273,
            "sendEnd" : 186,
            "sendStart" : 186,
            "type" : "image/gif"
         }
      },
      {
         "when_comp_start" : -1,
         "url" : "http://original.testbed.localhost/static.stihl.com/img_layout/top_navi_divider.gif",
         "id" : "r18",
         "comps" : [],
         "download" : {
            "receiveFirst" : 151,
            "len" : 323,
            "dns" : 0,
            "dnsEnd" : -1,
            "receiveHeadersEnd" : 305,
            "sslEnd" : -1,
            "connectEnd" : 154,
            "connectStart" : 0,
            "id" : "download_17",
            "receivedTime" : "1230.31400004402",
            "sslStart" : -1,
            "dnsStart" : -1,
            "receiveLast" : 925.314000044018,
            "s_time" : 924.246000009589,
            "sendEnd" : 154,
            "sendStart" : 154,
            "type" : "image/gif"
         }
      },
      {
         "when_comp_start" : -1,
         "url" : "http://original.testbed.localhost/static.stihl.com/img_layout/arrow_orange.png",
         "id" : "r19",
         "comps" : [],
         "download" : {
            "receiveFirst" : 151,
            "len" : 284,
            "dns" : 0,
            "dnsEnd" : -1,
            "receiveHeadersEnd" : 303,
            "sslEnd" : -1,
            "connectEnd" : 152,
            "connectStart" : 0,
            "id" : "download_18",
            "receivedTime" : "1345.34500003792",
            "sslStart" : -1,
            "dnsStart" : -1,
            "receiveLast" : 1042.34500003792,
            "s_time" : 1039.83200003859,
            "sendEnd" : 152,
            "sendStart" : 152,
            "type" : "image/png"
         }
      },
      {
         "when_comp_start" : -1,
         "url" : "http://original.testbed.localhost/de.stihl.ch/p/media/flash/ch-de/teaser.jpg",
         "id" : "r20",
         "comps" : [],
         "download" : {
            "receiveFirst" : 150,
            "len" : 233815,
            "dns" : 0,
            "dnsEnd" : -1,
            "receiveHeadersEnd" : 302,
            "sslEnd" : -1,
            "connectEnd" : 152,
            "connectStart" : 0,
            "id" : "download_19",
            "receivedTime" : "2396.32800000254",
            "sslStart" : -1,
            "dnsStart" : -1,
            "receiveLast" : 2094.32800000254,
            "s_time" : 1040.15300003812,
            "sendEnd" : 152,
            "sendStart" : 152,
            "type" : "image/jpeg"
         }
      },
      {
         "when_comp_start" : -1,
         "url" : "http://original.testbed.localhost/static.stihl.com/img_layout/orange_button.gif",
         "id" : "r21",
         "comps" : [],
         "download" : {
            "receiveFirst" : 151,
            "len" : 4927,
            "dns" : 0,
            "dnsEnd" : -1,
            "receiveHeadersEnd" : 302,
            "sslEnd" : -1,
            "connectEnd" : 151,
            "connectStart" : 0,
            "id" : "download_20",
            "receivedTime" : "1378.50900000194",
            "sslStart" : -1,
            "dnsStart" : -1,
            "receiveLast" : 1076.50900000194,
            "s_time" : 1075.82300005015,
            "sendEnd" : 151,
            "sendStart" : 151,
            "type" : "image/gif"
         }
      }
   ],
   "deps" : [
      {
         "a2" : "r1_c2",
         "time" : -1,
         "id" : "dep1",
         "a1" : "comp_3"
      },
      {
         "a2" : "r1_c3",
         "time" : -1,
         "id" : "dep2",
         "a1" : "comp_7"
      },
      {
         "a2" : "comp_3",
         "time" : -1,
         "id" : "dep3",
         "a1" : "comp_2"
      },
      {
         "a2" : "comp_3",
         "time" : -1,
         "id" : "dep4",
         "a1" : "comp_0"
      },
      {
         "a2" : "comp_3",
         "time" : -1,
         "id" : "dep5",
         "a1" : "comp_1"
      },
      {
         "a2" : "comp_7",
         "time" : -1,
         "id" : "dep6",
         "a1" : "comp_3"
      },
      {
         "a2" : "download_20",
         "time" : -1,
         "id" : "dep7",
         "a1" : "r1_c3"
      },
      {
         "a2" : "download_19",
         "time" : 159.786000032912,
         "id" : "dep8",
         "a1" : "r1_c3"
      },
      {
         "a2" : "download_18",
         "time" : 159.465000033382,
         "id" : "dep9",
         "a1" : "r1_c3"
      },
      {
         "a2" : "download_17",
         "time" : 43.8790000043811,
         "id" : "dep10",
         "a1" : "r1_c3"
      },
      {
         "a2" : "download_16",
         "time" : 9.09200002206501,
         "id" : "dep11",
         "a1" : "r1_c3"
      },
      {
         "a2" : "download_15",
         "time" : 8.77100002253405,
         "id" : "dep12",
         "a1" : "r1_c3"
      },
      {
         "a2" : "download_14",
         "time" : 8.468000043649,
         "id" : "dep13",
         "a1" : "r1_c3"
      },
      {
         "a2" : "download_13",
         "time" : 8.18500004243106,
         "id" : "dep14",
         "a1" : "r1_c3"
      },
      {
         "a2" : "download_12",
         "time" : 5.46800001757208,
         "id" : "dep15",
         "a1" : "r1_c3"
      },
      {
         "a2" : "download_11",
         "time" : 5.15899999300007,
         "id" : "dep16",
         "a1" : "r1_c3"
      },
      {
         "a2" : "download_10",
         "time" : 4.77500003762509,
         "id" : "dep17",
         "a1" : "r1_c3"
      },
      {
         "a2" : "download_9",
         "time" : -1,
         "id" : "dep18",
         "a1" : "r1_c1"
      },
      {
         "a2" : "download_8",
         "time" : -1,
         "id" : "dep19",
         "a1" : "r1_c1"
      },
      {
         "a2" : "download_7",
         "time" : 457.880000001751,
         "id" : "dep20",
         "a1" : "r1_c1"
      },
      {
         "a2" : "download_6",
         "time" : 306.217000004835,
         "id" : "dep21",
         "a1" : "r1_c1"
      },
      {
         "a2" : "download_5",
         "time" : 154.33099999791,
         "id" : "dep22",
         "a1" : "r1_c1"
      },
      {
         "a2" : "download_4",
         "time" : 0.633999996353026,
         "id" : "dep23",
         "a1" : "r1_c1"
      },
      {
         "a2" : "download_3",
         "time" : 1.084999996237,
         "id" : "dep24",
         "a1" : "r1_c1"
      },
      {
         "a2" : "download_2",
         "time" : 1.26200000522601,
         "id" : "dep25",
         "a1" : "r1_c1"
      },
      {
         "a2" : "download_2",
         "time" : 1.26200000522601,
         "id" : "dep26",
         "a1" : "r1_c1"
      },
      {
         "a2" : "download_1",
         "time" : 0.861999986227005,
         "id" : "dep27",
         "a1" : "r1_c1"
      }
   ]
}
