{
   "name" : "original.testbed.localhost_www.reddit.com_",
   "n_download_no_trigger" : 1,
   "start_activity" : "download_0",
   "load_activity" : -1,
   "objs" : [
      {
         "id" : "r1",
         "when_comp_start" : 1,
         "download" : {
            "sslEnd" : -1,
            "type" : "text/html",
            "dnsStart" : -1,
            "sendStart" : 0,
            "dns" : 0,
            "receivedTime" : "48.1629999994766",
            "sendEnd" : 0,
            "len" : 132145,
            "dnsEnd" : -1,
            "connectStart" : 0,
            "receiveHeadersEnd" : 24,
            "receiveLast" : 24.1629999994766,
            "receiveFirst" : 24,
            "connectEnd" : 0,
            "sslStart" : -1,
            "id" : "download_0",
            "s_time" : 0
         },
         "url" : "http://original.testbed.localhost/www.reddit.com/",
         "comps" : [
            {
               "time" : 67.2999999951571,
               "id" : "r1_c1",
               "s_time" : 40.7750000013039,
               "e_time" : 108.074999996461,
               "type" : "evalhtml"
            },
            {
               "time" : 127.640999999131,
               "id" : "r1_c2",
               "e_time" : 319.844999998168,
               "s_time" : 192.203999999037,
               "type" : "evalhtml"
            },
            {
               "e_time" : 418.681000002834,
               "s_time" : 367.258999998739,
               "id" : "r1_c3",
               "type" : "evalhtml",
               "time" : 51.422000004095
            }
         ]
      },
      {
         "when_comp_start" : -1,
         "download" : {
            "sendEnd" : 0,
            "receivedTime" : "130.769000003056",
            "connectStart" : 0,
            "dnsEnd" : -1,
            "len" : 292601,
            "type" : "text/css",
            "sslEnd" : -1,
            "dns" : 0,
            "sendStart" : 0,
            "dnsStart" : -1,
            "s_time" : 41.174999998475,
            "id" : "download_1",
            "receiveLast" : 107.769000003056,
            "receiveHeadersEnd" : 23,
            "sslStart" : -1,
            "receiveFirst" : 23,
            "connectEnd" : 0
         },
         "url" : "http://original.testbed.localhost/www.redditstatic.com/reddit.ooBJpEoO9vY.css",
         "comps" : [
            {
               "time" : 122.96900000365,
               "id" : "comp_23",
               "s_time" : 130.879999996978,
               "e_time" : 253.849000000628,
               "type" : 4
            }
         ],
         "id" : "r2"
      },
      {
         "download" : {
            "receiveHeadersEnd" : 34,
            "receiveLast" : 65.409000002197,
            "connectEnd" : 7,
            "receiveFirst" : 27,
            "sslStart" : -1,
            "id" : "download_2",
            "s_time" : 41.347999998834,
            "sslEnd" : -1,
            "type" : "application/javascript",
            "dnsStart" : -1,
            "sendStart" : 7,
            "dns" : 0,
            "receivedTime" : "99.409000002197",
            "sendEnd" : 7,
            "len" : 226927,
            "dnsEnd" : -1,
            "connectStart" : 0
         },
         "when_comp_start" : -1,
         "comps" : [
            {
               "time" : 42.411000002175,
               "type" : 1,
               "e_time" : 192.203999999037,
               "s_time" : 149.792999996862,
               "id" : "comp_24"
            }
         ],
         "url" : "http://original.testbed.localhost/www.redditstatic.com/reddit-init.en.qq9nT0inXvw.js",
         "id" : "r3"
      },
      {
         "id" : "r4",
         "download" : {
            "receiveLast" : 43.121999996365,
            "receiveHeadersEnd" : 40,
            "sslStart" : -1,
            "receiveFirst" : 20,
            "connectEnd" : 20,
            "s_time" : 41.9340000007651,
            "id" : "download_3",
            "type" : "image/svg+xml",
            "sslEnd" : -1,
            "sendStart" : 20,
            "dns" : 0,
            "dnsStart" : 0,
            "sendEnd" : 20,
            "receivedTime" : "83.121999996365",
            "connectStart" : 0,
            "dnsEnd" : 0,
            "len" : 7716
         },
         "when_comp_start" : -1,
         "comps" : [],
         "url" : "http://original.testbed.localhost/www.redditstatic.com/subscribe-header.svg"
      },
      {
         "id" : "r5",
         "url" : "http://original.testbed.localhost/www.redditstatic.com/subscribe-header-thanks.svg",
         "comps" : [],
         "download" : {
            "receivedTime" : "104.566000001796",
            "sendEnd" : 0,
            "len" : 6679,
            "dnsEnd" : -1,
            "connectStart" : 0,
            "sslEnd" : -1,
            "type" : "image/svg+xml",
            "dnsStart" : -1,
            "dns" : 0,
            "sendStart" : 0,
            "id" : "download_4",
            "s_time" : 82.99000000261,
            "receiveHeadersEnd" : 21,
            "receiveLast" : 83.5660000017961,
            "receiveFirst" : 21,
            "connectEnd" : 0,
            "sslStart" : -1
         },
         "when_comp_start" : -1
      },
      {
         "id" : "r6",
         "comps" : [],
         "url" : "http://original.testbed.localhost/b.thumbs.redditmedia.com/ygTxYP_TQ-fCatJFcXHZsXYG8k9w7dWn77sqE4stYrQ.jpg",
         "download" : {
            "sendStart" : 0,
            "dns" : 0,
            "dnsStart" : -1,
            "type" : "image/jpeg",
            "sslEnd" : -1,
            "connectStart" : 0,
            "len" : 4131,
            "dnsEnd" : -1,
            "sendEnd" : 0,
            "receivedTime" : "270.066999997653",
            "sslStart" : -1,
            "receiveFirst" : 21,
            "connectEnd" : 0,
            "receiveLast" : 249.066999997653,
            "receiveHeadersEnd" : 21,
            "id" : "download_5",
            "s_time" : 104.452999999921
         },
         "when_comp_start" : -1
      },
      {
         "id" : "r7",
         "when_comp_start" : -1,
         "download" : {
            "sslStart" : -1,
            "connectEnd" : 1,
            "receiveFirst" : 20,
            "receiveLast" : 249.400000001246,
            "receiveHeadersEnd" : 21,
            "s_time" : 107.84699999931,
            "id" : "download_6",
            "dns" : 0,
            "sendStart" : 1,
            "dnsStart" : -1,
            "type" : "image/jpeg",
            "sslEnd" : -1,
            "connectStart" : 0,
            "dnsEnd" : -1,
            "len" : 4217,
            "sendEnd" : 1,
            "receivedTime" : "270.400000001246"
         },
         "url" : "http://original.testbed.localhost/b.thumbs.redditmedia.com/5zWkcxJgRaDWlmY9Rzi2FN4N-pdE3JIGuzWjMLdJCUA.jpg",
         "comps" : []
      },
      {
         "id" : "r8",
         "when_comp_start" : -1,
         "download" : {
            "receivedTime" : "270.472999996855",
            "sendEnd" : 1,
            "dnsEnd" : -1,
            "len" : 5104,
            "connectStart" : 0,
            "sslEnd" : -1,
            "type" : "image/jpeg",
            "dnsStart" : -1,
            "sendStart" : 0,
            "dns" : 0,
            "s_time" : 107.927999997628,
            "id" : "download_7",
            "receiveHeadersEnd" : 21,
            "receiveLast" : 249.472999996855,
            "connectEnd" : 0,
            "receiveFirst" : 20,
            "sslStart" : -1
         },
         "comps" : [],
         "url" : "http://original.testbed.localhost/b.thumbs.redditmedia.com/ld3IrDJgULlCoU5z0-KED7eqiuQAeDe3Oud2pjcLtbU.jpg"
      },
      {
         "id" : "r9",
         "url" : "http://original.testbed.localhost/b.thumbs.redditmedia.com/w6jQFnSaLbVo6ZJhWyO7thG2afsGFBGUFIc7o71ekzc.jpg",
         "comps" : [],
         "download" : {
            "s_time" : 108.074999996461,
            "id" : "download_8",
            "receiveHeadersEnd" : 21,
            "receiveLast" : 249.537999997032,
            "receiveFirst" : 21,
            "connectEnd" : 0,
            "sslStart" : -1,
            "receivedTime" : "270.537999997032",
            "sendEnd" : 0,
            "dnsEnd" : -1,
            "len" : 2977,
            "connectStart" : 0,
            "sslEnd" : -1,
            "type" : "image/jpeg",
            "dnsStart" : -1,
            "dns" : 0,
            "sendStart" : 0
         },
         "when_comp_start" : -1
      },
      {
         "comps" : [],
         "url" : "http://original.testbed.localhost/www.redditstatic.com/droparrowgray.gif",
         "download" : {
            "receiveFirst" : 20,
            "connectEnd" : 0,
            "sslStart" : -1,
            "receiveHeadersEnd" : 20,
            "receiveLast" : 305.262999998813,
            "id" : "download_9",
            "s_time" : 204.60599999933,
            "dnsStart" : -1,
            "dns" : 0,
            "sendStart" : 0,
            "sslEnd" : -1,
            "type" : "image/gif",
            "len" : 67,
            "dnsEnd" : -1,
            "connectStart" : 0,
            "receivedTime" : "325.262999998813",
            "sendEnd" : 0
         },
         "when_comp_start" : -1,
         "id" : "r13"
      },
      {
         "when_comp_start" : -1,
         "download" : {
            "sendEnd" : 0,
            "receivedTime" : "325.624999997672",
            "connectStart" : 0,
            "dnsEnd" : -1,
            "len" : 40375,
            "type" : "image/png",
            "sslEnd" : -1,
            "dns" : 0,
            "sendStart" : 0,
            "dnsStart" : -1,
            "s_time" : 209.219999997003,
            "id" : "download_10",
            "receiveLast" : 305.624999997672,
            "receiveHeadersEnd" : 20,
            "sslStart" : -1,
            "receiveFirst" : 20,
            "connectEnd" : 0
         },
         "comps" : [],
         "url" : "http://original.testbed.localhost/www.redditstatic.com/sprite-reddit.ZDiVRxCXXWg.png",
         "id" : "r14"
      },
      {
         "id" : "r15",
         "url" : "http://original.testbed.localhost/www.redditstatic.com/throbber.gif",
         "comps" : [],
         "download" : {
            "connectStart" : 0,
            "len" : 1100,
            "dnsEnd" : -1,
            "sendEnd" : 0,
            "receivedTime" : "325.912000000244",
            "sendStart" : 0,
            "dns" : 0,
            "dnsStart" : -1,
            "type" : "image/gif",
            "sslEnd" : -1,
            "id" : "download_11",
            "s_time" : 221.499999999651,
            "sslStart" : -1,
            "connectEnd" : 0,
            "receiveFirst" : 20,
            "receiveLast" : 305.912000000244,
            "receiveHeadersEnd" : 20
         },
         "when_comp_start" : -1
      },
      {
         "id" : "r16",
         "when_comp_start" : -1,
         "download" : {
            "receivedTime" : "340.605999997933",
            "sendEnd" : 0,
            "dnsEnd" : -1,
            "len" : 7554,
            "connectStart" : 0,
            "sslEnd" : -1,
            "type" : "image/jpeg",
            "dnsStart" : -1,
            "sendStart" : 0,
            "dns" : 0,
            "s_time" : 274.835999996867,
            "id" : "download_12",
            "receiveHeadersEnd" : 21,
            "receiveLast" : 319.605999997933,
            "connectEnd" : 0,
            "receiveFirst" : 21,
            "sslStart" : -1
         },
         "comps" : [],
         "url" : "http://original.testbed.localhost/b.thumbs.redditmedia.com/1ZEx_QOmVmAr8TnYB0yW2hK7ICclw9wy2PozuhbMJ4E.jpg"
      },
      {
         "comps" : [],
         "url" : "http://original.testbed.localhost/a.thumbs.redditmedia.com/upbDqaE-BJd12JRGOwwEXeBx9XLI4h0wDI6pMa3qUP0.jpg",
         "when_comp_start" : -1,
         "download" : {
            "dnsStart" : -1,
            "sendStart" : 1,
            "dns" : 0,
            "sslEnd" : -1,
            "type" : "image/jpeg",
            "dnsEnd" : -1,
            "len" : 2277,
            "connectStart" : 0,
            "receivedTime" : "340.867999999318",
            "sendEnd" : 1,
            "receiveFirst" : 20,
            "connectEnd" : 1,
            "sslStart" : -1,
            "receiveHeadersEnd" : 21,
            "receiveLast" : 319.867999999318,
            "s_time" : 275.119999998424,
            "id" : "download_13"
         },
         "id" : "r17"
      },
      {
         "when_comp_start" : -1,
         "download" : {
            "receivedTime" : "341.047000001709",
            "sendEnd" : 1,
            "dnsEnd" : -1,
            "len" : 6678,
            "connectStart" : 0,
            "sslEnd" : -1,
            "type" : "image/jpeg",
            "dnsStart" : -1,
            "sendStart" : 1,
            "dns" : 0,
            "s_time" : 275.546999997459,
            "id" : "download_14",
            "receiveHeadersEnd" : 22,
            "receiveLast" : 319.047000001709,
            "receiveFirst" : 21,
            "connectEnd" : 1,
            "sslStart" : -1
         },
         "url" : "http://original.testbed.localhost/b.thumbs.redditmedia.com/tkIpRg8nwaFsCocoxtIkBGSb6HsRPmAN8y7CxL1mTAE.jpg",
         "comps" : [],
         "id" : "r18"
      },
      {
         "comps" : [],
         "url" : "http://original.testbed.localhost/b.thumbs.redditmedia.com/JnpzK5GcKCmukgVA6UHrHR8wYMRNEoZUACEphIpZDNw.jpg",
         "when_comp_start" : -1,
         "download" : {
            "sendEnd" : 1,
            "receivedTime" : "341.215000000375",
            "connectStart" : 0,
            "dnsEnd" : -1,
            "len" : 3595,
            "type" : "image/jpeg",
            "sslEnd" : -1,
            "sendStart" : 1,
            "dns" : 0,
            "dnsStart" : -1,
            "s_time" : 275.771000000532,
            "id" : "download_15",
            "receiveLast" : 319.215000000375,
            "receiveHeadersEnd" : 22,
            "sslStart" : -1,
            "receiveFirst" : 21,
            "connectEnd" : 1
         },
         "id" : "r19"
      },
      {
         "when_comp_start" : -1,
         "download" : {
            "sendEnd" : 21,
            "receivedTime" : "341.576999999234",
            "connectStart" : 0,
            "len" : 4808,
            "dnsEnd" : 0,
            "type" : "image/jpeg",
            "sslEnd" : -1,
            "sendStart" : 21,
            "dns" : 0,
            "dnsStart" : 0,
            "id" : "download_16",
            "s_time" : 276.026999999885,
            "receiveLast" : 300.576999999234,
            "receiveHeadersEnd" : 41,
            "sslStart" : -1,
            "receiveFirst" : 20,
            "connectEnd" : 21
         },
         "url" : "http://original.testbed.localhost/a.thumbs.redditmedia.com/yTcEuUfeC__QcMHd2KOy64O0aUmpUJ94D3lVb8bsvq4.jpg",
         "comps" : [],
         "id" : "r20"
      },
      {
         "url" : "http://original.testbed.localhost/b.thumbs.redditmedia.com/-xtJjKSToWAhkGEIoF_SS7G33LCuFAZvtjkj6idvE0E.jpg",
         "comps" : [],
         "when_comp_start" : -1,
         "download" : {
            "s_time" : 276.239999999234,
            "id" : "download_17",
            "receiveLast" : 299.982999998436,
            "receiveHeadersEnd" : 42,
            "sslStart" : -1,
            "receiveFirst" : 21,
            "connectEnd" : 21,
            "sendEnd" : 21,
            "receivedTime" : "341.982999998436",
            "connectStart" : 0,
            "dnsEnd" : 1,
            "len" : 4541,
            "type" : "image/jpeg",
            "sslEnd" : -1,
            "dns" : 0,
            "sendStart" : 21,
            "dnsStart" : 1
         },
         "id" : "r21"
      },
      {
         "when_comp_start" : -1,
         "download" : {
            "id" : "download_18",
            "s_time" : 282.132000000274,
            "receiveFirst" : 22,
            "connectEnd" : 14,
            "sslStart" : -1,
            "receiveHeadersEnd" : 36,
            "receiveLast" : 306.064999997092,
            "len" : 5496,
            "dnsEnd" : -1,
            "connectStart" : 0,
            "receivedTime" : "342.064999997092",
            "sendEnd" : 14,
            "dnsStart" : -1,
            "sendStart" : 14,
            "dns" : 0,
            "sslEnd" : -1,
            "type" : "application/javascript"
         },
         "comps" : [
            {
               "e_time" : 367.258999998739,
               "s_time" : 366.249999999127,
               "id" : "comp_72",
               "type" : 1,
               "time" : 1.008999999612
            }
         ],
         "url" : "http://original.testbed.localhost/www.redditstatic.com/expando-nsfw-flow.523m_EY1fww.js",
         "id" : "r36"
      },
      {
         "id" : "r22",
         "download" : {
            "connectStart" : 0,
            "len" : 4569,
            "dnsEnd" : -1,
            "sendEnd" : 20,
            "receivedTime" : "342.119000000821",
            "sendStart" : 20,
            "dns" : 0,
            "dnsStart" : -1,
            "type" : "image/jpeg",
            "sslEnd" : -1,
            "id" : "download_19",
            "s_time" : 276.917000002868,
            "sslStart" : -1,
            "receiveFirst" : 21,
            "connectEnd" : 20,
            "receiveLast" : 301.119000000821,
            "receiveHeadersEnd" : 41
         },
         "when_comp_start" : -1,
         "comps" : [],
         "url" : "http://original.testbed.localhost/b.thumbs.redditmedia.com/BM8-ME8DCYNIVaKOo0H1QDlycU7xN8kdUjEOT77c-pA.jpg"
      },
      {
         "download" : {
            "receiveHeadersEnd" : 42,
            "receiveLast" : 300.294000001857,
            "receiveFirst" : 21,
            "connectEnd" : 21,
            "sslStart" : -1,
            "id" : "download_20",
            "s_time" : 277.175000002899,
            "sslEnd" : -1,
            "type" : "image/jpeg",
            "dnsStart" : -1,
            "sendStart" : 21,
            "dns" : 0,
            "receivedTime" : "342.294000001857",
            "sendEnd" : 21,
            "len" : 3224,
            "dnsEnd" : -1,
            "connectStart" : 0
         },
         "when_comp_start" : -1,
         "url" : "http://original.testbed.localhost/b.thumbs.redditmedia.com/rMBxWixljpObZUTGz7D0AemGRc6HwkboPif70N9mhHo.jpg",
         "comps" : [],
         "id" : "r23"
      },
      {
         "url" : "http://original.testbed.localhost/www.redditstatic.com/reddit.en.xlHlxcJziiU.js",
         "comps" : [],
         "when_comp_start" : -1,
         "download" : {
            "type" : "application/javascript",
            "sslEnd" : -1,
            "sendStart" : 14,
            "dns" : 0,
            "dnsStart" : -1,
            "sendEnd" : 14,
            "receivedTime" : "342.594000001554",
            "connectStart" : 0,
            "len" : 143116,
            "dnsEnd" : -1,
            "receiveLast" : 302.594000001554,
            "receiveHeadersEnd" : 40,
            "sslStart" : -1,
            "connectEnd" : 14,
            "receiveFirst" : 26,
            "id" : "download_21",
            "s_time" : 281.61099999852
         },
         "id" : "r34"
      },
      {
         "id" : "r24",
         "download" : {
            "s_time" : 277.560000002268,
            "id" : "download_22",
            "receiveLast" : 388.9259999973,
            "receiveHeadersEnd" : 60,
            "sslStart" : -1,
            "receiveFirst" : 20,
            "connectEnd" : 40,
            "sendEnd" : 40,
            "receivedTime" : "448.9259999973",
            "connectStart" : 0,
            "dnsEnd" : -1,
            "len" : 8205,
            "type" : "image/jpeg",
            "sslEnd" : -1,
            "dns" : 0,
            "sendStart" : 40,
            "dnsStart" : -1
         },
         "when_comp_start" : -1,
         "comps" : [],
         "url" : "http://original.testbed.localhost/b.thumbs.redditmedia.com/safrGq2hdoa2RRC5zJioR8eaPN2y00vpZTd3YRcYWzI.jpg"
      },
      {
         "id" : "r25",
         "url" : "http://original.testbed.localhost/a.thumbs.redditmedia.com/DVhAOp_qoMGPJWGsDT41c96PkuPBlOXAkIWPjs-q0U8.jpg",
         "comps" : [],
         "when_comp_start" : -1,
         "download" : {
            "s_time" : 278.108999998949,
            "id" : "download_23",
            "receiveHeadersEnd" : 61,
            "receiveLast" : 388.259000000893,
            "receiveFirst" : 21,
            "connectEnd" : 40,
            "sslStart" : -1,
            "receivedTime" : "449.259000000893",
            "sendEnd" : 40,
            "dnsEnd" : -1,
            "len" : 4380,
            "connectStart" : 0,
            "sslEnd" : -1,
            "type" : "image/jpeg",
            "dnsStart" : -1,
            "sendStart" : 40,
            "dns" : 0
         }
      },
      {
         "when_comp_start" : -1,
         "download" : {
            "receiveHeadersEnd" : 43,
            "receiveLast" : 406.511999999231,
            "connectEnd" : 23,
            "receiveFirst" : 20,
            "sslStart" : -1,
            "id" : "download_24",
            "s_time" : 296.27199999959,
            "sslEnd" : -1,
            "type" : "image/jpeg",
            "dnsStart" : -1,
            "dns" : 0,
            "sendStart" : 23,
            "receivedTime" : "449.511999999231",
            "sendEnd" : 23,
            "len" : 5505,
            "dnsEnd" : -1,
            "connectStart" : 0
         },
         "url" : "http://original.testbed.localhost/b.thumbs.redditmedia.com/k5xPXtXTqo5Ountqgg9RplB4G4NRPEsJUpDZmUIM4bY.jpg",
         "comps" : [],
         "id" : "r26"
      },
      {
         "id" : "r28",
         "when_comp_start" : -1,
         "download" : {
            "id" : "download_25",
            "s_time" : 297.922999998264,
            "sslStart" : -1,
            "connectEnd" : 22,
            "receiveFirst" : 20,
            "receiveLast" : 408.912000000244,
            "receiveHeadersEnd" : 42,
            "connectStart" : 0,
            "len" : 4275,
            "dnsEnd" : -1,
            "sendEnd" : 22,
            "receivedTime" : "450.912000000244",
            "dns" : 0,
            "sendStart" : 22,
            "dnsStart" : -1,
            "type" : "image/jpeg",
            "sslEnd" : -1
         },
         "comps" : [],
         "url" : "http://original.testbed.localhost/b.thumbs.redditmedia.com/THq99uh4lVfRX15uwS8dyOPlv_B6nJBFQ1CS25ppQAY.jpg"
      },
      {
         "id" : "r27",
         "download" : {
            "receiveLast" : 408.180999996723,
            "receiveHeadersEnd" : 43,
            "sslStart" : -1,
            "connectEnd" : 22,
            "receiveFirst" : 21,
            "id" : "download_26",
            "s_time" : 296.927000003052,
            "type" : "image/jpeg",
            "sslEnd" : -1,
            "sendStart" : 22,
            "dns" : 0,
            "dnsStart" : -1,
            "sendEnd" : 22,
            "receivedTime" : "451.180999996723",
            "connectStart" : 0,
            "len" : 3604,
            "dnsEnd" : -1
         },
         "when_comp_start" : -1,
         "url" : "http://original.testbed.localhost/b.thumbs.redditmedia.com/4lZKVTqvdkSH-UjM8XMEmVnhX5ZQ9aAMepHw9wppJ9A.jpg",
         "comps" : []
      },
      {
         "id" : "r29",
         "download" : {
            "dnsStart" : -1,
            "dns" : 0,
            "sendStart" : 26,
            "sslEnd" : -1,
            "type" : "image/jpeg",
            "len" : 6626,
            "dnsEnd" : -1,
            "connectStart" : 0,
            "receivedTime" : "451.494000000821",
            "sendEnd" : 26,
            "receiveFirst" : 21,
            "connectEnd" : 26,
            "sslStart" : -1,
            "receiveHeadersEnd" : 47,
            "receiveLast" : 404.494000000821,
            "id" : "download_27",
            "s_time" : 298.380000000179
         },
         "when_comp_start" : -1,
         "comps" : [],
         "url" : "http://original.testbed.localhost/b.thumbs.redditmedia.com/rsUF1xmCccEJBL0LJ051L-L0wHkn4Iecv7GcHxo4IuY.jpg"
      },
      {
         "id" : "r30",
         "when_comp_start" : -1,
         "download" : {
            "id" : "download_28",
            "s_time" : 318.015999997442,
            "receiveLast" : 410.729000000341,
            "receiveHeadersEnd" : 41,
            "sslStart" : -1,
            "connectEnd" : 20,
            "receiveFirst" : 21,
            "sendEnd" : 20,
            "receivedTime" : "451.729000000341",
            "connectStart" : 0,
            "len" : 5400,
            "dnsEnd" : -1,
            "type" : "image/jpeg",
            "sslEnd" : -1,
            "sendStart" : 20,
            "dns" : 0,
            "dnsStart" : -1
         },
         "comps" : [],
         "url" : "http://original.testbed.localhost/b.thumbs.redditmedia.com/7GozNiULP5MYbz0fKJWPCwhaXFNVOqXCeXNm0Zb19ok.jpg"
      },
      {
         "download" : {
            "connectEnd" : 20,
            "receiveFirst" : 20,
            "sslStart" : -1,
            "receiveHeadersEnd" : 40,
            "receiveLast" : 411.979999998002,
            "id" : "download_29",
            "s_time" : 318.779000001086,
            "dnsStart" : -1,
            "sendStart" : 20,
            "dns" : 0,
            "sslEnd" : -1,
            "type" : "image/jpeg",
            "len" : 8686,
            "dnsEnd" : -1,
            "connectStart" : 0,
            "receivedTime" : "451.979999998002",
            "sendEnd" : 20
         },
         "when_comp_start" : -1,
         "comps" : [],
         "url" : "http://original.testbed.localhost/b.thumbs.redditmedia.com/5U3E_bXXxFlIP3MZa9ND9B0YUMIfqmjIjILJdYr1MJw.jpg",
         "id" : "r31"
      },
      {
         "id" : "r32",
         "when_comp_start" : -1,
         "download" : {
            "sendEnd" : 20,
            "receivedTime" : "452.232000003278",
            "connectStart" : 0,
            "len" : 4605,
            "dnsEnd" : -1,
            "type" : "image/jpeg",
            "sslEnd" : -1,
            "sendStart" : 20,
            "dns" : 0,
            "dnsStart" : -1,
            "id" : "download_30",
            "s_time" : 319.303999996919,
            "receiveLast" : 412.232000003278,
            "receiveHeadersEnd" : 40,
            "sslStart" : -1,
            "receiveFirst" : 20,
            "connectEnd" : 20
         },
         "comps" : [],
         "url" : "http://original.testbed.localhost/b.thumbs.redditmedia.com/AdkG6QvHBWJq6CEYwr6PGLqXhx_GKhmAiElgC8mKk9I.jpg"
      },
      {
         "download" : {
            "s_time" : 319.844999998168,
            "id" : "download_31",
            "receiveLast" : 412.436999999918,
            "receiveHeadersEnd" : 40,
            "sslStart" : -1,
            "connectEnd" : 20,
            "receiveFirst" : 20,
            "sendEnd" : 20,
            "receivedTime" : "452.436999999918",
            "connectStart" : 0,
            "dnsEnd" : -1,
            "len" : 67,
            "type" : "image/png",
            "sslEnd" : -1,
            "sendStart" : 20,
            "dns" : 0,
            "dnsStart" : -1
         },
         "when_comp_start" : -1,
         "comps" : [],
         "url" : "http://original.testbed.localhost/reddit.com/static/pixel.png",
         "id" : "r33"
      }
   ],
   "deps" : [
      {
         "a1" : "comp_24",
         "a2" : "r1_c2",
         "time" : -1,
         "id" : "dep1"
      },
      {
         "time" : -1,
         "a1" : "comp_72",
         "a2" : "r1_c3",
         "id" : "dep2"
      },
      {
         "id" : "dep3",
         "time" : -1,
         "a1" : "comp_23",
         "a2" : "comp_24"
      },
      {
         "id" : "dep4",
         "time" : -1,
         "a2" : "download_31",
         "a1" : "r1_c2"
      },
      {
         "id" : "dep5",
         "a2" : "download_30",
         "a1" : "r1_c2",
         "time" : 127.099999997882
      },
      {
         "id" : "dep6",
         "time" : 126.575000002049,
         "a1" : "r1_c2",
         "a2" : "download_29"
      },
      {
         "id" : "dep7",
         "time" : 125.811999998405,
         "a2" : "download_28",
         "a1" : "r1_c2"
      },
      {
         "a2" : "download_27",
         "a1" : "r1_c2",
         "time" : 106.176000001142,
         "id" : "dep8"
      },
      {
         "id" : "dep9",
         "time" : 104.723000004015,
         "a2" : "download_26",
         "a1" : "r1_c2"
      },
      {
         "time" : 105.718999999227,
         "a1" : "r1_c2",
         "a2" : "download_25",
         "id" : "dep10"
      },
      {
         "id" : "dep11",
         "time" : 104.068000000553,
         "a1" : "r1_c2",
         "a2" : "download_24"
      },
      {
         "id" : "dep12",
         "time" : 85.904999999912,
         "a1" : "r1_c2",
         "a2" : "download_23"
      },
      {
         "id" : "dep13",
         "time" : 85.356000003231,
         "a2" : "download_22",
         "a1" : "r1_c2"
      },
      {
         "id" : "dep14",
         "a1" : "r1_c2",
         "a2" : "download_21",
         "time" : 89.406999999483
      },
      {
         "a1" : "r1_c2",
         "a2" : "download_20",
         "time" : 84.971000003862,
         "id" : "dep15"
      },
      {
         "id" : "dep16",
         "time" : 84.713000003831,
         "a1" : "r1_c2",
         "a2" : "download_19"
      },
      {
         "time" : 89.928000001237,
         "a2" : "download_18",
         "a1" : "r1_c2",
         "id" : "dep17"
      },
      {
         "time" : 89.928000001237,
         "a2" : "download_18",
         "a1" : "r1_c2",
         "id" : "dep18"
      },
      {
         "id" : "dep19",
         "time" : 84.036000000197,
         "a1" : "r1_c2",
         "a2" : "download_17"
      },
      {
         "id" : "dep20",
         "a2" : "download_16",
         "a1" : "r1_c2",
         "time" : 83.823000000848
      },
      {
         "a1" : "r1_c2",
         "a2" : "download_15",
         "time" : 83.567000001495,
         "id" : "dep21"
      },
      {
         "id" : "dep22",
         "time" : 83.342999998422,
         "a2" : "download_14",
         "a1" : "r1_c2"
      },
      {
         "time" : 82.915999999387,
         "a1" : "r1_c2",
         "a2" : "download_13",
         "id" : "dep23"
      },
      {
         "id" : "dep24",
         "a1" : "r1_c2",
         "a2" : "download_12",
         "time" : 82.63199999783
      },
      {
         "a2" : "download_11",
         "a1" : "r1_c2",
         "time" : 29.296000000614,
         "id" : "dep25"
      },
      {
         "id" : "dep26",
         "a2" : "download_10",
         "a1" : "r1_c2",
         "time" : 17.015999997966
      },
      {
         "time" : 12.402000000293,
         "a1" : "r1_c2",
         "a2" : "download_9",
         "id" : "dep27"
      },
      {
         "time" : -1,
         "a1" : "r1_c1",
         "a2" : "download_8",
         "id" : "dep28"
      },
      {
         "time" : 67.1529999963241,
         "a2" : "download_7",
         "a1" : "r1_c1",
         "id" : "dep29"
      },
      {
         "id" : "dep30",
         "a1" : "r1_c1",
         "a2" : "download_6",
         "time" : 67.0719999980061
      },
      {
         "id" : "dep31",
         "a2" : "download_5",
         "a1" : "r1_c1",
         "time" : 63.6779999986171
      },
      {
         "id" : "dep32",
         "a2" : "download_4",
         "a1" : "r1_c1",
         "time" : 42.2150000013061
      },
      {
         "id" : "dep33",
         "a1" : "r1_c1",
         "a2" : "download_3",
         "time" : 1.1589999994612
      },
      {
         "id" : "dep34",
         "time" : 1.1589999994612,
         "a1" : "r1_c1",
         "a2" : "download_3"
      },
      {
         "a1" : "r1_c1",
         "a2" : "download_2",
         "time" : 0.572999997530097,
         "id" : "dep35"
      },
      {
         "a1" : "r1_c1",
         "a2" : "download_1",
         "time" : 0.399999997171101,
         "id" : "dep36"
      }
   ]
}
