{
   "start_activity" : "download_0",
   "load_activity" : -1,
   "n_download_no_trigger" : 1,
   "name" : "original.testbed.localhost_www.youtube.com_",
   "deps" : [
      {
         "a1" : "comp_11",
         "time" : -1,
         "id" : "dep1",
         "a2" : "r1_c2"
      },
      {
         "time" : -1,
         "id" : "dep2",
         "a2" : "r1_c3",
         "a1" : "comp_147"
      },
      {
         "a1" : "comp_149",
         "a2" : "r1_c4",
         "time" : -1,
         "id" : "dep3"
      },
      {
         "a1" : "comp_147",
         "time" : -1,
         "id" : "dep4",
         "a2" : "comp_149"
      },
      {
         "time" : -1,
         "a2" : "download_52",
         "id" : "dep5",
         "a1" : "r1_c2"
      },
      {
         "time" : 303.575999998429,
         "a2" : "download_52",
         "id" : "dep6",
         "a1" : "r1_c2"
      },
      {
         "time" : 303.471999999601,
         "id" : "dep7",
         "a2" : "download_51",
         "a1" : "r1_c2"
      },
      {
         "a1" : "r1_c2",
         "id" : "dep8",
         "time" : 295.10200000368,
         "a2" : "download_50"
      },
      {
         "a1" : "r1_c2",
         "time" : 293.666999998095,
         "a2" : "download_49",
         "id" : "dep9"
      },
      {
         "a1" : "r1_c2",
         "id" : "dep10",
         "time" : 206.247000001895,
         "a2" : "download_48"
      },
      {
         "a1" : "r1_c2",
         "time" : 206.372000000556,
         "id" : "dep11",
         "a2" : "download_47"
      },
      {
         "a1" : "r1_c2",
         "time" : 129.286000003049,
         "a2" : "download_46",
         "id" : "dep12"
      },
      {
         "a1" : "r1_c2",
         "time" : 126.75599999784,
         "id" : "dep13",
         "a2" : "download_45"
      },
      {
         "time" : 142.713000001095,
         "a2" : "download_44",
         "id" : "dep14",
         "a1" : "r1_c2"
      },
      {
         "a1" : "r1_c2",
         "id" : "dep15",
         "time" : 125.215000000026,
         "a2" : "download_43"
      },
      {
         "a1" : "r1_c2",
         "time" : 122.983000001113,
         "a2" : "download_42",
         "id" : "dep16"
      },
      {
         "a1" : "r1_c2",
         "time" : 122.530000000552,
         "id" : "dep17",
         "a2" : "download_41"
      },
      {
         "a2" : "download_40",
         "time" : 122.029999998631,
         "id" : "dep18",
         "a1" : "r1_c2"
      },
      {
         "a1" : "r1_c2",
         "time" : 108.971000001475,
         "id" : "dep19",
         "a2" : "download_39"
      },
      {
         "a1" : "r1_c2",
         "time" : 106.327000001329,
         "id" : "dep20",
         "a2" : "download_38"
      },
      {
         "time" : 104.865000001155,
         "a2" : "download_37",
         "id" : "dep21",
         "a1" : "r1_c2"
      },
      {
         "a1" : "r1_c2",
         "time" : 102.71400000056,
         "id" : "dep22",
         "a2" : "download_36"
      },
      {
         "a1" : "r1_c2",
         "a2" : "download_35",
         "time" : 102.143000003707,
         "id" : "dep23"
      },
      {
         "time" : 101.559000002453,
         "id" : "dep24",
         "a2" : "download_34",
         "a1" : "r1_c2"
      },
      {
         "a2" : "download_33",
         "time" : 88.6949999985521,
         "id" : "dep25",
         "a1" : "r1_c2"
      },
      {
         "a2" : "download_32",
         "time" : 86.1240000012911,
         "id" : "dep26",
         "a1" : "r1_c2"
      },
      {
         "a1" : "r1_c2",
         "time" : 84.6020000026331,
         "a2" : "download_31",
         "id" : "dep27"
      },
      {
         "a1" : "r1_c2",
         "a2" : "download_30",
         "time" : 82.2719999996481,
         "id" : "dep28"
      },
      {
         "time" : 81.6970000014411,
         "id" : "dep29",
         "a2" : "download_29",
         "a1" : "r1_c2"
      },
      {
         "id" : "dep30",
         "time" : 80.9809999991561,
         "a2" : "download_28",
         "a1" : "r1_c2"
      },
      {
         "a1" : "r1_c2",
         "a2" : "download_27",
         "time" : 68.2499999966241,
         "id" : "dep31"
      },
      {
         "a1" : "r1_c2",
         "time" : 65.4349999967961,
         "id" : "dep32",
         "a2" : "download_26"
      },
      {
         "a1" : "r1_c2",
         "time" : 63.9860000010231,
         "a2" : "download_25",
         "id" : "dep33"
      },
      {
         "time" : 61.6169999993871,
         "a2" : "download_24",
         "id" : "dep34",
         "a1" : "r1_c2"
      },
      {
         "a1" : "r1_c2",
         "id" : "dep35",
         "time" : 61.1330000028831,
         "a2" : "download_23"
      },
      {
         "a1" : "r1_c2",
         "id" : "dep36",
         "time" : 59.9589999983441,
         "a2" : "download_22"
      },
      {
         "a1" : "r1_c2",
         "time" : 44.9619999999411,
         "id" : "dep37",
         "a2" : "download_21"
      },
      {
         "time" : 41.2339999966211,
         "a2" : "download_20",
         "id" : "dep38",
         "a1" : "r1_c2"
      },
      {
         "a1" : "r1_c2",
         "time" : 40.8099999986011,
         "id" : "dep39",
         "a2" : "download_19"
      },
      {
         "a1" : "r1_c2",
         "time" : 39.7539999976291,
         "a2" : "download_18",
         "id" : "dep40"
      },
      {
         "a1" : "r1_c2",
         "id" : "dep41",
         "time" : 24.7400000007474,
         "a2" : "download_17"
      },
      {
         "a1" : "r1_c2",
         "time" : 19.0510000029462,
         "a2" : "download_16",
         "id" : "dep42"
      },
      {
         "time" : 1.63400000019459,
         "id" : "dep43",
         "a2" : "download_15",
         "a1" : "r1_c2"
      },
      {
         "a2" : "download_14",
         "time" : 1.56299999798649,
         "id" : "dep44",
         "a1" : "r1_c2"
      },
      {
         "a2" : "download_13",
         "time" : 1.4599999994971,
         "id" : "dep45",
         "a1" : "r1_c2"
      },
      {
         "a2" : "download_12",
         "time" : 1.37499999982539,
         "id" : "dep46",
         "a1" : "r1_c2"
      },
      {
         "a2" : "download_11",
         "time" : 0.445999998191795,
         "id" : "dep47",
         "a1" : "r1_c2"
      },
      {
         "id" : "dep48",
         "time" : 0.339999998686793,
         "a2" : "download_10",
         "a1" : "r1_c2"
      },
      {
         "a1" : "r1_c2",
         "id" : "dep49",
         "time" : 0.237000000197398,
         "a2" : "download_9"
      },
      {
         "time" : 0.138000003062189,
         "a2" : "download_8",
         "id" : "dep50",
         "a1" : "r1_c2"
      },
      {
         "a1" : "r1_c1",
         "id" : "dep51",
         "time" : -1,
         "a2" : "download_7"
      },
      {
         "a1" : "r1_c1",
         "a2" : "download_7",
         "time" : 3.6129999934928,
         "id" : "dep52"
      },
      {
         "time" : -1,
         "id" : "dep53",
         "a2" : "download_6",
         "a1" : "r1_c1"
      },
      {
         "time" : 3.7190000002738,
         "a2" : "download_5",
         "id" : "dep54",
         "a1" : "r1_c1"
      },
      {
         "id" : "dep55",
         "time" : 3.7190000002738,
         "a2" : "download_5",
         "a1" : "r1_c1"
      },
      {
         "a1" : "r1_c1",
         "id" : "dep56",
         "time" : 3.8299999941955,
         "a2" : "download_4"
      },
      {
         "time" : 3.8299999941955,
         "a2" : "download_4",
         "id" : "dep57",
         "a1" : "r1_c1"
      },
      {
         "a1" : "r1_c1",
         "id" : "dep58",
         "time" : 3.9299999989453,
         "a2" : "download_3"
      },
      {
         "id" : "dep59",
         "time" : 3.9299999989453,
         "a2" : "download_3",
         "a1" : "r1_c1"
      },
      {
         "a1" : "r1_c1",
         "a2" : "download_2",
         "time" : 4.0419999932055,
         "id" : "dep60"
      },
      {
         "id" : "dep61",
         "time" : 4.0419999932055,
         "a2" : "download_2",
         "a1" : "r1_c1"
      },
      {
         "a2" : "download_1",
         "time" : 3.4739999973681,
         "id" : "dep62",
         "a1" : "r1_c1"
      }
   ],
   "objs" : [
      {
         "download" : {
            "sslStart" : -1,
            "s_time" : 0,
            "receiveHeadersEnd" : 27,
            "dnsEnd" : -1,
            "receivedTime" : "68.4739999996964",
            "sslEnd" : -1,
            "connectStart" : 0,
            "connectEnd" : 0,
            "id" : "download_0",
            "dnsStart" : -1,
            "dns" : 0,
            "sendStart" : 0,
            "receiveLast" : 41.4739999996964,
            "len" : 413820,
            "type" : "text/html",
            "sendEnd" : 0,
            "receiveFirst" : 27
         },
         "comps" : [
            {
               "id" : "r1_c1",
               "time" : 28.1560000003082,
               "type" : "evalhtml",
               "s_time" : 41.8730000019423,
               "e_time" : 70.0290000022505
            },
            {
               "e_time" : 373.679999996966,
               "time" : 303.575999998429,
               "type" : "evalhtml",
               "id" : "r1_c2",
               "s_time" : 70.1039999985369
            },
            {
               "time" : -42896803.813,
               "id" : "r1_c3",
               "type" : "evalhtml",
               "s_time" : 545.641999997315,
               "e_time" : -42896258.171
            },
            {
               "s_time" : 567.219999997178,
               "time" : 2.10499999957403,
               "type" : "evalhtml",
               "id" : "r1_c4",
               "e_time" : 569.324999996752
            }
         ],
         "url" : "http://original.testbed.localhost/www.youtube.com/",
         "when_comp_start" : 1,
         "id" : "r1"
      },
      {
         "id" : "r6",
         "url" : "http://original.testbed.localhost/s.ytimg.com/yts/jsbin/scheduler-vfl2Ljsz3/scheduler.js",
         "when_comp_start" : -1,
         "comps" : [
            {
               "time" : 1.11399999877901,
               "type" : 1,
               "id" : "comp_11",
               "s_time" : 68.9899999997579,
               "e_time" : 70.1039999985369
            }
         ],
         "download" : {
            "connectEnd" : 2,
            "id" : "download_1",
            "dnsStart" : -1,
            "connectStart" : 0,
            "s_time" : 45.3469999993104,
            "receiveHeadersEnd" : 23,
            "dnsEnd" : -1,
            "receivedTime" : "68.9649999985704",
            "sslEnd" : -1,
            "sslStart" : -1,
            "receiveFirst" : 21,
            "sendEnd" : 2,
            "type" : "application/javascript",
            "dns" : 0,
            "sendStart" : 2,
            "receiveLast" : 45.9649999985704,
            "len" : 3912
         }
      },
      {
         "id" : "r11",
         "when_comp_start" : -1,
         "url" : "http://original.testbed.localhost/s.ytimg.com/yts/img/pixel-vfl3z5WfW.gif",
         "download" : {
            "receiveLast" : 47.2390000008163,
            "len" : 43,
            "dns" : 0,
            "sendStart" : 22,
            "sendEnd" : 22,
            "type" : "image/gif",
            "receiveFirst" : 20,
            "sslStart" : -1,
            "sslEnd" : -1,
            "receiveHeadersEnd" : 42,
            "s_time" : 45.9149999951478,
            "dnsEnd" : 1,
            "receivedTime" : "89.2390000008163",
            "connectStart" : 0,
            "dnsStart" : 1,
            "connectEnd" : 22,
            "id" : "download_2"
         },
         "comps" : []
      },
      {
         "comps" : [
            {
               "s_time" : 90.4399999999441,
               "time" : 1.0810000021593,
               "type" : 4,
               "id" : "comp_23",
               "e_time" : 91.5210000021034
            }
         ],
         "download" : {
            "sslStart" : -1,
            "sslEnd" : -1,
            "dnsEnd" : 1,
            "receivedTime" : "90.4169999994338",
            "s_time" : 45.8030000008876,
            "receiveHeadersEnd" : 43,
            "connectStart" : 0,
            "dnsStart" : 1,
            "id" : "download_3",
            "connectEnd" : 22,
            "len" : 16923,
            "receiveLast" : 47.4169999994338,
            "sendStart" : 22,
            "dns" : 0,
            "sendEnd" : 22,
            "type" : "text/css",
            "receiveFirst" : 21
         },
         "id" : "r10",
         "url" : "http://original.testbed.localhost/s.ytimg.com/yts/cssbin/www-guide-vflmYVKfq.css",
         "when_comp_start" : -1
      },
      {
         "download" : {
            "receiveFirst" : 21,
            "type" : "text/css",
            "sendEnd" : 22,
            "len" : 51075,
            "receiveLast" : 48.5659999955096,
            "sendStart" : 22,
            "dns" : 0,
            "dnsStart" : -1,
            "id" : "download_4",
            "connectEnd" : 22,
            "connectStart" : 0,
            "sslEnd" : -1,
            "receivedTime" : "91.5659999955096",
            "dnsEnd" : -1,
            "receiveHeadersEnd" : 43,
            "s_time" : 45.7029999961378,
            "sslStart" : -1
         },
         "comps" : [
            {
               "s_time" : 91.5969999987283,
               "time" : 2.8089999977965,
               "type" : 4,
               "id" : "comp_24",
               "e_time" : 94.4059999965248
            }
         ],
         "id" : "r9",
         "when_comp_start" : -1,
         "url" : "http://original.testbed.localhost/s.ytimg.com/yts/cssbin/www-pageframe-vflNP8pTX.css"
      },
      {
         "download" : {
            "receiveFirst" : 25,
            "receiveLast" : 66.6899999983143,
            "len" : 130037,
            "dns" : 0,
            "sendStart" : 22,
            "sendEnd" : 22,
            "type" : "text/css",
            "connectStart" : 0,
            "dnsStart" : 1,
            "connectEnd" : 22,
            "id" : "download_5",
            "sslStart" : -1,
            "sslEnd" : -1,
            "s_time" : 45.5920000022161,
            "receiveHeadersEnd" : 47,
            "dnsEnd" : 1,
            "receivedTime" : "113.689999998314"
         },
         "comps" : [
            {
               "id" : "comp_27",
               "time" : 7.51599999785,
               "type" : 4,
               "s_time" : 113.758999999845,
               "e_time" : 121.274999997695
            }
         ],
         "id" : "r8",
         "url" : "http://original.testbed.localhost/s.ytimg.com/yts/cssbin/www-home-c4-vflW6eIpi.css",
         "when_comp_start" : -1
      },
      {
         "when_comp_start" : -1,
         "url" : "http://original.testbed.localhost/i.ytimg.com/vi/c7nRTF2SowQ/hqdefault.jpg",
         "id" : "r12",
         "download" : {
            "connectStart" : 0,
            "dnsStart" : -1,
            "connectEnd" : 2,
            "id" : "download_6",
            "sslStart" : -1,
            "sslEnd" : -1,
            "receiveHeadersEnd" : 23,
            "s_time" : 70.0290000022505,
            "dnsEnd" : -1,
            "receivedTime" : "94.9600000021746",
            "receiveFirst" : 21,
            "receiveLast" : 71.9600000021746,
            "len" : 35012,
            "dns" : 0,
            "sendStart" : 2,
            "type" : "image/jpeg",
            "sendEnd" : 2
         },
         "comps" : []
      },
      {
         "url" : "http://original.testbed.localhost/s.ytimg.com/yts/cssbin/www-core-vfltm8NQD.css",
         "when_comp_start" : -1,
         "id" : "r7",
         "comps" : [
            {
               "id" : "comp_28",
               "time" : 154.539000002842,
               "type" : 4,
               "s_time" : 121.636999996554,
               "e_time" : 276.175999999396
            }
         ],
         "download" : {
            "len" : 230587,
            "receiveLast" : 71.5989999982412,
            "sendStart" : 22,
            "dns" : 0,
            "sendEnd" : 22,
            "type" : "text/css",
            "receiveFirst" : 28,
            "sslStart" : -1,
            "sslEnd" : -1,
            "dnsEnd" : 1,
            "receivedTime" : "121.598999998241",
            "s_time" : 45.4859999954351,
            "receiveHeadersEnd" : 50,
            "connectStart" : 0,
            "dnsStart" : 1,
            "id" : "download_7",
            "connectEnd" : 22
         }
      },
      {
         "url" : "http://original.testbed.localhost/i.ytimg.com/vi/WB4sGX0R5ak/hqdefault.jpg%3Fcustom=true&w=196&h=110&stc=true&jpg444=true&jpgq=90&sp=68&sigh=5SdaWj2QQHG2j7a3Si7SksjMlc4",
         "when_comp_start" : -1,
         "id" : "r13",
         "download" : {
            "receiveFirst" : 20,
            "len" : 9298,
            "receiveLast" : 71.9429999958375,
            "sendStart" : 18,
            "dns" : 0,
            "sendEnd" : 18,
            "type" : "image/jpeg",
            "connectStart" : 0,
            "dnsStart" : -1,
            "id" : "download_8",
            "connectEnd" : 18,
            "sslStart" : -1,
            "sslEnd" : -1,
            "dnsEnd" : -1,
            "receivedTime" : "109.942999995837",
            "receiveHeadersEnd" : 38,
            "s_time" : 70.2420000015991
         },
         "comps" : []
      },
      {
         "comps" : [],
         "download" : {
            "sendStart" : 19,
            "dns" : 0,
            "len" : 7974,
            "receiveLast" : 71.9969999961322,
            "sendEnd" : 19,
            "type" : "image/jpeg",
            "receiveFirst" : 20,
            "sslStart" : -1,
            "dnsEnd" : -1,
            "receivedTime" : "110.996999996132",
            "s_time" : 70.3409999987343,
            "receiveHeadersEnd" : 39,
            "sslEnd" : -1,
            "connectStart" : 0,
            "id" : "download_9",
            "connectEnd" : 19,
            "dnsStart" : -1
         },
         "id" : "r14",
         "when_comp_start" : -1,
         "url" : "http://original.testbed.localhost/i.ytimg.com/vi/Pgmx7z49OEk/hqdefault.jpg%3Fcustom=true&w=196&h=110&stc=true&jpg444=true&jpgq=90&sp=68&sigh=lMtlhOREHjDkUY3T6WoiUEQKhgc"
      },
      {
         "when_comp_start" : -1,
         "url" : "http://original.testbed.localhost/i.ytimg.com/vi/XHplocNJIk8/hqdefault.jpg%3Fcustom=true&w=196&h=110&stc=true&jpg444=true&jpgq=90&sp=68&sigh=mjrx6UeVEv_pMhpZbP6EOAtxTFA",
         "id" : "r15",
         "comps" : [],
         "download" : {
            "receiveFirst" : 21,
            "len" : 13550,
            "receiveLast" : 71.4789999992354,
            "sendStart" : 19,
            "dns" : 0,
            "sendEnd" : 19,
            "type" : "image/jpeg",
            "connectStart" : 0,
            "dnsStart" : -1,
            "id" : "download_10",
            "connectEnd" : 19,
            "sslStart" : -1,
            "sslEnd" : -1,
            "dnsEnd" : -1,
            "receivedTime" : "111.478999999235",
            "s_time" : 70.4439999972237,
            "receiveHeadersEnd" : 40
         }
      },
      {
         "download" : {
            "receiveFirst" : 20,
            "receiveLast" : 78.419999995851,
            "len" : 3933,
            "dns" : 0,
            "sendStart" : 23,
            "type" : "image/jpeg",
            "sendEnd" : 23,
            "connectStart" : 0,
            "dnsStart" : -1,
            "connectEnd" : 23,
            "id" : "download_11",
            "sslStart" : -1,
            "sslEnd" : -1,
            "s_time" : 70.5499999967287,
            "receiveHeadersEnd" : 43,
            "dnsEnd" : -1,
            "receivedTime" : "121.419999995851"
         },
         "comps" : [],
         "id" : "r16",
         "when_comp_start" : -1,
         "url" : "http://original.testbed.localhost/yt3.ggpht.com/-x3CU1CXklQI/AAAAAAAAAAI/AAAAAAAAAAA/jPQ9GJeU53g/s88-c-k-no-rj-c0xffffff/photo.jpg"
      },
      {
         "id" : "r17",
         "when_comp_start" : -1,
         "url" : "http://original.testbed.localhost/i.ytimg.com/vi/sU7LmmyQHRc/hqdefault.jpg%3Fcustom=true&w=196&h=110&stc=true&jpg444=true&jpgq=90&sp=68&sigh=aUgforGki0KGhS2Gwzik0vwuxAg",
         "download" : {
            "receiveFirst" : 20,
            "type" : "image/jpeg",
            "sendEnd" : 38,
            "receiveLast" : 244.171999996062,
            "len" : 13400,
            "dns" : 0,
            "sendStart" : 38,
            "dnsStart" : -1,
            "connectEnd" : 38,
            "id" : "download_12",
            "connectStart" : 0,
            "sslEnd" : -1,
            "receiveHeadersEnd" : 58,
            "s_time" : 71.4789999983623,
            "dnsEnd" : -1,
            "receivedTime" : "302.171999996062",
            "sslStart" : -1
         },
         "comps" : []
      },
      {
         "comps" : [],
         "download" : {
            "receiveFirst" : 20,
            "len" : 15168,
            "receiveLast" : 243.338000001328,
            "sendStart" : 39,
            "dns" : 0,
            "sendEnd" : 39,
            "type" : "image/jpeg",
            "connectStart" : 0,
            "dnsStart" : -1,
            "id" : "download_13",
            "connectEnd" : 39,
            "sslStart" : -1,
            "sslEnd" : -1,
            "dnsEnd" : -1,
            "receivedTime" : "302.338000001328",
            "s_time" : 71.563999998034,
            "receiveHeadersEnd" : 59
         },
         "id" : "r18",
         "when_comp_start" : -1,
         "url" : "http://original.testbed.localhost/i.ytimg.com/vi/HnMUrxzzjlY/hqdefault.jpg%3Fcustom=true&w=196&h=110&stc=true&jpg444=true&jpgq=90&sp=68&sigh=EOBNvblEDzk1NHFr8mLncNcXd_I"
      },
      {
         "download" : {
            "connectStart" : 0,
            "dnsStart" : -1,
            "connectEnd" : 39,
            "id" : "download_14",
            "sslStart" : -1,
            "sslEnd" : -1,
            "receiveHeadersEnd" : 60,
            "s_time" : 71.6669999965234,
            "dnsEnd" : -1,
            "receivedTime" : "302.448999995249",
            "receiveFirst" : 21,
            "receiveLast" : 242.448999995249,
            "len" : 13252,
            "dns" : 0,
            "sendStart" : 39,
            "sendEnd" : 39,
            "type" : "image/jpeg"
         },
         "comps" : [],
         "id" : "r19",
         "url" : "http://original.testbed.localhost/i.ytimg.com/vi/o9iVXxFt1Wg/hqdefault.jpg%3Fcustom=true&w=196&h=110&stc=true&jpg444=true&jpgq=90&sp=68&sigh=1m6nQAPYL_aNFSB5wtAy3VDojyc",
         "when_comp_start" : -1
      },
      {
         "id" : "r20",
         "when_comp_start" : -1,
         "url" : "http://original.testbed.localhost/i.ytimg.com/vi/1Ty8BH3ArKY/hqdefault.jpg%3Fcustom=true&w=196&h=110&stc=true&jpg444=true&jpgq=90&sp=68&sigh=noeiiCx7PfN930ngDeZ7ffhjcxE",
         "comps" : [],
         "download" : {
            "len" : 14963,
            "receiveLast" : 240.552000001015,
            "sendStart" : 42,
            "dns" : 0,
            "sendEnd" : 42,
            "type" : "image/jpeg",
            "receiveFirst" : 20,
            "sslStart" : -1,
            "sslEnd" : -1,
            "receivedTime" : "302.552000001015",
            "dnsEnd" : -1,
            "s_time" : 71.7379999987315,
            "receiveHeadersEnd" : 62,
            "connectStart" : 0,
            "dnsStart" : -1,
            "id" : "download_15",
            "connectEnd" : 42
         }
      },
      {
         "comps" : [],
         "download" : {
            "connectEnd" : 25,
            "id" : "download_16",
            "dnsStart" : -1,
            "connectStart" : 0,
            "s_time" : 89.1550000014831,
            "receiveHeadersEnd" : 46,
            "dnsEnd" : -1,
            "receivedTime" : "302.684000002046",
            "sslEnd" : -1,
            "sslStart" : -1,
            "receiveFirst" : 21,
            "sendEnd" : 25,
            "type" : "image/jpeg",
            "dns" : 0,
            "sendStart" : 25,
            "receiveLast" : 256.684000002046,
            "len" : 12307
         },
         "url" : "http://original.testbed.localhost/i.ytimg.com/vi/wcUU7Ka_esI/hqdefault.jpg%3Fcustom=true&w=196&h=110&stc=true&jpg444=true&jpgq=90&sp=68&sigh=IgVMwViBIzPvfpjtsaVY-spULfc",
         "when_comp_start" : -1,
         "id" : "r21"
      },
      {
         "download" : {
            "receiveFirst" : 21,
            "receiveLast" : 259.832000001217,
            "len" : 11840,
            "dns" : 0,
            "sendStart" : 22,
            "sendEnd" : 22,
            "type" : "image/jpeg",
            "connectStart" : 0,
            "dnsStart" : -1,
            "connectEnd" : 22,
            "id" : "download_17",
            "sslStart" : -1,
            "sslEnd" : -1,
            "receiveHeadersEnd" : 43,
            "s_time" : 94.8439999992843,
            "dnsEnd" : -1,
            "receivedTime" : "302.832000001217"
         },
         "comps" : [],
         "url" : "http://original.testbed.localhost/i.ytimg.com/vi/dnzA9bYc7I8/hqdefault.jpg%3Fcustom=true&w=196&h=110&stc=true&jpg444=true&jpgq=90&sp=68&sigh=y-usJDtwGNpfED04Xp-ZbF8eF0Y",
         "when_comp_start" : -1,
         "id" : "r22"
      },
      {
         "download" : {
            "dns" : 0,
            "sendStart" : 20,
            "receiveLast" : 262.942999995139,
            "len" : 4409,
            "type" : "image/jpeg",
            "sendEnd" : 20,
            "receiveFirst" : 20,
            "sslStart" : -1,
            "receiveHeadersEnd" : 40,
            "s_time" : 109.857999996166,
            "dnsEnd" : -1,
            "receivedTime" : "302.942999995139",
            "sslEnd" : -1,
            "connectStart" : 0,
            "connectEnd" : 20,
            "id" : "download_18",
            "dnsStart" : -1
         },
         "comps" : [],
         "url" : "http://original.testbed.localhost/yt3.ggpht.com/-k_GkTGK0POM/AAAAAAAAAAI/AAAAAAAAAAA/0GrhY5eKm4I/s88-c-k-no-rj-c0xffffff/photo.jpg",
         "when_comp_start" : -1,
         "id" : "r23"
      },
      {
         "download" : {
            "type" : "image/jpeg",
            "sendEnd" : 20,
            "receiveLast" : 263.095999996003,
            "len" : 10188,
            "dns" : 0,
            "sendStart" : 20,
            "receiveFirst" : 20,
            "sslEnd" : -1,
            "s_time" : 110.913999997138,
            "receiveHeadersEnd" : 40,
            "dnsEnd" : -1,
            "receivedTime" : "303.095999996003",
            "sslStart" : -1,
            "dnsStart" : -1,
            "connectEnd" : 20,
            "id" : "download_19",
            "connectStart" : 0
         },
         "comps" : [],
         "id" : "r24",
         "url" : "http://original.testbed.localhost/i.ytimg.com/vi/OIoj5W9yFaE/hqdefault.jpg%3Fcustom=true&w=196&h=110&stc=true&jpg444=true&jpgq=90&sp=68&sigh=mKiKx7RR0C01RyRgbIzfIvd9Mwk",
         "when_comp_start" : -1
      },
      {
         "when_comp_start" : -1,
         "url" : "http://original.testbed.localhost/i.ytimg.com/vi/owZFQuats1k/hqdefault.jpg%3Fcustom=true&w=196&h=110&stc=true&jpg444=true&jpgq=90&sp=68&sigh=UHvaYmyT1BJw62L-KSyrGtTrN84",
         "id" : "r25",
         "comps" : [],
         "download" : {
            "receiveFirst" : 20,
            "receiveLast" : 263.23099999805,
            "len" : 12704,
            "dns" : 0,
            "sendStart" : 20,
            "sendEnd" : 20,
            "type" : "image/jpeg",
            "connectStart" : 0,
            "dnsStart" : -1,
            "connectEnd" : 20,
            "id" : "download_20",
            "sslStart" : -1,
            "sslEnd" : -1,
            "receiveHeadersEnd" : 40,
            "s_time" : 111.337999995158,
            "dnsEnd" : -1,
            "receivedTime" : "303.23099999805"
         }
      },
      {
         "url" : "http://original.testbed.localhost/i.ytimg.com/vi/kdf1gSHWMKE/hqdefault.jpg%3Fcustom=true&w=196&h=110&stc=true&jpg444=true&jpgq=90&sp=68&sigh=hyNItltJnDvGWvskfdzuY-VfwSM",
         "when_comp_start" : -1,
         "id" : "r26",
         "comps" : [],
         "download" : {
            "type" : "image/jpeg",
            "sendEnd" : 18,
            "dns" : 0,
            "sendStart" : 18,
            "receiveLast" : 264.329000002122,
            "len" : 11382,
            "receiveFirst" : 21,
            "s_time" : 115.065999998478,
            "receiveHeadersEnd" : 39,
            "receivedTime" : "303.329000002122",
            "dnsEnd" : -1,
            "sslEnd" : -1,
            "sslStart" : -1,
            "connectEnd" : 18,
            "id" : "download_21",
            "dnsStart" : -1,
            "connectStart" : 0
         }
      },
      {
         "id" : "r27",
         "when_comp_start" : -1,
         "url" : "http://original.testbed.localhost/i.ytimg.com/vi/rBg9gL0fs9U/hqdefault.jpg%3Fcustom=true&w=196&h=110&stc=true&jpg444=true&jpgq=90&sp=68&sigh=JTZpVRPLre9zyQvNwh5epDRgJws",
         "download" : {
            "sslStart" : -1,
            "sslEnd" : -1,
            "receiveHeadersEnd" : 25,
            "s_time" : 130.062999996881,
            "dnsEnd" : -1,
            "receivedTime" : "303.423999997904",
            "connectStart" : 0,
            "dnsStart" : -1,
            "connectEnd" : 5,
            "id" : "download_22",
            "receiveLast" : 278.423999997904,
            "len" : 11300,
            "dns" : 0,
            "sendStart" : 5,
            "sendEnd" : 5,
            "type" : "image/jpeg",
            "receiveFirst" : 20
         },
         "comps" : []
      },
      {
         "url" : "http://original.testbed.localhost/i.ytimg.com/vi/oPALbYj1ylY/hqdefault.jpg%3Fcustom=true&w=196&h=110&stc=true&jpg444=true&jpgq=90&sp=68&sigh=jw4lXjgaaTL6dfje5QMnUmpi6Wc",
         "when_comp_start" : -1,
         "id" : "r28",
         "download" : {
            "receiveFirst" : 21,
            "len" : 7816,
            "receiveLast" : 276.520000001299,
            "sendStart" : 6,
            "dns" : 0,
            "type" : "image/jpeg",
            "sendEnd" : 6,
            "connectStart" : 0,
            "dnsStart" : -1,
            "id" : "download_23",
            "connectEnd" : 6,
            "sslStart" : -1,
            "sslEnd" : -1,
            "receivedTime" : "303.520000001299",
            "dnsEnd" : -1,
            "receiveHeadersEnd" : 27,
            "s_time" : 131.23700000142
         },
         "comps" : []
      },
      {
         "comps" : [],
         "download" : {
            "sendEnd" : 18,
            "type" : "image/jpeg",
            "sendStart" : 18,
            "dns" : 0,
            "len" : 11545,
            "receiveLast" : 264.611999996065,
            "receiveFirst" : 21,
            "dnsEnd" : -1,
            "receivedTime" : "303.611999996065",
            "s_time" : 131.720999997924,
            "receiveHeadersEnd" : 39,
            "sslEnd" : -1,
            "sslStart" : -1,
            "id" : "download_24",
            "connectEnd" : 18,
            "dnsStart" : -1,
            "connectStart" : 0
         },
         "id" : "r29",
         "url" : "http://original.testbed.localhost/i.ytimg.com/vi/Lra44ZeUFe8/hqdefault.jpg%3Fcustom=true&w=196&h=110&stc=true&jpg444=true&jpgq=90&sp=68&sigh=N07h4hn7iAAnmNXdGfqbhpqEoDw",
         "when_comp_start" : -1
      },
      {
         "download" : {
            "sendStart" : 17,
            "dns" : 0,
            "len" : 2776,
            "receiveLast" : 266.711000000476,
            "type" : "image/jpeg",
            "sendEnd" : 17,
            "receiveFirst" : 20,
            "sslStart" : -1,
            "receivedTime" : "303.711000000476",
            "dnsEnd" : -1,
            "s_time" : 134.08999999956,
            "receiveHeadersEnd" : 37,
            "sslEnd" : -1,
            "connectStart" : 0,
            "id" : "download_25",
            "connectEnd" : 17,
            "dnsStart" : -1
         },
         "comps" : [],
         "id" : "r30",
         "url" : "http://original.testbed.localhost/yt3.ggpht.com/qgAMspKekhapIIu6oDpA1L9jTVqOdGsfRAV0UnNunasrAK7vmHAnF3roDJmcUUxWX0Asbzh1HTuGJIQ1Lw=s88-nd-c-c0xffffffff-rj-k-no",
         "when_comp_start" : -1
      },
      {
         "download" : {
            "sslEnd" : -1,
            "dnsEnd" : -1,
            "receivedTime" : "303.80100000184",
            "receiveHeadersEnd" : 36,
            "s_time" : 135.538999995333,
            "sslStart" : -1,
            "dnsStart" : -1,
            "id" : "download_26",
            "connectEnd" : 16,
            "connectStart" : 0,
            "type" : "image/jpeg",
            "sendEnd" : 16,
            "len" : 10601,
            "receiveLast" : 267.80100000184,
            "sendStart" : 16,
            "dns" : 0,
            "receiveFirst" : 20
         },
         "comps" : [],
         "url" : "http://original.testbed.localhost/i.ytimg.com/vi/EeF3UTkCoxY/hqdefault.jpg%3Fcustom=true&w=196&h=110&stc=true&jpg444=true&jpgq=90&sp=68&sigh=x4Pyko1rqMW_Qor1oDMl1ga5K1c",
         "when_comp_start" : -1,
         "id" : "r31"
      },
      {
         "download" : {
            "receiveHeadersEnd" : 36,
            "s_time" : 138.353999995161,
            "receivedTime" : "303.892999996606",
            "dnsEnd" : -1,
            "sslEnd" : -1,
            "sslStart" : -1,
            "connectEnd" : 16,
            "id" : "download_27",
            "dnsStart" : -1,
            "connectStart" : 0,
            "sendEnd" : 16,
            "type" : "image/jpeg",
            "dns" : 0,
            "sendStart" : 16,
            "receiveLast" : 267.892999996606,
            "len" : 13029,
            "receiveFirst" : 20
         },
         "comps" : [],
         "when_comp_start" : -1,
         "url" : "http://original.testbed.localhost/i.ytimg.com/vi/y685gVGRQ98/hqdefault.jpg%3Fcustom=true&w=196&h=110&stc=true&jpg444=true&jpgq=90&sp=68&sigh=GYArbjIRlCz10eZhj8oghViPAv4",
         "id" : "r32"
      },
      {
         "download" : {
            "receiveFirst" : 21,
            "sendEnd" : 4,
            "type" : "image/jpeg",
            "receiveLast" : 278.989000000001,
            "len" : 14332,
            "dns" : 0,
            "sendStart" : 4,
            "dnsStart" : -1,
            "connectEnd" : 4,
            "id" : "download_28",
            "connectStart" : 0,
            "sslEnd" : -1,
            "s_time" : 151.084999997693,
            "receiveHeadersEnd" : 25,
            "dnsEnd" : -1,
            "receivedTime" : "303.989000000001",
            "sslStart" : -1
         },
         "comps" : [],
         "when_comp_start" : -1,
         "url" : "http://original.testbed.localhost/i.ytimg.com/vi/gUa_R9HRARc/hqdefault.jpg%3Fcustom=true&w=196&h=110&stc=true&jpg444=true&jpgq=90&sp=68&sigh=-yJN6pk2KUnBiseiwwX32ghBddA",
         "id" : "r33"
      },
      {
         "download" : {
            "dnsStart" : -1,
            "id" : "download_29",
            "connectEnd" : 6,
            "connectStart" : 0,
            "sslEnd" : -1,
            "dnsEnd" : -1,
            "receivedTime" : "304.081999995105",
            "receiveHeadersEnd" : 27,
            "s_time" : 151.800999999978,
            "sslStart" : -1,
            "receiveFirst" : 21,
            "type" : "image/jpeg",
            "sendEnd" : 6,
            "len" : 12587,
            "receiveLast" : 277.081999995105,
            "sendStart" : 6,
            "dns" : 0
         },
         "comps" : [],
         "id" : "r34",
         "url" : "http://original.testbed.localhost/i.ytimg.com/vi/iKCw-kqo3cs/hqdefault.jpg%3Fcustom=true&w=196&h=110&stc=true&jpg444=true&jpgq=90&sp=68&sigh=B-qIBOjSlVO2YFCX98n12V0maRI",
         "when_comp_start" : -1
      },
      {
         "url" : "http://original.testbed.localhost/i.ytimg.com/vi/KPDqb45P2Mg/hqdefault.jpg%3Fcustom=true&w=196&h=110&stc=true&jpg444=true&jpgq=90&sp=68&sigh=StK7hk6Yr_nHMa8N9XjcCAD1HOE",
         "when_comp_start" : -1,
         "id" : "r35",
         "comps" : [],
         "download" : {
            "connectStart" : 0,
            "connectEnd" : 19,
            "id" : "download_30",
            "dnsStart" : -1,
            "sslStart" : -1,
            "receiveHeadersEnd" : 39,
            "s_time" : 152.375999998185,
            "dnsEnd" : -1,
            "receivedTime" : "360.711000001174",
            "sslEnd" : -1,
            "receiveFirst" : 20,
            "dns" : 0,
            "sendStart" : 19,
            "receiveLast" : 321.711000001174,
            "len" : 8461,
            "type" : "image/jpeg",
            "sendEnd" : 19
         }
      },
      {
         "comps" : [],
         "download" : {
            "receiveLast" : 323.907000002044,
            "len" : 10794,
            "dns" : 0,
            "sendStart" : 17,
            "type" : "image/jpeg",
            "sendEnd" : 17,
            "receiveFirst" : 20,
            "sslStart" : -1,
            "sslEnd" : -1,
            "s_time" : 154.70600000117,
            "receiveHeadersEnd" : 37,
            "dnsEnd" : -1,
            "receivedTime" : "360.907000002044",
            "connectStart" : 0,
            "dnsStart" : -1,
            "connectEnd" : 17,
            "id" : "download_31"
         },
         "id" : "r36",
         "url" : "http://original.testbed.localhost/i.ytimg.com/vi/9mdJV5-eias/hqdefault.jpg%3Fcustom=true&w=196&h=110&stc=true&jpg444=true&jpgq=90&sp=68&sigh=48qkYy0c4RwG1z1lyIGYyIhi77k",
         "when_comp_start" : -1
      },
      {
         "comps" : [],
         "download" : {
            "connectStart" : 0,
            "dnsStart" : -1,
            "connectEnd" : 16,
            "id" : "download_32",
            "sslStart" : -1,
            "sslEnd" : -1,
            "s_time" : 156.227999999828,
            "receiveHeadersEnd" : 36,
            "dnsEnd" : -1,
            "receivedTime" : "361.024999998335",
            "receiveFirst" : 20,
            "receiveLast" : 325.024999998335,
            "len" : 7262,
            "dns" : 0,
            "sendStart" : 16,
            "type" : "image/jpeg",
            "sendEnd" : 16
         },
         "url" : "http://original.testbed.localhost/yt3.ggpht.com/-QIVF0Bs4QQo/AAAAAAAAAAI/AAAAAAAAAAA/5jwZ65D3bUU/s88-c-k-no-rj-c0xffffff/photo.jpg",
         "when_comp_start" : -1,
         "id" : "r37"
      },
      {
         "download" : {
            "receiveFirst" : 20,
            "dns" : 0,
            "sendStart" : 16,
            "receiveLast" : 325.142000001564,
            "len" : 12093,
            "sendEnd" : 16,
            "type" : "image/jpeg",
            "connectStart" : 0,
            "connectEnd" : 16,
            "id" : "download_33",
            "dnsStart" : -1,
            "sslStart" : -1,
            "s_time" : 158.798999997089,
            "receiveHeadersEnd" : 36,
            "receivedTime" : "361.142000001564",
            "dnsEnd" : -1,
            "sslEnd" : -1
         },
         "comps" : [],
         "id" : "r38",
         "when_comp_start" : -1,
         "url" : "http://original.testbed.localhost/i.ytimg.com/vi/g3Rf5qDuq7M/hqdefault.jpg%3Fcustom=true&w=196&h=110&stc=true&jpg444=true&jpgq=90&sp=68&sigh=DAQln3PHCbi3nb5i1PKjgTLCHEk"
      },
      {
         "url" : "http://original.testbed.localhost/i.ytimg.com/vi/gO_KyTtJg10/hqdefault.jpg%3Fcustom=true&w=196&h=110&stc=true&jpg444=true&jpgq=90&sp=68&sigh=aG_HXqjumjvQ8oPUeJu-40gZce8",
         "when_comp_start" : -1,
         "id" : "r39",
         "download" : {
            "receiveFirst" : 20,
            "type" : "image/jpeg",
            "sendEnd" : 4,
            "receiveLast" : 337.257999997179,
            "len" : 11299,
            "dns" : 0,
            "sendStart" : 4,
            "dnsStart" : -1,
            "connectEnd" : 4,
            "id" : "download_34",
            "connectStart" : 0,
            "sslEnd" : -1,
            "s_time" : 171.66300000099,
            "receiveHeadersEnd" : 24,
            "dnsEnd" : -1,
            "receivedTime" : "361.257999997179",
            "sslStart" : -1
         },
         "comps" : []
      },
      {
         "when_comp_start" : -1,
         "url" : "http://original.testbed.localhost/i.ytimg.com/vi/aEjGQB9BKWA/hqdefault.jpg%3Fcustom=true&w=196&h=110&stc=true&jpg444=true&jpgq=90&sp=68&sigh=e4rkN0JWj_epQbJPK1-9RaC0Elw",
         "id" : "r40",
         "download" : {
            "receiveFirst" : 20,
            "len" : 13259,
            "receiveLast" : 335.365999997361,
            "sendStart" : 6,
            "dns" : 0,
            "type" : "image/jpeg",
            "sendEnd" : 6,
            "connectStart" : 0,
            "dnsStart" : -1,
            "id" : "download_35",
            "connectEnd" : 6,
            "sslStart" : -1,
            "sslEnd" : -1,
            "receivedTime" : "361.365999997361",
            "dnsEnd" : -1,
            "s_time" : 172.247000002244,
            "receiveHeadersEnd" : 26
         },
         "comps" : []
      },
      {
         "comps" : [],
         "download" : {
            "type" : "image/jpeg",
            "sendEnd" : 19,
            "receiveLast" : 322.478999999235,
            "len" : 13460,
            "dns" : 0,
            "sendStart" : 19,
            "receiveFirst" : 20,
            "sslEnd" : -1,
            "s_time" : 172.817999999097,
            "receiveHeadersEnd" : 39,
            "receivedTime" : "361.478999999235",
            "dnsEnd" : -1,
            "sslStart" : -1,
            "dnsStart" : -1,
            "connectEnd" : 19,
            "id" : "download_36",
            "connectStart" : 0
         },
         "id" : "r41",
         "url" : "http://original.testbed.localhost/i.ytimg.com/vi/NVUEOXZEuT4/hqdefault.jpg%3Fcustom=true&w=196&h=110&stc=true&jpg444=true&jpgq=90&sp=68&sigh=pgyrzGO46S7WSvc8uJwVOend9rk",
         "when_comp_start" : -1
      },
      {
         "comps" : [],
         "download" : {
            "sslStart" : -1,
            "dnsEnd" : -1,
            "receivedTime" : "361.582999998063",
            "s_time" : 174.968999999692,
            "receiveHeadersEnd" : 37,
            "sslEnd" : -1,
            "connectStart" : 0,
            "id" : "download_37",
            "connectEnd" : 17,
            "dnsStart" : -1,
            "sendStart" : 17,
            "dns" : 0,
            "len" : 11113,
            "receiveLast" : 324.582999998063,
            "type" : "image/jpeg",
            "sendEnd" : 17,
            "receiveFirst" : 20
         },
         "id" : "r42",
         "when_comp_start" : -1,
         "url" : "http://original.testbed.localhost/i.ytimg.com/vi/oin0djnH0OM/hqdefault.jpg%3Fcustom=true&w=196&h=110&stc=true&jpg444=true&jpgq=90&sp=68&sigh=L49KH8-48qvot4DRo78wxw45w-U"
      },
      {
         "id" : "r43",
         "url" : "http://original.testbed.localhost/i.ytimg.com/vi/dK_FiuyVU2Y/hqdefault.jpg%3Fcustom=true&w=196&h=110&stc=true&jpg444=true&jpgq=90&sp=68&sigh=ovXWF5BVzn2jXjHo8jdUMUS4Gws",
         "when_comp_start" : -1,
         "download" : {
            "connectStart" : 0,
            "connectEnd" : 16,
            "id" : "download_38",
            "dnsStart" : -1,
            "sslStart" : -1,
            "s_time" : 176.430999999866,
            "receiveHeadersEnd" : 36,
            "dnsEnd" : -1,
            "receivedTime" : "361.685999996553",
            "sslEnd" : -1,
            "receiveFirst" : 20,
            "dns" : 0,
            "sendStart" : 16,
            "receiveLast" : 325.685999996553,
            "len" : 21025,
            "type" : "image/jpeg",
            "sendEnd" : 16
         },
         "comps" : []
      },
      {
         "url" : "http://original.testbed.localhost/yt3.ggpht.com/-dDZUkj9sY4g/AAAAAAAAAAI/AAAAAAAAAAA/oy6dm2Uy8dc/s88-c-k-no-rj-c0xffffff/photo.jpg",
         "when_comp_start" : -1,
         "id" : "r44",
         "comps" : [],
         "download" : {
            "dnsStart" : -1,
            "id" : "download_39",
            "connectEnd" : 16,
            "connectStart" : 0,
            "sslEnd" : -1,
            "dnsEnd" : -1,
            "receivedTime" : "361.784000000625",
            "receiveHeadersEnd" : 36,
            "s_time" : 179.075000000012,
            "sslStart" : -1,
            "receiveFirst" : 20,
            "type" : "image/jpeg",
            "sendEnd" : 16,
            "len" : 2204,
            "receiveLast" : 325.784000000625,
            "sendStart" : 16,
            "dns" : 0
         }
      },
      {
         "url" : "http://original.testbed.localhost/i.ytimg.com/vi/TvAMdsIc_Ow/hqdefault.jpg%3Fcustom=true&w=196&h=110&stc=true&jpg444=true&jpgq=90&sp=68&sigh=EEUI7m9UC56DTeA8pyslc0h3bVg",
         "when_comp_start" : -1,
         "id" : "r45",
         "comps" : [],
         "download" : {
            "dnsStart" : -1,
            "connectEnd" : 4,
            "id" : "download_40",
            "connectStart" : 0,
            "sslEnd" : -1,
            "receiveHeadersEnd" : 24,
            "s_time" : 192.133999997168,
            "dnsEnd" : -1,
            "receivedTime" : "361.898999995901",
            "sslStart" : -1,
            "receiveFirst" : 20,
            "type" : "image/jpeg",
            "sendEnd" : 4,
            "receiveLast" : 337.898999995901,
            "len" : 11019,
            "dns" : 0,
            "sendStart" : 4
         }
      },
      {
         "download" : {
            "type" : "image/jpeg",
            "sendEnd" : 6,
            "dns" : 0,
            "sendStart" : 6,
            "receiveLast" : 336.016999999469,
            "len" : 12964,
            "receiveFirst" : 20,
            "s_time" : 192.633999999089,
            "receiveHeadersEnd" : 26,
            "dnsEnd" : -1,
            "receivedTime" : "362.016999999469",
            "sslEnd" : -1,
            "sslStart" : -1,
            "connectEnd" : 6,
            "id" : "download_41",
            "dnsStart" : -1,
            "connectStart" : 0
         },
         "comps" : [],
         "url" : "http://original.testbed.localhost/i.ytimg.com/vi/NxgD40qFjVs/hqdefault.jpg%3Fcustom=true&w=196&h=110&stc=true&jpg444=true&jpgq=90&sp=68&sigh=rl75-pyiseMG1E5pfufPq1YYIrA",
         "when_comp_start" : -1,
         "id" : "r46"
      },
      {
         "when_comp_start" : -1,
         "url" : "http://original.testbed.localhost/i.ytimg.com/vi/3Ugj7nq-mlg/hqdefault.jpg%3Fcustom=true&w=196&h=110&stc=true&jpg444=true&jpgq=90&sp=68&sigh=IiihMar2OIubgdcXLIn17Hwp7C0",
         "id" : "r47",
         "comps" : [],
         "download" : {
            "sslStart" : -1,
            "receiveHeadersEnd" : 39,
            "s_time" : 193.08699999965,
            "dnsEnd" : -1,
            "receivedTime" : "362.128000000666",
            "sslEnd" : -1,
            "connectStart" : 0,
            "connectEnd" : 19,
            "id" : "download_42",
            "dnsStart" : -1,
            "dns" : 0,
            "sendStart" : 19,
            "receiveLast" : 323.128000000666,
            "len" : 12777,
            "sendEnd" : 19,
            "type" : "image/jpeg",
            "receiveFirst" : 20
         }
      },
      {
         "download" : {
            "sslStart" : -1,
            "sslEnd" : -1,
            "dnsEnd" : -1,
            "receivedTime" : "362.240000002203",
            "receiveHeadersEnd" : 38,
            "s_time" : 195.318999998563,
            "connectStart" : 0,
            "dnsStart" : -1,
            "id" : "download_43",
            "connectEnd" : 17,
            "len" : 14732,
            "receiveLast" : 324.240000002203,
            "sendStart" : 17,
            "dns" : 0,
            "type" : "image/jpeg",
            "sendEnd" : 17,
            "receiveFirst" : 21
         },
         "comps" : [],
         "when_comp_start" : -1,
         "url" : "http://original.testbed.localhost/i.ytimg.com/vi/mAxvK2aGtQU/hqdefault.jpg%3Fcustom=true&w=196&h=110&stc=true&jpg444=true&jpgq=90&sp=68&sigh=KjFgA0nyjfUbFHtRxkPJ47dtXjM",
         "id" : "r48"
      },
      {
         "comps" : [],
         "download" : {
            "len" : 28391,
            "receiveLast" : 341.343000000692,
            "sendStart" : 0,
            "dns" : 0,
            "type" : "image/png",
            "sendEnd" : 0,
            "receiveFirst" : 21,
            "sslStart" : -1,
            "sslEnd" : -1,
            "dnsEnd" : -1,
            "receivedTime" : "362.343000000692",
            "receiveHeadersEnd" : 21,
            "s_time" : 212.816999999632,
            "connectStart" : 0,
            "dnsStart" : -1,
            "id" : "download_44",
            "connectEnd" : 0
         },
         "url" : "http://original.testbed.localhost/s.ytimg.com/yts/imgbin/www-hitchhiker-vflvB63an.png",
         "when_comp_start" : -1,
         "id" : "r51"
      },
      {
         "when_comp_start" : -1,
         "url" : "http://original.testbed.localhost/i.ytimg.com/vi/H-q0zh-XGVc/hqdefault.jpg%3Fcustom=true&w=196&h=110&stc=true&jpg444=true&jpgq=90&sp=68&sigh=Rp0Bkj4OToLoq1o34dUJWXqDNVs",
         "id" : "r49",
         "download" : {
            "connectEnd" : 18,
            "id" : "download_45",
            "dnsStart" : -1,
            "connectStart" : 0,
            "receiveHeadersEnd" : 39,
            "s_time" : 196.859999996377,
            "receivedTime" : "362.736999995832",
            "dnsEnd" : -1,
            "sslEnd" : -1,
            "sslStart" : -1,
            "receiveFirst" : 21,
            "sendEnd" : 18,
            "type" : "image/jpeg",
            "dns" : 0,
            "sendStart" : 18,
            "receiveLast" : 323.736999995832,
            "len" : 14289
         },
         "comps" : []
      },
      {
         "download" : {
            "sslEnd" : -1,
            "dnsEnd" : -1,
            "receivedTime" : "362.843999995675",
            "receiveHeadersEnd" : 37,
            "s_time" : 199.390000001586,
            "sslStart" : -1,
            "dnsStart" : -1,
            "id" : "download_46",
            "connectEnd" : 17,
            "connectStart" : 0,
            "sendEnd" : 17,
            "type" : "image/jpeg",
            "len" : 9958,
            "receiveLast" : 325.843999995675,
            "sendStart" : 17,
            "dns" : 0,
            "receiveFirst" : 20
         },
         "comps" : [],
         "url" : "http://original.testbed.localhost/i.ytimg.com/vi/na5yOfZJmPQ/hqdefault.jpg%3Fcustom=true&w=196&h=110&stc=true&jpg444=true&jpgq=90&sp=68&sigh=QHC8LH15o2YR2DwIUqcOtkgLZVM",
         "when_comp_start" : -1,
         "id" : "r50"
      },
      {
         "download" : {
            "dnsStart" : -1,
            "id" : "download_47",
            "connectEnd" : 0,
            "connectStart" : 0,
            "sslEnd" : -1,
            "dnsEnd" : -1,
            "receivedTime" : "373.687999999675",
            "s_time" : 276.475999999093,
            "receiveHeadersEnd" : 20,
            "sslStart" : -1,
            "receiveFirst" : 20,
            "sendEnd" : 0,
            "type" : "application/octet-stream",
            "len" : 32580,
            "receiveLast" : 353.687999999675,
            "sendStart" : 0,
            "dns" : 0
         },
         "comps" : [],
         "url" : "http://original.testbed.localhost/fonts.gstatic.com/s/roboto/v15/RxZJdnzeo3R5zSexge8UUaCWcynf_cDxXwCLxiixG1c.ttf",
         "when_comp_start" : -1,
         "id" : "r5"
      },
      {
         "url" : "http://original.testbed.localhost/fonts.gstatic.com/s/roboto/v15/zN7GBFwfMP4uA6AR0HCoLQ.ttf",
         "when_comp_start" : -1,
         "id" : "r2",
         "comps" : [],
         "download" : {
            "sslStart" : -1,
            "receivedTime" : "374.127999995835",
            "dnsEnd" : -1,
            "receiveHeadersEnd" : 21,
            "s_time" : 276.351000000432,
            "sslEnd" : -1,
            "connectStart" : 0,
            "id" : "download_48",
            "connectEnd" : 0,
            "dnsStart" : -1,
            "sendStart" : 0,
            "dns" : 0,
            "len" : 32652,
            "receiveLast" : 353.127999995835,
            "type" : "application/octet-stream",
            "sendEnd" : 0,
            "receiveFirst" : 21
         }
      },
      {
         "when_comp_start" : -1,
         "url" : "http://original.testbed.localhost/yt3.ggpht.com/-x-pKW1yb6y8/AAAAAAAAAAI/AAAAAAAAAAA/jPbMU4ZW0sA/s88-c-k-no-rj-c0xffffff/photo.jpg",
         "id" : "r53",
         "comps" : [],
         "download" : {
            "s_time" : 363.770999996632,
            "receiveHeadersEnd" : 20,
            "receivedTime" : "468.666000000667",
            "dnsEnd" : -1,
            "sslEnd" : -1,
            "sslStart" : -1,
            "connectEnd" : 0,
            "id" : "download_49",
            "dnsStart" : -1,
            "connectStart" : 0,
            "sendEnd" : 0,
            "type" : "image/jpeg",
            "dns" : 0,
            "sendStart" : 0,
            "receiveLast" : 448.666000000667,
            "len" : 3116,
            "receiveFirst" : 20
         }
      },
      {
         "url" : "http://original.testbed.localhost/yt3.ggpht.com/dtJRjCV0a2FCiwqvzY7u5JoMSnOGSe4vEr8YJqY2jJ_sLL-GpugyxWgseh_ITDZHdVatISs2pqQA_AZgYw=s88-nd-c-c0xffffffff-rj-k-no",
         "when_comp_start" : -1,
         "id" : "r54",
         "comps" : [],
         "download" : {
            "sslStart" : -1,
            "dnsEnd" : -1,
            "receivedTime" : "471.215999998094",
            "s_time" : 365.206000002217,
            "receiveHeadersEnd" : 20,
            "sslEnd" : -1,
            "connectStart" : 0,
            "id" : "download_50",
            "connectEnd" : 0,
            "dnsStart" : -1,
            "sendStart" : 0,
            "dns" : 0,
            "len" : 2461,
            "receiveLast" : 451.215999998094,
            "sendEnd" : 0,
            "type" : "image/jpeg",
            "receiveFirst" : 20
         }
      },
      {
         "url" : "http://original.testbed.localhost/s.ytimg.com/yts/jsbin/spf-vfldNIm25/spf.js",
         "when_comp_start" : -1,
         "id" : "r55",
         "download" : {
            "sslStart" : -1,
            "sslEnd" : -1,
            "s_time" : 373.575999998138,
            "receiveHeadersEnd" : 22,
            "dnsEnd" : -1,
            "receivedTime" : "539.012000001094",
            "connectStart" : 0,
            "dnsStart" : -1,
            "connectEnd" : 0,
            "id" : "download_51",
            "receiveLast" : 517.012000001094,
            "len" : 34173,
            "dns" : 0,
            "sendStart" : 0,
            "type" : "application/javascript",
            "sendEnd" : 0,
            "receiveFirst" : 22
         },
         "comps" : [
            {
               "time" : 6.58599999587796,
               "type" : 1,
               "id" : "comp_147",
               "s_time" : 539.056000001437,
               "e_time" : 545.641999997315
            }
         ]
      },
      {
         "when_comp_start" : -1,
         "url" : "http://original.testbed.localhost/s.ytimg.com/yts/jsbin/www-en_US-vflBAUmx0/base.js",
         "id" : "r56",
         "download" : {
            "sslStart" : -1,
            "sslEnd" : -1,
            "dnsEnd" : -1,
            "receivedTime" : "546.339000000444",
            "receiveHeadersEnd" : 25,
            "s_time" : 373.679999996966,
            "connectStart" : 0,
            "dnsStart" : -1,
            "id" : "download_52",
            "connectEnd" : 0,
            "len" : 87480,
            "receiveLast" : 521.339000000444,
            "sendStart" : 0,
            "dns" : 0,
            "sendEnd" : 0,
            "type" : "application/javascript",
            "receiveFirst" : 25
         },
         "comps" : [
            {
               "s_time" : 546.391999996558,
               "id" : "comp_149",
               "time" : 20.82800000062,
               "type" : 1,
               "e_time" : 567.219999997178
            }
         ]
      }
   ]
}
