{
   "load_activity" : -1,
   "name" : "original.testbed.localhost_dailycurrant.com_",
   "deps" : [
      {
         "id" : "dep1",
         "a2" : "r1_c2",
         "time" : -1,
         "a1" : "comp_25"
      },
      {
         "a1" : "comp_30",
         "a2" : "r1_c3",
         "id" : "dep2",
         "time" : -1
      },
      {
         "id" : "dep3",
         "a2" : "r1_c4",
         "time" : -1,
         "a1" : "comp_39"
      },
      {
         "time" : -1,
         "id" : "dep4",
         "a2" : "r1_c5",
         "a1" : "comp_54"
      },
      {
         "time" : -1,
         "id" : "dep5",
         "a2" : "r1_c6",
         "a1" : "comp_61"
      },
      {
         "time" : -1,
         "id" : "dep6",
         "a2" : "r1_c7",
         "a1" : "comp_63"
      },
      {
         "a1" : "comp_65",
         "id" : "dep7",
         "a2" : "r1_c8",
         "time" : -1
      },
      {
         "time" : -1,
         "a2" : "r1_c9",
         "id" : "dep8",
         "a1" : "comp_67"
      },
      {
         "a1" : "comp_69",
         "a2" : "r1_c10",
         "id" : "dep9",
         "time" : -1
      },
      {
         "a2" : "r1_c11",
         "id" : "dep10",
         "time" : -1,
         "a1" : "comp_72"
      },
      {
         "a1" : "comp_86",
         "a2" : "r1_c12",
         "id" : "dep11",
         "time" : -1
      },
      {
         "a1" : "comp_8",
         "a2" : "comp_25",
         "id" : "dep12",
         "time" : -1
      },
      {
         "id" : "dep13",
         "a2" : "comp_25",
         "time" : -1,
         "a1" : "comp_7"
      },
      {
         "time" : -1,
         "id" : "dep14",
         "a2" : "comp_25",
         "a1" : "comp_14"
      },
      {
         "a2" : "comp_30",
         "id" : "dep15",
         "time" : -1,
         "a1" : "comp_25"
      },
      {
         "a1" : "comp_54",
         "a2" : "comp_61",
         "id" : "dep16",
         "time" : -1
      },
      {
         "time" : -1,
         "id" : "dep17",
         "a2" : "comp_63",
         "a1" : "comp_61"
      },
      {
         "time" : -1,
         "id" : "dep18",
         "a2" : "comp_65",
         "a1" : "comp_63"
      },
      {
         "time" : -1,
         "id" : "dep19",
         "a2" : "comp_67",
         "a1" : "comp_65"
      },
      {
         "a1" : "comp_67",
         "time" : -1,
         "id" : "dep20",
         "a2" : "comp_69"
      },
      {
         "a1" : "r1_c4",
         "id" : "dep21",
         "a2" : "download_40",
         "time" : -1
      },
      {
         "time" : 38.66299999936,
         "a2" : "download_39",
         "id" : "dep22",
         "a1" : "r1_c4"
      },
      {
         "time" : 38.238000001002,
         "a2" : "download_38",
         "id" : "dep23",
         "a1" : "r1_c4"
      },
      {
         "a1" : "r1_c11",
         "a2" : "download_37",
         "id" : "dep24",
         "time" : -1
      },
      {
         "time" : 17.195000000356,
         "a2" : "download_36",
         "id" : "dep25",
         "a1" : "r1_c11"
      },
      {
         "a2" : "download_35",
         "id" : "dep26",
         "time" : 15.762999995786,
         "a1" : "r1_c11"
      },
      {
         "a1" : "r1_c4",
         "time" : 37.622999996529,
         "a2" : "download_34",
         "id" : "dep27"
      },
      {
         "a1" : "r1_c4",
         "id" : "dep28",
         "a2" : "download_33",
         "time" : 37.210000002233
      },
      {
         "a1" : "r1_c4",
         "time" : 17.148999999335,
         "a2" : "download_32",
         "id" : "dep29"
      },
      {
         "a1" : "r1_c4",
         "time" : 20.141000000876,
         "id" : "dep30",
         "a2" : "download_31"
      },
      {
         "a2" : "download_31",
         "id" : "dep31",
         "time" : 20.141000000876,
         "a1" : "r1_c4"
      },
      {
         "id" : "dep32",
         "a2" : "download_30",
         "time" : -1,
         "a1" : "r1_c5"
      },
      {
         "a1" : "r1_c5",
         "time" : 5.18300000112501,
         "id" : "dep33",
         "a2" : "download_30"
      },
      {
         "a1" : "r1_c4",
         "a2" : "download_29",
         "id" : "dep34",
         "time" : 17.02700000169
      },
      {
         "id" : "dep35",
         "a2" : "download_28",
         "time" : 16.756999997597,
         "a1" : "r1_c4"
      },
      {
         "a1" : "r1_c4",
         "time" : 16.734999997425,
         "id" : "dep36",
         "a2" : "download_27"
      },
      {
         "a1" : "r1_c4",
         "a2" : "download_26",
         "id" : "dep37",
         "time" : 16.349999998056
      },
      {
         "a1" : "r1_c4",
         "time" : 19.951000002038,
         "id" : "dep38",
         "a2" : "download_25"
      },
      {
         "time" : 19.951000002038,
         "a2" : "download_25",
         "id" : "dep39",
         "a1" : "r1_c4"
      },
      {
         "a1" : "r1_c4",
         "time" : 19.844999995257,
         "id" : "dep40",
         "a2" : "download_24"
      },
      {
         "a1" : "r1_c4",
         "id" : "dep41",
         "a2" : "download_24",
         "time" : 19.844999995257
      },
      {
         "id" : "dep42",
         "a2" : "download_23",
         "time" : 19.722999997612,
         "a1" : "r1_c4"
      },
      {
         "a1" : "r1_c4",
         "time" : 19.722999997612,
         "a2" : "download_23",
         "id" : "dep43"
      },
      {
         "a2" : "download_22",
         "id" : "dep44",
         "time" : 19.602000000304,
         "a1" : "r1_c4"
      },
      {
         "a1" : "r1_c4",
         "a2" : "download_22",
         "id" : "dep45",
         "time" : 19.602000000304
      },
      {
         "a2" : "download_21",
         "id" : "dep46",
         "time" : 19.495000000461,
         "a1" : "r1_c4"
      },
      {
         "time" : 19.495000000461,
         "a2" : "download_21",
         "id" : "dep47",
         "a1" : "r1_c4"
      },
      {
         "time" : 19.337999998243,
         "a2" : "download_20",
         "id" : "dep48",
         "a1" : "r1_c4"
      },
      {
         "a1" : "r1_c4",
         "id" : "dep49",
         "a2" : "download_20",
         "time" : 19.337999998243
      },
      {
         "time" : 16.150999996171,
         "a2" : "download_19",
         "id" : "dep50",
         "a1" : "r1_c4"
      },
      {
         "a1" : "r1_c4",
         "time" : 15.945999999531,
         "id" : "dep51",
         "a2" : "download_18"
      },
      {
         "time" : 15.750999999,
         "id" : "dep52",
         "a2" : "download_17",
         "a1" : "r1_c4"
      },
      {
         "id" : "dep53",
         "a2" : "download_16",
         "time" : 15.548999996099,
         "a1" : "r1_c4"
      },
      {
         "a1" : "r1_c4",
         "time" : 15.344999999797,
         "id" : "dep54",
         "a2" : "download_15"
      },
      {
         "a1" : "r1_c4",
         "id" : "dep55",
         "a2" : "download_14",
         "time" : 13.731999999436
      },
      {
         "a1" : "r1_c1",
         "id" : "dep56",
         "a2" : "download_13",
         "time" : -1
      },
      {
         "a1" : "r1_c1",
         "time" : 18.2170000043698,
         "id" : "dep57",
         "a2" : "download_12"
      },
      {
         "time" : 18.2170000043698,
         "id" : "dep58",
         "a2" : "download_12",
         "a1" : "r1_c1"
      },
      {
         "a1" : "r1_c1",
         "time" : 18.4290000033798,
         "id" : "dep59",
         "a2" : "download_11"
      },
      {
         "a2" : "download_11",
         "id" : "dep60",
         "time" : 18.4290000033798,
         "a1" : "r1_c1"
      },
      {
         "a1" : "r1_c1",
         "time" : 15.889000002062,
         "id" : "dep61",
         "a2" : "download_10"
      },
      {
         "a1" : "r1_c1",
         "a2" : "download_10",
         "id" : "dep62",
         "time" : 15.889000002062
      },
      {
         "a1" : "r1_c1",
         "a2" : "download_9",
         "id" : "dep63",
         "time" : 15.8270000029006
      },
      {
         "time" : 17.9430000061984,
         "id" : "dep64",
         "a2" : "download_8",
         "a1" : "r1_c1"
      },
      {
         "a1" : "r1_c1",
         "id" : "dep65",
         "a2" : "download_8",
         "time" : 17.9430000061984
      },
      {
         "id" : "dep66",
         "a2" : "download_7",
         "time" : 17.8060000034748,
         "a1" : "r1_c1"
      },
      {
         "id" : "dep67",
         "a2" : "download_7",
         "time" : 17.8060000034748,
         "a1" : "r1_c1"
      },
      {
         "a2" : "download_6",
         "id" : "dep68",
         "time" : 17.6730000021053,
         "a1" : "r1_c1"
      },
      {
         "time" : 17.6730000021053,
         "id" : "dep69",
         "a2" : "download_6",
         "a1" : "r1_c1"
      },
      {
         "a1" : "r1_c1",
         "a2" : "download_5",
         "id" : "dep70",
         "time" : 17.4280000064755
      },
      {
         "time" : 17.4280000064755,
         "id" : "dep71",
         "a2" : "download_5",
         "a1" : "r1_c1"
      },
      {
         "a1" : "r1_c1",
         "a2" : "download_4",
         "id" : "dep72",
         "time" : 17.3020000001998
      },
      {
         "id" : "dep73",
         "a2" : "download_4",
         "time" : 17.3020000001998,
         "a1" : "r1_c1"
      },
      {
         "a2" : "download_3",
         "id" : "dep74",
         "time" : 15.5980000054115,
         "a1" : "r1_c1"
      },
      {
         "id" : "dep75",
         "a2" : "download_2",
         "time" : 15.3280000013183,
         "a1" : "r1_c1"
      },
      {
         "id" : "dep76",
         "a2" : "download_1",
         "time" : 15.4610000026878,
         "a1" : "r1_c1"
      }
   ],
   "objs" : [
      {
         "id" : "r1",
         "comps" : [
            {
               "time" : 85.0820000050592,
               "type" : "evalhtml",
               "id" : "r1_c1",
               "s_time" : 36.8379999999888,
               "e_time" : 121.920000005048
            },
            {
               "id" : "r1_c2",
               "type" : "evalhtml",
               "time" : -43921515.952,
               "e_time" : -43921356.313,
               "s_time" : 159.639000004972
            },
            {
               "type" : "evalhtml",
               "id" : "r1_c3",
               "time" : -43921540.018,
               "e_time" : -43921356.313,
               "s_time" : 183.705000003101
            },
            {
               "s_time" : 193.940000004659,
               "e_time" : 232.828000000154,
               "time" : 38.887999995495,
               "id" : "r1_c4",
               "type" : "evalhtml"
            },
            {
               "e_time" : 244.729000005464,
               "s_time" : 239.546000004339,
               "type" : "evalhtml",
               "id" : "r1_c5",
               "time" : 5.18300000112501
            },
            {
               "s_time" : 253.272000001743,
               "e_time" : -43921356.313,
               "time" : -43921609.585,
               "type" : "evalhtml",
               "id" : "r1_c6"
            },
            {
               "e_time" : -43921356.313,
               "s_time" : 254.843000002438,
               "type" : "evalhtml",
               "id" : "r1_c7",
               "time" : -43921611.156
            },
            {
               "s_time" : 255.320000003849,
               "e_time" : -43921356.313,
               "time" : -43921611.633,
               "type" : "evalhtml",
               "id" : "r1_c8"
            },
            {
               "s_time" : 256.063000000722,
               "e_time" : -43921356.313,
               "time" : -43921612.376,
               "type" : "evalhtml",
               "id" : "r1_c9"
            },
            {
               "time" : -43921612.839,
               "id" : "r1_c10",
               "type" : "evalhtml",
               "s_time" : 256.526000004669,
               "e_time" : -43921356.313
            },
            {
               "time" : 17.898999998578,
               "id" : "r1_c11",
               "type" : "evalhtml",
               "s_time" : 257.345000005444,
               "e_time" : 275.244000004022
            },
            {
               "type" : "evalhtml",
               "id" : "r1_c12",
               "time" : 0.0220000001719995,
               "e_time" : 307.772000000114,
               "s_time" : 307.749999999942
            }
         ],
         "when_comp_start" : 1,
         "download" : {
            "connectEnd" : 0,
            "receiveFirst" : 22,
            "connectStart" : 0,
            "sendEnd" : 0,
            "receiveLast" : 14.7140000016661,
            "len" : 47542,
            "sslStart" : -1,
            "sslEnd" : -1,
            "receivedTime" : "36.7140000016661",
            "s_time" : 0,
            "dnsEnd" : -1,
            "type" : "text/html",
            "id" : "download_0",
            "dns" : 0,
            "sendStart" : 0,
            "receiveHeadersEnd" : 22,
            "dnsStart" : -1
         },
         "url" : "http://original.testbed.localhost/dailycurrant.com/"
      },
      {
         "when_comp_start" : -1,
         "url" : "http://original.testbed.localhost/dailycurrant.com/wp-content/plugins/wp-to-twitter/css/twitter-feed.css%3Fver=4.2.4.css",
         "download" : {
            "receiveHeadersEnd" : 24,
            "sendStart" : 3,
            "dnsStart" : -1,
            "dnsEnd" : -1,
            "type" : "text/css",
            "id" : "download_1",
            "dns" : 0,
            "receivedTime" : "77.5120000034804",
            "s_time" : 52.2990000026766,
            "sslEnd" : -1,
            "receiveLast" : 53.5120000034804,
            "connectStart" : 0,
            "sendEnd" : 3,
            "len" : 1181,
            "sslStart" : -1,
            "connectEnd" : 3,
            "receiveFirst" : 21
         },
         "id" : "r4",
         "comps" : [
            {
               "e_time" : 77.8280000013183,
               "s_time" : 77.5910000011208,
               "type" : 4,
               "id" : "comp_7",
               "time" : 0.237000000197497
            }
         ]
      },
      {
         "comps" : [
            {
               "time" : 0.820999994175494,
               "type" : 4,
               "id" : "comp_8",
               "s_time" : 77.928000006068,
               "e_time" : 78.7490000002435
            }
         ],
         "id" : "r3",
         "download" : {
            "type" : "text/css",
            "dnsEnd" : -1,
            "id" : "download_2",
            "dns" : 0,
            "sendStart" : 3,
            "receiveHeadersEnd" : 24,
            "dnsStart" : -1,
            "connectEnd" : 3,
            "receiveFirst" : 21,
            "connectStart" : 0,
            "receiveLast" : 53.8930000014952,
            "sendEnd" : 3,
            "len" : 10932,
            "sslStart" : -1,
            "sslEnd" : -1,
            "receivedTime" : "77.8930000014952",
            "s_time" : 52.1660000013071
         },
         "url" : "http://original.testbed.localhost/dailycurrant.com/wp-content/plugins/wp-pro-quiz/css/wpProQuiz_front.min.css%3Fver=0.37.css",
         "when_comp_start" : -1
      },
      {
         "id" : "r5",
         "comps" : [
            {
               "type" : 4,
               "id" : "comp_14",
               "time" : 0.350000002072193,
               "e_time" : 95.6100000039442,
               "s_time" : 95.260000001872
            }
         ],
         "when_comp_start" : -1,
         "url" : "http://original.testbed.localhost/dailycurrant.com/wp-content/plugins/wordpress-popular-posts/style/wpp.css%3Fver=3.3.1.css",
         "download" : {
            "len" : 316,
            "sslStart" : -1,
            "sendEnd" : 21,
            "connectStart" : 0,
            "receiveLast" : 53.1710000008461,
            "receiveFirst" : 21,
            "connectEnd" : 21,
            "s_time" : 52.4360000054003,
            "receivedTime" : "95.1710000008461",
            "sslEnd" : -1,
            "dns" : 0,
            "id" : "download_3",
            "type" : "text/css",
            "dnsEnd" : 1,
            "dnsStart" : 1,
            "receiveHeadersEnd" : 42,
            "sendStart" : 21
         }
      },
      {
         "when_comp_start" : -1,
         "download" : {
            "dnsStart" : 1,
            "receiveHeadersEnd" : 44,
            "sendStart" : 21,
            "dns" : 0,
            "id" : "download_4",
            "dnsEnd" : 1,
            "type" : "text/css",
            "s_time" : 54.1400000001886,
            "receivedTime" : "99.0600000004633",
            "sslEnd" : -1,
            "len" : 545,
            "sslStart" : -1,
            "connectStart" : 0,
            "receiveLast" : 55.0600000004633,
            "sendEnd" : 21,
            "receiveFirst" : 23,
            "connectEnd" : 21
         },
         "url" : "http://original.testbed.localhost/fonts.googleapis.com/css%3Ffamily=PT+Serif+Caption:400,400italic.css",
         "id" : "r8",
         "comps" : [
            {
               "s_time" : 99.1290000019944,
               "e_time" : 99.1390000053798,
               "time" : 0.0100000033854002,
               "type" : 4,
               "id" : "comp_18"
            }
         ]
      },
      {
         "id" : "r9",
         "comps" : [
            {
               "type" : 4,
               "id" : "comp_19",
               "time" : 0.00400000135410039,
               "e_time" : 99.4390000050771,
               "s_time" : 99.435000003723
            }
         ],
         "when_comp_start" : -1,
         "url" : "http://original.testbed.localhost/fonts.googleapis.com/css%3Ffamily=Istok+Web.css",
         "download" : {
            "receiveHeadersEnd" : 44,
            "sendStart" : 21,
            "dnsStart" : 1,
            "id" : "download_5",
            "dnsEnd" : 1,
            "type" : "text/css",
            "dns" : 0,
            "s_time" : 54.2660000064643,
            "receivedTime" : "99.2460000052233",
            "sslEnd" : -1,
            "sslStart" : -1,
            "len" : 256,
            "receiveLast" : 55.2460000052233,
            "connectStart" : 0,
            "sendEnd" : 21,
            "receiveFirst" : 23,
            "connectEnd" : 21
         }
      },
      {
         "comps" : [
            {
               "e_time" : 100.261000006867,
               "s_time" : 100.190000004659,
               "type" : 4,
               "id" : "comp_21",
               "time" : 0.0710000022079953
            }
         ],
         "id" : "r10",
         "url" : "http://original.testbed.localhost/dailycurrant.com/wp-content/themes/themefit_hybrid/themefit-hybrid/style.css%3Fv=1.2.0083.css",
         "download" : {
            "sendEnd" : 22,
            "connectStart" : 0,
            "receiveLast" : 57.1230000038049,
            "len" : 43854,
            "sslStart" : -1,
            "connectEnd" : 22,
            "receiveFirst" : 21,
            "receivedTime" : "100.123000003805",
            "s_time" : 54.5110000020941,
            "sslEnd" : -1,
            "type" : "text/css",
            "dnsEnd" : 1,
            "id" : "download_6",
            "dns" : 0,
            "receiveHeadersEnd" : 43,
            "sendStart" : 22,
            "dnsStart" : 1
         },
         "when_comp_start" : -1
      },
      {
         "id" : "r12",
         "comps" : [
            {
               "e_time" : 100.559000005887,
               "s_time" : 100.554000004195,
               "type" : 4,
               "id" : "comp_22",
               "time" : 0.00500000169199666
            }
         ],
         "when_comp_start" : -1,
         "url" : "http://original.testbed.localhost/dailycurrant.com/wp-content/themes/themefit_hybrid/themefit-hybrid/css/themefit.mobilemenu.css%3Fv=1.2.0083.css",
         "download" : {
            "sendStart" : 22,
            "receiveHeadersEnd" : 45,
            "dnsStart" : -1,
            "id" : "download_7",
            "dnsEnd" : -1,
            "type" : "text/css",
            "dns" : 0,
            "sslEnd" : -1,
            "s_time" : 54.6440000034636,
            "receivedTime" : "100.50400000182",
            "receiveFirst" : 23,
            "connectEnd" : 22,
            "len" : 3817,
            "sslStart" : -1,
            "connectStart" : 0,
            "receiveLast" : 55.5040000018198,
            "sendEnd" : 22
         }
      },
      {
         "when_comp_start" : 1,
         "download" : {
            "type" : "text/html",
            "dnsEnd" : -1,
            "id" : "download_8",
            "dns" : 0,
            "receiveHeadersEnd" : 60,
            "sendStart" : 40,
            "dnsStart" : -1,
            "connectStart" : 0,
            "receiveLast" : 72.4170000007143,
            "sendEnd" : 40,
            "sslStart" : -1,
            "len" : 851,
            "connectEnd" : 40,
            "receiveFirst" : 20,
            "receivedTime" : "132.417000000714",
            "s_time" : 54.7810000061872,
            "sslEnd" : -1
         },
         "url" : "http://original.testbed.localhost/dailycurrant.com/wp-content/themes/themefit_hybrid/themefit-hybrid/css/themefit.slideshow.css%3Fv=1.2.0083.html",
         "id" : "r13",
         "comps" : [
            {
               "time" : 0.00200000067698625,
               "type" : 4,
               "id" : "comp_24",
               "s_time" : 132.458000000042,
               "e_time" : 132.460000000719
            }
         ]
      },
      {
         "id" : "r6",
         "comps" : [
            {
               "id" : "comp_25",
               "type" : 1,
               "time" : 26.345999998739,
               "e_time" : 159.639000004972,
               "s_time" : 133.293000006233
            }
         ],
         "when_comp_start" : -1,
         "url" : "http://original.testbed.localhost/ajax.googleapis.com/ajax/libs/jquery/1.6.2/jquery.min.js%3Fver=4.2.4",
         "download" : {
            "dns" : 0,
            "dnsEnd" : -1,
            "type" : "text/plain",
            "id" : "download_9",
            "dnsStart" : -1,
            "sendStart" : 47,
            "receiveHeadersEnd" : 67,
            "connectEnd" : 47,
            "receiveFirst" : 20,
            "receiveLast" : 66.2290000063949,
            "connectStart" : 0,
            "sendEnd" : 47,
            "sslStart" : -1,
            "len" : 91556,
            "sslEnd" : -1,
            "receivedTime" : "133.229000006395",
            "s_time" : 52.6650000028894
         }
      },
      {
         "download" : {
            "connectEnd" : 47,
            "receiveFirst" : 20,
            "connectStart" : 0,
            "receiveLast" : 92.9150000038208,
            "sendEnd" : 47,
            "sslStart" : -1,
            "len" : 201875,
            "sslEnd" : -1,
            "receivedTime" : "159.915000003821",
            "s_time" : 52.7270000020508,
            "dns" : 0,
            "type" : "text/plain",
            "dnsEnd" : -1,
            "id" : "download_10",
            "dnsStart" : -1,
            "sendStart" : 47,
            "receiveHeadersEnd" : 67
         },
         "url" : "http://original.testbed.localhost/ajax.googleapis.com/ajax/libs/jqueryui/1.8.16/jquery-ui.min.js%3Fver=4.2.4",
         "when_comp_start" : -1,
         "comps" : [
            {
               "s_time" : 159.965000006196,
               "e_time" : 183.705000003101,
               "time" : 23.739999996905,
               "type" : 1,
               "id" : "comp_30"
            }
         ],
         "id" : "r7"
      },
      {
         "comps" : [],
         "id" : "r14",
         "download" : {
            "connectStart" : 0,
            "sendEnd" : 45,
            "receiveLast" : 68.0890000026557,
            "len" : 4854,
            "sslStart" : -1,
            "connectEnd" : 44,
            "receiveFirst" : 20,
            "receivedTime" : "133.089000002656",
            "s_time" : 55.2670000033686,
            "sslEnd" : -1,
            "dns" : 0,
            "dnsEnd" : -1,
            "type" : "image/jpeg",
            "id" : "download_11",
            "dnsStart" : -1,
            "receiveHeadersEnd" : 65,
            "sendStart" : 44
         },
         "url" : "http://original.testbed.localhost/dailycurrant.com/wp-content/uploads/2013/12/littlelogo1.jpg",
         "when_comp_start" : -1
      },
      {
         "comps" : [
            {
               "s_time" : 191.990000006626,
               "e_time" : 193.940000004659,
               "time" : 1.94999999803301,
               "id" : "comp_39",
               "type" : 1
            }
         ],
         "id" : "r16",
         "download" : {
            "receiveFirst" : 21,
            "connectEnd" : 44,
            "len" : 5418,
            "sslStart" : -1,
            "sendEnd" : 44,
            "connectStart" : 0,
            "receiveLast" : 67.9640000039944,
            "sslEnd" : -1,
            "s_time" : 55.0550000043586,
            "receivedTime" : "132.964000003994",
            "id" : "download_12",
            "dnsEnd" : -1,
            "type" : "text/plain",
            "dns" : 0,
            "sendStart" : 44,
            "receiveHeadersEnd" : 65,
            "dnsStart" : -1
         },
         "url" : "http://original.testbed.localhost/ap.lijit.com/www/delivery/fpi.js%3Fz=298021&u=dailycurrant&width=728&height=90",
         "when_comp_start" : -1
      },
      {
         "id" : "r15",
         "comps" : [],
         "when_comp_start" : -1,
         "download" : {
            "connectStart" : 0,
            "receiveLast" : 187.575000004203,
            "sendEnd" : 0,
            "sslStart" : -1,
            "len" : 9323,
            "connectEnd" : 0,
            "receiveFirst" : 21,
            "receivedTime" : "208.575000004203",
            "s_time" : 121.920000005048,
            "sslEnd" : -1,
            "dns" : 0,
            "type" : "image/jpeg",
            "dnsEnd" : -1,
            "id" : "download_13",
            "dnsStart" : -1,
            "receiveHeadersEnd" : 21,
            "sendStart" : 0
         },
         "url" : "http://original.testbed.localhost/dailycurrant.com/wp-content/uploads/img/Logo55.jpg"
      },
      {
         "url" : "http://original.testbed.localhost/dailycurrant.com/fonts/proximanovacond-semibold-webfont.woff",
         "download" : {
            "receiveLast" : 219.172000005259,
            "connectStart" : 0,
            "sendEnd" : 0,
            "sslStart" : -1,
            "len" : 27428,
            "connectEnd" : 0,
            "receiveFirst" : 21,
            "receivedTime" : "240.172000005259",
            "s_time" : 207.672000004095,
            "sslEnd" : -1,
            "dns" : 0,
            "type" : "application/x-font-woff",
            "dnsEnd" : -1,
            "id" : "download_14",
            "dnsStart" : -1,
            "receiveHeadersEnd" : 21,
            "sendStart" : 0
         },
         "when_comp_start" : -1,
         "comps" : [],
         "id" : "r24"
      },
      {
         "id" : "r41",
         "comps" : [],
         "when_comp_start" : -1,
         "url" : "http://original.testbed.localhost/dailycurrant.com/wp-content/uploads/2016/03/trump_muslim_sacrifice1-257x147.jpg",
         "download" : {
            "s_time" : 209.285000004456,
            "receivedTime" : "241.103000000294",
            "sslEnd" : -1,
            "len" : 12894,
            "sslStart" : -1,
            "receiveLast" : 220.103000000294,
            "connectStart" : 0,
            "sendEnd" : 1,
            "receiveFirst" : 20,
            "connectEnd" : 1,
            "receiveHeadersEnd" : 21,
            "sendStart" : 1,
            "dnsStart" : -1,
            "id" : "download_15",
            "dnsEnd" : -1,
            "type" : "image/jpeg",
            "dns" : 0
         }
      },
      {
         "id" : "r42",
         "comps" : [],
         "when_comp_start" : -1,
         "download" : {
            "sslEnd" : -1,
            "s_time" : 209.489000000758,
            "receivedTime" : "241.445999999996",
            "receiveFirst" : 20,
            "connectEnd" : 1,
            "sslStart" : -1,
            "len" : 66292,
            "connectStart" : 0,
            "sendEnd" : 1,
            "receiveLast" : 220.445999999996,
            "dnsStart" : -1,
            "sendStart" : 1,
            "receiveHeadersEnd" : 21,
            "dns" : 0,
            "id" : "download_16",
            "dnsEnd" : -1,
            "type" : "image/png"
         },
         "url" : "http://original.testbed.localhost/dailycurrant.com/wp-content/uploads/2016/03/Screen-Shot-2016-03-04-at-10.32.54-257x142.png"
      },
      {
         "when_comp_start" : -1,
         "download" : {
            "sslEnd" : -1,
            "s_time" : 209.691000003659,
            "receivedTime" : "241.637000006449",
            "receiveFirst" : 21,
            "connectEnd" : 1,
            "sslStart" : -1,
            "len" : 10717,
            "receiveLast" : 219.637000006449,
            "connectStart" : 0,
            "sendEnd" : 1,
            "dnsStart" : -1,
            "sendStart" : 1,
            "receiveHeadersEnd" : 22,
            "dns" : 0,
            "id" : "download_17",
            "type" : "image/jpeg",
            "dnsEnd" : -1
         },
         "url" : "http://original.testbed.localhost/dailycurrant.com/wp-content/uploads/2016/02/trump-257x160.jpg",
         "id" : "r43",
         "comps" : []
      },
      {
         "when_comp_start" : -1,
         "url" : "http://original.testbed.localhost/dailycurrant.com/wp-content/uploads/2016/02/ThinkstockPhotos-504852952-1-257x171.jpg",
         "download" : {
            "dns" : 0,
            "dnsEnd" : -1,
            "type" : "image/jpeg",
            "id" : "download_18",
            "dnsStart" : -1,
            "sendStart" : 1,
            "receiveHeadersEnd" : 22,
            "connectEnd" : 1,
            "receiveFirst" : 21,
            "connectStart" : 0,
            "receiveLast" : 219.923000001407,
            "sendEnd" : 1,
            "sslStart" : -1,
            "len" : 15104,
            "sslEnd" : -1,
            "receivedTime" : "241.923000001407",
            "s_time" : 209.88600000419
         },
         "id" : "r44",
         "comps" : []
      },
      {
         "url" : "http://original.testbed.localhost/dailycurrant.com/wp-content/uploads/2016/01/ThinkstockPhotos-83338006-257x171.jpg",
         "download" : {
            "dnsStart" : -1,
            "sendStart" : 1,
            "receiveHeadersEnd" : 22,
            "dns" : 0,
            "id" : "download_19",
            "dnsEnd" : -1,
            "type" : "image/jpeg",
            "sslEnd" : -1,
            "s_time" : 210.09100000083,
            "receivedTime" : "242.006000000401",
            "receiveFirst" : 21,
            "connectEnd" : 1,
            "len" : 14614,
            "sslStart" : -1,
            "connectStart" : 0,
            "sendEnd" : 1,
            "receiveLast" : 220.006000000401
         },
         "when_comp_start" : -1,
         "comps" : [],
         "id" : "r45"
      },
      {
         "url" : "http://original.testbed.localhost/adserver.adtechus.com/addyn%7C3.0%7C10173.1%7C3614317%7C0%7C225%7CADTECH%3Bloc=100%3Btarget=_blank%3Bmisc=[TIMESTAMP]%3Brdclick=.html",
         "download" : {
            "id" : "download_20",
            "dnsEnd" : -1,
            "type" : "text/html",
            "dns" : 0,
            "receiveHeadersEnd" : 36,
            "sendStart" : 15,
            "dnsStart" : -1,
            "sslStart" : -1,
            "len" : 1,
            "connectStart" : 0,
            "receiveLast" : 216.891000003729,
            "sendEnd" : 15,
            "receiveFirst" : 21,
            "connectEnd" : 15,
            "s_time" : 213.278000002902,
            "receivedTime" : "252.891000003729",
            "sslEnd" : -1
         },
         "when_comp_start" : 1,
         "comps" : [
            {
               "id" : "comp_61",
               "type" : 1,
               "time" : 0.347000001056017,
               "e_time" : 253.272000001743,
               "s_time" : 252.925000000687
            }
         ],
         "id" : "r59"
      },
      {
         "id" : "r61",
         "comps" : [
            {
               "type" : 1,
               "id" : "comp_63",
               "time" : 0.741999996535014,
               "e_time" : 254.843000002438,
               "s_time" : 254.101000005903
            }
         ],
         "when_comp_start" : 1,
         "download" : {
            "dns" : 0,
            "id" : "download_21",
            "type" : "text/html",
            "dnsEnd" : -1,
            "dnsStart" : -1,
            "receiveHeadersEnd" : 38,
            "sendStart" : 17,
            "len" : 849,
            "sslStart" : -1,
            "sendEnd" : 17,
            "connectStart" : 0,
            "receiveLast" : 216.047000002174,
            "receiveFirst" : 21,
            "connectEnd" : 17,
            "s_time" : 213.43500000512,
            "receivedTime" : "254.047000002174",
            "sslEnd" : -1
         },
         "url" : "http://original.testbed.localhost/dailycurrant.com/wp-content/themes/themefit_hybrid/themefit-hybrid/js/themefit.mobilemenu.jQuery.js%3Fv=1.2.0083.html"
      },
      {
         "download" : {
            "sslEnd" : -1,
            "receivedTime" : "255.150000004505",
            "s_time" : 213.542000004963,
            "connectEnd" : 17,
            "receiveFirst" : 21,
            "connectStart" : 0,
            "sendEnd" : 17,
            "receiveLast" : 217.150000004505,
            "len" : 849,
            "sslStart" : -1,
            "sendStart" : 17,
            "receiveHeadersEnd" : 38,
            "dnsStart" : -1,
            "type" : "text/html",
            "dnsEnd" : -1,
            "id" : "download_22",
            "dns" : 0
         },
         "url" : "http://original.testbed.localhost/dailycurrant.com/wp-content/themes/themefit_hybrid/themefit-hybrid/js/themefit.slideshow.jQuery.js%3Fv=1.2.0083.html",
         "when_comp_start" : 1,
         "comps" : [
            {
               "s_time" : 255.185000001802,
               "e_time" : 255.320000003849,
               "time" : 0.135000002047008,
               "id" : "comp_65",
               "type" : 1
            }
         ],
         "id" : "r62"
      },
      {
         "download" : {
            "len" : 849,
            "sslStart" : -1,
            "connectStart" : 0,
            "sendEnd" : 18,
            "receiveLast" : 216.916000001889,
            "receiveFirst" : 21,
            "connectEnd" : 18,
            "s_time" : 213.663000002271,
            "receivedTime" : "255.916000001889",
            "sslEnd" : -1,
            "dns" : 0,
            "id" : "download_23",
            "dnsEnd" : -1,
            "type" : "text/html",
            "dnsStart" : -1,
            "receiveHeadersEnd" : 39,
            "sendStart" : 18
         },
         "url" : "http://original.testbed.localhost/dailycurrant.com/wp-content/themes/themefit_hybrid/themefit-hybrid/js/themefit.showhide.jQuery.js%3Fv=1.2.0083.html",
         "when_comp_start" : 1,
         "comps" : [
            {
               "e_time" : 256.063000000722,
               "s_time" : 255.948000005446,
               "id" : "comp_67",
               "type" : 1,
               "time" : 0.114999995276008
            }
         ],
         "id" : "r63"
      },
      {
         "id" : "r64",
         "comps" : [
            {
               "e_time" : 256.526000004669,
               "s_time" : 256.422000005841,
               "type" : 1,
               "id" : "comp_69",
               "time" : 0.103999998827987
            }
         ],
         "when_comp_start" : 1,
         "url" : "http://original.testbed.localhost/dailycurrant.com/wp-content/themes/themefit_hybrid/themefit-hybrid/js/themefit.init.jQuery.js%3Fv=1.2.0083.html",
         "download" : {
            "sendStart" : 18,
            "receiveHeadersEnd" : 39,
            "dnsStart" : -1,
            "type" : "text/html",
            "dnsEnd" : -1,
            "id" : "download_24",
            "dns" : 0,
            "sslEnd" : -1,
            "receivedTime" : "256.399000005331",
            "s_time" : 213.784999999916,
            "connectEnd" : 18,
            "receiveFirst" : 21,
            "receiveLast" : 217.399000005331,
            "connectStart" : 0,
            "sendEnd" : 18,
            "len" : 849,
            "sslStart" : -1
         }
      },
      {
         "when_comp_start" : -1,
         "url" : "http://original.testbed.localhost/dailycurrant.com/wp-content/plugins/disqus-comment-system/media/js/count.js%3Fver=4.2.4",
         "download" : {
            "sslStart" : -1,
            "len" : 669,
            "connectStart" : 0,
            "receiveLast" : 217.344000001263,
            "sendEnd" : 18,
            "receiveFirst" : 21,
            "connectEnd" : 18,
            "s_time" : 213.891000006697,
            "receivedTime" : "256.344000001263",
            "sslEnd" : -1,
            "dns" : 0,
            "id" : "download_25",
            "dnsEnd" : -1,
            "type" : "text/plain",
            "dnsStart" : -1,
            "receiveHeadersEnd" : 39,
            "sendStart" : 18
         },
         "id" : "r65",
         "comps" : [
            {
               "id" : "comp_72",
               "type" : 1,
               "time" : 0.566000002436965,
               "e_time" : 257.345000005444,
               "s_time" : 256.779000003007
            }
         ]
      },
      {
         "id" : "r46",
         "comps" : [],
         "when_comp_start" : -1,
         "download" : {
            "s_time" : 210.290000002715,
            "receivedTime" : "273.118000004615",
            "sslEnd" : -1,
            "sslStart" : -1,
            "len" : 6457,
            "connectStart" : 0,
            "sendEnd" : 42,
            "receiveLast" : 211.118000004615,
            "receiveFirst" : 20,
            "connectEnd" : 41,
            "receiveHeadersEnd" : 62,
            "sendStart" : 41,
            "dnsStart" : -1,
            "id" : "download_26",
            "dnsEnd" : -1,
            "type" : "image/jpeg",
            "dns" : 0
         },
         "url" : "http://original.testbed.localhost/dailycurrant.com/wp-content/uploads/2016/01/bet-logo-pink-transparentbackground-257x145.jpg"
      },
      {
         "id" : "r47",
         "comps" : [],
         "when_comp_start" : -1,
         "url" : "http://original.testbed.localhost/dailycurrant.com/wp-content/uploads/2016/01/ThinkstockPhotos-151340233-1-e1453083275332-257x162.jpg",
         "download" : {
            "id" : "download_27",
            "type" : "image/jpeg",
            "dnsEnd" : -1,
            "dns" : 0,
            "receiveHeadersEnd" : 63,
            "sendStart" : 42,
            "dnsStart" : -1,
            "len" : 8160,
            "sslStart" : -1,
            "sendEnd" : 42,
            "connectStart" : 0,
            "receiveLast" : 212.108000001637,
            "receiveFirst" : 21,
            "connectEnd" : 42,
            "s_time" : 210.675000002084,
            "receivedTime" : "275.108000001637",
            "sslEnd" : -1
         }
      },
      {
         "comps" : [],
         "id" : "r48",
         "url" : "http://original.testbed.localhost/dailycurrant.com/wp-content/uploads/2016/01/150616121401-donald-trump-cnn-full-169-e1452120788445-257x163.jpg",
         "download" : {
            "len" : 18472,
            "sslStart" : -1,
            "connectStart" : 0,
            "receiveLast" : 212.30300000601,
            "sendEnd" : 43,
            "receiveFirst" : 21,
            "connectEnd" : 43,
            "s_time" : 210.697000002256,
            "receivedTime" : "276.30300000601",
            "sslEnd" : -1,
            "dns" : 0,
            "id" : "download_28",
            "type" : "image/jpeg",
            "dnsEnd" : -1,
            "dnsStart" : -1,
            "receiveHeadersEnd" : 64,
            "sendStart" : 43
         },
         "when_comp_start" : -1
      },
      {
         "download" : {
            "connectStart" : 0,
            "sendEnd" : 43,
            "receiveLast" : 212.444000002812,
            "sslStart" : -1,
            "len" : 16602,
            "connectEnd" : 43,
            "receiveFirst" : 21,
            "receivedTime" : "276.444000002812",
            "s_time" : 210.967000006349,
            "sslEnd" : -1,
            "dns" : 0,
            "type" : "image/jpeg",
            "dnsEnd" : -1,
            "id" : "download_29",
            "dnsStart" : -1,
            "receiveHeadersEnd" : 64,
            "sendStart" : 43
         },
         "url" : "http://original.testbed.localhost/dailycurrant.com/wp-content/uploads/2014/04/softballstright-257x170.jpg",
         "when_comp_start" : -1,
         "comps" : [],
         "id" : "r49"
      },
      {
         "download" : {
            "sslEnd" : -1,
            "receivedTime" : "300.433000003977",
            "s_time" : 244.729000005464,
            "connectEnd" : 7,
            "receiveFirst" : 24,
            "receiveLast" : 269.433000003977,
            "connectStart" : 0,
            "sendEnd" : 7,
            "sslStart" : -1,
            "len" : 144102,
            "sendStart" : 7,
            "receiveHeadersEnd" : 31,
            "dnsStart" : -1,
            "dnsEnd" : -1,
            "type" : "application/javascript",
            "id" : "download_30",
            "dns" : 0
         },
         "url" : "http://original.testbed.localhost/cdn.taboolasyndication.com/libtrc/dailycurrant/loader.js",
         "when_comp_start" : -1,
         "comps" : [
            {
               "id" : "comp_86",
               "type" : 1,
               "time" : 7.24699999409501,
               "e_time" : 307.749999999942,
               "s_time" : 300.503000005847
            }
         ],
         "id" : "r67"
      },
      {
         "comps" : [],
         "id" : "r66",
         "download" : {
            "sslEnd" : -1,
            "receivedTime" : "336.88400000392",
            "s_time" : 214.081000005535,
            "connectEnd" : 35,
            "receiveFirst" : 27,
            "connectStart" : 0,
            "receiveLast" : 274.88400000392,
            "sendEnd" : 35,
            "sslStart" : -1,
            "len" : 387897,
            "dnsStart" : -1,
            "sendStart" : 35,
            "receiveHeadersEnd" : 62,
            "dns" : 0,
            "dnsEnd" : -1,
            "type" : "application/javascript",
            "id" : "download_31"
         },
         "url" : "http://original.testbed.localhost/s7.addthis.com/js/300/addthis_widget.js#pubid=ra-54346b364ea20d24",
         "when_comp_start" : -1
      },
      {
         "comps" : [],
         "id" : "r50",
         "download" : {
            "sslEnd" : -1,
            "receivedTime" : "293.750000004366",
            "s_time" : 211.089000003994,
            "connectEnd" : 61,
            "receiveFirst" : 21,
            "receiveLast" : 211.750000004366,
            "connectStart" : 0,
            "sendEnd" : 61,
            "sslStart" : -1,
            "len" : 12967,
            "sendStart" : 61,
            "receiveHeadersEnd" : 82,
            "dnsStart" : -1,
            "dnsEnd" : -1,
            "type" : "image/jpeg",
            "id" : "download_32",
            "dns" : 0
         },
         "url" : "http://original.testbed.localhost/dailycurrant.com/wp-content/uploads/2015/10/cher-melt-257x167.jpg",
         "when_comp_start" : -1
      },
      {
         "comps" : [],
         "id" : "r51",
         "download" : {
            "dnsStart" : -1,
            "receiveHeadersEnd" : 64,
            "sendStart" : 43,
            "dns" : 0,
            "id" : "download_33",
            "dnsEnd" : -1,
            "type" : "image/jpeg",
            "s_time" : 231.150000006892,
            "receivedTime" : "311.213000000862",
            "sslEnd" : -1,
            "len" : 14645,
            "sslStart" : -1,
            "connectStart" : 0,
            "sendEnd" : 43,
            "receiveLast" : 247.213000000862,
            "receiveFirst" : 21,
            "connectEnd" : 43
         },
         "url" : "http://original.testbed.localhost/dailycurrant.com/wp-content/uploads/2015/10/netanyahu-dinosaurs-257x150.jpg",
         "when_comp_start" : -1
      },
      {
         "when_comp_start" : -1,
         "url" : "http://original.testbed.localhost/dailycurrant.com/wp-content/uploads/2015/10/america-celebrates-fourth-day-257x168.jpg",
         "download" : {
            "sslEnd" : -1,
            "receivedTime" : "311.64500000159",
            "s_time" : 231.563000001188,
            "connectEnd" : 44,
            "receiveFirst" : 21,
            "connectStart" : 0,
            "receiveLast" : 246.64500000159,
            "sendEnd" : 44,
            "sslStart" : -1,
            "len" : 20295,
            "sendStart" : 44,
            "receiveHeadersEnd" : 65,
            "dnsStart" : -1,
            "type" : "image/jpeg",
            "dnsEnd" : -1,
            "id" : "download_34",
            "dns" : 0
         },
         "id" : "r52",
         "comps" : []
      },
      {
         "url" : "http://original.testbed.localhost/dailycurrant.com/wp-content/uploads/wordpress-popular-posts/38823-first_image-300x170.jpg",
         "download" : {
            "dns" : 0,
            "type" : "image/jpeg",
            "dnsEnd" : -1,
            "id" : "download_35",
            "dnsStart" : -1,
            "sendStart" : 2,
            "receiveHeadersEnd" : 23,
            "connectEnd" : 2,
            "receiveFirst" : 21,
            "sendEnd" : 2,
            "connectStart" : 0,
            "receiveLast" : 288.756000002788,
            "sslStart" : -1,
            "len" : 18036,
            "sslEnd" : -1,
            "receivedTime" : "311.756000002788",
            "s_time" : 273.10800000123
         },
         "when_comp_start" : -1,
         "comps" : [],
         "id" : "r57"
      },
      {
         "id" : "r58",
         "comps" : [],
         "when_comp_start" : -1,
         "url" : "http://original.testbed.localhost/dailycurrant.com/wp-content/uploads/wordpress-popular-posts/40971-first_image-300x170.jpg",
         "download" : {
            "s_time" : 274.5400000058,
            "receivedTime" : "314.317000003939",
            "sslEnd" : -1,
            "len" : 12169,
            "sslStart" : -1,
            "connectStart" : 0,
            "sendEnd" : 19,
            "receiveLast" : 275.317000003939,
            "receiveFirst" : 20,
            "connectEnd" : 19,
            "receiveHeadersEnd" : 39,
            "sendStart" : 19,
            "dnsStart" : -1,
            "id" : "download_36",
            "dnsEnd" : -1,
            "type" : "image/jpeg",
            "dns" : 0
         }
      },
      {
         "download" : {
            "sslEnd" : -1,
            "receivedTime" : "315.040000001318",
            "s_time" : 275.244000004022,
            "connectEnd" : 19,
            "receiveFirst" : 20,
            "connectStart" : 0,
            "receiveLast" : 276.040000001318,
            "sendEnd" : 19,
            "len" : 2731,
            "sslStart" : -1,
            "sendStart" : 19,
            "receiveHeadersEnd" : 39,
            "dnsStart" : -1,
            "type" : "image/png",
            "dnsEnd" : -1,
            "id" : "download_37",
            "dns" : 0
         },
         "url" : "http://original.testbed.localhost/dailycurrant.com/wp-content/uploads/2012/04/thelogo.png",
         "when_comp_start" : -1,
         "comps" : [],
         "id" : "r60"
      },
      {
         "download" : {
            "sendStart" : 63,
            "receiveHeadersEnd" : 84,
            "dnsStart" : -1,
            "id" : "download_38",
            "dnsEnd" : -1,
            "type" : "image/jpeg",
            "dns" : 0,
            "sslEnd" : -1,
            "s_time" : 232.178000005661,
            "receivedTime" : "316.969999999856",
            "receiveFirst" : 21,
            "connectEnd" : 63,
            "len" : 16128,
            "sslStart" : -1,
            "sendEnd" : 63,
            "connectStart" : 0,
            "receiveLast" : 232.969999999856
         },
         "url" : "http://original.testbed.localhost/dailycurrant.com/wp-content/uploads/wordpress-popular-posts/37555-first_image-300x170.jpg",
         "when_comp_start" : -1,
         "comps" : [],
         "id" : "r54"
      },
      {
         "comps" : [],
         "id" : "r55",
         "download" : {
            "dnsStart" : -1,
            "receiveHeadersEnd" : 86,
            "sendStart" : 64,
            "dns" : 0,
            "dnsEnd" : -1,
            "type" : "image/jpeg",
            "id" : "download_39",
            "receivedTime" : "319.988000002922",
            "s_time" : 232.603000004019,
            "sslEnd" : -1,
            "connectStart" : 0,
            "receiveLast" : 233.988000002922,
            "sendEnd" : 64,
            "sslStart" : -1,
            "len" : 16265,
            "connectEnd" : 64,
            "receiveFirst" : 22
         },
         "url" : "http://original.testbed.localhost/dailycurrant.com/wp-content/uploads/wordpress-popular-posts/17735-first_image-300x170.jpg",
         "when_comp_start" : -1
      },
      {
         "url" : "http://original.testbed.localhost/dailycurrant.com/wp-content/uploads/wordpress-popular-posts/38343-first_image-300x170.jpg",
         "download" : {
            "receivedTime" : "320.756000000983",
            "s_time" : 232.828000000154,
            "sslEnd" : -1,
            "connectStart" : 0,
            "receiveLast" : 233.756000000983,
            "sendEnd" : 64,
            "sslStart" : -1,
            "len" : 13232,
            "connectEnd" : 64,
            "receiveFirst" : 23,
            "dnsStart" : -1,
            "receiveHeadersEnd" : 87,
            "sendStart" : 64,
            "dns" : 0,
            "type" : "image/jpeg",
            "dnsEnd" : -1,
            "id" : "download_40"
         },
         "when_comp_start" : -1,
         "comps" : [],
         "id" : "r56"
      }
   ],
   "start_activity" : "download_0",
   "n_download_no_trigger" : 1
}
