{
   "load_activity" : -1,
   "n_download_no_trigger" : 1,
   "deps" : [
      {
         "a2" : "r1_c2",
         "a1" : "comp_13",
         "time" : -1,
         "id" : "dep1"
      },
      {
         "a2" : "r1_c3",
         "a1" : "comp_25",
         "time" : -1,
         "id" : "dep2"
      },
      {
         "id" : "dep3",
         "a1" : "comp_43",
         "time" : -1,
         "a2" : "r1_c4"
      },
      {
         "a2" : "r1_c5",
         "id" : "dep4",
         "time" : -1,
         "a1" : "comp_47"
      },
      {
         "time" : -1,
         "a1" : "comp_49",
         "id" : "dep5",
         "a2" : "r1_c6"
      },
      {
         "a2" : "r1_c7",
         "id" : "dep6",
         "time" : -1,
         "a1" : "comp_52"
      },
      {
         "a2" : "comp_13",
         "time" : -1,
         "a1" : "comp_3",
         "id" : "dep7"
      },
      {
         "a2" : "comp_13",
         "id" : "dep8",
         "time" : -1,
         "a1" : "comp_8"
      },
      {
         "a2" : "comp_13",
         "time" : -1,
         "a1" : "comp_24",
         "id" : "dep9"
      },
      {
         "a1" : "comp_47",
         "time" : -1,
         "id" : "dep10",
         "a2" : "comp_49"
      },
      {
         "a2" : "comp_52",
         "id" : "dep11",
         "time" : -1,
         "a1" : "comp_49"
      },
      {
         "a1" : "r1_c7",
         "time" : 84.7139999968999,
         "id" : "dep12",
         "a2" : "download_32"
      },
      {
         "id" : "dep13",
         "time" : -1,
         "a1" : "r1_c3",
         "a2" : "download_31"
      },
      {
         "id" : "dep14",
         "time" : 252.30100000044,
         "a1" : "r1_c3",
         "a2" : "download_31"
      },
      {
         "a1" : "r1_c3",
         "time" : 125.69200000143,
         "id" : "dep15",
         "a2" : "download_30"
      },
      {
         "a2" : "download_29",
         "id" : "dep16",
         "a1" : "r1_c3",
         "time" : 125.21099999867
      },
      {
         "a2" : "download_28",
         "id" : "dep17",
         "time" : 125.01999999949,
         "a1" : "r1_c3"
      },
      {
         "a1" : "r1_c3",
         "time" : 124.45500000467,
         "id" : "dep18",
         "a2" : "download_27"
      },
      {
         "a2" : "download_26",
         "a1" : "r1_c3",
         "time" : 102.25899999932,
         "id" : "dep19"
      },
      {
         "a2" : "download_25",
         "id" : "dep20",
         "time" : 102.03999999794,
         "a1" : "r1_c3"
      },
      {
         "id" : "dep21",
         "time" : 101.53300000092,
         "a1" : "r1_c3",
         "a2" : "download_24"
      },
      {
         "a2" : "download_23",
         "id" : "dep22",
         "a1" : "r1_c3",
         "time" : 101.39799999888
      },
      {
         "a2" : "download_22",
         "id" : "dep23",
         "a1" : "r1_c3",
         "time" : 107.10100000142
      },
      {
         "a2" : "download_21",
         "id" : "dep24",
         "time" : 106.97900000377,
         "a1" : "r1_c3"
      },
      {
         "a2" : "download_20",
         "time" : 104.24700000294,
         "a1" : "r1_c3",
         "id" : "dep25"
      },
      {
         "a2" : "download_20",
         "id" : "dep26",
         "a1" : "r1_c3",
         "time" : 104.24700000294
      },
      {
         "a2" : "download_19",
         "a1" : "r1_c3",
         "time" : 106.84200000105,
         "id" : "dep27"
      },
      {
         "a2" : "download_18",
         "id" : "dep28",
         "a1" : "r1_c3",
         "time" : 106.66099999798
      },
      {
         "a2" : "download_17",
         "id" : "dep29",
         "time" : 104.39700000279,
         "a1" : "r1_c3"
      },
      {
         "a2" : "download_17",
         "id" : "dep30",
         "a1" : "r1_c3",
         "time" : 104.39700000279
      },
      {
         "a2" : "download_16",
         "id" : "dep31",
         "time" : 104.11500000191,
         "a1" : "r1_c3"
      },
      {
         "a2" : "download_16",
         "id" : "dep32",
         "a1" : "r1_c3",
         "time" : 104.11500000191
      },
      {
         "a2" : "download_15",
         "time" : 103.96000000037,
         "a1" : "r1_c3",
         "id" : "dep33"
      },
      {
         "a2" : "download_15",
         "a1" : "r1_c3",
         "time" : 103.96000000037,
         "id" : "dep34"
      },
      {
         "id" : "dep35",
         "a1" : "r1_c3",
         "time" : 100.76800000388,
         "a2" : "download_14"
      },
      {
         "id" : "dep36",
         "a1" : "r1_c3",
         "time" : 100.53200000402,
         "a2" : "download_13"
      },
      {
         "a2" : "download_12",
         "id" : "dep37",
         "a1" : "r1_c3",
         "time" : 99.9520000041198
      },
      {
         "time" : 99.7229999993601,
         "a1" : "r1_c3",
         "id" : "dep38",
         "a2" : "download_11"
      },
      {
         "time" : 98.91100000095,
         "a1" : "r1_c3",
         "id" : "dep39",
         "a2" : "download_10"
      },
      {
         "a1" : "r1_c3",
         "time" : 99.17700000369,
         "id" : "dep40",
         "a2" : "download_9"
      },
      {
         "a2" : "download_8",
         "a1" : "r1_c1",
         "time" : -1,
         "id" : "dep41"
      },
      {
         "id" : "dep42",
         "time" : 50.9300000048824,
         "a1" : "r1_c1",
         "a2" : "download_7"
      },
      {
         "a2" : "download_6",
         "id" : "dep43",
         "a1" : "r1_c1",
         "time" : 49.183000002813
      },
      {
         "id" : "dep44",
         "time" : 4.6579999980167,
         "a1" : "r1_c1",
         "a2" : "download_5"
      },
      {
         "time" : 4.9960000033024,
         "a1" : "r1_c1",
         "id" : "dep45",
         "a2" : "download_4"
      },
      {
         "a2" : "download_4",
         "id" : "dep46",
         "a1" : "r1_c1",
         "time" : 4.9960000033024
      },
      {
         "time" : 4.7540000014123,
         "a1" : "r1_c1",
         "id" : "dep47",
         "a2" : "download_3"
      },
      {
         "a2" : "download_2",
         "id" : "dep48",
         "a1" : "r1_c1",
         "time" : 4.533999999694
      },
      {
         "id" : "dep49",
         "time" : 4.4200000047567,
         "a1" : "r1_c1",
         "a2" : "download_1"
      }
   ],
   "start_activity" : "download_0",
   "objs" : [
      {
         "when_comp_start" : 1,
         "id" : "r1",
         "url" : "http://original.testbed.localhost/www.examiner.com/",
         "comps" : [
            {
               "type" : "evalhtml",
               "e_time" : 86.6220000025351,
               "time" : 51.0680000006687,
               "s_time" : 35.5540000018664,
               "id" : "r1_c1"
            },
            {
               "type" : "evalhtml",
               "e_time" : -45169619.725,
               "id" : "r1_c2",
               "time" : -45169707.999,
               "s_time" : 88.2740000015474
            },
            {
               "id" : "r1_c3",
               "s_time" : 2974.64400000172,
               "time" : 252.30100000044,
               "e_time" : 3226.94500000216,
               "type" : "evalhtml"
            },
            {
               "type" : "evalhtml",
               "e_time" : -45169619.725,
               "time" : -45172915.795,
               "s_time" : 3296.07000000397,
               "id" : "r1_c4"
            },
            {
               "time" : -45172917.03,
               "s_time" : 3297.30500000005,
               "id" : "r1_c5",
               "type" : "evalhtml",
               "e_time" : -45169619.725
            },
            {
               "e_time" : -45169619.725,
               "type" : "evalhtml",
               "id" : "r1_c6",
               "s_time" : 3320.01400000445,
               "time" : -45172939.739
            },
            {
               "type" : "evalhtml",
               "e_time" : 3436.44500000664,
               "time" : 111.31100000057,
               "s_time" : 3325.13400000607,
               "id" : "r1_c7"
            }
         ],
         "download" : {
            "dnsStart" : -1,
            "sendStart" : 0,
            "type" : "text/html",
            "dns" : 0,
            "s_time" : 0,
            "receivedTime" : "44.4190000052913",
            "len" : 97323,
            "id" : "download_0",
            "sslEnd" : -1,
            "sendEnd" : 0,
            "receiveHeadersEnd" : 24,
            "connectEnd" : 0,
            "receiveFirst" : 24,
            "connectStart" : 0,
            "receiveLast" : 20.4190000052913,
            "dnsEnd" : -1,
            "sslStart" : -1
         }
      },
      {
         "when_comp_start" : -1,
         "id" : "r2",
         "url" : "http://original.testbed.localhost/cdn2-b.examiner.com/sites/default/files/css/css_WVI5b0NR7PNdLQAufIMULGKRaPVj7ZWSixaaqpQ8iR4_452_1.css",
         "download" : {
            "receivedTime" : "62.4310000057449",
            "len" : 415,
            "sslEnd" : -1,
            "id" : "download_1",
            "sendStart" : 1,
            "dnsStart" : -1,
            "type" : "text/css",
            "dns" : 0,
            "s_time" : 39.9740000066231,
            "receiveFirst" : 21,
            "connectStart" : 0,
            "receiveLast" : 40.4310000057449,
            "dnsEnd" : -1,
            "sslStart" : -1,
            "sendEnd" : 1,
            "connectEnd" : 1,
            "receiveHeadersEnd" : 22
         },
         "comps" : [
            {
               "e_time" : 62.6960000008694,
               "type" : 4,
               "id" : "comp_3",
               "s_time" : 62.4890000035521,
               "time" : 0.206999997317297
            }
         ]
      },
      {
         "download" : {
            "receiveFirst" : 24,
            "connectStart" : 0,
            "receiveLast" : 42.2760000058333,
            "dnsEnd" : -1,
            "sslStart" : -1,
            "sendEnd" : 4,
            "receiveHeadersEnd" : 28,
            "connectEnd" : 4,
            "receivedTime" : "70.2760000058333",
            "len" : 131074,
            "sslEnd" : -1,
            "id" : "download_2",
            "dnsStart" : -1,
            "sendStart" : 4,
            "type" : "text/css",
            "dns" : 0,
            "s_time" : 40.0880000015604
         },
         "comps" : [
            {
               "id" : "comp_8",
               "time" : 8.6200000005192,
               "s_time" : 70.3560000038124,
               "type" : 4,
               "e_time" : 78.9760000043316
            }
         ],
         "url" : "http://original.testbed.localhost/cdn2-b.examiner.com/sites/default/files/css/css_iM0e58F9UuXz9n7_NutmG7vEipuH3IgrlP8vGiwo9oA_452_1.css",
         "id" : "r3",
         "when_comp_start" : -1
      },
      {
         "url" : "http://original.testbed.localhost/cdn2-b.examiner.com/sites/default/files/js/js_izMbklKled8Iz36tDzoCaxKTK2LGkVInrJgIP9SfR_g_453_1.js%3Fo6dj05",
         "comps" : [
            {
               "type" : 1,
               "e_time" : 88.2740000015474,
               "time" : 4.9230000004172,
               "s_time" : 83.3510000011302,
               "id" : "comp_13"
            }
         ],
         "download" : {
            "s_time" : 40.3080000032787,
            "type" : "text/plain",
            "dnsStart" : 0,
            "sendStart" : 21,
            "dns" : 0,
            "sslEnd" : -1,
            "id" : "download_3",
            "receivedTime" : "83.3110000021406",
            "len" : 7899,
            "sendEnd" : 21,
            "connectEnd" : 21,
            "receiveHeadersEnd" : 42,
            "receiveLast" : 41.3110000021406,
            "receiveFirst" : 21,
            "connectStart" : 0,
            "sslStart" : -1,
            "dnsEnd" : 0
         },
         "when_comp_start" : -1,
         "id" : "r5"
      },
      {
         "when_comp_start" : -1,
         "id" : "r9",
         "url" : "http://original.testbed.localhost/pshared.5min.com/Scripts/Thumbseed2.js%3FtextLocation=1&thumbnailSize=0&displayHeader=false&sid=1304&width=1000&height=200&headerTextColor=%2523000000&textFGColor=%2523000&textBGColor=%2523eeeeee&textBGColor_MO=%2523eeeeee&textFGColor_MO=%2523000&videoGroupID=156083",
         "comps" : [
            {
               "s_time" : 164.597000002686,
               "time" : 2810.04699999903,
               "id" : "comp_25",
               "e_time" : 2974.64400000172,
               "type" : 1
            }
         ],
         "download" : {
            "sendEnd" : 21,
            "receiveHeadersEnd" : 42,
            "connectEnd" : 21,
            "receiveLast" : 122.533000002848,
            "connectStart" : 0,
            "receiveFirst" : 21,
            "sslStart" : -1,
            "dnsEnd" : 0,
            "type" : "text/plain",
            "dnsStart" : 0,
            "sendStart" : 21,
            "dns" : 0,
            "s_time" : 40.5500000051688,
            "receivedTime" : "164.533000002848",
            "len" : 126269,
            "id" : "download_4",
            "sslEnd" : -1
         }
      },
      {
         "download" : {
            "s_time" : 40.2119999998831,
            "sendStart" : 21,
            "dnsStart" : 0,
            "type" : "text/css",
            "dns" : 0,
            "sslEnd" : -1,
            "id" : "download_5",
            "receivedTime" : "160.87300000072",
            "len" : 4354,
            "sendEnd" : 21,
            "receiveHeadersEnd" : 43,
            "connectEnd" : 21,
            "connectStart" : 0,
            "receiveFirst" : 22,
            "receiveLast" : 117.87300000072,
            "dnsEnd" : 0,
            "sslStart" : -1
         },
         "comps" : [
            {
               "time" : 3.54599999991501,
               "s_time" : 160.891999999876,
               "id" : "comp_24",
               "type" : 4,
               "e_time" : 164.437999999791
            }
         ],
         "url" : "http://original.testbed.localhost/cdn2-b.examiner.com/sites/default/files/css/css_-pOaQB6BsVmy1RffuEK02PxiDvG3CgnKQWUwLTx1FI8_452_1.css",
         "id" : "r4",
         "when_comp_start" : -1
      },
      {
         "id" : "r6",
         "when_comp_start" : -1,
         "download" : {
            "sslEnd" : -1,
            "id" : "download_6",
            "len" : 4826,
            "receivedTime" : "3078.83399999992",
            "s_time" : 84.7370000046794,
            "dns" : 0,
            "sendStart" : 0,
            "dnsStart" : -1,
            "type" : "image/png",
            "dnsEnd" : -1,
            "sslStart" : -1,
            "receiveFirst" : 21,
            "connectStart" : 0,
            "receiveLast" : 3057.83399999992,
            "connectEnd" : 0,
            "receiveHeadersEnd" : 21,
            "sendEnd" : 0
         },
         "comps" : [],
         "url" : "http://original.testbed.localhost/cdn2-b.examiner.com/sites/all/themes/greyhound/assets/images/examiner-logo.png"
      },
      {
         "download" : {
            "sendEnd" : 0,
            "receiveHeadersEnd" : 21,
            "connectEnd" : 0,
            "receiveLast" : 3058.13000000553,
            "connectStart" : 0,
            "receiveFirst" : 21,
            "sslStart" : -1,
            "dnsEnd" : -1,
            "s_time" : 86.4840000067488,
            "type" : "image/jpeg",
            "sendStart" : 0,
            "dnsStart" : -1,
            "dns" : 0,
            "id" : "download_7",
            "sslEnd" : -1,
            "receivedTime" : "3079.13000000553",
            "len" : 20225
         },
         "comps" : [],
         "url" : "http://original.testbed.localhost/cdn2-b.examiner.com/sites/default/files/styles/hero_curated_large/hash/20/a5/20a5ff9be1cd2b0fedc8cba4504f76d0.jpg%3Fitok=UNApe7f2",
         "id" : "r7",
         "when_comp_start" : -1
      },
      {
         "url" : "http://original.testbed.localhost/cdn2-b.examiner.com/sites/default/files/styles/hero_curated_large/hash/bf/05/bf052290218a1e052fb4435d5d20f27b.jpg%3Fitok=_4DTIKBA",
         "comps" : [],
         "download" : {
            "sendEnd" : 0,
            "receiveHeadersEnd" : 20,
            "connectEnd" : 0,
            "receiveLast" : 3059.34899999964,
            "receiveFirst" : 20,
            "connectStart" : 0,
            "sslStart" : -1,
            "dnsEnd" : -1,
            "type" : "image/jpeg",
            "dnsStart" : -1,
            "sendStart" : 0,
            "dns" : 0,
            "s_time" : 86.6220000025351,
            "receivedTime" : "3079.34899999964",
            "len" : 25256,
            "sslEnd" : -1,
            "id" : "download_8"
         },
         "when_comp_start" : -1,
         "id" : "r8"
      },
      {
         "id" : "r28",
         "when_comp_start" : -1,
         "comps" : [],
         "download" : {
            "receiveLast" : 3228.81500000326,
            "receiveFirst" : 20,
            "connectStart" : 0,
            "sslStart" : -1,
            "dnsEnd" : -1,
            "sendEnd" : 3,
            "receiveHeadersEnd" : 23,
            "connectEnd" : 3,
            "receivedTime" : "3251.81500000326",
            "len" : 38810,
            "sslEnd" : -1,
            "id" : "download_9",
            "type" : "image/jpeg",
            "sendStart" : 3,
            "dnsStart" : -1,
            "dns" : 0,
            "s_time" : 3073.82100000541
         },
         "url" : "http://original.testbed.localhost/cdn2-b.examiner.com/sites/default/files/styles/hero_curated_large/hash/08/35/08351a83e1ebb4b25bed36b4ce3de6f9.jpg%3Fitok=ov8ixChj"
      },
      {
         "url" : "http://original.testbed.localhost/cdn2-b.examiner.com/sites/default/files/styles/hero_curated_large/hash/c9/ab/c9ab59d338b80599f1fc17add6a15f6d.jpg%3Fitok=KJEFIaTN",
         "comps" : [],
         "download" : {
            "sendEnd" : 3,
            "connectEnd" : 3,
            "receiveHeadersEnd" : 24,
            "receiveFirst" : 21,
            "connectStart" : 0,
            "receiveLast" : 3227.49400000373,
            "dnsEnd" : -1,
            "sslStart" : -1,
            "s_time" : 3073.55500000267,
            "dnsStart" : -1,
            "sendStart" : 3,
            "type" : "image/jpeg",
            "dns" : 0,
            "id" : "download_10",
            "sslEnd" : -1,
            "receivedTime" : "3251.49400000373",
            "len" : 18880
         },
         "when_comp_start" : -1,
         "id" : "r27"
      },
      {
         "when_comp_start" : -1,
         "id" : "r29",
         "url" : "http://original.testbed.localhost/cdn2-b.examiner.com/sites/default/files/styles/hero_curated_large/hash/d3/0a/d30a91ea67bd609a33ff0df5a34c70c5.jpg%3Fitok=5VSBxjc2",
         "download" : {
            "len" : 18554,
            "receivedTime" : "3251.7180000068",
            "sslEnd" : -1,
            "id" : "download_11",
            "dns" : 0,
            "dnsStart" : -1,
            "sendStart" : 2,
            "type" : "image/jpeg",
            "s_time" : 3074.36700000108,
            "dnsEnd" : -1,
            "sslStart" : -1,
            "receiveFirst" : 22,
            "connectStart" : 0,
            "receiveLast" : 3227.7180000068,
            "connectEnd" : 2,
            "receiveHeadersEnd" : 24,
            "sendEnd" : 2
         },
         "comps" : []
      },
      {
         "url" : "http://original.testbed.localhost/cdn2-b.examiner.com/sites/default/files/styles/hero_curated_large/hash/5d/e5/5de5d6c7eb102a601c9f7dc3f44e7c76.jpg%3Fitok=7QUk0IVg",
         "download" : {
            "s_time" : 3074.59600000584,
            "dns" : 0,
            "type" : "image/jpeg",
            "sendStart" : 2,
            "dnsStart" : -1,
            "id" : "download_12",
            "sslEnd" : -1,
            "len" : 33338,
            "receivedTime" : "3252.42200000503",
            "connectEnd" : 2,
            "receiveHeadersEnd" : 24,
            "sendEnd" : 2,
            "sslStart" : -1,
            "dnsEnd" : -1,
            "receiveLast" : 3228.42200000503,
            "receiveFirst" : 22,
            "connectStart" : 0
         },
         "comps" : [],
         "when_comp_start" : -1,
         "id" : "r30"
      },
      {
         "url" : "http://original.testbed.localhost/cdn2-b.examiner.com/sites/default/files/styles/hero_curated_large/hash/97/5a/975a0f2e968527ab137106fb3204f7fb.jpg%3Fitok=pHMz6m9f",
         "download" : {
            "id" : "download_13",
            "sslEnd" : -1,
            "len" : 32093,
            "receivedTime" : "3252.12500000634",
            "s_time" : 3075.17600000574,
            "dns" : 0,
            "type" : "image/jpeg",
            "sendStart" : 2,
            "dnsStart" : -1,
            "sslStart" : -1,
            "dnsEnd" : -1,
            "receiveLast" : 3228.12500000634,
            "connectStart" : 0,
            "receiveFirst" : 22,
            "receiveHeadersEnd" : 24,
            "connectEnd" : 2,
            "sendEnd" : 2
         },
         "comps" : [],
         "when_comp_start" : -1,
         "id" : "r31"
      },
      {
         "id" : "r32",
         "when_comp_start" : -1,
         "comps" : [],
         "download" : {
            "sendEnd" : 2,
            "receiveHeadersEnd" : 24,
            "connectEnd" : 2,
            "receiveFirst" : 22,
            "connectStart" : 0,
            "receiveLast" : 3228.31200000417,
            "dnsEnd" : -1,
            "sslStart" : -1,
            "s_time" : 3075.4120000056,
            "dnsStart" : -1,
            "sendStart" : 2,
            "type" : "image/jpeg",
            "dns" : 0,
            "sslEnd" : -1,
            "id" : "download_14",
            "receivedTime" : "3252.31200000417",
            "len" : 30016
         },
         "url" : "http://original.testbed.localhost/cdn2-b.examiner.com/sites/default/files/styles/hero_curated_large/hash/e4/93/e493e3cb91da304ec536e65ce56fdadf.jpg%3Fitok=Ec5rau9M"
      },
      {
         "url" : "http://original.testbed.localhost/cdn2-b.examiner.com/sites/default/files/js/js_2cBQ1DfFkt8zrbf_MtJPF7di7jwslFByQwZU63t57EE_453_1.js%3Fo6dj05",
         "download" : {
            "connectEnd" : 20,
            "receiveHeadersEnd" : 40,
            "sendEnd" : 20,
            "dnsEnd" : -1,
            "sslStart" : -1,
            "receiveFirst" : 20,
            "connectStart" : 0,
            "receiveLast" : 3239.54800000589,
            "dns" : 0,
            "dnsStart" : -1,
            "sendStart" : 20,
            "type" : "text/plain",
            "s_time" : 3078.60400000209,
            "len" : 104377,
            "receivedTime" : "3279.54800000589",
            "sslEnd" : -1,
            "id" : "download_15"
         },
         "comps" : [
            {
               "id" : "comp_43",
               "s_time" : 3279.61000000505,
               "time" : 16.45999999892,
               "e_time" : 3296.07000000397,
               "type" : 1
            }
         ],
         "when_comp_start" : -1,
         "id" : "r41"
      },
      {
         "id" : "r42",
         "when_comp_start" : -1,
         "download" : {
            "sendEnd" : 21,
            "receiveHeadersEnd" : 41,
            "connectEnd" : 21,
            "receiveLast" : 3255.62200000166,
            "connectStart" : 0,
            "receiveFirst" : 20,
            "sslStart" : -1,
            "dnsEnd" : -1,
            "s_time" : 3078.75900000363,
            "type" : "text/plain",
            "sendStart" : 21,
            "dnsStart" : -1,
            "dns" : 0,
            "sslEnd" : -1,
            "id" : "download_16",
            "receivedTime" : "3296.62200000166",
            "len" : 5463
         },
         "comps" : [
            {
               "type" : 1,
               "e_time" : 3297.30500000005,
               "id" : "comp_47",
               "time" : 0.640999998719963,
               "s_time" : 3296.66400000133
            }
         ],
         "url" : "http://original.testbed.localhost/cdn2-b.examiner.com/sites/default/files/js/js_nCQ5nHRYiQ-6cTVFVyLSNp1fsTIBj2pbRuGiny4jTZs_453_1.js%3Fo6dj05"
      },
      {
         "id" : "r44",
         "when_comp_start" : -1,
         "download" : {
            "len" : 52336,
            "receivedTime" : "3299.05600000347",
            "id" : "download_17",
            "sslEnd" : -1,
            "dns" : 0,
            "sendStart" : 21,
            "dnsStart" : -1,
            "type" : "text/plain",
            "s_time" : 3079.04100000451,
            "dnsEnd" : -1,
            "sslStart" : -1,
            "receiveFirst" : 20,
            "connectStart" : 0,
            "receiveLast" : 3258.05600000347,
            "connectEnd" : 21,
            "receiveHeadersEnd" : 41,
            "sendEnd" : 21
         },
         "comps" : [
            {
               "s_time" : 3320.0680000009,
               "time" : 5.06600000516983,
               "id" : "comp_52",
               "e_time" : 3325.13400000607,
               "type" : 1
            }
         ],
         "url" : "http://original.testbed.localhost/cdn2-b.examiner.com/sites/default/files/js/js_jd9MbK3K3XvvxdlsfYPlK6OAND4lK7SUM_KIBs2qENI_453_1.js%3Fo6dj05"
      },
      {
         "download" : {
            "s_time" : 3081.3049999997,
            "type" : "application/octet-stream",
            "dnsStart" : -1,
            "sendStart" : 19,
            "dns" : 0,
            "sslEnd" : -1,
            "id" : "download_18",
            "receivedTime" : "3297.69700000179",
            "len" : 24356,
            "sendEnd" : 19,
            "receiveHeadersEnd" : 39,
            "connectEnd" : 19,
            "receiveLast" : 3258.69700000179,
            "connectStart" : 0,
            "receiveFirst" : 20,
            "sslStart" : -1,
            "dnsEnd" : -1
         },
         "comps" : [],
         "url" : "http://original.testbed.localhost/cdn2-b.examiner.com/sites/all/themes/greyhound/assets/fonts/proximanova-light-webfont.woff%3Fversion=452",
         "id" : "r13",
         "when_comp_start" : -1
      },
      {
         "id" : "r10",
         "when_comp_start" : -1,
         "comps" : [],
         "download" : {
            "len" : 28628,
            "receivedTime" : "3298.45700000442",
            "id" : "download_19",
            "sslEnd" : -1,
            "dns" : 0,
            "type" : "application/octet-stream",
            "dnsStart" : -1,
            "sendStart" : 18,
            "s_time" : 3081.48600000277,
            "sslStart" : -1,
            "dnsEnd" : -1,
            "receiveLast" : 3259.45700000442,
            "receiveFirst" : 20,
            "connectStart" : 0,
            "connectEnd" : 18,
            "receiveHeadersEnd" : 39,
            "sendEnd" : 19
         },
         "url" : "http://original.testbed.localhost/cdn2-b.examiner.com/sites/all/themes/greyhound/assets/fonts/RobotoSlab-Bold-webfont.woff%3Fversion=452"
      },
      {
         "url" : "http://original.testbed.localhost/adg.bzgint.com/pub/adg/data.js",
         "comps" : [
            {
               "type" : 1,
               "e_time" : 3320.01400000445,
               "time" : 18.5570000030598,
               "s_time" : 3301.45700000139,
               "id" : "comp_49"
            }
         ],
         "download" : {
            "sendEnd" : 21,
            "receiveHeadersEnd" : 44,
            "connectEnd" : 21,
            "receiveLast" : 3257.41300000105,
            "receiveFirst" : 23,
            "connectStart" : 0,
            "sslStart" : -1,
            "dnsEnd" : -1,
            "type" : "application/javascript",
            "sendStart" : 21,
            "dnsStart" : -1,
            "dns" : 0,
            "s_time" : 3078.89100000466,
            "receivedTime" : "3301.41300000105",
            "len" : 68244,
            "id" : "download_20",
            "sslEnd" : -1
         },
         "when_comp_start" : -1,
         "id" : "r43"
      },
      {
         "id" : "r19",
         "when_comp_start" : -1,
         "download" : {
            "connectStart" : 0,
            "receiveFirst" : 20,
            "receiveLast" : 3243.02900000545,
            "dnsEnd" : -1,
            "sslStart" : -1,
            "sendEnd" : 37,
            "connectEnd" : 37,
            "receiveHeadersEnd" : 57,
            "receivedTime" : "3300.02900000545",
            "len" : 12184,
            "id" : "download_21",
            "sslEnd" : -1,
            "dnsStart" : -1,
            "sendStart" : 37,
            "type" : "application/octet-stream",
            "dns" : 0,
            "s_time" : 3081.62300000549
         },
         "comps" : [],
         "url" : "http://original.testbed.localhost/cdn2-b.examiner.com/sites/all/themes/greyhound/assets/fonts/ExSymbolset.woff%3Fversion=452"
      },
      {
         "when_comp_start" : -1,
         "id" : "r16",
         "url" : "http://original.testbed.localhost/cdn2-b.examiner.com/sites/all/themes/greyhound/assets/fonts/proximanova-sbold-webfont.woff%3Fversion=452",
         "comps" : [],
         "download" : {
            "receiveFirst" : 20,
            "connectStart" : 0,
            "receiveLast" : 3242.26300000463,
            "dnsEnd" : -1,
            "sslStart" : -1,
            "sendEnd" : 38,
            "connectEnd" : 38,
            "receiveHeadersEnd" : 58,
            "sslEnd" : -1,
            "id" : "download_22",
            "receivedTime" : "3300.26300000463",
            "len" : 24720,
            "s_time" : 3081.74500000314,
            "dnsStart" : -1,
            "sendStart" : 38,
            "type" : "application/octet-stream",
            "dns" : 0
         }
      },
      {
         "when_comp_start" : -1,
         "id" : "r33",
         "url" : "http://original.testbed.localhost/cdn2-b.examiner.com/sites/default/files/styles/hero_curated_large/hash/a8/6a/a86a252e1d4a311050ba9366620c2800.jpg%3Fitok=GZxorOpu",
         "download" : {
            "dns" : 0,
            "type" : "image/jpeg",
            "dnsStart" : -1,
            "sendStart" : 45,
            "s_time" : 3076.0420000006,
            "len" : 27213,
            "receivedTime" : "3300.90200000268",
            "sslEnd" : -1,
            "id" : "download_23",
            "connectEnd" : 45,
            "receiveHeadersEnd" : 65,
            "sendEnd" : 45,
            "sslStart" : -1,
            "dnsEnd" : -1,
            "receiveLast" : 3235.90200000268,
            "connectStart" : 0,
            "receiveFirst" : 20
         },
         "comps" : []
      },
      {
         "comps" : [],
         "download" : {
            "s_time" : 3076.17700000264,
            "type" : "image/jpeg",
            "sendStart" : 45,
            "dnsStart" : -1,
            "dns" : 0,
            "sslEnd" : -1,
            "id" : "download_24",
            "receivedTime" : "3301.14600000525",
            "len" : 15400,
            "sendEnd" : 45,
            "connectEnd" : 45,
            "receiveHeadersEnd" : 66,
            "receiveLast" : 3235.14600000525,
            "receiveFirst" : 21,
            "connectStart" : 0,
            "sslStart" : -1,
            "dnsEnd" : -1
         },
         "url" : "http://original.testbed.localhost/cdn2-b.examiner.com/sites/default/files/styles/hero_curated_large/hash/92/5e/925e195d6742aa235acadf55b5b9482f.jpg%3Fitok=wLUq4Zl4",
         "id" : "r34",
         "when_comp_start" : -1
      },
      {
         "url" : "http://original.testbed.localhost/cdn2-b.examiner.com/sites/default/files/styles/hero_curated_large/hash/22/e1/22e1e52560b5b459b2d245e3b0540167.jpg%3Fitok=kp4llvG8",
         "comps" : [],
         "download" : {
            "type" : "image/jpeg",
            "dnsStart" : -1,
            "sendStart" : 45,
            "dns" : 0,
            "s_time" : 3076.68399999966,
            "receivedTime" : "3325.27600000321",
            "len" : 40596,
            "id" : "download_25",
            "sslEnd" : -1,
            "sendEnd" : 45,
            "connectEnd" : 45,
            "receiveHeadersEnd" : 66,
            "receiveLast" : 3259.27600000321,
            "connectStart" : 0,
            "receiveFirst" : 21,
            "sslStart" : -1,
            "dnsEnd" : -1
         },
         "when_comp_start" : -1,
         "id" : "r35"
      },
      {
         "when_comp_start" : -1,
         "id" : "r36",
         "url" : "http://original.testbed.localhost/cdn2-b.examiner.com/sites/default/files/styles/hero_curated_large/hash/8f/3e/8f3eb8987fd189c2e2d258a8ba99b479.jpg%3Fitok=TBxgCF21",
         "comps" : [],
         "download" : {
            "connectEnd" : 63,
            "receiveHeadersEnd" : 83,
            "sendEnd" : 63,
            "sslStart" : -1,
            "dnsEnd" : -1,
            "receiveLast" : 3242.64000000275,
            "connectStart" : 0,
            "receiveFirst" : 20,
            "s_time" : 3076.90300000104,
            "dns" : 0,
            "type" : "image/jpeg",
            "sendStart" : 63,
            "dnsStart" : -1,
            "sslEnd" : -1,
            "id" : "download_26",
            "len" : 40662,
            "receivedTime" : "3325.64000000275"
         }
      },
      {
         "download" : {
            "s_time" : 3099.09900000639,
            "dns" : 0,
            "dnsStart" : -1,
            "sendStart" : 41,
            "type" : "image/jpeg",
            "id" : "download_27",
            "sslEnd" : -1,
            "len" : 34330,
            "receivedTime" : "3325.88899999973",
            "connectEnd" : 41,
            "receiveHeadersEnd" : 62,
            "sendEnd" : 41,
            "dnsEnd" : -1,
            "sslStart" : -1,
            "receiveFirst" : 21,
            "connectStart" : 0,
            "receiveLast" : 3263.88899999973
         },
         "comps" : [],
         "url" : "http://original.testbed.localhost/cdn2-b.examiner.com/sites/default/files/styles/hero_curated_large/hash/48/e6/48e6fdfb5715f6f9a17186a2a8ded7b2.jpg%3Fitok=ZQN1CMS9",
         "id" : "r37",
         "when_comp_start" : -1
      },
      {
         "comps" : [],
         "download" : {
            "s_time" : 3099.66400000121,
            "dns" : 0,
            "dnsStart" : -1,
            "sendStart" : 42,
            "type" : "image/jpeg",
            "sslEnd" : -1,
            "id" : "download_28",
            "len" : 15948,
            "receivedTime" : "3326.05300000432",
            "receiveHeadersEnd" : 62,
            "connectEnd" : 42,
            "sendEnd" : 42,
            "dnsEnd" : -1,
            "sslStart" : -1,
            "connectStart" : 0,
            "receiveFirst" : 20,
            "receiveLast" : 3264.05300000432
         },
         "url" : "http://original.testbed.localhost/cdn2-b.examiner.com/sites/default/files/styles/hero_curated_large/hash/61/36/6136d166d826cbfa435ea8e78f949a07.jpg%3Fitok=MGZzln94",
         "id" : "r38",
         "when_comp_start" : -1
      },
      {
         "download" : {
            "receivedTime" : "3326.23200000671",
            "len" : 11331,
            "sslEnd" : -1,
            "id" : "download_29",
            "type" : "image/jpeg",
            "dnsStart" : -1,
            "sendStart" : 42,
            "dns" : 0,
            "s_time" : 3099.85500000039,
            "receiveLast" : 3263.23200000671,
            "receiveFirst" : 21,
            "connectStart" : 0,
            "sslStart" : -1,
            "dnsEnd" : -1,
            "sendEnd" : 42,
            "connectEnd" : 42,
            "receiveHeadersEnd" : 63
         },
         "comps" : [],
         "url" : "http://original.testbed.localhost/cdn2-b.examiner.com/sites/default/files/styles/hero_curated_large/hash/ba/73/ba736f2b11f1d7caf33641ebac6d3705.jpg%3Fitok=mUf7C_pL",
         "id" : "r39",
         "when_comp_start" : -1
      },
      {
         "when_comp_start" : -1,
         "id" : "r40",
         "url" : "http://original.testbed.localhost/cdn2-b.examiner.com/sites/default/files/styles/hero_curated_large/hash/4b/95/4b957dd8a13c24ea745c4f2709dd620b.jpg%3Fitok=e9_u0r72",
         "comps" : [],
         "download" : {
            "dns" : 0,
            "type" : "image/jpeg",
            "sendStart" : 42,
            "dnsStart" : -1,
            "s_time" : 3100.33600000315,
            "len" : 18826,
            "receivedTime" : "3326.4180000042",
            "id" : "download_30",
            "sslEnd" : -1,
            "connectEnd" : 42,
            "receiveHeadersEnd" : 62,
            "sendEnd" : 42,
            "sslStart" : -1,
            "dnsEnd" : -1,
            "receiveLast" : 3264.4180000042,
            "connectStart" : 0,
            "receiveFirst" : 20
         }
      },
      {
         "comps" : [],
         "download" : {
            "receiveHeadersEnd" : 22,
            "connectEnd" : 1,
            "sendEnd" : 1,
            "sslStart" : -1,
            "dnsEnd" : -1,
            "receiveLast" : 3340.34600000171,
            "connectStart" : 0,
            "receiveFirst" : 21,
            "dns" : 0,
            "type" : "text/plain",
            "sendStart" : 1,
            "dnsStart" : -1,
            "s_time" : 3226.94500000216,
            "len" : 52783,
            "receivedTime" : "3362.34600000171",
            "sslEnd" : -1,
            "id" : "download_31"
         },
         "url" : "http://original.testbed.localhost/cdn2-b.examiner.com/sites/default/files/js/js_4Jw9dzqoP-ppZQwODDGwFZiSQTIaIGbYrJwGLTf18-M_453_1.js%3Fo6dj05",
         "id" : "r51",
         "when_comp_start" : -1
      },
      {
         "comps" : [],
         "download" : {
            "dnsEnd" : -1,
            "sslStart" : -1,
            "connectStart" : 0,
            "receiveFirst" : 21,
            "receiveLast" : 3486.41500000004,
            "connectEnd" : 0,
            "receiveHeadersEnd" : 21,
            "sendEnd" : 0,
            "len" : 302,
            "receivedTime" : "3507.41500000004",
            "sslEnd" : -1,
            "id" : "download_32",
            "dns" : 0,
            "dnsStart" : -1,
            "sendStart" : 0,
            "type" : "text/html",
            "s_time" : 3409.84800000297
         },
         "url" : "http://original.testbed.localhost/misc/help.png",
         "id" : "r62",
         "when_comp_start" : 1
      }
   ],
   "name" : "original.testbed.localhost_www.examiner.com_"
}
