{
   "load_activity" : -1,
   "n_download_no_trigger" : 1,
   "name" : "original.testbed.localhost_www.liveeyewear.com_",
   "objs" : [
      {
         "download" : {
            "dnsStart" : -1,
            "dnsEnd" : -1,
            "sslEnd" : -1,
            "connectStart" : 0,
            "receiveHeadersEnd" : 21,
            "sendStart" : 0,
            "dns" : 0,
            "len" : 6880,
            "sslStart" : -1,
            "connectEnd" : 0,
            "s_time" : 0,
            "type" : "text/html",
            "receiveLast" : 0.571999997831881,
            "receiveFirst" : 21,
            "sendEnd" : 0,
            "id" : "download_0",
            "receivedTime" : "21.5719999978319"
         },
         "id" : "r1",
         "comps" : [
            {
               "e_time" : 38.3379999984754,
               "s_time" : 36.9209999989835,
               "time" : 1.4169999994919,
               "id" : "r1_c1",
               "type" : "evalhtml"
            },
            {
               "time" : -44149348.256,
               "type" : "evalhtml",
               "id" : "r1_c2",
               "s_time" : 73.5219999987748,
               "e_time" : -44149274.734
            },
            {
               "e_time" : 84.3060000042897,
               "s_time" : 84.0079999979935,
               "time" : 0.298000006296206,
               "type" : "evalhtml",
               "id" : "r1_c3"
            },
            {
               "s_time" : 84.3539999987115,
               "type" : "evalhtml",
               "time" : 0.762000003305701,
               "id" : "r1_c4",
               "e_time" : 85.1160000020172
            },
            {
               "type" : "evalhtml",
               "time" : 0.542000001587397,
               "id" : "r1_c5",
               "s_time" : 85.4469999976573,
               "e_time" : 85.9889999992447
            },
            {
               "e_time" : -44149274.734,
               "s_time" : 86.2070000002859,
               "id" : "r1_c6",
               "time" : -44149360.941,
               "type" : "evalhtml"
            },
            {
               "s_time" : 86.7819999984931,
               "type" : "evalhtml",
               "time" : 108.702000004996,
               "id" : "r1_c7",
               "e_time" : 195.484000003489
            }
         ],
         "url" : "http://original.testbed.localhost/www.liveeyewear.com/",
         "when_comp_start" : 1
      },
      {
         "when_comp_start" : -1,
         "comps" : [
            {
               "e_time" : 62.420000002021,
               "time" : 0.0169999984792,
               "type" : 4,
               "id" : "comp_5",
               "s_time" : 62.4030000035418
            }
         ],
         "url" : "http://original.testbed.localhost/www.liveeyewear.com/css/style.css",
         "id" : "r3",
         "download" : {
            "type" : "text/css",
            "s_time" : 37.7339999977266,
            "connectEnd" : 2,
            "sslStart" : -1,
            "id" : "download_1",
            "receivedTime" : "62.3649999979534",
            "sendEnd" : 2,
            "receiveFirst" : 21,
            "receiveLast" : 39.3649999979534,
            "connectStart" : 0,
            "sslEnd" : -1,
            "dnsEnd" : -1,
            "dnsStart" : -1,
            "sendStart" : 2,
            "dns" : 0,
            "len" : 3208,
            "receiveHeadersEnd" : 23
         }
      },
      {
         "when_comp_start" : -1,
         "comps" : [
            {
               "e_time" : 73.5219999987748,
               "s_time" : 62.6019999981509,
               "type" : 1,
               "time" : 10.9200000006239,
               "id" : "comp_6"
            }
         ],
         "url" : "http://original.testbed.localhost/fast.fonts.com/jsapi/a1ae08c2-5050-41d0-b924-08e4f8aafb4d.js",
         "download" : {
            "sendStart" : 2,
            "dns" : 0,
            "len" : 19075,
            "receiveHeadersEnd" : 24,
            "connectStart" : 0,
            "sslEnd" : -1,
            "dnsStart" : -1,
            "dnsEnd" : -1,
            "receivedTime" : "62.5680000011926",
            "id" : "download_2",
            "sendEnd" : 2,
            "receiveFirst" : 22,
            "receiveLast" : 38.5680000011926,
            "type" : "application/javascript",
            "s_time" : 37.6719999985653,
            "sslStart" : -1,
            "connectEnd" : 2
         },
         "id" : "r2"
      },
      {
         "download" : {
            "sslStart" : -1,
            "connectEnd" : 22,
            "type" : "application/javascript",
            "s_time" : 37.8490000002785,
            "receiveLast" : 38.599000004644,
            "receiveFirst" : 21,
            "id" : "download_3",
            "receivedTime" : "81.599000004644",
            "sendEnd" : 22,
            "dnsEnd" : 1,
            "dnsStart" : 1,
            "connectStart" : 0,
            "sslEnd" : -1,
            "receiveHeadersEnd" : 43,
            "sendStart" : 22,
            "dns" : 0,
            "len" : 2492
         },
         "id" : "r4",
         "comps" : [
            {
               "e_time" : 84.0079999979935,
               "s_time" : 81.9259999989299,
               "time" : 2.0819999990636,
               "id" : "comp_11",
               "type" : 1
            }
         ],
         "url" : "http://original.testbed.localhost/www.liveeyewear.com/js/functions.js",
         "when_comp_start" : -1
      },
      {
         "comps" : [
            {
               "time" : 0.149999999848603,
               "id" : "comp_13",
               "type" : 1,
               "s_time" : 84.2039999988629,
               "e_time" : 84.3539999987115
            }
         ],
         "when_comp_start" : -1,
         "url" : "http://original.testbed.localhost/www.liveeyewear.com/js/dw_event.js",
         "id" : "r5",
         "download" : {
            "sendStart" : 22,
            "dns" : 0,
            "len" : 1372,
            "receiveHeadersEnd" : 43,
            "connectStart" : 0,
            "sslEnd" : -1,
            "dnsEnd" : 1,
            "dnsStart" : 1,
            "receiveFirst" : 21,
            "receiveLast" : 41.1730000029202,
            "id" : "download_4",
            "receivedTime" : "84.1730000029202",
            "sendEnd" : 22,
            "sslStart" : -1,
            "connectEnd" : 22,
            "type" : "application/javascript",
            "s_time" : 37.9590000011376
         }
      },
      {
         "url" : "http://original.testbed.localhost/www.liveeyewear.com/js/dw_scroll.js",
         "comps" : [
            {
               "type" : 1,
               "time" : 0.7519999999204,
               "id" : "comp_15",
               "s_time" : 84.6949999977369,
               "e_time" : 85.4469999976573
            }
         ],
         "when_comp_start" : -1,
         "download" : {
            "sendStart" : 22,
            "dns" : 0,
            "len" : 9328,
            "receiveHeadersEnd" : 44,
            "connectStart" : 0,
            "sslEnd" : -1,
            "dnsEnd" : 1,
            "dnsStart" : 1,
            "receiveFirst" : 22,
            "receiveLast" : 40.6519999977318,
            "receivedTime" : "84.6519999977318",
            "id" : "download_5",
            "sendEnd" : 22,
            "connectEnd" : 22,
            "sslStart" : -1,
            "type" : "application/javascript",
            "s_time" : 38.1340000021737
         },
         "id" : "r6"
      },
      {
         "comps" : [
            {
               "e_time" : 86.2070000002859,
               "s_time" : 85.6480000002193,
               "type" : 1,
               "time" : 0.559000000066604,
               "id" : "comp_17"
            }
         ],
         "url" : "http://original.testbed.localhost/www.liveeyewear.com/js/dw_scrollbar.js",
         "when_comp_start" : -1,
         "id" : "r7",
         "download" : {
            "receiveLast" : 41.5799999990268,
            "receiveFirst" : 22,
            "sendEnd" : 22,
            "id" : "download_6",
            "receivedTime" : "85.5799999990268",
            "sslStart" : -1,
            "connectEnd" : 22,
            "s_time" : 38.1459999989602,
            "type" : "application/javascript",
            "receiveHeadersEnd" : 44,
            "sendStart" : 22,
            "dns" : 0,
            "len" : 13385,
            "dnsEnd" : 1,
            "dnsStart" : 1,
            "sslEnd" : -1,
            "connectStart" : 0
         }
      },
      {
         "id" : "r8",
         "download" : {
            "connectEnd" : 23,
            "sslStart" : -1,
            "type" : "application/javascript",
            "s_time" : 38.2680000038818,
            "receiveFirst" : 21,
            "receiveLast" : 42.2909999996191,
            "receivedTime" : "86.2909999996191",
            "id" : "download_7",
            "sendEnd" : 23,
            "connectStart" : 0,
            "sslEnd" : -1,
            "dnsEnd" : -1,
            "dnsStart" : -1,
            "dns" : 0,
            "sendStart" : 23,
            "len" : 11233,
            "receiveHeadersEnd" : 44
         },
         "when_comp_start" : -1,
         "comps" : [
            {
               "e_time" : 86.7819999984931,
               "time" : 0.459999995655409,
               "id" : "comp_19",
               "type" : 1,
               "s_time" : 86.3220000028377
            }
         ],
         "url" : "http://original.testbed.localhost/www.liveeyewear.com/js/scroll_controls.js"
      },
      {
         "download" : {
            "s_time" : 38.3379999984754,
            "type" : "image/png",
            "connectEnd" : 23,
            "sslStart" : -1,
            "sendEnd" : 23,
            "receivedTime" : "113.627999999153",
            "id" : "download_8",
            "receiveFirst" : 23,
            "receiveLast" : 67.627999999153,
            "sslEnd" : -1,
            "connectStart" : 0,
            "dnsStart" : -1,
            "dnsEnd" : -1,
            "len" : 9176,
            "sendStart" : 23,
            "dns" : 0,
            "receiveHeadersEnd" : 46
         },
         "id" : "r9",
         "url" : "http://original.testbed.localhost/www.liveeyewear.com/images/live_eyewear_logo.png",
         "comps" : [],
         "when_comp_start" : -1
      },
      {
         "comps" : [],
         "url" : "http://original.testbed.localhost/www.liveeyewear.com/images/background.gif",
         "when_comp_start" : -1,
         "id" : "r31",
         "download" : {
            "receiveHeadersEnd" : 23,
            "sendStart" : 2,
            "len" : 1870,
            "dns" : 0,
            "dnsStart" : -1,
            "dnsEnd" : -1,
            "sslEnd" : -1,
            "connectStart" : 0,
            "sendEnd" : 2,
            "receivedTime" : "114.434000002802",
            "id" : "download_9",
            "receiveLast" : 91.4340000028023,
            "receiveFirst" : 21,
            "s_time" : 84.3729999978677,
            "type" : "image/gif",
            "sslStart" : -1,
            "connectEnd" : 2
         }
      },
      {
         "comps" : [],
         "when_comp_start" : 1,
         "url" : "http://original.testbed.localhost/images/menu_home_on.gif",
         "id" : "r32",
         "download" : {
            "receiveLast" : 91.5309999992605,
            "receiveFirst" : 21,
            "sendEnd" : 2,
            "id" : "download_10",
            "receivedTime" : "114.530999999261",
            "sslStart" : -1,
            "connectEnd" : 2,
            "s_time" : 84.3060000042897,
            "type" : "text/html",
            "receiveHeadersEnd" : 23,
            "sendStart" : 2,
            "len" : 312,
            "dns" : 0,
            "dnsEnd" : -1,
            "dnsStart" : -1,
            "sslEnd" : -1,
            "connectStart" : 0
         }
      },
      {
         "comps" : [],
         "when_comp_start" : 1,
         "url" : "http://original.testbed.localhost/images/menu_home_off.gif",
         "id" : "r33",
         "download" : {
            "receiveHeadersEnd" : 23,
            "sendStart" : 2,
            "dns" : 0,
            "len" : 313,
            "dnsStart" : -1,
            "dnsEnd" : -1,
            "connectStart" : 0,
            "sslEnd" : -1,
            "id" : "download_11",
            "receivedTime" : "114.715000003343",
            "sendEnd" : 2,
            "receiveLast" : 91.7150000033434,
            "receiveFirst" : 21,
            "type" : "text/html",
            "s_time" : 84.3959999983781,
            "connectEnd" : 2,
            "sslStart" : -1
         }
      },
      {
         "when_comp_start" : 1,
         "comps" : [],
         "url" : "http://original.testbed.localhost/images/menu_contact_us_on.gif",
         "download" : {
            "sslEnd" : -1,
            "connectStart" : 0,
            "dnsStart" : -1,
            "dnsEnd" : -1,
            "sendStart" : 2,
            "len" : 318,
            "dns" : 0,
            "receiveHeadersEnd" : 23,
            "s_time" : 84.5100000005914,
            "type" : "text/html",
            "connectEnd" : 2,
            "sslStart" : -1,
            "sendEnd" : 2,
            "receivedTime" : "114.75700000301",
            "id" : "download_12",
            "receiveFirst" : 21,
            "receiveLast" : 91.75700000301
         },
         "id" : "r34"
      },
      {
         "download" : {
            "receiveLast" : 91.7970000019995,
            "receiveFirst" : 21,
            "sendEnd" : 2,
            "receivedTime" : "114.797000002",
            "id" : "download_13",
            "connectEnd" : 2,
            "sslStart" : -1,
            "s_time" : 84.6430000019609,
            "type" : "text/html",
            "receiveHeadersEnd" : 23,
            "sendStart" : 2,
            "dns" : 0,
            "len" : 319,
            "dnsStart" : -1,
            "dnsEnd" : -1,
            "sslEnd" : -1,
            "connectStart" : 0
         },
         "id" : "r35",
         "url" : "http://original.testbed.localhost/images/menu_contact_us_off.gif",
         "comps" : [],
         "when_comp_start" : 1
      },
      {
         "download" : {
            "dnsEnd" : -1,
            "dnsStart" : -1,
            "sslEnd" : -1,
            "connectStart" : 0,
            "receiveHeadersEnd" : 23,
            "sendStart" : 1,
            "dns" : 0,
            "len" : 322,
            "connectEnd" : 1,
            "sslStart" : -1,
            "s_time" : 84.779000004346,
            "type" : "text/html",
            "receiveLast" : 91.8470000043744,
            "receiveFirst" : 22,
            "sendEnd" : 1,
            "id" : "download_14",
            "receivedTime" : "114.847000004374"
         },
         "id" : "r36",
         "url" : "http://original.testbed.localhost/images/menu_dealer_locator_on.gif",
         "comps" : [],
         "when_comp_start" : 1
      },
      {
         "id" : "r37",
         "download" : {
            "type" : "text/html",
            "s_time" : 84.8880000048666,
            "sslStart" : -1,
            "connectEnd" : 22,
            "receivedTime" : "128.527000000759",
            "id" : "download_15",
            "sendEnd" : 22,
            "receiveLast" : 85.5270000007586,
            "receiveFirst" : 21,
            "dnsStart" : -1,
            "dnsEnd" : -1,
            "connectStart" : 0,
            "sslEnd" : -1,
            "receiveHeadersEnd" : 43,
            "sendStart" : 22,
            "dns" : 0,
            "len" : 323
         },
         "comps" : [],
         "url" : "http://original.testbed.localhost/images/menu_dealer_locator_off.gif",
         "when_comp_start" : 1
      },
      {
         "download" : {
            "connectStart" : 0,
            "sslEnd" : -1,
            "dnsStart" : -1,
            "dnsEnd" : -1,
            "dns" : 0,
            "sendStart" : 24,
            "len" : 325,
            "receiveHeadersEnd" : 45,
            "sslStart" : -1,
            "connectEnd" : 24,
            "type" : "text/html",
            "s_time" : 85.0090000021737,
            "receiveFirst" : 21,
            "receiveLast" : 85.5250000004889,
            "receivedTime" : "130.525000000489",
            "id" : "download_16",
            "sendEnd" : 24
         },
         "id" : "r38",
         "comps" : [],
         "url" : "http://original.testbed.localhost/images/menu_register_warranty_on.gif",
         "when_comp_start" : 1
      },
      {
         "when_comp_start" : 1,
         "comps" : [],
         "url" : "http://original.testbed.localhost/images/menu_register_warranty_off.gif",
         "download" : {
            "connectStart" : 0,
            "sslEnd" : -1,
            "dnsEnd" : -1,
            "dnsStart" : -1,
            "sendStart" : 24,
            "dns" : 0,
            "len" : 326,
            "receiveHeadersEnd" : 45,
            "type" : "text/html",
            "s_time" : 85.1160000020172,
            "sslStart" : -1,
            "connectEnd" : 24,
            "receivedTime" : "131.03200000478",
            "id" : "download_17",
            "sendEnd" : 24,
            "receiveFirst" : 21,
            "receiveLast" : 86.0320000047795
         },
         "id" : "r39"
      },
      {
         "when_comp_start" : 1,
         "comps" : [],
         "url" : "http://original.testbed.localhost/images/menu_opportunities_on.gif",
         "id" : "r40",
         "download" : {
            "connectEnd" : 24,
            "sslStart" : -1,
            "s_time" : 85.9889999992447,
            "type" : "text/html",
            "receiveLast" : 86.5000000031432,
            "receiveFirst" : 21,
            "sendEnd" : 24,
            "receivedTime" : "131.500000003143",
            "id" : "download_18",
            "dnsEnd" : -1,
            "dnsStart" : -1,
            "sslEnd" : -1,
            "connectStart" : 0,
            "receiveHeadersEnd" : 45,
            "sendStart" : 24,
            "dns" : 0,
            "len" : 321
         }
      },
      {
         "comps" : [],
         "url" : "http://original.testbed.localhost/images/menu_opportunities_off.gif",
         "when_comp_start" : 1,
         "download" : {
            "sendStart" : 2,
            "dns" : 0,
            "len" : 322,
            "receiveHeadersEnd" : 23,
            "sslEnd" : -1,
            "connectStart" : 0,
            "dnsEnd" : -1,
            "dnsStart" : -1,
            "sendEnd" : 2,
            "id" : "download_19",
            "receivedTime" : "131.698999997752",
            "receiveFirst" : 21,
            "receiveLast" : 108.698999997752,
            "s_time" : 108.007000002544,
            "type" : "text/html",
            "connectEnd" : 2,
            "sslStart" : -1
         },
         "id" : "r41"
      },
      {
         "url" : "http://original.testbed.localhost/images/menu_employment_on.gif",
         "comps" : [],
         "when_comp_start" : 1,
         "id" : "r42",
         "download" : {
            "dns" : 0,
            "sendStart" : 1,
            "len" : 318,
            "receiveHeadersEnd" : 22,
            "connectStart" : 0,
            "sslEnd" : -1,
            "dnsEnd" : -1,
            "dnsStart" : -1,
            "receivedTime" : "131.927000002179",
            "id" : "download_20",
            "sendEnd" : 1,
            "receiveFirst" : 21,
            "receiveLast" : 109.927000002179,
            "type" : "text/html",
            "s_time" : 108.352000002924,
            "sslStart" : -1,
            "connectEnd" : 1
         }
      },
      {
         "id" : "r43",
         "download" : {
            "sendEnd" : 19,
            "receivedTime" : "149.632000000565",
            "id" : "download_21",
            "receiveLast" : 109.632000000565,
            "receiveFirst" : 21,
            "s_time" : 108.872000004339,
            "type" : "text/html",
            "sslStart" : -1,
            "connectEnd" : 19,
            "receiveHeadersEnd" : 40,
            "sendStart" : 19,
            "dns" : 0,
            "len" : 319,
            "dnsEnd" : -1,
            "dnsStart" : -1,
            "sslEnd" : -1,
            "connectStart" : 0
         },
         "comps" : [],
         "when_comp_start" : 1,
         "url" : "http://original.testbed.localhost/images/menu_employment_off.gif"
      },
      {
         "download" : {
            "dns" : 0,
            "sendStart" : 21,
            "len" : 320,
            "receiveHeadersEnd" : 42,
            "connectStart" : 0,
            "sslEnd" : -1,
            "dnsEnd" : -1,
            "dnsStart" : -1,
            "receiveFirst" : 21,
            "receiveLast" : 109.528000002145,
            "id" : "download_22",
            "receivedTime" : "151.528000002145",
            "sendEnd" : 21,
            "sslStart" : -1,
            "connectEnd" : 21,
            "type" : "text/html",
            "s_time" : 109.120000000985
         },
         "id" : "r44",
         "url" : "http://original.testbed.localhost/images/menu_dealer_login_on.gif",
         "comps" : [],
         "when_comp_start" : 1
      },
      {
         "when_comp_start" : 1,
         "comps" : [],
         "url" : "http://original.testbed.localhost/images/menu_dealer_login_off.gif",
         "download" : {
            "sslStart" : -1,
            "connectEnd" : 22,
            "s_time" : 109.326999998302,
            "type" : "text/html",
            "receiveLast" : 110.296000000206,
            "receiveFirst" : 20,
            "sendEnd" : 22,
            "id" : "download_23",
            "receivedTime" : "152.296000000206",
            "dnsStart" : -1,
            "dnsEnd" : -1,
            "sslEnd" : -1,
            "connectStart" : 0,
            "receiveHeadersEnd" : 42,
            "len" : 321,
            "sendStart" : 22,
            "dns" : 0
         },
         "id" : "r45"
      },
      {
         "download" : {
            "dnsStart" : -1,
            "dnsEnd" : -1,
            "connectStart" : 0,
            "sslEnd" : -1,
            "receiveHeadersEnd" : 22,
            "sendStart" : 1,
            "dns" : 0,
            "len" : 206,
            "type" : "image/gif",
            "s_time" : 130.31900000351,
            "sslStart" : -1,
            "connectEnd" : 1,
            "receivedTime" : "152.865000003658",
            "id" : "download_24",
            "sendEnd" : 1,
            "receiveLast" : 130.865000003658,
            "receiveFirst" : 21
         },
         "id" : "r10",
         "comps" : [],
         "when_comp_start" : -1,
         "url" : "http://original.testbed.localhost/www.liveeyewear.com/images/menu_home_on.gif"
      },
      {
         "download" : {
            "receiveHeadersEnd" : 43,
            "dns" : 0,
            "sendStart" : 22,
            "len" : 313,
            "dnsStart" : -1,
            "dnsEnd" : -1,
            "sslEnd" : -1,
            "connectStart" : 0,
            "sendEnd" : 22,
            "id" : "download_25",
            "receivedTime" : "153.212000004714",
            "receiveLast" : 110.212000004714,
            "receiveFirst" : 21,
            "s_time" : 109.532000002218,
            "type" : "text/html",
            "connectEnd" : 22,
            "sslStart" : -1
         },
         "id" : "r46",
         "when_comp_start" : 1,
         "comps" : [],
         "url" : "http://original.testbed.localhost/images/menu_legal_on.gif"
      },
      {
         "url" : "http://original.testbed.localhost/images/menu_legal_off.gif",
         "comps" : [],
         "when_comp_start" : 1,
         "id" : "r47",
         "download" : {
            "receivedTime" : "153.39700000186",
            "id" : "download_26",
            "sendEnd" : 3,
            "receiveFirst" : 21,
            "receiveLast" : 129.39700000186,
            "type" : "text/html",
            "s_time" : 128.521999999066,
            "sslStart" : -1,
            "connectEnd" : 3,
            "sendStart" : 3,
            "dns" : 0,
            "len" : 314,
            "receiveHeadersEnd" : 24,
            "connectStart" : 0,
            "sslEnd" : -1,
            "dnsStart" : -1,
            "dnsEnd" : -1
         }
      },
      {
         "id" : "r11",
         "download" : {
            "connectEnd" : 18,
            "sslStart" : -1,
            "s_time" : 130.825000000186,
            "type" : "image/gif",
            "receiveLast" : 131.580999998492,
            "receiveFirst" : 21,
            "sendEnd" : 18,
            "id" : "download_27",
            "receivedTime" : "170.580999998492",
            "dnsStart" : -1,
            "dnsEnd" : -1,
            "sslEnd" : -1,
            "connectStart" : 0,
            "receiveHeadersEnd" : 39,
            "sendStart" : 18,
            "dns" : 0,
            "len" : 290
         },
         "when_comp_start" : -1,
         "comps" : [],
         "url" : "http://original.testbed.localhost/www.liveeyewear.com/images/menu_contact_us_off.gif"
      },
      {
         "download" : {
            "s_time" : 131.335999998555,
            "type" : "image/gif",
            "sslStart" : -1,
            "connectEnd" : 20,
            "sendEnd" : 20,
            "id" : "download_28",
            "receivedTime" : "172.644999998738",
            "receiveLast" : 132.644999998738,
            "receiveFirst" : 20,
            "dnsStart" : -1,
            "dnsEnd" : -1,
            "sslEnd" : -1,
            "connectStart" : 0,
            "receiveHeadersEnd" : 40,
            "sendStart" : 20,
            "dns" : 0,
            "len" : 344
         },
         "id" : "r12",
         "when_comp_start" : -1,
         "comps" : [],
         "url" : "http://original.testbed.localhost/www.liveeyewear.com/images/menu_dealer_locator_off.gif"
      },
      {
         "comps" : [],
         "url" : "http://original.testbed.localhost/www.liveeyewear.com/images/menu_register_warranty_off.gif",
         "when_comp_start" : -1,
         "download" : {
            "dnsStart" : -1,
            "dnsEnd" : -1,
            "sslEnd" : -1,
            "connectStart" : 0,
            "receiveHeadersEnd" : 41,
            "sendStart" : 20,
            "len" : 636,
            "dns" : 0,
            "connectEnd" : 20,
            "sslStart" : -1,
            "s_time" : 131.491000000096,
            "type" : "image/gif",
            "receiveLast" : 132.245999998471,
            "receiveFirst" : 21,
            "sendEnd" : 20,
            "id" : "download_29",
            "receivedTime" : "173.245999998471"
         },
         "id" : "r13"
      },
      {
         "comps" : [],
         "when_comp_start" : -1,
         "url" : "http://original.testbed.localhost/www.liveeyewear.com/images/menu_opportunities_off.gif",
         "download" : {
            "receiveLast" : 132.672000004444,
            "receiveFirst" : 20,
            "receivedTime" : "173.672000004444",
            "id" : "download_30",
            "sendEnd" : 21,
            "connectEnd" : 21,
            "sslStart" : -1,
            "type" : "image/gif",
            "s_time" : 131.737000003341,
            "receiveHeadersEnd" : 41,
            "sendStart" : 21,
            "dns" : 0,
            "len" : 307,
            "dnsEnd" : -1,
            "dnsStart" : -1,
            "connectStart" : 0,
            "sslEnd" : -1
         },
         "id" : "r14"
      },
      {
         "download" : {
            "dnsEnd" : -1,
            "dnsStart" : -1,
            "connectStart" : 0,
            "sslEnd" : -1,
            "receiveHeadersEnd" : 24,
            "sendStart" : 3,
            "len" : 303,
            "dns" : 0,
            "type" : "image/gif",
            "s_time" : 149.485000001732,
            "connectEnd" : 3,
            "sslStart" : -1,
            "id" : "download_31",
            "receivedTime" : "174.187000004167",
            "sendEnd" : 3,
            "receiveLast" : 150.187000004167,
            "receiveFirst" : 21
         },
         "id" : "r15",
         "url" : "http://original.testbed.localhost/www.liveeyewear.com/images/menu_employment_off.gif",
         "comps" : [],
         "when_comp_start" : -1
      },
      {
         "id" : "r16",
         "download" : {
            "dnsEnd" : -1,
            "dnsStart" : -1,
            "connectStart" : 0,
            "sslEnd" : -1,
            "receiveHeadersEnd" : 22,
            "sendStart" : 2,
            "len" : 299,
            "dns" : 0,
            "sslStart" : -1,
            "connectEnd" : 2,
            "type" : "image/gif",
            "s_time" : 151.350000000093,
            "receiveLast" : 152.443000003521,
            "receiveFirst" : 20,
            "id" : "download_32",
            "receivedTime" : "174.443000003521",
            "sendEnd" : 2
         },
         "url" : "http://original.testbed.localhost/www.liveeyewear.com/images/menu_dealer_login_off.gif",
         "comps" : [],
         "when_comp_start" : -1
      },
      {
         "id" : "r17",
         "download" : {
            "dnsStart" : -1,
            "dnsEnd" : -1,
            "connectStart" : 0,
            "sslEnd" : -1,
            "receiveHeadersEnd" : 38,
            "sendStart" : 18,
            "dns" : 0,
            "len" : 186,
            "type" : "image/gif",
            "s_time" : 152.140999998664,
            "connectEnd" : 18,
            "sslStart" : -1,
            "receivedTime" : "191.106999998738",
            "id" : "download_33",
            "sendEnd" : 18,
            "receiveLast" : 153.106999998738,
            "receiveFirst" : 20
         },
         "comps" : [],
         "when_comp_start" : -1,
         "url" : "http://original.testbed.localhost/www.liveeyewear.com/images/menu_legal_off.gif"
      },
      {
         "url" : "http://original.testbed.localhost/www.liveeyewear.com/images/btn-up.gif",
         "comps" : [],
         "when_comp_start" : -1,
         "download" : {
            "receiveLast" : 153.253999997978,
            "receiveFirst" : 21,
            "receivedTime" : "193.253999997978",
            "id" : "download_34",
            "sendEnd" : 19,
            "sslStart" : -1,
            "connectEnd" : 19,
            "type" : "image/gif",
            "s_time" : 152.689000002283,
            "receiveHeadersEnd" : 40,
            "sendStart" : 19,
            "len" : 243,
            "dns" : 0,
            "dnsStart" : -1,
            "dnsEnd" : -1,
            "connectStart" : 0,
            "sslEnd" : -1
         },
         "id" : "r18"
      },
      {
         "url" : "http://original.testbed.localhost/www.liveeyewear.com/images/btn-dn.gif",
         "comps" : [],
         "when_comp_start" : -1,
         "id" : "r19",
         "download" : {
            "s_time" : 153.060000004189,
            "type" : "image/gif",
            "connectEnd" : 19,
            "sslStart" : -1,
            "sendEnd" : 19,
            "receivedTime" : "193.831000004138",
            "id" : "download_35",
            "receiveFirst" : 21,
            "receiveLast" : 153.831000004138,
            "sslEnd" : -1,
            "connectStart" : 0,
            "dnsEnd" : -1,
            "dnsStart" : -1,
            "sendStart" : 19,
            "dns" : 0,
            "len" : 186,
            "receiveHeadersEnd" : 40
         }
      },
      {
         "download" : {
            "type" : "image/jpeg",
            "s_time" : 153.247000002011,
            "sslStart" : -1,
            "connectEnd" : 20,
            "id" : "download_36",
            "receivedTime" : "194.52900000033",
            "sendEnd" : 20,
            "receiveFirst" : 20,
            "receiveLast" : 154.52900000033,
            "connectStart" : 0,
            "sslEnd" : -1,
            "dnsEnd" : -1,
            "dnsStart" : -1,
            "sendStart" : 20,
            "dns" : 0,
            "len" : 35719,
            "receiveHeadersEnd" : 40
         },
         "id" : "r20",
         "url" : "http://original.testbed.localhost/www.liveeyewear.com/images/button_cocoons.jpg",
         "comps" : [],
         "when_comp_start" : -1
      },
      {
         "id" : "r21",
         "download" : {
            "receiveHeadersEnd" : 24,
            "sendStart" : 3,
            "dns" : 0,
            "len" : 6325,
            "dnsStart" : -1,
            "dnsEnd" : -1,
            "sslEnd" : -1,
            "connectStart" : 0,
            "receiveLast" : 171.484000003489,
            "receiveFirst" : 21,
            "sendEnd" : 3,
            "id" : "download_37",
            "receivedTime" : "195.484000003489",
            "connectEnd" : 3,
            "sslStart" : -1,
            "s_time" : 170.406000004732,
            "type" : "image/png"
         },
         "comps" : [],
         "url" : "http://original.testbed.localhost/www.liveeyewear.com/images/button_vistana.png",
         "when_comp_start" : -1
      },
      {
         "id" : "r22",
         "download" : {
            "receiveHeadersEnd" : 22,
            "dns" : 0,
            "sendStart" : 2,
            "len" : 5629,
            "dnsStart" : -1,
            "dnsEnd" : -1,
            "connectStart" : 0,
            "sslEnd" : -1,
            "id" : "download_38",
            "receivedTime" : "195.749999998952",
            "sendEnd" : 2,
            "receiveLast" : 173.749999998952,
            "receiveFirst" : 20,
            "type" : "image/png",
            "s_time" : 172.467000003962,
            "connectEnd" : 2,
            "sslStart" : -1
         },
         "url" : "http://original.testbed.localhost/www.liveeyewear.com/images/button_cocoons_clipons.png",
         "comps" : [],
         "when_comp_start" : -1
      },
      {
         "when_comp_start" : -1,
         "comps" : [],
         "url" : "http://original.testbed.localhost/www.liveeyewear.com/images/button_cocoons_goggles.png",
         "id" : "r23",
         "download" : {
            "receiveLast" : 173.777000004076,
            "receiveFirst" : 21,
            "receivedTime" : "211.777000004076",
            "id" : "download_39",
            "sendEnd" : 17,
            "sslStart" : -1,
            "connectEnd" : 17,
            "type" : "image/png",
            "s_time" : 173.070000004373,
            "receiveHeadersEnd" : 38,
            "sendStart" : 17,
            "dns" : 0,
            "len" : 7504,
            "dnsStart" : -1,
            "dnsEnd" : -1,
            "connectStart" : 0,
            "sslEnd" : -1
         }
      },
      {
         "url" : "http://original.testbed.localhost/www.liveeyewear.com/images/button_cocoons_sidekick.png",
         "comps" : [],
         "when_comp_start" : -1,
         "id" : "r24",
         "download" : {
            "sendEnd" : 19,
            "id" : "download_40",
            "receivedTime" : "213.900000002468",
            "receiveFirst" : 20,
            "receiveLast" : 174.900000002468,
            "s_time" : 173.541000003752,
            "type" : "image/png",
            "connectEnd" : 19,
            "sslStart" : -1,
            "sendStart" : 19,
            "dns" : 0,
            "len" : 7084,
            "receiveHeadersEnd" : 39,
            "sslEnd" : -1,
            "connectStart" : 0,
            "dnsEnd" : -1,
            "dnsStart" : -1
         }
      },
      {
         "when_comp_start" : -1,
         "comps" : [],
         "url" : "http://original.testbed.localhost/www.liveeyewear.com/images/overx_banner.png",
         "download" : {
            "sslStart" : -1,
            "connectEnd" : 19,
            "type" : "image/png",
            "s_time" : 174.08499999874,
            "receiveLast" : 175.249000004202,
            "receiveFirst" : 20,
            "id" : "download_41",
            "receivedTime" : "214.249000004202",
            "sendEnd" : 19,
            "dnsStart" : -1,
            "dnsEnd" : -1,
            "connectStart" : 0,
            "sslEnd" : -1,
            "receiveHeadersEnd" : 39,
            "dns" : 0,
            "sendStart" : 19,
            "len" : 5553
         },
         "id" : "r25"
      },
      {
         "download" : {
            "dnsStart" : -1,
            "dnsEnd" : -1,
            "sslEnd" : -1,
            "connectStart" : 0,
            "receiveHeadersEnd" : 40,
            "sendStart" : 19,
            "dns" : 0,
            "len" : 1956,
            "sslStart" : -1,
            "connectEnd" : 19,
            "s_time" : 174.336000003677,
            "type" : "image/png",
            "receiveLast" : 174.861000000383,
            "receiveFirst" : 21,
            "sendEnd" : 19,
            "receivedTime" : "214.861000000383",
            "id" : "download_42"
         },
         "id" : "r26",
         "when_comp_start" : -1,
         "comps" : [],
         "url" : "http://original.testbed.localhost/www.liveeyewear.com/images/best_sunglass.png"
      },
      {
         "comps" : [],
         "url" : "http://original.testbed.localhost/www.liveeyewear.com/images/copyright.png",
         "when_comp_start" : -1,
         "download" : {
            "dnsEnd" : -1,
            "dnsStart" : -1,
            "connectStart" : 0,
            "sslEnd" : -1,
            "receiveHeadersEnd" : 24,
            "sendStart" : 4,
            "dns" : 0,
            "len" : 973,
            "type" : "image/png",
            "s_time" : 190.965000001597,
            "connectEnd" : 4,
            "sslStart" : -1,
            "id" : "download_43",
            "receivedTime" : "215.906999997969",
            "sendEnd" : 4,
            "receiveLast" : 191.906999997969,
            "receiveFirst" : 20
         },
         "id" : "r27"
      },
      {
         "comps" : [],
         "when_comp_start" : -1,
         "url" : "http://original.testbed.localhost/www.liveeyewear.com/images/facebook_icon.png",
         "download" : {
            "connectStart" : 0,
            "sslEnd" : -1,
            "dnsEnd" : -1,
            "dnsStart" : -1,
            "sendStart" : 2,
            "len" : 3117,
            "dns" : 0,
            "receiveHeadersEnd" : 23,
            "sslStart" : -1,
            "connectEnd" : 2,
            "type" : "image/png",
            "s_time" : 193.120000003546,
            "receiveFirst" : 21,
            "receiveLast" : 193.65899999789,
            "receivedTime" : "216.65899999789",
            "id" : "download_44",
            "sendEnd" : 2
         },
         "id" : "r28"
      },
      {
         "id" : "r48",
         "download" : {
            "s_time" : 193.822000001092,
            "type" : "image/jpeg",
            "sslStart" : -1,
            "connectEnd" : 17,
            "sendEnd" : 17,
            "id" : "download_45",
            "receivedTime" : "232.385000002978",
            "receiveFirst" : 21,
            "receiveLast" : 194.385000002978,
            "sslEnd" : -1,
            "connectStart" : 0,
            "dnsEnd" : -1,
            "dnsStart" : -1,
            "sendStart" : 17,
            "dns" : 0,
            "len" : 28244,
            "receiveHeadersEnd" : 38
         },
         "when_comp_start" : -1,
         "comps" : [],
         "url" : "http://original.testbed.localhost/www.liveeyewear.com/images/background.jpg"
      },
      {
         "id" : "r49",
         "download" : {
            "receiveLast" : 195.169000003021,
            "receiveFirst" : 20,
            "receivedTime" : "234.169000003021",
            "id" : "download_46",
            "sendEnd" : 19,
            "connectEnd" : 19,
            "sslStart" : -1,
            "type" : "image/gif",
            "s_time" : 194.55900000321,
            "receiveHeadersEnd" : 39,
            "sendStart" : 19,
            "len" : 516,
            "dns" : 0,
            "dnsStart" : -1,
            "dnsEnd" : -1,
            "connectStart" : 0,
            "sslEnd" : -1
         },
         "comps" : [],
         "url" : "http://original.testbed.localhost/www.liveeyewear.com/images/leftnav_divider.gif",
         "when_comp_start" : -1
      },
      {
         "when_comp_start" : -1,
         "comps" : [],
         "url" : "http://original.testbed.localhost/www.liveeyewear.com/images/content_bg.png",
         "id" : "r50",
         "download" : {
            "receiveFirst" : 20,
            "receiveLast" : 196.573000001546,
            "sendEnd" : 18,
            "id" : "download_47",
            "receivedTime" : "234.573000001546",
            "connectEnd" : 18,
            "sslStart" : -1,
            "s_time" : 195.484000003489,
            "type" : "image/png",
            "sendStart" : 18,
            "dns" : 0,
            "len" : 1639,
            "receiveHeadersEnd" : 38,
            "sslEnd" : -1,
            "connectStart" : 0,
            "dnsStart" : -1,
            "dnsEnd" : -1
         }
      }
   ],
   "deps" : [
      {
         "time" : -1,
         "id" : "dep1",
         "a2" : "r1_c2",
         "a1" : "comp_6"
      },
      {
         "a1" : "comp_11",
         "id" : "dep2",
         "time" : -1,
         "a2" : "r1_c3"
      },
      {
         "a2" : "r1_c4",
         "id" : "dep3",
         "time" : -1,
         "a1" : "comp_13"
      },
      {
         "a1" : "comp_15",
         "id" : "dep4",
         "time" : -1,
         "a2" : "r1_c5"
      },
      {
         "a1" : "comp_17",
         "a2" : "r1_c6",
         "id" : "dep5",
         "time" : -1
      },
      {
         "a1" : "comp_19",
         "id" : "dep6",
         "time" : -1,
         "a2" : "r1_c7"
      },
      {
         "time" : -1,
         "id" : "dep7",
         "a2" : "comp_11",
         "a1" : "comp_6"
      },
      {
         "time" : -1,
         "id" : "dep8",
         "a2" : "comp_11",
         "a1" : "comp_5"
      },
      {
         "a1" : "comp_11",
         "a2" : "comp_13",
         "id" : "dep9",
         "time" : -1
      },
      {
         "time" : -1,
         "id" : "dep10",
         "a2" : "comp_15",
         "a1" : "comp_13"
      },
      {
         "a1" : "comp_15",
         "a2" : "comp_17",
         "id" : "dep11",
         "time" : -1
      },
      {
         "a1" : "comp_17",
         "a2" : "comp_19",
         "id" : "dep12",
         "time" : -1
      },
      {
         "a1" : "r1_c7",
         "a2" : "download_47",
         "time" : -1,
         "id" : "dep13"
      },
      {
         "a2" : "download_46",
         "time" : 107.777000004717,
         "id" : "dep14",
         "a1" : "r1_c7"
      },
      {
         "a2" : "download_45",
         "time" : 107.040000002599,
         "id" : "dep15",
         "a1" : "r1_c7"
      },
      {
         "a2" : "download_44",
         "time" : 106.338000005053,
         "id" : "dep16",
         "a1" : "r1_c7"
      },
      {
         "time" : 104.183000003104,
         "id" : "dep17",
         "a2" : "download_43",
         "a1" : "r1_c7"
      },
      {
         "a1" : "r1_c7",
         "time" : 87.5540000051839,
         "id" : "dep18",
         "a2" : "download_42"
      },
      {
         "time" : 87.3030000002469,
         "id" : "dep19",
         "a2" : "download_41",
         "a1" : "r1_c7"
      },
      {
         "a2" : "download_40",
         "id" : "dep20",
         "time" : 86.7590000052589,
         "a1" : "r1_c7"
      },
      {
         "id" : "dep21",
         "time" : 86.2880000058799,
         "a2" : "download_39",
         "a1" : "r1_c7"
      },
      {
         "id" : "dep22",
         "time" : 85.6850000054689,
         "a2" : "download_38",
         "a1" : "r1_c7"
      },
      {
         "id" : "dep23",
         "time" : 83.6240000062389,
         "a2" : "download_37",
         "a1" : "r1_c7"
      },
      {
         "a1" : "r1_c7",
         "a2" : "download_36",
         "time" : 66.4650000035179,
         "id" : "dep24"
      },
      {
         "a1" : "r1_c7",
         "time" : 66.2780000056959,
         "id" : "dep25",
         "a2" : "download_35"
      },
      {
         "a1" : "r1_c7",
         "a2" : "download_34",
         "time" : 65.9070000037899,
         "id" : "dep26"
      },
      {
         "id" : "dep27",
         "time" : 65.3590000001709,
         "a2" : "download_33",
         "a1" : "r1_c7"
      },
      {
         "a1" : "r1_c7",
         "time" : 64.5680000015999,
         "id" : "dep28",
         "a2" : "download_32"
      },
      {
         "time" : 62.7030000032389,
         "id" : "dep29",
         "a2" : "download_31",
         "a1" : "r1_c7"
      },
      {
         "id" : "dep30",
         "time" : 44.9550000048479,
         "a2" : "download_30",
         "a1" : "r1_c7"
      },
      {
         "a1" : "r1_c7",
         "a2" : "download_29",
         "time" : 44.7090000016029,
         "id" : "dep31"
      },
      {
         "a1" : "r1_c7",
         "id" : "dep32",
         "time" : 44.5540000000619,
         "a2" : "download_28"
      },
      {
         "a1" : "r1_c7",
         "time" : 44.0430000016929,
         "id" : "dep33",
         "a2" : "download_27"
      },
      {
         "a1" : "r1_c7",
         "a2" : "download_26",
         "time" : 41.7400000005729,
         "id" : "dep34"
      },
      {
         "a2" : "download_25",
         "time" : 22.7500000037249,
         "id" : "dep35",
         "a1" : "r1_c7"
      },
      {
         "a2" : "download_24",
         "time" : 43.5370000050169,
         "id" : "dep36",
         "a1" : "r1_c7"
      },
      {
         "a2" : "download_23",
         "time" : 22.5449999998089,
         "id" : "dep37",
         "a1" : "r1_c7"
      },
      {
         "a1" : "r1_c7",
         "id" : "dep38",
         "time" : 22.3380000024919,
         "a2" : "download_22"
      },
      {
         "a1" : "r1_c7",
         "id" : "dep39",
         "time" : 22.0900000058459,
         "a2" : "download_21"
      },
      {
         "a1" : "r1_c7",
         "id" : "dep40",
         "time" : 21.5700000044309,
         "a2" : "download_20"
      },
      {
         "id" : "dep41",
         "time" : 21.2250000040509,
         "a2" : "download_19",
         "a1" : "r1_c7"
      },
      {
         "a2" : "download_18",
         "id" : "dep42",
         "time" : -1,
         "a1" : "r1_c5"
      },
      {
         "a1" : "r1_c4",
         "time" : -1,
         "id" : "dep43",
         "a2" : "download_17"
      },
      {
         "a2" : "download_16",
         "time" : 0.655000003462206,
         "id" : "dep44",
         "a1" : "r1_c4"
      },
      {
         "time" : 0.534000006155097,
         "id" : "dep45",
         "a2" : "download_15",
         "a1" : "r1_c4"
      },
      {
         "a1" : "r1_c4",
         "time" : 0.425000005634502,
         "id" : "dep46",
         "a2" : "download_14"
      },
      {
         "id" : "dep47",
         "time" : 0.289000003249399,
         "a2" : "download_13",
         "a1" : "r1_c4"
      },
      {
         "id" : "dep48",
         "time" : 0.156000001879903,
         "a2" : "download_12",
         "a1" : "r1_c4"
      },
      {
         "id" : "dep49",
         "time" : 0.0419999996666007,
         "a2" : "download_11",
         "a1" : "r1_c4"
      },
      {
         "a2" : "download_10",
         "id" : "dep50",
         "time" : -1,
         "a1" : "r1_c3"
      },
      {
         "a1" : "r1_c4",
         "a2" : "download_9",
         "time" : 0.0189999991561933,
         "id" : "dep51"
      },
      {
         "a2" : "download_8",
         "id" : "dep52",
         "time" : -1,
         "a1" : "r1_c1"
      },
      {
         "a1" : "r1_c1",
         "a2" : "download_8",
         "id" : "dep53",
         "time" : 1.4169999994919
      },
      {
         "a1" : "r1_c1",
         "id" : "dep54",
         "time" : 1.34700000489831,
         "a2" : "download_7"
      },
      {
         "a2" : "download_7",
         "id" : "dep55",
         "time" : 1.34700000489831,
         "a1" : "r1_c1"
      },
      {
         "a1" : "r1_c1",
         "a2" : "download_6",
         "id" : "dep56",
         "time" : 1.2249999999767
      },
      {
         "a1" : "r1_c1",
         "id" : "dep57",
         "time" : 1.2249999999767,
         "a2" : "download_6"
      },
      {
         "id" : "dep58",
         "time" : 1.2130000031902,
         "a2" : "download_5",
         "a1" : "r1_c1"
      },
      {
         "a1" : "r1_c1",
         "time" : 1.2130000031902,
         "id" : "dep59",
         "a2" : "download_5"
      },
      {
         "id" : "dep60",
         "time" : 1.03800000215411,
         "a2" : "download_4",
         "a1" : "r1_c1"
      },
      {
         "a2" : "download_4",
         "time" : 1.03800000215411,
         "id" : "dep61",
         "a1" : "r1_c1"
      },
      {
         "a2" : "download_3",
         "time" : 0.928000001295004,
         "id" : "dep62",
         "a1" : "r1_c1"
      },
      {
         "a1" : "r1_c1",
         "a2" : "download_3",
         "time" : 0.928000001295004,
         "id" : "dep63"
      },
      {
         "a1" : "r1_c1",
         "id" : "dep64",
         "time" : 0.750999999581801,
         "a2" : "download_2"
      },
      {
         "id" : "dep65",
         "time" : 0.812999998743102,
         "a2" : "download_1",
         "a1" : "r1_c1"
      },
      {
         "a1" : "r1_c1",
         "id" : "dep66",
         "time" : 0.812999998743102,
         "a2" : "download_1"
      }
   ],
   "start_activity" : "download_0"
}
