{
   "objs" : [
      {
         "id" : "r1",
         "when_comp_start" : 1,
         "comps" : [
            {
               "e_time" : 592.340000002878,
               "time" : 551.664999999048,
               "type" : "evalhtml",
               "s_time" : 40.6750000038301,
               "id" : "r1_c1"
            }
         ],
         "download" : {
            "len" : 212940,
            "s_time" : 0,
            "dns" : 0,
            "sslStart" : -1,
            "type" : "text/html",
            "dnsEnd" : -1,
            "connectStart" : 0,
            "receivedTime" : "65.1270000016666",
            "receiveLast" : 40.1270000016666,
            "receiveFirst" : 25,
            "receiveHeadersEnd" : 25,
            "id" : "download_0",
            "sslEnd" : -1,
            "sendStart" : 0,
            "sendEnd" : 0,
            "dnsStart" : -1,
            "connectEnd" : 0
         },
         "url" : "http://original.testbed.localhost/www.tmall.com/"
      },
      {
         "download" : {
            "dnsEnd" : -1,
            "connectStart" : 0,
            "type" : "text/css",
            "receivedTime" : "107.434000005014",
            "len" : 128396,
            "dns" : 0,
            "sslStart" : -1,
            "s_time" : 41.5720000019064,
            "sendEnd" : 0,
            "sendStart" : 0,
            "connectEnd" : 0,
            "dnsStart" : -1,
            "receiveHeadersEnd" : 24,
            "receiveFirst" : 24,
            "receiveLast" : 83.4340000050142,
            "sslEnd" : -1,
            "id" : "download_1"
         },
         "id" : "r2",
         "comps" : [
            {
               "id" : "comp_12",
               "s_time" : 107.476000004681,
               "e_time" : 265.165000004345,
               "time" : 157.688999999664,
               "type" : 4
            }
         ],
         "when_comp_start" : -1,
         "url" : "http://original.testbed.localhost/g.alicdn.com/index.html%3F%3Fmui%252Fglobal%252F3.0.15%252Fglobal.css,zebra-pages%252Ffp5%252F5.1.3%252Fpc%252Fcss%252Findex.css"
      },
      {
         "id" : "r3",
         "when_comp_start" : -1,
         "comps" : [],
         "download" : {
            "id" : "download_2",
            "sslEnd" : -1,
            "receiveLast" : 43.7080000021379,
            "receiveHeadersEnd" : 41,
            "receiveFirst" : 21,
            "dnsStart" : 0,
            "connectEnd" : 20,
            "sendEnd" : 20,
            "sendStart" : 20,
            "s_time" : 41.7569999990519,
            "dns" : 0,
            "sslStart" : -1,
            "len" : 367047,
            "receivedTime" : "84.7080000021379",
            "type" : "text/plain",
            "dnsEnd" : 0,
            "connectStart" : 0
         },
         "url" : "http://original.testbed.localhost/g.alicdn.com/index.html%3F%3Fkissy%252Fk%252F1.4.14%252Fseed-min.js,mui%252Fglobal%252F3.0.15%252Fglobal-pc.js,mui%252Fglobal%252F3.0.15%252Fglobal.js,mui%252Fglobalmodule%252F3.0.56%252Fseed.js,mui%252Fbtscfg-g%252F3.0.0%252Findex.js,mui%252Fbucket%252F3.0.4%252Fin"
      },
      {
         "download" : {
            "type" : "image/png",
            "dnsEnd" : 0,
            "connectStart" : 0,
            "receivedTime" : "84.4629999992321",
            "len" : 2592,
            "s_time" : 43.3740000007674,
            "sslStart" : -1,
            "dns" : 0,
            "sendStart" : 20,
            "sendEnd" : 20,
            "dnsStart" : 0,
            "connectEnd" : 20,
            "receiveLast" : 44.4629999992321,
            "receiveFirst" : 20,
            "receiveHeadersEnd" : 40,
            "id" : "download_3",
            "sslEnd" : -1
         },
         "when_comp_start" : -1,
         "comps" : [],
         "id" : "r5",
         "url" : "http://original.testbed.localhost/img.alicdn.com/tps/i2/TB1xgT8LVXXXXaZXFXX8ueZHFXX-180-72.png"
      },
      {
         "url" : "http://original.testbed.localhost/g.alicdn.com/secdev/pointman/js/index.js",
         "when_comp_start" : -1,
         "comps" : [],
         "id" : "r4",
         "download" : {
            "receiveLast" : 44.3630000056,
            "receiveHeadersEnd" : 41,
            "receiveFirst" : 21,
            "id" : "download_4",
            "sslEnd" : -1,
            "sendEnd" : 20,
            "sendStart" : 20,
            "dnsStart" : 0,
            "connectEnd" : 20,
            "len" : 9160,
            "s_time" : 43.217000005825,
            "sslStart" : -1,
            "dns" : 0,
            "type" : "application/javascript",
            "connectStart" : 0,
            "dnsEnd" : 0,
            "receivedTime" : "85.3630000056"
         }
      },
      {
         "url" : "http://original.testbed.localhost/img.alicdn.com/tps/i3/TB1.560LVXXXXb7XVXX8ueZHFXX-180-72.png",
         "download" : {
            "sslStart" : -1,
            "dns" : 0,
            "s_time" : 85.1929999989807,
            "len" : 2881,
            "receivedTime" : "265.236999999615",
            "dnsEnd" : -1,
            "connectStart" : 0,
            "type" : "image/png",
            "sslEnd" : -1,
            "id" : "download_5",
            "receiveHeadersEnd" : 21,
            "receiveFirst" : 21,
            "receiveLast" : 244.236999999615,
            "connectEnd" : 0,
            "dnsStart" : -1,
            "sendEnd" : 0,
            "sendStart" : 0
         },
         "comps" : [],
         "when_comp_start" : -1,
         "id" : "r6"
      },
      {
         "url" : "http://original.testbed.localhost/img.alicdn.com/tps/TB1eREfLVXXXXaHXFXXXXXXXXXX-480-260.png",
         "id" : "r7",
         "when_comp_start" : -1,
         "comps" : [],
         "download" : {
            "s_time" : 105.743000000075,
            "sslStart" : -1,
            "dns" : 0,
            "len" : 4430,
            "receivedTime" : "294.373000004271",
            "type" : "image/png",
            "connectStart" : 0,
            "dnsEnd" : -1,
            "id" : "download_6",
            "sslEnd" : -1,
            "receiveLast" : 274.373000004271,
            "receiveHeadersEnd" : 20,
            "receiveFirst" : 20,
            "dnsStart" : -1,
            "connectEnd" : 0,
            "sendEnd" : 0,
            "sendStart" : 0
         }
      },
      {
         "comps" : [],
         "when_comp_start" : -1,
         "id" : "r17",
         "download" : {
            "receiveHeadersEnd" : 21,
            "receiveFirst" : 21,
            "receiveLast" : 573.842000005883,
            "sslEnd" : -1,
            "id" : "download_7",
            "sendEnd" : 0,
            "sendStart" : 0,
            "connectEnd" : 0,
            "dnsStart" : -1,
            "len" : 7827,
            "sslStart" : -1,
            "dns" : 0,
            "s_time" : 311.842000002798,
            "dnsEnd" : -1,
            "connectStart" : 0,
            "type" : "image/gif",
            "receivedTime" : "594.842000005883"
         },
         "url" : "http://original.testbed.localhost/img.alicdn.com/tps/i1/TB1Q4fJFVXXXXXiXFXXJgUmHVXX-184-38.gif"
      },
      {
         "url" : "http://original.testbed.localhost/gtms03.alicdn.com/tps/i3/TB1qaIdKXXXXXXHXVXXBOphYpXX-1945-178.png",
         "id" : "r18",
         "comps" : [],
         "when_comp_start" : -1,
         "download" : {
            "len" : 11512,
            "s_time" : 312.427000004391,
            "sslStart" : -1,
            "dns" : 0,
            "type" : "image/png",
            "dnsEnd" : -1,
            "connectStart" : 0,
            "receivedTime" : "595.057999998971",
            "receiveLast" : 575.057999998971,
            "receiveHeadersEnd" : 20,
            "receiveFirst" : 20,
            "id" : "download_8",
            "sslEnd" : -1,
            "sendEnd" : 0,
            "sendStart" : 0,
            "dnsStart" : -1,
            "connectEnd" : 0
         }
      },
      {
         "id" : "r11",
         "when_comp_start" : -1,
         "comps" : [],
         "download" : {
            "dnsStart" : -1,
            "connectEnd" : 0,
            "sendEnd" : 0,
            "sendStart" : 0,
            "id" : "download_9",
            "sslEnd" : -1,
            "receiveLast" : 602.984000005294,
            "receiveHeadersEnd" : 21,
            "receiveFirst" : 21,
            "receivedTime" : "623.984000005294",
            "type" : "application/x-font-woff",
            "connectStart" : 0,
            "dnsEnd" : -1,
            "s_time" : 592.340000002878,
            "sslStart" : -1,
            "dns" : 0,
            "len" : 22940
         },
         "url" : "http://original.testbed.localhost/at.alicdn.com/t/font_1460528889_0546324.woff"
      },
      {
         "id" : "r8",
         "when_comp_start" : -1,
         "comps" : [],
         "download" : {
            "receiveFirst" : 21,
            "receiveHeadersEnd" : 21,
            "receiveLast" : 603.651000005542,
            "sslEnd" : -1,
            "id" : "download_10",
            "sendStart" : 0,
            "sendEnd" : 0,
            "connectEnd" : 0,
            "dnsStart" : -1,
            "len" : 4536,
            "sslStart" : -1,
            "dns" : 0,
            "s_time" : 592.152000004717,
            "connectStart" : 0,
            "dnsEnd" : -1,
            "type" : "application/x-font-woff",
            "receivedTime" : "624.651000005542"
         },
         "url" : "http://original.testbed.localhost/at.alicdn.com/t/font_1401963178_8135476.woff"
      }
   ],
   "deps" : [
      {
         "a2" : "download_10",
         "a1" : "r1_c1",
         "id" : "dep1",
         "time" : 551.477000000887
      },
      {
         "time" : -1,
         "a1" : "r1_c1",
         "a2" : "download_9",
         "id" : "dep2"
      },
      {
         "id" : "dep3",
         "a1" : "r1_c1",
         "a2" : "download_8",
         "time" : 271.752000000561
      },
      {
         "time" : 271.166999998968,
         "a2" : "download_7",
         "a1" : "r1_c1",
         "id" : "dep4"
      },
      {
         "time" : 65.0679999962449,
         "id" : "dep5",
         "a1" : "r1_c1",
         "a2" : "download_6"
      },
      {
         "time" : 44.5179999951506,
         "id" : "dep6",
         "a2" : "download_5",
         "a1" : "r1_c1"
      },
      {
         "a2" : "download_4",
         "a1" : "r1_c1",
         "id" : "dep7",
         "time" : 2.5420000019949
      },
      {
         "a2" : "download_4",
         "a1" : "r1_c1",
         "id" : "dep8",
         "time" : 2.5420000019949
      },
      {
         "time" : 2.6989999969373,
         "a2" : "download_3",
         "a1" : "r1_c1",
         "id" : "dep9"
      },
      {
         "a2" : "download_3",
         "a1" : "r1_c1",
         "id" : "dep10",
         "time" : 2.6989999969373
      },
      {
         "id" : "dep11",
         "a2" : "download_2",
         "a1" : "r1_c1",
         "time" : 1.0819999952218
      },
      {
         "id" : "dep12",
         "a2" : "download_1",
         "a1" : "r1_c1",
         "time" : 0.896999998076303
      }
   ],
   "name" : "original.testbed.localhost_www.tmall.com_",
   "n_download_no_trigger" : 1,
   "load_activity" : -1,
   "start_activity" : "download_0"
}
