{
   "deps" : [
      {
         "a2" : "r1_c2",
         "a1" : "comp_6",
         "id" : "dep1",
         "time" : -1
      },
      {
         "a2" : "r1_c3",
         "id" : "dep2",
         "a1" : "comp_11",
         "time" : -1
      },
      {
         "id" : "dep3",
         "a1" : "comp_15",
         "a2" : "r1_c4",
         "time" : -1
      },
      {
         "time" : -1,
         "id" : "dep4",
         "a1" : "comp_17",
         "a2" : "r1_c5"
      },
      {
         "id" : "dep5",
         "a1" : "comp_19",
         "a2" : "r1_c6",
         "time" : -1
      },
      {
         "a1" : "comp_21",
         "id" : "dep6",
         "a2" : "r1_c7",
         "time" : -1
      },
      {
         "time" : -1,
         "a2" : "r1_c8",
         "id" : "dep7",
         "a1" : "comp_23"
      },
      {
         "time" : -1,
         "a2" : "comp_6",
         "id" : "dep8",
         "a1" : "comp_5"
      },
      {
         "a2" : "comp_11",
         "a1" : "comp_6",
         "id" : "dep9",
         "time" : -1
      },
      {
         "time" : -1,
         "a2" : "comp_17",
         "a1" : "comp_15",
         "id" : "dep10"
      },
      {
         "time" : -1,
         "a2" : "comp_19",
         "a1" : "comp_17",
         "id" : "dep11"
      },
      {
         "time" : -1,
         "a2" : "comp_21",
         "a1" : "comp_19",
         "id" : "dep12"
      },
      {
         "a2" : "comp_23",
         "a1" : "comp_21",
         "id" : "dep13",
         "time" : -1
      },
      {
         "time" : 412.007999999333,
         "a2" : "download_15",
         "a1" : "r1_c8",
         "id" : "dep14"
      },
      {
         "time" : 414.6369999944,
         "a2" : "download_14",
         "a1" : "r1_c8",
         "id" : "dep15"
      },
      {
         "time" : 162.833999995201,
         "a2" : "download_13",
         "a1" : "r1_c8",
         "id" : "dep16"
      },
      {
         "time" : 123.618999998144,
         "a1" : "r1_c8",
         "id" : "dep17",
         "a2" : "download_12"
      },
      {
         "time" : -1,
         "a1" : "r1_c1",
         "id" : "dep18",
         "a2" : "download_10"
      },
      {
         "time" : 1.406000003044,
         "a2" : "download_9",
         "id" : "dep19",
         "a1" : "r1_c1"
      },
      {
         "a2" : "download_9",
         "id" : "dep20",
         "a1" : "r1_c1",
         "time" : 1.406000003044
      },
      {
         "time" : 1.2990000032005,
         "a1" : "r1_c1",
         "id" : "dep21",
         "a2" : "download_8"
      },
      {
         "time" : 1.2990000032005,
         "id" : "dep22",
         "a1" : "r1_c1",
         "a2" : "download_8"
      },
      {
         "time" : 1.33900000219,
         "a2" : "download_7",
         "id" : "dep23",
         "a1" : "r1_c1"
      },
      {
         "a2" : "download_7",
         "id" : "dep24",
         "a1" : "r1_c1",
         "time" : 1.33900000219
      },
      {
         "a2" : "download_6",
         "a1" : "r1_c1",
         "id" : "dep25",
         "time" : 2.6579999976093
      },
      {
         "time" : 1.1900000026799,
         "a1" : "r1_c1",
         "id" : "dep26",
         "a2" : "download_5"
      },
      {
         "a1" : "r1_c1",
         "id" : "dep27",
         "a2" : "download_5",
         "time" : 1.1900000026799
      },
      {
         "a2" : "download_4",
         "id" : "dep28",
         "a1" : "r1_c1",
         "time" : 1.1240000021644
      },
      {
         "time" : 1.1240000021644,
         "a1" : "r1_c1",
         "id" : "dep29",
         "a2" : "download_4"
      },
      {
         "a2" : "download_3",
         "id" : "dep30",
         "a1" : "r1_c1",
         "time" : 0.877999998920103
      },
      {
         "a1" : "r1_c1",
         "id" : "dep31",
         "a2" : "download_3",
         "time" : 0.877999998920103
      },
      {
         "time" : 0.685999999404899,
         "a1" : "r1_c1",
         "id" : "dep32",
         "a2" : "download_2"
      },
      {
         "a2" : "download_1",
         "a1" : "r1_c1",
         "id" : "dep33",
         "time" : 0.299999999697299
      }
   ],
   "n_download_no_trigger" : 2,
   "start_activity" : "download_0",
   "objs" : [
      {
         "id" : "r1",
         "comps" : [
            {
               "s_time" : 41.8009999993956,
               "time" : 73.4220000013014,
               "type" : "evalhtml",
               "id" : "r1_c1",
               "e_time" : 115.223000000697
            },
            {
               "time" : -37469887.676,
               "s_time" : 127.982999998494,
               "e_time" : -37469759.693,
               "type" : "evalhtml",
               "id" : "r1_c2"
            },
            {
               "s_time" : 151.767000003019,
               "time" : -37469911.46,
               "id" : "r1_c3",
               "type" : "evalhtml",
               "e_time" : -37469759.693
            },
            {
               "s_time" : 153.304999999818,
               "time" : -37469912.998,
               "type" : "evalhtml",
               "id" : "r1_c4",
               "e_time" : -37469759.693
            },
            {
               "s_time" : 157.955000002403,
               "time" : -37469917.648,
               "id" : "r1_c5",
               "type" : "evalhtml",
               "e_time" : -37469759.693
            },
            {
               "s_time" : 159.16599999764,
               "time" : -37469918.859,
               "type" : "evalhtml",
               "id" : "r1_c6",
               "e_time" : -37469759.693
            },
            {
               "s_time" : 160.048999998253,
               "time" : -37469919.742,
               "id" : "r1_c7",
               "type" : "evalhtml",
               "e_time" : -37469759.693
            },
            {
               "e_time" : 1350.27000000264,
               "id" : "r1_c8",
               "type" : "evalhtml",
               "time" : 1184.49200000032,
               "s_time" : 165.778000002319
            }
         ],
         "when_comp_start" : 1,
         "download" : {
            "sendStart" : 0,
            "s_time" : 0,
            "receiveFirst" : 25,
            "sslStart" : -1,
            "receivedTime" : "50.4599999985658",
            "type" : "text/html",
            "sslEnd" : -1,
            "receiveLast" : 25.4599999985658,
            "sendEnd" : 0,
            "receiveHeadersEnd" : 25,
            "dns" : 0,
            "dnsStart" : -1,
            "len" : 247188,
            "connectEnd" : 0,
            "id" : "download_0",
            "dnsEnd" : -1,
            "connectStart" : 0
         },
         "url" : "http://modified.testbed.localhost/www.politico.com/"
      },
      {
         "when_comp_start" : -1,
         "comps" : [
            {
               "e_time" : 128.060000002733,
               "type" : 4,
               "id" : "comp_5",
               "time" : 35.2050000001323,
               "s_time" : 92.8550000026007
            }
         ],
         "id" : "r2",
         "url" : "http://modified.testbed.localhost/static.politico.com/resource/assets/css/style-core.min.3df408549bd3993a869d98c6eb3c8c56.gz.css",
         "download" : {
            "len" : 288127,
            "dnsStart" : -1,
            "receiveHeadersEnd" : 27,
            "dns" : 0,
            "sendEnd" : 0,
            "connectStart" : 0,
            "dnsEnd" : -1,
            "id" : "download_1",
            "connectEnd" : 0,
            "receiveFirst" : 27,
            "s_time" : 42.1009999990929,
            "sendStart" : 0,
            "receiveLast" : 65.8050000002258,
            "sslEnd" : -1,
            "type" : "text/css",
            "sslStart" : -1,
            "receivedTime" : "92.8050000002258"
         }
      },
      {
         "download" : {
            "sendEnd" : 7,
            "len" : 9469,
            "dns" : 0,
            "dnsStart" : -1,
            "receiveHeadersEnd" : 28,
            "connectStart" : 0,
            "connectEnd" : 7,
            "id" : "download_2",
            "dnsEnd" : -1,
            "sendStart" : 7,
            "receiveFirst" : 21,
            "s_time" : 42.4869999988005,
            "sslEnd" : -1,
            "receiveLast" : 43.3279999981751,
            "receivedTime" : "71.3279999981751",
            "sslStart" : -1,
            "type" : "application/javascript"
         },
         "url" : "http://modified.testbed.localhost/static.politico.com/resource/js/website/shared/libraries/modernizr-2.8.3.min.eb9167fd3c12f05553135ffda5fcd108.gz.js",
         "id" : "r3",
         "comps" : [
            {
               "type" : 1,
               "id" : "comp_6",
               "e_time" : 127.982999998494,
               "s_time" : 111.753999997745,
               "time" : 16.229000000749
            }
         ],
         "when_comp_start" : -1
      },
      {
         "url" : "http://modified.testbed.localhost/static.politico.com/resource/assets/js.min/preload.36b22fd627f803fa1207e5c1431521a8.gz.js",
         "download" : {
            "dns" : 0,
            "receiveHeadersEnd" : 43,
            "dnsStart" : 1,
            "len" : 8254,
            "sendEnd" : 21,
            "id" : "download_3",
            "connectEnd" : 21,
            "dnsEnd" : 1,
            "connectStart" : 0,
            "s_time" : 42.6789999983157,
            "receiveFirst" : 22,
            "sendStart" : 21,
            "sslStart" : -1,
            "receivedTime" : "87.3910000009346",
            "type" : "application/javascript",
            "sslEnd" : -1,
            "receiveLast" : 44.3910000009346
         },
         "when_comp_start" : -1,
         "comps" : [
            {
               "s_time" : 151.983000003383,
               "time" : 1.32199999643498,
               "type" : 1,
               "id" : "comp_15",
               "e_time" : 153.304999999818
            }
         ],
         "id" : "r5"
      },
      {
         "id" : "r6",
         "when_comp_start" : -1,
         "comps" : [
            {
               "time" : 4.58000000071502,
               "s_time" : 153.375000001688,
               "e_time" : 157.955000002403,
               "type" : 1,
               "id" : "comp_17"
            }
         ],
         "download" : {
            "len" : 12493,
            "dns" : 0,
            "dnsStart" : 1,
            "receiveHeadersEnd" : 43,
            "sendEnd" : 21,
            "connectStart" : 0,
            "connectEnd" : 21,
            "id" : "download_4",
            "dnsEnd" : 1,
            "receiveFirst" : 22,
            "s_time" : 42.92500000156,
            "sendStart" : 21,
            "sslEnd" : -1,
            "receiveLast" : 49.4660000018775,
            "receivedTime" : "92.4660000018775",
            "sslStart" : -1,
            "type" : "application/javascript"
         },
         "url" : "http://modified.testbed.localhost/static.politico.com/resource/js/website/shared/libraries/jquery.extra.fbf31263f39294c52d3a5cc6a2f6b309.gz.js"
      },
      {
         "id" : "r7",
         "comps" : [
            {
               "e_time" : 159.16599999764,
               "id" : "comp_19",
               "type" : 1,
               "time" : 1.14200000098199,
               "s_time" : 158.023999996658
            }
         ],
         "when_comp_start" : -1,
         "download" : {
            "connectStart" : 0,
            "dnsEnd" : 1,
            "id" : "download_5",
            "connectEnd" : 21,
            "len" : 7927,
            "dnsStart" : 1,
            "dns" : 0,
            "receiveHeadersEnd" : 43,
            "sendEnd" : 21,
            "receiveLast" : 49.5219999990077,
            "sslEnd" : -1,
            "type" : "application/javascript",
            "receivedTime" : "92.5219999990077",
            "sslStart" : -1,
            "receiveFirst" : 22,
            "s_time" : 42.9910000020755,
            "sendStart" : 21
         },
         "url" : "http://modified.testbed.localhost/static.politico.com/resource/js/website/shared/libraries/popup.26b0ff7e738340d74b9af4387fb60a39.gz.js"
      },
      {
         "url" : "http://modified.testbed.localhost/ajax.googleapis.com/ajax/libs/jquery/1.11.0/jquery.min.js",
         "download" : {
            "sendStart" : 21,
            "s_time" : 44.4589999970049,
            "receiveFirst" : 24,
            "receivedTime" : "129.637999998522",
            "sslStart" : -1,
            "type" : "application/javascript",
            "sslEnd" : -1,
            "receiveLast" : 84.637999998522,
            "sendEnd" : 21,
            "receiveHeadersEnd" : 45,
            "dns" : 0,
            "dnsStart" : 1,
            "len" : 96381,
            "id" : "download_6",
            "connectEnd" : 21,
            "dnsEnd" : 1,
            "connectStart" : 0
         },
         "when_comp_start" : -1,
         "comps" : [
            {
               "e_time" : 151.767000003019,
               "id" : "comp_11",
               "type" : 1,
               "time" : 22.090000005846,
               "s_time" : 129.676999997173
            }
         ],
         "id" : "r4"
      },
      {
         "download" : {
            "s_time" : 43.1400000015856,
            "receiveFirst" : 20,
            "sendStart" : 28,
            "sslStart" : -1,
            "receivedTime" : "128.201999999874",
            "type" : "application/javascript",
            "sslEnd" : -1,
            "receiveLast" : 80.2019999998738,
            "dnsStart" : -1,
            "dns" : 0,
            "receiveHeadersEnd" : 48,
            "len" : 10332,
            "sendEnd" : 28,
            "connectEnd" : 28,
            "id" : "download_7",
            "dnsEnd" : -1,
            "connectStart" : 0
         },
         "url" : "http://modified.testbed.localhost/static.politico.com/resource/js/website/shared/libraries/jquery-frame.5615a3ab20f3da69329acb3fcb5d8d15.gz.js",
         "id" : "r8",
         "comps" : [
            {
               "type" : 1,
               "id" : "comp_21",
               "e_time" : 160.048999998253,
               "s_time" : 159.204000003228,
               "time" : 0.844999995025006
            }
         ],
         "when_comp_start" : -1
      },
      {
         "when_comp_start" : -1,
         "comps" : [
            {
               "time" : 5.69100000575401,
               "s_time" : 160.086999996565,
               "e_time" : 165.778000002319,
               "type" : 1,
               "id" : "comp_23"
            }
         ],
         "id" : "r9",
         "url" : "http://modified.testbed.localhost/tk.politico.com/zmr6qqx.js",
         "download" : {
            "sendEnd" : 44,
            "receiveHeadersEnd" : 65,
            "dnsStart" : -1,
            "dns" : 0,
            "len" : 21415,
            "dnsEnd" : -1,
            "id" : "download_8",
            "connectEnd" : 44,
            "connectStart" : 0,
            "sendStart" : 44,
            "s_time" : 43.1000000025961,
            "receiveFirst" : 21,
            "type" : "application/javascript",
            "receivedTime" : "129.568999996991",
            "sslStart" : -1,
            "receiveLast" : 64.5689999969909,
            "sslEnd" : -1
         }
      },
      {
         "id" : "r10",
         "when_comp_start" : -1,
         "comps" : [],
         "download" : {
            "s_time" : 43.2070000024396,
            "receiveFirst" : 24,
            "sendStart" : 44,
            "sslStart" : -1,
            "receivedTime" : "199.199000002409",
            "type" : "application/javascript",
            "sslEnd" : -1,
            "receiveLast" : 131.199000002409,
            "dns" : 0,
            "receiveHeadersEnd" : 68,
            "dnsStart" : -1,
            "len" : 387897,
            "sendEnd" : 44,
            "connectEnd" : 44,
            "id" : "download_9",
            "dnsEnd" : -1,
            "connectStart" : 0
         },
         "url" : "http://modified.testbed.localhost/s7.addthis.com/js/300/addthis_widget.js#pubid=politico.com"
      },
      {
         "url" : "http://modified.testbed.localhost/static.politico.com/resource/images/website/shared/template/bg-noise.24d18bcf9d414e030c36ffd7f30648e8.jpg",
         "download" : {
            "receiveLast" : 150.877999997174,
            "sslEnd" : -1,
            "type" : "image/jpeg",
            "receivedTime" : "170.877999997174",
            "sslStart" : -1,
            "receiveFirst" : 20,
            "s_time" : 115.223000000697,
            "sendStart" : 0,
            "connectStart" : 0,
            "dnsEnd" : -1,
            "connectEnd" : 0,
            "id" : "download_10",
            "len" : 2033,
            "dnsStart" : -1,
            "dns" : 0,
            "receiveHeadersEnd" : 20,
            "sendEnd" : 0
         },
         "comps" : [],
         "when_comp_start" : -1,
         "id" : "r17"
      },
      {
         "download" : {
            "sendEnd" : 0,
            "dnsStart" : -1,
            "dns" : 0,
            "receiveHeadersEnd" : 22,
            "len" : 62293,
            "id" : "download_12",
            "connectEnd" : 0,
            "dnsEnd" : -1,
            "connectStart" : 0,
            "sendStart" : 0,
            "s_time" : 289.397000000463,
            "receiveFirst" : 22,
            "receivedTime" : "578.550999998697",
            "sslStart" : -1,
            "type" : "text/html",
            "sslEnd" : -1,
            "receiveLast" : 556.550999998697
         },
         "url" : "http://modified.testbed.localhost/platform.twitter.com/widgets/follow_button.html%3Fscreen_name=politico.html",
         "id" : "r22",
         "comps" : [
            {
               "type" : "evalhtml",
               "id" : "r22_c1",
               "e_time" : 646.720999997342,
               "s_time" : 632.970999999088,
               "time" : 13.749999998254
            }
         ],
         "when_comp_start" : 1
      },
      {
         "download" : {
            "receiveFirst" : 21,
            "s_time" : 328.61199999752,
            "sendStart" : 0,
            "sslEnd" : -1,
            "receiveLast" : 558.146999996738,
            "receivedTime" : "579.146999996738",
            "sslStart" : -1,
            "type" : "image/png",
            "len" : 1030,
            "dnsStart" : -1,
            "receiveHeadersEnd" : 21,
            "dns" : 0,
            "sendEnd" : 0,
            "connectStart" : 0,
            "id" : "download_13",
            "connectEnd" : 0,
            "dnsEnd" : -1
         },
         "url" : "http://modified.testbed.localhost/static.politico.com/resource/images/website/shared/template/bg-carbon-fiber.fc17c2139c48b783efdc986741924866.png",
         "id" : "r23",
         "when_comp_start" : -1,
         "comps" : []
      },
      {
         "url" : "http://modified.testbed.localhost/static.politico.com/resource/fonts/website/shared/base-icons/base-icons.3252429d6f68fbf9c997f78d1b5399a6.woff",
         "download" : {
            "connectStart" : 0,
            "id" : "download_14",
            "connectEnd" : 1,
            "dnsEnd" : -1,
            "sendEnd" : 1,
            "len" : 19508,
            "dns" : 0,
            "receiveHeadersEnd" : 21,
            "dnsStart" : -1,
            "sslEnd" : -1,
            "receiveLast" : 1478.99399999797,
            "receivedTime" : "1499.99399999797",
            "sslStart" : -1,
            "type" : "application/x-font-woff",
            "sendStart" : 1,
            "receiveFirst" : 20,
            "s_time" : 580.414999996719
         },
         "when_comp_start" : -1,
         "comps" : [],
         "id" : "r11"
      },
      {
         "id" : "r39",
         "when_comp_start" : -1,
         "comps" : [
            {
               "id" : "comp_176",
               "type" : null,
               "e_time" : 766.710999996576,
               "s_time" : 689.190999997663,
               "time" : 77.519999998913
            }
         ],
         "download" : {
            "sendEnd" : 3,
            "len" : 241112,
            "dnsStart" : -1,
            "receiveHeadersEnd" : 32,
            "dns" : 0,
            "connectStart" : 0,
            "id" : "download_15",
            "connectEnd" : 3,
            "dnsEnd" : -1,
            "sendStart" : 3,
            "receiveFirst" : 29,
            "s_time" : 577.786000001652,
            "sslEnd" : -1,
            "receiveLast" : 657.126999997825,
            "receivedTime" : "689.126999997825",
            "sslStart" : -1,
            "type" : "application/javascript"
         },
         "url" : "http://modified.testbed.localhost/static.politico.com/resource/assets/js.min/main.667379cd82d3864bb53cb1070dff6978.gz.js"
      }
   ],
   "name" : "modified.testbed.localhost_www.politico.com_",
   "load_activity" : -1
}
