{
   "start_activity" : "download_0",
   "load_activity" : -1,
   "n_download_no_trigger" : 1,
   "objs" : [
      {
         "id" : "r1",
         "comps" : [
            {
               "time" : 4.3759999971371,
               "s_time" : 64.0399999974761,
               "type" : "evalhtml",
               "id" : "r1_c1",
               "e_time" : 68.4159999946132
            },
            {
               "id" : "r1_c2",
               "e_time" : -173002915.3,
               "s_time" : 162.668000004487,
               "time" : -173003077.968,
               "type" : "evalhtml"
            },
            {
               "id" : "r1_c3",
               "e_time" : 233.142000011867,
               "time" : 61.329999996815,
               "s_time" : 171.812000015052,
               "type" : "evalhtml"
            },
            {
               "time" : -173003210.125,
               "s_time" : 294.825000019046,
               "type" : "evalhtml",
               "id" : "r1_c4",
               "e_time" : -173002915.3
            },
            {
               "id" : "r1_c5",
               "e_time" : 516.212000016822,
               "s_time" : 505.502999993041,
               "time" : 10.709000023781,
               "type" : "evalhtml"
            }
         ],
         "url" : "http://original.testbed.localhost/www.instagram.com/",
         "when_comp_start" : 1,
         "download" : {
            "len" : 14959,
            "dnsStart" : -1,
            "dnsEnd" : -1,
            "sslEnd" : -1,
            "receiveFirst" : 52,
            "receivedTime" : "63.9369999989867",
            "sslStart" : -1,
            "type" : "text/html",
            "connectStart" : 0,
            "connectEnd" : 0,
            "sendEnd" : 0,
            "receiveHeadersEnd" : 52,
            "id" : "download_0",
            "receiveLast" : 11.9369999989867,
            "sendStart" : 0,
            "dns" : 0,
            "s_time" : 0
         }
      },
      {
         "id" : "r2",
         "comps" : [
            {
               "time" : 5.47000000369799,
               "s_time" : 117.908000014722,
               "type" : 3,
               "id" : "comp_7",
               "e_time" : 123.37800001842
            }
         ],
         "download" : {
            "receiveFirst" : 52,
            "sslEnd" : -1,
            "dnsEnd" : -1,
            "len" : 11628,
            "dnsStart" : -1,
            "receiveHeadersEnd" : 52,
            "connectStart" : 0,
            "type" : "application/javascript",
            "sendEnd" : 0,
            "connectEnd" : 0,
            "sslStart" : -1,
            "receivedTime" : "117.750000004889",
            "receiveLast" : 65.7500000048894,
            "id" : "download_1",
            "s_time" : 64.5770000119228,
            "dns" : 0,
            "sendStart" : 0
         },
         "url" : "http://original.testbed.localhost/instagramstatic-a.akamaihd.net/h1/scripts/webfont.js/c0456c81549b.js",
         "when_comp_start" : -1
      },
      {
         "download" : {
            "receiveLast" : 106.71000000718,
            "id" : "download_2",
            "sendStart" : 1,
            "s_time" : 67.9839999938849,
            "dns" : 0,
            "dnsStart" : -1,
            "len" : 16324,
            "receiveFirst" : 52,
            "sslEnd" : -1,
            "dnsEnd" : -1,
            "sslStart" : -1,
            "receivedTime" : "159.71000000718",
            "receiveHeadersEnd" : 53,
            "connectEnd" : 1,
            "sendEnd" : 1,
            "connectStart" : 0,
            "type" : "application/javascript"
         },
         "when_comp_start" : -1,
         "url" : "http://original.testbed.localhost/instagramstatic-a.akamaihd.net/h1/scripts/polyfills/es5-shim.min.js/6514c5e08593.js",
         "comps" : [
            {
               "id" : "comp_24",
               "e_time" : 162.668000004487,
               "type" : 1,
               "time" : 2.92199998511899,
               "s_time" : 159.746000019368
            }
         ],
         "id" : "r21"
      },
      {
         "id" : "r22",
         "when_comp_start" : -1,
         "url" : "http://original.testbed.localhost/instagramstatic-a.akamaihd.net/h1/scripts/polyfills/es5-sham.min.js/fc3c22cf2d67.js",
         "download" : {
            "s_time" : 68.1380000023637,
            "dns" : 0,
            "sendStart" : 49,
            "receiveLast" : 69.3370000177529,
            "id" : "download_3",
            "receiveHeadersEnd" : 101,
            "connectStart" : 0,
            "type" : "application/javascript",
            "connectEnd" : 49,
            "sendEnd" : 49,
            "sslStart" : -1,
            "receivedTime" : "170.337000017753",
            "receiveFirst" : 52,
            "sslEnd" : -1,
            "dnsEnd" : -1,
            "len" : 6758,
            "dnsStart" : -1
         },
         "comps" : [
            {
               "time" : 1.44399999408,
               "s_time" : 170.368000020972,
               "type" : 1,
               "e_time" : 171.812000015052,
               "id" : "comp_27"
            }
         ]
      },
      {
         "id" : "r24",
         "url" : "http://original.testbed.localhost/instagramstatic-a.akamaihd.net/h1/bundles/en_US_LandingPage.js/5e561f41ffd3.js",
         "when_comp_start" : -1,
         "download" : {
            "receiveLast" : 222.735000014305,
            "id" : "download_4",
            "sendStart" : 52,
            "s_time" : 68.4159999946132,
            "dns" : 0,
            "len" : 446323,
            "dnsStart" : 0,
            "sslEnd" : -1,
            "receiveFirst" : 57,
            "dnsEnd" : 0,
            "sslStart" : -1,
            "receivedTime" : "331.735000014305",
            "receiveHeadersEnd" : 109,
            "type" : "application/javascript",
            "connectStart" : 0,
            "connectEnd" : 52,
            "sendEnd" : 52
         },
         "comps" : [
            {
               "e_time" : 505.502999993041,
               "id" : "comp_34",
               "s_time" : 331.848000001628,
               "time" : 173.654999991413,
               "type" : 1
            }
         ]
      },
      {
         "id" : "r23",
         "comps" : [
            {
               "e_time" : 294.825000019046,
               "id" : "comp_32",
               "time" : 7.20300001558002,
               "s_time" : 287.622000003466,
               "type" : 1
            }
         ],
         "when_comp_start" : -1,
         "url" : "http://original.testbed.localhost/instagramstatic-a.akamaihd.net/h1/bundles/en_US_Commons.js/4c3d7837950f.js",
         "download" : {
            "id" : "download_5",
            "receiveLast" : 176.485000008019,
            "sendStart" : 52,
            "dns" : 0,
            "s_time" : 68.2840000081342,
            "dnsStart" : 0,
            "len" : 244441,
            "dnsEnd" : 0,
            "sslEnd" : -1,
            "receiveFirst" : 59,
            "receivedTime" : "287.485000008019",
            "sslStart" : -1,
            "connectEnd" : 52,
            "sendEnd" : 52,
            "connectStart" : 0,
            "type" : "application/javascript",
            "receiveHeadersEnd" : 111
         }
      },
      {
         "id" : "r25",
         "comps" : [],
         "url" : "http://original.testbed.localhost/instagramstatic-a.akamaihd.net/h1/scripts/polyfills/es5-shim.min.js/es5-shim.map",
         "when_comp_start" : 1,
         "download" : {
            "dns" : 0,
            "s_time" : 233.142000011867,
            "sendStart" : 0,
            "id" : "download_6",
            "receiveLast" : 241.122000010451,
            "sendEnd" : 0,
            "connectEnd" : 0,
            "type" : "text/html",
            "connectStart" : 0,
            "receiveHeadersEnd" : 54,
            "receivedTime" : "295.122000010451",
            "sslStart" : -1,
            "dnsEnd" : -1,
            "receiveFirst" : 54,
            "sslEnd" : -1,
            "dnsStart" : -1,
            "len" : 369
         }
      }
   ],
   "deps" : [
      {
         "a2" : "r1_c2",
         "a1" : "comp_24",
         "id" : "dep1",
         "time" : -1
      },
      {
         "id" : "dep2",
         "a1" : "comp_27",
         "a2" : "r1_c3",
         "time" : -1
      },
      {
         "time" : -1,
         "id" : "dep3",
         "a2" : "r1_c4",
         "a1" : "comp_32"
      },
      {
         "a1" : "comp_34",
         "a2" : "r1_c5",
         "id" : "dep4",
         "time" : -1
      },
      {
         "time" : -1,
         "id" : "dep5",
         "a2" : "comp_27",
         "a1" : "comp_24"
      },
      {
         "a1" : "comp_32",
         "a2" : "comp_34",
         "id" : "dep6",
         "time" : -1
      },
      {
         "id" : "dep7",
         "a2" : "download_6",
         "a1" : "r1_c3",
         "time" : -1
      },
      {
         "id" : "dep8",
         "a2" : "download_5",
         "a1" : "r1_c1",
         "time" : -1
      },
      {
         "time" : 4.2440000106581,
         "a2" : "download_5",
         "a1" : "r1_c1",
         "id" : "dep9"
      },
      {
         "a2" : "download_4",
         "a1" : "r1_c1",
         "id" : "dep10",
         "time" : -1
      },
      {
         "time" : 4.3759999971371,
         "a1" : "r1_c1",
         "a2" : "download_4",
         "id" : "dep11"
      },
      {
         "id" : "dep12",
         "a2" : "download_3",
         "a1" : "r1_c1",
         "time" : 4.0980000048876
      },
      {
         "time" : 4.0980000048876,
         "a1" : "r1_c1",
         "a2" : "download_3",
         "id" : "dep13"
      },
      {
         "time" : 3.94399999640879,
         "a1" : "r1_c1",
         "a2" : "download_2",
         "id" : "dep14"
      },
      {
         "time" : 0.537000014446704,
         "a1" : "r1_c1",
         "a2" : "download_1",
         "id" : "dep15"
      }
   ],
   "name" : "original.testbed.localhost_www.instagram.com_"
}
