{
   "objs" : [
      {
         "id" : "r1",
         "when_comp_start" : 1,
         "comps" : [
            {
               "e_time" : 575.347000005422,
               "type" : "evalhtml",
               "s_time" : 104.179000016302,
               "time" : 471.16799998912,
               "id" : "r1_c1"
            },
            {
               "e_time" : -174286604.03,
               "s_time" : 586.079000000609,
               "type" : "evalhtml",
               "id" : "r1_c2",
               "time" : -174287190.109
            },
            {
               "id" : "r1_c3",
               "time" : -174287192.151,
               "s_time" : 588.121000007959,
               "type" : "evalhtml",
               "e_time" : -174286604.03
            },
            {
               "e_time" : -174286604.03,
               "id" : "r1_c4",
               "time" : -174287197.689,
               "s_time" : 593.659000005573,
               "type" : "evalhtml"
            },
            {
               "e_time" : 720.648000016809,
               "type" : "evalhtml",
               "s_time" : 598.040000011679,
               "time" : 122.60800000513,
               "id" : "r1_c5"
            }
         ],
         "url" : "http://original.testbed.localhost/www.imdb.com/",
         "download" : {
            "dnsStart" : -1,
            "connectStart" : 0,
            "sslEnd" : -1,
            "len" : 155804,
            "connectEnd" : 0,
            "type" : "text/html",
            "receiveHeadersEnd" : 54,
            "dns" : 0,
            "id" : "download_0",
            "sslStart" : -1,
            "dnsEnd" : -1,
            "receiveLast" : 53.895000022836,
            "receivedTime" : "107.895000022836",
            "sendStart" : 0,
            "s_time" : 0,
            "sendEnd" : 0,
            "receiveFirst" : 54
         }
      },
      {
         "download" : {
            "receiveHeadersEnd" : 54,
            "type" : "text/css",
            "dns" : 0,
            "len" : 10006,
            "sslEnd" : -1,
            "connectEnd" : 2,
            "dnsStart" : -1,
            "connectStart" : 0,
            "dnsEnd" : -1,
            "sslStart" : -1,
            "id" : "download_1",
            "sendStart" : 2,
            "s_time" : 107.399000000441,
            "receivedTime" : "162.937000015518",
            "receiveLast" : 108.937000015518,
            "receiveFirst" : 52,
            "sendEnd" : 2
         },
         "comps" : [
            {
               "id" : "comp_10",
               "time" : 1.17400000453901,
               "s_time" : 162.995999999112,
               "type" : 4,
               "e_time" : 164.170000003651
            }
         ],
         "url" : "http://original.testbed.localhost/ia.media-imdb.com/images/G/01/imdb/css/site/consumer-navbar-mega-3796876714._CB298540748_.css",
         "id" : "r4",
         "when_comp_start" : -1
      },
      {
         "when_comp_start" : -1,
         "id" : "r3",
         "comps" : [
            {
               "s_time" : 167.671000002883,
               "type" : 4,
               "id" : "comp_11",
               "time" : 10.4140000185,
               "e_time" : 178.085000021383
            }
         ],
         "url" : "http://original.testbed.localhost/ia.media-imdb.com/images/G/01/imdb/css/collections/pagelayout-flat-903233829._CB298432192_.css",
         "download" : {
            "sendEnd" : 2,
            "receiveFirst" : 56,
            "receiveLast" : 109.596000013873,
            "s_time" : 107.188000023598,
            "sendStart" : 2,
            "receivedTime" : "167.596000013873",
            "dnsEnd" : -1,
            "sslStart" : -1,
            "id" : "download_2",
            "connectEnd" : 2,
            "sslEnd" : -1,
            "len" : 144004,
            "dnsStart" : -1,
            "connectStart" : 0,
            "dns" : 0,
            "type" : "text/css",
            "receiveHeadersEnd" : 58
         }
      },
      {
         "id" : "r5",
         "when_comp_start" : -1,
         "url" : "http://original.testbed.localhost/ia.media-imdb.com/images/G/01/imdb/css/collections/starbarwidget-2454701167._CB293329573_.css",
         "comps" : [
            {
               "id" : "comp_12",
               "time" : 0.280999985989013,
               "s_time" : 213.16400001524,
               "type" : 4,
               "e_time" : 213.445000001229
            }
         ],
         "download" : {
            "sendEnd" : 52,
            "receiveFirst" : 52,
            "receiveLast" : 109.110000011511,
            "receivedTime" : "213.110000011511",
            "s_time" : 107.539000018733,
            "sendStart" : 52,
            "id" : "download_3",
            "sslStart" : -1,
            "dnsEnd" : 1,
            "dnsStart" : 1,
            "connectStart" : 0,
            "connectEnd" : 52,
            "sslEnd" : -1,
            "len" : 3602,
            "dns" : 0,
            "receiveHeadersEnd" : 104,
            "type" : "text/css"
         }
      },
      {
         "comps" : [],
         "url" : "http://original.testbed.localhost/ia.media-imdb.com/images/G/01/imdb/images/navbar/imdbpro_logo_nb-720143162._CB306318304_.png",
         "download" : {
            "sendStart" : 52,
            "s_time" : 108.392000023741,
            "receivedTime" : "213.86000001803",
            "receiveLast" : 109.86000001803,
            "receiveFirst" : 52,
            "sendEnd" : 52,
            "receiveHeadersEnd" : 104,
            "type" : "image/png",
            "dns" : 0,
            "sslEnd" : -1,
            "len" : 1340,
            "connectEnd" : 52,
            "connectStart" : 0,
            "dnsStart" : 1,
            "dnsEnd" : 1,
            "sslStart" : -1,
            "id" : "download_4"
         },
         "id" : "r8",
         "when_comp_start" : -1
      },
      {
         "id" : "r7",
         "when_comp_start" : -1,
         "url" : "http://original.testbed.localhost/ia.media-imdb.com/images/G/01/imdb/css/collections/recommendations-3988610918._CB289934424_.css",
         "comps" : [
            {
               "id" : "comp_13",
               "time" : 0.457999994977996,
               "s_time" : 214.26400000928,
               "type" : 4,
               "e_time" : 214.722000004258
            }
         ],
         "download" : {
            "dnsStart" : 1,
            "connectStart" : 0,
            "sslEnd" : -1,
            "len" : 7361,
            "connectEnd" : 52,
            "receiveHeadersEnd" : 105,
            "type" : "text/css",
            "dns" : 0,
            "id" : "download_5",
            "sslStart" : -1,
            "dnsEnd" : 1,
            "receiveLast" : 109.218000008259,
            "receivedTime" : "214.218000008259",
            "sendStart" : 52,
            "s_time" : 107.788000022992,
            "sendEnd" : 52,
            "receiveFirst" : 53
         }
      },
      {
         "id" : "r6",
         "when_comp_start" : -1,
         "comps" : [
            {
               "id" : "comp_14",
               "time" : 15.337999997427,
               "s_time" : 214.948000008008,
               "type" : 4,
               "e_time" : 230.286000005435
            }
         ],
         "url" : "http://original.testbed.localhost/ia.media-imdb.com/images/G/01/imdb/css/collections/watchlistButton-2508181169._CB288096406_.css",
         "download" : {
            "s_time" : 107.663000002503,
            "sendStart" : 52,
            "receivedTime" : "214.91100001731",
            "receiveLast" : 108.91100001731,
            "receiveFirst" : 54,
            "sendEnd" : 52,
            "dns" : 0,
            "type" : "text/css",
            "receiveHeadersEnd" : 106,
            "connectEnd" : 52,
            "len" : 7470,
            "sslEnd" : -1,
            "dnsStart" : 1,
            "connectStart" : 0,
            "sslStart" : -1,
            "dnsEnd" : 1,
            "id" : "download_6"
         }
      },
      {
         "url" : "http://original.testbed.localhost/ia.media-imdb.com/images/G/01/imdb/images/navbar/navbar_sprite-580289297._V_.png",
         "comps" : [],
         "download" : {
            "id" : "download_7",
            "sslStart" : -1,
            "dnsEnd" : -1,
            "receiveHeadersEnd" : 52,
            "type" : "image/png",
            "dns" : 0,
            "connectStart" : 0,
            "dnsStart" : -1,
            "sslEnd" : -1,
            "len" : 41408,
            "connectEnd" : 0,
            "receiveFirst" : 52,
            "sendEnd" : 0,
            "receivedTime" : "351.332000020193",
            "sendStart" : 0,
            "s_time" : 233.758000016678,
            "receiveLast" : 299.332000020193
         },
         "id" : "r9",
         "when_comp_start" : -1
      },
      {
         "download" : {
            "id" : "download_8",
            "dnsEnd" : -1,
            "sslStart" : -1,
            "dns" : 0,
            "receiveHeadersEnd" : 52,
            "type" : "image/png",
            "connectStart" : 0,
            "dnsStart" : -1,
            "connectEnd" : 0,
            "len" : 1024,
            "sslEnd" : -1,
            "receiveFirst" : 52,
            "sendEnd" : 0,
            "receivedTime" : "318.204000010155",
            "s_time" : 246.917000011308,
            "sendStart" : 0,
            "receiveLast" : 266.204000010155
         },
         "comps" : [],
         "url" : "http://original.testbed.localhost/ia.media-imdb.com/images/G/01/imdb/images/navbar/imdbpro_logo_menu-2185879182._CB306318245_.png",
         "id" : "r10",
         "when_comp_start" : -1
      },
      {
         "url" : "http://original.testbed.localhost/ia.media-imdb.com/images/M/MV5BMTcyMDQ1OTE3MF5BMl5BanBnXkFtZTgwNjE3Nzk0ODE@._V1_SY298_CR4,0,201,298_AL_.jpg",
         "comps" : [],
         "download" : {
            "receiveHeadersEnd" : 53,
            "type" : "image/jpeg",
            "dns" : 0,
            "connectStart" : 0,
            "dnsStart" : -1,
            "sslEnd" : -1,
            "len" : 24014,
            "connectEnd" : 1,
            "id" : "download_9",
            "sslStart" : -1,
            "dnsEnd" : -1,
            "receivedTime" : "353.513000009116",
            "sendStart" : 1,
            "s_time" : 248.274000012316,
            "receiveLast" : 300.513000009116,
            "receiveFirst" : 52,
            "sendEnd" : 1
         },
         "id" : "r11",
         "when_comp_start" : -1
      },
      {
         "url" : "http://original.testbed.localhost/ia.media-imdb.com/images/G/01/IMDb/icon/play-button-hover._CB318667374_.png",
         "comps" : [],
         "download" : {
            "receiveLast" : 269.730000014417,
            "receivedTime" : "322.730000014417",
            "sendStart" : 1,
            "s_time" : 248.611000017263,
            "sendEnd" : 1,
            "receiveFirst" : 52,
            "connectStart" : 0,
            "dnsStart" : -1,
            "len" : 1902,
            "sslEnd" : -1,
            "connectEnd" : 1,
            "receiveHeadersEnd" : 53,
            "type" : "image/png",
            "dns" : 0,
            "id" : "download_10",
            "dnsEnd" : -1,
            "sslStart" : -1
         },
         "id" : "r13",
         "when_comp_start" : -1
      },
      {
         "when_comp_start" : -1,
         "id" : "r12",
         "comps" : [],
         "url" : "http://original.testbed.localhost/ia.media-imdb.com/images/G/01/IMDb/icon/play-button._CB318667375_.png",
         "download" : {
            "id" : "download_11",
            "sslStart" : -1,
            "dnsEnd" : -1,
            "type" : "image/png",
            "receiveHeadersEnd" : 54,
            "dns" : 0,
            "dnsStart" : -1,
            "connectStart" : 0,
            "sslEnd" : -1,
            "len" : 1872,
            "connectEnd" : 1,
            "receiveFirst" : 53,
            "sendEnd" : 1,
            "receivedTime" : "322.884000022896",
            "sendStart" : 1,
            "s_time" : 248.447999998461,
            "receiveLast" : 268.884000022896
         }
      },
      {
         "when_comp_start" : -1,
         "id" : "r14",
         "comps" : [],
         "url" : "http://original.testbed.localhost/ia.media-imdb.com/images/M/MV5BMTQ3NzYwNjIxOF5BMl5BanBnXkFtZTgwODU1NzE4ODE@._V1_SX201_CR0,0,201,298_AL_.jpg",
         "download" : {
            "dnsStart" : -1,
            "connectStart" : 0,
            "connectEnd" : 1,
            "len" : 11615,
            "sslEnd" : -1,
            "dns" : 0,
            "type" : "image/jpeg",
            "receiveHeadersEnd" : 54,
            "id" : "download_12",
            "sslStart" : -1,
            "dnsEnd" : -1,
            "receiveLast" : 269.185000015656,
            "receivedTime" : "323.185000015656",
            "s_time" : 248.905000014929,
            "sendStart" : 1,
            "sendEnd" : 1,
            "receiveFirst" : 53
         }
      },
      {
         "download" : {
            "receiveHeadersEnd" : 104,
            "type" : "image/jpeg",
            "dns" : 0,
            "len" : 15771,
            "sslEnd" : -1,
            "connectEnd" : 52,
            "connectStart" : 0,
            "dnsStart" : -1,
            "dnsEnd" : -1,
            "sslStart" : -1,
            "id" : "download_13",
            "sendStart" : 52,
            "s_time" : 249.155000026803,
            "receivedTime" : "410.964000009699",
            "receiveLast" : 306.964000009699,
            "receiveFirst" : 52,
            "sendEnd" : 52
         },
         "url" : "http://original.testbed.localhost/ia.media-imdb.com/images/M/MV5BMjA1MTA4MzU4Ml5BMl5BanBnXkFtZTgwNjUxNjczODE@._V1_SY298_CR0,0,201,298_AL_.jpg",
         "comps" : [],
         "when_comp_start" : -1,
         "id" : "r15"
      },
      {
         "when_comp_start" : -1,
         "id" : "r16",
         "comps" : [],
         "url" : "http://original.testbed.localhost/ia.media-imdb.com/images/M/MV5BZjgzZTFkMmQtM2JjZS00MmIyLWFmNWItZmNiODBiNTFhNzlhXkEyXkFqcGdeQXVyNjUwNzk3NDc@._UY460_CR190,0,614,460_SY230_SX307_AL_.jpg",
         "download" : {
            "receiveHeadersEnd" : 104,
            "type" : "image/jpeg",
            "dns" : 0,
            "sslEnd" : -1,
            "len" : 12603,
            "connectEnd" : 53,
            "connectStart" : 0,
            "dnsStart" : -1,
            "sslStart" : -1,
            "dnsEnd" : -1,
            "id" : "download_14",
            "sendStart" : 53,
            "s_time" : 250.117000017781,
            "receivedTime" : "356.190999998944",
            "receiveLast" : 252.190999998944,
            "receiveFirst" : 51,
            "sendEnd" : 53
         }
      },
      {
         "id" : "r17",
         "when_comp_start" : -1,
         "url" : "http://original.testbed.localhost/ia.media-imdb.com/images/M/MV5BMTA0OTQwMDc1NTReQTJeQWpwZ15BbWU3MDg4MzA5NzI@._UX614_CR0,84,614,460_SY230_SX307_AL_.jpg",
         "comps" : [],
         "download" : {
            "sendEnd" : 53,
            "receiveFirst" : 52,
            "receiveLast" : 310.296999999555,
            "receivedTime" : "415.296999999555",
            "s_time" : 250.355000025593,
            "sendStart" : 53,
            "id" : "download_15",
            "dnsEnd" : -1,
            "sslStart" : -1,
            "dnsStart" : -1,
            "connectStart" : 0,
            "connectEnd" : 53,
            "sslEnd" : -1,
            "len" : 14399,
            "dns" : 0,
            "type" : "image/jpeg",
            "receiveHeadersEnd" : 105
         }
      },
      {
         "when_comp_start" : -1,
         "id" : "r18",
         "download" : {
            "dnsEnd" : -1,
            "sslStart" : -1,
            "id" : "download_16",
            "dns" : 0,
            "receiveHeadersEnd" : 108,
            "type" : "image/jpeg",
            "connectEnd" : 52,
            "sslEnd" : -1,
            "len" : 9998,
            "connectStart" : 0,
            "dnsStart" : -1,
            "receiveFirst" : 56,
            "sendEnd" : 52,
            "s_time" : 251.111999998102,
            "sendStart" : 52,
            "receivedTime" : "360.622000007425",
            "receiveLast" : 252.622000007425
         },
         "url" : "http://original.testbed.localhost/ia.media-imdb.com/images/M/MV5BMjExMzQxNTMxMl5BMl5BanBnXkFtZTgwMDY1NzE4ODE@._UX1500_CR540,60,402,402_SY201_SX201_AL_.jpg",
         "comps" : []
      },
      {
         "download" : {
            "sendStart" : 18,
            "s_time" : 320.516000007046,
            "receivedTime" : "397.103000024799",
            "receiveLast" : 327.103000024799,
            "receiveFirst" : 52,
            "sendEnd" : 18,
            "receiveHeadersEnd" : 70,
            "type" : "text/html",
            "dns" : 0,
            "sslEnd" : -1,
            "len" : 1996,
            "connectEnd" : 18,
            "connectStart" : 0,
            "dnsStart" : -1,
            "sslStart" : -1,
            "dnsEnd" : -1,
            "id" : "download_17"
         },
         "url" : "http://original.testbed.localhost/ia.media-imdb.com/images/G/01/imdb/html/twitter-3626940295._CB298540565_.html%3Fconfig=%257B%2522width%2522%253A%2522300px%2522%252C%2522height%2522%253A%2522500px%2522%252C%2522href%2522%253A%2522https%253A%252F%252Ftwitter.com%252FIMDb%2522%252C%2522heading%2522%2",
         "comps" : [
            {
               "type" : "evalhtml",
               "s_time" : 408.64100001636,
               "time" : 289.157999999588,
               "id" : "r51_c1",
               "e_time" : 697.799000015948
            }
         ],
         "id" : "r51",
         "when_comp_start" : 1
      },
      {
         "comps" : [
            {
               "time" : 1.56999999308096,
               "id" : "r52_c1",
               "type" : "evalhtml",
               "s_time" : 419.648000010056,
               "e_time" : 421.218000003137
            }
         ],
         "url" : "http://original.testbed.localhost/ia.media-imdb.com/images/G/01/imdb/html/facebook-869486875._CB313935095_.html",
         "download" : {
            "sendEnd" : 31,
            "receiveFirst" : 52,
            "receiveLast" : 328.323000007542,
            "receivedTime" : "411.323000007542",
            "s_time" : 322.025000001304,
            "sendStart" : 31,
            "id" : "download_18",
            "sslStart" : -1,
            "dnsEnd" : -1,
            "dnsStart" : -1,
            "connectStart" : 0,
            "connectEnd" : 31,
            "sslEnd" : -1,
            "len" : 840,
            "dns" : 0,
            "type" : "text/html",
            "receiveHeadersEnd" : 83
         },
         "id" : "r52",
         "when_comp_start" : 1
      },
      {
         "comps" : [
            {
               "type" : null,
               "s_time" : 468.971000023885,
               "time" : 80.233999993652,
               "id" : "comp_92",
               "e_time" : 549.205000017537
            }
         ],
         "url" : "http://original.testbed.localhost/ia.media-imdb.com/images/G/01/imdb/js/collections/common-1944661907._CB274936654_.js",
         "download" : {
            "id" : "download_19",
            "dnsEnd" : -1,
            "sslStart" : -1,
            "dns" : 0,
            "type" : "application/javascript",
            "receiveHeadersEnd" : 85,
            "dnsStart" : -1,
            "connectStart" : 0,
            "connectEnd" : 28,
            "len" : 366484,
            "sslEnd" : -1,
            "receiveFirst" : 57,
            "sendEnd" : 28,
            "receivedTime" : "468.858000007458",
            "s_time" : 327.140000008512,
            "sendStart" : 28,
            "receiveLast" : 383.858000007458
         },
         "id" : "r54",
         "when_comp_start" : -1
      },
      {
         "download" : {
            "connectStart" : 0,
            "dnsStart" : -1,
            "sslEnd" : -1,
            "len" : 88198,
            "connectEnd" : 33,
            "receiveHeadersEnd" : 89,
            "type" : "application/javascript",
            "dns" : 0,
            "id" : "download_20",
            "dnsEnd" : -1,
            "sslStart" : -1,
            "receiveLast" : 460.443000025349,
            "receivedTime" : "549.443000025349",
            "sendStart" : 33,
            "s_time" : 327.262000006158,
            "sendEnd" : 33,
            "receiveFirst" : 56
         },
         "url" : "http://original.testbed.localhost/ia.media-imdb.com/images/G/01/imdb/js/collections/pagelayout-1236922041._CB274690342_.js",
         "comps" : [
            {
               "e_time" : 586.079000000609,
               "id" : "comp_94",
               "time" : 36.5519999759269,
               "s_time" : 549.527000024682,
               "type" : 1
            }
         ],
         "when_comp_start" : -1,
         "id" : "r55"
      },
      {
         "when_comp_start" : -1,
         "id" : "r56",
         "download" : {
            "dnsEnd" : -1,
            "sslStart" : -1,
            "id" : "download_21",
            "receiveHeadersEnd" : 115,
            "type" : "application/javascript",
            "dns" : 0,
            "len" : 5726,
            "sslEnd" : -1,
            "connectEnd" : 63,
            "connectStart" : 0,
            "dnsStart" : -1,
            "receiveFirst" : 52,
            "sendEnd" : 63,
            "sendStart" : 63,
            "s_time" : 327.382000017678,
            "receivedTime" : "443.721000017831",
            "receiveLast" : 328.721000017831
         },
         "url" : "http://original.testbed.localhost/ia.media-imdb.com/images/G/01/imdb/js/collections/starbarwidget-335260898._CB289148898_.js",
         "comps" : [
            {
               "e_time" : 588.121000007959,
               "s_time" : 586.239000025671,
               "type" : 1,
               "id" : "comp_101",
               "time" : 1.88199998228799
            }
         ]
      },
      {
         "download" : {
            "sslStart" : -1,
            "dnsEnd" : -1,
            "id" : "download_22",
            "dns" : 0,
            "type" : "application/javascript",
            "receiveHeadersEnd" : 129,
            "connectEnd" : 76,
            "sslEnd" : -1,
            "len" : 23976,
            "connectStart" : 0,
            "dnsStart" : -1,
            "receiveFirst" : 53,
            "sendEnd" : 76,
            "s_time" : 327.473000012105,
            "sendStart" : 76,
            "receivedTime" : "457.347000017762",
            "receiveLast" : 328.347000017762
         },
         "comps" : [
            {
               "e_time" : 593.659000005573,
               "time" : 5.41799998609304,
               "id" : "comp_104",
               "type" : 1,
               "s_time" : 588.24100001948
            }
         ],
         "url" : "http://original.testbed.localhost/ia.media-imdb.com/images/G/01/imdb/js/collections/watchlistButton-194820129._CB286493173_.js",
         "id" : "r57",
         "when_comp_start" : -1
      },
      {
         "comps" : [
            {
               "e_time" : 598.040000011679,
               "type" : 1,
               "s_time" : 593.806000018958,
               "time" : 4.23399999272101,
               "id" : "comp_107"
            }
         ],
         "url" : "http://original.testbed.localhost/ia.media-imdb.com/images/G/01/imdb/js/collections/recommendations-2126106747._CB289323193_.js",
         "download" : {
            "sendEnd" : 78,
            "receiveFirst" : 52,
            "receiveLast" : 328.202000008896,
            "s_time" : 327.587000007043,
            "sendStart" : 78,
            "receivedTime" : "458.202000008896",
            "dnsEnd" : -1,
            "sslStart" : -1,
            "id" : "download_23",
            "connectEnd" : 78,
            "len" : 18979,
            "sslEnd" : -1,
            "dnsStart" : -1,
            "connectStart" : 0,
            "dns" : 0,
            "type" : "application/javascript",
            "receiveHeadersEnd" : 130
         },
         "when_comp_start" : -1,
         "id" : "r58"
      },
      {
         "when_comp_start" : -1,
         "id" : "r19",
         "download" : {
            "s_time" : 299.532000004547,
            "sendStart" : 107,
            "receivedTime" : "459.166000015102",
            "receiveLast" : 300.166000015102,
            "receiveFirst" : 52,
            "sendEnd" : 107,
            "dns" : 0,
            "type" : "image/jpeg",
            "receiveHeadersEnd" : 159,
            "connectEnd" : 107,
            "len" : 8485,
            "sslEnd" : -1,
            "connectStart" : 0,
            "dnsStart" : -1,
            "dnsEnd" : -1,
            "sslStart" : -1,
            "id" : "download_24"
         },
         "url" : "http://original.testbed.localhost/ia.media-imdb.com/images/M/MV5BMTk3NTA2MjE0N15BMl5BanBnXkFtZTgwNzU1NzE4ODE@._UX500_CR70,60,402,402_SY201_SX201_AL_.jpg",
         "comps" : []
      },
      {
         "download" : {
            "id" : "download_25",
            "dnsEnd" : -1,
            "sslStart" : -1,
            "type" : "application/javascript",
            "receiveHeadersEnd" : 88,
            "dns" : 0,
            "connectStart" : 0,
            "dnsStart" : -1,
            "len" : 95204,
            "sslEnd" : -1,
            "connectEnd" : 32,
            "receiveFirst" : 56,
            "sendEnd" : 32,
            "receivedTime" : "667.886000010185",
            "sendStart" : 32,
            "s_time" : 410.948000004282,
            "receiveLast" : 579.886000010185
         },
         "comps" : [
            {
               "e_time" : 697.750000021188,
               "s_time" : 667.963000014424,
               "type" : null,
               "id" : "comp_185",
               "time" : 29.7870000067641
            }
         ],
         "url" : "http://original.testbed.localhost/platform.twitter.com/widgets.js",
         "id" : "r59",
         "when_comp_start" : -1
      },
      {
         "id" : "r20",
         "when_comp_start" : -1,
         "download" : {
            "dnsEnd" : -1,
            "sslStart" : -1,
            "id" : "download_26",
            "len" : 9366,
            "sslEnd" : -1,
            "connectEnd" : 154,
            "connectStart" : 0,
            "dnsStart" : -1,
            "receiveHeadersEnd" : 206,
            "type" : "image/jpeg",
            "dns" : 0,
            "sendEnd" : 154,
            "receiveFirst" : 52,
            "receiveLast" : 497.059999999823,
            "sendStart" : 154,
            "s_time" : 302.841000026092,
            "receivedTime" : "703.059999999823"
         },
         "url" : "http://original.testbed.localhost/ia.media-imdb.com/images/M/MV5BMTg5NzI0NTI0OF5BMl5BanBnXkFtZTgwNjU1NzE4ODE@._UY402_CR70,0,402,402_SY201_SX201_AL_.jpg",
         "comps" : []
      },
      {
         "url" : "http://original.testbed.localhost/ia.media-imdb.com/images/M/MV5BMjQ0MTgyNjAxMV5BMl5BanBnXkFtZTgwNjUzMDkyODE@._V1_SY150_CR0,0,101,150_AL_.jpg",
         "comps" : [],
         "download" : {
            "dnsEnd" : -1,
            "sslStart" : -1,
            "id" : "download_27",
            "sslEnd" : -1,
            "len" : 6963,
            "connectEnd" : 155,
            "connectStart" : 0,
            "dnsStart" : -1,
            "receiveHeadersEnd" : 207,
            "type" : "image/jpeg",
            "dns" : 0,
            "sendEnd" : 155,
            "receiveFirst" : 52,
            "receiveLast" : 496.454000002239,
            "sendStart" : 155,
            "s_time" : 303.15000002156,
            "receivedTime" : "703.454000002239"
         },
         "when_comp_start" : -1,
         "id" : "r21"
      },
      {
         "url" : "http://original.testbed.localhost/ia.media-imdb.com/images/M/MV5BNzQxMzA3NzQzM15BMl5BanBnXkFtZTcwMTQxMDc3MQ@@._V1_SY150_CR2,0,101,150_AL_.jpg",
         "comps" : [],
         "download" : {
            "receiveFirst" : 52,
            "sendEnd" : 155,
            "s_time" : 303.82300002384,
            "sendStart" : 155,
            "receivedTime" : "703.791000007186",
            "receiveLast" : 496.791000007186,
            "dnsEnd" : -1,
            "sslStart" : -1,
            "id" : "download_28",
            "dns" : 0,
            "type" : "image/jpeg",
            "receiveHeadersEnd" : 207,
            "connectEnd" : 155,
            "len" : 4392,
            "sslEnd" : -1,
            "connectStart" : 0,
            "dnsStart" : -1
         },
         "id" : "r22",
         "when_comp_start" : -1
      },
      {
         "id" : "r24",
         "when_comp_start" : -1,
         "comps" : [],
         "url" : "http://original.testbed.localhost/ia.media-imdb.com/images/M/MV5BMjIwMjUyODExOV5BMl5BanBnXkFtZTgwMjE0NDM4ODE@._UX402_CR0,150,402,402_SY201_SX201_AL_.jpg",
         "download" : {
            "sslEnd" : -1,
            "len" : 12147,
            "connectEnd" : 116,
            "dnsStart" : -1,
            "connectStart" : 0,
            "receiveHeadersEnd" : 168,
            "type" : "image/jpeg",
            "dns" : 0,
            "dnsEnd" : -1,
            "sslStart" : -1,
            "id" : "download_29",
            "receiveLast" : 536.138000000967,
            "sendStart" : 116,
            "s_time" : 352.908000000753,
            "receivedTime" : "704.138000000967",
            "sendEnd" : 116,
            "receiveFirst" : 52
         }
      },
      {
         "comps" : [],
         "url" : "http://original.testbed.localhost/ia.media-imdb.com/images/M/MV5BOTMxMjEwNDk2NF5BMl5BanBnXkFtZTcwMDY1MjE2Mw@@._V1_SX101_AL_.jpg",
         "download" : {
            "id" : "download_30",
            "dnsEnd" : -1,
            "sslStart" : -1,
            "type" : "image/jpeg",
            "receiveHeadersEnd" : 183,
            "dns" : 0,
            "dnsStart" : -1,
            "connectStart" : 0,
            "sslEnd" : -1,
            "len" : 4642,
            "connectEnd" : 130,
            "receiveFirst" : 53,
            "sendEnd" : 130,
            "receivedTime" : "704.46500001708",
            "sendStart" : 130,
            "s_time" : 338.728000002448,
            "receiveLast" : 521.46500001708
         },
         "id" : "r23",
         "when_comp_start" : -1
      },
      {
         "when_comp_start" : -1,
         "id" : "r25",
         "url" : "http://original.testbed.localhost/ia.media-imdb.com/images/M/MV5BOTk1MjQ2OTI5M15BMl5BanBnXkFtZTgwMzU3NDM4ODE@._V1_SY201_CR54,0,201,201_AL_.jpg",
         "comps" : [],
         "download" : {
            "len" : 11577,
            "sslEnd" : -1,
            "connectEnd" : 145,
            "connectStart" : 0,
            "dnsStart" : -1,
            "receiveHeadersEnd" : 197,
            "type" : "image/jpeg",
            "dns" : 0,
            "dnsEnd" : -1,
            "sslStart" : -1,
            "id" : "download_31",
            "receiveLast" : 507.894000024069,
            "sendStart" : 145,
            "s_time" : 355.63400000683,
            "receivedTime" : "704.894000024069",
            "sendEnd" : 145,
            "receiveFirst" : 52
         }
      },
      {
         "download" : {
            "id" : "download_32",
            "sslStart" : -1,
            "dnsEnd" : -1,
            "type" : "image/jpeg",
            "receiveHeadersEnd" : 201,
            "dns" : 0,
            "connectStart" : 0,
            "dnsStart" : -1,
            "len" : 10315,
            "sslEnd" : -1,
            "connectEnd" : 149,
            "receiveFirst" : 52,
            "sendEnd" : 149,
            "receivedTime" : "705.220000003465",
            "sendStart" : 149,
            "s_time" : 360.497000016039,
            "receiveLast" : 504.220000003465
         },
         "comps" : [],
         "url" : "http://original.testbed.localhost/ia.media-imdb.com/images/M/MV5BMTcyMjcxNTc3M15BMl5BanBnXkFtZTgwMTcxNTM4ODE@._UX404_CR2,10,402,402_SY201_SX201_AL_.jpg",
         "when_comp_start" : -1,
         "id" : "r26"
      },
      {
         "when_comp_start" : -1,
         "id" : "r27",
         "url" : "http://original.testbed.localhost/ia.media-imdb.com/images/M/MV5BMjI1ODUyMDg2Nl5BMl5BanBnXkFtZTgwNTcwNTU1NTE@._V1_SY172_CR28,0,116,172_AL_.jpg",
         "comps" : [],
         "download" : {
            "receiveLast" : 546.541000002995,
            "sendStart" : 107,
            "s_time" : 404.215000016848,
            "receivedTime" : "705.541000002995",
            "sendEnd" : 107,
            "receiveFirst" : 52,
            "sslEnd" : -1,
            "len" : 5525,
            "connectEnd" : 107,
            "connectStart" : 0,
            "dnsStart" : -1,
            "type" : "image/jpeg",
            "receiveHeadersEnd" : 159,
            "dns" : 0,
            "sslStart" : -1,
            "dnsEnd" : -1,
            "id" : "download_33"
         }
      },
      {
         "id" : "r28",
         "when_comp_start" : -1,
         "download" : {
            "id" : "download_34",
            "dnsEnd" : -1,
            "sslStart" : -1,
            "dnsStart" : -1,
            "connectStart" : 0,
            "connectEnd" : 105,
            "len" : 4981,
            "sslEnd" : -1,
            "dns" : 0,
            "receiveHeadersEnd" : 157,
            "type" : "image/jpeg",
            "sendEnd" : 105,
            "receiveFirst" : 52,
            "receiveLast" : 548.855000007432,
            "receivedTime" : "705.855000007432",
            "s_time" : 406.852000014624,
            "sendStart" : 105
         },
         "comps" : [],
         "url" : "http://original.testbed.localhost/ia.media-imdb.com/images/M/MV5BMTI4OTY5Nzg5NV5BMl5BanBnXkFtZTcwMzM0ODEyMw@@._V1_SY172_CR71,0,116,172_AL_.jpg"
      },
      {
         "url" : "http://original.testbed.localhost/ia.media-imdb.com/images/M/MV5BNzU4MzE3NTc4M15BMl5BanBnXkFtZTgwNjcxODY3NzE@._V1_SY172_CR6,0,116,172_AL_.jpg",
         "comps" : [],
         "download" : {
            "type" : "image/jpeg",
            "receiveHeadersEnd" : 114,
            "dns" : 0,
            "connectStart" : 0,
            "dnsStart" : -1,
            "len" : 5793,
            "sslEnd" : -1,
            "connectEnd" : 63,
            "id" : "download_35",
            "sslStart" : -1,
            "dnsEnd" : -1,
            "receivedTime" : "706.249000009848",
            "sendStart" : 63,
            "s_time" : 459.042000002228,
            "receiveLast" : 592.249000009848,
            "receiveFirst" : 51,
            "sendEnd" : 63
         },
         "when_comp_start" : -1,
         "id" : "r29"
      },
      {
         "url" : "http://original.testbed.localhost/ia.media-imdb.com/images/M/MV5BNjg3OTc2MTA3NV5BMl5BanBnXkFtZTcwODc0MTU0NQ@@._V1_SY172_CR6,0,116,172_AL_.jpg",
         "comps" : [],
         "download" : {
            "id" : "download_36",
            "dnsEnd" : -1,
            "sslStart" : -1,
            "connectStart" : 0,
            "dnsStart" : -1,
            "len" : 4480,
            "sslEnd" : -1,
            "connectEnd" : 13,
            "type" : "image/jpeg",
            "receiveHeadersEnd" : 65,
            "dns" : 0,
            "sendEnd" : 13,
            "receiveFirst" : 52,
            "receiveLast" : 641.560999999056,
            "receivedTime" : "706.560999999056",
            "sendStart" : 13,
            "s_time" : 509.871000016574
         },
         "when_comp_start" : -1,
         "id" : "r30"
      },
      {
         "download" : {
            "sslStart" : -1,
            "dnsEnd" : -1,
            "id" : "download_37",
            "receiveHeadersEnd" : 94,
            "type" : "image/jpeg",
            "dns" : 0,
            "len" : 4895,
            "sslEnd" : -1,
            "connectEnd" : 42,
            "dnsStart" : -1,
            "connectStart" : 0,
            "receiveFirst" : 52,
            "sendEnd" : 42,
            "sendStart" : 42,
            "s_time" : 510.56300001801,
            "receivedTime" : "712.875000026543",
            "receiveLast" : 618.875000026543
         },
         "url" : "http://original.testbed.localhost/ia.media-imdb.com/images/M/MV5BMTUyMjI1MDEyN15BMl5BanBnXkFtZTYwNzkwNjI2._V1_SY172_CR1,0,116,172_AL_.jpg",
         "comps" : [],
         "when_comp_start" : -1,
         "id" : "r31"
      },
      {
         "url" : "http://original.testbed.localhost/ia.media-imdb.com/images/M/MV5BMTc1ODQ0MTg5N15BMl5BanBnXkFtZTgwOTg1Mzg2ODE@._V1_SY230_CR52,0,307,230_AL_.jpg",
         "comps" : [],
         "download" : {
            "sendEnd" : 51,
            "receiveFirst" : 51,
            "receiveLast" : 611.227000000188,
            "receivedTime" : "713.227000000188",
            "sendStart" : 51,
            "s_time" : 511.853000003612,
            "id" : "download_38",
            "sslStart" : -1,
            "dnsEnd" : -1,
            "dnsStart" : -1,
            "connectStart" : 0,
            "len" : 12741,
            "sslEnd" : -1,
            "connectEnd" : 51,
            "receiveHeadersEnd" : 102,
            "type" : "image/jpeg",
            "dns" : 0
         },
         "id" : "r32",
         "when_comp_start" : -1
      },
      {
         "id" : "r33",
         "when_comp_start" : -1,
         "download" : {
            "sendStart" : 42,
            "s_time" : 521.591000026092,
            "receivedTime" : "713.608000020031",
            "receiveLast" : 619.608000020031,
            "receiveFirst" : 52,
            "sendEnd" : 42,
            "receiveHeadersEnd" : 94,
            "type" : "image/jpeg",
            "dns" : 0,
            "len" : 10773,
            "sslEnd" : -1,
            "connectEnd" : 42,
            "dnsStart" : -1,
            "connectStart" : 0,
            "sslStart" : -1,
            "dnsEnd" : -1,
            "id" : "download_39"
         },
         "url" : "http://original.testbed.localhost/ia.media-imdb.com/images/M/MV5BNjE4MjcyMDAxN15BMl5BanBnXkFtZTgwNzA2NTA1NDE@._V1_SX307_CR0,0,307,230_AL_.jpg",
         "comps" : []
      },
      {
         "comps" : [],
         "url" : "http://original.testbed.localhost/ia.media-imdb.com/images/M/MV5BMjIzMDIwOTA1OF5BMl5BanBnXkFtZTcwMjk0NjM5NA@@._V1_SX201_CR0,0,201,201_AL_.jpg",
         "download" : {
            "dnsEnd" : -1,
            "sslStart" : -1,
            "id" : "download_40",
            "connectEnd" : 42,
            "len" : 9363,
            "sslEnd" : -1,
            "dnsStart" : -1,
            "connectStart" : 0,
            "dns" : 0,
            "type" : "image/jpeg",
            "receiveHeadersEnd" : 94,
            "sendEnd" : 42,
            "receiveFirst" : 52,
            "receiveLast" : 619.962000008905,
            "s_time" : 522.508000023663,
            "sendStart" : 42,
            "receivedTime" : "713.962000008905"
         },
         "when_comp_start" : -1,
         "id" : "r34"
      },
      {
         "download" : {
            "sendStart" : 21,
            "s_time" : 553.123000019696,
            "receivedTime" : "714.306000008946",
            "receiveLast" : 642.306000008946,
            "receiveFirst" : 51,
            "sendEnd" : 21,
            "type" : "image/jpeg",
            "receiveHeadersEnd" : 72,
            "dns" : 0,
            "len" : 11107,
            "sslEnd" : -1,
            "connectEnd" : 21,
            "connectStart" : 0,
            "dnsStart" : -1,
            "dnsEnd" : -1,
            "sslStart" : -1,
            "id" : "download_41"
         },
         "comps" : [],
         "url" : "http://original.testbed.localhost/ia.media-imdb.com/images/M/MV5BMjA0ODIzMTcxN15BMl5BanBnXkFtZTgwNjU5MDE1MTE@._UY450_CR40,47,402,402_SY201_SX201_AL_.jpg",
         "id" : "r35",
         "when_comp_start" : -1
      },
      {
         "id" : "r36",
         "when_comp_start" : -1,
         "comps" : [],
         "url" : "http://original.testbed.localhost/ia.media-imdb.com/images/M/MV5BMjE0NjY4OTEwNl5BMl5BanBnXkFtZTgwMTE0OTIwMjE@._V1_SY201_CR55,0,201,201_AL_.jpg",
         "download" : {
            "connectStart" : 0,
            "dnsStart" : -1,
            "connectEnd" : 13,
            "sslEnd" : -1,
            "len" : 11127,
            "dns" : 0,
            "type" : "image/jpeg",
            "receiveHeadersEnd" : 64,
            "id" : "download_42",
            "dnsEnd" : -1,
            "sslStart" : -1,
            "receiveLast" : 650.670000015758,
            "receivedTime" : "714.670000015758",
            "s_time" : 562.341000011656,
            "sendStart" : 13,
            "sendEnd" : 13,
            "receiveFirst" : 51
         }
      },
      {
         "when_comp_start" : -1,
         "id" : "r37",
         "url" : "http://original.testbed.localhost/ia.media-imdb.com/images/M/MV5BNDE0NTQwODM5M15BMl5BanBnXkFtZTYwNzQ2Nzk5._V1_SX116_CR0,0,116,172_AL_.jpg",
         "comps" : [],
         "download" : {
            "receiveFirst" : 51,
            "sendEnd" : 42,
            "receivedTime" : "715.026999998372",
            "sendStart" : 42,
            "s_time" : 563.812000007601,
            "receiveLast" : 622.026999998372,
            "id" : "download_43",
            "sslStart" : -1,
            "dnsEnd" : -1,
            "type" : "image/jpeg",
            "receiveHeadersEnd" : 93,
            "dns" : 0,
            "connectStart" : 0,
            "dnsStart" : -1,
            "sslEnd" : -1,
            "len" : 7391,
            "connectEnd" : 42
         }
      },
      {
         "download" : {
            "id" : "download_44",
            "dnsEnd" : -1,
            "sslStart" : -1,
            "receiveHeadersEnd" : 102,
            "type" : "image/png",
            "dns" : 0,
            "dnsStart" : -1,
            "connectStart" : 0,
            "len" : 637,
            "sslEnd" : -1,
            "connectEnd" : 51,
            "receiveFirst" : 51,
            "sendEnd" : 51,
            "receivedTime" : "715.28300002683",
            "sendStart" : 51,
            "s_time" : 564.567000023089,
            "receiveLast" : 613.28300002683
         },
         "url" : "http://original.testbed.localhost/ia.media-imdb.com/images/G/01/IMDb/icon/external-button._CB304896345_.png",
         "comps" : [],
         "when_comp_start" : -1,
         "id" : "r38"
      },
      {
         "comps" : [],
         "url" : "http://original.testbed.localhost/ia.media-imdb.com/images/G/01/IMDb/icon/external-button-hover._CB304896345_.png",
         "download" : {
            "receiveFirst" : 52,
            "sendEnd" : 42,
            "receivedTime" : "719.654000014998",
            "sendStart" : 42,
            "s_time" : 574.270000011893,
            "receiveLast" : 625.654000014998,
            "id" : "download_45",
            "sslStart" : -1,
            "dnsEnd" : -1,
            "type" : "image/png",
            "receiveHeadersEnd" : 94,
            "dns" : 0,
            "dnsStart" : -1,
            "connectStart" : 0,
            "sslEnd" : -1,
            "len" : 631,
            "connectEnd" : 42
         },
         "when_comp_start" : -1,
         "id" : "r39"
      },
      {
         "when_comp_start" : -1,
         "id" : "r40",
         "download" : {
            "dnsEnd" : -1,
            "sslStart" : -1,
            "id" : "download_46",
            "connectEnd" : 42,
            "sslEnd" : -1,
            "len" : 7902,
            "connectStart" : 0,
            "dnsStart" : -1,
            "dns" : 0,
            "receiveHeadersEnd" : 93,
            "type" : "image/jpeg",
            "sendEnd" : 42,
            "receiveFirst" : 51,
            "receiveLast" : 627.112000009976,
            "s_time" : 575.347000005422,
            "sendStart" : 42,
            "receivedTime" : "720.112000009976"
         },
         "comps" : [],
         "url" : "http://original.testbed.localhost/ia.media-imdb.com/images/M/MV5BMTI4ODIzMDYxN15BMl5BanBnXkFtZTcwOTY2NzMyMQ@@._V1_SY172_CR2,0,116,172_AL_.jpg"
      },
      {
         "comps" : [],
         "url" : "http://original.testbed.localhost/widget/recommendations/recs",
         "download" : {
            "dnsEnd" : -1,
            "sslStart" : -1,
            "id" : "download_47",
            "dns" : 0,
            "type" : "text/html",
            "receiveHeadersEnd" : 55,
            "connectEnd" : 4,
            "sslEnd" : -1,
            "len" : 316,
            "connectStart" : 0,
            "dnsStart" : -1,
            "receiveFirst" : 51,
            "sendEnd" : 4,
            "s_time" : 622.614000021713,
            "sendStart" : 4,
            "receivedTime" : "720.48800002085",
            "receiveLast" : 665.48800002085
         },
         "when_comp_start" : 1,
         "id" : "r62"
      },
      {
         "download" : {
            "receiveFirst" : 51,
            "sendEnd" : 22,
            "receivedTime" : "724.849000020185",
            "s_time" : 605.712000018684,
            "sendStart" : 22,
            "receiveLast" : 651.849000020185,
            "id" : "download_48",
            "dnsEnd" : -1,
            "sslStart" : -1,
            "dns" : 0,
            "type" : "image/jpeg",
            "receiveHeadersEnd" : 73,
            "connectStart" : 0,
            "dnsStart" : -1,
            "connectEnd" : 22,
            "len" : 7022,
            "sslEnd" : -1
         },
         "comps" : [],
         "url" : "http://original.testbed.localhost/ia.media-imdb.com/images/M/MV5BMjEzOTE3ODM3OF5BMl5BanBnXkFtZTcwMzYyODI4Mg@@._V1_SX116_CR0,0,116,172_AL_.jpg",
         "id" : "r41",
         "when_comp_start" : -1
      },
      {
         "id" : "r42",
         "when_comp_start" : -1,
         "download" : {
            "connectEnd" : 43,
            "len" : 8138,
            "sslEnd" : -1,
            "connectStart" : 0,
            "dnsStart" : -1,
            "dns" : 0,
            "receiveHeadersEnd" : 94,
            "type" : "image/jpeg",
            "sslStart" : -1,
            "dnsEnd" : -1,
            "id" : "download_49",
            "receiveLast" : 631.350000022445,
            "s_time" : 615.357000002405,
            "sendStart" : 43,
            "receivedTime" : "725.350000022445",
            "sendEnd" : 43,
            "receiveFirst" : 51
         },
         "comps" : [],
         "url" : "http://original.testbed.localhost/ia.media-imdb.com/images/M/MV5BMTI3OTM0MzY3M15BMl5BanBnXkFtZTcwNzY3NzQyMw@@._V1._CR28,1,298,465_SX116_CR0,0,116,172_AL_.jpg"
      },
      {
         "url" : "http://original.testbed.localhost/ia.media-imdb.com/images/M/MV5BMTI2OTk4MDk3OF5BMl5BanBnXkFtZTcwMTY3NTc3Mg@@._V1_SX116_CR0,0,116,172_AL_.jpg",
         "comps" : [],
         "download" : {
            "id" : "download_50",
            "sslStart" : -1,
            "dnsEnd" : -1,
            "dnsStart" : -1,
            "connectStart" : 0,
            "sslEnd" : -1,
            "len" : 7162,
            "connectEnd" : 51,
            "receiveHeadersEnd" : 103,
            "type" : "image/jpeg",
            "dns" : 0,
            "sendEnd" : 51,
            "receiveFirst" : 52,
            "receiveLast" : 636.293999999063,
            "receivedTime" : "739.293999999063",
            "sendStart" : 51,
            "s_time" : 616.700000013225
         },
         "when_comp_start" : -1,
         "id" : "r43"
      },
      {
         "comps" : [],
         "url" : "http://original.testbed.localhost/ia.media-imdb.com/images/M/MV5BODYzMjc5NDEzNF5BMl5BanBnXkFtZTgwMzI3ODcyODE@._V1_SY132_CR0,0,89,132_AL_.jpg",
         "download" : {
            "receiveLast" : 636.571000012802,
            "receivedTime" : "739.571000012802",
            "sendStart" : 51,
            "s_time" : 617.167000018526,
            "sendEnd" : 51,
            "receiveFirst" : 52,
            "connectStart" : 0,
            "dnsStart" : -1,
            "len" : 5096,
            "sslEnd" : -1,
            "connectEnd" : 51,
            "type" : "image/jpeg",
            "receiveHeadersEnd" : 103,
            "dns" : 0,
            "id" : "download_51",
            "sslStart" : -1,
            "dnsEnd" : -1
         },
         "when_comp_start" : -1,
         "id" : "r44"
      },
      {
         "comps" : [],
         "url" : "http://original.testbed.localhost/ia.media-imdb.com/images/M/MV5BMTkyODMxNDUyNl5BMl5BanBnXkFtZTcwMjcxOTcxNA@@._V1_SY207_CR85,0,140,207_AL_.jpg",
         "download" : {
            "sslStart" : -1,
            "dnsEnd" : -1,
            "id" : "download_52",
            "connectEnd" : 43,
            "len" : 5035,
            "sslEnd" : -1,
            "dnsStart" : -1,
            "connectStart" : 0,
            "dns" : 0,
            "receiveHeadersEnd" : 94,
            "type" : "image/jpeg",
            "sendEnd" : 43,
            "receiveFirst" : 51,
            "receiveLast" : 645.82500002603,
            "s_time" : 626.685000024736,
            "sendStart" : 43,
            "receivedTime" : "739.82500002603"
         },
         "when_comp_start" : -1,
         "id" : "r45"
      },
      {
         "id" : "r46",
         "when_comp_start" : -1,
         "comps" : [],
         "url" : "http://original.testbed.localhost/ia.media-imdb.com/images/M/MV5BNzA4NjU3ODA0OV5BMl5BanBnXkFtZTcwMTY3NDc4MQ@@._V1_SX140_CR0,0,140,207_AL_.jpg",
         "download" : {
            "receivedTime" : "740.085000026738",
            "s_time" : 627.639000013005,
            "sendStart" : 51,
            "receiveLast" : 637.085000026738,
            "receiveFirst" : 52,
            "sendEnd" : 51,
            "dns" : 0,
            "receiveHeadersEnd" : 103,
            "type" : "image/jpeg",
            "dnsStart" : -1,
            "connectStart" : 0,
            "connectEnd" : 51,
            "len" : 7808,
            "sslEnd" : -1,
            "id" : "download_53",
            "sslStart" : -1,
            "dnsEnd" : -1
         }
      },
      {
         "when_comp_start" : -1,
         "id" : "r47",
         "download" : {
            "sendEnd" : 22,
            "receiveFirst" : 51,
            "receiveLast" : 667.283000021009,
            "receivedTime" : "740.283000021009",
            "sendStart" : 22,
            "s_time" : 658.0140000151,
            "id" : "download_54",
            "sslStart" : -1,
            "dnsEnd" : -1,
            "dnsStart" : -1,
            "connectStart" : 0,
            "len" : 4721,
            "sslEnd" : -1,
            "connectEnd" : 22,
            "type" : "image/jpeg",
            "receiveHeadersEnd" : 73,
            "dns" : 0
         },
         "comps" : [],
         "url" : "http://original.testbed.localhost/ia.media-imdb.com/images/M/MV5BZjI0YzgxY2UtMjc1OS00ZTJiLTg2NWMtN2E5OWQ3NGRlN2RlXkEyXkFqcGdeQXVyNjUwNzk3NDc@._V1_SY207_CR173,0,140,207_AL_.jpg"
      },
      {
         "download" : {
            "receivedTime" : "763.205000024755",
            "sendStart" : 43,
            "s_time" : 667.685000022175,
            "receiveLast" : 669.205000024755,
            "receiveFirst" : 51,
            "sendEnd" : 43,
            "type" : "image/jpeg",
            "receiveHeadersEnd" : 94,
            "dns" : 0,
            "dnsStart" : -1,
            "connectStart" : 0,
            "sslEnd" : -1,
            "len" : 5423,
            "connectEnd" : 43,
            "id" : "download_55",
            "sslStart" : -1,
            "dnsEnd" : -1
         },
         "comps" : [],
         "url" : "http://original.testbed.localhost/ia.media-imdb.com/images/M/MV5BMTEwNTAyNjgxNjheQTJeQWpwZ15BbWU3MDAzMzU1Mjc@._V1_SY207_CR114,0,140,207_AL_.jpg",
         "id" : "r48",
         "when_comp_start" : -1
      },
      {
         "download" : {
            "receivedTime" : "773.007000010693",
            "s_time" : 668.766000017058,
            "sendStart" : 51,
            "receiveLast" : 670.007000010693,
            "receiveFirst" : 52,
            "sendEnd" : 51,
            "dns" : 0,
            "receiveHeadersEnd" : 103,
            "type" : "image/jpeg",
            "connectStart" : 0,
            "dnsStart" : -1,
            "connectEnd" : 51,
            "len" : 6730,
            "sslEnd" : -1,
            "id" : "download_56",
            "sslStart" : -1,
            "dnsEnd" : -1
         },
         "comps" : [],
         "url" : "http://original.testbed.localhost/ia.media-imdb.com/images/M/MV5BMTAzNzg4MDcyMDFeQTJeQWpwZ15BbWU3MDExNDQ1NzU@._V1_SY207_CR6,0,140,207_AL_.jpg",
         "id" : "r49",
         "when_comp_start" : -1
      },
      {
         "download" : {
            "dns" : 0,
            "receiveHeadersEnd" : 103,
            "type" : "image/jpeg",
            "connectEnd" : 51,
            "len" : 39923,
            "sslEnd" : -1,
            "connectStart" : 0,
            "dnsStart" : -1,
            "dnsEnd" : -1,
            "sslStart" : -1,
            "id" : "download_57",
            "s_time" : 669.615000020713,
            "sendStart" : 51,
            "receivedTime" : "823.996000020998",
            "receiveLast" : 720.996000020998,
            "receiveFirst" : 52,
            "sendEnd" : 51
         },
         "url" : "http://original.testbed.localhost/ia.media-imdb.com/images/M/MV5BMTExNTA2MDQ2MTdeQTJeQWpwZ15BbWU4MDU0MzAyODMx._V1_CR0,47,500,281_AL_.jpg",
         "comps" : [],
         "when_comp_start" : -1,
         "id" : "r50"
      },
      {
         "download" : {
            "id" : "download_58",
            "dnsEnd" : -1,
            "sslStart" : -1,
            "type" : "image/jpeg",
            "receiveHeadersEnd" : 96,
            "dns" : 0,
            "connectStart" : 0,
            "dnsStart" : -1,
            "sslEnd" : -1,
            "len" : 11257,
            "connectEnd" : 42,
            "receiveFirst" : 54,
            "sendEnd" : 42,
            "receivedTime" : "782.827000017278",
            "sendStart" : 42,
            "s_time" : 679.895000008401,
            "receiveLast" : 686.827000017278
         },
         "url" : "http://original.testbed.localhost/ia.media-imdb.com/images/M/MV5BMTQ3NTA1NTIyMF5BMl5BanBnXkFtZTgwOTc4MDM1ODE@._V1_SY230_CR19,0,307,230_AL_.jpg",
         "comps" : [],
         "id" : "r53",
         "when_comp_start" : -1
      },
      {
         "when_comp_start" : -1,
         "id" : "r61",
         "download" : {
            "id" : "download_59",
            "dnsEnd" : -1,
            "sslStart" : -1,
            "type" : "image/png",
            "receiveHeadersEnd" : 72,
            "dns" : 0,
            "dnsStart" : -1,
            "connectStart" : 0,
            "len" : 47963,
            "sslEnd" : -1,
            "connectEnd" : 21,
            "receiveFirst" : 51,
            "sendEnd" : 21,
            "receivedTime" : "788.154000008944",
            "sendStart" : 21,
            "s_time" : 710.493000020506,
            "receiveLast" : 716.154000008944
         },
         "comps" : [],
         "url" : "http://original.testbed.localhost/ia.media-imdb.com/images/G/01/imdb/images/lb/overlay-1511558127._V_.png"
      },
      {
         "when_comp_start" : -1,
         "id" : "r63",
         "url" : "http://original.testbed.localhost/ia.media-imdb.com/images/G/01/imdb/images/jquery/plugins/watchlist-ribbon-sprite-sm-771043870._V_.png",
         "comps" : [],
         "download" : {
            "receiveHeadersEnd" : 66,
            "type" : "image/png",
            "dns" : 0,
            "sslEnd" : -1,
            "len" : 932,
            "connectEnd" : 11,
            "connectStart" : 0,
            "dnsStart" : -1,
            "sslStart" : -1,
            "dnsEnd" : -1,
            "id" : "download_60",
            "sendStart" : 11,
            "s_time" : 720.648000016809,
            "receivedTime" : "788.570000004256",
            "receiveLast" : 722.570000004256,
            "receiveFirst" : 54,
            "sendEnd" : 12
         }
      }
   ],
   "start_activity" : "download_0",
   "name" : "original.testbed.localhost_www.imdb.com_",
   "load_activity" : -1,
   "n_download_no_trigger" : 1,
   "deps" : [
      {
         "a1" : "comp_94",
         "id" : "dep1",
         "time" : -1,
         "a2" : "r1_c2"
      },
      {
         "a2" : "r1_c3",
         "id" : "dep2",
         "time" : -1,
         "a1" : "comp_101"
      },
      {
         "a2" : "r1_c4",
         "id" : "dep3",
         "time" : -1,
         "a1" : "comp_104"
      },
      {
         "time" : -1,
         "id" : "dep4",
         "a2" : "r1_c5",
         "a1" : "comp_107"
      },
      {
         "a2" : "comp_101",
         "time" : -1,
         "id" : "dep5",
         "a1" : "comp_94"
      },
      {
         "a2" : "comp_104",
         "id" : "dep6",
         "time" : -1,
         "a1" : "comp_101"
      },
      {
         "a1" : "comp_104",
         "id" : "dep7",
         "time" : -1,
         "a2" : "comp_107"
      },
      {
         "a2" : "download_60",
         "time" : -1,
         "id" : "dep8",
         "a1" : "r1_c5"
      },
      {
         "id" : "dep9",
         "time" : 112.453000008827,
         "a2" : "download_59",
         "a1" : "r1_c5"
      },
      {
         "a1" : "comp_185",
         "a2" : "download_58",
         "time" : 11.931999993977,
         "id" : "dep10"
      },
      {
         "a1" : "comp_185",
         "time" : 1.65200000628897,
         "id" : "dep11",
         "a2" : "download_57"
      },
      {
         "time" : 0.803000002634008,
         "id" : "dep12",
         "a2" : "download_56",
         "a1" : "comp_185"
      },
      {
         "a1" : "r51_c1",
         "a2" : "download_55",
         "id" : "dep13",
         "time" : 259.044000005815
      },
      {
         "id" : "dep14",
         "time" : 249.37299999874,
         "a2" : "download_54",
         "a1" : "r51_c1"
      },
      {
         "a1" : "r1_c5",
         "time" : 59.974000003421,
         "id" : "dep15",
         "a2" : "download_54"
      },
      {
         "a1" : "r51_c1",
         "id" : "dep16",
         "time" : 218.997999996645,
         "a2" : "download_53"
      },
      {
         "a2" : "download_53",
         "time" : 29.599000001326,
         "id" : "dep17",
         "a1" : "r1_c5"
      },
      {
         "a1" : "r51_c1",
         "id" : "dep18",
         "time" : 218.044000008376,
         "a2" : "download_52"
      },
      {
         "a2" : "download_52",
         "time" : 28.645000013057,
         "id" : "dep19",
         "a1" : "r1_c5"
      },
      {
         "a1" : "r51_c1",
         "id" : "dep20",
         "time" : 208.526000002166,
         "a2" : "download_51"
      },
      {
         "a2" : "download_51",
         "time" : 19.127000006847,
         "id" : "dep21",
         "a1" : "r1_c5"
      },
      {
         "a1" : "r51_c1",
         "time" : 208.058999996865,
         "id" : "dep22",
         "a2" : "download_50"
      },
      {
         "a1" : "r1_c5",
         "id" : "dep23",
         "time" : 18.660000001546,
         "a2" : "download_50"
      },
      {
         "id" : "dep24",
         "time" : 206.715999986045,
         "a2" : "download_49",
         "a1" : "r51_c1"
      },
      {
         "a1" : "r1_c5",
         "a2" : "download_49",
         "time" : 17.316999990726,
         "id" : "dep25"
      },
      {
         "a1" : "r51_c1",
         "a2" : "download_48",
         "id" : "dep26",
         "time" : 197.071000002324
      },
      {
         "time" : 7.67200000700495,
         "id" : "dep27",
         "a2" : "download_48",
         "a1" : "r1_c5"
      },
      {
         "a1" : "r51_c1",
         "a2" : "download_47",
         "time" : 213.973000005353,
         "id" : "dep28"
      },
      {
         "a1" : "r1_c5",
         "a2" : "download_47",
         "time" : 24.574000010034,
         "id" : "dep29"
      },
      {
         "a1" : "r51_c1",
         "a2" : "download_46",
         "id" : "dep30",
         "time" : 166.705999989062
      },
      {
         "a2" : "download_46",
         "time" : -1,
         "id" : "dep31",
         "a1" : "r1_c1"
      },
      {
         "a2" : "download_45",
         "id" : "dep32",
         "time" : 165.628999995533,
         "a1" : "r51_c1"
      },
      {
         "a1" : "r1_c1",
         "time" : 470.090999995591,
         "id" : "dep33",
         "a2" : "download_45"
      },
      {
         "a1" : "r51_c1",
         "a2" : "download_44",
         "id" : "dep34",
         "time" : 155.926000006729
      },
      {
         "a2" : "download_44",
         "id" : "dep35",
         "time" : 460.388000006787,
         "a1" : "r1_c1"
      },
      {
         "a1" : "r51_c1",
         "time" : 155.170999991241,
         "id" : "dep36",
         "a2" : "download_43"
      },
      {
         "id" : "dep37",
         "time" : 459.632999991299,
         "a2" : "download_43",
         "a1" : "r1_c1"
      },
      {
         "a1" : "r51_c1",
         "time" : 153.699999995296,
         "id" : "dep38",
         "a2" : "download_42"
      },
      {
         "a1" : "r1_c1",
         "a2" : "download_42",
         "time" : 458.161999995354,
         "id" : "dep39"
      },
      {
         "a1" : "r51_c1",
         "a2" : "download_41",
         "id" : "dep40",
         "time" : 144.482000003336
      },
      {
         "a1" : "r1_c1",
         "a2" : "download_41",
         "id" : "dep41",
         "time" : 448.944000003394
      },
      {
         "a2" : "download_40",
         "id" : "dep42",
         "time" : 53.5369999997781,
         "a1" : "comp_92"
      },
      {
         "time" : 52.6200000022071,
         "id" : "dep43",
         "a2" : "download_39",
         "a1" : "comp_92"
      },
      {
         "id" : "dep44",
         "time" : 42.881999979727,
         "a2" : "download_38",
         "a1" : "comp_92"
      },
      {
         "a1" : "comp_92",
         "a2" : "download_37",
         "id" : "dep45",
         "time" : 41.591999994125
      },
      {
         "time" : 40.899999992689,
         "id" : "dep46",
         "a2" : "download_36",
         "a1" : "comp_92"
      },
      {
         "time" : 50.400999985868,
         "id" : "dep47",
         "a2" : "download_35",
         "a1" : "r51_c1"
      },
      {
         "a1" : "r1_c1",
         "a2" : "download_35",
         "id" : "dep48",
         "time" : 354.862999985926
      },
      {
         "a1" : "r1_c1",
         "id" : "dep49",
         "time" : 302.672999998322,
         "a2" : "download_34"
      },
      {
         "time" : 300.036000000546,
         "id" : "dep50",
         "a2" : "download_33",
         "a1" : "r1_c1"
      },
      {
         "a1" : "r1_c1",
         "id" : "dep51",
         "time" : 256.317999999737,
         "a2" : "download_32"
      },
      {
         "a1" : "r1_c1",
         "time" : 251.454999990528,
         "id" : "dep52",
         "a2" : "download_31"
      },
      {
         "a1" : "r1_c1",
         "a2" : "download_30",
         "id" : "dep53",
         "time" : 234.548999986146
      },
      {
         "a1" : "r1_c1",
         "a2" : "download_29",
         "id" : "dep54",
         "time" : 248.728999984451
      },
      {
         "a1" : "r1_c1",
         "time" : 199.644000007538,
         "id" : "dep55",
         "a2" : "download_28"
      },
      {
         "a2" : "download_27",
         "time" : 198.971000005258,
         "id" : "dep56",
         "a1" : "r1_c1"
      },
      {
         "a2" : "download_26",
         "id" : "dep57",
         "time" : 198.66200000979,
         "a1" : "r1_c1"
      },
      {
         "id" : "dep58",
         "time" : 2.30699998792198,
         "a2" : "download_25",
         "a1" : "r51_c1"
      },
      {
         "id" : "dep59",
         "time" : 306.76899998798,
         "a2" : "download_25",
         "a1" : "r1_c1"
      },
      {
         "a1" : "r1_c1",
         "a2" : "download_24",
         "time" : 195.352999988245,
         "id" : "dep60"
      },
      {
         "a1" : "r1_c1",
         "id" : "dep61",
         "time" : 223.407999990741,
         "a2" : "download_23"
      },
      {
         "a1" : "r1_c1",
         "id" : "dep62",
         "time" : 223.407999990741,
         "a2" : "download_23"
      },
      {
         "a1" : "r1_c1",
         "a2" : "download_22",
         "id" : "dep63",
         "time" : 223.293999995803
      },
      {
         "a1" : "r1_c1",
         "a2" : "download_22",
         "time" : 223.293999995803,
         "id" : "dep64"
      },
      {
         "a2" : "download_21",
         "id" : "dep65",
         "time" : 223.203000001376,
         "a1" : "r1_c1"
      },
      {
         "a1" : "r1_c1",
         "a2" : "download_21",
         "id" : "dep66",
         "time" : 223.203000001376
      },
      {
         "a1" : "r1_c1",
         "id" : "dep67",
         "time" : 223.082999989856,
         "a2" : "download_20"
      },
      {
         "id" : "dep68",
         "time" : 223.082999989856,
         "a2" : "download_20",
         "a1" : "r1_c1"
      },
      {
         "a1" : "r1_c1",
         "id" : "dep69",
         "time" : 222.96099999221,
         "a2" : "download_19"
      },
      {
         "id" : "dep70",
         "time" : 217.845999985002,
         "a2" : "download_18",
         "a1" : "r1_c1"
      },
      {
         "time" : 216.336999990744,
         "id" : "dep71",
         "a2" : "download_17",
         "a1" : "r1_c1"
      },
      {
         "a2" : "download_16",
         "time" : 146.9329999818,
         "id" : "dep72",
         "a1" : "r1_c1"
      },
      {
         "a1" : "r1_c1",
         "time" : 146.176000009291,
         "id" : "dep73",
         "a2" : "download_15"
      },
      {
         "a2" : "download_14",
         "id" : "dep74",
         "time" : 145.938000001479,
         "a1" : "r1_c1"
      },
      {
         "a2" : "download_13",
         "time" : 144.976000010501,
         "id" : "dep75",
         "a1" : "r1_c1"
      },
      {
         "a1" : "r1_c1",
         "time" : 144.725999998627,
         "id" : "dep76",
         "a2" : "download_12"
      },
      {
         "id" : "dep77",
         "time" : 144.268999982159,
         "a2" : "download_11",
         "a1" : "r1_c1"
      },
      {
         "a1" : "r1_c1",
         "a2" : "download_10",
         "id" : "dep78",
         "time" : 144.432000000961
      },
      {
         "time" : 144.094999996014,
         "id" : "dep79",
         "a2" : "download_9",
         "a1" : "r1_c1"
      },
      {
         "a1" : "r1_c1",
         "a2" : "download_8",
         "time" : 142.737999995006,
         "id" : "dep80"
      },
      {
         "a1" : "r1_c1",
         "a2" : "download_7",
         "time" : 129.579000000376,
         "id" : "dep81"
      },
      {
         "a2" : "download_6",
         "id" : "dep82",
         "time" : 3.483999986201,
         "a1" : "r1_c1"
      },
      {
         "a2" : "download_5",
         "id" : "dep83",
         "time" : 3.60900000669,
         "a1" : "r1_c1"
      },
      {
         "a1" : "r1_c1",
         "a2" : "download_4",
         "time" : 4.21300000743901,
         "id" : "dep84"
      },
      {
         "a1" : "r1_c1",
         "a2" : "download_4",
         "time" : 4.21300000743901,
         "id" : "dep85"
      },
      {
         "a2" : "download_3",
         "id" : "dep86",
         "time" : 3.36000000243101,
         "a1" : "r1_c1"
      },
      {
         "a2" : "download_2",
         "id" : "dep87",
         "time" : 3.009000007296,
         "a1" : "r1_c1"
      },
      {
         "time" : 3.21999998413901,
         "id" : "dep88",
         "a2" : "download_1",
         "a1" : "r1_c1"
      }
   ]
}
