{
   "load_activity" : -1,
   "deps" : [
      {
         "a1" : "comp_1",
         "id" : "dep1",
         "time" : -1,
         "a2" : "r1_c2"
      },
      {
         "a2" : "r1_c3",
         "a1" : "comp_2",
         "id" : "dep2",
         "time" : -1
      },
      {
         "a2" : "download_4",
         "time" : -1,
         "id" : "dep3",
         "a1" : "r1_c3"
      },
      {
         "a2" : "download_3",
         "id" : "dep4",
         "time" : 1.46500000846581,
         "a1" : "r1_c3"
      },
      {
         "time" : -1,
         "id" : "dep5",
         "a1" : "r1_c1",
         "a2" : "download_2"
      },
      {
         "a2" : "download_1",
         "time" : 2.75499999406749,
         "id" : "dep6",
         "a1" : "r1_c1"
      }
   ],
   "start_activity" : "download_0",
   "name" : "original.testbed.localhost_www.stihl.ch_",
   "objs" : [
      {
         "url" : "http://original.testbed.localhost/www.stihl.ch/",
         "download" : {
            "id" : "download_0",
            "receiveFirst" : 52,
            "dns" : 0,
            "sendEnd" : 0,
            "dnsStart" : -1,
            "sslEnd" : -1,
            "connectEnd" : 0,
            "connectStart" : 0,
            "receivedTime" : "58.1880000245292",
            "sendStart" : 0,
            "len" : 7653,
            "dnsEnd" : -1,
            "s_time" : 0,
            "receiveLast" : 6.18800002452917,
            "type" : "text/html",
            "receiveHeadersEnd" : 52,
            "sslStart" : -1
         },
         "id" : "r1",
         "comps" : [
            {
               "time" : 2.8039999888278,
               "e_time" : 73.1150000065099,
               "id" : "r1_c1",
               "type" : "evalhtml",
               "s_time" : 70.3110000176821
            },
            {
               "e_time" : -177484677.064,
               "time" : -177484750.765,
               "id" : "r1_c2",
               "type" : "evalhtml",
               "s_time" : 73.701000015717
            },
            {
               "s_time" : 73.8080000155605,
               "type" : "evalhtml",
               "time" : 3.36599998991011,
               "id" : "r1_c3",
               "e_time" : 77.1740000054706
            }
         ],
         "when_comp_start" : 1
      },
      {
         "download" : {
            "sendEnd" : 1,
            "dnsStart" : -1,
            "sslEnd" : -1,
            "connectEnd" : 1,
            "connectStart" : 0,
            "receivedTime" : "126.650999998674",
            "receiveFirst" : 51,
            "dns" : 0,
            "id" : "download_1",
            "receiveHeadersEnd" : 52,
            "sslStart" : -1,
            "type" : "text/html",
            "receiveLast" : 74.6509999986738,
            "sendStart" : 1,
            "s_time" : 73.0660000117496,
            "dnsEnd" : -1,
            "len" : 338
         },
         "url" : "http://original.testbed.localhost/p/images/teaser/ch-de/vorschaltseite_vertrieb.jpg",
         "id" : "r9",
         "when_comp_start" : 1,
         "comps" : []
      },
      {
         "id" : "r10",
         "download" : {
            "type" : "text/html",
            "receiveLast" : 73.9480000191834,
            "receiveHeadersEnd" : 53,
            "sslStart" : -1,
            "sendStart" : 1,
            "s_time" : 73.1150000065099,
            "dnsEnd" : -1,
            "len" : 334,
            "receiveFirst" : 52,
            "dns" : 0,
            "dnsStart" : -1,
            "sendEnd" : 1,
            "connectEnd" : 1,
            "receivedTime" : "126.948000019183",
            "connectStart" : 0,
            "sslEnd" : -1,
            "id" : "download_2"
         },
         "url" : "http://original.testbed.localhost/p/images/teaser/vorschaltseite_kettenwerk.jpg",
         "when_comp_start" : 1,
         "comps" : []
      },
      {
         "when_comp_start" : 1,
         "comps" : [],
         "download" : {
            "sslStart" : -1,
            "receiveHeadersEnd" : 103,
            "type" : "text/html",
            "receiveLast" : 92.071000023745,
            "s_time" : 75.2730000240263,
            "dnsEnd" : -1,
            "len" : 344,
            "sendStart" : 51,
            "sslEnd" : -1,
            "receivedTime" : "195.071000023745",
            "connectEnd" : 51,
            "connectStart" : 0,
            "sendEnd" : 51,
            "dnsStart" : -1,
            "dns" : 0,
            "receiveFirst" : 52,
            "id" : "download_3"
         },
         "url" : "http://original.testbed.localhost/p/images/background/fruehling_2012_overlay_1700x864.jpg",
         "id" : "r11"
      },
      {
         "url" : "http://original.testbed.localhost/p/media/flash/ch-de/teaser.jpg",
         "download" : {
            "id" : "download_4",
            "sslEnd" : -1,
            "connectEnd" : 49,
            "connectStart" : 0,
            "receivedTime" : "195.189000020036",
            "sendEnd" : 49,
            "dnsStart" : -1,
            "dns" : 0,
            "receiveFirst" : 52,
            "s_time" : 77.1740000054706,
            "dnsEnd" : -1,
            "len" : 319,
            "sendStart" : 49,
            "sslStart" : -1,
            "receiveHeadersEnd" : 101,
            "receiveLast" : 94.1890000200365,
            "type" : "text/html"
         },
         "id" : "r12",
         "comps" : [],
         "when_comp_start" : 1
      }
   ],
   "n_download_no_trigger" : 1
}
