{
   "deps" : [
      {
         "time" : -1,
         "a2" : "r1_c2",
         "id" : "dep1",
         "a1" : "comp_16"
      },
      {
         "time" : -1,
         "a2" : "r1_c3",
         "id" : "dep2",
         "a1" : "comp_20"
      },
      {
         "a1" : "r1_c1",
         "id" : "dep3",
         "a2" : "download_5",
         "time" : -1
      },
      {
         "a1" : "r1_c1",
         "time" : 2.4110000231303,
         "id" : "dep4",
         "a2" : "download_5"
      },
      {
         "time" : 2.3240000009537,
         "a2" : "download_4",
         "id" : "dep5",
         "a1" : "r1_c1"
      },
      {
         "a1" : "r1_c1",
         "time" : 2.3240000009537,
         "id" : "dep6",
         "a2" : "download_4"
      },
      {
         "a1" : "r1_c1",
         "a2" : "download_3",
         "id" : "dep7",
         "time" : 0.633999996352898
      },
      {
         "time" : 0.357000040821703,
         "id" : "dep8",
         "a2" : "download_2",
         "a1" : "r1_c1"
      },
      {
         "id" : "dep9",
         "a2" : "download_1",
         "time" : 0.521000009030104,
         "a1" : "r1_c1"
      }
   ],
   "objs" : [
      {
         "download" : {
            "sslEnd" : -1,
            "len" : 62213,
            "dns" : 0,
            "sslStart" : -1,
            "receiveLast" : 11.7099999887869,
            "receiveHeadersEnd" : 22,
            "dnsEnd" : -1,
            "receivedTime" : "33.7099999887869",
            "dnsStart" : -1,
            "connectStart" : 0,
            "id" : "download_0",
            "connectEnd" : 0,
            "sendStart" : 0,
            "receiveFirst" : 22,
            "sendEnd" : 0,
            "type" : "text/html",
            "s_time" : 0
         },
         "url" : "http://original.testbed.localhost/www.craigslist.org/",
         "id" : "r1",
         "comps" : [
            {
               "e_time" : 36.2549999845214,
               "s_time" : 33.8439999613911,
               "type" : "evalhtml",
               "id" : "r1_c1",
               "time" : 2.4110000231303
            },
            {
               "time" : -347744677.927,
               "s_time" : 316.660999960732,
               "type" : "evalhtml",
               "id" : "r1_c2",
               "e_time" : -347744361.266
            },
            {
               "e_time" : 326.70799997868,
               "type" : "evalhtml",
               "id" : "r1_c3",
               "s_time" : 326.677999983076,
               "time" : 0.0299999956039869
            }
         ],
         "when_comp_start" : 1
      },
      {
         "id" : "r3",
         "comps" : [
            {
               "type" : 4,
               "id" : "comp_0",
               "s_time" : 56.9599999580532,
               "time" : 1.5530000091531,
               "e_time" : 58.5129999672063
            }
         ],
         "when_comp_start" : -1,
         "download" : {
            "receiveLast" : 35.8869999842718,
            "sslStart" : -1,
            "len" : 14061,
            "dns" : 0,
            "sslEnd" : -1,
            "dnsStart" : -1,
            "receiveHeadersEnd" : 21,
            "dnsEnd" : -1,
            "receivedTime" : "56.8869999842718",
            "connectStart" : 0,
            "sendStart" : 0,
            "id" : "download_1",
            "connectEnd" : 0,
            "receiveFirst" : 21,
            "sendEnd" : 0,
            "type" : "text/css",
            "s_time" : 34.3649999704212
         },
         "url" : "http://original.testbed.localhost/www.craigslist.org/styles/homepage.css%3Fv=d9cdc4619d124ffc7320716386f6c9ae.css"
      },
      {
         "download" : {
            "receiveFirst" : 21,
            "sendEnd" : 1,
            "type" : "text/css",
            "s_time" : 34.2010000022128,
            "sslStart" : -1,
            "receiveLast" : 36.666999975685,
            "sslEnd" : -1,
            "dns" : 0,
            "len" : 41205,
            "dnsStart" : -1,
            "receiveHeadersEnd" : 22,
            "receivedTime" : "58.666999975685",
            "dnsEnd" : -1,
            "connectStart" : 0,
            "sendStart" : 1,
            "id" : "download_2",
            "connectEnd" : 1
         },
         "url" : "http://original.testbed.localhost/www.craigslist.org/styles/cl.css%3Fv=967fa9452cfdc85f6447f07aaf823b75.css",
         "id" : "r2",
         "comps" : [
            {
               "type" : 4,
               "id" : "comp_1",
               "s_time" : 58.6909999838099,
               "time" : 2.5199999799952,
               "e_time" : 61.2109999638051
            }
         ],
         "when_comp_start" : -1
      },
      {
         "when_comp_start" : -1,
         "comps" : [
            {
               "e_time" : 127.669999958016,
               "id" : "comp_7",
               "type" : 4,
               "s_time" : 114.044999994803,
               "time" : 13.624999963213
            }
         ],
         "id" : "r4",
         "url" : "http://original.testbed.localhost/www.craigslist.org/styles/jquery-ui-clcustom.css%3Fv=31607a98a2cb3fba2c70e3e66ecb4440.css",
         "download" : {
            "dnsEnd" : 0,
            "receivedTime" : "113.981999980751",
            "receiveHeadersEnd" : 42,
            "dnsStart" : 0,
            "len" : 31168,
            "sslEnd" : -1,
            "dns" : 0,
            "receiveLast" : 71.9819999807514,
            "sslStart" : -1,
            "connectEnd" : 20,
            "id" : "download_3",
            "sendStart" : 20,
            "connectStart" : 0,
            "sendEnd" : 20,
            "receiveFirst" : 22,
            "s_time" : 34.477999957744,
            "type" : "text/css"
         }
      },
      {
         "url" : "http://original.testbed.localhost/www.craigslist.org/js/general-concat.min.js%3Fv=782b1cbcdbb4812ae3d780626abf737d",
         "download" : {
            "type" : "text/plain",
            "s_time" : 36.1679999623448,
            "receiveFirst" : 20,
            "sendEnd" : 21,
            "id" : "download_4",
            "connectEnd" : 21,
            "sendStart" : 21,
            "connectStart" : 0,
            "receiveHeadersEnd" : 41,
            "receivedTime" : "245.927999960259",
            "dnsEnd" : -1,
            "dnsStart" : -1,
            "len" : 413625,
            "dns" : 0,
            "sslEnd" : -1,
            "receiveLast" : 204.927999960259,
            "sslStart" : -1
         },
         "when_comp_start" : -1,
         "comps" : [
            {
               "e_time" : 316.660999960732,
               "time" : 70.634000003338,
               "type" : 1,
               "id" : "comp_16",
               "s_time" : 246.026999957394
            }
         ],
         "id" : "r6"
      },
      {
         "id" : "r7",
         "comps" : [
            {
               "e_time" : 326.677999983076,
               "s_time" : 317.546999955084,
               "id" : "comp_20",
               "type" : 1,
               "time" : 9.131000027992
            }
         ],
         "when_comp_start" : -1,
         "download" : {
            "type" : "text/plain",
            "s_time" : 36.2549999845214,
            "receiveFirst" : 21,
            "sendEnd" : 21,
            "connectStart" : 0,
            "sendStart" : 21,
            "id" : "download_5",
            "connectEnd" : 21,
            "receiveLast" : 71.7739999685436,
            "sslStart" : -1,
            "dns" : 0,
            "len" : 2363,
            "sslEnd" : -1,
            "dnsStart" : 0,
            "receiveHeadersEnd" : 42,
            "dnsEnd" : 0,
            "receivedTime" : "113.773999968544"
         },
         "url" : "http://original.testbed.localhost/www.craigslist.org/js/homepage-concat.min.js%3Fv=9397d3ebbd3e4db43be560dbadea42e7"
      }
   ],
   "load_activity" : -1,
   "name" : "original.testbed.localhost_www.craigslist.org_",
   "start_activity" : "download_0",
   "n_download_no_trigger" : 1
}
