{
   "objs" : [
      {
         "download" : {
            "sendStart" : 0,
            "receiveHeadersEnd" : 22,
            "s_time" : 0,
            "type" : "text/html",
            "dnsEnd" : -1,
            "receivedTime" : "43.0320000159554",
            "sslStart" : -1,
            "id" : "download_0",
            "dnsStart" : -1,
            "len" : 116438,
            "sendEnd" : 0,
            "dns" : 0,
            "receiveFirst" : 22,
            "receiveLast" : 21.0320000159554,
            "sslEnd" : -1,
            "connectStart" : 0,
            "connectEnd" : 0
         },
         "comps" : [
            {
               "e_time" : 35.7380000059493,
               "id" : "r1_c1",
               "s_time" : 33.6720000486821,
               "type" : "evalhtml",
               "time" : 2.0659999572672
            },
            {
               "s_time" : 389.00399999693,
               "time" : -344958094.542,
               "type" : "evalhtml",
               "e_time" : -344957705.538,
               "id" : "r1_c2"
            },
            {
               "id" : "r1_c3",
               "e_time" : -344957705.538,
               "s_time" : 418.097999994643,
               "time" : -344958123.636,
               "type" : "evalhtml"
            },
            {
               "e_time" : -344957705.538,
               "id" : "r1_c4",
               "type" : "evalhtml",
               "time" : -344958124.955,
               "s_time" : 419.417000026442
            },
            {
               "id" : "r1_c5",
               "e_time" : -344957705.538,
               "type" : "evalhtml",
               "time" : -344958129.469,
               "s_time" : 423.930999997538
            },
            {
               "e_time" : -344957705.538,
               "id" : "r1_c6",
               "time" : -344958131.451,
               "type" : "evalhtml",
               "s_time" : 425.913000013679
            },
            {
               "e_time" : -344957705.538,
               "id" : "r1_c7",
               "s_time" : 427.25300003076,
               "type" : "evalhtml",
               "time" : -344958132.791
            },
            {
               "type" : "evalhtml",
               "time" : -344958133.14,
               "s_time" : 427.602000010666,
               "e_time" : -344957705.538,
               "id" : "r1_c8"
            },
            {
               "s_time" : 429.841000004672,
               "type" : "evalhtml",
               "time" : 161.684999999124,
               "id" : "r1_c9",
               "e_time" : 591.526000003796
            },
            {
               "e_time" : 721.718000015244,
               "id" : "r1_c10",
               "s_time" : 638.934000045992,
               "time" : 82.783999969252,
               "type" : "evalhtml"
            }
         ],
         "when_comp_start" : 1,
         "id" : "r1",
         "url" : "http://original.testbed.localhost/www.whitehouse.gov/"
      },
      {
         "id" : "r2",
         "url" : "http://original.testbed.localhost/www.whitehouse.gov/sites/whitehouse.gov/files/css/css_lQaZfjVpwP_oGNqdtWCSpJT1EMqXdMiU84ekLLxQnc4.css",
         "download" : {
            "id" : "download_1",
            "dnsStart" : -1,
            "receivedTime" : "57.9420000431128",
            "sslStart" : -1,
            "dnsEnd" : -1,
            "receiveHeadersEnd" : 23,
            "sendStart" : 2,
            "type" : "text/css",
            "s_time" : 34.4240000122227,
            "connectStart" : 0,
            "connectEnd" : 2,
            "receiveLast" : 34.9420000431128,
            "sslEnd" : -1,
            "receiveFirst" : 21,
            "len" : 3111,
            "dns" : 0,
            "sendEnd" : 2
         },
         "comps" : [
            {
               "s_time" : 57.9930000239983,
               "type" : 4,
               "time" : 0.3310000174679,
               "id" : "comp_2",
               "e_time" : 58.3240000414662
            }
         ],
         "when_comp_start" : -1
      },
      {
         "download" : {
            "receivedTime" : "64.7520000347868",
            "sslStart" : -1,
            "dnsStart" : -1,
            "id" : "download_2",
            "sendStart" : 8,
            "receiveHeadersEnd" : 29,
            "s_time" : 34.5470000174828,
            "type" : "text/css",
            "dnsEnd" : -1,
            "receiveLast" : 35.7520000347868,
            "sslEnd" : -1,
            "connectStart" : 0,
            "connectEnd" : 8,
            "len" : 20977,
            "sendEnd" : 8,
            "dns" : 0,
            "receiveFirst" : 21
         },
         "when_comp_start" : -1,
         "comps" : [
            {
               "e_time" : 65.8650000113994,
               "id" : "comp_3",
               "s_time" : 64.8370000417344,
               "time" : 1.027999969665,
               "type" : 4
            }
         ],
         "id" : "r3",
         "url" : "http://original.testbed.localhost/www.whitehouse.gov/sites/whitehouse.gov/files/css/css_yU1ecLb-JQK8Zu-UAxooO-nvU4puNy9Vo8PpzTa6cX4.css"
      },
      {
         "download" : {
            "receiveFirst" : 21,
            "len" : 293,
            "dns" : 0,
            "sendEnd" : 21,
            "connectStart" : 0,
            "connectEnd" : 21,
            "receiveLast" : 35.780999999959,
            "sslEnd" : -1,
            "dnsEnd" : 1,
            "sendStart" : 21,
            "receiveHeadersEnd" : 42,
            "type" : "text/css",
            "s_time" : 34.7860000329092,
            "dnsStart" : 1,
            "id" : "download_3",
            "receivedTime" : "77.780999999959",
            "sslStart" : -1
         },
         "when_comp_start" : -1,
         "comps" : [
            {
               "id" : "comp_4",
               "e_time" : 77.9830000246875,
               "s_time" : 77.8850000351667,
               "time" : 0.097999989520801,
               "type" : 4
            }
         ],
         "id" : "r6",
         "url" : "http://original.testbed.localhost/www.whitehouse.gov/sites/whitehouse.gov/files/css/css_lhZ2r95cVv6XPZeCq2neqJ2WkJfOx4FGwB5NFslhk94.css"
      },
      {
         "url" : "http://original.testbed.localhost/www.whitehouse.gov/sites/whitehouse.gov/files/css/css_n-PjoZ-gDcNukhc4jFBjlvpGzuEkmOSckysxO7f6tuo.css",
         "id" : "r8",
         "comps" : [
            {
               "id" : "comp_5",
               "e_time" : 82.5780000304803,
               "type" : 4,
               "time" : 3.89799999538809,
               "s_time" : 78.6800000350922
            }
         ],
         "when_comp_start" : -1,
         "download" : {
            "dnsEnd" : 1,
            "s_time" : 34.9639999913052,
            "type" : "text/css",
            "receiveHeadersEnd" : 42,
            "sendStart" : 21,
            "dnsStart" : 1,
            "id" : "download_4",
            "sslStart" : -1,
            "receivedTime" : "78.6240000161342",
            "receiveFirst" : 21,
            "sendEnd" : 21,
            "dns" : 0,
            "len" : 41141,
            "connectEnd" : 21,
            "connectStart" : 0,
            "receiveLast" : 36.6240000161342,
            "sslEnd" : -1
         }
      },
      {
         "download" : {
            "sendEnd" : 21,
            "dns" : 0,
            "len" : 677783,
            "receiveFirst" : 22,
            "sslEnd" : -1,
            "receiveLast" : 166.941000037361,
            "connectEnd" : 21,
            "connectStart" : 0,
            "s_time" : 34.8720000474714,
            "type" : "text/css",
            "receiveHeadersEnd" : 43,
            "sendStart" : 21,
            "dnsEnd" : 1,
            "sslStart" : -1,
            "receivedTime" : "209.941000037361",
            "dnsStart" : 1,
            "id" : "download_5"
         },
         "when_comp_start" : -1,
         "comps" : [
            {
               "id" : "comp_11",
               "e_time" : 226.312000013422,
               "type" : 4,
               "time" : 16.280999989249,
               "s_time" : 210.031000024173
            }
         ],
         "id" : "r7",
         "url" : "http://original.testbed.localhost/cloud.typography.com/6570712/721006/css/fonts.css"
      },
      {
         "download" : {
            "connectStart" : 0,
            "connectEnd" : 22,
            "sslEnd" : -1,
            "receiveLast" : 280.073000043631,
            "receiveFirst" : 23,
            "len" : 72916,
            "dns" : 0,
            "sendEnd" : 22,
            "id" : "download_6",
            "dnsStart" : 1,
            "receivedTime" : "325.073000043631",
            "sslStart" : -1,
            "dnsEnd" : 1,
            "sendStart" : 22,
            "receiveHeadersEnd" : 45,
            "type" : "text/css",
            "s_time" : 34.6190000418574
         },
         "when_comp_start" : -1,
         "comps" : [
            {
               "id" : "comp_12",
               "e_time" : 429.853000037838,
               "s_time" : 325.226000044495,
               "time" : 104.626999993343,
               "type" : 4
            }
         ],
         "id" : "r4",
         "url" : "http://original.testbed.localhost/www.whitehouse.gov/sites/whitehouse.gov/files/css/css_2oCJ0RskfnmEh9znTNY-IJifw6J4BCzT2d88oZuCjDo.css"
      },
      {
         "comps" : [
            {
               "e_time" : 128.622999996878,
               "id" : "comp_9",
               "type" : 4,
               "time" : 8.68999998783701,
               "s_time" : 119.933000009041
            }
         ],
         "when_comp_start" : -1,
         "download" : {
            "connectStart" : 0,
            "connectEnd" : 22,
            "receiveLast" : 74.873000017833,
            "sslEnd" : -1,
            "receiveFirst" : 23,
            "len" : 128231,
            "sendEnd" : 22,
            "dns" : 0,
            "dnsStart" : -1,
            "id" : "download_7",
            "receivedTime" : "119.873000017833",
            "sslStart" : -1,
            "dnsEnd" : -1,
            "receiveHeadersEnd" : 45,
            "sendStart" : 22,
            "s_time" : 35.0530000287108,
            "type" : "text/css"
         },
         "url" : "http://original.testbed.localhost/www.whitehouse.gov/sites/whitehouse.gov/files/css/css_bS-2Cq02LdaKdec12vU20dMGQSdgihJADtPC-kQVVmE.css",
         "id" : "r9"
      },
      {
         "url" : "http://original.testbed.localhost/www.whitehouse.gov/sites/whitehouse.gov/files/js/js_MpKfe1sTh5JIVGCZ17DsAuT1rqAC38MLLlkjqjQ1X_k.js",
         "id" : "r10",
         "when_comp_start" : -1,
         "comps" : [
            {
               "id" : "comp_13",
               "e_time" : 389.00399999693,
               "time" : 35.057000000961,
               "type" : 1,
               "s_time" : 353.946999995969
            }
         ],
         "download" : {
            "connectEnd" : 29,
            "connectStart" : 0,
            "receiveLast" : 75.6730000283569,
            "sslEnd" : -1,
            "receiveFirst" : 24,
            "dns" : 0,
            "sendEnd" : 29,
            "len" : 112884,
            "id" : "download_8",
            "dnsStart" : -1,
            "sslStart" : -1,
            "receivedTime" : "128.673000028357",
            "dnsEnd" : -1,
            "type" : "application/javascript",
            "s_time" : 35.1430000155233,
            "receiveHeadersEnd" : 53,
            "sendStart" : 29
         }
      },
      {
         "url" : "http://original.testbed.localhost/www.whitehouse.gov/sites/whitehouse.gov/files/js/js_uPNzaRP-bkimN_p8zvZONy7fi8Oh54S1WQzdPUW-yro.js",
         "id" : "r12",
         "when_comp_start" : -1,
         "comps" : [
            {
               "id" : "comp_18",
               "e_time" : 419.417000026442,
               "s_time" : 418.219000042882,
               "type" : 1,
               "time" : 1.19799998356001
            }
         ],
         "download" : {
            "connectEnd" : 43,
            "connectStart" : 0,
            "receiveLast" : 54.73700004071,
            "sslEnd" : -1,
            "receiveFirst" : 21,
            "sendEnd" : 43,
            "dns" : 0,
            "len" : 19817,
            "dnsStart" : -1,
            "id" : "download_9",
            "sslStart" : -1,
            "receivedTime" : "118.73700004071",
            "dnsEnd" : -1,
            "s_time" : 35.3040000190958,
            "type" : "application/javascript",
            "receiveHeadersEnd" : 64,
            "sendStart" : 43
         }
      },
      {
         "download" : {
            "receiveLast" : 60.9289999986067,
            "sslEnd" : -1,
            "connectStart" : 0,
            "connectEnd" : 42,
            "len" : 136531,
            "sendEnd" : 42,
            "dns" : 0,
            "receiveFirst" : 26,
            "receivedTime" : "128.928999998607",
            "sslStart" : -1,
            "dnsStart" : -1,
            "id" : "download_10",
            "receiveHeadersEnd" : 68,
            "sendStart" : 42,
            "s_time" : 35.2310000453144,
            "type" : "application/javascript",
            "dnsEnd" : -1
         },
         "when_comp_start" : -1,
         "comps" : [
            {
               "type" : 1,
               "time" : 28.980999952182,
               "s_time" : 389.117000042461,
               "e_time" : 418.097999994643,
               "id" : "comp_15"
            }
         ],
         "id" : "r11",
         "url" : "http://original.testbed.localhost/www.whitehouse.gov/sites/whitehouse.gov/files/js/js_dpcaZHeWwtmqOEhy_RAIdKsPWHEDVNfKu0v8oY9XuOI.js"
      },
      {
         "download" : {
            "receivedTime" : "143.561000004411",
            "sslStart" : -1,
            "dnsStart" : -1,
            "id" : "download_11",
            "sendStart" : 84,
            "receiveHeadersEnd" : 107,
            "s_time" : 35.4560000123456,
            "type" : "application/javascript",
            "dnsEnd" : -1,
            "receiveLast" : 36.5610000044107,
            "sslEnd" : -1,
            "connectStart" : 0,
            "connectEnd" : 84,
            "len" : 2999,
            "sendEnd" : 84,
            "dns" : 0,
            "receiveFirst" : 23
         },
         "when_comp_start" : -1,
         "comps" : [
            {
               "type" : 1,
               "time" : 0.577999977394995,
               "s_time" : 425.335000036284,
               "id" : "comp_23",
               "e_time" : 425.913000013679
            }
         ],
         "id" : "r14",
         "url" : "http://original.testbed.localhost/www.whitehouse.gov/sites/whitehouse.gov/files/js/js_ZLR9AniROdeoCHWP-EH_xh-8M8GedFTjELHBIFv_kys.js"
      },
      {
         "when_comp_start" : -1,
         "comps" : [
            {
               "time" : 4.42899996414798,
               "type" : 1,
               "s_time" : 419.50200003339,
               "e_time" : 423.930999997538,
               "id" : "comp_20"
            }
         ],
         "download" : {
            "len" : 55432,
            "sendEnd" : 83,
            "dns" : 0,
            "receiveFirst" : 25,
            "receiveLast" : 37.5180000048131,
            "sslEnd" : -1,
            "connectStart" : 0,
            "connectEnd" : 83,
            "receiveHeadersEnd" : 108,
            "sendStart" : 83,
            "s_time" : 35.3740000282414,
            "type" : "application/javascript",
            "dnsEnd" : -1,
            "receivedTime" : "145.518000004813",
            "sslStart" : -1,
            "id" : "download_12",
            "dnsStart" : -1
         },
         "url" : "http://original.testbed.localhost/www.whitehouse.gov/sites/whitehouse.gov/files/js/js_7A5xyLkXyLAj7O051G-zmQW0DzTaab-GPGPcoPFTC3w.js",
         "id" : "r13"
      },
      {
         "id" : "r15",
         "url" : "http://original.testbed.localhost/www.whitehouse.gov/sites/whitehouse.gov/files/js/js_BnLp98TAFdrK4aTBmEXyC9rHYtfrp4gWf3_kvziFVJc.js",
         "download" : {
            "dns" : 0,
            "sendEnd" : 84,
            "len" : 15017,
            "receiveFirst" : 25,
            "receiveLast" : 37.0610000067391,
            "sslEnd" : -1,
            "connectEnd" : 84,
            "connectStart" : 0,
            "type" : "application/javascript",
            "s_time" : 35.5250000138767,
            "receiveHeadersEnd" : 109,
            "sendStart" : 84,
            "dnsEnd" : -1,
            "sslStart" : -1,
            "receivedTime" : "146.061000006739",
            "dnsStart" : -1,
            "id" : "download_13"
         },
         "comps" : [
            {
               "type" : 1,
               "time" : 1.26300001284102,
               "s_time" : 425.990000017919,
               "e_time" : 427.25300003076,
               "id" : "comp_25"
            }
         ],
         "when_comp_start" : -1
      },
      {
         "url" : "http://original.testbed.localhost/www.whitehouse.gov/sites/whitehouse.gov/files/js/js_S4ZZGC9DHcaMDgTpvRN7MBcmXkzFjVLWzboXJJewXOk.js",
         "id" : "r16",
         "comps" : [
            {
               "time" : 0.276000006125003,
               "type" : 1,
               "s_time" : 427.326000004541,
               "id" : "comp_27",
               "e_time" : 427.602000010666
            }
         ],
         "when_comp_start" : -1,
         "download" : {
            "dnsStart" : -1,
            "id" : "download_14",
            "sslStart" : -1,
            "receivedTime" : "149.59300000919",
            "dnsEnd" : -1,
            "type" : "application/javascript",
            "s_time" : 35.641000024043,
            "receiveHeadersEnd" : 113,
            "sendStart" : 89,
            "connectEnd" : 89,
            "connectStart" : 0,
            "receiveLast" : 36.5930000091903,
            "sslEnd" : -1,
            "receiveFirst" : 24,
            "dns" : 0,
            "sendEnd" : 89,
            "len" : 1023
         }
      },
      {
         "url" : "http://original.testbed.localhost/www.whitehouse.gov/sites/whitehouse.gov/modules/contrib/usfedgov_google_analytics/js/Universal-Federated-Analytics-Min.js%3Fagency=Executive%2520Office%2520of%2520the%2520President&subagency=The%2520White%2520House",
         "id" : "r17",
         "when_comp_start" : -1,
         "comps" : [
            {
               "e_time" : 429.841000004672,
               "id" : "comp_30",
               "time" : 1.695999992081,
               "type" : 1,
               "s_time" : 428.145000012591
            }
         ],
         "download" : {
            "id" : "download_15",
            "dnsStart" : -1,
            "receivedTime" : "166.135000006761",
            "sslStart" : -1,
            "dnsEnd" : -1,
            "receiveHeadersEnd" : 128,
            "sendStart" : 107,
            "type" : "text/plain",
            "s_time" : 35.7380000059493,
            "connectStart" : 0,
            "connectEnd" : 107,
            "receiveLast" : 38.1350000067614,
            "sslEnd" : -1,
            "receiveFirst" : 21,
            "len" : 19550,
            "dns" : 0,
            "sendEnd" : 107
         }
      },
      {
         "url" : "http://original.testbed.localhost/www.whitehouse.gov/sites/whitehouse.gov/files/js/jquery-1.10.2.min.map",
         "id" : "r54",
         "comps" : [],
         "when_comp_start" : 1,
         "download" : {
            "sslStart" : -1,
            "receivedTime" : "591.593999997713",
            "id" : "download_16",
            "dnsStart" : -1,
            "s_time" : 450.723999994807,
            "type" : "text/html",
            "receiveHeadersEnd" : 21,
            "sendStart" : 0,
            "dnsEnd" : -1,
            "receiveLast" : 570.593999997713,
            "sslEnd" : -1,
            "connectEnd" : 0,
            "connectStart" : 0,
            "sendEnd" : 0,
            "dns" : 0,
            "len" : 359,
            "receiveFirst" : 21
         }
      },
      {
         "when_comp_start" : -1,
         "comps" : [],
         "download" : {
            "sslStart" : -1,
            "receivedTime" : "592.018000024837",
            "id" : "download_17",
            "dnsStart" : -1,
            "s_time" : 451.976000040304,
            "type" : "image/png",
            "receiveHeadersEnd" : 20,
            "sendStart" : 0,
            "dnsEnd" : -1,
            "receiveLast" : 572.018000024837,
            "sslEnd" : -1,
            "connectEnd" : 0,
            "connectStart" : 0,
            "sendEnd" : 0,
            "dns" : 0,
            "len" : 8737,
            "receiveFirst" : 20
         },
         "url" : "http://original.testbed.localhost/www.whitehouse.gov/profiles/forall/modules/custom/gov_whitehouse_www/images/icons/wh_logo_seal.png",
         "id" : "r55"
      },
      {
         "when_comp_start" : -1,
         "comps" : [],
         "download" : {
            "dnsStart" : -1,
            "id" : "download_18",
            "sslStart" : -1,
            "receivedTime" : "598.564000043552",
            "dnsEnd" : -1,
            "s_time" : 459.778000018559,
            "type" : "image/png",
            "sendStart" : 0,
            "receiveHeadersEnd" : 21,
            "connectEnd" : 0,
            "connectStart" : 0,
            "receiveLast" : 577.564000043552,
            "sslEnd" : -1,
            "receiveFirst" : 21,
            "sendEnd" : 0,
            "dns" : 0,
            "len" : 39804
         },
         "url" : "http://original.testbed.localhost/www.whitehouse.gov/profiles/forall/themes/custom/fortyfour/images/fortyfour/bg/wh_header_decor_desktop_large_format.png%3F1449244366",
         "id" : "r56"
      },
      {
         "download" : {
            "dnsStart" : -1,
            "id" : "download_19",
            "receivedTime" : "598.117000015918",
            "sslStart" : -1,
            "dnsEnd" : -1,
            "receiveHeadersEnd" : 21,
            "sendStart" : 0,
            "s_time" : 460.492000041995,
            "type" : "image/png",
            "connectStart" : 0,
            "connectEnd" : 0,
            "receiveLast" : 577.117000015918,
            "sslEnd" : -1,
            "receiveFirst" : 21,
            "len" : 260,
            "sendEnd" : 0,
            "dns" : 0
         },
         "when_comp_start" : -1,
         "comps" : [],
         "id" : "r57",
         "url" : "http://original.testbed.localhost/www.whitehouse.gov/profiles/forall/themes/custom/fortyfour/images/fortyfour/sprites/contact-nav-icons.png%3F1449244367"
      },
      {
         "download" : {
            "type" : "image/png",
            "s_time" : 467.058000038378,
            "receiveHeadersEnd" : 21,
            "sendStart" : 0,
            "dnsEnd" : -1,
            "sslStart" : -1,
            "receivedTime" : "598.335000046063",
            "dnsStart" : -1,
            "id" : "download_20",
            "dns" : 0,
            "sendEnd" : 0,
            "len" : 438,
            "receiveFirst" : 21,
            "receiveLast" : 577.335000046063,
            "sslEnd" : -1,
            "connectEnd" : 0,
            "connectStart" : 0
         },
         "when_comp_start" : -1,
         "comps" : [],
         "id" : "r58",
         "url" : "http://original.testbed.localhost/www.whitehouse.gov/profiles/forall/modules/custom/gov_whitehouse_www/modules/whitehouse_nav/images/sprites/search-icon-all-viewports.png%3F1409066161"
      },
      {
         "url" : "http://original.testbed.localhost/www.whitehouse.gov/sites/whitehouse.gov/files/hero-backgrounds/commutations_hero.jpg",
         "id" : "r59",
         "when_comp_start" : -1,
         "comps" : [],
         "download" : {
            "sendStart" : 0,
            "receiveHeadersEnd" : 20,
            "s_time" : 523.583000001963,
            "type" : "image/jpeg",
            "dnsEnd" : -1,
            "receivedTime" : "814.393000036944",
            "sslStart" : -1,
            "id" : "download_21",
            "dnsStart" : -1,
            "len" : 633681,
            "sendEnd" : 0,
            "dns" : 0,
            "receiveFirst" : 20,
            "sslEnd" : -1,
            "receiveLast" : 794.393000036944,
            "connectStart" : 0,
            "connectEnd" : 0
         }
      },
      {
         "download" : {
            "receiveLast" : 589.610000047833,
            "sslEnd" : -1,
            "connectEnd" : 0,
            "connectStart" : 0,
            "sendEnd" : 0,
            "dns" : 0,
            "len" : 29582,
            "receiveFirst" : 25,
            "sslStart" : -1,
            "receivedTime" : "614.610000047833",
            "dnsStart" : -1,
            "id" : "download_22",
            "s_time" : 524.040999996942,
            "type" : "image/jpeg",
            "sendStart" : 0,
            "receiveHeadersEnd" : 25,
            "dnsEnd" : -1
         },
         "when_comp_start" : -1,
         "comps" : [],
         "id" : "r60",
         "url" : "http://original.testbed.localhost/www.whitehouse.gov/sites/whitehouse.gov/files/tout_images/cfpbTout.jpg"
      },
      {
         "url" : "http://original.testbed.localhost/www.whitehouse.gov/sites/whitehouse.gov/files/tout_images/flint_tout.jpg",
         "id" : "r61",
         "comps" : [],
         "when_comp_start" : -1,
         "download" : {
            "dnsEnd" : -1,
            "receiveHeadersEnd" : 27,
            "sendStart" : 0,
            "type" : "image/jpeg",
            "s_time" : 524.22399999341,
            "id" : "download_23",
            "dnsStart" : -1,
            "receivedTime" : "753.426000010222",
            "sslStart" : -1,
            "receiveFirst" : 27,
            "len" : 149991,
            "dns" : 0,
            "sendEnd" : 0,
            "connectStart" : 0,
            "connectEnd" : 0,
            "sslEnd" : -1,
            "receiveLast" : 726.426000010222
         }
      },
      {
         "id" : "r63",
         "url" : "http://original.testbed.localhost/www.whitehouse.gov/sites/whitehouse.gov/files/tout_images/potus_phone_tout.jpg",
         "download" : {
            "type" : "image/jpeg",
            "s_time" : 524.704000039492,
            "sendStart" : 0,
            "receiveHeadersEnd" : 35,
            "dnsEnd" : -1,
            "sslStart" : -1,
            "receivedTime" : "815.510000044014",
            "id" : "download_24",
            "dnsStart" : -1,
            "dns" : 0,
            "sendEnd" : 0,
            "len" : 253824,
            "receiveFirst" : 35,
            "sslEnd" : -1,
            "receiveLast" : 780.510000044014,
            "connectEnd" : 0,
            "connectStart" : 0
         },
         "comps" : [],
         "when_comp_start" : -1
      },
      {
         "comps" : [],
         "when_comp_start" : -1,
         "download" : {
            "sendEnd" : 0,
            "dns" : 0,
            "len" : 320051,
            "receiveFirst" : 35,
            "receiveLast" : 778.813999993727,
            "sslEnd" : -1,
            "connectEnd" : 0,
            "connectStart" : 0,
            "s_time" : 524.88700003596,
            "type" : "image/jpeg",
            "sendStart" : 0,
            "receiveHeadersEnd" : 35,
            "dnsEnd" : -1,
            "sslStart" : -1,
            "receivedTime" : "813.813999993727",
            "id" : "download_25",
            "dnsStart" : -1
         },
         "url" : "http://original.testbed.localhost/www.whitehouse.gov/sites/whitehouse.gov/files/tout_images/POD_03022016_tout.jpg",
         "id" : "r64"
      },
      {
         "comps" : [],
         "when_comp_start" : -1,
         "download" : {
            "receiveLast" : 585.803999994881,
            "sslEnd" : -1,
            "connectEnd" : 0,
            "connectStart" : 0,
            "dns" : 0,
            "sendEnd" : 0,
            "len" : 124960,
            "receiveFirst" : 36,
            "sslStart" : -1,
            "receivedTime" : "621.803999994881",
            "dnsStart" : -1,
            "id" : "download_26",
            "type" : "image/jpeg",
            "s_time" : 524.536000040825,
            "receiveHeadersEnd" : 36,
            "sendStart" : 0,
            "dnsEnd" : -1
         },
         "url" : "http://original.testbed.localhost/www.whitehouse.gov/sites/whitehouse.gov/files/tout_images/presidents_schedule_tout_02.jpg",
         "id" : "r62"
      },
      {
         "download" : {
            "s_time" : 528.260999999475,
            "type" : "application/javascript",
            "sendStart" : 44,
            "receiveHeadersEnd" : 72,
            "dnsEnd" : -1,
            "sslStart" : -1,
            "receivedTime" : "637.611000041943",
            "id" : "download_35",
            "dnsStart" : -1,
            "sendEnd" : 44,
            "dns" : 0,
            "len" : 9432,
            "receiveFirst" : 28,
            "receiveLast" : 565.611000041943,
            "sslEnd" : -1,
            "connectEnd" : 44,
            "connectStart" : 0
         },
         "when_comp_start" : -1,
         "comps" : [
            {
               "id" : "comp_41",
               "e_time" : 638.934000045992,
               "type" : 1,
               "time" : 1.28300004871494,
               "s_time" : 637.650999997277
            }
         ],
         "id" : "r65",
         "url" : "http://original.testbed.localhost/www.whitehouse.gov/sites/whitehouse.gov/files/js/js_2mdTQtvwCainuVKOqQsH1BuSMQvOxSgWO1is-qhBFoU.js"
      },
      {
         "download" : {
            "type" : "application/javascript",
            "s_time" : 528.387000027578,
            "sendStart" : 64,
            "receiveHeadersEnd" : 91,
            "dnsEnd" : -1,
            "sslStart" : -1,
            "receivedTime" : "755.1510000485",
            "dnsStart" : -1,
            "id" : "download_36",
            "dns" : 0,
            "sendEnd" : 64,
            "len" : 95204,
            "receiveFirst" : 27,
            "sslEnd" : -1,
            "receiveLast" : 664.1510000485,
            "connectEnd" : 64,
            "connectStart" : 0
         },
         "comps" : [
            {
               "id" : "comp_59",
               "e_time" : 811.313999991398,
               "time" : 26.982999988831,
               "type" : null,
               "s_time" : 784.331000002567
            }
         ],
         "when_comp_start" : -1,
         "id" : "r66",
         "url" : "http://original.testbed.localhost/platform.twitter.com/widgets.js"
      },
      {
         "url" : "http://original.testbed.localhost/www.whitehouse.gov/sites/whitehouse.gov/libraries/fontawesome/fonts/fontawesome-webfont.woff%3Fv=4.4.0",
         "id" : "r50",
         "when_comp_start" : -1,
         "comps" : [],
         "download" : {
            "receiveLast" : 778.193999998271,
            "sslEnd" : -1,
            "connectStart" : 0,
            "connectEnd" : 9,
            "len" : 81284,
            "dns" : 0,
            "sendEnd" : 9,
            "receiveFirst" : 25,
            "receivedTime" : "812.193999998271",
            "sslStart" : -1,
            "id" : "download_37",
            "dnsStart" : -1,
            "sendStart" : 9,
            "receiveHeadersEnd" : 34,
            "type" : "application/octet-stream",
            "s_time" : 591.526000003796,
            "dnsEnd" : -1
         }
      },
      {
         "url" : "http://original.testbed.localhost/www.whitehouse.gov/profiles/forall/modules/custom/sixteenhundredfooter/sass/sixteenhundred/images/hr.jpg",
         "id" : "r67",
         "comps" : [],
         "when_comp_start" : -1,
         "download" : {
            "dns" : 0,
            "sendEnd" : 70,
            "len" : 2743,
            "receiveFirst" : 26,
            "receiveLast" : 659.987000011373,
            "sslEnd" : -1,
            "connectEnd" : 70,
            "connectStart" : 0,
            "type" : "image/jpeg",
            "s_time" : 532.797000021674,
            "sendStart" : 70,
            "receiveHeadersEnd" : 96,
            "dnsEnd" : -1,
            "sslStart" : -1,
            "receivedTime" : "755.987000011373",
            "id" : "download_38",
            "dnsStart" : -1
         }
      },
      {
         "id" : "r68",
         "url" : "http://original.testbed.localhost/www.whitehouse.gov/profiles/forall/modules/custom/sixteenhundredfooter/sass/sixteenhundred/images/vr.png",
         "download" : {
            "sslEnd" : -1,
            "receiveLast" : 696.045000027865,
            "connectStart" : 0,
            "connectEnd" : 91,
            "len" : 131,
            "dns" : 0,
            "sendEnd" : 91,
            "receiveFirst" : 25,
            "receivedTime" : "812.045000027865",
            "sslStart" : -1,
            "id" : "download_39",
            "dnsStart" : -1,
            "sendStart" : 91,
            "receiveHeadersEnd" : 116,
            "type" : "image/png",
            "s_time" : 534.100999997463,
            "dnsEnd" : -1
         },
         "comps" : [],
         "when_comp_start" : -1
      }
   ],
   "start_activity" : "download_0",
   "load_activity" : -1,
   "deps" : [
      {
         "id" : "dep1",
         "a1" : "comp_13",
         "a2" : "r1_c2",
         "time" : -1
      },
      {
         "id" : "dep2",
         "a1" : "comp_15",
         "time" : -1,
         "a2" : "r1_c3"
      },
      {
         "time" : -1,
         "a2" : "r1_c4",
         "id" : "dep3",
         "a1" : "comp_18"
      },
      {
         "time" : -1,
         "a2" : "r1_c5",
         "id" : "dep4",
         "a1" : "comp_20"
      },
      {
         "time" : -1,
         "a2" : "r1_c6",
         "a1" : "comp_23",
         "id" : "dep5"
      },
      {
         "a2" : "r1_c7",
         "time" : -1,
         "id" : "dep6",
         "a1" : "comp_25"
      },
      {
         "id" : "dep7",
         "a1" : "comp_27",
         "time" : -1,
         "a2" : "r1_c8"
      },
      {
         "id" : "dep8",
         "a1" : "comp_30",
         "time" : -1,
         "a2" : "r1_c9"
      },
      {
         "id" : "dep9",
         "a1" : "comp_41",
         "a2" : "r1_c10",
         "time" : -1
      },
      {
         "a1" : "comp_2",
         "id" : "dep10",
         "time" : -1,
         "a2" : "comp_13"
      },
      {
         "id" : "dep11",
         "a1" : "comp_3",
         "a2" : "comp_13",
         "time" : -1
      },
      {
         "time" : -1,
         "a2" : "comp_13",
         "a1" : "comp_12",
         "id" : "dep12"
      },
      {
         "a1" : "comp_10",
         "id" : "dep13",
         "time" : -1,
         "a2" : "comp_13"
      },
      {
         "time" : -1,
         "a2" : "comp_13",
         "a1" : "comp_4",
         "id" : "dep14"
      },
      {
         "id" : "dep15",
         "a1" : "comp_11",
         "a2" : "comp_13",
         "time" : -1
      },
      {
         "id" : "dep16",
         "a1" : "comp_5",
         "time" : -1,
         "a2" : "comp_13"
      },
      {
         "id" : "dep17",
         "a1" : "comp_9",
         "time" : -1,
         "a2" : "comp_13"
      },
      {
         "a1" : "comp_13",
         "id" : "dep18",
         "a2" : "comp_15",
         "time" : -1
      },
      {
         "a1" : "comp_15",
         "id" : "dep19",
         "a2" : "comp_18",
         "time" : -1
      },
      {
         "id" : "dep20",
         "a1" : "comp_18",
         "time" : -1,
         "a2" : "comp_20"
      },
      {
         "a2" : "comp_25",
         "time" : -1,
         "id" : "dep21",
         "a1" : "comp_23"
      },
      {
         "a2" : "comp_27",
         "time" : -1,
         "a1" : "comp_25",
         "id" : "dep22"
      },
      {
         "a2" : "comp_41",
         "time" : -1,
         "a1" : "comp_30",
         "id" : "dep23"
      },
      {
         "a2" : "download_39",
         "time" : -1,
         "id" : "dep24",
         "a1" : "r1_c9"
      },
      {
         "id" : "dep25",
         "a1" : "r1_c9",
         "time" : 102.956000017002,
         "a2" : "download_38"
      },
      {
         "id" : "dep26",
         "a1" : "r1_c9",
         "a2" : "download_37",
         "time" : -1
      },
      {
         "a1" : "r1_c9",
         "id" : "dep27",
         "time" : 98.546000022906,
         "a2" : "download_36"
      },
      {
         "time" : 98.546000022906,
         "a2" : "download_36",
         "a1" : "r1_c9",
         "id" : "dep28"
      },
      {
         "time" : 98.4199999948029,
         "a2" : "download_35",
         "id" : "dep29",
         "a1" : "r1_c9"
      },
      {
         "a2" : "download_26",
         "time" : 94.695000036153,
         "a1" : "r1_c9",
         "id" : "dep30"
      },
      {
         "time" : 95.046000031288,
         "a2" : "download_25",
         "a1" : "r1_c9",
         "id" : "dep31"
      },
      {
         "a1" : "r1_c9",
         "id" : "dep32",
         "a2" : "download_24",
         "time" : 94.86300003482
      },
      {
         "a2" : "download_23",
         "time" : 94.3829999887379,
         "id" : "dep33",
         "a1" : "r1_c9"
      },
      {
         "a1" : "r1_c9",
         "id" : "dep34",
         "a2" : "download_22",
         "time" : 94.19999999227
      },
      {
         "id" : "dep35",
         "a1" : "r1_c9",
         "a2" : "download_21",
         "time" : 93.741999997291
      },
      {
         "a2" : "download_20",
         "time" : 37.217000033706,
         "id" : "dep36",
         "a1" : "r1_c9"
      },
      {
         "a1" : "r1_c9",
         "id" : "dep37",
         "a2" : "download_19",
         "time" : 30.651000037323
      },
      {
         "id" : "dep38",
         "a1" : "r1_c9",
         "a2" : "download_18",
         "time" : 29.937000013887
      },
      {
         "a2" : "download_17",
         "time" : 22.1350000356319,
         "a1" : "r1_c9",
         "id" : "dep39"
      },
      {
         "time" : 20.882999990135,
         "a2" : "download_16",
         "a1" : "r1_c9",
         "id" : "dep40"
      },
      {
         "time" : -1,
         "a2" : "download_15",
         "id" : "dep41",
         "a1" : "r1_c1"
      },
      {
         "time" : 2.0659999572672,
         "a2" : "download_15",
         "id" : "dep42",
         "a1" : "r1_c1"
      },
      {
         "id" : "dep43",
         "a1" : "r1_c1",
         "a2" : "download_14",
         "time" : 1.9689999753609
      },
      {
         "a1" : "r1_c1",
         "id" : "dep44",
         "a2" : "download_14",
         "time" : 1.9689999753609
      },
      {
         "time" : 1.8529999651946,
         "a2" : "download_13",
         "a1" : "r1_c1",
         "id" : "dep45"
      },
      {
         "id" : "dep46",
         "a1" : "r1_c1",
         "time" : 1.8529999651946,
         "a2" : "download_13"
      },
      {
         "a1" : "r1_c1",
         "id" : "dep47",
         "a2" : "download_12",
         "time" : 1.7019999795593
      },
      {
         "a1" : "r1_c1",
         "id" : "dep48",
         "time" : 1.7019999795593,
         "a2" : "download_12"
      },
      {
         "time" : 1.7839999636635,
         "a2" : "download_11",
         "a1" : "r1_c1",
         "id" : "dep49"
      },
      {
         "time" : 1.7839999636635,
         "a2" : "download_11",
         "a1" : "r1_c1",
         "id" : "dep50"
      },
      {
         "a2" : "download_10",
         "time" : 1.5589999966323,
         "a1" : "r1_c1",
         "id" : "dep51"
      },
      {
         "time" : 1.5589999966323,
         "a2" : "download_10",
         "a1" : "r1_c1",
         "id" : "dep52"
      },
      {
         "a1" : "r1_c1",
         "id" : "dep53",
         "time" : 1.6319999704137,
         "a2" : "download_9"
      },
      {
         "a2" : "download_9",
         "time" : 1.6319999704137,
         "a1" : "r1_c1",
         "id" : "dep54"
      },
      {
         "a1" : "r1_c1",
         "id" : "dep55",
         "time" : 1.4709999668412,
         "a2" : "download_8"
      },
      {
         "id" : "dep56",
         "a1" : "r1_c1",
         "time" : 1.3809999800287,
         "a2" : "download_7"
      },
      {
         "time" : 0.946999993175297,
         "a2" : "download_6",
         "a1" : "r1_c1",
         "id" : "dep57"
      },
      {
         "a2" : "download_5",
         "time" : 1.1999999987893,
         "id" : "dep58",
         "a1" : "r1_c1"
      },
      {
         "a1" : "r1_c1",
         "id" : "dep59",
         "a2" : "download_4",
         "time" : 1.2919999426231
      },
      {
         "a1" : "r1_c1",
         "id" : "dep60",
         "time" : 1.1139999842271,
         "a2" : "download_3"
      },
      {
         "time" : 0.874999968800701,
         "a2" : "download_2",
         "a1" : "r1_c1",
         "id" : "dep61"
      },
      {
         "id" : "dep62",
         "a1" : "r1_c1",
         "time" : 0.751999963540598,
         "a2" : "download_1"
      }
   ],
   "name" : "original.testbed.localhost_www.whitehouse.gov_",
   "n_download_no_trigger" : 9
}
