{
   "objs" : [
      {
         "url" : "http://original.testbed.localhost/www.blogspot.com/",
         "when_comp_start" : 1,
         "download" : {
            "receiveFirst" : 22,
            "connectEnd" : 0,
            "receiveHeadersEnd" : 22,
            "sendEnd" : 0,
            "receiveLast" : 159.228000030387,
            "len" : 54697,
            "dnsEnd" : -1,
            "sslStart" : -1,
            "receivedTime" : "181.228000030387",
            "sslEnd" : -1,
            "dns" : 0,
            "sendStart" : 0,
            "id" : "download_0",
            "type" : "text/html",
            "s_time" : 0,
            "connectStart" : 0,
            "dnsStart" : -1
         },
         "comps" : [
            {
               "s_time" : 32.5160000356846,
               "type" : "evalhtml",
               "id" : "r1_c1",
               "e_time" : 228.087000024971,
               "time" : 195.570999989286
            }
         ],
         "id" : "r1"
      },
      {
         "when_comp_start" : -1,
         "url" : "http://original.testbed.localhost/ssl.gstatic.com/accounts/ui/avatar_2x.png",
         "id" : "r4",
         "comps" : [],
         "download" : {
            "len" : 626,
            "dnsEnd" : -1,
            "sslStart" : -1,
            "receivedTime" : "181.4219999942",
            "dns" : 0,
            "sslEnd" : -1,
            "receiveFirst" : 21,
            "connectEnd" : 0,
            "receiveHeadersEnd" : 21,
            "sendEnd" : 0,
            "receiveLast" : 160.4219999942,
            "id" : "download_1",
            "type" : "image/png",
            "s_time" : 36.2680000253022,
            "connectStart" : 0,
            "dnsStart" : -1,
            "sendStart" : 0
         }
      },
      {
         "download" : {
            "receiveLast" : 159.596000038553,
            "sendEnd" : 2,
            "receiveHeadersEnd" : 22,
            "connectEnd" : 1,
            "receiveFirst" : 20,
            "dns" : 0,
            "sslEnd" : -1,
            "receivedTime" : "181.596000038553",
            "sslStart" : -1,
            "len" : 2449,
            "dnsEnd" : -1,
            "sendStart" : 1,
            "dnsStart" : -1,
            "connectStart" : 0,
            "s_time" : 40.6760000041686,
            "id" : "download_2",
            "type" : "image/png"
         },
         "id" : "r5",
         "comps" : [],
         "url" : "http://original.testbed.localhost/ssl.gstatic.com/images/branding/googlelogo/1x/googlelogo_color_112x36dp.png",
         "when_comp_start" : -1
      },
      {
         "when_comp_start" : -1,
         "url" : "http://original.testbed.localhost/ssl.gstatic.com/accounts/ui/wlogostrip_230x17_1x.png",
         "comps" : [],
         "id" : "r6",
         "download" : {
            "s_time" : 180.981000012252,
            "type" : "image/png",
            "id" : "download_3",
            "dnsStart" : -1,
            "connectStart" : 0,
            "sendStart" : 0,
            "sslStart" : -1,
            "dns" : 0,
            "sslEnd" : -1,
            "receivedTime" : "228.544000012334",
            "dnsEnd" : -1,
            "len" : 4285,
            "receiveLast" : 207.544000012334,
            "sendEnd" : 0,
            "connectEnd" : 0,
            "receiveFirst" : 21,
            "receiveHeadersEnd" : 21
         }
      },
      {
         "when_comp_start" : -1,
         "url" : "http://original.testbed.localhost/fonts.gstatic.com/s/opensans/v13/DXI1ORHCpsQm3Vp6mXoaTYnF5uFdDttMLvmWuJdhhgs.ttf",
         "comps" : [],
         "id" : "r2",
         "download" : {
            "receiveHeadersEnd" : 21,
            "connectEnd" : 0,
            "receiveFirst" : 21,
            "receiveLast" : 229.059999991208,
            "sendEnd" : 0,
            "dnsEnd" : -1,
            "len" : 35340,
            "dns" : 0,
            "sslEnd" : -1,
            "receivedTime" : "250.059999991208",
            "sslStart" : -1,
            "sendStart" : 0,
            "dnsStart" : -1,
            "connectStart" : 0,
            "s_time" : 208.641999983229,
            "type" : "application/octet-stream",
            "id" : "download_4"
         }
      },
      {
         "comps" : [],
         "id" : "r3",
         "download" : {
            "receiveLast" : 235.250000034925,
            "sendEnd" : 0,
            "connectEnd" : 0,
            "receiveFirst" : 21,
            "receiveHeadersEnd" : 21,
            "sslStart" : -1,
            "sslEnd" : -1,
            "dns" : 0,
            "receivedTime" : "256.250000034925",
            "len" : 34156,
            "dnsEnd" : -1,
            "sendStart" : 0,
            "s_time" : 208.783000009134,
            "type" : "application/octet-stream",
            "id" : "download_5",
            "dnsStart" : -1,
            "connectStart" : 0
         },
         "when_comp_start" : -1,
         "url" : "http://original.testbed.localhost/fonts.gstatic.com/s/opensans/v13/cJZKeOuBrn4kERxqtaUH3aCWcynf_cDxXwCLxiixG1c.ttf"
      }
   ],
   "n_download_no_trigger" : 1,
   "start_activity" : "download_0",
   "name" : "original.testbed.localhost_www.blogspot.com_",
   "deps" : [
      {
         "id" : "dep1",
         "a1" : "r1_c1",
         "time" : 176.266999973449,
         "a2" : "download_5"
      },
      {
         "a1" : "r1_c1",
         "time" : 176.125999947544,
         "a2" : "download_4",
         "id" : "dep2"
      },
      {
         "time" : 148.464999976567,
         "a2" : "download_3",
         "a1" : "r1_c1",
         "id" : "dep3"
      },
      {
         "id" : "dep4",
         "time" : 8.159999968484,
         "a1" : "r1_c1",
         "a2" : "download_2"
      },
      {
         "time" : 3.7519999896176,
         "a1" : "r1_c1",
         "a2" : "download_1",
         "id" : "dep5"
      }
   ],
   "load_activity" : -1
}
