{
   "n_download_no_trigger" : 1,
   "start_activity" : "download_0",
   "name" : "original.testbed.localhost_www.craigslist.org_",
   "load_activity" : -1,
   "objs" : [
      {
         "when_comp_start" : 1,
         "url" : "http://original.testbed.localhost/www.craigslist.org/",
         "id" : "r1",
         "comps" : [
            {
               "s_time" : 24.4950000196695,
               "time" : 5.6459999177605,
               "id" : "r1_c1",
               "type" : "evalhtml",
               "e_time" : 30.14099993743
            },
            {
               "s_time" : 249.789000023156,
               "time" : -1077052040.858,
               "id" : "r1_c2",
               "type" : "evalhtml",
               "e_time" : -1077051791.069
            },
            {
               "s_time" : 260.447999928147,
               "time" : 25.105000007897,
               "type" : "evalhtml",
               "id" : "r1_c3",
               "e_time" : 285.552999936044
            }
         ],
         "download" : {
            "receiveFirst" : 8,
            "len" : 61713,
            "dns" : 0,
            "dnsEnd" : -1,
            "receiveHeadersEnd" : 8,
            "sslEnd" : -1,
            "connectEnd" : 0,
            "connectStart" : 0,
            "id" : "download_0",
            "receivedTime" : "24.2989999242127",
            "sslStart" : -1,
            "dnsStart" : -1,
            "receiveLast" : 16.2989999242127,
            "s_time" : 0,
            "sendEnd" : 0,
            "sendStart" : 0,
            "type" : "text/html"
         }
      },
      {
         "when_comp_start" : -1,
         "url" : "http://original.testbed.localhost/www.craigslist.org/styles/jquery-ui-1.9.2.custom.css%3Fv=86db72e37d2cf63cab3c63485c71becb.css",
         "id" : "r4",
         "comps" : [
            {
               "s_time" : 34.1660000849515,
               "time" : 2.5409997906536,
               "type" : 4,
               "id" : "comp_0",
               "e_time" : 36.7069998756051
            }
         ],
         "download" : {
            "receiveFirst" : 7,
            "len" : 22536,
            "dns" : 0,
            "dnsEnd" : -1,
            "receiveHeadersEnd" : 7,
            "sslEnd" : -1,
            "connectEnd" : 0,
            "connectStart" : 0,
            "id" : "download_1",
            "receivedTime" : "34.0889999642968",
            "sslStart" : -1,
            "dnsStart" : -1,
            "receiveLast" : 27.0889999642968,
            "s_time" : 25.372999953106,
            "sendEnd" : 0,
            "sendStart" : 0,
            "type" : "text/css"
         }
      },
      {
         "when_comp_start" : -1,
         "url" : "http://original.testbed.localhost/www.craigslist.org/styles/cl.css%3Fv=2bec78f72593501b19c5bdd0d7ae0ad6.css",
         "id" : "r2",
         "comps" : [
            {
               "s_time" : 49.2799999192357,
               "time" : 24.0720000583679,
               "type" : 4,
               "id" : "comp_2",
               "e_time" : 73.3519999776036
            }
         ],
         "download" : {
            "receiveFirst" : 8,
            "len" : 70381,
            "dns" : 0,
            "dnsEnd" : -1,
            "receiveHeadersEnd" : 9,
            "sslEnd" : -1,
            "connectEnd" : 1,
            "connectStart" : 0,
            "id" : "download_2",
            "receivedTime" : "49.2000000085682",
            "sslStart" : -1,
            "dnsStart" : -1,
            "receiveLast" : 40.2000000085682,
            "s_time" : 25.0500000547618,
            "sendEnd" : 1,
            "sendStart" : 1,
            "type" : "text/css"
         }
      },
      {
         "when_comp_start" : -1,
         "url" : "http://original.testbed.localhost/www.craigslist.org/styles/homepage.css%3Fv=f988676441556e21ca17f0ab12a9aeef.css",
         "id" : "r3",
         "comps" : [
            {
               "s_time" : 41.7780000716448,
               "time" : 1.2409999035299,
               "type" : 4,
               "id" : "comp_1",
               "e_time" : 43.0189999751747
            }
         ],
         "download" : {
            "receiveFirst" : 15,
            "len" : 10584,
            "dns" : 0,
            "dnsEnd" : -1,
            "receiveHeadersEnd" : 15,
            "sslEnd" : -1,
            "connectEnd" : 0,
            "connectStart" : 0,
            "id" : "download_3",
            "receivedTime" : "41.571999900043",
            "sslStart" : -1,
            "dnsStart" : -1,
            "receiveLast" : 26.571999900043,
            "s_time" : 25.2320000436157,
            "sendEnd" : 0,
            "sendStart" : 0,
            "type" : "text/css"
         }
      },
      {
         "when_comp_start" : -1,
         "url" : "http://original.testbed.localhost/www.craigslist.org/js/homepage-concat.min.js%3Fv=f175c918cb4153e323fa82c704e45f48",
         "id" : "r7",
         "comps" : [
            {
               "s_time" : 250.307000009343,
               "time" : 10.140999918804,
               "type" : 1,
               "id" : "comp_14",
               "e_time" : 260.447999928147
            }
         ],
         "download" : {
            "receiveFirst" : 11,
            "len" : 2814,
            "dns" : 0,
            "dnsEnd" : -1,
            "receiveHeadersEnd" : 11,
            "sslEnd" : -1,
            "connectEnd" : 0,
            "connectStart" : 0,
            "id" : "download_4",
            "receivedTime" : "43.1729999836534",
            "sslStart" : -1,
            "dnsStart" : -1,
            "receiveLast" : 32.1729999836534,
            "s_time" : 30.14099993743,
            "sendEnd" : 0,
            "sendStart" : 0,
            "type" : "text/plain"
         }
      },
      {
         "when_comp_start" : -1,
         "url" : "http://original.testbed.localhost/www.craigslist.org/js/general-concat.min.js%3Fv=ad546780cdb7ff5e8bc5a0b2bf12d63d",
         "id" : "r6",
         "comps" : [
            {
               "s_time" : 175.877999980003,
               "time" : 73.911000043153,
               "type" : 1,
               "id" : "comp_10",
               "e_time" : 249.789000023156
            }
         ],
         "download" : {
            "receiveFirst" : 12,
            "len" : 314931,
            "dns" : 0,
            "dnsEnd" : -1,
            "receiveHeadersEnd" : 12,
            "sslEnd" : -1,
            "connectEnd" : 0,
            "connectStart" : 0,
            "id" : "download_5",
            "receivedTime" : "175.728000001982",
            "sslStart" : -1,
            "dnsStart" : -1,
            "receiveLast" : 163.728000001982,
            "s_time" : 29.8830000683665,
            "sendEnd" : 0,
            "sendStart" : 0,
            "type" : "text/plain"
         }
      }
   ],
   "deps" : [
      {
         "a2" : "r1_c2",
         "time" : -1,
         "id" : "dep1",
         "a1" : "comp_10"
      },
      {
         "a2" : "r1_c3",
         "time" : -1,
         "id" : "dep2",
         "a1" : "comp_14"
      },
      {
         "a2" : "download_5",
         "time" : -1,
         "id" : "dep3",
         "a1" : "r1_c1"
      },
      {
         "a2" : "download_5",
         "time" : 5.388000048697,
         "id" : "dep4",
         "a1" : "r1_c1"
      },
      {
         "a2" : "download_4",
         "time" : -1,
         "id" : "dep5",
         "a1" : "r1_c1"
      },
      {
         "a2" : "download_4",
         "time" : 5.6459999177605,
         "id" : "dep6",
         "a1" : "r1_c1"
      },
      {
         "a2" : "download_3",
         "time" : 0.737000023946198,
         "id" : "dep7",
         "a1" : "r1_c1"
      },
      {
         "a2" : "download_2",
         "time" : 0.555000035092299,
         "id" : "dep8",
         "a1" : "r1_c1"
      },
      {
         "a2" : "download_1",
         "time" : 0.877999933436499,
         "id" : "dep9",
         "a1" : "r1_c1"
      }
   ]
}
