{
   "n_download_no_trigger" : 1,
   "start_activity" : "download_0",
   "name" : "original.testbed.localhost_www.amazon.co.jp",
   "load_activity" : -1,
   "objs" : [
      {
         "when_comp_start" : 1,
         "url" : "http://original.testbed.localhost/www.amazon.co.jp",
         "id" : "r1",
         "comps" : [
            {
               "s_time" : 25.5220000399277,
               "time" : 0.220000045374,
               "type" : "evalhtml",
               "id" : "r1_c1",
               "e_time" : 25.7420000853017
            }
         ],
         "download" : {
            "receiveFirst" : 7,
            "len" : 306,
            "dns" : 0,
            "dnsEnd" : -1,
            "receiveHeadersEnd" : 10,
            "sslEnd" : -1,
            "connectEnd" : 3,
            "connectStart" : 0,
            "id" : "download_0",
            "receivedTime" : "10.8300000429153",
            "sslStart" : -1,
            "dnsStart" : -1,
            "receiveLast" : 0.830000042915344,
            "s_time" : 0,
            "sendEnd" : 3,
            "sendStart" : 3,
            "type" : "text/html"
         }
      }
   ],
   "deps" : []
}
