{
   "n_download_no_trigger" : 1,
   "start_activity" : "download_0",
   "name" : "original.testbed.localhost_www.tubestation.uk_",
   "load_activity" : -1,
   "objs" : [
      {
         "when_comp_start" : 1,
         "url" : "http://original.testbed.localhost/www.tubestation.uk/",
         "id" : "r1",
         "comps" : [
            {
               "s_time" : 27.1290000528097,
               "time" : 41.525999782607,
               "id" : "r1_c1",
               "type" : "evalhtml",
               "e_time" : 68.6549998354167
            },
            {
               "s_time" : 102.77899983339,
               "time" : -1099837184.213,
               "id" : "r1_c2",
               "type" : "evalhtml",
               "e_time" : -1099837081.434
            },
            {
               "s_time" : 103.256999980658,
               "time" : -1099837184.691,
               "id" : "r1_c3",
               "type" : "evalhtml",
               "e_time" : -1099837081.434
            },
            {
               "s_time" : 103.560999967158,
               "time" : -1099837184.995,
               "id" : "r1_c4",
               "type" : "evalhtml",
               "e_time" : -1099837081.434
            },
            {
               "s_time" : 105.712000047788,
               "time" : 32.211999874562,
               "id" : "r1_c5",
               "type" : "evalhtml",
               "e_time" : 137.92399992235
            },
            {
               "s_time" : 137.928999960423,
               "time" : 16.556999878957,
               "id" : "r1_c6",
               "type" : "evalhtml",
               "e_time" : 154.48599983938
            },
            {
               "s_time" : 180.794999934733,
               "time" : 161.618999904022,
               "id" : "r1_c7",
               "type" : "evalhtml",
               "e_time" : 342.413999838755
            },
            {
               "s_time" : 345.746999839321,
               "time" : 411.826000083238,
               "type" : "evalhtml",
               "id" : "r1_c8",
               "e_time" : 757.572999922559
            }
         ],
         "download" : {
            "receiveFirst" : 7,
            "len" : 46930,
            "dns" : 0,
            "dnsEnd" : -1,
            "receiveHeadersEnd" : 7,
            "sslEnd" : -1,
            "connectEnd" : 0,
            "connectStart" : 0,
            "id" : "download_0",
            "receivedTime" : "26.9359999801964",
            "sslStart" : -1,
            "dnsStart" : -1,
            "receiveLast" : 19.9359999801964,
            "s_time" : 0,
            "sendEnd" : 0,
            "sendStart" : 0,
            "type" : "text/html"
         }
      },
      {
         "when_comp_start" : -1,
         "url" : "http://original.testbed.localhost/www.popstr.com/_scripts/lib3/meta1/meta1.css",
         "id" : "r2",
         "comps" : [
            {
               "s_time" : 36.7389998864383,
               "time" : 0.2640001475811,
               "type" : 4,
               "id" : "comp_0",
               "e_time" : 37.0030000340194
            }
         ],
         "download" : {
            "receiveFirst" : 6,
            "len" : 1225,
            "dns" : 0,
            "dnsEnd" : -1,
            "receiveHeadersEnd" : 8,
            "sslEnd" : -1,
            "connectEnd" : 2,
            "connectStart" : 0,
            "id" : "download_1",
            "receivedTime" : "36.6839999333024",
            "sslStart" : -1,
            "dnsStart" : -1,
            "receiveLast" : 28.6839999333024,
            "s_time" : 27.6190000586212,
            "sendEnd" : 2,
            "sendStart" : 2,
            "type" : "text/css"
         }
      },
      {
         "when_comp_start" : -1,
         "url" : "http://original.testbed.localhost/www.tubestation.uk/_sites/tubestationuk/desktopAndTablet.css",
         "id" : "r6",
         "comps" : [
            {
               "s_time" : 38.2840000092983,
               "time" : 0.158000038936798,
               "type" : 4,
               "id" : "comp_1",
               "e_time" : 38.4420000482351
            }
         ],
         "download" : {
            "receiveFirst" : 7,
            "len" : 2200,
            "dns" : 0,
            "dnsEnd" : -1,
            "receiveHeadersEnd" : 9,
            "sslEnd" : -1,
            "connectEnd" : 2,
            "connectStart" : 0,
            "id" : "download_2",
            "receivedTime" : "38.2319998461753",
            "sslStart" : -1,
            "dnsStart" : -1,
            "receiveLast" : 29.2319998461753,
            "s_time" : 28.2659998629242,
            "sendEnd" : 2,
            "sendStart" : 2,
            "type" : "text/css"
         }
      },
      {
         "when_comp_start" : -1,
         "url" : "http://original.testbed.localhost/www.popstr.com/_scripts/lib3/bus/trans/tfl/tfl.css",
         "id" : "r4",
         "comps" : [
            {
               "s_time" : 38.5199999436736,
               "time" : 0.144999939948306,
               "type" : 4,
               "id" : "comp_2",
               "e_time" : 38.6649998836219
            }
         ],
         "download" : {
            "receiveFirst" : 7,
            "len" : 1059,
            "dns" : 0,
            "dnsEnd" : -1,
            "receiveHeadersEnd" : 9,
            "sslEnd" : -1,
            "connectEnd" : 2,
            "connectStart" : 0,
            "id" : "download_3",
            "receivedTime" : "38.4799998719245",
            "sslStart" : -1,
            "dnsStart" : -1,
            "receiveLast" : 29.4799998719245,
            "s_time" : 28.017999837175,
            "sendEnd" : 2,
            "sendStart" : 2,
            "type" : "text/css"
         }
      },
      {
         "when_comp_start" : -1,
         "url" : "http://original.testbed.localhost/www.popstr.com/_scripts/lib3/site/nav/ajax/ajaxinput/ajaxinput.css",
         "id" : "r5",
         "comps" : [
            {
               "s_time" : 39.2839999403805,
               "time" : 0.0770001206547022,
               "type" : 4,
               "id" : "comp_3",
               "e_time" : 39.3610000610352
            }
         ],
         "download" : {
            "receiveFirst" : 8,
            "len" : 748,
            "dns" : 0,
            "dnsEnd" : -1,
            "receiveHeadersEnd" : 10,
            "sslEnd" : -1,
            "connectEnd" : 2,
            "connectStart" : 0,
            "id" : "download_4",
            "receivedTime" : "39.1929999459535",
            "sslStart" : -1,
            "dnsStart" : -1,
            "receiveLast" : 29.1929999459535,
            "s_time" : 28.152999933809,
            "sendEnd" : 2,
            "sendStart" : 2,
            "type" : "text/css"
         }
      },
      {
         "when_comp_start" : -1,
         "url" : "http://original.testbed.localhost/www.tubestation.uk/_sites/tubestationuk/site.css",
         "id" : "r3",
         "comps" : [
            {
               "s_time" : 39.6869999822229,
               "time" : 0.497000059112899,
               "type" : 4,
               "id" : "comp_4",
               "e_time" : 40.1840000413358
            }
         ],
         "download" : {
            "receiveFirst" : 8,
            "len" : 6428,
            "dns" : 0,
            "dnsEnd" : -1,
            "receiveHeadersEnd" : 10,
            "sslEnd" : -1,
            "connectEnd" : 2,
            "connectStart" : 0,
            "id" : "download_5",
            "receivedTime" : "39.6069998387247",
            "sslStart" : -1,
            "dnsStart" : -1,
            "receiveLast" : 29.6069998387247,
            "s_time" : 27.8709998819977,
            "sendEnd" : 2,
            "sendStart" : 2,
            "type" : "text/css"
         }
      },
      {
         "when_comp_start" : -1,
         "url" : "http://original.testbed.localhost/www.tubestation.uk/_sites/tubestationuk/desktop.css",
         "id" : "r7",
         "comps" : [
            {
               "s_time" : 42.8929999470711,
               "time" : 0.344000058248604,
               "type" : 4,
               "id" : "comp_5",
               "e_time" : 43.2370000053197
            }
         ],
         "download" : {
            "receiveFirst" : 5,
            "len" : 1012,
            "dns" : 0,
            "dnsEnd" : -1,
            "receiveHeadersEnd" : 13,
            "sslEnd" : -1,
            "connectEnd" : 7,
            "connectStart" : 0,
            "id" : "download_6",
            "receivedTime" : "42.8249998949468",
            "sslStart" : -1,
            "dnsStart" : -1,
            "receiveLast" : 29.8249998949468,
            "s_time" : 28.3899998757988,
            "sendEnd" : 8,
            "sendStart" : 7,
            "type" : "text/css"
         }
      },
      {
         "when_comp_start" : -1,
         "url" : "http://original.testbed.localhost/www.popstr.com/_scripts/cs/meta1/sys.js",
         "id" : "r9",
         "comps" : [
            {
               "s_time" : 102.864000014961,
               "time" : 0.392999965697001,
               "type" : 1,
               "id" : "comp_8",
               "e_time" : 103.256999980658
            }
         ],
         "download" : {
            "receiveFirst" : 5,
            "len" : 4552,
            "dns" : 0,
            "dnsEnd" : -1,
            "receiveHeadersEnd" : 15,
            "sslEnd" : -1,
            "connectEnd" : 10,
            "connectStart" : 0,
            "id" : "download_7",
            "receivedTime" : "45.3999999444932",
            "sslStart" : -1,
            "dnsStart" : -1,
            "receiveLast" : 30.3999999444932,
            "s_time" : 28.7569998763502,
            "sendEnd" : 10,
            "sendStart" : 10,
            "type" : "application/javascript"
         }
      },
      {
         "when_comp_start" : -1,
         "url" : "http://original.testbed.localhost/www.popstr.com/_scripts/lib3/site/nav/ajax/ajaxinput/ajaxinput.js",
         "id" : "r10",
         "comps" : [
            {
               "s_time" : 103.307999903336,
               "time" : 0.253000063822,
               "type" : 1,
               "id" : "comp_10",
               "e_time" : 103.560999967158
            }
         ],
         "download" : {
            "receiveFirst" : 6,
            "len" : 5108,
            "dns" : 0,
            "dnsEnd" : -1,
            "receiveHeadersEnd" : 16,
            "sslEnd" : -1,
            "connectEnd" : 10,
            "connectStart" : 0,
            "id" : "download_8",
            "receivedTime" : "46.1180000565946",
            "sslStart" : -1,
            "dnsStart" : -1,
            "receiveLast" : 30.1180000565946,
            "s_time" : 28.872000053525,
            "sendEnd" : 10,
            "sendStart" : 10,
            "type" : "application/javascript"
         }
      },
      {
         "when_comp_start" : -1,
         "url" : "http://original.testbed.localhost/www.tubestation.uk/_sites/tubestationuk/sitemeta1.js",
         "id" : "r11",
         "comps" : [
            {
               "s_time" : 103.61299989745,
               "time" : 2.099000150338,
               "type" : 1,
               "id" : "comp_12",
               "e_time" : 105.712000047788
            }
         ],
         "download" : {
            "receiveFirst" : 7,
            "len" : 27258,
            "dns" : 0,
            "dnsEnd" : -1,
            "receiveHeadersEnd" : 17,
            "sslEnd" : -1,
            "connectEnd" : 10,
            "connectStart" : 0,
            "id" : "download_9",
            "receivedTime" : "47.6969999726862",
            "sslStart" : -1,
            "dnsStart" : -1,
            "receiveLast" : 30.6969999726862,
            "s_time" : 29.0069999173284,
            "sendEnd" : 10,
            "sendStart" : 10,
            "type" : "application/javascript"
         }
      },
      {
         "when_comp_start" : -1,
         "url" : "http://original.testbed.localhost/www.popstr.com/_scripts/cs/jquery/jquery/1.8.1/jquery-1.8.1.min.js",
         "id" : "r8",
         "comps" : [
            {
               "s_time" : 68.8869999721646,
               "time" : 33.8919998612254,
               "type" : 1,
               "id" : "comp_6",
               "e_time" : 102.77899983339
            }
         ],
         "download" : {
            "receiveFirst" : 9,
            "len" : 92792,
            "dns" : 0,
            "dnsEnd" : -1,
            "receiveHeadersEnd" : 19,
            "sslEnd" : -1,
            "connectEnd" : 10,
            "connectStart" : 0,
            "id" : "download_10",
            "receivedTime" : "68.8209999352694",
            "sslStart" : -1,
            "dnsStart" : -1,
            "receiveLast" : 49.8209999352694,
            "s_time" : 28.5980000626296,
            "sendEnd" : 10,
            "sendStart" : 10,
            "type" : "application/javascript"
         }
      },
      {
         "when_comp_start" : -1,
         "url" : "http://original.testbed.localhost/pagead2.googlesyndication.com/pagead/show_ads.js",
         "id" : "r16",
         "comps" : [
            {
               "s_time" : 112.189000006765,
               "time" : 25.739999953658,
               "type" : 1,
               "id" : "comp_16",
               "e_time" : 137.928999960423
            }
         ],
         "download" : {
            "receiveFirst" : 11,
            "len" : 27555,
            "dns" : 0,
            "dnsEnd" : -1,
            "receiveHeadersEnd" : 24,
            "sslEnd" : -1,
            "connectEnd" : 13,
            "connectStart" : 0,
            "id" : "download_11",
            "receivedTime" : "58.4700000472367",
            "sslStart" : -1,
            "dnsStart" : -1,
            "receiveLast" : 34.4700000472367,
            "s_time" : 29.8210000619292,
            "sendEnd" : 13,
            "sendStart" : 13,
            "type" : "application/javascript"
         }
      },
      {
         "when_comp_start" : -1,
         "url" : "http://original.testbed.localhost/www.popstr.com/_content/images/sites/tubestationuk/logo/logo160.jpg",
         "id" : "r12",
         "comps" : [],
         "download" : {
            "receiveFirst" : 14,
            "len" : 3229,
            "dns" : 0,
            "dnsEnd" : -1,
            "receiveHeadersEnd" : 29,
            "sslEnd" : -1,
            "connectEnd" : 15,
            "connectStart" : 0,
            "id" : "download_12",
            "receivedTime" : "59.9899999797344",
            "sslStart" : -1,
            "dnsStart" : -1,
            "receiveLast" : 30.9899999797344,
            "s_time" : 29.1689999867231,
            "sendEnd" : 15,
            "sendStart" : 15,
            "type" : "image/jpeg"
         }
      },
      {
         "when_comp_start" : -1,
         "url" : "http://original.testbed.localhost/www.popstr.com/_content/images/a1p/icon/slider/left_13_00c000.png",
         "id" : "r13",
         "comps" : [],
         "download" : {
            "receiveFirst" : 8,
            "len" : 185,
            "dns" : 0,
            "dnsEnd" : -1,
            "receiveHeadersEnd" : 8,
            "sslEnd" : -1,
            "connectEnd" : 0,
            "connectStart" : 0,
            "id" : "download_13",
            "receivedTime" : "68.3979999739677",
            "sslStart" : -1,
            "dnsStart" : -1,
            "receiveLast" : 60.3979999739677,
            "s_time" : 59.487999882549,
            "sendEnd" : 0,
            "sendStart" : 0,
            "type" : "image/png"
         }
      },
      {
         "when_comp_start" : -1,
         "url" : "http://original.testbed.localhost/www.popstr.com/_content/images/bus/trans/tfl/wikistations/478_360/4014.jpg",
         "id" : "r14",
         "comps" : [],
         "download" : {
            "receiveFirst" : 6,
            "len" : 257036,
            "dns" : 0,
            "dnsEnd" : -1,
            "receiveHeadersEnd" : 6,
            "sslEnd" : -1,
            "connectEnd" : 0,
            "connectStart" : 0,
            "id" : "download_14",
            "receivedTime" : "267.02699996531",
            "sslStart" : -1,
            "dnsStart" : -1,
            "receiveLast" : 261.02699996531,
            "s_time" : 68.2550000492483,
            "sendEnd" : 0,
            "sendStart" : 0,
            "type" : "image/jpeg"
         }
      },
      {
         "when_comp_start" : -1,
         "url" : "http://original.testbed.localhost/www.popstr.com/_content/images/bus/web/wiki/wiki.ico",
         "id" : "r15",
         "comps" : [],
         "download" : {
            "receiveFirst" : 11,
            "len" : 318,
            "dns" : 0,
            "dnsEnd" : -1,
            "receiveHeadersEnd" : 11,
            "sslEnd" : -1,
            "connectEnd" : 0,
            "connectStart" : 0,
            "id" : "download_15",
            "receivedTime" : "152.630999917164",
            "sslStart" : -1,
            "dnsStart" : -1,
            "receiveLast" : 141.630999917164,
            "s_time" : 68.6549998354167,
            "sendEnd" : 0,
            "sendStart" : 0,
            "type" : "image/x-icon"
         }
      },
      {
         "when_comp_start" : -1,
         "url" : "http://original.testbed.localhost/kobbles.com/_content/images/gen/modal/modal.gif",
         "id" : "r20",
         "comps" : [],
         "download" : {
            "receiveFirst" : 9,
            "len" : 2608,
            "dns" : 0,
            "dnsEnd" : -1,
            "receiveHeadersEnd" : 9,
            "sslEnd" : -1,
            "connectEnd" : 0,
            "connectStart" : 0,
            "id" : "download_16",
            "receivedTime" : "155.295999953523",
            "sslStart" : -1,
            "dnsStart" : -1,
            "receiveLast" : 146.295999953523,
            "s_time" : 140.317999990657,
            "sendEnd" : 0,
            "sendStart" : 0,
            "type" : "image/gif"
         }
      },
      {
         "when_comp_start" : -1,
         "url" : "http://original.testbed.localhost/www.tubestation.uk/favicon.ico",
         "id" : "r21",
         "comps" : [],
         "download" : {
            "receiveFirst" : 14,
            "len" : 1150,
            "dns" : 0,
            "dnsEnd" : -1,
            "receiveHeadersEnd" : 14,
            "sslEnd" : -1,
            "connectEnd" : 0,
            "connectStart" : 0,
            "id" : "download_17",
            "receivedTime" : "178.610999835655",
            "sslStart" : -1,
            "dnsStart" : -1,
            "receiveLast" : 164.610999835655,
            "s_time" : 153.357999864966,
            "sendEnd" : 0,
            "sendStart" : 0,
            "type" : "image/x-icon"
         }
      },
      {
         "when_comp_start" : -1,
         "url" : "http://original.testbed.localhost/www.popstr.com/_content/images/a1p/icon/a1p/A1.ico",
         "id" : "r22",
         "comps" : [],
         "download" : {
            "receiveFirst" : 15,
            "len" : 1150,
            "dns" : 0,
            "dnsEnd" : -1,
            "receiveHeadersEnd" : 16,
            "sslEnd" : -1,
            "connectEnd" : 1,
            "connectStart" : 0,
            "id" : "download_18",
            "receivedTime" : "178.882000036538",
            "sslStart" : -1,
            "dnsStart" : -1,
            "receiveLast" : 162.882000036538,
            "s_time" : 153.547999914736,
            "sendEnd" : 1,
            "sendStart" : 1,
            "type" : "image/x-icon"
         }
      },
      {
         "when_comp_start" : -1,
         "url" : "http://original.testbed.localhost/s3.amazonaws.com/cc.silktide.com/cookieconsent.latest.min.js",
         "id" : "r24",
         "comps" : [
            {
               "s_time" : 179.256999865174,
               "time" : 1.53800006955899,
               "type" : 1,
               "id" : "comp_37",
               "e_time" : 180.794999934733
            }
         ],
         "download" : {
            "receiveFirst" : 16,
            "len" : 4499,
            "dns" : 0,
            "dnsEnd" : -1,
            "receiveHeadersEnd" : 18,
            "sslEnd" : -1,
            "connectEnd" : 2,
            "connectStart" : 0,
            "id" : "download_19",
            "receivedTime" : "179.219000041485",
            "sslStart" : -1,
            "dnsStart" : -1,
            "receiveLast" : 161.219000041485,
            "s_time" : 154.48599983938,
            "sendEnd" : 2,
            "sendStart" : 2,
            "type" : "application/javascript"
         }
      },
      {
         "when_comp_start" : -1,
         "url" : "http://www.google-analytics.com/analytics.js",
         "id" : "r23",
         "comps" : [
            {
               "s_time" : 203.720999881625,
               "time" : 63.083000015468,
               "type" : 2,
               "id" : "comp_52",
               "e_time" : 266.803999897093
            }
         ],
         "download" : {
            "receiveFirst" : 23,
            "len" : 26303,
            "dns" : 0,
            "dnsEnd" : -1,
            "receiveHeadersEnd" : 25,
            "sslEnd" : -1,
            "connectEnd" : 2,
            "connectStart" : 0,
            "id" : "download_20",
            "receivedTime" : "203.310000011697",
            "sslStart" : -1,
            "dnsStart" : -1,
            "receiveLast" : 178.310000011697,
            "s_time" : 154.17500003241,
            "sendEnd" : 2,
            "sendStart" : 2,
            "type" : "text/javascript"
         }
      },
      {
         "when_comp_start" : 1,
         "url" : "https://googleads.g.doubleclick.net/pagead/html/r20150910/r20150820/zrt_lookup.html",
         "id" : "r18",
         "comps" : [
            {
               "s_time" : 345.864000031725,
               "time" : 3.15000000409697,
               "type" : "evalhtml",
               "id" : "r18_c1",
               "e_time" : 349.014000035822
            }
         ],
         "download" : {
            "receiveFirst" : 10,
            "len" : 9009,
            "dns" : 0,
            "dnsEnd" : 0,
            "receiveHeadersEnd" : 67,
            "sslEnd" : 53,
            "connectEnd" : 54,
            "connectStart" : 0,
            "id" : "download_21",
            "receivedTime" : "267.409999854863",
            "sslStart" : 16,
            "dnsStart" : 0,
            "receiveLast" : 200.409999854863,
            "s_time" : 139.104999834672,
            "sendEnd" : 57,
            "sendStart" : 54,
            "type" : "text/html"
         }
      },
      {
         "when_comp_start" : -1,
         "url" : "http://pagead2.googlesyndication.com/pagead/js/r20150910/r20150820/show_ads_impl.js",
         "id" : "r19",
         "comps" : [
            {
               "s_time" : 273.708999855444,
               "time" : 72.037999983877,
               "type" : 1,
               "id" : "comp_57",
               "e_time" : 345.746999839321
            }
         ],
         "download" : {
            "receiveFirst" : 45,
            "len" : 257843,
            "dns" : 0,
            "dnsEnd" : 1,
            "receiveHeadersEnd" : 74,
            "sslEnd" : -1,
            "connectEnd" : 29,
            "connectStart" : 0,
            "id" : "download_22",
            "receivedTime" : "273.608000017703",
            "sslStart" : -1,
            "dnsStart" : 1,
            "receiveLast" : 199.608000017703,
            "s_time" : 137.92399992235,
            "sendEnd" : 29,
            "sendStart" : 29,
            "type" : "text/javascript"
         }
      },
      {
         "when_comp_start" : -1,
         "url" : "https://pagead2.googlesyndication.com/pub-config/ca-pub-9902583931129722.js",
         "id" : "r17",
         "comps" : [
            {
               "s_time" : 273.448999971151,
               "time" : 0.104999868199968,
               "type" : 2,
               "id" : "comp_55",
               "e_time" : 273.553999839351
            }
         ],
         "download" : {
            "receiveFirst" : 83,
            "len" : 107,
            "dns" : 0,
            "dnsEnd" : 0,
            "receiveHeadersEnd" : 98,
            "sslEnd" : 12,
            "connectEnd" : 14,
            "connectStart" : 0,
            "id" : "download_23",
            "receivedTime" : "272.146000061184",
            "sslStart" : 0,
            "dnsStart" : 0,
            "receiveLast" : 174.146000061184,
            "s_time" : 124.150000046939,
            "sendEnd" : 15,
            "sendStart" : 14,
            "type" : "text/javascript"
         }
      },
      {
         "when_comp_start" : -1,
         "url" : "http://www.google-analytics.com/r/collect?v=1&_v=j39&a=1555528574&t=pageview&_s=1&dl=http%3A%2F%2Foriginal.testbed.localhost%2Fwww.tubestation.uk%2F&ul=en-us&de=UTF-8&dt=Tubestation&sd=24-bit&sr=1024x768&vp=1024x722&je=1&_u=AEAAAEQAI~&jid=2113568959&cid=294132855.1442534632&tid=UA-59743403-5&_r=1&z=",
         "id" : "r25",
         "comps" : [],
         "download" : {
            "receiveFirst" : 25,
            "len" : 35,
            "dns" : 0,
            "dnsEnd" : -1,
            "receiveHeadersEnd" : 25,
            "sslEnd" : -1,
            "connectEnd" : 0,
            "connectStart" : 0,
            "id" : "download_24",
            "receivedTime" : "355.240999953821",
            "sslStart" : -1,
            "dnsStart" : -1,
            "receiveLast" : 330.240999953821,
            "s_time" : 266.294999979436,
            "sendEnd" : 0,
            "sendStart" : 0,
            "type" : "image/gif"
         }
      },
      {
         "when_comp_start" : -1,
         "url" : "https://pagead2.googlesyndication.com/pagead/js/r20150910/r20150820/expansion_embed.js",
         "id" : "r27",
         "comps" : [
            {
               "s_time" : 549.241999862716,
               "time" : 38.4840001352129,
               "type" : null,
               "id" : "comp_81",
               "e_time" : 587.725999997929
            }
         ],
         "download" : {
            "receiveFirst" : 83,
            "len" : 172728,
            "dns" : 0,
            "dnsEnd" : -1,
            "receiveHeadersEnd" : 83,
            "sslEnd" : -1,
            "connectEnd" : 0,
            "connectStart" : 0,
            "id" : "download_25",
            "receivedTime" : "548.972999909893",
            "sslStart" : -1,
            "dnsStart" : -1,
            "receiveLast" : 465.972999909893,
            "s_time" : 350.026999833062,
            "sendEnd" : 0,
            "sendStart" : 0,
            "type" : "text/javascript"
         }
      },
      {
         "when_comp_start" : -1,
         "url" : "https://pagead2.googlesyndication.com/pagead/osd.js",
         "id" : "r28",
         "comps" : [
            {
               "s_time" : 530.971999978647,
               "time" : 17.736000008881,
               "type" : null,
               "id" : "comp_79",
               "e_time" : 548.707999987528
            }
         ],
         "download" : {
            "receiveFirst" : 178,
            "len" : 58944,
            "dns" : 0,
            "dnsEnd" : -1,
            "receiveHeadersEnd" : 178,
            "sslEnd" : -1,
            "connectEnd" : 0,
            "connectStart" : 0,
            "id" : "download_26",
            "receivedTime" : "530.706000048667",
            "sslStart" : -1,
            "dnsStart" : -1,
            "receiveLast" : 352.706000048667,
            "s_time" : 350.192999932915,
            "sendEnd" : 0,
            "sendStart" : 0,
            "type" : "text/javascript"
         }
      },
      {
         "when_comp_start" : 1,
         "url" : "https://googleads.g.doubleclick.net/pagead/ads?client=ca-pub-9902583931129722&output=html&h=125&slotname=3081234326&adk=3519004764&w=125&lmt=1442549028&loeid=312815100&color_bg=ffffff&color_border=ffffff&color_link=000000&color_text=000000&color_url=00a000&flash=0&url=http%3A%2F%2Foriginal.testbed.l",
         "id" : "r26",
         "comps" : [
            {
               "s_time" : 593.905000016093,
               "time" : 127.06599989906,
               "id" : "r26_c1",
               "type" : "evalhtml",
               "e_time" : 720.970999915153
            },
            {
               "s_time" : 729.44699996151,
               "time" : 26.2680000159891,
               "type" : "evalhtml",
               "id" : "r26_c2",
               "e_time" : 755.714999977499
            }
         ],
         "download" : {
            "receiveFirst" : 207,
            "len" : 149855,
            "dns" : 0,
            "dnsEnd" : -1,
            "receiveHeadersEnd" : 211,
            "sslEnd" : -1,
            "connectEnd" : 3,
            "connectStart" : 0,
            "id" : "download_27",
            "receivedTime" : "593.082000035793",
            "sslStart" : -1,
            "dnsStart" : -1,
            "receiveLast" : 382.082000035793,
            "s_time" : 342.413999838755,
            "sendEnd" : 4,
            "sendStart" : 3,
            "type" : "text/html"
         }
      },
      {
         "when_comp_start" : -1,
         "url" : "https://fonts.googleapis.com/css?family=Roboto:300&lang=en",
         "id" : "r29",
         "comps" : [
            {
               "s_time" : 700.455999933183,
               "time" : 19.288999959827,
               "type" : 4,
               "id" : "comp_83",
               "e_time" : 719.74499989301
            }
         ],
         "download" : {
            "receiveFirst" : 31,
            "len" : 244,
            "dns" : 0,
            "dnsEnd" : 1,
            "receiveHeadersEnd" : 93,
            "sslEnd" : 61,
            "connectEnd" : 61,
            "connectStart" : 0,
            "id" : "download_28",
            "receivedTime" : "700.275999959558",
            "sslStart" : 28,
            "dnsStart" : 1,
            "receiveLast" : 607.275999959558,
            "s_time" : 594.569999957457,
            "sendEnd" : 62,
            "sendStart" : 61,
            "type" : "text/css"
         }
      },
      {
         "when_comp_start" : -1,
         "url" : "https://tpc.googlesyndication.com/pagead/js/r20150917/r20110914/abg.js",
         "id" : "r30",
         "comps" : [
            {
               "s_time" : 721.255999989808,
               "time" : 8.19099997170201,
               "type" : 1,
               "id" : "comp_92",
               "e_time" : 729.44699996151
            }
         ],
         "download" : {
            "receiveFirst" : 35,
            "len" : 50719,
            "dns" : 0,
            "dnsEnd" : 3,
            "receiveHeadersEnd" : 116,
            "sslEnd" : 80,
            "connectEnd" : 80,
            "connectStart" : 0,
            "id" : "download_29",
            "receivedTime" : "721.15599992685",
            "sslStart" : 12,
            "dnsStart" : 3,
            "receiveLast" : 605.15599992685,
            "s_time" : 595.017999876291,
            "sendEnd" : 81,
            "sendStart" : 80,
            "type" : "text/javascript"
         }
      },
      {
         "when_comp_start" : 1,
         "url" : "https://googleads.g.doubleclick.net/pagead/drt/s?v=r20120211",
         "id" : "r33",
         "comps" : [
            {
               "s_time" : 764.778999844566,
               "time" : 0.0750001054260565,
               "type" : "evalhtml",
               "id" : "r33_c1",
               "e_time" : 764.853999949992
            }
         ],
         "download" : {
            "receiveFirst" : 10,
            "len" : 143,
            "dns" : 0,
            "dnsEnd" : -1,
            "receiveHeadersEnd" : 13,
            "sslEnd" : -1,
            "connectEnd" : 0,
            "connectStart" : 0,
            "id" : "download_30",
            "receivedTime" : "760.50699991174",
            "sslStart" : -1,
            "dnsStart" : -1,
            "receiveLast" : 747.50699991174,
            "s_time" : 741.483999881893,
            "sendEnd" : 3,
            "sendStart" : 0,
            "type" : "text/html"
         }
      },
      {
         "when_comp_start" : -1,
         "url" : "https://www.gstatic.com/images/branding/googlelogo/1x/googlelogo_color_112x36dp.png",
         "id" : "r32",
         "comps" : [],
         "download" : {
            "receiveFirst" : 10,
            "len" : 2449,
            "dns" : 0,
            "dnsEnd" : 0,
            "receiveHeadersEnd" : 36,
            "sslEnd" : 25,
            "connectEnd" : 25,
            "connectStart" : 0,
            "id" : "download_31",
            "receivedTime" : "764.547999948263",
            "sslStart" : 9,
            "dnsStart" : 0,
            "receiveLast" : 728.547999948263,
            "s_time" : 720.970999915153,
            "sendEnd" : 26,
            "sendStart" : 25,
            "type" : "image/png"
         }
      },
      {
         "when_comp_start" : -1,
         "url" : "https://tpc.googlesyndication.com/pagead/images/x_button_blue2.png",
         "id" : "r34",
         "comps" : [],
         "download" : {
            "receiveFirst" : 10,
            "len" : 145,
            "dns" : 0,
            "dnsEnd" : -1,
            "receiveHeadersEnd" : 11,
            "sslEnd" : -1,
            "connectEnd" : 1,
            "connectStart" : 0,
            "id" : "download_32",
            "receivedTime" : "769.882000051439",
            "sslStart" : -1,
            "dnsStart" : -1,
            "receiveLast" : 758.882000051439,
            "s_time" : 757.572999922559,
            "sendEnd" : 1,
            "sendStart" : 1,
            "type" : "image/png"
         }
      }
   ],
   "deps" : [
      {
         "a2" : "r1_c2",
         "time" : -1,
         "id" : "dep1",
         "a1" : "comp_6"
      },
      {
         "a2" : "r1_c3",
         "time" : -1,
         "id" : "dep2",
         "a1" : "comp_8"
      },
      {
         "a2" : "r1_c4",
         "time" : -1,
         "id" : "dep3",
         "a1" : "comp_10"
      },
      {
         "a2" : "r1_c5",
         "time" : -1,
         "id" : "dep4",
         "a1" : "comp_12"
      },
      {
         "a2" : "r1_c6",
         "time" : -1,
         "id" : "dep5",
         "a1" : "comp_16"
      },
      {
         "a2" : "r1_c7",
         "time" : -1,
         "id" : "dep6",
         "a1" : "comp_37"
      },
      {
         "a2" : "r1_c8",
         "time" : -1,
         "id" : "dep7",
         "a1" : "comp_57"
      },
      {
         "a2" : "comp_6",
         "time" : -1,
         "id" : "dep8",
         "a1" : "comp_0"
      },
      {
         "a2" : "comp_6",
         "time" : -1,
         "id" : "dep9",
         "a1" : "comp_4"
      },
      {
         "a2" : "comp_6",
         "time" : -1,
         "id" : "dep10",
         "a1" : "comp_2"
      },
      {
         "a2" : "comp_6",
         "time" : -1,
         "id" : "dep11",
         "a1" : "comp_3"
      },
      {
         "a2" : "comp_6",
         "time" : -1,
         "id" : "dep12",
         "a1" : "comp_1"
      },
      {
         "a2" : "comp_6",
         "time" : -1,
         "id" : "dep13",
         "a1" : "comp_5"
      },
      {
         "a2" : "comp_8",
         "time" : -1,
         "id" : "dep14",
         "a1" : "comp_6"
      },
      {
         "a2" : "comp_10",
         "time" : -1,
         "id" : "dep15",
         "a1" : "comp_8"
      },
      {
         "a2" : "comp_12",
         "time" : -1,
         "id" : "dep16",
         "a1" : "comp_10"
      },
      {
         "a2" : "r26_c2",
         "time" : -1,
         "id" : "dep17",
         "a1" : "comp_92"
      },
      {
         "a2" : "download_32",
         "time" : -1,
         "id" : "dep18",
         "a1" : "r1_c8"
      },
      {
         "a2" : "download_31",
         "time" : 375.224000075832,
         "id" : "dep19",
         "a1" : "r1_c8"
      },
      {
         "a2" : "download_31",
         "time" : -1,
         "id" : "dep20",
         "a1" : "r26_c1"
      },
      {
         "a2" : "download_30",
         "time" : 12.0369999203831,
         "id" : "dep21",
         "a1" : "r26_c2"
      },
      {
         "a2" : "download_29",
         "time" : 249.27100003697,
         "id" : "dep22",
         "a1" : "r1_c8"
      },
      {
         "a2" : "download_29",
         "time" : 1.11299986019799,
         "id" : "dep23",
         "a1" : "r26_c1"
      },
      {
         "a2" : "download_28",
         "time" : 0.664999941363931,
         "id" : "dep24",
         "a1" : "r26_c1"
      },
      {
         "a2" : "download_27",
         "time" : -1,
         "id" : "dep25",
         "a1" : "r1_c7"
      },
      {
         "a2" : "download_26",
         "time" : 4.44600009359397,
         "id" : "dep26",
         "a1" : "r1_c8"
      },
      {
         "a2" : "download_25",
         "time" : 4.279999993741,
         "id" : "dep27",
         "a1" : "r1_c8"
      },
      {
         "a2" : "download_24",
         "time" : 85.500000044703,
         "id" : "dep28",
         "a1" : "r1_c7"
      },
      {
         "a2" : "download_23",
         "time" : -1,
         "id" : "dep29",
         "a1" : "r1_c5"
      },
      {
         "a2" : "download_22",
         "time" : -1,
         "id" : "dep30",
         "a1" : "r1_c5"
      },
      {
         "a2" : "download_22",
         "time" : 32.211999874562,
         "id" : "dep31",
         "a1" : "r1_c5"
      },
      {
         "a2" : "download_21",
         "time" : -1,
         "id" : "dep32",
         "a1" : "r1_c6"
      },
      {
         "a2" : "download_20",
         "time" : -1,
         "id" : "dep33",
         "a1" : "r1_c6"
      },
      {
         "a2" : "download_19",
         "time" : -1,
         "id" : "dep34",
         "a1" : "r1_c6"
      },
      {
         "a2" : "download_18",
         "time" : 15.618999954313,
         "id" : "dep35",
         "a1" : "r1_c6"
      },
      {
         "a2" : "download_17",
         "time" : 15.428999904543,
         "id" : "dep36",
         "a1" : "r1_c6"
      },
      {
         "a2" : "download_16",
         "time" : 2.389000030234,
         "id" : "dep37",
         "a1" : "r1_c6"
      },
      {
         "a2" : "download_15",
         "time" : -1,
         "id" : "dep38",
         "a1" : "r1_c1"
      },
      {
         "a2" : "download_14",
         "time" : 41.1259999964386,
         "id" : "dep39",
         "a1" : "r1_c1"
      },
      {
         "a2" : "download_13",
         "time" : 32.3589998297393,
         "id" : "dep40",
         "a1" : "r1_c1"
      },
      {
         "a2" : "download_12",
         "time" : 2.0399999339134,
         "id" : "dep41",
         "a1" : "r1_c1"
      },
      {
         "a2" : "download_12",
         "time" : 2.0399999339134,
         "id" : "dep42",
         "a1" : "r1_c1"
      },
      {
         "a2" : "download_11",
         "time" : 2.6920000091195,
         "id" : "dep43",
         "a1" : "r1_c1"
      },
      {
         "a2" : "download_11",
         "time" : 2.6920000091195,
         "id" : "dep44",
         "a1" : "r1_c1"
      },
      {
         "a2" : "download_10",
         "time" : 1.4690000098199,
         "id" : "dep45",
         "a1" : "r1_c1"
      },
      {
         "a2" : "download_9",
         "time" : 1.8779998645187,
         "id" : "dep46",
         "a1" : "r1_c1"
      },
      {
         "a2" : "download_9",
         "time" : 1.8779998645187,
         "id" : "dep47",
         "a1" : "r1_c1"
      },
      {
         "a2" : "download_8",
         "time" : 1.7430000007153,
         "id" : "dep48",
         "a1" : "r1_c1"
      },
      {
         "a2" : "download_8",
         "time" : 1.7430000007153,
         "id" : "dep49",
         "a1" : "r1_c1"
      },
      {
         "a2" : "download_7",
         "time" : 1.6279998235405,
         "id" : "dep50",
         "a1" : "r1_c1"
      },
      {
         "a2" : "download_7",
         "time" : 1.6279998235405,
         "id" : "dep51",
         "a1" : "r1_c1"
      },
      {
         "a2" : "download_6",
         "time" : 1.2609998229891,
         "id" : "dep52",
         "a1" : "r1_c1"
      },
      {
         "a2" : "download_5",
         "time" : 0.741999829188,
         "id" : "dep53",
         "a1" : "r1_c1"
      },
      {
         "a2" : "download_4",
         "time" : 1.0239998809993,
         "id" : "dep54",
         "a1" : "r1_c1"
      },
      {
         "a2" : "download_3",
         "time" : 0.8889997843653,
         "id" : "dep55",
         "a1" : "r1_c1"
      },
      {
         "a2" : "download_2",
         "time" : 1.1369998101145,
         "id" : "dep56",
         "a1" : "r1_c1"
      },
      {
         "a2" : "download_1",
         "time" : 0.490000005811499,
         "id" : "dep57",
         "a1" : "r1_c1"
      }
   ]
}
