{
   "n_download_no_trigger" : 1,
   "start_activity" : "download_0",
   "name" : "original.testbed.localhost_online.wsj.com_",
   "load_activity" : -1,
   "objs" : [
      {
         "when_comp_start" : 1,
         "url" : "http://original.testbed.localhost/online.wsj.com/",
         "id" : "r1",
         "comps" : [
            {
               "s_time" : 23.103000014089,
               "time" : 1.1400000657887,
               "type" : "evalhtml",
               "id" : "r1_c1",
               "e_time" : 24.2430000798777
            }
         ],
         "download" : {
            "receiveFirst" : 6,
            "len" : 1156,
            "dns" : 0,
            "dnsEnd" : -1,
            "receiveHeadersEnd" : 6,
            "sslEnd" : -1,
            "connectEnd" : 0,
            "connectStart" : 0,
            "id" : "download_0",
            "receivedTime" : "7.35600001644343",
            "sslStart" : -1,
            "dnsStart" : -1,
            "receiveLast" : 1.35600001644343,
            "s_time" : 0,
            "sendEnd" : 0,
            "sendStart" : 0,
            "type" : "text/html"
         }
      },
      {
         "when_comp_start" : -1,
         "url" : "http://original.testbed.localhost/icons/blank.gif",
         "id" : "r2",
         "comps" : [],
         "download" : {
            "receiveFirst" : 5,
            "len" : 148,
            "dns" : 0,
            "dnsEnd" : -1,
            "receiveHeadersEnd" : 6,
            "sslEnd" : -1,
            "connectEnd" : 1,
            "connectStart" : 0,
            "id" : "download_1",
            "receivedTime" : "31.156999990344",
            "sslStart" : -1,
            "dnsStart" : -1,
            "receiveLast" : 25.156999990344,
            "s_time" : 23.7210000632331,
            "sendEnd" : 1,
            "sendStart" : 1,
            "type" : "image/gif"
         }
      },
      {
         "when_comp_start" : -1,
         "url" : "http://original.testbed.localhost/icons/unknown.gif",
         "id" : "r5",
         "comps" : [],
         "download" : {
            "receiveFirst" : 7,
            "len" : 245,
            "dns" : 0,
            "dnsEnd" : -1,
            "receiveHeadersEnd" : 7,
            "sslEnd" : -1,
            "connectEnd" : 0,
            "connectStart" : 0,
            "id" : "download_2",
            "receivedTime" : "32.1150000672787",
            "sslStart" : -1,
            "dnsStart" : -1,
            "receiveLast" : 25.1150000672787,
            "s_time" : 24.2430000798777,
            "sendEnd" : 0,
            "sendStart" : 0,
            "type" : "image/gif"
         }
      },
      {
         "when_comp_start" : -1,
         "url" : "http://original.testbed.localhost/icons/text.gif",
         "id" : "r4",
         "comps" : [],
         "download" : {
            "receiveFirst" : 6,
            "len" : 229,
            "dns" : 0,
            "dnsEnd" : -1,
            "receiveHeadersEnd" : 7,
            "sslEnd" : -1,
            "connectEnd" : 1,
            "connectStart" : 0,
            "id" : "download_3",
            "receivedTime" : "32.242999994196",
            "sslStart" : -1,
            "dnsStart" : -1,
            "receiveLast" : 25.242999994196,
            "s_time" : 24.0890000713989,
            "sendEnd" : 1,
            "sendStart" : 1,
            "type" : "image/gif"
         }
      },
      {
         "when_comp_start" : -1,
         "url" : "http://original.testbed.localhost/icons/back.gif",
         "id" : "r3",
         "comps" : [],
         "download" : {
            "receiveFirst" : 6,
            "len" : 216,
            "dns" : 0,
            "dnsEnd" : -1,
            "receiveHeadersEnd" : 7,
            "sslEnd" : -1,
            "connectEnd" : 1,
            "connectStart" : 0,
            "id" : "download_4",
            "receivedTime" : "32.4070000788197",
            "sslStart" : -1,
            "dnsStart" : -1,
            "receiveLast" : 25.4070000788197,
            "s_time" : 23.9210000727326,
            "sendEnd" : 1,
            "sendStart" : 1,
            "type" : "image/gif"
         }
      }
   ],
   "deps" : [
      {
         "a2" : "download_4",
         "time" : 0.818000058643598,
         "id" : "dep1",
         "a1" : "r1_c1"
      },
      {
         "a2" : "download_3",
         "time" : 0.986000057309898,
         "id" : "dep2",
         "a1" : "r1_c1"
      },
      {
         "a2" : "download_2",
         "time" : -1,
         "id" : "dep3",
         "a1" : "r1_c1"
      },
      {
         "a2" : "download_1",
         "time" : 0.618000049144097,
         "id" : "dep4",
         "a1" : "r1_c1"
      }
   ]
}
