{
   "n_download_no_trigger" : 1,
   "start_activity" : "download_0",
   "name" : "original.testbed.localhost_www.woshao.com",
   "load_activity" : -1,
   "objs" : [
      {
         "when_comp_start" : 1,
         "url" : "http://original.testbed.localhost/www.woshao.com",
         "id" : "r1",
         "comps" : [
            {
               "s_time" : 98.8839999772608,
               "time" : 0.203000148758306,
               "type" : "evalhtml",
               "id" : "r1_c1",
               "e_time" : 99.0870001260191
            }
         ],
         "download" : {
            "receiveFirst" : 51,
            "len" : 304,
            "dns" : 0,
            "dnsEnd" : 0,
            "receiveHeadersEnd" : 83,
            "sslEnd" : -1,
            "connectEnd" : 32,
            "connectStart" : 0,
            "id" : "download_0",
            "receivedTime" : "84.0990000870079",
            "sslStart" : -1,
            "dnsStart" : 0,
            "receiveLast" : 1.09900008700788,
            "s_time" : 0,
            "sendEnd" : 32,
            "sendStart" : 32,
            "type" : "text/html"
         }
      }
   ],
   "deps" : []
}
