{
   "n_download_no_trigger" : 1,
   "start_activity" : "download_0",
   "name" : "original.testbed.localhost_www.stihl.ch_",
   "load_activity" : -1,
   "objs" : [
      {
         "when_comp_start" : 1,
         "url" : "http://original.testbed.localhost/www.stihl.ch/",
         "id" : "r1",
         "comps" : [
            {
               "s_time" : 66.5990000125021,
               "time" : 319.18999995105,
               "id" : "r1_c1",
               "type" : "evalhtml",
               "e_time" : 385.788999963552
            },
            {
               "s_time" : 500.908000161871,
               "time" : -1114730353.425,
               "id" : "r1_c2",
               "type" : "evalhtml",
               "e_time" : -1114729852.517
            },
            {
               "s_time" : 504.396999953315,
               "time" : 67.354000173509,
               "type" : "evalhtml",
               "id" : "r1_c3",
               "e_time" : 571.751000126824
            }
         ],
         "download" : {
            "receiveFirst" : 51,
            "len" : 7440,
            "dns" : 0,
            "dnsEnd" : -1,
            "receiveHeadersEnd" : 51,
            "sslEnd" : -1,
            "connectEnd" : 0,
            "connectStart" : 0,
            "id" : "download_0",
            "receivedTime" : "51.7230001278222",
            "sslStart" : -1,
            "dnsStart" : -1,
            "receiveLast" : 0.723000127822161,
            "s_time" : 0,
            "sendEnd" : 0,
            "sendStart" : 0,
            "type" : "text/html"
         }
      },
      {
         "when_comp_start" : -1,
         "url" : "http://original.testbed.localhost/static.stihl.com/css/print.min.css",
         "id" : "r3",
         "comps" : [
            {
               "s_time" : 121.448999969289,
               "time" : 1.76600017584799,
               "type" : 4,
               "id" : "comp_2",
               "e_time" : 123.215000145137
            }
         ],
         "download" : {
            "receiveFirst" : 52,
            "len" : 15024,
            "dns" : 0,
            "dnsEnd" : -1,
            "receiveHeadersEnd" : 53,
            "sslEnd" : -1,
            "connectEnd" : 1,
            "connectStart" : 0,
            "id" : "download_1",
            "receivedTime" : "121.349000139162",
            "sslStart" : -1,
            "dnsStart" : -1,
            "receiveLast" : 68.3490001391619,
            "s_time" : 67.4509999807924,
            "sendEnd" : 1,
            "sendStart" : 1,
            "type" : "text/css"
         }
      },
      {
         "when_comp_start" : -1,
         "url" : "http://original.testbed.localhost/static.stihl.com/js/custom.min.js",
         "id" : "r6",
         "comps" : [
            {
               "s_time" : 501.043000025675,
               "time" : 3.35399992764002,
               "type" : 1,
               "id" : "comp_12",
               "e_time" : 504.396999953315
            }
         ],
         "download" : {
            "receiveFirst" : 54,
            "len" : 100929,
            "dns" : 0,
            "dnsEnd" : -1,
            "receiveHeadersEnd" : 55,
            "sslEnd" : -1,
            "connectEnd" : 1,
            "connectStart" : 0,
            "id" : "download_2",
            "receivedTime" : "175.909999990836",
            "sslStart" : -1,
            "dnsStart" : -1,
            "receiveLast" : 120.909999990836,
            "s_time" : 67.7900000009686,
            "sendEnd" : 1,
            "sendStart" : 1,
            "type" : "application/javascript"
         }
      },
      {
         "when_comp_start" : -1,
         "url" : "http://original.testbed.localhost/static.stihl.com/js/lib.min.js",
         "id" : "r5",
         "comps" : [
            {
               "s_time" : 385.906000155956,
               "time" : 115.002000005915,
               "type" : 1,
               "id" : "comp_9",
               "e_time" : 500.908000161871
            }
         ],
         "download" : {
            "receiveFirst" : 62,
            "len" : 299795,
            "dns" : 0,
            "dnsEnd" : -1,
            "receiveHeadersEnd" : 63,
            "sslEnd" : -1,
            "connectEnd" : 1,
            "connectStart" : 0,
            "id" : "download_3",
            "receivedTime" : "385.801000054926",
            "sslStart" : -1,
            "dnsStart" : -1,
            "receiveLast" : 322.801000054926,
            "s_time" : 67.6140000578016,
            "sendEnd" : 1,
            "sendStart" : 1,
            "type" : "application/javascript"
         }
      },
      {
         "when_comp_start" : -1,
         "url" : "http://original.testbed.localhost/static.stihl.com/css/screen.min.css",
         "id" : "r2",
         "comps" : [
            {
               "s_time" : 242.763000074774,
               "time" : 25.328000076115,
               "type" : 4,
               "id" : "comp_7",
               "e_time" : 268.091000150889
            }
         ],
         "download" : {
            "receiveFirst" : 68,
            "len" : 287229,
            "dns" : 0,
            "dnsEnd" : -1,
            "receiveHeadersEnd" : 69,
            "sslEnd" : -1,
            "connectEnd" : 1,
            "connectStart" : 0,
            "id" : "download_4",
            "receivedTime" : "242.685000179335",
            "sslStart" : -1,
            "dnsStart" : -1,
            "receiveLast" : 173.685000179335,
            "s_time" : 67.2059999778867,
            "sendEnd" : 1,
            "sendStart" : 1,
            "type" : "text/css"
         }
      },
      {
         "when_comp_start" : -1,
         "url" : "http://original.testbed.localhost/static.stihl.com/css/print_dealerlocator.css",
         "id" : "r4",
         "comps" : [
            {
               "s_time" : 173.287000041455,
               "time" : 0.0410000793640108,
               "type" : 4,
               "id" : "comp_3",
               "e_time" : 173.328000120819
            }
         ],
         "download" : {
            "receiveFirst" : 51,
            "len" : 546,
            "dns" : 0,
            "dnsEnd" : -1,
            "receiveHeadersEnd" : 51,
            "sslEnd" : -1,
            "connectEnd" : 0,
            "connectStart" : 0,
            "id" : "download_5",
            "receivedTime" : "173.22100000456",
            "sslStart" : -1,
            "dnsStart" : -1,
            "receiveLast" : 122.22100000456,
            "s_time" : 121.227000141516,
            "sendEnd" : 0,
            "sendStart" : 0,
            "type" : "text/css"
         }
      },
      {
         "when_comp_start" : -1,
         "url" : "http://original.testbed.localhost/static.stihl.com/img_layout/stihl_print_logo.gif",
         "id" : "r7",
         "comps" : [],
         "download" : {
            "receiveFirst" : 50,
            "len" : 1647,
            "dns" : 0,
            "dnsEnd" : -1,
            "receiveHeadersEnd" : 51,
            "sslEnd" : -1,
            "connectEnd" : 0,
            "connectStart" : 0,
            "id" : "download_6",
            "receivedTime" : "225.338000105694",
            "sslStart" : -1,
            "dnsStart" : -1,
            "receiveLast" : 174.338000105694,
            "s_time" : 173.237000126392,
            "sendEnd" : 1,
            "sendStart" : 0,
            "type" : "image/gif"
         }
      },
      {
         "when_comp_start" : -1,
         "url" : "http://original.testbed.localhost/static.stihl.com/img_layout/stihl_moodrahmen_fade.png",
         "id" : "r8",
         "comps" : [],
         "download" : {
            "receiveFirst" : 51,
            "len" : 36319,
            "dns" : 0,
            "dnsEnd" : -1,
            "receiveHeadersEnd" : 51,
            "sslEnd" : -1,
            "connectEnd" : 0,
            "connectStart" : 0,
            "id" : "download_7",
            "receivedTime" : "379.011000040919",
            "sslStart" : -1,
            "dnsStart" : -1,
            "receiveLast" : 328.011000040919,
            "s_time" : 225.321999983862,
            "sendEnd" : 0,
            "sendStart" : 0,
            "type" : "image/png"
         }
      },
      {
         "when_comp_start" : -1,
         "url" : "http://original.testbed.localhost/de.stihl.ch/p/images/teaser/ch-de/vorschaltseite_vertrieb.jpg",
         "id" : "r9",
         "comps" : [],
         "download" : {
            "receiveFirst" : 51,
            "len" : 103127,
            "dns" : 0,
            "dnsEnd" : -1,
            "receiveHeadersEnd" : 51,
            "sslEnd" : -1,
            "connectEnd" : 0,
            "connectStart" : 0,
            "id" : "download_8",
            "receivedTime" : "680.307999951765",
            "sslStart" : -1,
            "dnsStart" : -1,
            "receiveLast" : 629.307999951765,
            "s_time" : 378.568000160158,
            "sendEnd" : 0,
            "sendStart" : 0,
            "type" : "image/jpeg"
         }
      },
      {
         "when_comp_start" : -1,
         "url" : "http://original.testbed.localhost/de.stihl.ch/p/images/teaser/vorschaltseite_kettenwerk.jpg",
         "id" : "r10",
         "comps" : [],
         "download" : {
            "receiveFirst" : 51,
            "len" : 32241,
            "dns" : 0,
            "dnsEnd" : -1,
            "receiveHeadersEnd" : 51,
            "sslEnd" : -1,
            "connectEnd" : 0,
            "connectStart" : 0,
            "id" : "download_9",
            "receivedTime" : "567.160000093281",
            "sslStart" : -1,
            "dnsStart" : -1,
            "receiveLast" : 516.160000093281,
            "s_time" : 385.788999963552,
            "sendEnd" : 0,
            "sendStart" : 0,
            "type" : "image/jpeg"
         }
      },
      {
         "when_comp_start" : -1,
         "url" : "http://original.testbed.localhost/de.stihl.ch/p/images/background/herbst_2010_overlay_1700x864.jpg",
         "id" : "r11",
         "comps" : [],
         "download" : {
            "receiveFirst" : 51,
            "len" : 219439,
            "dns" : 0,
            "dnsEnd" : -1,
            "receiveHeadersEnd" : 52,
            "sslEnd" : -1,
            "connectEnd" : 1,
            "connectStart" : 0,
            "id" : "download_10",
            "receivedTime" : "1015.42900013737",
            "sslStart" : -1,
            "dnsStart" : -1,
            "receiveLast" : 963.429000137374,
            "s_time" : 509.653000161052,
            "sendEnd" : 1,
            "sendStart" : 1,
            "type" : "image/jpeg"
         }
      },
      {
         "when_comp_start" : -1,
         "url" : "http://original.testbed.localhost/static.stihl.com/img_layout/topnavigation_bg.png",
         "id" : "r12",
         "comps" : [],
         "download" : {
            "receiveFirst" : 57,
            "len" : 199,
            "dns" : 0,
            "dnsEnd" : -1,
            "receiveHeadersEnd" : 58,
            "sslEnd" : -1,
            "connectEnd" : 1,
            "connectStart" : 0,
            "id" : "download_11",
            "receivedTime" : "579.162999987602",
            "sslStart" : -1,
            "dnsStart" : -1,
            "receiveLast" : 521.162999987602,
            "s_time" : 510.030000004917,
            "sendEnd" : 1,
            "sendStart" : 1,
            "type" : "image/png"
         }
      },
      {
         "when_comp_start" : -1,
         "url" : "http://original.testbed.localhost/static.stihl.com/img_layout/backgrounds/fade.png",
         "id" : "r13",
         "comps" : [],
         "download" : {
            "receiveFirst" : 59,
            "len" : 463,
            "dns" : 0,
            "dnsEnd" : -1,
            "receiveHeadersEnd" : 60,
            "sslEnd" : -1,
            "connectEnd" : 1,
            "connectStart" : 0,
            "id" : "download_12",
            "receivedTime" : "579.51800012961",
            "sslStart" : -1,
            "dnsStart" : -1,
            "receiveLast" : 519.51800012961,
            "s_time" : 510.355000151321,
            "sendEnd" : 1,
            "sendStart" : 1,
            "type" : "image/png"
         }
      },
      {
         "when_comp_start" : -1,
         "url" : "http://original.testbed.localhost/static.stihl.com/img_layout/top_navi_right.png",
         "id" : "r14",
         "comps" : [],
         "download" : {
            "receiveFirst" : 57,
            "len" : 796,
            "dns" : 0,
            "dnsEnd" : -1,
            "receiveHeadersEnd" : 59,
            "sslEnd" : -1,
            "connectEnd" : 2,
            "connectStart" : 0,
            "id" : "download_13",
            "receivedTime" : "579.985999967903",
            "sslStart" : -1,
            "dnsStart" : -1,
            "receiveLast" : 520.985999967903,
            "s_time" : 513.115999987349,
            "sendEnd" : 2,
            "sendStart" : 2,
            "type" : "image/png"
         }
      },
      {
         "when_comp_start" : -1,
         "url" : "http://original.testbed.localhost/static.stihl.com/img_layout/home_button.png",
         "id" : "r15",
         "comps" : [],
         "download" : {
            "receiveFirst" : 57,
            "len" : 8091,
            "dns" : 0,
            "dnsEnd" : -1,
            "receiveHeadersEnd" : 59,
            "sslEnd" : -1,
            "connectEnd" : 2,
            "connectStart" : 0,
            "id" : "download_14",
            "receivedTime" : "580.311000114307",
            "sslStart" : -1,
            "dnsStart" : -1,
            "receiveLast" : 521.311000114307,
            "s_time" : 513.434000080451,
            "sendEnd" : 2,
            "sendStart" : 2,
            "type" : "image/png"
         }
      },
      {
         "when_comp_start" : -1,
         "url" : "http://original.testbed.localhost/static.stihl.com/img_layout/top_navi_left.png",
         "id" : "r16",
         "comps" : [],
         "download" : {
            "receiveFirst" : 51,
            "len" : 1278,
            "dns" : 0,
            "dnsEnd" : -1,
            "receiveHeadersEnd" : 107,
            "sslEnd" : -1,
            "connectEnd" : 56,
            "connectStart" : 0,
            "id" : "download_15",
            "receivedTime" : "622.760000173002",
            "sslStart" : -1,
            "dnsStart" : -1,
            "receiveLast" : 515.760000173002,
            "s_time" : 513.775000115857,
            "sendEnd" : 56,
            "sendStart" : 56,
            "type" : "image/png"
         }
      },
      {
         "when_comp_start" : -1,
         "url" : "http://original.testbed.localhost/static.stihl.com/img_layout/top_navi_bg.gif",
         "id" : "r17",
         "comps" : [],
         "download" : {
            "receiveFirst" : 50,
            "len" : 334,
            "dns" : 0,
            "dnsEnd" : -1,
            "receiveHeadersEnd" : 108,
            "sslEnd" : -1,
            "connectEnd" : 58,
            "connectStart" : 0,
            "id" : "download_16",
            "receivedTime" : "626.376000000164",
            "sslStart" : -1,
            "dnsStart" : -1,
            "receiveLast" : 518.376000000164,
            "s_time" : 514.073000056669,
            "sendEnd" : 58,
            "sendStart" : 58,
            "type" : "image/gif"
         }
      },
      {
         "when_comp_start" : -1,
         "url" : "http://original.testbed.localhost/static.stihl.com/img_layout/top_navi_divider.gif",
         "id" : "r18",
         "comps" : [],
         "download" : {
            "receiveFirst" : 51,
            "len" : 323,
            "dns" : 0,
            "dnsEnd" : -1,
            "receiveHeadersEnd" : 109,
            "sslEnd" : -1,
            "connectEnd" : 58,
            "connectStart" : 0,
            "id" : "download_17",
            "receivedTime" : "626.798999961466",
            "sslStart" : -1,
            "dnsStart" : -1,
            "receiveLast" : 517.798999961466,
            "s_time" : 514.407000038773,
            "sendEnd" : 58,
            "sendStart" : 58,
            "type" : "image/gif"
         }
      },
      {
         "when_comp_start" : -1,
         "url" : "http://original.testbed.localhost/static.stihl.com/img_layout/arrow_orange.png",
         "id" : "r19",
         "comps" : [],
         "download" : {
            "receiveFirst" : 50,
            "len" : 284,
            "dns" : 0,
            "dnsEnd" : -1,
            "receiveHeadersEnd" : 110,
            "sslEnd" : -1,
            "connectEnd" : 60,
            "connectStart" : 0,
            "id" : "download_18",
            "receivedTime" : "627.208000048995",
            "sslStart" : -1,
            "dnsStart" : -1,
            "receiveLast" : 517.208000048995,
            "s_time" : 514.82899999246,
            "sendEnd" : 60,
            "sendStart" : 60,
            "type" : "image/png"
         }
      },
      {
         "when_comp_start" : -1,
         "url" : "http://original.testbed.localhost/de.stihl.ch/p/media/flash/ch-de/teaser.jpg",
         "id" : "r20",
         "comps" : [],
         "download" : {
            "receiveFirst" : 51,
            "len" : 233815,
            "dns" : 0,
            "dnsEnd" : -1,
            "receiveHeadersEnd" : 103,
            "sslEnd" : -1,
            "connectEnd" : 52,
            "connectStart" : 0,
            "id" : "download_19",
            "receivedTime" : "1380.33900014125",
            "sslStart" : -1,
            "dnsStart" : -1,
            "receiveLast" : 1277.33900014125,
            "s_time" : 569.50300000608,
            "sendEnd" : 52,
            "sendStart" : 52,
            "type" : "image/jpeg"
         }
      },
      {
         "when_comp_start" : -1,
         "url" : "http://original.testbed.localhost/static.stihl.com/img_layout/orange_button.gif",
         "id" : "r21",
         "comps" : [],
         "download" : {
            "receiveFirst" : 53,
            "len" : 4927,
            "dns" : 0,
            "dnsEnd" : -1,
            "receiveHeadersEnd" : 104,
            "sslEnd" : -1,
            "connectEnd" : 51,
            "connectStart" : 0,
            "id" : "download_20",
            "receivedTime" : "678.338000085205",
            "sslStart" : -1,
            "dnsStart" : -1,
            "receiveLast" : 574.338000085205,
            "s_time" : 571.751000126824,
            "sendEnd" : 51,
            "sendStart" : 51,
            "type" : "image/gif"
         }
      }
   ],
   "deps" : [
      {
         "a2" : "r1_c2",
         "time" : -1,
         "id" : "dep1",
         "a1" : "comp_9"
      },
      {
         "a2" : "r1_c3",
         "time" : -1,
         "id" : "dep2",
         "a1" : "comp_12"
      },
      {
         "a2" : "comp_9",
         "time" : -1,
         "id" : "dep3",
         "a1" : "comp_7"
      },
      {
         "a2" : "comp_9",
         "time" : -1,
         "id" : "dep4",
         "a1" : "comp_2"
      },
      {
         "a2" : "comp_9",
         "time" : -1,
         "id" : "dep5",
         "a1" : "comp_3"
      },
      {
         "a2" : "comp_12",
         "time" : -1,
         "id" : "dep6",
         "a1" : "comp_9"
      },
      {
         "a2" : "download_20",
         "time" : -1,
         "id" : "dep7",
         "a1" : "r1_c3"
      },
      {
         "a2" : "download_19",
         "time" : 65.106000052765,
         "id" : "dep8",
         "a1" : "r1_c3"
      },
      {
         "a2" : "download_18",
         "time" : 10.432000039145,
         "id" : "dep9",
         "a1" : "r1_c3"
      },
      {
         "a2" : "download_17",
         "time" : 10.010000085458,
         "id" : "dep10",
         "a1" : "r1_c3"
      },
      {
         "a2" : "download_16",
         "time" : 9.676000103354,
         "id" : "dep11",
         "a1" : "r1_c3"
      },
      {
         "a2" : "download_15",
         "time" : 9.37800016254198,
         "id" : "dep12",
         "a1" : "r1_c3"
      },
      {
         "a2" : "download_14",
         "time" : 9.03700012713603,
         "id" : "dep13",
         "a1" : "r1_c3"
      },
      {
         "a2" : "download_13",
         "time" : 8.71900003403402,
         "id" : "dep14",
         "a1" : "r1_c3"
      },
      {
         "a2" : "download_12",
         "time" : 5.958000198006,
         "id" : "dep15",
         "a1" : "r1_c3"
      },
      {
         "a2" : "download_11",
         "time" : 5.63300005160198,
         "id" : "dep16",
         "a1" : "r1_c3"
      },
      {
         "a2" : "download_10",
         "time" : 5.25600020773697,
         "id" : "dep17",
         "a1" : "r1_c3"
      },
      {
         "a2" : "download_9",
         "time" : -1,
         "id" : "dep18",
         "a1" : "r1_c1"
      },
      {
         "a2" : "download_8",
         "time" : 311.969000147656,
         "id" : "dep19",
         "a1" : "r1_c1"
      },
      {
         "a2" : "download_7",
         "time" : 158.72299997136,
         "id" : "dep20",
         "a1" : "r1_c1"
      },
      {
         "a2" : "download_6",
         "time" : 106.63800011389,
         "id" : "dep21",
         "a1" : "r1_c1"
      },
      {
         "a2" : "download_5",
         "time" : 54.6280001290139,
         "id" : "dep22",
         "a1" : "r1_c1"
      },
      {
         "a2" : "download_4",
         "time" : 0.606999965384603,
         "id" : "dep23",
         "a1" : "r1_c1"
      },
      {
         "a2" : "download_3",
         "time" : 1.0150000452995,
         "id" : "dep24",
         "a1" : "r1_c1"
      },
      {
         "a2" : "download_2",
         "time" : 1.1909999884665,
         "id" : "dep25",
         "a1" : "r1_c1"
      },
      {
         "a2" : "download_2",
         "time" : 1.1909999884665,
         "id" : "dep26",
         "a1" : "r1_c1"
      },
      {
         "a2" : "download_1",
         "time" : 0.851999968290301,
         "id" : "dep27",
         "a1" : "r1_c1"
      }
   ]
}
