{
   "n_download_no_trigger" : 1,
   "start_activity" : "download_0",
   "name" : "original.testbed.localhost_www.nwupukkiverblyf.co.za_",
   "load_activity" : -1,
   "objs" : [
      {
         "when_comp_start" : 1,
         "url" : "http://original.testbed.localhost/www.nwupukkiverblyf.co.za/",
         "id" : "r1",
         "comps" : [
            {
               "s_time" : 318.572999996832,
               "time" : 85.663000005297,
               "id" : "r1_c1",
               "type" : "evalhtml",
               "e_time" : 404.236000002129
            },
            {
               "s_time" : 913.391000009142,
               "time" : 363.066999998408,
               "id" : "r1_c2",
               "type" : "evalhtml",
               "e_time" : 1276.45800000755
            },
            {
               "s_time" : 1636.7190000019,
               "time" : -184024285.233,
               "id" : "r1_c3",
               "type" : "evalhtml",
               "e_time" : -184022648.514
            },
            {
               "s_time" : 1813.35400001262,
               "time" : -184024461.868,
               "id" : "r1_c4",
               "type" : "evalhtml",
               "e_time" : -184022648.514
            },
            {
               "s_time" : 1815.24600001285,
               "time" : 162.53699999652,
               "type" : "evalhtml",
               "id" : "r1_c5",
               "e_time" : 1977.78300000937
            }
         ],
         "download" : {
            "receiveFirst" : 154,
            "len" : 28317,
            "dns" : 0,
            "dnsEnd" : -1,
            "receiveHeadersEnd" : 160,
            "sslEnd" : -1,
            "connectEnd" : 5,
            "connectStart" : 0,
            "id" : "download_0",
            "receivedTime" : "316.954999987502",
            "sslStart" : -1,
            "dnsStart" : -1,
            "receiveLast" : 156.954999987502,
            "s_time" : 0,
            "sendEnd" : 6,
            "sendStart" : 5,
            "type" : "text/html"
         }
      },
      {
         "when_comp_start" : -1,
         "url" : "http://original.testbed.localhost/www.nwupukkiverblyf.co.za/js/jquery-ui-1.11.4.custom/jquery-ui.css",
         "id" : "r2",
         "comps" : [
            {
               "s_time" : 517.791999998735,
               "time" : 19.377999997232,
               "type" : 4,
               "id" : "comp_0",
               "e_time" : 537.169999995967
            }
         ],
         "download" : {
            "receiveFirst" : 155,
            "len" : 35212,
            "dns" : 0,
            "dnsEnd" : -1,
            "receiveHeadersEnd" : 160,
            "sslEnd" : -1,
            "connectEnd" : 5,
            "connectStart" : 0,
            "id" : "download_1",
            "receivedTime" : "517.090000008466",
            "sslStart" : -1,
            "dnsStart" : -1,
            "receiveLast" : 357.090000008466,
            "s_time" : 345.24500000407,
            "sendEnd" : 5,
            "sendStart" : 5,
            "type" : "text/css"
         }
      },
      {
         "when_comp_start" : -1,
         "url" : "http://original.testbed.localhost/www.nwupukkiverblyf.co.za/js/jquery.js",
         "id" : "r3",
         "comps" : [
            {
               "s_time" : 726.378999999724,
               "time" : 187.012000009418,
               "type" : 1,
               "id" : "comp_1",
               "e_time" : 913.391000009142
            }
         ],
         "download" : {
            "receiveFirst" : 159,
            "len" : 92629,
            "dns" : 0,
            "dnsEnd" : -1,
            "receiveHeadersEnd" : 184,
            "sslEnd" : -1,
            "connectEnd" : 25,
            "connectStart" : 0,
            "id" : "download_2",
            "receivedTime" : "724.486999999499",
            "sslStart" : -1,
            "dnsStart" : -1,
            "receiveLast" : 540.486999999499,
            "s_time" : 352.84400000819,
            "sendEnd" : 25,
            "sendStart" : 25,
            "type" : "application/javascript"
         }
      },
      {
         "when_comp_start" : -1,
         "url" : "http://original.testbed.localhost/www.nwupukkiverblyf.co.za/css/bootstrap.css",
         "id" : "r5",
         "comps" : [
            {
               "s_time" : 921.875,
               "time" : 1.64800000493403,
               "type" : 4,
               "id" : "comp_7",
               "e_time" : 923.523000004934
            }
         ],
         "download" : {
            "receiveFirst" : 157,
            "len" : 132425,
            "dns" : 0,
            "dnsEnd" : -1,
            "receiveHeadersEnd" : 306,
            "sslEnd" : -1,
            "connectEnd" : 148,
            "connectStart" : 0,
            "id" : "download_3",
            "receivedTime" : "921.203000005335",
            "sslStart" : -1,
            "dnsStart" : -1,
            "receiveLast" : 615.203000005335,
            "s_time" : 363.037000002805,
            "sendEnd" : 149,
            "sendStart" : 148,
            "type" : "text/css"
         }
      },
      {
         "when_comp_start" : -1,
         "url" : "http://original.testbed.localhost/www.nwupukkiverblyf.co.za/css/bootstrap-responsive.css",
         "id" : "r6",
         "comps" : [
            {
               "s_time" : 918.639999988955,
               "time" : 0.182999996468084,
               "type" : 4,
               "id" : "comp_4",
               "e_time" : 918.822999985423
            }
         ],
         "download" : {
            "receiveFirst" : 236,
            "len" : 21709,
            "dns" : 0,
            "dnsEnd" : 15,
            "receiveHeadersEnd" : 424,
            "sslEnd" : -1,
            "connectEnd" : 187,
            "connectStart" : 0,
            "id" : "download_4",
            "receivedTime" : "918.120999995153",
            "sslStart" : -1,
            "dnsStart" : 15,
            "receiveLast" : 494.120999995153,
            "s_time" : 365.325999999186,
            "sendEnd" : 188,
            "sendStart" : 187,
            "type" : "text/css"
         }
      },
      {
         "when_comp_start" : -1,
         "url" : "http://original.testbed.localhost/www.nwupukkiverblyf.co.za/css/font-awesome.min.css",
         "id" : "r7",
         "comps" : [
            {
               "s_time" : 919.647000002442,
               "time" : 0.121999997645958,
               "type" : 4,
               "id" : "comp_5",
               "e_time" : 919.769000000088
            }
         ],
         "download" : {
            "receiveFirst" : 240,
            "len" : 15716,
            "dns" : 0,
            "dnsEnd" : 11,
            "receiveHeadersEnd" : 421,
            "sslEnd" : -1,
            "connectEnd" : 181,
            "connectStart" : 0,
            "id" : "download_5",
            "receivedTime" : "918.975999986287",
            "sslStart" : -1,
            "dnsStart" : 11,
            "receiveLast" : 497.975999986287,
            "s_time" : 373.047000000952,
            "sendEnd" : 181,
            "sendStart" : 181,
            "type" : "text/css"
         }
      },
      {
         "when_comp_start" : -1,
         "url" : "http://original.testbed.localhost/www.nwupukkiverblyf.co.za/css/colors.css",
         "id" : "r8",
         "comps" : [
            {
               "s_time" : 917.267000011634,
               "time" : 0.0609999988230356,
               "type" : 4,
               "id" : "comp_3",
               "e_time" : 917.328000010457
            }
         ],
         "download" : {
            "receiveFirst" : 246,
            "len" : 5265,
            "dns" : 0,
            "dnsEnd" : 10,
            "receiveHeadersEnd" : 423,
            "sslEnd" : -1,
            "connectEnd" : 177,
            "connectStart" : 0,
            "id" : "download_6",
            "receivedTime" : "916.900000011083",
            "sslStart" : -1,
            "dnsStart" : 10,
            "receiveLast" : 493.900000011083,
            "s_time" : 380.462000000989,
            "sendEnd" : 177,
            "sendStart" : 177,
            "type" : "text/css"
         }
      },
      {
         "when_comp_start" : -1,
         "url" : "http://original.testbed.localhost/www.nwupukkiverblyf.co.za/css/style.css",
         "id" : "r9",
         "comps" : [
            {
               "s_time" : 920.867999986513,
               "time" : 0.152000022352922,
               "type" : 4,
               "id" : "comp_6",
               "e_time" : 921.020000008866
            }
         ],
         "download" : {
            "receiveFirst" : 251,
            "len" : 18950,
            "dns" : 0,
            "dnsEnd" : 0,
            "receiveHeadersEnd" : 411,
            "sslEnd" : -1,
            "connectEnd" : 160,
            "connectStart" : 0,
            "id" : "download_7",
            "receivedTime" : "920.378999988316",
            "sslStart" : -1,
            "dnsStart" : 0,
            "receiveLast" : 509.378999988316,
            "s_time" : 383.574999985285,
            "sendEnd" : 160,
            "sendStart" : 160,
            "type" : "text/css"
         }
      },
      {
         "when_comp_start" : -1,
         "url" : "http://original.testbed.localhost/www.nwupukkiverblyf.co.za/js/jquery-ui-1.11.4.custom/jquery-ui.min.js",
         "id" : "r4",
         "comps" : [
            {
               "s_time" : 1276.73300000606,
               "time" : 359.98599999584,
               "type" : 1,
               "id" : "comp_8",
               "e_time" : 1636.7190000019
            }
         ],
         "download" : {
            "receiveFirst" : 197,
            "len" : 240427,
            "dns" : 0,
            "dnsEnd" : -1,
            "receiveHeadersEnd" : 560,
            "sslEnd" : -1,
            "connectEnd" : 363,
            "connectStart" : 0,
            "id" : "download_8",
            "receivedTime" : "1274.5050000085",
            "sslStart" : -1,
            "dnsStart" : -1,
            "receiveLast" : 714.505000008503,
            "s_time" : 360.290000011446,
            "sendEnd" : 363,
            "sendStart" : 363,
            "type" : "application/javascript"
         }
      },
      {
         "when_comp_start" : -1,
         "url" : "http://original.testbed.localhost/www.nwupukkiverblyf.co.za/js/bootstrap.min.js",
         "id" : "r15",
         "comps" : [
            {
               "s_time" : 1789.27599999588,
               "time" : 24.0780000167399,
               "type" : 1,
               "id" : "comp_12",
               "e_time" : 1813.35400001262
            }
         ],
         "download" : {
            "receiveFirst" : 155,
            "len" : 28663,
            "dns" : 0,
            "dnsEnd" : -1,
            "receiveHeadersEnd" : 582,
            "sslEnd" : -1,
            "connectEnd" : 426,
            "connectStart" : 0,
            "id" : "download_9",
            "receivedTime" : "1000.30499999411",
            "sslStart" : -1,
            "dnsStart" : -1,
            "receiveLast" : 418.304999994114,
            "s_time" : 403.595000010682,
            "sendEnd" : 427,
            "sendStart" : 426,
            "type" : "application/javascript"
         }
      },
      {
         "when_comp_start" : -1,
         "url" : "http://original.testbed.localhost/www.nwupukkiverblyf.co.za/js/custom.js",
         "id" : "r16",
         "comps" : [
            {
               "s_time" : 1814.57499999669,
               "time" : 0.671000016159951,
               "type" : 1,
               "id" : "comp_14",
               "e_time" : 1815.24600001285
            }
         ],
         "download" : {
            "receiveFirst" : 154,
            "len" : 202,
            "dns" : 0,
            "dnsEnd" : -1,
            "receiveHeadersEnd" : 596,
            "sslEnd" : -1,
            "connectEnd" : 441,
            "connectStart" : 0,
            "id" : "download_10",
            "receivedTime" : "1018.58500001254",
            "sslStart" : -1,
            "dnsStart" : -1,
            "receiveLast" : 422.585000012536,
            "s_time" : 404.236000002129,
            "sendEnd" : 442,
            "sendStart" : 441,
            "type" : "application/javascript"
         }
      },
      {
         "when_comp_start" : -1,
         "url" : "http://original.testbed.localhost/www.nwupukkiverblyf.co.za/images/pvlogo.png",
         "id" : "r10",
         "comps" : [],
         "download" : {
            "receiveFirst" : 156,
            "len" : 6687,
            "dns" : 0,
            "dnsEnd" : -1,
            "receiveHeadersEnd" : 607,
            "sslEnd" : -1,
            "connectEnd" : 451,
            "connectStart" : 0,
            "id" : "download_11",
            "receivedTime" : "1028.07599998778",
            "sslStart" : -1,
            "dnsStart" : -1,
            "receiveLast" : 421.075999987777,
            "s_time" : 401.749000011478,
            "sendEnd" : 451,
            "sendStart" : 451,
            "type" : "image/png"
         }
      },
      {
         "when_comp_start" : -1,
         "url" : "http://original.testbed.localhost/www.nwupukkiverblyf.co.za/images/nophoto_listing.png",
         "id" : "r11",
         "comps" : [],
         "download" : {
            "receiveFirst" : 155,
            "len" : 5092,
            "dns" : 0,
            "dnsEnd" : -1,
            "receiveHeadersEnd" : 164,
            "sslEnd" : -1,
            "connectEnd" : 8,
            "connectStart" : 0,
            "id" : "download_12",
            "receivedTime" : "1181.79299999611",
            "sslStart" : -1,
            "dnsStart" : -1,
            "receiveLast" : 1017.79299999611,
            "s_time" : 1012.48000000487,
            "sendEnd" : 9,
            "sendStart" : 8,
            "type" : "image/png"
         }
      },
      {
         "when_comp_start" : -1,
         "url" : "http://original.testbed.localhost/www.nwupukkiverblyf.co.za/images/listings/lst877t1412669791c38m.jpg",
         "id" : "r12",
         "comps" : [],
         "download" : {
            "receiveFirst" : 156,
            "len" : 23336,
            "dns" : 0,
            "dnsEnd" : -1,
            "receiveHeadersEnd" : 166,
            "sslEnd" : -1,
            "connectEnd" : 10,
            "connectStart" : 0,
            "id" : "download_13",
            "receivedTime" : "2098.78500000923",
            "sslStart" : -1,
            "dnsStart" : -1,
            "receiveLast" : 1932.78500000923,
            "s_time" : 1180.63300001086,
            "sendEnd" : 10,
            "sendStart" : 10,
            "type" : "image/jpeg"
         }
      },
      {
         "when_comp_start" : -1,
         "url" : "http://original.testbed.localhost/www.nwupukkiverblyf.co.za/images/listings/lst1006t1384782103c97m.jpg",
         "id" : "r13",
         "comps" : [],
         "download" : {
            "receiveFirst" : 162,
            "len" : 14577,
            "dns" : 0,
            "dnsEnd" : -1,
            "receiveHeadersEnd" : 177,
            "sslEnd" : -1,
            "connectEnd" : 15,
            "connectStart" : 0,
            "id" : "download_14",
            "receivedTime" : "1977.87500001141",
            "sslStart" : -1,
            "dnsStart" : -1,
            "receiveLast" : 1800.87500001141,
            "s_time" : 1274.55100000952,
            "sendEnd" : 15,
            "sendStart" : 15,
            "type" : "image/jpeg"
         }
      },
      {
         "when_comp_start" : -1,
         "url" : "http://original.testbed.localhost/placehold.it/370x210",
         "id" : "r14",
         "comps" : [],
         "download" : {
            "receiveFirst" : 448,
            "len" : 7084,
            "dns" : 0,
            "dnsEnd" : -1,
            "receiveHeadersEnd" : 466,
            "sslEnd" : -1,
            "connectEnd" : 18,
            "connectStart" : 0,
            "id" : "download_15",
            "receivedTime" : "2004.60799998837",
            "sslStart" : -1,
            "dnsStart" : -1,
            "receiveLast" : 1538.60799998837,
            "s_time" : 1276.45800000755,
            "sendEnd" : 18,
            "sendStart" : 18,
            "type" : "image/png"
         }
      },
      {
         "when_comp_start" : -1,
         "url" : "http://original.testbed.localhost/www.nwupukkiverblyf.co.za/images/potch.jpg",
         "id" : "r19",
         "comps" : [],
         "download" : {
            "receiveFirst" : 170,
            "len" : 162556,
            "dns" : 0,
            "dnsEnd" : -1,
            "receiveHeadersEnd" : 208,
            "sslEnd" : -1,
            "connectEnd" : 38,
            "connectStart" : 0,
            "id" : "download_16",
            "receivedTime" : "3168.33499999484",
            "sslStart" : -1,
            "dnsStart" : -1,
            "receiveLast" : 2960.33499999484,
            "s_time" : 1849.7320000024,
            "sendEnd" : 38,
            "sendStart" : 38,
            "type" : "image/jpeg"
         }
      },
      {
         "when_comp_start" : -1,
         "url" : "http://original.testbed.localhost/www.nwupukkiverblyf.co.za/images/more-icon.png",
         "id" : "r20",
         "comps" : [],
         "download" : {
            "receiveFirst" : 169,
            "len" : 56180,
            "dns" : 0,
            "dnsEnd" : -1,
            "receiveHeadersEnd" : 207,
            "sslEnd" : -1,
            "connectEnd" : 34,
            "connectStart" : 0,
            "id" : "download_17",
            "receivedTime" : "2632.35500000883",
            "sslStart" : -1,
            "dnsStart" : -1,
            "receiveLast" : 2425.35500000883,
            "s_time" : 1868.02600001101,
            "sendEnd" : 38,
            "sendStart" : 34,
            "type" : "image/png"
         }
      },
      {
         "when_comp_start" : -1,
         "url" : "http://original.testbed.localhost/www.nwupukkiverblyf.co.za/js/jquery-ui-1.11.4.custom/images/ui-bg_flat_75_ffffff_40x100.png",
         "id" : "r21",
         "comps" : [],
         "download" : {
            "receiveFirst" : 154,
            "len" : 208,
            "dns" : 0,
            "dnsEnd" : -1,
            "receiveHeadersEnd" : 212,
            "sslEnd" : -1,
            "connectEnd" : 58,
            "connectStart" : 0,
            "id" : "download_18",
            "receivedTime" : "2184.14299999131",
            "sslStart" : -1,
            "dnsStart" : -1,
            "receiveLast" : 1972.14299999131,
            "s_time" : 1966.75099999993,
            "sendEnd" : 58,
            "sendStart" : 58,
            "type" : "image/png"
         }
      },
      {
         "when_comp_start" : -1,
         "url" : "http://original.testbed.localhost/www.nwupukkiverblyf.co.za/font/fontawesome-webfont.woff%3Fv=3.0.1",
         "id" : "r17",
         "comps" : [],
         "download" : {
            "receiveFirst" : 169,
            "len" : 29380,
            "dns" : 0,
            "dnsEnd" : -1,
            "receiveHeadersEnd" : 232,
            "sslEnd" : -1,
            "connectEnd" : 62,
            "connectStart" : 0,
            "id" : "download_19",
            "receivedTime" : "2380.15700000688",
            "sslStart" : -1,
            "dnsStart" : -1,
            "receiveLast" : 2148.15700000688,
            "s_time" : 1977.78300000937,
            "sendEnd" : 63,
            "sendStart" : 62,
            "type" : "application/octet-stream"
         }
      }
   ],
   "deps" : [
      {
         "a2" : "r1_c2",
         "time" : -1,
         "id" : "dep1",
         "a1" : "comp_1"
      },
      {
         "a2" : "r1_c3",
         "time" : -1,
         "id" : "dep2",
         "a1" : "comp_8"
      },
      {
         "a2" : "r1_c4",
         "time" : -1,
         "id" : "dep3",
         "a1" : "comp_12"
      },
      {
         "a2" : "r1_c5",
         "time" : -1,
         "id" : "dep4",
         "a1" : "comp_14"
      },
      {
         "a2" : "comp_1",
         "time" : -1,
         "id" : "dep5",
         "a1" : "comp_0"
      },
      {
         "a2" : "comp_8",
         "time" : -1,
         "id" : "dep6",
         "a1" : "comp_1"
      },
      {
         "a2" : "comp_14",
         "time" : -1,
         "id" : "dep7",
         "a1" : "comp_12"
      },
      {
         "a2" : "download_19",
         "time" : -1,
         "id" : "dep8",
         "a1" : "r1_c5"
      },
      {
         "a2" : "download_18",
         "time" : 151.50499998708,
         "id" : "dep9",
         "a1" : "r1_c5"
      },
      {
         "a2" : "download_17",
         "time" : 52.7799999981601,
         "id" : "dep10",
         "a1" : "r1_c5"
      },
      {
         "a2" : "download_16",
         "time" : 34.48599998955,
         "id" : "dep11",
         "a1" : "r1_c5"
      },
      {
         "a2" : "download_15",
         "time" : -1,
         "id" : "dep12",
         "a1" : "r1_c2"
      },
      {
         "a2" : "download_14",
         "time" : 361.160000000378,
         "id" : "dep13",
         "a1" : "r1_c2"
      },
      {
         "a2" : "download_13",
         "time" : 267.242000001718,
         "id" : "dep14",
         "a1" : "r1_c2"
      },
      {
         "a2" : "download_12",
         "time" : 99.088999995728,
         "id" : "dep15",
         "a1" : "r1_c2"
      },
      {
         "a2" : "download_11",
         "time" : -1,
         "id" : "dep16",
         "a1" : "r1_c1"
      },
      {
         "a2" : "download_10",
         "time" : -1,
         "id" : "dep17",
         "a1" : "r1_c1"
      },
      {
         "a2" : "download_10",
         "time" : 85.663000005297,
         "id" : "dep18",
         "a1" : "r1_c1"
      },
      {
         "a2" : "download_9",
         "time" : 85.02200001385,
         "id" : "dep19",
         "a1" : "r1_c1"
      },
      {
         "a2" : "download_9",
         "time" : 85.02200001385,
         "id" : "dep20",
         "a1" : "r1_c1"
      },
      {
         "a2" : "download_8",
         "time" : 41.717000014614,
         "id" : "dep21",
         "a1" : "r1_c1"
      },
      {
         "a2" : "download_8",
         "time" : 41.717000014614,
         "id" : "dep22",
         "a1" : "r1_c1"
      },
      {
         "a2" : "download_7",
         "time" : 65.001999988453,
         "id" : "dep23",
         "a1" : "r1_c1"
      },
      {
         "a2" : "download_7",
         "time" : 65.001999988453,
         "id" : "dep24",
         "a1" : "r1_c1"
      },
      {
         "a2" : "download_6",
         "time" : 61.889000004157,
         "id" : "dep25",
         "a1" : "r1_c1"
      },
      {
         "a2" : "download_5",
         "time" : 54.47400000412,
         "id" : "dep26",
         "a1" : "r1_c1"
      },
      {
         "a2" : "download_4",
         "time" : 46.753000002354,
         "id" : "dep27",
         "a1" : "r1_c1"
      },
      {
         "a2" : "download_3",
         "time" : 44.464000005973,
         "id" : "dep28",
         "a1" : "r1_c1"
      },
      {
         "a2" : "download_3",
         "time" : 44.464000005973,
         "id" : "dep29",
         "a1" : "r1_c1"
      },
      {
         "a2" : "download_2",
         "time" : 34.271000011358,
         "id" : "dep30",
         "a1" : "r1_c1"
      },
      {
         "a2" : "download_1",
         "time" : 26.672000007238,
         "id" : "dep31",
         "a1" : "r1_c1"
      }
   ]
}
