{
   "n_download_no_trigger" : 1,
   "start_activity" : "download_0",
   "name" : "original.testbed.localhost_www.denverpost.com_",
   "load_activity" : -1,
   "objs" : [
      {
         "when_comp_start" : 1,
         "url" : "http://original.testbed.localhost/www.denverpost.com/",
         "id" : "r1",
         "comps" : [
            {
               "s_time" : 284.68400001293,
               "time" : 21.972999995342,
               "id" : "r1_c1",
               "type" : "evalhtml",
               "e_time" : 306.657000008272
            },
            {
               "s_time" : 1566.6060000076,
               "time" : -65635881.882,
               "id" : "r1_c2",
               "type" : "evalhtml",
               "e_time" : -65634315.276
            },
            {
               "s_time" : 1580.09400000446,
               "time" : -65635895.37,
               "id" : "r1_c3",
               "type" : "evalhtml",
               "e_time" : -65634315.276
            },
            {
               "s_time" : 1593.21700000146,
               "time" : -65635908.493,
               "id" : "r1_c4",
               "type" : "evalhtml",
               "e_time" : -65634315.276
            },
            {
               "s_time" : 1598.34400001273,
               "time" : -65635913.62,
               "id" : "r1_c5",
               "type" : "evalhtml",
               "e_time" : -65634315.276
            },
            {
               "s_time" : 1606.40100001183,
               "time" : 206.60399999178,
               "id" : "r1_c6",
               "type" : "evalhtml",
               "e_time" : 1813.00500000361
            },
            {
               "s_time" : 2057.93900000572,
               "time" : -65636373.215,
               "id" : "r1_c7",
               "type" : "evalhtml",
               "e_time" : -65634315.276
            },
            {
               "s_time" : 2061.63100000413,
               "time" : -65636376.907,
               "id" : "r1_c8",
               "type" : "evalhtml",
               "e_time" : -65634315.276
            },
            {
               "s_time" : 2118.76000001212,
               "time" : 11.10899999912,
               "id" : "r1_c9",
               "type" : "evalhtml",
               "e_time" : 2129.86900001124
            },
            {
               "s_time" : 2443.28400000813,
               "time" : -65636758.56,
               "id" : "r1_c10",
               "type" : "evalhtml",
               "e_time" : -65634315.276
            },
            {
               "s_time" : 2455.09400000446,
               "time" : -65636770.37,
               "id" : "r1_c11",
               "type" : "evalhtml",
               "e_time" : -65634315.276
            },
            {
               "s_time" : 2469.07200000715,
               "time" : 247.52799999259,
               "id" : "r1_c12",
               "type" : "evalhtml",
               "e_time" : 2716.59999999974
            },
            {
               "s_time" : 2995.43900000572,
               "time" : -65637310.715,
               "id" : "r1_c13",
               "type" : "evalhtml",
               "e_time" : -65634315.276
            },
            {
               "s_time" : 3018.20500000031,
               "time" : 83.7100000062501,
               "id" : "r1_c14",
               "type" : "evalhtml",
               "e_time" : 3101.91500000656
            },
            {
               "s_time" : 3181.16900000314,
               "time" : 180.54100000881,
               "id" : "r1_c15",
               "type" : "evalhtml",
               "e_time" : 3361.71000001195
            },
            {
               "s_time" : 3739.671000003,
               "time" : 609.55799999647,
               "id" : "r1_c16",
               "type" : "evalhtml",
               "e_time" : 4349.22899999947
            },
            {
               "s_time" : 4449.87600001332,
               "time" : 3259.67399998626,
               "type" : "evalhtml",
               "id" : "r1_c17",
               "e_time" : 7709.54999999958
            }
         ],
         "download" : {
            "receiveFirst" : 156,
            "len" : 123789,
            "dns" : 0,
            "dnsEnd" : -1,
            "receiveHeadersEnd" : 162,
            "sslEnd" : -1,
            "connectEnd" : 5,
            "connectStart" : 0,
            "id" : "download_0",
            "receivedTime" : "347.55099999893",
            "sslStart" : -1,
            "dnsStart" : -1,
            "receiveLast" : 185.55099999893,
            "s_time" : 0,
            "sendEnd" : 6,
            "sendStart" : 5,
            "type" : "text/html"
         }
      },
      {
         "when_comp_start" : -1,
         "url" : "http://original.testbed.localhost/extras.mnginteractive.com/live/css/site67/bartertown-section.css",
         "id" : "r4",
         "comps" : [
            {
               "s_time" : 506.761000011466,
               "time" : 0.151999993248978,
               "type" : 4,
               "id" : "comp_0",
               "e_time" : 506.913000004715
            }
         ],
         "download" : {
            "receiveFirst" : 155,
            "len" : 5985,
            "dns" : 0,
            "dnsEnd" : -1,
            "receiveHeadersEnd" : 207,
            "sslEnd" : -1,
            "connectEnd" : 52,
            "connectStart" : 0,
            "id" : "download_1",
            "receivedTime" : "505.174000005354",
            "sslStart" : -1,
            "dnsStart" : -1,
            "receiveLast" : 298.174000005354,
            "s_time" : 293.290000001434,
            "sendEnd" : 52,
            "sendStart" : 52,
            "type" : "text/css"
         }
      },
      {
         "when_comp_start" : -1,
         "url" : "http://original.testbed.localhost/extras.mnginteractive.com/live/css/site67/bartertown.css",
         "id" : "r2",
         "comps" : [
            {
               "s_time" : 933.243999999831,
               "time" : 152.098999998999,
               "type" : 4,
               "id" : "comp_1",
               "e_time" : 1085.34299999883
            }
         ],
         "download" : {
            "receiveFirst" : 315,
            "len" : 211469,
            "dns" : 0,
            "dnsEnd" : -1,
            "receiveHeadersEnd" : 325,
            "sslEnd" : -1,
            "connectEnd" : 10,
            "connectStart" : 0,
            "id" : "download_2",
            "receivedTime" : "931.993000005605",
            "sslStart" : -1,
            "dnsStart" : -1,
            "receiveLast" : 606.993000005605,
            "s_time" : 285.600000002887,
            "sendEnd" : 10,
            "sendStart" : 10,
            "type" : "text/css"
         }
      },
      {
         "when_comp_start" : -1,
         "url" : "http://original.testbed.localhost/extras.denverpost.com/media/js/dputils-min.js%3Fv=9",
         "id" : "r5",
         "comps" : [
            {
               "s_time" : 1575.70000000123,
               "time" : 4.39400000323008,
               "type" : 1,
               "id" : "comp_4",
               "e_time" : 1580.09400000446
            }
         ],
         "download" : {
            "receiveFirst" : 154,
            "len" : 5545,
            "dns" : 0,
            "dnsEnd" : 16,
            "receiveHeadersEnd" : 335,
            "sslEnd" : -1,
            "connectEnd" : 181,
            "connectStart" : 0,
            "id" : "download_3",
            "receivedTime" : "635.911000004853",
            "sslStart" : -1,
            "dnsStart" : 16,
            "receiveLast" : 300.911000004853,
            "s_time" : 293.778999999631,
            "sendEnd" : 181,
            "sendStart" : 181,
            "type" : "text/plain"
         }
      },
      {
         "when_comp_start" : -1,
         "url" : "http://original.testbed.localhost/extras.mnginteractive.com/live/js/metaRefresh.js",
         "id" : "r6",
         "comps" : [
            {
               "s_time" : 1616.95999999938,
               "time" : 3.84500001383003,
               "type" : 3,
               "id" : "comp_16",
               "e_time" : 1620.80500001321
            }
         ],
         "download" : {
            "receiveFirst" : 177,
            "len" : 1623,
            "dns" : 0,
            "dnsEnd" : 11,
            "receiveHeadersEnd" : 350,
            "sslEnd" : -1,
            "connectEnd" : 173,
            "connectStart" : 0,
            "id" : "download_4",
            "receivedTime" : "663.011000011466",
            "sslStart" : -1,
            "dnsStart" : 11,
            "receiveLast" : 313.011000011466,
            "s_time" : 302.873000007821,
            "sendEnd" : 173,
            "sendStart" : 173,
            "type" : "application/javascript"
         }
      },
      {
         "when_comp_start" : -1,
         "url" : "http://original.testbed.localhost/extras.mnginteractive.com/live/js/scriptwells/denverpost.js",
         "id" : "r7",
         "comps" : [
            {
               "s_time" : 1581.19300000544,
               "time" : 12.0239999960202,
               "type" : 1,
               "id" : "comp_6",
               "e_time" : 1593.21700000146
            }
         ],
         "download" : {
            "receiveFirst" : 177,
            "len" : 1128,
            "dns" : 0,
            "dnsEnd" : 24,
            "receiveHeadersEnd" : 352,
            "sslEnd" : -1,
            "connectEnd" : 175,
            "connectStart" : 0,
            "id" : "download_5",
            "receivedTime" : "669.29700000037",
            "sslStart" : -1,
            "dnsStart" : 24,
            "receiveLast" : 317.29700000037,
            "s_time" : 303.636000011466,
            "sendEnd" : 175,
            "sendStart" : 175,
            "type" : "application/javascript"
         }
      },
      {
         "when_comp_start" : -1,
         "url" : "http://original.testbed.localhost/extras.mnginteractive.com/live/js/JOL/denverpostPressPlus.js",
         "id" : "r8",
         "comps" : [
            {
               "s_time" : 1595.50600001239,
               "time" : 2.83800000034012,
               "type" : 1,
               "id" : "comp_8",
               "e_time" : 1598.34400001273
            }
         ],
         "download" : {
            "receiveFirst" : 171,
            "len" : 1551,
            "dns" : 0,
            "dnsEnd" : -1,
            "receiveHeadersEnd" : 372,
            "sslEnd" : -1,
            "connectEnd" : 201,
            "connectStart" : 0,
            "id" : "download_6",
            "receivedTime" : "683.030000000144",
            "sslStart" : -1,
            "dnsStart" : -1,
            "receiveLast" : 311.030000000144,
            "s_time" : 304.979000007734,
            "sendEnd" : 201,
            "sendStart" : 201,
            "type" : "application/javascript"
         }
      },
      {
         "when_comp_start" : -1,
         "url" : "http://original.testbed.localhost/launch.newsinc.com/js/embed.js",
         "id" : "r9",
         "comps" : [
            {
               "s_time" : 1621.08000001172,
               "time" : 174.98699999123,
               "type" : 3,
               "id" : "comp_18",
               "e_time" : 1796.06700000295
            }
         ],
         "download" : {
            "receiveFirst" : 163,
            "len" : 198292,
            "dns" : 0,
            "dnsEnd" : -1,
            "receiveHeadersEnd" : 493,
            "sslEnd" : -1,
            "connectEnd" : 330,
            "connectStart" : 0,
            "id" : "download_7",
            "receivedTime" : "1281.81600000244",
            "sslStart" : -1,
            "dnsStart" : -1,
            "receiveLast" : 788.816000002436,
            "s_time" : 305.528000011691,
            "sendEnd" : 330,
            "sendStart" : 330,
            "type" : "application/javascript"
         }
      },
      {
         "when_comp_start" : -1,
         "url" : "http://original.testbed.localhost/local.denverpost.com/assets/ga-site-datalayer.js",
         "id" : "r10",
         "comps" : [
            {
               "s_time" : 1601.09100000409,
               "time" : 5.3100000077402,
               "type" : 1,
               "id" : "comp_10",
               "e_time" : 1606.40100001183
            }
         ],
         "download" : {
            "receiveFirst" : 158,
            "len" : 2270,
            "dns" : 0,
            "dnsEnd" : -1,
            "receiveHeadersEnd" : 512,
            "sslEnd" : -1,
            "connectEnd" : 354,
            "connectStart" : 0,
            "id" : "download_8",
            "receivedTime" : "826.524000003701",
            "sslStart" : -1,
            "dnsStart" : -1,
            "receiveLast" : 314.524000003701,
            "s_time" : 306.016000002273,
            "sendEnd" : 354,
            "sendStart" : 354,
            "type" : "application/javascript"
         }
      },
      {
         "when_comp_start" : -1,
         "url" : "http://original.testbed.localhost/cdn.goroost.com/roostjs/4f5ae9e61c6b4b068705a1a2ff3821a4",
         "id" : "r11",
         "comps" : [
            {
               "s_time" : 2069.38300000911,
               "time" : 48.4920000017196,
               "type" : 3,
               "id" : "comp_25",
               "e_time" : 2117.87500001083
            }
         ],
         "download" : {
            "receiveFirst" : 165,
            "len" : 114301,
            "dns" : 0,
            "dnsEnd" : -1,
            "receiveHeadersEnd" : 525,
            "sslEnd" : -1,
            "connectEnd" : 359,
            "connectStart" : 0,
            "id" : "download_9",
            "receivedTime" : "1815.04900001164",
            "sslStart" : -1,
            "dnsStart" : -1,
            "receiveLast" : 1290.04900001164,
            "s_time" : 306.657000008272,
            "sendEnd" : 360,
            "sendStart" : 359,
            "type" : "text/plain"
         }
      },
      {
         "when_comp_start" : -1,
         "url" : "http://original.testbed.localhost/ajax.googleapis.com/ajax/libs/jquery/1/jquery.min.js",
         "id" : "r3",
         "comps" : [
            {
               "s_time" : 1358.07900001237,
               "time" : 208.52699999523,
               "type" : 1,
               "id" : "comp_2",
               "e_time" : 1566.6060000076
            }
         ],
         "download" : {
            "receiveFirst" : 601,
            "len" : 95786,
            "dns" : 0,
            "dnsEnd" : 12,
            "receiveHeadersEnd" : 764,
            "sslEnd" : -1,
            "connectEnd" : 163,
            "connectStart" : 0,
            "id" : "download_10",
            "receivedTime" : "1356.00400000112",
            "sslStart" : -1,
            "dnsStart" : 12,
            "receiveLast" : 592.004000001121,
            "s_time" : 287.614000000758,
            "sendEnd" : 163,
            "sendStart" : 163,
            "type" : "application/javascript"
         }
      },
      {
         "when_comp_start" : -1,
         "url" : "http://original.testbed.localhost/extras.mnginteractive.com/live/js/mngiads/AdsInclude.js",
         "id" : "r13",
         "comps" : [
            {
               "s_time" : 2057.20600001223,
               "time" : 0.732999993490012,
               "type" : 1,
               "id" : "comp_20",
               "e_time" : 2057.93900000572
            }
         ],
         "download" : {
            "receiveFirst" : 157,
            "len" : 142,
            "dns" : 0,
            "dnsEnd" : -1,
            "receiveHeadersEnd" : 180,
            "sslEnd" : -1,
            "connectEnd" : 22,
            "connectStart" : 0,
            "id" : "download_11",
            "receivedTime" : "2056.29100000078",
            "sslStart" : -1,
            "dnsStart" : -1,
            "receiveLast" : 1876.29100000078,
            "s_time" : 1805.19199999981,
            "sendEnd" : 23,
            "sendStart" : 22,
            "type" : "application/javascript"
         }
      },
      {
         "when_comp_start" : -1,
         "url" : "http://original.testbed.localhost/extras.mnginteractive.com/live/js/otherinc/pop-window.js",
         "id" : "r14",
         "comps" : [
            {
               "s_time" : 2060.62400000519,
               "time" : 1.00699999894005,
               "type" : 1,
               "id" : "comp_22",
               "e_time" : 2061.63100000413
            }
         ],
         "download" : {
            "receiveFirst" : 166,
            "len" : 1290,
            "dns" : 0,
            "dnsEnd" : -1,
            "receiveHeadersEnd" : 190,
            "sslEnd" : -1,
            "connectEnd" : 23,
            "connectStart" : 0,
            "id" : "download_12",
            "receivedTime" : "2059.80000000272",
            "sslStart" : -1,
            "dnsStart" : -1,
            "receiveLast" : 1869.80000000272,
            "s_time" : 1806.35199999961,
            "sendEnd" : 24,
            "sendStart" : 23,
            "type" : "application/javascript"
         }
      },
      {
         "when_comp_start" : -1,
         "url" : "http://original.testbed.localhost/local.dailynews.com/common/dfm/assets/js/dfm-core-level2.min.js",
         "id" : "r16",
         "comps" : [
            {
               "s_time" : 2444.59600000118,
               "time" : 10.4980000032801,
               "type" : 1,
               "id" : "comp_34",
               "e_time" : 2455.09400000446
            }
         ],
         "download" : {
            "receiveFirst" : 179,
            "len" : 3800,
            "dns" : 0,
            "dnsEnd" : -1,
            "receiveHeadersEnd" : 205,
            "sslEnd" : -1,
            "connectEnd" : 26,
            "connectStart" : 0,
            "id" : "download_13",
            "receivedTime" : "2067.70400000096",
            "sslStart" : -1,
            "dnsStart" : -1,
            "receiveLast" : 1862.70400000096,
            "s_time" : 1809.31200001214,
            "sendEnd" : 26,
            "sendStart" : 26,
            "type" : "application/javascript"
         }
      },
      {
         "when_comp_start" : -1,
         "url" : "http://original.testbed.localhost/local.medianewsgroup.com/common/dfm/ga-datalayer.js",
         "id" : "r17",
         "comps" : [
            {
               "s_time" : 2461.38100000098,
               "time" : 7.69100000617027,
               "type" : 1,
               "id" : "comp_38",
               "e_time" : 2469.07200000715
            }
         ],
         "download" : {
            "receiveFirst" : 183,
            "len" : 10621,
            "dns" : 0,
            "dnsEnd" : -1,
            "receiveHeadersEnd" : 209,
            "sslEnd" : -1,
            "connectEnd" : 26,
            "connectStart" : 0,
            "id" : "download_14",
            "receivedTime" : "2068.55900000664",
            "sslStart" : -1,
            "dnsStart" : -1,
            "receiveLast" : 1859.55900000664,
            "s_time" : 1811.90600000264,
            "sendEnd" : 26,
            "sendStart" : 26,
            "type" : "application/javascript"
         }
      },
      {
         "when_comp_start" : -1,
         "url" : "http://original.testbed.localhost/extras.mnginteractive.com/live/css/site36/redesign_default.css",
         "id" : "r18",
         "comps" : [
            {
               "s_time" : 2174.21100000502,
               "time" : 1.37300000641972,
               "type" : 4,
               "id" : "comp_30",
               "e_time" : 2175.58400001144
            }
         ],
         "download" : {
            "receiveFirst" : 185,
            "len" : 132082,
            "dns" : 0,
            "dnsEnd" : -1,
            "receiveHeadersEnd" : 212,
            "sslEnd" : -1,
            "connectEnd" : 27,
            "connectStart" : 0,
            "id" : "download_15",
            "receivedTime" : "2173.17300000286",
            "sslStart" : -1,
            "dnsStart" : -1,
            "receiveLast" : 1961.17300000286,
            "s_time" : 1813.00500000361,
            "sendEnd" : 27,
            "sendStart" : 27,
            "type" : "text/css"
         }
      },
      {
         "when_comp_start" : -1,
         "url" : "http://original.testbed.localhost/fonts.googleapis.com/css%3Ffamily=Merriweather:700%7COxygen:400,300,700.css",
         "id" : "r21",
         "comps" : [
            {
               "s_time" : 2315.14099999913,
               "time" : 0.0610000133697213,
               "type" : 4,
               "id" : "comp_31",
               "e_time" : 2315.2020000125
            }
         ],
         "download" : {
            "receiveFirst" : 165,
            "len" : 959,
            "dns" : 0,
            "dnsEnd" : -1,
            "receiveHeadersEnd" : 170,
            "sslEnd" : -1,
            "connectEnd" : 5,
            "connectStart" : 0,
            "id" : "download_16",
            "receivedTime" : "2311.14299999899",
            "sslStart" : -1,
            "dnsStart" : -1,
            "receiveLast" : 2141.14299999899,
            "s_time" : 2129.44100001187,
            "sendEnd" : 5,
            "sendStart" : 5,
            "type" : "text/css"
         }
      },
      {
         "when_comp_start" : -1,
         "url" : "http://original.testbed.localhost/extras.mnginteractive.com/live/js/weather/custom_weather_access.js",
         "id" : "r22",
         "comps" : [
            {
               "s_time" : 2710.2520000044,
               "time" : 0.977000003329977,
               "type" : 3,
               "id" : "comp_50",
               "e_time" : 2711.22900000773
            }
         ],
         "download" : {
            "receiveFirst" : 167,
            "len" : 2652,
            "dns" : 0,
            "dnsEnd" : -1,
            "receiveHeadersEnd" : 173,
            "sslEnd" : -1,
            "connectEnd" : 6,
            "connectStart" : 0,
            "id" : "download_17",
            "receivedTime" : "2315.69000000309",
            "sslStart" : -1,
            "dnsStart" : -1,
            "receiveLast" : 2142.69000000309,
            "s_time" : 2129.86900001124,
            "sendEnd" : 6,
            "sendStart" : 6,
            "type" : "application/javascript"
         }
      },
      {
         "when_comp_start" : -1,
         "url" : "http://original.testbed.localhost/local.dailynews.com/common/dfm/assets/js/dfm-core-level1.min.js",
         "id" : "r15",
         "comps" : [
            {
               "s_time" : 2434.28100000892,
               "time" : 9.00299999921026,
               "type" : 1,
               "id" : "comp_32",
               "e_time" : 2443.28400000813
            }
         ],
         "download" : {
            "receiveFirst" : 563,
            "len" : 1572,
            "dns" : 0,
            "dnsEnd" : -1,
            "receiveHeadersEnd" : 588,
            "sslEnd" : -1,
            "connectEnd" : 25,
            "connectStart" : 0,
            "id" : "download_18",
            "receivedTime" : "2430.13100000098",
            "sslStart" : -1,
            "dnsStart" : -1,
            "receiveLast" : 1842.13100000098,
            "s_time" : 1808.09099999897,
            "sendEnd" : 25,
            "sendStart" : 25,
            "type" : "application/javascript"
         }
      },
      {
         "when_comp_start" : -1,
         "url" : "http://original.testbed.localhost/local.digitalfirstmedia.com/common/dfm/assets/js/accuweather/accuweather_access.js",
         "id" : "r28",
         "comps" : [
            {
               "s_time" : 2888.78000000841,
               "time" : 22.2780000040102,
               "type" : 3,
               "id" : "comp_52",
               "e_time" : 2911.05800001242
            }
         ],
         "download" : {
            "receiveFirst" : 154,
            "len" : 15988,
            "dns" : 0,
            "dnsEnd" : -1,
            "receiveHeadersEnd" : 186,
            "sslEnd" : -1,
            "connectEnd" : 32,
            "connectStart" : 0,
            "id" : "download_19",
            "receivedTime" : "2884.69000000623",
            "sslStart" : -1,
            "dnsStart" : -1,
            "receiveLast" : 2698.69000000623,
            "s_time" : 2692.91800000065,
            "sendEnd" : 32,
            "sendStart" : 32,
            "type" : "application/javascript"
         }
      },
      {
         "when_comp_start" : -1,
         "url" : "http://original.testbed.localhost/local.digitalfirstmedia.com/common/dfm/dfm-nav/vendorSpecific/accuweather.js",
         "id" : "r29",
         "comps" : [
            {
               "s_time" : 2960.49599999969,
               "time" : 6.07300001138992,
               "type" : 3,
               "id" : "comp_54",
               "e_time" : 2966.56900001108
            }
         ],
         "download" : {
            "receiveFirst" : 185,
            "len" : 16120,
            "dns" : 0,
            "dnsEnd" : -1,
            "receiveHeadersEnd" : 222,
            "sslEnd" : -1,
            "connectEnd" : 36,
            "connectStart" : 0,
            "id" : "download_20",
            "receivedTime" : "2958.87900001253",
            "sslStart" : -1,
            "dnsStart" : -1,
            "receiveLast" : 2736.87900001253,
            "s_time" : 2698.71599999897,
            "sendEnd" : 37,
            "sendStart" : 36,
            "type" : "application/javascript"
         }
      },
      {
         "when_comp_start" : -1,
         "url" : "http://original.testbed.localhost/local.medianewsgroup.com/common/dfm/header.js",
         "id" : "r30",
         "comps" : [
            {
               "s_time" : 2969.52900000906,
               "time" : 25.9099999966602,
               "type" : 1,
               "id" : "comp_56",
               "e_time" : 2995.43900000572
            }
         ],
         "download" : {
            "receiveFirst" : 196,
            "len" : 9653,
            "dns" : 0,
            "dnsEnd" : -1,
            "receiveHeadersEnd" : 238,
            "sslEnd" : -1,
            "connectEnd" : 42,
            "connectStart" : 0,
            "id" : "download_21",
            "receivedTime" : "2968.24800000468",
            "sslStart" : -1,
            "dnsStart" : -1,
            "receiveLast" : 2730.24800000468,
            "s_time" : 2700.45600000594,
            "sendEnd" : 42,
            "sendStart" : 42,
            "type" : "application/javascript"
         }
      },
      {
         "when_comp_start" : -1,
         "url" : "http://original.testbed.localhost/local.denverpost.com/common/dfm/dfm-nav/dfm-nav-core.js",
         "id" : "r31",
         "comps" : [
            {
               "s_time" : 3004.89900000684,
               "time" : 13.3059999934699,
               "type" : 1,
               "id" : "comp_59",
               "e_time" : 3018.20500000031
            }
         ],
         "download" : {
            "receiveFirst" : 198,
            "len" : 22242,
            "dns" : 0,
            "dnsEnd" : -1,
            "receiveHeadersEnd" : 240,
            "sslEnd" : -1,
            "connectEnd" : 41,
            "connectStart" : 0,
            "id" : "download_22",
            "receivedTime" : "3004.22800000524",
            "sslStart" : -1,
            "dnsStart" : -1,
            "receiveLast" : 2764.22800000524,
            "s_time" : 2701.49300000048,
            "sendEnd" : 42,
            "sendStart" : 41,
            "type" : "application/javascript"
         }
      },
      {
         "when_comp_start" : -1,
         "url" : "http://original.testbed.localhost/extras.mnginteractive.com/live/media/site36/2014/1204/20141204_021345_dptv-18px.gif",
         "id" : "r32",
         "comps" : [],
         "download" : {
            "receiveFirst" : 207,
            "len" : 2703,
            "dns" : 0,
            "dnsEnd" : -1,
            "receiveHeadersEnd" : 254,
            "sslEnd" : -1,
            "connectEnd" : 47,
            "connectStart" : 0,
            "id" : "download_23",
            "receivedTime" : "3092.45400001237",
            "sslStart" : -1,
            "dnsStart" : -1,
            "receiveLast" : 2838.45400001237,
            "s_time" : 2707.49000000069,
            "sendEnd" : 47,
            "sendStart" : 47,
            "type" : "image/gif"
         }
      },
      {
         "when_comp_start" : -1,
         "url" : "http://original.testbed.localhost/extras.denverpost.com/cache/bt-cannabist-doubleleft.js",
         "id" : "r33",
         "comps" : [
            {
               "s_time" : 3178.29999999958,
               "time" : 2.8690000035599,
               "type" : 1,
               "id" : "comp_69",
               "e_time" : 3181.16900000314
            }
         ],
         "download" : {
            "receiveFirst" : 210,
            "len" : 848,
            "dns" : 0,
            "dnsEnd" : -1,
            "receiveHeadersEnd" : 260,
            "sslEnd" : -1,
            "connectEnd" : 50,
            "connectStart" : 0,
            "id" : "download_24",
            "receivedTime" : "3091.66100001312",
            "sslStart" : -1,
            "dnsStart" : -1,
            "receiveLast" : 2831.66100001312,
            "s_time" : 2705.06400000886,
            "sendEnd" : 50,
            "sendStart" : 50,
            "type" : "application/javascript"
         }
      },
      {
         "when_comp_start" : -1,
         "url" : "http://original.testbed.localhost/extras.mnginteractive.com/live/partners/MediaCenter/widget_large/mc_widget_large_min.css",
         "id" : "r36",
         "comps" : [
            {
               "s_time" : 3197.40400000592,
               "time" : 9.09399999363995,
               "type" : 4,
               "id" : "comp_73",
               "e_time" : 3206.49799999956
            }
         ],
         "download" : {
            "receiveFirst" : 162,
            "len" : 8469,
            "dns" : 0,
            "dnsEnd" : -1,
            "receiveHeadersEnd" : 324,
            "sslEnd" : -1,
            "connectEnd" : 162,
            "connectStart" : 0,
            "id" : "download_25",
            "receivedTime" : "3197.03800001298",
            "sslStart" : -1,
            "dnsStart" : -1,
            "receiveLast" : 2873.03800001298,
            "s_time" : 2715.86700000626,
            "sendEnd" : 162,
            "sendStart" : 162,
            "type" : "text/css"
         }
      },
      {
         "when_comp_start" : -1,
         "url" : "http://original.testbed.localhost/extras.mnginteractive.com/live/partners/MediaCenter/widget_large/mc_widget_large.js",
         "id" : "r37",
         "comps" : [
            {
               "s_time" : 3316.69700000202,
               "time" : 9.98000000254979,
               "type" : 3,
               "id" : "comp_79",
               "e_time" : 3326.67700000457
            }
         ],
         "download" : {
            "receiveFirst" : 153,
            "len" : 8122,
            "dns" : 0,
            "dnsEnd" : -1,
            "receiveHeadersEnd" : 390,
            "sslEnd" : -1,
            "connectEnd" : 237,
            "connectStart" : 0,
            "id" : "download_26",
            "receivedTime" : "3270.00500001304",
            "sslStart" : -1,
            "dnsStart" : -1,
            "receiveLast" : 2880.00500001304,
            "s_time" : 2716.59999999974,
            "sendEnd" : 237,
            "sendStart" : 237,
            "type" : "application/javascript"
         }
      },
      {
         "when_comp_start" : -1,
         "url" : "http://original.testbed.localhost/extras.mnginteractive.com/live/media/site36/2015/0902/20150902__Harold_Henthorn~p1.jpg",
         "id" : "r34",
         "comps" : [],
         "download" : {
            "receiveFirst" : 153,
            "len" : 35966,
            "dns" : 0,
            "dnsEnd" : -1,
            "receiveHeadersEnd" : 405,
            "sslEnd" : -1,
            "connectEnd" : 252,
            "connectStart" : 0,
            "id" : "download_27",
            "receivedTime" : "3549.5770000125",
            "sslStart" : -1,
            "dnsStart" : -1,
            "receiveLast" : 3144.5770000125,
            "s_time" : 2715.36400000332,
            "sendEnd" : 252,
            "sendStart" : 252,
            "type" : "image/jpeg"
         }
      },
      {
         "when_comp_start" : -1,
         "url" : "http://original.testbed.localhost/extras.mnginteractive.com/live/media/site36/2008/0531/20080531_095504_singlepixel.gif",
         "id" : "r35",
         "comps" : [],
         "download" : {
            "receiveFirst" : 164,
            "len" : 43,
            "dns" : 0,
            "dnsEnd" : -1,
            "receiveHeadersEnd" : 423,
            "sslEnd" : -1,
            "connectEnd" : 258,
            "connectStart" : 0,
            "id" : "download_28",
            "receivedTime" : "3276.26100000634",
            "sslStart" : -1,
            "dnsStart" : -1,
            "receiveLast" : 2853.26100000634,
            "s_time" : 2716.4929999999,
            "sendEnd" : 259,
            "sendStart" : 258,
            "type" : "image/gif"
         }
      },
      {
         "when_comp_start" : -1,
         "url" : "http://original.testbed.localhost/extras.denverpost.com/media/js/jquery/jcarousellite_1.0.1.min.js",
         "id" : "r41",
         "comps" : [
            {
               "s_time" : 3361.49700000533,
               "time" : 6.22599999769,
               "type" : 3,
               "id" : "comp_84",
               "e_time" : 3367.72300000302
            }
         ],
         "download" : {
            "receiveFirst" : 169,
            "len" : 2383,
            "dns" : 0,
            "dnsEnd" : -1,
            "receiveHeadersEnd" : 179,
            "sslEnd" : -1,
            "connectEnd" : 10,
            "connectStart" : 0,
            "id" : "download_29",
            "receivedTime" : "3342.60700001323",
            "sslStart" : -1,
            "dnsStart" : -1,
            "receiveLast" : 3163.60700001323,
            "s_time" : 3094.65100000671,
            "sendEnd" : 10,
            "sendStart" : 10,
            "type" : "application/javascript"
         }
      },
      {
         "when_comp_start" : -1,
         "url" : "http://original.testbed.localhost/extras.denverpost.com/cache/bt-blog-all-rotator-1.js",
         "id" : "r42",
         "comps" : [
            {
               "s_time" : 3367.96700001287,
               "time" : 9.82599999406011,
               "type" : 3,
               "id" : "comp_86",
               "e_time" : 3377.79300000693
            }
         ],
         "download" : {
            "receiveFirst" : 173,
            "len" : 2240,
            "dns" : 0,
            "dnsEnd" : -1,
            "receiveHeadersEnd" : 180,
            "sslEnd" : -1,
            "connectEnd" : 7,
            "connectStart" : 0,
            "id" : "download_30",
            "receivedTime" : "3359.0860000113",
            "sslStart" : -1,
            "dnsStart" : -1,
            "receiveLast" : 3179.0860000113,
            "s_time" : 3101.91500000656,
            "sendEnd" : 7,
            "sendStart" : 7,
            "type" : "application/javascript"
         }
      },
      {
         "when_comp_start" : -1,
         "url" : "http://original.testbed.localhost/extras.denverpost.com/cache/bt-blog-all-rotator-2.js",
         "id" : "r43",
         "comps" : [
            {
               "s_time" : 3478.99000000325,
               "time" : 17.6690000080303,
               "type" : 3,
               "id" : "comp_90",
               "e_time" : 3496.65900001128
            }
         ],
         "download" : {
            "receiveFirst" : 157,
            "len" : 2228,
            "dns" : 0,
            "dnsEnd" : -1,
            "receiveHeadersEnd" : 201,
            "sslEnd" : -1,
            "connectEnd" : 44,
            "connectStart" : 0,
            "id" : "download_31",
            "receivedTime" : "3472.18400001293",
            "sslStart" : -1,
            "dnsStart" : -1,
            "receiveLast" : 3271.18400001293,
            "s_time" : 3208.32900000096,
            "sendEnd" : 44,
            "sendStart" : 44,
            "type" : "application/javascript"
         }
      },
      {
         "when_comp_start" : -1,
         "url" : "http://original.testbed.localhost/extras.mnginteractive.com/live/media/site36/2009/0209/20090209_043744_li_link.gif",
         "id" : "r44",
         "comps" : [],
         "download" : {
            "receiveFirst" : 165,
            "len" : 127,
            "dns" : 0,
            "dnsEnd" : -1,
            "receiveHeadersEnd" : 205,
            "sslEnd" : -1,
            "connectEnd" : 39,
            "connectStart" : 0,
            "id" : "download_32",
            "receivedTime" : "3546.73900001217",
            "sslStart" : -1,
            "dnsStart" : -1,
            "receiveLast" : 3341.73900001217,
            "s_time" : 3222.3520000116,
            "sendEnd" : 40,
            "sendStart" : 39,
            "type" : "image/gif"
         }
      },
      {
         "when_comp_start" : -1,
         "url" : "http://original.testbed.localhost/extras.denverpost.com/cache/bt-blog-all-rotator-3.js",
         "id" : "r45",
         "comps" : [
            {
               "s_time" : 3565.59900000866,
               "time" : 26.0009999910799,
               "type" : 3,
               "id" : "comp_95",
               "e_time" : 3591.59999999974
            }
         ],
         "download" : {
            "receiveFirst" : 165,
            "len" : 2325,
            "dns" : 0,
            "dnsEnd" : -1,
            "receiveHeadersEnd" : 179,
            "sslEnd" : -1,
            "connectEnd" : 14,
            "connectStart" : 0,
            "id" : "download_33",
            "receivedTime" : "3550.82800000673",
            "sslStart" : -1,
            "dnsStart" : -1,
            "receiveLast" : 3371.82800000673,
            "s_time" : 3280.9610000113,
            "sendEnd" : 14,
            "sendStart" : 14,
            "type" : "application/javascript"
         }
      },
      {
         "when_comp_start" : -1,
         "url" : "http://original.testbed.localhost/extras.denverpost.com/cache/bt-blog-all-rotator-4.js",
         "id" : "r46",
         "comps" : [
            {
               "s_time" : 3591.87400000519,
               "time" : 25.78799999901,
               "type" : 3,
               "id" : "comp_97",
               "e_time" : 3617.6620000042
            }
         ],
         "download" : {
            "receiveFirst" : 171,
            "len" : 2209,
            "dns" : 0,
            "dnsEnd" : -1,
            "receiveHeadersEnd" : 184,
            "sslEnd" : -1,
            "connectEnd" : 12,
            "connectStart" : 0,
            "id" : "download_34",
            "receivedTime" : "3553.17800000194",
            "sslStart" : -1,
            "dnsStart" : -1,
            "receiveLast" : 3369.17800000194,
            "s_time" : 3289.59800000302,
            "sendEnd" : 13,
            "sendStart" : 12,
            "type" : "application/javascript"
         }
      },
      {
         "when_comp_start" : -1,
         "url" : "http://original.testbed.localhost/extras.denverpost.com/media/js/jquery/jquery.simplemodal.1.4.4.min.js",
         "id" : "r47",
         "comps" : [
            {
               "s_time" : 3617.96700001287,
               "time" : 8.39199998881031,
               "type" : 3,
               "id" : "comp_99",
               "e_time" : 3626.35900000168
            }
         ],
         "download" : {
            "receiveFirst" : 177,
            "len" : 9776,
            "dns" : 0,
            "dnsEnd" : -1,
            "receiveHeadersEnd" : 187,
            "sslEnd" : -1,
            "connectEnd" : 10,
            "connectStart" : 0,
            "id" : "download_35",
            "receivedTime" : "3555.46700001287",
            "sslStart" : -1,
            "dnsStart" : -1,
            "receiveLast" : 3368.46700001287,
            "s_time" : 3298.44800000137,
            "sendEnd" : 10,
            "sendStart" : 10,
            "type" : "application/javascript"
         }
      },
      {
         "when_comp_start" : -1,
         "url" : "http://original.testbed.localhost/extras.denverpost.com/cache/skybox_dptv.js",
         "id" : "r48",
         "comps" : [
            {
               "s_time" : 3705.06400000886,
               "time" : 34.6069999941396,
               "type" : 1,
               "id" : "comp_102",
               "e_time" : 3739.671000003
            }
         ],
         "download" : {
            "receiveFirst" : 196,
            "len" : 1206,
            "dns" : 0,
            "dnsEnd" : -1,
            "receiveHeadersEnd" : 301,
            "sslEnd" : -1,
            "connectEnd" : 104,
            "connectStart" : 0,
            "id" : "download_36",
            "receivedTime" : "3704.17900000757",
            "sslStart" : -1,
            "dnsStart" : -1,
            "receiveLast" : 3403.17900000757,
            "s_time" : 3311.26500001119,
            "sendEnd" : 105,
            "sendStart" : 104,
            "type" : "application/javascript"
         }
      },
      {
         "when_comp_start" : -1,
         "url" : "http://original.testbed.localhost/extras.mnginteractive.com/live/media/site36/2015/0914/20150914__skimmeraaa~p1_200.jpg",
         "id" : "r49",
         "comps" : [],
         "download" : {
            "receiveFirst" : 226,
            "len" : 23249,
            "dns" : 0,
            "dnsEnd" : -1,
            "receiveHeadersEnd" : 352,
            "sslEnd" : -1,
            "connectEnd" : 126,
            "connectStart" : 0,
            "id" : "download_37",
            "receivedTime" : "4077.49999999942",
            "sslStart" : -1,
            "dnsStart" : -1,
            "receiveLast" : 3725.49999999942,
            "s_time" : 3313.15700001142,
            "sendEnd" : 126,
            "sendStart" : 126,
            "type" : "image/jpeg"
         }
      },
      {
         "when_comp_start" : -1,
         "url" : "http://original.testbed.localhost/extras.mnginteractive.com/live/media/site36/2015/0914/20150914_051944_peyton-manning_200.jpg",
         "id" : "r50",
         "comps" : [],
         "download" : {
            "receiveFirst" : 221,
            "len" : 10579,
            "dns" : 0,
            "dnsEnd" : -1,
            "receiveHeadersEnd" : 362,
            "sslEnd" : -1,
            "connectEnd" : 140,
            "connectStart" : 0,
            "id" : "download_38",
            "receivedTime" : "3838.70000000752",
            "sslStart" : -1,
            "dnsStart" : -1,
            "receiveLast" : 3476.70000000752,
            "s_time" : 3313.99600001168,
            "sendEnd" : 141,
            "sendStart" : 140,
            "type" : "image/jpeg"
         }
      },
      {
         "when_comp_start" : -1,
         "url" : "http://original.testbed.localhost/extras.mnginteractive.com/live/media/site36/2015/0911/20150911__20150912_A1_CDXXEATON~p1_300.jpg",
         "id" : "r51",
         "comps" : [],
         "download" : {
            "receiveFirst" : 211,
            "len" : 40269,
            "dns" : 0,
            "dnsEnd" : -1,
            "receiveHeadersEnd" : 371,
            "sslEnd" : -1,
            "connectEnd" : 159,
            "connectStart" : 0,
            "id" : "download_39",
            "receivedTime" : "4113.96900001273",
            "sslStart" : -1,
            "dnsStart" : -1,
            "receiveLast" : 3742.96900001273,
            "s_time" : 3315.4460000078,
            "sendEnd" : 160,
            "sendStart" : 159,
            "type" : "image/jpeg"
         }
      },
      {
         "when_comp_start" : -1,
         "url" : "http://original.testbed.localhost/extras.mnginteractive.com/live/media/site36/2015/0720/20150720_053559_pot_300.jpg",
         "id" : "r52",
         "comps" : [],
         "download" : {
            "receiveFirst" : 242,
            "len" : 9106,
            "dns" : 0,
            "dnsEnd" : -1,
            "receiveHeadersEnd" : 411,
            "sslEnd" : -1,
            "connectEnd" : 168,
            "connectStart" : 0,
            "id" : "download_40",
            "receivedTime" : "3886.6740000085",
            "sslStart" : -1,
            "dnsStart" : -1,
            "receiveLast" : 3475.6740000085,
            "s_time" : 3316.54500000877,
            "sendEnd" : 169,
            "sendStart" : 168,
            "type" : "image/jpeg"
         }
      },
      {
         "when_comp_start" : -1,
         "url" : "http://original.testbed.localhost/extras.mnginteractive.com/live/media/site36/2015/0914/20150914__20150915_A1_A1-cd15treesp~p1_300.jpg",
         "id" : "r54",
         "comps" : [],
         "download" : {
            "receiveFirst" : 255,
            "len" : 59233,
            "dns" : 0,
            "dnsEnd" : -1,
            "receiveHeadersEnd" : 412,
            "sslEnd" : -1,
            "connectEnd" : 157,
            "connectStart" : 0,
            "id" : "download_41",
            "receivedTime" : "4427.35399999947",
            "sslStart" : -1,
            "dnsStart" : -1,
            "receiveLast" : 4015.35399999947,
            "s_time" : 3340.27200000128,
            "sendEnd" : 157,
            "sendStart" : 157,
            "type" : "image/jpeg"
         }
      },
      {
         "when_comp_start" : -1,
         "url" : "http://original.testbed.localhost/extras.mnginteractive.com/live/media/site36/2015/0914/20150914__russianOlive~p1_300.jpg",
         "id" : "r55",
         "comps" : [],
         "download" : {
            "receiveFirst" : 161,
            "len" : 47637,
            "dns" : 0,
            "dnsEnd" : -1,
            "receiveHeadersEnd" : 448,
            "sslEnd" : -1,
            "connectEnd" : 287,
            "connectStart" : 0,
            "id" : "download_42",
            "receivedTime" : "4355.54600000614",
            "sslStart" : -1,
            "dnsStart" : -1,
            "receiveLast" : 3907.54600000614,
            "s_time" : 3358.99400000926,
            "sendEnd" : 287,
            "sendStart" : 287,
            "type" : "image/jpeg"
         }
      },
      {
         "when_comp_start" : -1,
         "url" : "http://original.testbed.localhost/extras.mnginteractive.com/live/media/site36/2015/0915/20150915__chocolate_peyton_manning_face~p1_300.jpg",
         "id" : "r56",
         "comps" : [],
         "download" : {
            "receiveFirst" : 154,
            "len" : 17537,
            "dns" : 0,
            "dnsEnd" : -1,
            "receiveHeadersEnd" : 527,
            "sslEnd" : -1,
            "connectEnd" : 373,
            "connectStart" : 0,
            "id" : "download_43",
            "receivedTime" : "4140.97700000275",
            "sslStart" : -1,
            "dnsStart" : -1,
            "receiveLast" : 3613.97700000275,
            "s_time" : 3361.71000001195,
            "sendEnd" : 373,
            "sendStart" : 373,
            "type" : "image/jpeg"
         }
      },
      {
         "when_comp_start" : -1,
         "url" : "http://original.testbed.localhost/extras.mnginteractive.com/live/media/site36/2015/0915/20150915_114816_20120315__20120318_E2_AE18TVOSTROW-p1_300.jpg",
         "id" : "r78",
         "comps" : [],
         "download" : {
            "receiveFirst" : 154,
            "len" : 11787,
            "dns" : 0,
            "dnsEnd" : -1,
            "receiveHeadersEnd" : 158,
            "sslEnd" : -1,
            "connectEnd" : 4,
            "connectStart" : 0,
            "id" : "download_44",
            "receivedTime" : "4251.90800000564",
            "sslStart" : -1,
            "dnsStart" : -1,
            "receiveLast" : 4093.90800000564,
            "s_time" : 3841.6150000121,
            "sendEnd" : 4,
            "sendStart" : 4,
            "type" : "image/jpeg"
         }
      },
      {
         "when_comp_start" : -1,
         "url" : "http://original.testbed.localhost/extras.mnginteractive.com/live/media/site36/2015/0914/20150914__20150915_Z00_OP15E_COLLEGE~p1_300.jpg",
         "id" : "r79",
         "comps" : [],
         "download" : {
            "receiveFirst" : 164,
            "len" : 42529,
            "dns" : 0,
            "dnsEnd" : -1,
            "receiveHeadersEnd" : 245,
            "sslEnd" : -1,
            "connectEnd" : 81,
            "connectStart" : 0,
            "id" : "download_45",
            "receivedTime" : "4743.94300000858",
            "sslStart" : -1,
            "dnsStart" : -1,
            "receiveLast" : 4498.94300000858,
            "s_time" : 3848.81700000551,
            "sendEnd" : 81,
            "sendStart" : 81,
            "type" : "image/jpeg"
         }
      },
      {
         "when_comp_start" : -1,
         "url" : "http://original.testbed.localhost/extras.mnginteractive.com/live/media/site36/2015/0807/20150807__p_e35058ac-83f4-4f64-9798-1835f09f762d~l~soriginal~ph_300.jpg",
         "id" : "r80",
         "comps" : [],
         "download" : {
            "receiveFirst" : 164,
            "len" : 17817,
            "dns" : 0,
            "dnsEnd" : -1,
            "receiveHeadersEnd" : 290,
            "sslEnd" : -1,
            "connectEnd" : 126,
            "connectStart" : 0,
            "id" : "download_46",
            "receivedTime" : "4251.05400000757",
            "sslStart" : -1,
            "dnsStart" : -1,
            "receiveLast" : 3961.05400000757,
            "s_time" : 3854.76700001163,
            "sendEnd" : 126,
            "sendStart" : 126,
            "type" : "image/jpeg"
         }
      },
      {
         "when_comp_start" : -1,
         "url" : "http://original.testbed.localhost/extras.mnginteractive.com/live/media/site36/2015/0915/20150915_115554_andy-reid_300.jpg",
         "id" : "r81",
         "comps" : [],
         "download" : {
            "receiveFirst" : 154,
            "len" : 13891,
            "dns" : 0,
            "dnsEnd" : -1,
            "receiveHeadersEnd" : 333,
            "sslEnd" : -1,
            "connectEnd" : 179,
            "connectStart" : 0,
            "id" : "download_47",
            "receivedTime" : "4353.01299999992",
            "sslStart" : -1,
            "dnsStart" : -1,
            "receiveLast" : 4020.01299999992,
            "s_time" : 3867.44800000452,
            "sendEnd" : 179,
            "sendStart" : 179,
            "type" : "image/jpeg"
         }
      },
      {
         "when_comp_start" : -1,
         "url" : "http://original.testbed.localhost/pagead2.googlesyndication.com/pagead/show_ads.js",
         "id" : "r92",
         "comps" : [],
         "download" : {
            "receiveFirst" : 155,
            "len" : 27555,
            "dns" : 0,
            "dnsEnd" : -1,
            "receiveHeadersEnd" : 183,
            "sslEnd" : -1,
            "connectEnd" : 27,
            "connectStart" : 0,
            "id" : "download_48",
            "receivedTime" : "4358.04900000221",
            "sslStart" : -1,
            "dnsStart" : -1,
            "receiveLast" : 4175.04900000221,
            "s_time" : 4135.20900000003,
            "sendEnd" : 28,
            "sendStart" : 27,
            "type" : "application/javascript"
         }
      },
      {
         "when_comp_start" : -1,
         "url" : "http://original.testbed.localhost/extras.mnginteractive.com/live/js/sharedCode/vendorWidgets.js",
         "id" : "r93",
         "comps" : [
            {
               "s_time" : 7230.76000000583,
               "time" : 6.25599999330007,
               "type" : 3,
               "id" : "comp_234",
               "e_time" : 7237.01599999913
            }
         ],
         "download" : {
            "receiveFirst" : 169,
            "len" : 4167,
            "dns" : 0,
            "dnsEnd" : -1,
            "receiveHeadersEnd" : 200,
            "sslEnd" : -1,
            "connectEnd" : 31,
            "connectStart" : 0,
            "id" : "download_49",
            "receivedTime" : "4426.77400000684",
            "sslStart" : -1,
            "dnsStart" : -1,
            "receiveLast" : 4226.77400000684,
            "s_time" : 4138.78000000841,
            "sendEnd" : 31,
            "sendStart" : 31,
            "type" : "application/javascript"
         }
      },
      {
         "when_comp_start" : -1,
         "url" : "http://original.testbed.localhost/extras.mnginteractive.com/live/media/site333/2015/0620/20150620__USGalapagosTortoiseDies~1_300.jpg",
         "id" : "r82",
         "comps" : [],
         "download" : {
            "receiveFirst" : 154,
            "len" : 20064,
            "dns" : 0,
            "dnsEnd" : -1,
            "receiveHeadersEnd" : 500,
            "sslEnd" : -1,
            "connectEnd" : 346,
            "connectStart" : 0,
            "id" : "download_50",
            "receivedTime" : "4600.48000000825",
            "sslStart" : -1,
            "dnsStart" : -1,
            "receiveLast" : 4100.48000000825,
            "s_time" : 3877.09100000211,
            "sendEnd" : 346,
            "sendStart" : 346,
            "type" : "image/jpeg"
         }
      },
      {
         "when_comp_start" : -1,
         "url" : "http://original.testbed.localhost/local.medianewsgroup.com/common/dfm/footer.js",
         "id" : "r96",
         "comps" : [
            {
               "s_time" : 7237.16800000693,
               "time" : 656.31099999882,
               "type" : 3,
               "id" : "comp_236",
               "e_time" : 7893.47900000575
            }
         ],
         "download" : {
            "receiveFirst" : 181,
            "len" : 49721,
            "dns" : 0,
            "dnsEnd" : -1,
            "receiveHeadersEnd" : 215,
            "sslEnd" : -1,
            "connectEnd" : 33,
            "connectStart" : 0,
            "id" : "download_51",
            "receivedTime" : "4604.84400000132",
            "sslStart" : -1,
            "dnsStart" : -1,
            "receiveLast" : 4389.84400000132,
            "s_time" : 4240.95300000045,
            "sendEnd" : 34,
            "sendStart" : 33,
            "type" : "application/javascript"
         }
      },
      {
         "when_comp_start" : -1,
         "url" : "http://original.testbed.localhost/extras.mnginteractive.com/live/media/site36/2015/0915/20150915__op16pollpic~p1.jpg",
         "id" : "r84",
         "comps" : [],
         "download" : {
            "receiveFirst" : 154,
            "len" : 47985,
            "dns" : 0,
            "dnsEnd" : -1,
            "receiveHeadersEnd" : 503,
            "sslEnd" : -1,
            "connectEnd" : 348,
            "connectStart" : 0,
            "id" : "download_52",
            "receivedTime" : "4822.89200001105",
            "sslStart" : -1,
            "dnsStart" : -1,
            "receiveLast" : 4319.89200001105,
            "s_time" : 3986.13100001239,
            "sendEnd" : 349,
            "sendStart" : 348,
            "type" : "image/jpeg"
         }
      },
      {
         "when_comp_start" : -1,
         "url" : "http://original.testbed.localhost/extras.denverpost.com/media/png/2013/bt-submit-tip-button.png",
         "id" : "r85",
         "comps" : [],
         "download" : {
            "receiveFirst" : 178,
            "len" : 2912,
            "dns" : 0,
            "dnsEnd" : -1,
            "receiveHeadersEnd" : 507,
            "sslEnd" : -1,
            "connectEnd" : 328,
            "connectStart" : 0,
            "id" : "download_53",
            "receivedTime" : "4594.895000002",
            "sslStart" : -1,
            "dnsStart" : -1,
            "receiveLast" : 4087.895000002,
            "s_time" : 4015.2139999991,
            "sendEnd" : 329,
            "sendStart" : 328,
            "type" : "image/png"
         }
      },
      {
         "when_comp_start" : -1,
         "url" : "http://original.testbed.localhost/extras.mnginteractive.com/live/media/site36/2014/1121/20141121_021041_breakdown-banner.jpg",
         "id" : "r86",
         "comps" : [],
         "download" : {
            "receiveFirst" : 178,
            "len" : 12313,
            "dns" : 0,
            "dnsEnd" : -1,
            "receiveHeadersEnd" : 452,
            "sslEnd" : -1,
            "connectEnd" : 273,
            "connectStart" : 0,
            "id" : "download_54",
            "receivedTime" : "4692.64300000214",
            "sslStart" : -1,
            "dnsStart" : -1,
            "receiveLast" : 4240.64300000214,
            "s_time" : 4082.276000001,
            "sendEnd" : 274,
            "sendStart" : 273,
            "type" : "image/jpeg"
         }
      },
      {
         "when_comp_start" : -1,
         "url" : "http://original.testbed.localhost/extras.mnginteractive.com/live/js/jquery/jBar/jBar_btown.js%3F20150911",
         "id" : "r100",
         "comps" : [],
         "download" : {
            "receiveFirst" : 176,
            "len" : 69901,
            "dns" : 0,
            "dnsEnd" : -1,
            "receiveHeadersEnd" : 248,
            "sslEnd" : -1,
            "connectEnd" : 72,
            "connectStart" : 0,
            "id" : "download_55",
            "receivedTime" : "5508.50000001083",
            "sslStart" : -1,
            "dnsStart" : -1,
            "receiveLast" : 5260.50000001083,
            "s_time" : 4453.23300000746,
            "sendEnd" : 72,
            "sendStart" : 72,
            "type" : "text/plain"
         }
      },
      {
         "when_comp_start" : -1,
         "url" : "http://original.testbed.localhost/extras.mnginteractive.com/live/media/site36/2014/1205/20141205_121136_cbd-promo.jpg",
         "id" : "r87",
         "comps" : [],
         "download" : {
            "receiveFirst" : 165,
            "len" : 22674,
            "dns" : 0,
            "dnsEnd" : -1,
            "receiveHeadersEnd" : 559,
            "sslEnd" : -1,
            "connectEnd" : 394,
            "connectStart" : 0,
            "id" : "download_56",
            "receivedTime" : "4886.21599999897",
            "sslStart" : -1,
            "dnsStart" : -1,
            "receiveLast" : 4327.21599999897,
            "s_time" : 4159.18100000999,
            "sendEnd" : 394,
            "sendStart" : 394,
            "type" : "image/jpeg"
         }
      },
      {
         "when_comp_start" : -1,
         "url" : "http://original.testbed.localhost/extras.mnginteractive.com/live/media/site36/2014/0119/20140119__20140120_A1_CD20BRONCOSPIC~p1_100.jpg",
         "id" : "r88",
         "comps" : [],
         "download" : {
            "receiveFirst" : 166,
            "len" : 27694,
            "dns" : 0,
            "dnsEnd" : -1,
            "receiveHeadersEnd" : 580,
            "sslEnd" : -1,
            "connectEnd" : 414,
            "connectStart" : 0,
            "id" : "download_57",
            "receivedTime" : "5066.6060000076",
            "sslStart" : -1,
            "dnsStart" : -1,
            "receiveLast" : 4486.6060000076,
            "s_time" : 4168.91600000963,
            "sendEnd" : 414,
            "sendStart" : 414,
            "type" : "image/jpeg"
         }
      },
      {
         "when_comp_start" : -1,
         "url" : "http://original.testbed.localhost/extras.mnginteractive.com/live/media/site36/2014/0120/20140120__john%20elway~p1_200.jpg",
         "id" : "r89",
         "comps" : [],
         "download" : {
            "receiveFirst" : 159,
            "len" : 39671,
            "dns" : 0,
            "dnsEnd" : -1,
            "receiveHeadersEnd" : 623,
            "sslEnd" : -1,
            "connectEnd" : 464,
            "connectStart" : 0,
            "id" : "download_58",
            "receivedTime" : "5290.81800000858",
            "sslStart" : -1,
            "dnsStart" : -1,
            "receiveLast" : 4667.81800000858,
            "s_time" : 4219.10100000969,
            "sendEnd" : 464,
            "sendStart" : 464,
            "type" : "image/jpeg"
         }
      },
      {
         "when_comp_start" : -1,
         "url" : "http://original.testbed.localhost/extras.mnginteractive.com/live/media/site36/2014/0119/20140119__pat-bowlen-broncos-011914~p1_300.jpg",
         "id" : "r90",
         "comps" : [],
         "download" : {
            "receiveFirst" : 155,
            "len" : 37870,
            "dns" : 0,
            "dnsEnd" : -1,
            "receiveHeadersEnd" : 624,
            "sslEnd" : -1,
            "connectEnd" : 469,
            "connectStart" : 0,
            "id" : "download_59",
            "receivedTime" : "7230.14900000999",
            "sslStart" : -1,
            "dnsStart" : -1,
            "receiveLast" : 6606.14900000999,
            "s_time" : 4273.97300000302,
            "sendEnd" : 469,
            "sendStart" : 469,
            "type" : "image/jpeg"
         }
      },
      {
         "when_comp_start" : -1,
         "url" : "http://original.testbed.localhost/extras.mnginteractive.com/live/media/site36/2009/0209/20090209_043438_li_comment.gif",
         "id" : "r94",
         "comps" : [],
         "download" : {
            "receiveFirst" : 155,
            "len" : 124,
            "dns" : 0,
            "dnsEnd" : -1,
            "receiveHeadersEnd" : 515,
            "sslEnd" : -1,
            "connectEnd" : 359,
            "connectStart" : 0,
            "id" : "download_60",
            "receivedTime" : "5042.83299999952",
            "sslStart" : -1,
            "dnsStart" : -1,
            "receiveLast" : 4527.83299999952,
            "s_time" : 4525.62100000796,
            "sendEnd" : 360,
            "sendStart" : 359,
            "type" : "image/gif"
         }
      },
      {
         "when_comp_start" : -1,
         "url" : "http://original.testbed.localhost/extras.mnginteractive.com/live/media/site569/2008/0908/20080908_035711_comment.gif",
         "id" : "r95",
         "comps" : [],
         "download" : {
            "receiveFirst" : 155,
            "len" : 100,
            "dns" : 0,
            "dnsEnd" : -1,
            "receiveHeadersEnd" : 645,
            "sslEnd" : -1,
            "connectEnd" : 490,
            "connectStart" : 0,
            "id" : "download_61",
            "receivedTime" : "5200.8530000021",
            "sslStart" : -1,
            "dnsStart" : -1,
            "receiveLast" : 4555.8530000021,
            "s_time" : 4552.21600001096,
            "sendEnd" : 490,
            "sendStart" : 490,
            "type" : "image/gif"
         }
      },
      {
         "when_comp_start" : -1,
         "url" : "http://original.testbed.localhost/extras.mnginteractive.com/live/media/mng_logos/MNG_footerGraphic.jpg",
         "id" : "r97",
         "comps" : [],
         "download" : {
            "receiveFirst" : 155,
            "len" : 3363,
            "dns" : 0,
            "dnsEnd" : -1,
            "receiveHeadersEnd" : 542,
            "sslEnd" : -1,
            "connectEnd" : 387,
            "connectStart" : 0,
            "id" : "download_62",
            "receivedTime" : "5227.34200001287",
            "sslStart" : -1,
            "dnsStart" : -1,
            "receiveLast" : 4685.34200001287,
            "s_time" : 4681.12300000212,
            "sendEnd" : 387,
            "sendStart" : 387,
            "type" : "image/jpeg"
         }
      },
      {
         "when_comp_start" : -1,
         "url" : "http://original.testbed.localhost/extras.mnginteractive.com/live/media/site36/2014/0119/20140119__champ-bailey-hug-denver-broncos-011914~p1_200.jpg",
         "id" : "r91",
         "comps" : [],
         "download" : {
            "receiveFirst" : 529,
            "len" : 42622,
            "dns" : 0,
            "dnsEnd" : -1,
            "receiveHeadersEnd" : 969,
            "sslEnd" : -1,
            "connectEnd" : 440,
            "connectStart" : 0,
            "id" : "download_63",
            "receivedTime" : "7965.80600000743",
            "sslStart" : -1,
            "dnsStart" : -1,
            "receiveLast" : 6996.80600000743,
            "s_time" : 4349.22899999947,
            "sendEnd" : 440,
            "sendStart" : 440,
            "type" : "image/jpeg"
         }
      }
   ],
   "deps" : [
      {
         "a2" : "r1_c2",
         "time" : -1,
         "id" : "dep1",
         "a1" : "comp_2"
      },
      {
         "a2" : "r1_c3",
         "time" : -1,
         "id" : "dep2",
         "a1" : "comp_4"
      },
      {
         "a2" : "r1_c4",
         "time" : -1,
         "id" : "dep3",
         "a1" : "comp_6"
      },
      {
         "a2" : "r1_c5",
         "time" : -1,
         "id" : "dep4",
         "a1" : "comp_8"
      },
      {
         "a2" : "r1_c6",
         "time" : -1,
         "id" : "dep5",
         "a1" : "comp_10"
      },
      {
         "a2" : "r1_c7",
         "time" : -1,
         "id" : "dep6",
         "a1" : "comp_20"
      },
      {
         "a2" : "r1_c8",
         "time" : -1,
         "id" : "dep7",
         "a1" : "comp_22"
      },
      {
         "a2" : "r1_c9",
         "time" : -1,
         "id" : "dep8",
         "a1" : "comp_27"
      },
      {
         "a2" : "r1_c10",
         "time" : -1,
         "id" : "dep9",
         "a1" : "comp_32"
      },
      {
         "a2" : "r1_c11",
         "time" : -1,
         "id" : "dep10",
         "a1" : "comp_34"
      },
      {
         "a2" : "r1_c12",
         "time" : -1,
         "id" : "dep11",
         "a1" : "comp_38"
      },
      {
         "a2" : "r1_c13",
         "time" : -1,
         "id" : "dep12",
         "a1" : "comp_56"
      },
      {
         "a2" : "r1_c14",
         "time" : -1,
         "id" : "dep13",
         "a1" : "comp_59"
      },
      {
         "a2" : "r1_c15",
         "time" : -1,
         "id" : "dep14",
         "a1" : "comp_69"
      },
      {
         "a2" : "r1_c16",
         "time" : -1,
         "id" : "dep15",
         "a1" : "comp_102"
      },
      {
         "a2" : "r1_c17",
         "time" : -1,
         "id" : "dep16",
         "a1" : "comp_183"
      },
      {
         "a2" : "comp_2",
         "time" : -1,
         "id" : "dep17",
         "a1" : "comp_1"
      },
      {
         "a2" : "comp_4",
         "time" : -1,
         "id" : "dep18",
         "a1" : "comp_2"
      },
      {
         "a2" : "comp_4",
         "time" : -1,
         "id" : "dep19",
         "a1" : "comp_0"
      },
      {
         "a2" : "comp_6",
         "time" : -1,
         "id" : "dep20",
         "a1" : "comp_4"
      },
      {
         "a2" : "comp_8",
         "time" : -1,
         "id" : "dep21",
         "a1" : "comp_6"
      },
      {
         "a2" : "comp_10",
         "time" : -1,
         "id" : "dep22",
         "a1" : "comp_8"
      },
      {
         "a2" : "comp_22",
         "time" : -1,
         "id" : "dep23",
         "a1" : "comp_20"
      },
      {
         "a2" : "comp_34",
         "time" : -1,
         "id" : "dep24",
         "a1" : "comp_32"
      },
      {
         "a2" : "comp_102",
         "time" : -1,
         "id" : "dep25",
         "a1" : "comp_73"
      },
      {
         "a2" : "download_63",
         "time" : -1,
         "id" : "dep26",
         "a1" : "r1_c16"
      },
      {
         "a2" : "download_62",
         "time" : 231.2469999888,
         "id" : "dep27",
         "a1" : "r1_c17"
      },
      {
         "a2" : "download_61",
         "time" : 102.33999999764,
         "id" : "dep28",
         "a1" : "r1_c17"
      },
      {
         "a2" : "download_60",
         "time" : 75.7449999946402,
         "id" : "dep29",
         "a1" : "r1_c17"
      },
      {
         "a2" : "download_59",
         "time" : 534.302000000021,
         "id" : "dep30",
         "a1" : "r1_c16"
      },
      {
         "a2" : "download_58",
         "time" : 479.430000006691,
         "id" : "dep31",
         "a1" : "r1_c16"
      },
      {
         "a2" : "download_57",
         "time" : 429.24500000663,
         "id" : "dep32",
         "a1" : "r1_c16"
      },
      {
         "a2" : "download_56",
         "time" : 419.510000006991,
         "id" : "dep33",
         "a1" : "r1_c16"
      },
      {
         "a2" : "download_55",
         "time" : 3.3569999941401,
         "id" : "dep34",
         "a1" : "r1_c17"
      },
      {
         "a2" : "download_55",
         "time" : 3.3569999941401,
         "id" : "dep35",
         "a1" : "r1_c17"
      },
      {
         "a2" : "download_54",
         "time" : 342.604999998,
         "id" : "dep36",
         "a1" : "r1_c16"
      },
      {
         "a2" : "download_53",
         "time" : 275.5429999961,
         "id" : "dep37",
         "a1" : "r1_c16"
      },
      {
         "a2" : "download_52",
         "time" : 246.46000000939,
         "id" : "dep38",
         "a1" : "r1_c16"
      },
      {
         "a2" : "download_51",
         "time" : 501.28199999745,
         "id" : "dep39",
         "a1" : "r1_c16"
      },
      {
         "a2" : "download_51",
         "time" : 501.28199999745,
         "id" : "dep40",
         "a1" : "r1_c16"
      },
      {
         "a2" : "download_50",
         "time" : 137.41999999911,
         "id" : "dep41",
         "a1" : "r1_c16"
      },
      {
         "a2" : "download_49",
         "time" : 399.10900000541,
         "id" : "dep42",
         "a1" : "r1_c16"
      },
      {
         "a2" : "download_49",
         "time" : 399.10900000541,
         "id" : "dep43",
         "a1" : "r1_c16"
      },
      {
         "a2" : "download_48",
         "time" : 395.53799999703,
         "id" : "dep44",
         "a1" : "r1_c16"
      },
      {
         "a2" : "download_47",
         "time" : 127.77700000152,
         "id" : "dep45",
         "a1" : "r1_c16"
      },
      {
         "a2" : "download_46",
         "time" : 115.09600000863,
         "id" : "dep46",
         "a1" : "r1_c16"
      },
      {
         "a2" : "download_45",
         "time" : 109.14600000251,
         "id" : "dep47",
         "a1" : "r1_c16"
      },
      {
         "a2" : "download_44",
         "time" : 101.9440000091,
         "id" : "dep48",
         "a1" : "r1_c16"
      },
      {
         "a2" : "download_43",
         "time" : -1,
         "id" : "dep49",
         "a1" : "r1_c15"
      },
      {
         "a2" : "download_43",
         "time" : 180.54100000881,
         "id" : "dep50",
         "a1" : "r1_c15"
      },
      {
         "a2" : "download_42",
         "time" : 177.82500000612,
         "id" : "dep51",
         "a1" : "r1_c15"
      },
      {
         "a2" : "download_41",
         "time" : 159.10299999814,
         "id" : "dep52",
         "a1" : "r1_c15"
      },
      {
         "a2" : "download_41",
         "time" : 159.10299999814,
         "id" : "dep53",
         "a1" : "r1_c15"
      },
      {
         "a2" : "download_40",
         "time" : 135.37600000563,
         "id" : "dep54",
         "a1" : "r1_c15"
      },
      {
         "a2" : "download_40",
         "time" : 135.37600000563,
         "id" : "dep55",
         "a1" : "r1_c15"
      },
      {
         "a2" : "download_39",
         "time" : 134.27700000466,
         "id" : "dep56",
         "a1" : "r1_c15"
      },
      {
         "a2" : "download_39",
         "time" : 134.27700000466,
         "id" : "dep57",
         "a1" : "r1_c15"
      },
      {
         "a2" : "download_38",
         "time" : 132.82700000854,
         "id" : "dep58",
         "a1" : "r1_c15"
      },
      {
         "a2" : "download_38",
         "time" : 132.82700000854,
         "id" : "dep59",
         "a1" : "r1_c15"
      },
      {
         "a2" : "download_37",
         "time" : 131.98800000828,
         "id" : "dep60",
         "a1" : "r1_c15"
      },
      {
         "a2" : "download_37",
         "time" : 131.98800000828,
         "id" : "dep61",
         "a1" : "r1_c15"
      },
      {
         "a2" : "download_36",
         "time" : 130.09600000805,
         "id" : "dep62",
         "a1" : "r1_c15"
      },
      {
         "a2" : "download_35",
         "time" : 117.27899999823,
         "id" : "dep63",
         "a1" : "r1_c15"
      },
      {
         "a2" : "download_34",
         "time" : 108.42899999988,
         "id" : "dep64",
         "a1" : "r1_c15"
      },
      {
         "a2" : "download_33",
         "time" : 99.7920000081599,
         "id" : "dep65",
         "a1" : "r1_c15"
      },
      {
         "a2" : "download_32",
         "time" : 41.1830000084601,
         "id" : "dep66",
         "a1" : "r1_c15"
      },
      {
         "a2" : "download_31",
         "time" : 27.1599999978203,
         "id" : "dep67",
         "a1" : "r1_c15"
      },
      {
         "a2" : "download_30",
         "time" : -1,
         "id" : "dep68",
         "a1" : "r1_c14"
      },
      {
         "a2" : "download_30",
         "time" : 83.7100000062501,
         "id" : "dep69",
         "a1" : "r1_c14"
      },
      {
         "a2" : "download_29",
         "time" : 76.4460000064,
         "id" : "dep70",
         "a1" : "r1_c14"
      },
      {
         "a2" : "download_29",
         "time" : 76.4460000064,
         "id" : "dep71",
         "a1" : "r1_c14"
      },
      {
         "a2" : "download_28",
         "time" : -1,
         "id" : "dep72",
         "a1" : "r1_c12"
      },
      {
         "a2" : "download_27",
         "time" : 246.29199999617,
         "id" : "dep73",
         "a1" : "r1_c12"
      },
      {
         "a2" : "download_26",
         "time" : -1,
         "id" : "dep74",
         "a1" : "r1_c12"
      },
      {
         "a2" : "download_26",
         "time" : 247.52799999259,
         "id" : "dep75",
         "a1" : "r1_c12"
      },
      {
         "a2" : "download_25",
         "time" : 246.79499999911,
         "id" : "dep76",
         "a1" : "r1_c12"
      },
      {
         "a2" : "download_25",
         "time" : 246.79499999911,
         "id" : "dep77",
         "a1" : "r1_c12"
      },
      {
         "a2" : "download_24",
         "time" : 235.99200000171,
         "id" : "dep78",
         "a1" : "r1_c12"
      },
      {
         "a2" : "download_24",
         "time" : 235.99200000171,
         "id" : "dep79",
         "a1" : "r1_c12"
      },
      {
         "a2" : "download_23",
         "time" : 238.41799999354,
         "id" : "dep80",
         "a1" : "r1_c12"
      },
      {
         "a2" : "download_22",
         "time" : 232.42099999333,
         "id" : "dep81",
         "a1" : "r1_c12"
      },
      {
         "a2" : "download_22",
         "time" : 232.42099999333,
         "id" : "dep82",
         "a1" : "r1_c12"
      },
      {
         "a2" : "download_21",
         "time" : 231.38399999879,
         "id" : "dep83",
         "a1" : "r1_c12"
      },
      {
         "a2" : "download_20",
         "time" : 229.64399999182,
         "id" : "dep84",
         "a1" : "r1_c12"
      },
      {
         "a2" : "download_19",
         "time" : 223.8459999935,
         "id" : "dep85",
         "a1" : "r1_c12"
      },
      {
         "a2" : "download_18",
         "time" : -1,
         "id" : "dep86",
         "a1" : "r1_c6"
      },
      {
         "a2" : "download_18",
         "time" : 201.68999998714,
         "id" : "dep87",
         "a1" : "r1_c6"
      },
      {
         "a2" : "download_17",
         "time" : -1,
         "id" : "dep88",
         "a1" : "r1_c9"
      },
      {
         "a2" : "download_17",
         "time" : 11.10899999912,
         "id" : "dep89",
         "a1" : "r1_c9"
      },
      {
         "a2" : "download_16",
         "time" : 10.6809999997499,
         "id" : "dep90",
         "a1" : "r1_c9"
      },
      {
         "a2" : "download_16",
         "time" : 10.6809999997499,
         "id" : "dep91",
         "a1" : "r1_c9"
      },
      {
         "a2" : "download_15",
         "time" : -1,
         "id" : "dep92",
         "a1" : "r1_c6"
      },
      {
         "a2" : "download_15",
         "time" : 206.60399999178,
         "id" : "dep93",
         "a1" : "r1_c6"
      },
      {
         "a2" : "download_14",
         "time" : 205.50499999081,
         "id" : "dep94",
         "a1" : "r1_c6"
      },
      {
         "a2" : "download_14",
         "time" : 205.50499999081,
         "id" : "dep95",
         "a1" : "r1_c6"
      },
      {
         "a2" : "download_13",
         "time" : 202.91100000031,
         "id" : "dep96",
         "a1" : "r1_c6"
      },
      {
         "a2" : "download_13",
         "time" : 202.91100000031,
         "id" : "dep97",
         "a1" : "r1_c6"
      },
      {
         "a2" : "download_12",
         "time" : 199.95099998778,
         "id" : "dep98",
         "a1" : "r1_c6"
      },
      {
         "a2" : "download_12",
         "time" : 199.95099998778,
         "id" : "dep99",
         "a1" : "r1_c6"
      },
      {
         "a2" : "download_11",
         "time" : 198.79099998798,
         "id" : "dep100",
         "a1" : "r1_c6"
      },
      {
         "a2" : "download_10",
         "time" : -1,
         "id" : "dep101",
         "a1" : "r1_c1"
      },
      {
         "a2" : "download_9",
         "time" : -1,
         "id" : "dep102",
         "a1" : "r1_c1"
      },
      {
         "a2" : "download_9",
         "time" : 21.972999995342,
         "id" : "dep103",
         "a1" : "r1_c1"
      },
      {
         "a2" : "download_8",
         "time" : 21.331999989343,
         "id" : "dep104",
         "a1" : "r1_c1"
      },
      {
         "a2" : "download_8",
         "time" : 21.331999989343,
         "id" : "dep105",
         "a1" : "r1_c1"
      },
      {
         "a2" : "download_7",
         "time" : 20.843999998761,
         "id" : "dep106",
         "a1" : "r1_c1"
      },
      {
         "a2" : "download_7",
         "time" : 20.843999998761,
         "id" : "dep107",
         "a1" : "r1_c1"
      },
      {
         "a2" : "download_6",
         "time" : 20.294999994804,
         "id" : "dep108",
         "a1" : "r1_c1"
      },
      {
         "a2" : "download_6",
         "time" : 20.294999994804,
         "id" : "dep109",
         "a1" : "r1_c1"
      },
      {
         "a2" : "download_5",
         "time" : 18.951999998536,
         "id" : "dep110",
         "a1" : "r1_c1"
      },
      {
         "a2" : "download_5",
         "time" : 18.951999998536,
         "id" : "dep111",
         "a1" : "r1_c1"
      },
      {
         "a2" : "download_4",
         "time" : 18.188999994891,
         "id" : "dep112",
         "a1" : "r1_c1"
      },
      {
         "a2" : "download_4",
         "time" : 18.188999994891,
         "id" : "dep113",
         "a1" : "r1_c1"
      },
      {
         "a2" : "download_3",
         "time" : 9.094999986701,
         "id" : "dep114",
         "a1" : "r1_c1"
      },
      {
         "a2" : "download_3",
         "time" : 9.094999986701,
         "id" : "dep115",
         "a1" : "r1_c1"
      },
      {
         "a2" : "download_2",
         "time" : 0.915999989956958,
         "id" : "dep116",
         "a1" : "r1_c1"
      },
      {
         "a2" : "download_1",
         "time" : 8.60599998850398,
         "id" : "dep117",
         "a1" : "r1_c1"
      },
      {
         "a2" : "download_1",
         "time" : 8.60599998850398,
         "id" : "dep118",
         "a1" : "r1_c1"
      }
   ]
}
