{
   "n_download_no_trigger" : 1,
   "start_activity" : "download_0",
   "name" : "original.testbed.localhost_www.taobao.com_",
   "load_activity" : -1,
   "objs" : [
      {
         "when_comp_start" : 1,
         "url" : "http://original.testbed.localhost/www.taobao.com/",
         "id" : "r1",
         "comps" : [
            {
               "s_time" : 299.727000005078,
               "time" : 925.294000000572,
               "id" : "r1_c1",
               "type" : "evalhtml",
               "e_time" : 1225.02100000565
            },
            {
               "s_time" : 1317.03099999868,
               "time" : -104544358.841,
               "id" : "r1_c2",
               "type" : "evalhtml",
               "e_time" : -104543041.81
            },
            {
               "s_time" : 1439.59000000905,
               "time" : -104544481.4,
               "id" : "r1_c3",
               "type" : "evalhtml",
               "e_time" : -104543041.81
            },
            {
               "s_time" : 1457.62500001001,
               "time" : 3033.14200000023,
               "type" : "evalhtml",
               "id" : "r1_c4",
               "e_time" : 4490.76700001024
            }
         ],
         "download" : {
            "receiveFirst" : 156,
            "len" : 165928,
            "dns" : 0,
            "dnsEnd" : -1,
            "receiveHeadersEnd" : 161,
            "sslEnd" : -1,
            "connectEnd" : 5,
            "connectStart" : 0,
            "id" : "download_0",
            "receivedTime" : "349.440999998478",
            "sslStart" : -1,
            "dnsStart" : -1,
            "receiveLast" : 188.440999998478,
            "s_time" : 0,
            "sendEnd" : 5,
            "sendStart" : 5,
            "type" : "text/html"
         }
      },
      {
         "when_comp_start" : -1,
         "url" : "http://original.testbed.localhost/g.alicdn.com/sea/sitenav-global/0.2.3/global-min.css",
         "id" : "r2",
         "comps" : [
            {
               "s_time" : 491.225000005215,
               "time" : 37.536999996519,
               "type" : 4,
               "id" : "comp_3",
               "e_time" : 528.762000001734
            }
         ],
         "download" : {
            "receiveFirst" : 156,
            "len" : 49228,
            "dns" : 0,
            "dnsEnd" : -1,
            "receiveHeadersEnd" : 162,
            "sslEnd" : -1,
            "connectEnd" : 6,
            "connectStart" : 0,
            "id" : "download_1",
            "receivedTime" : "490.583999999217",
            "sslStart" : -1,
            "dnsStart" : -1,
            "receiveLast" : 328.583999999217,
            "s_time" : 312.728000004427,
            "sendEnd" : 6,
            "sendStart" : 6,
            "type" : "text/css"
         }
      },
      {
         "when_comp_start" : -1,
         "url" : "http://original.testbed.localhost/g.alicdn.com/kissy/k/1.4.8/seed-min.js",
         "id" : "r3",
         "comps" : [
            {
               "s_time" : 1146.68200000597,
               "time" : 170.34899999271,
               "type" : 1,
               "id" : "comp_5",
               "e_time" : 1317.03099999868
            }
         ],
         "download" : {
            "receiveFirst" : 157,
            "len" : 44408,
            "dns" : 0,
            "dnsEnd" : -1,
            "receiveHeadersEnd" : 198,
            "sslEnd" : -1,
            "connectEnd" : 40,
            "connectStart" : 0,
            "id" : "download_2",
            "receivedTime" : "1145.82700000028",
            "sslStart" : -1,
            "dnsStart" : -1,
            "receiveLast" : 947.827000000281,
            "s_time" : 316.054000009899,
            "sendEnd" : 41,
            "sendStart" : 40,
            "type" : "application/javascript"
         }
      },
      {
         "when_comp_start" : -1,
         "url" : "http://original.testbed.localhost/g.alicdn.com/tb/press/2.2.3/layouts/990-20-50-10.css",
         "id" : "r6",
         "comps" : [
            {
               "s_time" : 663.344000000507,
               "time" : 0.33599999733201,
               "type" : 4,
               "id" : "comp_4",
               "e_time" : 663.679999997839
            }
         ],
         "download" : {
            "receiveFirst" : 163,
            "len" : 3271,
            "dns" : 0,
            "dnsEnd" : 0,
            "receiveHeadersEnd" : 325,
            "sslEnd" : -1,
            "connectEnd" : 162,
            "connectStart" : 0,
            "id" : "download_3",
            "receivedTime" : "662.6430000033",
            "sslStart" : -1,
            "dnsStart" : 0,
            "receiveLast" : 337.6430000033,
            "s_time" : 327.436999999918,
            "sendEnd" : 162,
            "sendStart" : 162,
            "type" : "text/css"
         }
      },
      {
         "when_comp_start" : -1,
         "url" : "http://original.testbed.localhost/g.alicdn.com/sea/sitenav-global/0.2.3/global-min.js",
         "id" : "r4",
         "comps" : [
            {
               "s_time" : 1320.38800000737,
               "time" : 119.20200000168,
               "type" : 1,
               "id" : "comp_9",
               "e_time" : 1439.59000000905
            }
         ],
         "download" : {
            "receiveFirst" : 166,
            "len" : 70534,
            "dns" : 0,
            "dnsEnd" : -1,
            "receiveHeadersEnd" : 333,
            "sslEnd" : -1,
            "connectEnd" : 167,
            "connectStart" : 0,
            "id" : "download_4",
            "receivedTime" : "801.894000003813",
            "sslStart" : -1,
            "dnsStart" : -1,
            "receiveLast" : 468.894000003813,
            "s_time" : 324.019000006956,
            "sendEnd" : 167,
            "sendStart" : 167,
            "type" : "application/javascript"
         }
      },
      {
         "when_comp_start" : -1,
         "url" : "http://original.testbed.localhost/g.alicdn.com/cm/log/log.js",
         "id" : "r5",
         "comps" : [
            {
               "s_time" : 1448.13400000567,
               "time" : 9.49100000433987,
               "type" : 1,
               "id" : "comp_11",
               "e_time" : 1457.62500001001
            }
         ],
         "download" : {
            "receiveFirst" : 175,
            "len" : 4282,
            "dns" : 0,
            "dnsEnd" : 19,
            "receiveHeadersEnd" : 347,
            "sslEnd" : -1,
            "connectEnd" : 172,
            "connectStart" : 0,
            "id" : "download_5",
            "receivedTime" : "677.290999999968",
            "sslStart" : -1,
            "dnsStart" : 19,
            "receiveLast" : 330.290999999968,
            "s_time" : 325.75899999938,
            "sendEnd" : 172,
            "sendStart" : 172,
            "type" : "application/javascript"
         }
      },
      {
         "when_comp_start" : -1,
         "url" : "http://original.testbed.localhost/img.alicdn.com/tps/i1/TB14R.THXXXXXaxaFXXW4780FXX-110-110.png",
         "id" : "r9",
         "comps" : [],
         "download" : {
            "receiveFirst" : 155,
            "len" : 23375,
            "dns" : 0,
            "dnsEnd" : 17,
            "receiveHeadersEnd" : 335,
            "sslEnd" : -1,
            "connectEnd" : 180,
            "connectStart" : 0,
            "id" : "download_6",
            "receivedTime" : "848.403000010876",
            "sslStart" : -1,
            "dnsStart" : 17,
            "receiveLast" : 513.403000010876,
            "s_time" : 352.56900000968,
            "sendEnd" : 180,
            "sendStart" : 180,
            "type" : "image/png"
         }
      },
      {
         "when_comp_start" : -1,
         "url" : "http://original.testbed.localhost/img.alicdn.com/tps/i3/TB1358JHXXXXXXlaXXXW4780FXX-110-110.png",
         "id" : "r10",
         "comps" : [],
         "download" : {
            "receiveFirst" : 152,
            "len" : 16219,
            "dns" : 0,
            "dnsEnd" : -1,
            "receiveHeadersEnd" : 159,
            "sslEnd" : -1,
            "connectEnd" : 7,
            "connectStart" : 0,
            "id" : "download_7",
            "receivedTime" : "1034.07200000947",
            "sslStart" : -1,
            "dnsStart" : -1,
            "receiveLast" : 875.072000009473,
            "s_time" : 847.487000006367,
            "sendEnd" : 7,
            "sendStart" : 7,
            "type" : "image/png"
         }
      },
      {
         "when_comp_start" : -1,
         "url" : "http://original.testbed.localhost/img.alicdn.com/tps/i2/TB1Hw_nGVXXXXb9aXXXW4780FXX-110-110.png",
         "id" : "r11",
         "comps" : [],
         "download" : {
            "receiveFirst" : 153,
            "len" : 22338,
            "dns" : 0,
            "dnsEnd" : -1,
            "receiveHeadersEnd" : 160,
            "sslEnd" : -1,
            "connectEnd" : 7,
            "connectStart" : 0,
            "id" : "download_8",
            "receivedTime" : "1828.78000001074",
            "sslStart" : -1,
            "dnsStart" : -1,
            "receiveLast" : 1668.78000001074,
            "s_time" : 1031.03600000031,
            "sendEnd" : 7,
            "sendStart" : 7,
            "type" : "image/png"
         }
      },
      {
         "when_comp_start" : -1,
         "url" : "http://original.testbed.localhost/img.alicdn.com/tps/i3/TB12R_nHXXXXXctXpXXg4E80FXX-110-110.jpg",
         "id" : "r14",
         "comps" : [],
         "download" : {
            "receiveFirst" : 183,
            "len" : 3780,
            "dns" : 0,
            "dnsEnd" : -1,
            "receiveHeadersEnd" : 208,
            "sslEnd" : -1,
            "connectEnd" : 24,
            "connectStart" : 0,
            "id" : "download_9",
            "receivedTime" : "2062.57500000356",
            "sslStart" : -1,
            "dnsStart" : -1,
            "receiveLast" : 1854.57500000356,
            "s_time" : 1146.89499999804,
            "sendEnd" : 25,
            "sendStart" : 24,
            "type" : "image/jpeg"
         }
      },
      {
         "when_comp_start" : 1,
         "url" : "http://original.testbed.localhost/www.taobao.com/index.html",
         "id" : "r13",
         "comps" : [],
         "download" : {
            "receiveFirst" : 205,
            "len" : 165928,
            "dns" : 0,
            "dnsEnd" : -1,
            "receiveHeadersEnd" : 227,
            "sslEnd" : -1,
            "connectEnd" : 22,
            "connectStart" : 0,
            "id" : "download_10",
            "receivedTime" : "2146.43800001068",
            "sslStart" : -1,
            "dnsStart" : -1,
            "receiveLast" : 1919.43800001068,
            "s_time" : 1145.64400000381,
            "sendEnd" : 22,
            "sendStart" : 22,
            "type" : "text/html"
         }
      },
      {
         "when_comp_start" : -1,
         "url" : "http://original.testbed.localhost/img.alicdn.com/tps/i2/TB1PwzhHXXXXXbWXVXXg4E80FXX-110-110.jpg",
         "id" : "r15",
         "comps" : [],
         "download" : {
            "receiveFirst" : 221,
            "len" : 3830,
            "dns" : 0,
            "dnsEnd" : -1,
            "receiveHeadersEnd" : 247,
            "sslEnd" : -1,
            "connectEnd" : 26,
            "connectStart" : 0,
            "id" : "download_11",
            "receivedTime" : "2068.80100000126",
            "sslStart" : -1,
            "dnsStart" : -1,
            "receiveLast" : 1821.80100000126,
            "s_time" : 1148.20700000564,
            "sendEnd" : 26,
            "sendStart" : 26,
            "type" : "image/jpeg"
         }
      },
      {
         "when_comp_start" : -1,
         "url" : "http://original.testbed.localhost/img.alicdn.com/tps/i2/TB1yWznHXXXXXXeXFXXg4E80FXX-110-110.jpg",
         "id" : "r16",
         "comps" : [],
         "download" : {
            "receiveFirst" : 179,
            "len" : 2870,
            "dns" : 0,
            "dnsEnd" : -1,
            "receiveHeadersEnd" : 256,
            "sslEnd" : -1,
            "connectEnd" : 76,
            "connectStart" : 0,
            "id" : "download_12",
            "receivedTime" : "2070.2050000109",
            "sslStart" : -1,
            "dnsStart" : -1,
            "receiveLast" : 1814.2050000109,
            "s_time" : 1148.83299999929,
            "sendEnd" : 77,
            "sendStart" : 76,
            "type" : "image/jpeg"
         }
      },
      {
         "when_comp_start" : -1,
         "url" : "http://original.testbed.localhost/img.alicdn.com/tps/i4/TB1.V_lGVXXXXbpaXXXW4780FXX-110-110.png",
         "id" : "r12",
         "comps" : [],
         "download" : {
            "receiveFirst" : 306,
            "len" : 24038,
            "dns" : 0,
            "dnsEnd" : -1,
            "receiveHeadersEnd" : 326,
            "sslEnd" : -1,
            "connectEnd" : 20,
            "connectStart" : 0,
            "id" : "download_13",
            "receivedTime" : "2142.62300000701",
            "sslStart" : -1,
            "dnsStart" : -1,
            "receiveLast" : 1816.62300000701,
            "s_time" : 1144.89599999797,
            "sendEnd" : 20,
            "sendStart" : 20,
            "type" : "image/png"
         }
      },
      {
         "when_comp_start" : -1,
         "url" : "http://original.testbed.localhost/img.alicdn.com/tps/i3/TB1ERuCHXXXXXagXFXXg4E80FXX-110-110.jpg",
         "id" : "r17",
         "comps" : [],
         "download" : {
            "receiveFirst" : 157,
            "len" : 8055,
            "dns" : 0,
            "dnsEnd" : -1,
            "receiveHeadersEnd" : 375,
            "sslEnd" : -1,
            "connectEnd" : 217,
            "connectStart" : 0,
            "id" : "download_14",
            "receivedTime" : "2145.18600000883",
            "sslStart" : -1,
            "dnsStart" : -1,
            "receiveLast" : 1770.18600000883,
            "s_time" : 1150.67899999849,
            "sendEnd" : 218,
            "sendStart" : 217,
            "type" : "image/jpeg"
         }
      },
      {
         "when_comp_start" : -1,
         "url" : "http://original.testbed.localhost/img.alicdn.com/tps/i4/TB1yHfiHXXXXXXiXVXXW4780FXX-110-110.png",
         "id" : "r18",
         "comps" : [],
         "download" : {
            "receiveFirst" : 154,
            "len" : 29088,
            "dns" : 0,
            "dnsEnd" : -1,
            "receiveHeadersEnd" : 403,
            "sslEnd" : -1,
            "connectEnd" : 249,
            "connectStart" : 0,
            "id" : "download_15",
            "receivedTime" : "2169.20400000527",
            "sslStart" : -1,
            "dnsStart" : -1,
            "receiveLast" : 1766.20400000527,
            "s_time" : 1150.95400001155,
            "sendEnd" : 249,
            "sendStart" : 249,
            "type" : "image/png"
         }
      },
      {
         "when_comp_start" : -1,
         "url" : "http://original.testbed.localhost/img.alicdn.com/tps/i1/TB1u0YmHXXXXXcEXpXXW4780FXX-110-110.png",
         "id" : "r19",
         "comps" : [],
         "download" : {
            "receiveFirst" : 167,
            "len" : 26907,
            "dns" : 0,
            "dnsEnd" : -1,
            "receiveHeadersEnd" : 424,
            "sslEnd" : -1,
            "connectEnd" : 257,
            "connectStart" : 0,
            "id" : "download_16",
            "receivedTime" : "2170.39400000067",
            "sslStart" : -1,
            "dnsStart" : -1,
            "receiveLast" : 1746.39400000067,
            "s_time" : 1151.68600001198,
            "sendEnd" : 257,
            "sendStart" : 257,
            "type" : "image/png"
         }
      },
      {
         "when_comp_start" : -1,
         "url" : "http://original.testbed.localhost/img.alicdn.com/tps/i2/TB1FkzmHXXXXXb_XpXXW4780FXX-110-110.png",
         "id" : "r20",
         "comps" : [],
         "download" : {
            "receiveFirst" : 155,
            "len" : 21999,
            "dns" : 0,
            "dnsEnd" : -1,
            "receiveHeadersEnd" : 478,
            "sslEnd" : -1,
            "connectEnd" : 322,
            "connectStart" : 0,
            "id" : "download_17",
            "receivedTime" : "2172.22500000207",
            "sslStart" : -1,
            "dnsStart" : -1,
            "receiveLast" : 1694.22500000207,
            "s_time" : 1152.54100000311,
            "sendEnd" : 323,
            "sendStart" : 322,
            "type" : "image/png"
         }
      },
      {
         "when_comp_start" : -1,
         "url" : "http://original.testbed.localhost/img.alicdn.com/tps/i3/TB1cDbdHXXXXXXHaXXXW4780FXX-110-110.png",
         "id" : "r21",
         "comps" : [],
         "download" : {
            "receiveFirst" : 154,
            "len" : 27946,
            "dns" : 0,
            "dnsEnd" : 0,
            "receiveHeadersEnd" : 448,
            "sslEnd" : -1,
            "connectEnd" : 294,
            "connectStart" : 0,
            "id" : "download_18",
            "receivedTime" : "2205.91600000625",
            "sslStart" : -1,
            "dnsStart" : 0,
            "receiveLast" : 1757.91600000625,
            "s_time" : 1225.02100000565,
            "sendEnd" : 294,
            "sendStart" : 294,
            "type" : "image/png"
         }
      },
      {
         "when_comp_start" : -1,
         "url" : "http://original.testbed.localhost/img.alicdn.com/tps/i3/TB1n7VWHVXXXXbSXFXX1MfNUFXX-52-442.png",
         "id" : "r37",
         "comps" : [],
         "download" : {
            "receiveFirst" : 161,
            "len" : 23582,
            "dns" : 0,
            "dnsEnd" : -1,
            "receiveHeadersEnd" : 166,
            "sslEnd" : -1,
            "connectEnd" : 5,
            "connectStart" : 0,
            "id" : "download_19",
            "receivedTime" : "2210.49399999902",
            "sslStart" : -1,
            "dnsStart" : -1,
            "receiveLast" : 2044.49399999902,
            "s_time" : 1634.76400000218,
            "sendEnd" : 5,
            "sendStart" : 5,
            "type" : "image/png"
         }
      },
      {
         "when_comp_start" : 1,
         "url" : "http://original.testbed.localhost/g.alicdn.com/kissy/k/1.4.8/base-min.js,attribute-min.js,event/custom-min.js,event/base-min.js,event-min.js,event/dom/base-min.js,dom/base-min.js,event/dom/touch-min.js,event/dom/shake-min.js,event/dom/focusin-min.js,node-min.js,anim-min.js,anim/base-min.js,promise",
         "id" : "r38",
         "comps" : [],
         "download" : {
            "receiveFirst" : 187,
            "len" : 988,
            "dns" : 0,
            "dnsEnd" : -1,
            "receiveHeadersEnd" : 192,
            "sslEnd" : -1,
            "connectEnd" : 5,
            "connectStart" : 0,
            "id" : "download_20",
            "receivedTime" : "2202.71199999843",
            "sslStart" : -1,
            "dnsStart" : -1,
            "receiveLast" : 2010.71199999843,
            "s_time" : 1781.72199999972,
            "sendEnd" : 5,
            "sendStart" : 5,
            "type" : "text/html"
         }
      },
      {
         "when_comp_start" : 1,
         "url" : "http://original.testbed.localhost/g.alicdn.com/kissy/k/1.4.8/io-min.js,cookie-min.js",
         "id" : "r39",
         "comps" : [
            {
               "s_time" : 2246.74899999809,
               "time" : 6.65300000401021,
               "type" : 2,
               "id" : "comp_38",
               "e_time" : 2253.4020000021
            }
         ],
         "download" : {
            "receiveFirst" : 189,
            "len" : 988,
            "dns" : 0,
            "dnsEnd" : -1,
            "receiveHeadersEnd" : 194,
            "sslEnd" : -1,
            "connectEnd" : 5,
            "connectStart" : 0,
            "id" : "download_21",
            "receivedTime" : "2204.14600000367",
            "sslStart" : -1,
            "dnsStart" : -1,
            "receiveLast" : 2010.14600000367,
            "s_time" : 1793.44100000162,
            "sendEnd" : 5,
            "sendStart" : 5,
            "type" : "text/html"
         }
      },
      {
         "when_comp_start" : -1,
         "url" : "http://original.testbed.localhost/img.alicdn.com/tps/i1/TB1p0jnHXXXXXX4XFXXg4E80FXX-110-110.jpg",
         "id" : "r42",
         "comps" : [],
         "download" : {
            "receiveFirst" : 155,
            "len" : 4390,
            "dns" : 0,
            "dnsEnd" : -1,
            "receiveHeadersEnd" : 175,
            "sslEnd" : -1,
            "connectEnd" : 20,
            "connectStart" : 0,
            "id" : "download_22",
            "receivedTime" : "2209.91400000639",
            "sslStart" : -1,
            "dnsStart" : -1,
            "receiveLast" : 2034.91400000639,
            "s_time" : 1919.92100000789,
            "sendEnd" : 20,
            "sendStart" : 20,
            "type" : "image/jpeg"
         }
      },
      {
         "when_comp_start" : -1,
         "url" : "http://original.testbed.localhost/img.alicdn.com/tps/i3/TB1AqTuHXXXXXbUXXXXg4E80FXX-110-110.jpg",
         "id" : "r43",
         "comps" : [],
         "download" : {
            "receiveFirst" : 171,
            "len" : 8323,
            "dns" : 0,
            "dnsEnd" : -1,
            "receiveHeadersEnd" : 194,
            "sslEnd" : -1,
            "connectEnd" : 23,
            "connectStart" : 0,
            "id" : "download_23",
            "receivedTime" : "2212.41700000246",
            "sslStart" : -1,
            "dnsStart" : -1,
            "receiveLast" : 2018.41700000246,
            "s_time" : 1924.72799999814,
            "sendEnd" : 23,
            "sendStart" : 23,
            "type" : "image/jpeg"
         }
      },
      {
         "when_comp_start" : -1,
         "url" : "http://original.testbed.localhost/img.alicdn.com/tps/i3/TB1hWLnHXXXXXazXFXXg4E80FXX-110-110.jpg",
         "id" : "r44",
         "comps" : [],
         "download" : {
            "receiveFirst" : 191,
            "len" : 4525,
            "dns" : 0,
            "dnsEnd" : -1,
            "receiveHeadersEnd" : 251,
            "sslEnd" : -1,
            "connectEnd" : 60,
            "connectStart" : 0,
            "id" : "download_24",
            "receivedTime" : "2220.77800000261",
            "sslStart" : -1,
            "dnsStart" : -1,
            "receiveLast" : 1969.77800000261,
            "s_time" : 1928.12900000717,
            "sendEnd" : 60,
            "sendStart" : 60,
            "type" : "image/jpeg"
         }
      },
      {
         "when_comp_start" : -1,
         "url" : "http://original.testbed.localhost/img.alicdn.com/tps/i3/TB1XJvwHXXXXXXLXXXXg4E80FXX-110-110.jpg",
         "id" : "r45",
         "comps" : [],
         "download" : {
            "receiveFirst" : 196,
            "len" : 3655,
            "dns" : 0,
            "dnsEnd" : -1,
            "receiveHeadersEnd" : 258,
            "sslEnd" : -1,
            "connectEnd" : 62,
            "connectStart" : 0,
            "id" : "download_25",
            "receivedTime" : "2255.44600001012",
            "sslStart" : -1,
            "dnsStart" : -1,
            "receiveLast" : 1997.44600001012,
            "s_time" : 1930.4950000078,
            "sendEnd" : 62,
            "sendStart" : 62,
            "type" : "image/jpeg"
         }
      },
      {
         "when_comp_start" : -1,
         "url" : "http://original.testbed.localhost/img.alicdn.com/imgextra/i3/1759764091/TB2f_gbbFXXXXc.XXXXXXXXXXXX_!!1759764091.jpg%3Ft=1422256550000",
         "id" : "r46",
         "comps" : [],
         "download" : {
            "receiveFirst" : 191,
            "len" : 8549,
            "dns" : 0,
            "dnsEnd" : -1,
            "receiveHeadersEnd" : 240,
            "sslEnd" : -1,
            "connectEnd" : 49,
            "connectStart" : 0,
            "id" : "download_26",
            "receivedTime" : "2257.09400000051",
            "sslStart" : -1,
            "dnsStart" : -1,
            "receiveLast" : 2017.09400000051,
            "s_time" : 1950.22500000778,
            "sendEnd" : 49,
            "sendStart" : 49,
            "type" : "image/jpeg"
         }
      },
      {
         "when_comp_start" : -1,
         "url" : "http://original.testbed.localhost/img.alicdn.com/imgextra/i1/810239893/TB2huAmbFXXXXcLXXXXXXXXXXXX_!!810239893.jpg",
         "id" : "r47",
         "comps" : [],
         "download" : {
            "receiveFirst" : 154,
            "len" : 5642,
            "dns" : 0,
            "dnsEnd" : -1,
            "receiveHeadersEnd" : 306,
            "sslEnd" : -1,
            "connectEnd" : 152,
            "connectStart" : 0,
            "id" : "download_27",
            "receivedTime" : "2265.7920000056",
            "sslStart" : -1,
            "dnsStart" : -1,
            "receiveLast" : 1959.7920000056,
            "s_time" : 1953.56700000411,
            "sendEnd" : 152,
            "sendStart" : 152,
            "type" : "image/jpeg"
         }
      },
      {
         "when_comp_start" : -1,
         "url" : "http://original.testbed.localhost/img.alicdn.com/imgextra/i1/777196603/TB2sk.cbFXXXXcUXXXXXXXXXXXX_!!777196603.jpg",
         "id" : "r48",
         "comps" : [],
         "download" : {
            "receiveFirst" : 167,
            "len" : 5171,
            "dns" : 0,
            "dnsEnd" : -1,
            "receiveHeadersEnd" : 317,
            "sslEnd" : -1,
            "connectEnd" : 150,
            "connectStart" : 0,
            "id" : "download_28",
            "receivedTime" : "2277.38900000986",
            "sslStart" : -1,
            "dnsStart" : -1,
            "receiveLast" : 1960.38900000986,
            "s_time" : 1957.1980000037,
            "sendEnd" : 150,
            "sendStart" : 150,
            "type" : "image/jpeg"
         }
      },
      {
         "when_comp_start" : -1,
         "url" : "http://original.testbed.localhost/img.alicdn.com/imgextra/i1/777196603/TB2R0.gbFXXXXbPXXXXXXXXXXXX_!!777196603.jpg",
         "id" : "r49",
         "comps" : [],
         "download" : {
            "receiveFirst" : 162,
            "len" : 12017,
            "dns" : 0,
            "dnsEnd" : -1,
            "receiveHeadersEnd" : 329,
            "sslEnd" : -1,
            "connectEnd" : 167,
            "connectStart" : 0,
            "id" : "download_29",
            "receivedTime" : "2294.96700000891",
            "sslStart" : -1,
            "dnsStart" : -1,
            "receiveLast" : 1965.96700000891,
            "s_time" : 1959.19600001071,
            "sendEnd" : 167,
            "sendStart" : 167,
            "type" : "image/jpeg"
         }
      },
      {
         "when_comp_start" : -1,
         "url" : "http://original.testbed.localhost/g.alicdn.com/sea/discover/0.1.0/p/discover/index.css",
         "id" : "r94",
         "comps" : [
            {
               "s_time" : 2385.39000001037,
               "time" : 938.78199999745,
               "type" : 4,
               "id" : "comp_50",
               "e_time" : 3324.17200000782
            }
         ],
         "download" : {
            "receiveFirst" : 163,
            "len" : 9449,
            "dns" : 0,
            "dnsEnd" : -1,
            "receiveHeadersEnd" : 249,
            "sslEnd" : -1,
            "connectEnd" : 86,
            "connectStart" : 0,
            "id" : "download_30",
            "receivedTime" : "2382.00300000608",
            "sslStart" : -1,
            "dnsStart" : -1,
            "receiveLast" : 2133.00300000608,
            "s_time" : 2120.19300000975,
            "sendEnd" : 86,
            "sendStart" : 86,
            "type" : "text/css"
         }
      },
      {
         "when_comp_start" : -1,
         "url" : "http://original.testbed.localhost/img.alicdn.com/imgextra/i4/713563482/TB28pAmbFXXXXXsXpXXXXXXXXXX_!!713563482.jpg",
         "id" : "r50",
         "comps" : [],
         "download" : {
            "receiveFirst" : 165,
            "len" : 12028,
            "dns" : 0,
            "dnsEnd" : -1,
            "receiveHeadersEnd" : 377,
            "sslEnd" : -1,
            "connectEnd" : 212,
            "connectStart" : 0,
            "id" : "download_31",
            "receivedTime" : "3325.42300000205",
            "sslStart" : -1,
            "dnsStart" : -1,
            "receiveLast" : 2948.42300000205,
            "s_time" : 1996.58000000636,
            "sendEnd" : 212,
            "sendStart" : 212,
            "type" : "image/jpeg"
         }
      },
      {
         "when_comp_start" : -1,
         "url" : "http://original.testbed.localhost/img.alicdn.com/imgextra/i3/497245877/TB2vYgmbFXXXXcSXXXXXXXXXXXX_!!497245877.jpg",
         "id" : "r51",
         "comps" : [],
         "download" : {
            "receiveFirst" : 184,
            "len" : 3265,
            "dns" : 0,
            "dnsEnd" : -1,
            "receiveHeadersEnd" : 305,
            "sslEnd" : -1,
            "connectEnd" : 120,
            "connectStart" : 0,
            "id" : "download_32",
            "receivedTime" : "3396.34600000863",
            "sslStart" : -1,
            "dnsStart" : -1,
            "receiveLast" : 3091.34600000863,
            "s_time" : 2099.50100000424,
            "sendEnd" : 121,
            "sendStart" : 120,
            "type" : "image/jpeg"
         }
      },
      {
         "when_comp_start" : -1,
         "url" : "http://original.testbed.localhost/at.alicdn.com/t/font_1440660271_557765.woff",
         "id" : "r22",
         "comps" : [],
         "download" : {
            "receiveFirst" : 172,
            "len" : 26500,
            "dns" : 0,
            "dnsEnd" : -1,
            "receiveHeadersEnd" : 246,
            "sslEnd" : -1,
            "connectEnd" : 74,
            "connectStart" : 0,
            "id" : "download_33",
            "receivedTime" : "3414.59600000235",
            "sslStart" : -1,
            "dnsStart" : -1,
            "receiveLast" : 3168.59600000235,
            "s_time" : 2194.33500000741,
            "sendEnd" : 74,
            "sendStart" : 74,
            "type" : "application/octet-stream"
         }
      },
      {
         "when_comp_start" : -1,
         "url" : "http://original.testbed.localhost/img.alicdn.com/imgextra/i3/497245877/TB2mkwobFXXXXXbXXXXXXXXXXXX_!!497245877.jpg",
         "id" : "r52",
         "comps" : [],
         "download" : {
            "receiveFirst" : 180,
            "len" : 10572,
            "dns" : 0,
            "dnsEnd" : -1,
            "receiveHeadersEnd" : 356,
            "sslEnd" : -1,
            "connectEnd" : 176,
            "connectStart" : 0,
            "id" : "download_34",
            "receivedTime" : "3403.91400000954",
            "sslStart" : -1,
            "dnsStart" : -1,
            "receiveLast" : 3047.91400000954,
            "s_time" : 2104.38400000567,
            "sendEnd" : 176,
            "sendStart" : 176,
            "type" : "image/jpeg"
         }
      },
      {
         "when_comp_start" : -1,
         "url" : "http://original.testbed.localhost/img.alicdn.com/imgextra/i2/2095187778/TB2U97nbFXXXXc5XXXXXXXXXXXX_!!2095187778.png",
         "id" : "r53",
         "comps" : [],
         "download" : {
            "receiveFirst" : 184,
            "len" : 15084,
            "dns" : 0,
            "dnsEnd" : -1,
            "receiveHeadersEnd" : 359,
            "sslEnd" : -1,
            "connectEnd" : 175,
            "connectStart" : 0,
            "id" : "download_35",
            "receivedTime" : "3407.18000000925",
            "sslStart" : -1,
            "dnsStart" : -1,
            "receiveLast" : 3048.18000000925,
            "s_time" : 2124.43399999756,
            "sendEnd" : 175,
            "sendStart" : 175,
            "type" : "image/png"
         }
      },
      {
         "when_comp_start" : -1,
         "url" : "http://original.testbed.localhost/img.alicdn.com/tps/i1/TB1lQvaHXXXXXbuXVXXg4E80FXX-110-110.jpg",
         "id" : "r54",
         "comps" : [],
         "download" : {
            "receiveFirst" : 154,
            "len" : 6351,
            "dns" : 0,
            "dnsEnd" : -1,
            "receiveHeadersEnd" : 337,
            "sslEnd" : -1,
            "connectEnd" : 183,
            "connectStart" : 0,
            "id" : "download_36",
            "receivedTime" : "3409.92600000754",
            "sslStart" : -1,
            "dnsStart" : -1,
            "receiveLast" : 3072.92600000754,
            "s_time" : 2200.20900000236,
            "sendEnd" : 183,
            "sendStart" : 183,
            "type" : "image/jpeg"
         }
      },
      {
         "when_comp_start" : -1,
         "url" : "http://original.testbed.localhost/img.alicdn.com/tps/i2/TB1avnbHXXXXXcxXVXXg4E80FXX-110-110.jpg",
         "id" : "r55",
         "comps" : [],
         "download" : {
            "receiveFirst" : 162,
            "len" : 8541,
            "dns" : 0,
            "dnsEnd" : -1,
            "receiveHeadersEnd" : 351,
            "sslEnd" : -1,
            "connectEnd" : 188,
            "connectStart" : 0,
            "id" : "download_37",
            "receivedTime" : "3423.99500000465",
            "sslStart" : -1,
            "dnsStart" : -1,
            "receiveLast" : 3072.99500000465,
            "s_time" : 2203.9330000116,
            "sendEnd" : 189,
            "sendStart" : 188,
            "type" : "image/jpeg"
         }
      },
      {
         "when_comp_start" : -1,
         "url" : "http://original.testbed.localhost/img.alicdn.com/tps/i3/TB1shjiHXXXXXX4XpXXg4E80FXX-110-110.jpg",
         "id" : "r56",
         "comps" : [],
         "download" : {
            "receiveFirst" : 155,
            "len" : 7545,
            "dns" : 0,
            "dnsEnd" : -1,
            "receiveHeadersEnd" : 358,
            "sslEnd" : -1,
            "connectEnd" : 202,
            "connectStart" : 0,
            "id" : "download_38",
            "receivedTime" : "3414.04600000533",
            "sslStart" : -1,
            "dnsStart" : -1,
            "receiveLast" : 3056.04600000533,
            "s_time" : 2216.97900000436,
            "sendEnd" : 203,
            "sendStart" : 202,
            "type" : "image/jpeg"
         }
      },
      {
         "when_comp_start" : -1,
         "url" : "http://original.testbed.localhost/img.alicdn.com/tps/i4/TB1B2LmHXXXXXX9XXXXg4E80FXX-110-110.jpg",
         "id" : "r57",
         "comps" : [],
         "download" : {
            "receiveFirst" : 154,
            "len" : 6004,
            "dns" : 0,
            "dnsEnd" : -1,
            "receiveHeadersEnd" : 364,
            "sslEnd" : -1,
            "connectEnd" : 210,
            "connectStart" : 0,
            "id" : "download_39",
            "receivedTime" : "3419.35599999852",
            "sslStart" : -1,
            "dnsStart" : -1,
            "receiveLast" : 3055.35599999852,
            "s_time" : 2266.26499999838,
            "sendEnd" : 210,
            "sendStart" : 210,
            "type" : "image/jpeg"
         }
      },
      {
         "when_comp_start" : -1,
         "url" : "http://original.testbed.localhost/img.alicdn.com/tps/i4/TB1fNPkHXXXXXc7XXXXg4E80FXX-110-110.jpg",
         "id" : "r58",
         "comps" : [],
         "download" : {
            "receiveFirst" : 154,
            "len" : 8438,
            "dns" : 0,
            "dnsEnd" : -1,
            "receiveHeadersEnd" : 377,
            "sslEnd" : -1,
            "connectEnd" : 223,
            "connectStart" : 0,
            "id" : "download_40",
            "receivedTime" : "3421.43200000282",
            "sslStart" : -1,
            "dnsStart" : -1,
            "receiveLast" : 3044.43200000282,
            "s_time" : 2278.19700000691,
            "sendEnd" : 223,
            "sendStart" : 223,
            "type" : "image/jpeg"
         }
      },
      {
         "when_comp_start" : -1,
         "url" : "http://original.testbed.localhost/img.alicdn.com/tps/i3/TB1Z._XHXXXXXbvaXXXg4E80FXX-110-110.jpg",
         "id" : "r59",
         "comps" : [],
         "download" : {
            "receiveFirst" : 155,
            "len" : 5802,
            "dns" : 0,
            "dnsEnd" : -1,
            "receiveHeadersEnd" : 403,
            "sslEnd" : -1,
            "connectEnd" : 248,
            "connectStart" : 0,
            "id" : "download_41",
            "receivedTime" : "3423.11000000336",
            "sslStart" : -1,
            "dnsStart" : -1,
            "receiveLast" : 3020.11000000336,
            "s_time" : 2296.5380000096,
            "sendEnd" : 248,
            "sendStart" : 248,
            "type" : "image/jpeg"
         }
      },
      {
         "when_comp_start" : -1,
         "url" : "http://original.testbed.localhost/img.alicdn.com/tps/i1/TB1wUYmHXXXXXaKXXXXg4E80FXX-110-110.jpg",
         "id" : "r60",
         "comps" : [],
         "download" : {
            "receiveFirst" : 153,
            "len" : 5439,
            "dns" : 0,
            "dnsEnd" : -1,
            "receiveHeadersEnd" : 350,
            "sslEnd" : -1,
            "connectEnd" : 196,
            "connectStart" : 0,
            "id" : "download_42",
            "receivedTime" : "3429.4579999987",
            "sslStart" : -1,
            "dnsStart" : -1,
            "receiveLast" : 3079.4579999987,
            "s_time" : 2391.20399999956,
            "sendEnd" : 197,
            "sendStart" : 196,
            "type" : "image/jpeg"
         }
      },
      {
         "when_comp_start" : -1,
         "url" : "http://original.testbed.localhost/img.alicdn.com/tps/i2/TB1KBvnHXXXXXXRXXXXg4E80FXX-110-110.jpg",
         "id" : "r61",
         "comps" : [],
         "download" : {
            "receiveFirst" : 157,
            "len" : 4707,
            "dns" : 0,
            "dnsEnd" : -1,
            "receiveHeadersEnd" : 337,
            "sslEnd" : -1,
            "connectEnd" : 180,
            "connectStart" : 0,
            "id" : "download_43",
            "receivedTime" : "3432.54000000888",
            "sslStart" : -1,
            "dnsStart" : -1,
            "receiveLast" : 3095.54000000888,
            "s_time" : 2417.58600001049,
            "sendEnd" : 180,
            "sendStart" : 180,
            "type" : "image/jpeg"
         }
      },
      {
         "when_comp_start" : -1,
         "url" : "http://original.testbed.localhost/img.alicdn.com/tps/i3/TB1a7HmGpXXXXXIapXXg4E80FXX-110-110.jpg",
         "id" : "r62",
         "comps" : [],
         "download" : {
            "receiveFirst" : 154,
            "len" : 6501,
            "dns" : 0,
            "dnsEnd" : -1,
            "receiveHeadersEnd" : 317,
            "sslEnd" : -1,
            "connectEnd" : 163,
            "connectStart" : 0,
            "id" : "download_44",
            "receivedTime" : "3434.0050000028",
            "sslStart" : -1,
            "dnsStart" : -1,
            "receiveLast" : 3117.0050000028,
            "s_time" : 2473.89100000146,
            "sendEnd" : 163,
            "sendStart" : 163,
            "type" : "image/jpeg"
         }
      },
      {
         "when_comp_start" : -1,
         "url" : "http://original.testbed.localhost/img.alicdn.com/tps/i1/TB1lb6sGFXXXXcCaXXXg4E80FXX-110-110.jpg",
         "id" : "r63",
         "comps" : [],
         "download" : {
            "receiveFirst" : 421,
            "len" : 6203,
            "dns" : 0,
            "dnsEnd" : -1,
            "receiveHeadersEnd" : 589,
            "sslEnd" : -1,
            "connectEnd" : 167,
            "connectStart" : 0,
            "id" : "download_45",
            "receivedTime" : "3458.3879999991",
            "sslStart" : -1,
            "dnsStart" : -1,
            "receiveLast" : 2869.3879999991,
            "s_time" : 2499.87700000929,
            "sendEnd" : 168,
            "sendStart" : 167,
            "type" : "image/jpeg"
         }
      },
      {
         "when_comp_start" : -1,
         "url" : "http://original.testbed.localhost/img.alicdn.com/tps/i3/TB1m4nzGpXXXXXSXVXXg4E80FXX-110-110.jpg",
         "id" : "r64",
         "comps" : [],
         "download" : {
            "receiveFirst" : 385,
            "len" : 4332,
            "dns" : 0,
            "dnsEnd" : -1,
            "receiveHeadersEnd" : 548,
            "sslEnd" : -1,
            "connectEnd" : 163,
            "connectStart" : 0,
            "id" : "download_46",
            "receivedTime" : "3465.56000001146",
            "sslStart" : -1,
            "dnsStart" : -1,
            "receiveLast" : 2917.56000001146,
            "s_time" : 2543.15100000531,
            "sendEnd" : 163,
            "sendStart" : 163,
            "type" : "image/jpeg"
         }
      },
      {
         "when_comp_start" : -1,
         "url" : "http://original.testbed.localhost/img.alicdn.com/tps/i4/TB1URnvGpXXXXcWXVXXg4E80FXX-110-110.jpg",
         "id" : "r65",
         "comps" : [],
         "download" : {
            "receiveFirst" : 379,
            "len" : 5565,
            "dns" : 0,
            "dnsEnd" : -1,
            "receiveHeadersEnd" : 506,
            "sslEnd" : -1,
            "connectEnd" : 127,
            "connectStart" : 0,
            "id" : "download_47",
            "receivedTime" : "3466.38399999938",
            "sslStart" : -1,
            "dnsStart" : -1,
            "receiveLast" : 2960.38399999938,
            "s_time" : 2586.51600001031,
            "sendEnd" : 127,
            "sendStart" : 127,
            "type" : "image/jpeg"
         }
      },
      {
         "when_comp_start" : -1,
         "url" : "http://original.testbed.localhost/img.alicdn.com/tps/i4/TB1PibnHXXXXXXoXXXXg4E80FXX-110-110.jpg",
         "id" : "r66",
         "comps" : [],
         "download" : {
            "receiveFirst" : 348,
            "len" : 5116,
            "dns" : 0,
            "dnsEnd" : -1,
            "receiveHeadersEnd" : 459,
            "sslEnd" : -1,
            "connectEnd" : 111,
            "connectStart" : 0,
            "id" : "download_48",
            "receivedTime" : "3467.26900000067",
            "sslStart" : -1,
            "dnsStart" : -1,
            "receiveLast" : 3008.26900000067,
            "s_time" : 2635.77200000873,
            "sendEnd" : 111,
            "sendStart" : 111,
            "type" : "image/jpeg"
         }
      },
      {
         "when_comp_start" : -1,
         "url" : "http://original.testbed.localhost/img.alicdn.com/tps/i1/TB1hWTjHXXXXXXCXpXXg4E80FXX-110-110.jpg",
         "id" : "r67",
         "comps" : [],
         "download" : {
            "receiveFirst" : 337,
            "len" : 5231,
            "dns" : 0,
            "dnsEnd" : -1,
            "receiveHeadersEnd" : 431,
            "sslEnd" : -1,
            "connectEnd" : 94,
            "connectStart" : 0,
            "id" : "download_49",
            "receivedTime" : "3467.78800000902",
            "sslStart" : -1,
            "dnsStart" : -1,
            "receiveLast" : 3036.78800000902,
            "s_time" : 2666.02899999998,
            "sendEnd" : 94,
            "sendStart" : 94,
            "type" : "image/jpeg"
         }
      },
      {
         "when_comp_start" : -1,
         "url" : "http://original.testbed.localhost/img.alicdn.com/tps/i2/TB1lnLiHXXXXXaYXpXXg4E80FXX-110-110.jpg",
         "id" : "r68",
         "comps" : [],
         "download" : {
            "receiveFirst" : 301,
            "len" : 4237,
            "dns" : 0,
            "dnsEnd" : -1,
            "receiveHeadersEnd" : 395,
            "sslEnd" : -1,
            "connectEnd" : 94,
            "connectStart" : 0,
            "id" : "download_50",
            "receivedTime" : "3473.15900000103",
            "sslStart" : -1,
            "dnsStart" : -1,
            "receiveLast" : 3078.15900000103,
            "s_time" : 2704.54299999983,
            "sendEnd" : 94,
            "sendStart" : 94,
            "type" : "image/jpeg"
         }
      },
      {
         "when_comp_start" : -1,
         "url" : "http://original.testbed.localhost/img.alicdn.com/tps/i3/TB1fg_cHXXXXXcVXVXXg4E80FXX-110-110.jpg",
         "id" : "r69",
         "comps" : [],
         "download" : {
            "receiveFirst" : 153,
            "len" : 3029,
            "dns" : 0,
            "dnsEnd" : -1,
            "receiveHeadersEnd" : 554,
            "sslEnd" : -1,
            "connectEnd" : 401,
            "connectStart" : 0,
            "id" : "download_51",
            "receivedTime" : "3486.43400000583",
            "sslStart" : -1,
            "dnsStart" : -1,
            "receiveLast" : 2932.43400000583,
            "s_time" : 2711.95799999987,
            "sendEnd" : 401,
            "sendStart" : 401,
            "type" : "image/jpeg"
         }
      },
      {
         "when_comp_start" : -1,
         "url" : "http://original.testbed.localhost/img.alicdn.com/tps/i3/TB1vY2nHXXXXXbiXXXXg4E80FXX-110-110.jpg",
         "id" : "r70",
         "comps" : [],
         "download" : {
            "receiveFirst" : 164,
            "len" : 4262,
            "dns" : 0,
            "dnsEnd" : -1,
            "receiveHeadersEnd" : 536,
            "sslEnd" : -1,
            "connectEnd" : 372,
            "connectStart" : 0,
            "id" : "download_52",
            "receivedTime" : "3488.4180000081",
            "sslStart" : -1,
            "dnsStart" : -1,
            "receiveLast" : 2952.4180000081,
            "s_time" : 2745.43700000504,
            "sendEnd" : 372,
            "sendStart" : 372,
            "type" : "image/jpeg"
         }
      },
      {
         "when_comp_start" : -1,
         "url" : "http://original.testbed.localhost/img.alicdn.com/tps/i1/TB1IOPdHXXXXXXQXVXXg4E80FXX-110-110.jpg",
         "id" : "r71",
         "comps" : [],
         "download" : {
            "receiveFirst" : 167,
            "len" : 3647,
            "dns" : 0,
            "dnsEnd" : -1,
            "receiveHeadersEnd" : 529,
            "sslEnd" : -1,
            "connectEnd" : 362,
            "connectStart" : 0,
            "id" : "download_53",
            "receivedTime" : "3489.88200000895",
            "sslStart" : -1,
            "dnsStart" : -1,
            "receiveLast" : 2960.88200000895,
            "s_time" : 2758.87900000089,
            "sendEnd" : 362,
            "sendStart" : 362,
            "type" : "image/jpeg"
         }
      },
      {
         "when_comp_start" : -1,
         "url" : "http://original.testbed.localhost/img.alicdn.com/tps/i2/TB1EiLfHXXXXXcRXFXXg4E80FXX-110-110.jpg",
         "id" : "r72",
         "comps" : [],
         "download" : {
            "receiveFirst" : 176,
            "len" : 2652,
            "dns" : 0,
            "dnsEnd" : -1,
            "receiveHeadersEnd" : 503,
            "sslEnd" : -1,
            "connectEnd" : 327,
            "connectStart" : 0,
            "id" : "download_54",
            "receivedTime" : "3490.7979999989",
            "sslStart" : -1,
            "dnsStart" : -1,
            "receiveLast" : 2987.7979999989,
            "s_time" : 2797.19399999885,
            "sendEnd" : 327,
            "sendStart" : 327,
            "type" : "image/jpeg"
         }
      },
      {
         "when_comp_start" : -1,
         "url" : "http://original.testbed.localhost/img.alicdn.com/tps/i3/TB1yxbbHXXXXXacaXXXg4E80FXX-110-110.jpg",
         "id" : "r73",
         "comps" : [],
         "download" : {
            "receiveFirst" : 186,
            "len" : 3779,
            "dns" : 0,
            "dnsEnd" : -1,
            "receiveHeadersEnd" : 219,
            "sslEnd" : -1,
            "connectEnd" : 33,
            "connectStart" : 0,
            "id" : "download_55",
            "receivedTime" : "3564.13199999952",
            "sslStart" : -1,
            "dnsStart" : -1,
            "receiveLast" : 3345.13199999952,
            "s_time" : 3112.2580000083,
            "sendEnd" : 33,
            "sendStart" : 33,
            "type" : "image/jpeg"
         }
      },
      {
         "when_comp_start" : -1,
         "url" : "http://original.testbed.localhost/img.alicdn.com/tps/i1/TB1akTlHXXXXXXkXpXXg4E80FXX-110-110.jpg",
         "id" : "r74",
         "comps" : [],
         "download" : {
            "receiveFirst" : 188,
            "len" : 4498,
            "dns" : 0,
            "dnsEnd" : -1,
            "receiveHeadersEnd" : 220,
            "sslEnd" : -1,
            "connectEnd" : 32,
            "connectStart" : 0,
            "id" : "download_56",
            "receivedTime" : "3564.68100000347",
            "sslStart" : -1,
            "dnsStart" : -1,
            "receiveLast" : 3344.68100000347,
            "s_time" : 3116.01100000553,
            "sendEnd" : 32,
            "sendStart" : 32,
            "type" : "image/jpeg"
         }
      },
      {
         "when_comp_start" : -1,
         "url" : "http://original.testbed.localhost/img.alicdn.com/tps/i4/TB1Irf9GVXXXXXcapXXg4E80FXX-110-110.jpg",
         "id" : "r75",
         "comps" : [],
         "download" : {
            "receiveFirst" : 156,
            "len" : 7708,
            "dns" : 0,
            "dnsEnd" : -1,
            "receiveHeadersEnd" : 307,
            "sslEnd" : -1,
            "connectEnd" : 151,
            "connectStart" : 0,
            "id" : "download_57",
            "receivedTime" : "3567.2140000097",
            "sslStart" : -1,
            "dnsStart" : -1,
            "receiveLast" : 3260.2140000097,
            "s_time" : 3119.78000000818,
            "sendEnd" : 151,
            "sendStart" : 151,
            "type" : "image/jpeg"
         }
      },
      {
         "when_comp_start" : -1,
         "url" : "http://original.testbed.localhost/img.alicdn.com/tps/i2/TB14nbhHXXXXXXtXFXXg4E80FXX-110-110.jpg",
         "id" : "r76",
         "comps" : [],
         "download" : {
            "receiveFirst" : 166,
            "len" : 6967,
            "dns" : 0,
            "dnsEnd" : -1,
            "receiveHeadersEnd" : 335,
            "sslEnd" : -1,
            "connectEnd" : 168,
            "connectStart" : 0,
            "id" : "download_58",
            "receivedTime" : "3568.86200000008",
            "sslStart" : -1,
            "dnsStart" : -1,
            "receiveLast" : 3233.86200000008,
            "s_time" : 3124.22100000549,
            "sendEnd" : 169,
            "sendStart" : 168,
            "type" : "image/jpeg"
         }
      },
      {
         "when_comp_start" : -1,
         "url" : "http://original.testbed.localhost/img.alicdn.com/tps/i3/TB1zyDoHXXXXXXpXXXXg4E80FXX-110-110.jpg",
         "id" : "r77",
         "comps" : [],
         "download" : {
            "receiveFirst" : 176,
            "len" : 7935,
            "dns" : 0,
            "dnsEnd" : -1,
            "receiveHeadersEnd" : 355,
            "sslEnd" : -1,
            "connectEnd" : 179,
            "connectStart" : 0,
            "id" : "download_59",
            "receivedTime" : "3572.43300000846",
            "sslStart" : -1,
            "dnsStart" : -1,
            "receiveLast" : 3217.43300000846,
            "s_time" : 3126.7380000063,
            "sendEnd" : 179,
            "sendStart" : 179,
            "type" : "image/jpeg"
         }
      },
      {
         "when_comp_start" : -1,
         "url" : "http://original.testbed.localhost/img.alicdn.com/tps/i4/TB113Y3JpXXXXcyXXXX4Q5_GpXX-700-482.jpg",
         "id" : "r78",
         "comps" : [],
         "download" : {
            "receiveFirst" : 173,
            "len" : 158459,
            "dns" : 0,
            "dnsEnd" : -1,
            "receiveHeadersEnd" : 366,
            "sslEnd" : -1,
            "connectEnd" : 193,
            "connectStart" : 0,
            "id" : "download_60",
            "receivedTime" : "5777.9070000106",
            "sslStart" : -1,
            "dnsStart" : -1,
            "receiveLast" : 5411.9070000106,
            "s_time" : 3130.94899999851,
            "sendEnd" : 193,
            "sendStart" : 193,
            "type" : "image/jpeg"
         }
      },
      {
         "when_comp_start" : -1,
         "url" : "http://original.testbed.localhost/at.alicdn.com/t/font_1433225452_0164654.woff",
         "id" : "r107",
         "comps" : [],
         "download" : {
            "receiveFirst" : 157,
            "len" : 11328,
            "dns" : 0,
            "dnsEnd" : -1,
            "receiveHeadersEnd" : 184,
            "sslEnd" : -1,
            "connectEnd" : 27,
            "connectStart" : 0,
            "id" : "download_61",
            "receivedTime" : "3576.03399999789",
            "sslStart" : -1,
            "dnsStart" : -1,
            "receiveLast" : 3392.03399999789,
            "s_time" : 3327.5580000045,
            "sendEnd" : 27,
            "sendStart" : 27,
            "type" : "application/octet-stream"
         }
      },
      {
         "when_comp_start" : -1,
         "url" : "http://original.testbed.localhost/img.alicdn.com/tps/i4/TB1zr5aJpXXXXXlXpXXWEcQNVXX-400-482.png",
         "id" : "r79",
         "comps" : [],
         "download" : {
            "receiveFirst" : 169,
            "len" : 44688,
            "dns" : 0,
            "dnsEnd" : -1,
            "receiveHeadersEnd" : 257,
            "sslEnd" : -1,
            "connectEnd" : 88,
            "connectStart" : 0,
            "id" : "download_62",
            "receivedTime" : "3874.34300000314",
            "sslStart" : -1,
            "dnsStart" : -1,
            "receiveLast" : 3617.34300000314,
            "s_time" : 3269.02600000903,
            "sendEnd" : 88,
            "sendStart" : 88,
            "type" : "image/png"
         }
      },
      {
         "when_comp_start" : -1,
         "url" : "http://original.testbed.localhost/img.alicdn.com/tps/i2/TB1w2tOJpXXXXXXaXXXWEcQNVXX-400-482.png",
         "id" : "r80",
         "comps" : [],
         "download" : {
            "receiveFirst" : 153,
            "len" : 39645,
            "dns" : 0,
            "dnsEnd" : -1,
            "receiveHeadersEnd" : 309,
            "sslEnd" : -1,
            "connectEnd" : 155,
            "connectStart" : 0,
            "id" : "download_63",
            "receivedTime" : "3917.61699999915",
            "sslStart" : -1,
            "dnsStart" : -1,
            "receiveLast" : 3608.61699999915,
            "s_time" : 3290.5410000094,
            "sendEnd" : 156,
            "sendStart" : 155,
            "type" : "image/png"
         }
      },
      {
         "when_comp_start" : -1,
         "url" : "http://original.testbed.localhost/img.alicdn.com/tps/i1/TB1vlWdJpXXXXbcXXXX.QRcTXXX-200-120.png",
         "id" : "r81",
         "comps" : [],
         "download" : {
            "receiveFirst" : 154,
            "len" : 13417,
            "dns" : 0,
            "dnsEnd" : -1,
            "receiveHeadersEnd" : 328,
            "sslEnd" : -1,
            "connectEnd" : 174,
            "connectStart" : 0,
            "id" : "download_64",
            "receivedTime" : "3816.93900001119",
            "sslStart" : -1,
            "dnsStart" : -1,
            "receiveLast" : 3488.93900001119,
            "s_time" : 3305.06800000148,
            "sendEnd" : 174,
            "sendStart" : 174,
            "type" : "image/png"
         }
      },
      {
         "when_comp_start" : -1,
         "url" : "http://original.testbed.localhost/img.alicdn.com/tps/i3/TB1q5x0JpXXXXbgXFXX.QRcTXXX-200-120.png",
         "id" : "r82",
         "comps" : [],
         "download" : {
            "receiveFirst" : 174,
            "len" : 14007,
            "dns" : 0,
            "dnsEnd" : -1,
            "receiveHeadersEnd" : 353,
            "sslEnd" : -1,
            "connectEnd" : 179,
            "connectStart" : 0,
            "id" : "download_65",
            "receivedTime" : "3911.72699999879",
            "sslStart" : -1,
            "dnsStart" : -1,
            "receiveLast" : 3558.72699999879,
            "s_time" : 3320.78500000353,
            "sendEnd" : 179,
            "sendStart" : 179,
            "type" : "image/png"
         }
      },
      {
         "when_comp_start" : -1,
         "url" : "http://original.testbed.localhost/assets.alicdn.com/apps/mytaobao/3.0/profile/defaultAvatar/avatar-60.png",
         "id" : "r83",
         "comps" : [],
         "download" : {
            "receiveFirst" : 164,
            "len" : 3535,
            "dns" : 0,
            "dnsEnd" : -1,
            "receiveHeadersEnd" : 337,
            "sslEnd" : -1,
            "connectEnd" : 173,
            "connectStart" : 0,
            "id" : "download_66",
            "receivedTime" : "3869.30800000846",
            "sslStart" : -1,
            "dnsStart" : -1,
            "receiveLast" : 3532.30800000846,
            "s_time" : 3351.94200000842,
            "sendEnd" : 173,
            "sendStart" : 173,
            "type" : "image/png"
         }
      },
      {
         "when_comp_start" : -1,
         "url" : "http://original.testbed.localhost/img.alicdn.com/tps/i1/TB18R9VHXXXXXXXapXXwu0bFXXX.png",
         "id" : "r84",
         "comps" : [],
         "download" : {
            "receiveFirst" : 157,
            "len" : 1677,
            "dns" : 0,
            "dnsEnd" : -1,
            "receiveHeadersEnd" : 453,
            "sslEnd" : -1,
            "connectEnd" : 296,
            "connectStart" : 0,
            "id" : "download_67",
            "receivedTime" : "3908.88899999845",
            "sslStart" : -1,
            "dnsStart" : -1,
            "receiveLast" : 3455.88899999845,
            "s_time" : 3357.0550000004,
            "sendEnd" : 296,
            "sendStart" : 296,
            "type" : "image/png"
         }
      },
      {
         "when_comp_start" : -1,
         "url" : "http://original.testbed.localhost/img.alicdn.com/tps/i4/TB1VfmkHpXXXXboXFXXwu0bFXXX.png",
         "id" : "r85",
         "comps" : [],
         "download" : {
            "receiveFirst" : 153,
            "len" : 1838,
            "dns" : 0,
            "dnsEnd" : -1,
            "receiveHeadersEnd" : 424,
            "sslEnd" : -1,
            "connectEnd" : 270,
            "connectStart" : 0,
            "id" : "download_68",
            "receivedTime" : "3914.29000000062",
            "sslStart" : -1,
            "dnsStart" : -1,
            "receiveLast" : 3490.29000000062,
            "s_time" : 3433.75999999989,
            "sendEnd" : 271,
            "sendStart" : 270,
            "type" : "image/png"
         }
      },
      {
         "when_comp_start" : -1,
         "url" : "http://original.testbed.localhost/img.alicdn.com/tps/i2/TB1dBupHpXXXXclXXXXwu0bFXXX.png",
         "id" : "r86",
         "comps" : [],
         "download" : {
            "receiveFirst" : 155,
            "len" : 1616,
            "dns" : 0,
            "dnsEnd" : -1,
            "receiveHeadersEnd" : 407,
            "sslEnd" : -1,
            "connectEnd" : 252,
            "connectStart" : 0,
            "id" : "download_69",
            "receivedTime" : "3916.15200000524",
            "sslStart" : -1,
            "dnsStart" : -1,
            "receiveLast" : 3509.15200000524,
            "s_time" : 3476.85099999944,
            "sendEnd" : 252,
            "sendStart" : 252,
            "type" : "image/png"
         }
      },
      {
         "when_comp_start" : -1,
         "url" : "http://original.testbed.localhost/img.alicdn.com/tps/i2/TB1sV5nHpXXXXb6XpXXwu0bFXXX.png",
         "id" : "r87",
         "comps" : [],
         "download" : {
            "receiveFirst" : 153,
            "len" : 1896,
            "dns" : 0,
            "dnsEnd" : -1,
            "receiveHeadersEnd" : 472,
            "sslEnd" : -1,
            "connectEnd" : 319,
            "connectStart" : 0,
            "id" : "download_70",
            "receivedTime" : "4019.54600001045",
            "sslStart" : -1,
            "dnsStart" : -1,
            "receiveLast" : 3547.54600001045,
            "s_time" : 3498.29000000318,
            "sendEnd" : 319,
            "sendStart" : 319,
            "type" : "image/png"
         }
      },
      {
         "when_comp_start" : -1,
         "url" : "http://original.testbed.localhost/img.alicdn.com/tps/i3/TB1juijHpXXXXXwXVXXwu0bFXXX.png",
         "id" : "r88",
         "comps" : [],
         "download" : {
            "receiveFirst" : 154,
            "len" : 1465,
            "dns" : 0,
            "dnsEnd" : -1,
            "receiveHeadersEnd" : 335,
            "sslEnd" : -1,
            "connectEnd" : 181,
            "connectStart" : 0,
            "id" : "download_71",
            "receivedTime" : "4020.76600000146",
            "sslStart" : -1,
            "dnsStart" : -1,
            "receiveLast" : 3685.76600000146,
            "s_time" : 3651.32000000449,
            "sendEnd" : 181,
            "sendStart" : 181,
            "type" : "image/png"
         }
      },
      {
         "when_comp_start" : -1,
         "url" : "http://original.testbed.localhost/img.alicdn.com/tps/i4/TB1zL5mHpXXXXXjXFXXwu0bFXXX.png",
         "id" : "r89",
         "comps" : [],
         "download" : {
            "receiveFirst" : 155,
            "len" : 1364,
            "dns" : 0,
            "dnsEnd" : -1,
            "receiveHeadersEnd" : 318,
            "sslEnd" : -1,
            "connectEnd" : 163,
            "connectStart" : 0,
            "id" : "download_72",
            "receivedTime" : "4040.84700001113",
            "sslStart" : -1,
            "dnsStart" : -1,
            "receiveLast" : 3722.84700001113,
            "s_time" : 3700.05700000911,
            "sendEnd" : 163,
            "sendStart" : 163,
            "type" : "image/png"
         }
      },
      {
         "when_comp_start" : -1,
         "url" : "http://original.testbed.localhost/img.alicdn.com/tps/i1/TB16b9nHpXXXXbZXpXXwu0bFXXX.png",
         "id" : "r90",
         "comps" : [],
         "download" : {
            "receiveFirst" : 180,
            "len" : 1207,
            "dns" : 0,
            "dnsEnd" : -1,
            "receiveHeadersEnd" : 341,
            "sslEnd" : -1,
            "connectEnd" : 161,
            "connectStart" : 0,
            "id" : "download_73",
            "receivedTime" : "4084.36500000244",
            "sslStart" : -1,
            "dnsStart" : -1,
            "receiveLast" : 3743.36500000244,
            "s_time" : 3728.49900000438,
            "sendEnd" : 161,
            "sendStart" : 161,
            "type" : "image/png"
         }
      },
      {
         "when_comp_start" : -1,
         "url" : "http://original.testbed.localhost/img.alicdn.com/tps/i2/TB1xbKoHpXXXXXLXpXXwu0bFXXX.png",
         "id" : "r91",
         "comps" : [],
         "download" : {
            "receiveFirst" : 185,
            "len" : 1571,
            "dns" : 0,
            "dnsEnd" : -1,
            "receiveHeadersEnd" : 277,
            "sslEnd" : -1,
            "connectEnd" : 92,
            "connectStart" : 0,
            "id" : "download_74",
            "receivedTime" : "4144.48500001163",
            "sslStart" : -1,
            "dnsStart" : -1,
            "receiveLast" : 3867.48500001163,
            "s_time" : 3813.79600000218,
            "sendEnd" : 92,
            "sendStart" : 92,
            "type" : "image/png"
         }
      },
      {
         "when_comp_start" : -1,
         "url" : "http://original.testbed.localhost/img.alicdn.com/tps/i1/TB1.J1mHpXXXXalXFXXwu0bFXXX.png",
         "id" : "r92",
         "comps" : [],
         "download" : {
            "receiveFirst" : 153,
            "len" : 2230,
            "dns" : 0,
            "dnsEnd" : -1,
            "receiveHeadersEnd" : 298,
            "sslEnd" : -1,
            "connectEnd" : 144,
            "connectStart" : 0,
            "id" : "download_75",
            "receivedTime" : "4147.35300000757",
            "sslStart" : -1,
            "dnsStart" : -1,
            "receiveLast" : 3849.35300000757,
            "s_time" : 3831.17600000696,
            "sendEnd" : 145,
            "sendStart" : 144,
            "type" : "image/png"
         }
      },
      {
         "when_comp_start" : -1,
         "url" : "http://original.testbed.localhost/img.alicdn.com/tps/i4/TB15CpWHXXXXXaFXpXXwu0bFXXX.png",
         "id" : "r93",
         "comps" : [],
         "download" : {
            "receiveFirst" : 155,
            "len" : 37135,
            "dns" : 0,
            "dnsEnd" : -1,
            "receiveHeadersEnd" : 285,
            "sslEnd" : -1,
            "connectEnd" : 130,
            "connectStart" : 0,
            "id" : "download_76",
            "receivedTime" : "4772.26199999859",
            "sslStart" : -1,
            "dnsStart" : -1,
            "receiveLast" : 4487.26199999859,
            "s_time" : 3861.15900000732,
            "sendEnd" : 130,
            "sendStart" : 130,
            "type" : "image/png"
         }
      },
      {
         "when_comp_start" : -1,
         "url" : "http://original.testbed.localhost/img.alicdn.com/tps/i2/TB1hRT3JpXXXXanXVXXSgLWZVXX-290-420.jpg",
         "id" : "r95",
         "comps" : [],
         "download" : {
            "receiveFirst" : 153,
            "len" : 55456,
            "dns" : 0,
            "dnsEnd" : -1,
            "receiveHeadersEnd" : 293,
            "sslEnd" : -1,
            "connectEnd" : 140,
            "connectStart" : 0,
            "id" : "download_77",
            "receivedTime" : "4594.1610000009",
            "sslStart" : -1,
            "dnsStart" : -1,
            "receiveLast" : 4301.1610000009,
            "s_time" : 3887.05299999856,
            "sendEnd" : 140,
            "sendStart" : 140,
            "type" : "image/jpeg"
         }
      },
      {
         "when_comp_start" : -1,
         "url" : "http://original.testbed.localhost/img.alicdn.com/tps/i2/TB1rSIuIVXXXXXcapXXSgLWZVXX-290-420.jpg",
         "id" : "r96",
         "comps" : [],
         "download" : {
            "receiveFirst" : 154,
            "len" : 46169,
            "dns" : 0,
            "dnsEnd" : -1,
            "receiveHeadersEnd" : 336,
            "sslEnd" : -1,
            "connectEnd" : 181,
            "connectStart" : 0,
            "id" : "download_78",
            "receivedTime" : "4451.67400001083",
            "sslStart" : -1,
            "dnsStart" : -1,
            "receiveLast" : 4115.67400001083,
            "s_time" : 3903.53200001118,
            "sendEnd" : 182,
            "sendStart" : 181,
            "type" : "image/jpeg"
         }
      },
      {
         "when_comp_start" : -1,
         "url" : "http://original.testbed.localhost/img.alicdn.com/tps/i3/TB1YIEPIVXXXXbWXpXXSgLWZVXX-290-420.jpg",
         "id" : "r97",
         "comps" : [],
         "download" : {
            "receiveFirst" : 183,
            "len" : 45751,
            "dns" : 0,
            "dnsEnd" : -1,
            "receiveHeadersEnd" : 312,
            "sslEnd" : -1,
            "connectEnd" : 128,
            "connectStart" : 0,
            "id" : "download_79",
            "receivedTime" : "4491.28600000404",
            "sslStart" : -1,
            "dnsStart" : -1,
            "receiveLast" : 4179.28600000404,
            "s_time" : 3974.45600001083,
            "sendEnd" : 129,
            "sendStart" : 128,
            "type" : "image/jpeg"
         }
      },
      {
         "when_comp_start" : -1,
         "url" : "http://original.testbed.localhost/img.alicdn.com/tps/i1/TB1TyT3JXXXXXbsXpXXwhfWZVXX-290-420.png",
         "id" : "r98",
         "comps" : [],
         "download" : {
            "receiveFirst" : 207,
            "len" : 143424,
            "dns" : 0,
            "dnsEnd" : -1,
            "receiveHeadersEnd" : 351,
            "sslEnd" : -1,
            "connectEnd" : 144,
            "connectStart" : 0,
            "id" : "download_80",
            "receivedTime" : "5200.48400000087",
            "sslStart" : -1,
            "dnsStart" : -1,
            "receiveLast" : 4849.48400000087,
            "s_time" : 3989.24200001056,
            "sendEnd" : 144,
            "sendStart" : 144,
            "type" : "image/png"
         }
      },
      {
         "when_comp_start" : -1,
         "url" : "http://original.testbed.localhost/img.alicdn.com/tps/i4/TB14nhUIVXXXXXAXpXXlu.FQpXX-300-124.png",
         "id" : "r105",
         "comps" : [],
         "download" : {
            "receiveFirst" : 154,
            "len" : 12573,
            "dns" : 0,
            "dnsEnd" : -1,
            "receiveHeadersEnd" : 543,
            "sslEnd" : -1,
            "connectEnd" : 389,
            "connectStart" : 0,
            "id" : "download_81",
            "receivedTime" : "4623.18300000334",
            "sslStart" : -1,
            "dnsStart" : -1,
            "receiveLast" : 4080.18300000334,
            "s_time" : 4064.4680000114,
            "sendEnd" : 389,
            "sendStart" : 389,
            "type" : "image/png"
         }
      },
      {
         "when_comp_start" : -1,
         "url" : "http://original.testbed.localhost/img.alicdn.com/tps/i3/TB1AWdZHXXXXXXzXXXXsH1j1pXX-1000-888.png",
         "id" : "r106",
         "comps" : [],
         "download" : {
            "receiveFirst" : 171,
            "len" : 54184,
            "dns" : 0,
            "dnsEnd" : -1,
            "receiveHeadersEnd" : 579,
            "sslEnd" : -1,
            "connectEnd" : 407,
            "connectStart" : 0,
            "id" : "download_82",
            "receivedTime" : "5000.83800000721",
            "sslStart" : -1,
            "dnsStart" : -1,
            "receiveLast" : 4421.83800000721,
            "s_time" : 4084.74600000773,
            "sendEnd" : 408,
            "sendStart" : 407,
            "type" : "image/png"
         }
      },
      {
         "when_comp_start" : -1,
         "url" : "http://original.testbed.localhost/img.alicdn.com/tps/i3/TB1_CjqIpXXXXbOXFXXuAZJYXXX-180-180.png",
         "id" : "r100",
         "comps" : [],
         "download" : {
            "receiveFirst" : 215,
            "len" : 4827,
            "dns" : 0,
            "dnsEnd" : -1,
            "receiveHeadersEnd" : 709,
            "sslEnd" : -1,
            "connectEnd" : 494,
            "connectStart" : 0,
            "id" : "download_83",
            "receivedTime" : "4844.19200000411",
            "sslStart" : -1,
            "dnsStart" : -1,
            "receiveLast" : 4135.19200000411,
            "s_time" : 4101.48500000651,
            "sendEnd" : 494,
            "sendStart" : 494,
            "type" : "image/png"
         }
      },
      {
         "when_comp_start" : -1,
         "url" : "http://original.testbed.localhost/img.alicdn.com/tps/i1/TB156oWHpXXXXXIapXX_cBKGXXX-32-48.png",
         "id" : "r101",
         "comps" : [],
         "download" : {
            "receiveFirst" : 193,
            "len" : 801,
            "dns" : 0,
            "dnsEnd" : -1,
            "receiveHeadersEnd" : 686,
            "sslEnd" : -1,
            "connectEnd" : 493,
            "connectStart" : 0,
            "id" : "download_84",
            "receivedTime" : "4823.56200000504",
            "sslStart" : -1,
            "dnsStart" : -1,
            "receiveLast" : 4137.56200000504,
            "s_time" : 4131.01000001188,
            "sendEnd" : 493,
            "sendStart" : 493,
            "type" : "image/png"
         }
      },
      {
         "when_comp_start" : -1,
         "url" : "http://original.testbed.localhost/img.alicdn.com/tps/i2/TB14PwNIVXXXXbTXpXXqhF6.FXX-901-45.png",
         "id" : "r102",
         "comps" : [],
         "download" : {
            "receiveFirst" : 169,
            "len" : 35718,
            "dns" : 0,
            "dnsEnd" : -1,
            "receiveHeadersEnd" : 495,
            "sslEnd" : -1,
            "connectEnd" : 326,
            "connectStart" : 0,
            "id" : "download_85",
            "receivedTime" : "5293.83799999778",
            "sslStart" : -1,
            "dnsStart" : -1,
            "receiveLast" : 4798.83799999778,
            "s_time" : 4451.67400001083,
            "sendEnd" : 326,
            "sendStart" : 326,
            "type" : "image/png"
         }
      },
      {
         "when_comp_start" : -1,
         "url" : "http://original.testbed.localhost/gtms03.alicdn.com/tps/i3/TB1OMhvIVXXXXbsXVXXD1MBIXXX-190-80.png",
         "id" : "r110",
         "comps" : [],
         "download" : {
            "receiveFirst" : 154,
            "len" : 7767,
            "dns" : 0,
            "dnsEnd" : -1,
            "receiveHeadersEnd" : 488,
            "sslEnd" : -1,
            "connectEnd" : 334,
            "connectStart" : 0,
            "id" : "download_86",
            "receivedTime" : "4992.53800000588",
            "sslStart" : -1,
            "dnsStart" : -1,
            "receiveLast" : 4504.53800000588,
            "s_time" : 4490.76700001024,
            "sendEnd" : 334,
            "sendStart" : 334,
            "type" : "image/png"
         }
      }
   ],
   "deps" : [
      {
         "a2" : "r1_c2",
         "time" : -1,
         "id" : "dep1",
         "a1" : "comp_5"
      },
      {
         "a2" : "r1_c3",
         "time" : -1,
         "id" : "dep2",
         "a1" : "comp_9"
      },
      {
         "a2" : "r1_c4",
         "time" : -1,
         "id" : "dep3",
         "a1" : "comp_11"
      },
      {
         "a2" : "comp_5",
         "time" : -1,
         "id" : "dep4",
         "a1" : "comp_3"
      },
      {
         "a2" : "comp_11",
         "time" : -1,
         "id" : "dep5",
         "a1" : "comp_9"
      },
      {
         "a2" : "download_86",
         "time" : -1,
         "id" : "dep6",
         "a1" : "r1_c4"
      },
      {
         "a2" : "download_85",
         "time" : 2994.04900000082,
         "id" : "dep7",
         "a1" : "r1_c4"
      },
      {
         "a2" : "download_84",
         "time" : 2673.38500000187,
         "id" : "dep8",
         "a1" : "r1_c4"
      },
      {
         "a2" : "download_83",
         "time" : 2643.8599999965,
         "id" : "dep9",
         "a1" : "r1_c4"
      },
      {
         "a2" : "download_82",
         "time" : 2627.12099999772,
         "id" : "dep10",
         "a1" : "r1_c4"
      },
      {
         "a2" : "download_81",
         "time" : 2606.84300000139,
         "id" : "dep11",
         "a1" : "r1_c4"
      },
      {
         "a2" : "download_80",
         "time" : 2531.61700000055,
         "id" : "dep12",
         "a1" : "r1_c4"
      },
      {
         "a2" : "download_79",
         "time" : 2516.83100000082,
         "id" : "dep13",
         "a1" : "r1_c4"
      },
      {
         "a2" : "download_78",
         "time" : 2445.90700000117,
         "id" : "dep14",
         "a1" : "r1_c4"
      },
      {
         "a2" : "download_77",
         "time" : 2429.42799998855,
         "id" : "dep15",
         "a1" : "r1_c4"
      },
      {
         "a2" : "download_76",
         "time" : 2403.53399999731,
         "id" : "dep16",
         "a1" : "r1_c4"
      },
      {
         "a2" : "download_75",
         "time" : 2373.55099999695,
         "id" : "dep17",
         "a1" : "r1_c4"
      },
      {
         "a2" : "download_74",
         "time" : 2356.17099999217,
         "id" : "dep18",
         "a1" : "r1_c4"
      },
      {
         "a2" : "download_73",
         "time" : 2270.87399999437,
         "id" : "dep19",
         "a1" : "r1_c4"
      },
      {
         "a2" : "download_72",
         "time" : 2242.4319999991,
         "id" : "dep20",
         "a1" : "r1_c4"
      },
      {
         "a2" : "download_71",
         "time" : 2193.69499999448,
         "id" : "dep21",
         "a1" : "r1_c4"
      },
      {
         "a2" : "download_70",
         "time" : 2040.66499999317,
         "id" : "dep22",
         "a1" : "r1_c4"
      },
      {
         "a2" : "download_69",
         "time" : 2019.22599998943,
         "id" : "dep23",
         "a1" : "r1_c4"
      },
      {
         "a2" : "download_68",
         "time" : 1976.13499998988,
         "id" : "dep24",
         "a1" : "r1_c4"
      },
      {
         "a2" : "download_67",
         "time" : 1899.42999999039,
         "id" : "dep25",
         "a1" : "r1_c4"
      },
      {
         "a2" : "download_66",
         "time" : 1894.31699999841,
         "id" : "dep26",
         "a1" : "r1_c4"
      },
      {
         "a2" : "download_65",
         "time" : 1863.15999999352,
         "id" : "dep27",
         "a1" : "r1_c4"
      },
      {
         "a2" : "download_64",
         "time" : 1847.44299999147,
         "id" : "dep28",
         "a1" : "r1_c4"
      },
      {
         "a2" : "download_63",
         "time" : 1832.91599999939,
         "id" : "dep29",
         "a1" : "r1_c4"
      },
      {
         "a2" : "download_62",
         "time" : 1811.40099999902,
         "id" : "dep30",
         "a1" : "r1_c4"
      },
      {
         "a2" : "download_61",
         "time" : 1869.93299999449,
         "id" : "dep31",
         "a1" : "r1_c4"
      },
      {
         "a2" : "download_60",
         "time" : 1673.3239999885,
         "id" : "dep32",
         "a1" : "r1_c4"
      },
      {
         "a2" : "download_59",
         "time" : 1669.11299999629,
         "id" : "dep33",
         "a1" : "r1_c4"
      },
      {
         "a2" : "download_58",
         "time" : 1666.59599999548,
         "id" : "dep34",
         "a1" : "r1_c4"
      },
      {
         "a2" : "download_57",
         "time" : 1662.15499999817,
         "id" : "dep35",
         "a1" : "r1_c4"
      },
      {
         "a2" : "download_56",
         "time" : 1658.38599999552,
         "id" : "dep36",
         "a1" : "r1_c4"
      },
      {
         "a2" : "download_55",
         "time" : 1654.63299999829,
         "id" : "dep37",
         "a1" : "r1_c4"
      },
      {
         "a2" : "download_54",
         "time" : 1339.56899998884,
         "id" : "dep38",
         "a1" : "r1_c4"
      },
      {
         "a2" : "download_53",
         "time" : 1301.25399999088,
         "id" : "dep39",
         "a1" : "r1_c4"
      },
      {
         "a2" : "download_52",
         "time" : 1287.81199999503,
         "id" : "dep40",
         "a1" : "r1_c4"
      },
      {
         "a2" : "download_51",
         "time" : 1254.33299998986,
         "id" : "dep41",
         "a1" : "r1_c4"
      },
      {
         "a2" : "download_50",
         "time" : 1246.91799998982,
         "id" : "dep42",
         "a1" : "r1_c4"
      },
      {
         "a2" : "download_49",
         "time" : 1208.40399998997,
         "id" : "dep43",
         "a1" : "r1_c4"
      },
      {
         "a2" : "download_48",
         "time" : 1178.14699999872,
         "id" : "dep44",
         "a1" : "r1_c4"
      },
      {
         "a2" : "download_47",
         "time" : 1128.8910000003,
         "id" : "dep45",
         "a1" : "r1_c4"
      },
      {
         "a2" : "download_46",
         "time" : 1085.5259999953,
         "id" : "dep46",
         "a1" : "r1_c4"
      },
      {
         "a2" : "download_45",
         "time" : 1042.25199999928,
         "id" : "dep47",
         "a1" : "r1_c4"
      },
      {
         "a2" : "download_44",
         "time" : 1016.26599999145,
         "id" : "dep48",
         "a1" : "r1_c4"
      },
      {
         "a2" : "download_43",
         "time" : 959.96100000048,
         "id" : "dep49",
         "a1" : "r1_c4"
      },
      {
         "a2" : "download_42",
         "time" : 933.57899998955,
         "id" : "dep50",
         "a1" : "r1_c4"
      },
      {
         "a2" : "download_41",
         "time" : 838.91299999959,
         "id" : "dep51",
         "a1" : "r1_c4"
      },
      {
         "a2" : "download_40",
         "time" : 820.5719999969,
         "id" : "dep52",
         "a1" : "r1_c4"
      },
      {
         "a2" : "download_39",
         "time" : 808.63999998837,
         "id" : "dep53",
         "a1" : "r1_c4"
      },
      {
         "a2" : "download_38",
         "time" : 759.35399999435,
         "id" : "dep54",
         "a1" : "r1_c4"
      },
      {
         "a2" : "download_37",
         "time" : 746.30800000159,
         "id" : "dep55",
         "a1" : "r1_c4"
      },
      {
         "a2" : "download_36",
         "time" : 742.58399999235,
         "id" : "dep56",
         "a1" : "r1_c4"
      },
      {
         "a2" : "download_35",
         "time" : 666.80899998755,
         "id" : "dep57",
         "a1" : "r1_c4"
      },
      {
         "a2" : "download_34",
         "time" : 646.75899999566,
         "id" : "dep58",
         "a1" : "r1_c4"
      },
      {
         "a2" : "download_33",
         "time" : 736.7099999974,
         "id" : "dep59",
         "a1" : "r1_c4"
      },
      {
         "a2" : "download_32",
         "time" : 641.87599999423,
         "id" : "dep60",
         "a1" : "r1_c4"
      },
      {
         "a2" : "download_31",
         "time" : 538.95499999635,
         "id" : "dep61",
         "a1" : "r1_c4"
      },
      {
         "a2" : "download_30",
         "time" : 662.56799999974,
         "id" : "dep62",
         "a1" : "r1_c4"
      },
      {
         "a2" : "download_29",
         "time" : 501.5710000007,
         "id" : "dep63",
         "a1" : "r1_c4"
      },
      {
         "a2" : "download_28",
         "time" : 499.57299999369,
         "id" : "dep64",
         "a1" : "r1_c4"
      },
      {
         "a2" : "download_27",
         "time" : 495.9419999941,
         "id" : "dep65",
         "a1" : "r1_c4"
      },
      {
         "a2" : "download_26",
         "time" : 492.59999999777,
         "id" : "dep66",
         "a1" : "r1_c4"
      },
      {
         "a2" : "download_25",
         "time" : 472.86999999779,
         "id" : "dep67",
         "a1" : "r1_c4"
      },
      {
         "a2" : "download_24",
         "time" : 470.50399999716,
         "id" : "dep68",
         "a1" : "r1_c4"
      },
      {
         "a2" : "download_23",
         "time" : 467.10299998813,
         "id" : "dep69",
         "a1" : "r1_c4"
      },
      {
         "a2" : "download_22",
         "time" : 462.29599999788,
         "id" : "dep70",
         "a1" : "r1_c4"
      },
      {
         "a2" : "download_21",
         "time" : 335.81599999161,
         "id" : "dep71",
         "a1" : "r1_c4"
      },
      {
         "a2" : "download_20",
         "time" : 324.09699998971,
         "id" : "dep72",
         "a1" : "r1_c4"
      },
      {
         "a2" : "download_19",
         "time" : 177.13899999217,
         "id" : "dep73",
         "a1" : "r1_c4"
      },
      {
         "a2" : "download_18",
         "time" : -1,
         "id" : "dep74",
         "a1" : "r1_c1"
      },
      {
         "a2" : "download_17",
         "time" : 852.813999998032,
         "id" : "dep75",
         "a1" : "r1_c1"
      },
      {
         "a2" : "download_16",
         "time" : 851.959000006902,
         "id" : "dep76",
         "a1" : "r1_c1"
      },
      {
         "a2" : "download_15",
         "time" : 851.227000006472,
         "id" : "dep77",
         "a1" : "r1_c1"
      },
      {
         "a2" : "download_14",
         "time" : 850.951999993412,
         "id" : "dep78",
         "a1" : "r1_c1"
      },
      {
         "a2" : "download_13",
         "time" : 845.168999992892,
         "id" : "dep79",
         "a1" : "r1_c1"
      },
      {
         "a2" : "download_12",
         "time" : 849.105999994212,
         "id" : "dep80",
         "a1" : "r1_c1"
      },
      {
         "a2" : "download_11",
         "time" : 848.480000000562,
         "id" : "dep81",
         "a1" : "r1_c1"
      },
      {
         "a2" : "download_10",
         "time" : 845.916999998732,
         "id" : "dep82",
         "a1" : "r1_c1"
      },
      {
         "a2" : "download_9",
         "time" : 847.167999992962,
         "id" : "dep83",
         "a1" : "r1_c1"
      },
      {
         "a2" : "download_8",
         "time" : 731.308999995232,
         "id" : "dep84",
         "a1" : "r1_c1"
      },
      {
         "a2" : "download_7",
         "time" : 547.760000001289,
         "id" : "dep85",
         "a1" : "r1_c1"
      },
      {
         "a2" : "download_6",
         "time" : 52.842000004602,
         "id" : "dep86",
         "a1" : "r1_c1"
      },
      {
         "a2" : "download_5",
         "time" : 26.031999994302,
         "id" : "dep87",
         "a1" : "r1_c1"
      },
      {
         "a2" : "download_5",
         "time" : 26.031999994302,
         "id" : "dep88",
         "a1" : "r1_c1"
      },
      {
         "a2" : "download_4",
         "time" : 24.292000001878,
         "id" : "dep89",
         "a1" : "r1_c1"
      },
      {
         "a2" : "download_4",
         "time" : 24.292000001878,
         "id" : "dep90",
         "a1" : "r1_c1"
      },
      {
         "a2" : "download_3",
         "time" : 27.70999999484,
         "id" : "dep91",
         "a1" : "r1_c1"
      },
      {
         "a2" : "download_3",
         "time" : 27.70999999484,
         "id" : "dep92",
         "a1" : "r1_c1"
      },
      {
         "a2" : "download_2",
         "time" : 16.327000004821,
         "id" : "dep93",
         "a1" : "r1_c1"
      },
      {
         "a2" : "download_1",
         "time" : 13.0009999993489,
         "id" : "dep94",
         "a1" : "r1_c1"
      }
   ]
}
