{
   "n_download_no_trigger" : 1,
   "start_activity" : "download_0",
   "name" : "original.testbed.localhost_www.hearbeats.com_",
   "load_activity" : -1,
   "objs" : [
      {
         "when_comp_start" : 1,
         "url" : "http://original.testbed.localhost/www.hearbeats.com/",
         "id" : "r1",
         "comps" : [
            {
               "s_time" : 268.234999995911,
               "time" : -175339292.496,
               "id" : "r1_c1",
               "type" : "evalhtml",
               "e_time" : -175339024.261
            },
            {
               "s_time" : 404.037999978755,
               "time" : -175339428.299,
               "id" : "r1_c2",
               "type" : "evalhtml",
               "e_time" : -175339024.261
            },
            {
               "s_time" : 1185.44099997962,
               "time" : -175340209.702,
               "id" : "r1_c3",
               "type" : "evalhtml",
               "e_time" : -175339024.261
            },
            {
               "s_time" : 1373.36800000048,
               "time" : -175340397.629,
               "id" : "r1_c4",
               "type" : "evalhtml",
               "e_time" : -175339024.261
            },
            {
               "s_time" : 1376.5419999836,
               "time" : -175340400.803,
               "id" : "r1_c5",
               "type" : "evalhtml",
               "e_time" : -175339024.261
            },
            {
               "s_time" : 1378.46399997943,
               "time" : -175340402.725,
               "id" : "r1_c6",
               "type" : "evalhtml",
               "e_time" : -175339024.261
            },
            {
               "s_time" : 1380.9669999755,
               "time" : -175340405.228,
               "id" : "r1_c7",
               "type" : "evalhtml",
               "e_time" : -175339024.261
            },
            {
               "s_time" : 1386.703999975,
               "time" : 2.47200002194995,
               "type" : "evalhtml",
               "id" : "r1_c8",
               "e_time" : 1389.17599999695
            }
         ],
         "download" : {
            "receiveFirst" : 156,
            "len" : 131551,
            "dns" : 0,
            "dnsEnd" : -1,
            "receiveHeadersEnd" : 161,
            "sslEnd" : -1,
            "connectEnd" : 5,
            "connectStart" : 0,
            "id" : "download_0",
            "receivedTime" : "377.426999999443",
            "sslStart" : -1,
            "dnsStart" : -1,
            "receiveLast" : 216.426999999443,
            "s_time" : 0,
            "sendEnd" : 5,
            "sendStart" : 5,
            "type" : "text/html"
         }
      }
   ],
   "deps" : [
      {
         "a2" : "r1_c2",
         "time" : -1,
         "id" : "dep1",
         "a1" : "comp_4"
      },
      {
         "a2" : "r1_c3",
         "time" : -1,
         "id" : "dep2",
         "a1" : "comp_26"
      },
      {
         "a2" : "r1_c4",
         "time" : -1,
         "id" : "dep3",
         "a1" : "comp_40"
      },
      {
         "a2" : "r1_c5",
         "time" : -1,
         "id" : "dep4",
         "a1" : "comp_41"
      },
      {
         "a2" : "r1_c6",
         "time" : -1,
         "id" : "dep5",
         "a1" : "comp_42"
      },
      {
         "a2" : "r1_c7",
         "time" : -1,
         "id" : "dep6",
         "a1" : "comp_43"
      },
      {
         "a2" : "r1_c8",
         "time" : -1,
         "id" : "dep7",
         "a1" : "comp_46"
      }
   ]
}
