{
   "n_download_no_trigger" : 1,
   "start_activity" : "download_0",
   "name" : "original.testbed.localhost_www.yahoo.com",
   "load_activity" : -1,
   "objs" : [
      {
         "when_comp_start" : 1,
         "url" : "http://original.testbed.localhost/www.yahoo.com",
         "id" : "r1",
         "comps" : [
            {
               "s_time" : 109.892000007676,
               "time" : 0.54500000260299,
               "type" : "evalhtml",
               "id" : "r1_c1",
               "e_time" : 110.437000010279
            }
         ],
         "download" : {
            "receiveFirst" : 24,
            "len" : 381,
            "dns" : 0,
            "dnsEnd" : -1,
            "receiveHeadersEnd" : 31,
            "sslEnd" : -1,
            "connectEnd" : 7,
            "connectStart" : 0,
            "id" : "download_0",
            "receivedTime" : "34.6589999971911",
            "sslStart" : -1,
            "dnsStart" : -1,
            "receiveLast" : 3.65899999719113,
            "s_time" : 0,
            "sendEnd" : 7,
            "sendStart" : 7,
            "type" : "text/html"
         }
      }
   ],
   "deps" : []
}
