{
   "n_download_no_trigger" : 1,
   "start_activity" : "download_0",
   "name" : "original.testbed.localhost_www.google.co.ve_",
   "load_activity" : -1,
   "objs" : [
      {
         "when_comp_start" : 1,
         "url" : "http://original.testbed.localhost/www.google.co.ve/",
         "id" : "r1",
         "comps" : [
            {
               "s_time" : 86.4460000011604,
               "time" : 26.2979999824896,
               "type" : "evalhtml",
               "id" : "r1_c1",
               "e_time" : 112.74399998365
            }
         ],
         "download" : {
            "receiveFirst" : 24,
            "len" : 18827,
            "dns" : 0,
            "dnsEnd" : -1,
            "receiveHeadersEnd" : 24,
            "sslEnd" : -1,
            "connectEnd" : 0,
            "connectStart" : 0,
            "id" : "download_0",
            "receivedTime" : "85.8589999843389",
            "sslStart" : -1,
            "dnsStart" : -1,
            "receiveLast" : 61.8589999843389,
            "s_time" : 0,
            "sendEnd" : 0,
            "sendStart" : 0,
            "type" : "text/html"
         }
      },
      {
         "when_comp_start" : -1,
         "url" : "http://original.testbed.localhost/www.google.co.ve/images/icons/product/chrome-48.png",
         "id" : "r2",
         "comps" : [],
         "download" : {
            "receiveFirst" : 24,
            "len" : 1834,
            "dns" : 0,
            "dnsEnd" : -1,
            "receiveHeadersEnd" : 24,
            "sslEnd" : -1,
            "connectEnd" : 0,
            "connectStart" : 0,
            "id" : "download_1",
            "receivedTime" : "121.075000002747",
            "sslStart" : -1,
            "dnsStart" : -1,
            "receiveLast" : 97.0750000027474,
            "s_time" : 95.9579999907874,
            "sendEnd" : 0,
            "sendStart" : 0,
            "type" : "image/png"
         }
      },
      {
         "when_comp_start" : 1,
         "url" : "http://original.testbed.localhost/client_204?&atyp=i&biw=1004&bih=673&ei=-nOWVeuuO8Py-QH0nKOoBA",
         "id" : "r3",
         "comps" : [],
         "download" : {
            "receiveFirst" : 24,
            "len" : 300,
            "dns" : 0,
            "dnsEnd" : -1,
            "receiveHeadersEnd" : 24,
            "sslEnd" : -1,
            "connectEnd" : 0,
            "connectStart" : 0,
            "id" : "download_2",
            "receivedTime" : "125.758999987738",
            "sslStart" : -1,
            "dnsStart" : -1,
            "receiveLast" : 101.758999987738,
            "s_time" : 100.253999989945,
            "sendEnd" : 0,
            "sendStart" : 0,
            "type" : "text/html"
         }
      },
      {
         "when_comp_start" : -1,
         "url" : "http://original.testbed.localhost/www.google.co.ve/images/srpr/logo9w.png",
         "id" : "r4",
         "comps" : [],
         "download" : {
            "receiveFirst" : 24,
            "len" : 8228,
            "dns" : 0,
            "dnsEnd" : -1,
            "receiveHeadersEnd" : 24,
            "sslEnd" : -1,
            "connectEnd" : 0,
            "connectStart" : 0,
            "id" : "download_3",
            "receivedTime" : "130.680999980541",
            "sslStart" : -1,
            "dnsStart" : -1,
            "receiveLast" : 106.680999980541,
            "s_time" : 104.251999990083,
            "sendEnd" : 0,
            "sendStart" : 0,
            "type" : "image/png"
         }
      },
      {
         "when_comp_start" : -1,
         "url" : "http://original.testbed.localhost/www.google.co.ve/images/srpr/nav_logo80.png",
         "id" : "r5",
         "comps" : [],
         "download" : {
            "receiveFirst" : 24,
            "len" : 35615,
            "dns" : 0,
            "dnsEnd" : -1,
            "receiveHeadersEnd" : 24,
            "sslEnd" : -1,
            "connectEnd" : 0,
            "connectStart" : 0,
            "id" : "download_4",
            "receivedTime" : "170.802999986336",
            "sslStart" : -1,
            "dnsStart" : -1,
            "receiveLast" : 146.802999986336,
            "s_time" : 111.504000000423,
            "sendEnd" : 0,
            "sendStart" : 0,
            "type" : "image/png"
         }
      }
   ],
   "deps" : [
      {
         "a2" : "download_4",
         "time" : 25.0579999992626,
         "id" : "dep1",
         "a1" : "r1_c1"
      },
      {
         "a2" : "download_3",
         "time" : 17.8059999889226,
         "id" : "dep2",
         "a1" : "r1_c1"
      },
      {
         "a2" : "download_2",
         "time" : 13.8079999887846,
         "id" : "dep3",
         "a1" : "r1_c1"
      },
      {
         "a2" : "download_1",
         "time" : 9.511999989627,
         "id" : "dep4",
         "a1" : "r1_c1"
      }
   ]
}
