{
   "n_download_no_trigger" : 1,
   "start_activity" : "download_0",
   "name" : "original.testbed.localhost_www.torrentz.eu_",
   "load_activity" : -1,
   "objs" : [
      {
         "when_comp_start" : 1,
         "url" : "http://original.testbed.localhost/www.torrentz.eu/",
         "id" : "r1",
         "comps" : [
            {
               "s_time" : 84.569000027841,
               "time" : 4.1449999844189,
               "id" : "r1_c1",
               "type" : "evalhtml",
               "e_time" : 88.7140000122599
            },
            {
               "s_time" : 211.181000020588,
               "time" : -154000145.029,
               "id" : "r1_c2",
               "type" : "evalhtml",
               "e_time" : -153999933.848
            },
            {
               "s_time" : 211.589000013191,
               "time" : 32.126000005519,
               "type" : "evalhtml",
               "id" : "r1_c3",
               "e_time" : 243.71500001871
            }
         ],
         "download" : {
            "receiveFirst" : 24,
            "len" : 2566,
            "dns" : 0,
            "dnsEnd" : -1,
            "receiveHeadersEnd" : 24,
            "sslEnd" : -1,
            "connectEnd" : 0,
            "connectStart" : 0,
            "id" : "download_0",
            "receivedTime" : "27.6820000144653",
            "sslStart" : -1,
            "dnsStart" : -1,
            "receiveLast" : 3.6820000144653,
            "s_time" : 0,
            "sendEnd" : 0,
            "sendStart" : 0,
            "type" : "text/html"
         }
      },
      {
         "when_comp_start" : -1,
         "url" : "http://original.testbed.localhost/www.torrentz.eu/style.33.css",
         "id" : "r2",
         "comps" : [
            {
               "s_time" : 113.040000025649,
               "time" : 1.756999990902,
               "type" : 4,
               "id" : "comp_0",
               "e_time" : 114.797000016551
            }
         ],
         "download" : {
            "receiveFirst" : 24,
            "len" : 13466,
            "dns" : 0,
            "dnsEnd" : -1,
            "receiveHeadersEnd" : 24,
            "sslEnd" : -1,
            "connectEnd" : 0,
            "connectStart" : 0,
            "id" : "download_1",
            "receivedTime" : "112.840000016149",
            "sslStart" : -1,
            "dnsStart" : -1,
            "receiveLast" : 88.8400000161491,
            "s_time" : 85.2880000020377,
            "sendEnd" : 0,
            "sendStart" : 0,
            "type" : "text/css"
         }
      },
      {
         "when_comp_start" : -1,
         "url" : "http://original.testbed.localhost/ajax.googleapis.com/ajax/libs/jquery/1.11.2/jquery.min.js",
         "id" : "r3",
         "comps" : [
            {
               "s_time" : 175.592000014149,
               "time" : 35.589000006439,
               "type" : 1,
               "id" : "comp_3",
               "e_time" : 211.181000020588
            }
         ],
         "download" : {
            "receiveFirst" : 28,
            "len" : 95931,
            "dns" : 0,
            "dnsEnd" : -1,
            "receiveHeadersEnd" : 28,
            "sslEnd" : -1,
            "connectEnd" : 0,
            "connectStart" : 0,
            "id" : "download_2",
            "receivedTime" : "175.421000021743",
            "sslStart" : -1,
            "dnsStart" : -1,
            "receiveLast" : 147.421000021743,
            "s_time" : 86.4280000096187,
            "sendEnd" : 0,
            "sendStart" : 0,
            "type" : "application/javascript"
         }
      },
      {
         "when_comp_start" : -1,
         "url" : "http://original.testbed.localhost/www.torrentz.eu/tzs.10.js",
         "id" : "r4",
         "comps" : [
            {
               "s_time" : 211.289000028046,
               "time" : 0.299999985145007,
               "type" : 1,
               "id" : "comp_5",
               "e_time" : 211.589000013191
            }
         ],
         "download" : {
            "receiveFirst" : 30,
            "len" : 1888,
            "dns" : 0,
            "dnsEnd" : -1,
            "receiveHeadersEnd" : 30,
            "sslEnd" : -1,
            "connectEnd" : 0,
            "connectStart" : 0,
            "id" : "download_3",
            "receivedTime" : "118.768000014825",
            "sslStart" : -1,
            "dnsStart" : -1,
            "receiveLast" : 88.7680000148248,
            "s_time" : 87.5050000031479,
            "sendEnd" : 0,
            "sendStart" : 0,
            "type" : "application/javascript"
         }
      },
      {
         "when_comp_start" : -1,
         "url" : "http://original.testbed.localhost/www.torrentz.eu/img/cutehamster.gif",
         "id" : "r5",
         "comps" : [],
         "download" : {
            "receiveFirst" : 33,
            "len" : 505,
            "dns" : 0,
            "dnsEnd" : -1,
            "receiveHeadersEnd" : 33,
            "sslEnd" : -1,
            "connectEnd" : 0,
            "connectStart" : 0,
            "id" : "download_4",
            "receivedTime" : "122.8280000214",
            "sslStart" : -1,
            "dnsStart" : -1,
            "receiveLast" : 89.8280000213999,
            "s_time" : 88.7140000122599,
            "sendEnd" : 0,
            "sendStart" : 0,
            "type" : "image/gif"
         }
      },
      {
         "when_comp_start" : -1,
         "url" : "http://original.testbed.localhost/www.torrentz.eu/img/zoom.png",
         "id" : "r6",
         "comps" : [],
         "download" : {
            "receiveFirst" : 24,
            "len" : 639,
            "dns" : 0,
            "dnsEnd" : -1,
            "receiveHeadersEnd" : 24,
            "sslEnd" : -1,
            "connectEnd" : 0,
            "connectStart" : 0,
            "id" : "download_5",
            "receivedTime" : "252.911000017775",
            "sslStart" : -1,
            "dnsStart" : -1,
            "receiveLast" : 228.911000017775,
            "s_time" : 215.911000006599,
            "sendEnd" : 0,
            "sendStart" : 0,
            "type" : "image/png"
         }
      }
   ],
   "deps" : [
      {
         "a2" : "r1_c2",
         "time" : -1,
         "id" : "dep1",
         "a1" : "comp_3"
      },
      {
         "a2" : "r1_c3",
         "time" : -1,
         "id" : "dep2",
         "a1" : "comp_5"
      },
      {
         "a2" : "comp_3",
         "time" : -1,
         "id" : "dep3",
         "a1" : "comp_0"
      },
      {
         "a2" : "comp_5",
         "time" : -1,
         "id" : "dep4",
         "a1" : "comp_3"
      },
      {
         "a2" : "download_5",
         "time" : 4.32199999340801,
         "id" : "dep5",
         "a1" : "r1_c3"
      },
      {
         "a2" : "download_4",
         "time" : -1,
         "id" : "dep6",
         "a1" : "r1_c1"
      },
      {
         "a2" : "download_4",
         "time" : 4.1449999844189,
         "id" : "dep7",
         "a1" : "r1_c1"
      },
      {
         "a2" : "download_3",
         "time" : 2.9359999753069,
         "id" : "dep8",
         "a1" : "r1_c1"
      },
      {
         "a2" : "download_3",
         "time" : 2.9359999753069,
         "id" : "dep9",
         "a1" : "r1_c1"
      },
      {
         "a2" : "download_2",
         "time" : 1.8589999817777,
         "id" : "dep10",
         "a1" : "r1_c1"
      },
      {
         "a2" : "download_1",
         "time" : 0.718999974196706,
         "id" : "dep11",
         "a1" : "r1_c1"
      }
   ]
}
