{
   "n_download_no_trigger" : 1,
   "start_activity" : "download_0",
   "name" : "original.testbed.localhost_www.bbc.co.uk",
   "load_activity" : -1,
   "objs" : [
      {
         "when_comp_start" : 1,
         "url" : "http://original.testbed.localhost/www.bbc.co.uk",
         "id" : "r1",
         "comps" : [
            {
               "s_time" : 105.126000009477,
               "time" : 0.514999992447002,
               "type" : "evalhtml",
               "id" : "r1_c1",
               "e_time" : 105.641000001924
            }
         ],
         "download" : {
            "receiveFirst" : 23,
            "len" : 381,
            "dns" : 0,
            "dnsEnd" : -1,
            "receiveHeadersEnd" : 29,
            "sslEnd" : -1,
            "connectEnd" : 6,
            "connectStart" : 0,
            "id" : "download_0",
            "receivedTime" : "33.4490000095684",
            "sslStart" : -1,
            "dnsStart" : -1,
            "receiveLast" : 4.44900000956841,
            "s_time" : 0,
            "sendEnd" : 6,
            "sendStart" : 6,
            "type" : "text/html"
         }
      }
   ],
   "deps" : []
}
