{
   "n_download_no_trigger" : 1,
   "start_activity" : "download_0",
   "name" : "original.testbed.localhost_www.google.co.th_",
   "load_activity" : -1,
   "objs" : [
      {
         "when_comp_start" : 1,
         "url" : "http://original.testbed.localhost/www.google.co.th/",
         "id" : "r1",
         "comps" : [
            {
               "s_time" : 95.195000001695,
               "time" : 21.43399999477,
               "type" : "evalhtml",
               "id" : "r1_c1",
               "e_time" : 116.628999996465
            }
         ],
         "download" : {
            "receiveFirst" : 24,
            "len" : 19607,
            "dns" : 0,
            "dnsEnd" : -1,
            "receiveHeadersEnd" : 24,
            "sslEnd" : -1,
            "connectEnd" : 0,
            "connectStart" : 0,
            "id" : "download_0",
            "receivedTime" : "91.9780000112951",
            "sslStart" : -1,
            "dnsStart" : -1,
            "receiveLast" : 67.9780000112951,
            "s_time" : 0,
            "sendEnd" : 0,
            "sendStart" : 0,
            "type" : "text/html"
         }
      },
      {
         "when_comp_start" : -1,
         "url" : "http://original.testbed.localhost/www.google.co.th/images/icons/product/chrome-48.png",
         "id" : "r2",
         "comps" : [],
         "download" : {
            "receiveFirst" : 24,
            "len" : 1834,
            "dns" : 0,
            "dnsEnd" : -1,
            "receiveHeadersEnd" : 24,
            "sslEnd" : -1,
            "connectEnd" : 0,
            "connectStart" : 0,
            "id" : "download_1",
            "receivedTime" : "124.757000012323",
            "sslStart" : -1,
            "dnsStart" : -1,
            "receiveLast" : 100.757000012323,
            "s_time" : 99.370000010822,
            "sendEnd" : 0,
            "sendStart" : 0,
            "type" : "image/png"
         }
      },
      {
         "when_comp_start" : -1,
         "url" : "http://original.testbed.localhost/www.google.co.th/textinputassistant/tia.png",
         "id" : "r3",
         "comps" : [],
         "download" : {
            "receiveFirst" : 25,
            "len" : 387,
            "dns" : 0,
            "dnsEnd" : -1,
            "receiveHeadersEnd" : 25,
            "sslEnd" : -1,
            "connectEnd" : 0,
            "connectStart" : 0,
            "id" : "download_2",
            "receivedTime" : "128.76699998742",
            "sslStart" : -1,
            "dnsStart" : -1,
            "receiveLast" : 103.76699998742,
            "s_time" : 102.550000010524,
            "sendEnd" : 0,
            "sendStart" : 0,
            "type" : "image/png"
         }
      },
      {
         "when_comp_start" : 1,
         "url" : "http://original.testbed.localhost/client_204?&atyp=i&biw=1004&bih=673&ei=4kCWVfOzNcvr-AHx4bSoCg",
         "id" : "r4",
         "comps" : [],
         "download" : {
            "receiveFirst" : 27,
            "len" : 300,
            "dns" : 0,
            "dnsEnd" : -1,
            "receiveHeadersEnd" : 27,
            "sslEnd" : -1,
            "connectEnd" : 0,
            "connectStart" : 0,
            "id" : "download_3",
            "receivedTime" : "132.737000007182",
            "sslStart" : -1,
            "dnsStart" : -1,
            "receiveLast" : 105.737000007182,
            "s_time" : 104.61400001077,
            "sendEnd" : 0,
            "sendStart" : 0,
            "type" : "text/html"
         }
      },
      {
         "when_comp_start" : -1,
         "url" : "http://original.testbed.localhost/www.google.co.th/images/srpr/logo9w.png",
         "id" : "r5",
         "comps" : [],
         "download" : {
            "receiveFirst" : 27,
            "len" : 8228,
            "dns" : 0,
            "dnsEnd" : -1,
            "receiveHeadersEnd" : 27,
            "sslEnd" : -1,
            "connectEnd" : 0,
            "connectStart" : 0,
            "id" : "download_4",
            "receivedTime" : "138.078999996651",
            "sslStart" : -1,
            "dnsStart" : -1,
            "receiveLast" : 111.078999996651,
            "s_time" : 108.355000003939,
            "sendEnd" : 0,
            "sendStart" : 0,
            "type" : "image/png"
         }
      },
      {
         "when_comp_start" : -1,
         "url" : "http://original.testbed.localhost/www.google.co.th/images/srpr/nav_logo80.png",
         "id" : "r6",
         "comps" : [],
         "download" : {
            "receiveFirst" : 28,
            "len" : 35615,
            "dns" : 0,
            "dnsEnd" : -1,
            "receiveHeadersEnd" : 28,
            "sslEnd" : -1,
            "connectEnd" : 0,
            "connectStart" : 0,
            "id" : "download_5",
            "receivedTime" : "167.458999989321",
            "sslStart" : -1,
            "dnsStart" : -1,
            "receiveLast" : 139.458999989321,
            "s_time" : 115.424999996321,
            "sendEnd" : 0,
            "sendStart" : 0,
            "type" : "image/png"
         }
      }
   ],
   "deps" : [
      {
         "a2" : "download_5",
         "time" : 20.229999994626,
         "id" : "dep1",
         "a1" : "r1_c1"
      },
      {
         "a2" : "download_4",
         "time" : 13.160000002244,
         "id" : "dep2",
         "a1" : "r1_c1"
      },
      {
         "a2" : "download_3",
         "time" : 9.41900000907499,
         "id" : "dep3",
         "a1" : "r1_c1"
      },
      {
         "a2" : "download_2",
         "time" : 7.35500000882899,
         "id" : "dep4",
         "a1" : "r1_c1"
      },
      {
         "a2" : "download_1",
         "time" : 4.17500000912699,
         "id" : "dep5",
         "a1" : "r1_c1"
      }
   ]
}
