{
   "n_download_no_trigger" : 1,
   "start_activity" : "download_0",
   "name" : "original.testbed.localhost_www.iantiqueonline.ning.com_",
   "load_activity" : -1,
   "objs" : [
      {
         "when_comp_start" : 1,
         "url" : "http://original.testbed.localhost/www.iantiqueonline.ning.com/",
         "id" : "r1",
         "comps" : [
            {
               "s_time" : 158.12700000015,
               "time" : 817.657000000053,
               "type" : "evalhtml",
               "id" : "r1_c1",
               "e_time" : 975.784000000203
            }
         ],
         "download" : {
            "receiveFirst" : 59,
            "len" : 216974,
            "dns" : 0,
            "dnsEnd" : -1,
            "receiveHeadersEnd" : 63,
            "sslEnd" : -1,
            "connectEnd" : 4,
            "connectStart" : 0,
            "id" : "download_0",
            "receivedTime" : "393.23400000012",
            "sslStart" : -1,
            "dnsStart" : -1,
            "receiveLast" : 330.23400000012,
            "s_time" : 0,
            "sendEnd" : 4,
            "sendStart" : 4,
            "type" : "text/html"
         }
      },
      {
         "when_comp_start" : -1,
         "url" : "http://original.testbed.localhost/static.ning.com/socialnetworkmain/widgets/index/css/common.min.css%3Fxn_version=3626450196.css",
         "id" : "r2",
         "comps" : [
            {
               "s_time" : 832.382000000052,
               "time" : 108.582000000297,
               "type" : 2,
               "id" : "comp_6",
               "e_time" : 940.964000000349
            }
         ],
         "download" : {
            "receiveFirst" : 174,
            "len" : 135257,
            "dns" : 0,
            "dnsEnd" : -1,
            "receiveHeadersEnd" : 221,
            "sslEnd" : -1,
            "connectEnd" : 47,
            "connectStart" : 0,
            "id" : "download_1",
            "receivedTime" : "830.612000000201",
            "sslStart" : -1,
            "dnsStart" : -1,
            "receiveLast" : 609.612000000201,
            "s_time" : 186.844000000292,
            "sendEnd" : 47,
            "sendStart" : 47,
            "type" : "text/css"
         }
      },
      {
         "when_comp_start" : -1,
         "url" : "http://original.testbed.localhost/static.ning.com/socialnetworkmain/widgets/index/css/component.min.css%3Fxn_version=1558334130.css",
         "id" : "r3",
         "comps" : [
            {
               "s_time" : 648.208999999952,
               "time" : 50.4150000001571,
               "type" : 2,
               "id" : "comp_4",
               "e_time" : 698.624000000109
            }
         ],
         "download" : {
            "receiveFirst" : 175,
            "len" : 54973,
            "dns" : 0,
            "dnsEnd" : -1,
            "receiveHeadersEnd" : 388,
            "sslEnd" : -1,
            "connectEnd" : 212,
            "connectStart" : 0,
            "id" : "download_2",
            "receivedTime" : "646.4390000001",
            "sslStart" : -1,
            "dnsStart" : -1,
            "receiveLast" : 258.4390000001,
            "s_time" : 187.636999999995,
            "sendEnd" : 213,
            "sendStart" : 212,
            "type" : "text/css"
         }
      },
      {
         "when_comp_start" : -1,
         "url" : "http://original.testbed.localhost/api.ning.com/files/OYTL5JhFn65bAf57xgGyTtBt4baEYnDIpdUqc70UuKBv7cQEZGz5I40jdJhkdwgQCZER2RpQsDg86qUOCubTZQPENhJFQNWq/1138452529.css%3Fxn_version=201508242106.css",
         "id" : "r4",
         "comps" : [
            {
               "s_time" : 740.921000000071,
               "time" : 45.136000000184,
               "type" : 2,
               "id" : "comp_5",
               "e_time" : 786.057000000255
            }
         ],
         "download" : {
            "receiveFirst" : 251,
            "len" : 51616,
            "dns" : 0,
            "dnsEnd" : 48,
            "receiveHeadersEnd" : 464,
            "sslEnd" : -1,
            "connectEnd" : 213,
            "connectStart" : 0,
            "id" : "download_3",
            "receivedTime" : "739.029000000301",
            "sslStart" : -1,
            "dnsStart" : 48,
            "receiveLast" : 275.029000000301,
            "s_time" : 189.194000000043,
            "sendEnd" : 213,
            "sendStart" : 213,
            "type" : "text/css"
         }
      },
      {
         "when_comp_start" : -1,
         "url" : "http://original.testbed.localhost/api.ning.com/files/OYTL5JhFn67YvB-X39rjVAvKBaIqTGmXvBhUPukX54hBdpC4xCf09WP-r-XXEnnbdhXGQyGVt4HvsV6NiQbOlXGg1ZCii85d/1138430551.css%3Fxn_version=201508242106.css",
         "id" : "r5",
         "comps" : [
            {
               "s_time" : 943.557999999939,
               "time" : 41.26000000042,
               "type" : 2,
               "id" : "comp_7",
               "e_time" : 984.818000000359
            }
         ],
         "download" : {
            "receiveFirst" : 339,
            "len" : 24461,
            "dns" : 0,
            "dnsEnd" : 68,
            "receiveHeadersEnd" : 667,
            "sslEnd" : -1,
            "connectEnd" : 327,
            "connectStart" : 0,
            "id" : "download_4",
            "receivedTime" : "942.794999999933",
            "sslStart" : -1,
            "dnsStart" : 68,
            "receiveLast" : 275.794999999933,
            "s_time" : 190.598000000136,
            "sendEnd" : 328,
            "sendStart" : 327,
            "type" : "text/css"
         }
      },
      {
         "when_comp_start" : -1,
         "url" : "http://original.testbed.localhost/www35.glam.com/gad/glamadapt_jsapi.act%3Fafid=183770529",
         "id" : "r6",
         "comps" : [],
         "download" : {
            "receiveFirst" : 367,
            "len" : 6970,
            "dns" : 1,
            "dnsEnd" : 71,
            "receiveHeadersEnd" : 696,
            "sslEnd" : -1,
            "connectEnd" : 329,
            "connectStart" : 0,
            "id" : "download_5",
            "receivedTime" : "989.395000000059",
            "sslStart" : -1,
            "dnsStart" : 70,
            "receiveLast" : 293.395000000059,
            "s_time" : 192.673000000013,
            "sendEnd" : 329,
            "sendStart" : 329,
            "type" : "text/plain"
         }
      }
   ],
   "deps" : [
      {
         "a2" : "download_5",
         "time" : 34.545999999863,
         "id" : "dep1",
         "a1" : "r1_c1"
      },
      {
         "a2" : "download_5",
         "time" : 34.545999999863,
         "id" : "dep2",
         "a1" : "r1_c1"
      },
      {
         "a2" : "download_4",
         "time" : 32.470999999986,
         "id" : "dep3",
         "a1" : "r1_c1"
      },
      {
         "a2" : "download_3",
         "time" : 31.066999999893,
         "id" : "dep4",
         "a1" : "r1_c1"
      },
      {
         "a2" : "download_2",
         "time" : 29.509999999845,
         "id" : "dep5",
         "a1" : "r1_c1"
      },
      {
         "a2" : "download_1",
         "time" : 28.717000000142,
         "id" : "dep6",
         "a1" : "r1_c1"
      }
   ]
}
