{
   "n_download_no_trigger" : 1,
   "start_activity" : "download_0",
   "name" : "original.testbed.localhost_www.motogen.com_",
   "load_activity" : -1,
   "objs" : [
      {
         "when_comp_start" : 1,
         "url" : "http://original.testbed.localhost/www.motogen.com/",
         "id" : "r1",
         "comps" : [
            {
               "s_time" : 168.33499999484,
               "time" : 209.838000009768,
               "id" : "r1_c1",
               "type" : "evalhtml",
               "e_time" : 378.173000004608
            },
            {
               "s_time" : 386.809999996331,
               "time" : 847.290000005159,
               "type" : "evalhtml",
               "id" : "r1_c2",
               "e_time" : 1234.10000000149
            }
         ],
         "download" : {
            "receiveFirst" : 55,
            "len" : 25578,
            "dns" : 0,
            "dnsEnd" : -1,
            "receiveHeadersEnd" : 67,
            "sslEnd" : -1,
            "connectEnd" : 12,
            "connectStart" : 0,
            "id" : "download_0",
            "receivedTime" : "167.083000007551",
            "sslStart" : -1,
            "dnsStart" : -1,
            "receiveLast" : 100.083000007551,
            "s_time" : 0,
            "sendEnd" : 12,
            "sendStart" : 12,
            "type" : "text/html"
         }
      },
      {
         "when_comp_start" : -1,
         "url" : "http://original.testbed.localhost/www.motogen.com/App_Themes/fa-IR/lightbox.css",
         "id" : "r2",
         "comps" : [
            {
               "s_time" : 301.20800001896,
               "time" : 1.67899997904902,
               "type" : 4,
               "id" : "comp_0",
               "e_time" : 302.886999998009
            }
         ],
         "download" : {
            "receiveFirst" : 91,
            "len" : 1710,
            "dns" : 0,
            "dnsEnd" : -1,
            "receiveHeadersEnd" : 105,
            "sslEnd" : -1,
            "connectEnd" : 14,
            "connectStart" : 0,
            "id" : "download_1",
            "receivedTime" : "300.902999995742",
            "sslStart" : -1,
            "dnsStart" : -1,
            "receiveLast" : 195.902999995742,
            "s_time" : 169.615999999223,
            "sendEnd" : 14,
            "sendStart" : 14,
            "type" : "text/css"
         }
      },
      {
         "when_comp_start" : -1,
         "url" : "http://original.testbed.localhost/www.motogen.com/App_Themes/fa-IR/Menu.css",
         "id" : "r3",
         "comps" : [
            {
               "s_time" : 311.096000019461,
               "time" : 1.86099999700701,
               "type" : 4,
               "id" : "comp_1",
               "e_time" : 312.957000016468
            }
         ],
         "download" : {
            "receiveFirst" : 91,
            "len" : 2030,
            "dns" : 0,
            "dnsEnd" : -1,
            "receiveHeadersEnd" : 107,
            "sslEnd" : -1,
            "connectEnd" : 16,
            "connectStart" : 0,
            "id" : "download_2",
            "receivedTime" : "310.637999995379",
            "sslStart" : -1,
            "dnsStart" : -1,
            "receiveLast" : 203.637999995379,
            "s_time" : 170.10499999742,
            "sendEnd" : 16,
            "sendStart" : 16,
            "type" : "text/css"
         }
      },
      {
         "when_comp_start" : -1,
         "url" : "http://original.testbed.localhost/www.motogen.com/App_Themes/fa-IR/News.css",
         "id" : "r4",
         "comps" : [
            {
               "s_time" : 331.512000004295,
               "time" : 0.823999987915045,
               "type" : 4,
               "id" : "comp_2",
               "e_time" : 332.33599999221
            }
         ],
         "download" : {
            "receiveFirst" : 56,
            "len" : 1202,
            "dns" : 0,
            "dnsEnd" : 31,
            "receiveHeadersEnd" : 139,
            "sslEnd" : -1,
            "connectEnd" : 83,
            "connectStart" : 0,
            "id" : "download_3",
            "receivedTime" : "331.085000012536",
            "sslStart" : -1,
            "dnsStart" : 31,
            "receiveLast" : 192.085000012536,
            "s_time" : 170.868000015616,
            "sendEnd" : 83,
            "sendStart" : 83,
            "type" : "text/css"
         }
      },
      {
         "when_comp_start" : -1,
         "url" : "http://original.testbed.localhost/www.motogen.com/App_Themes/fa-IR/PageLayout.css",
         "id" : "r5",
         "comps" : [
            {
               "s_time" : 353.241000004346,
               "time" : 16.387999989092,
               "type" : 4,
               "id" : "comp_3",
               "e_time" : 369.628999993438
            }
         ],
         "download" : {
            "receiveFirst" : 55,
            "len" : 16126,
            "dns" : 0,
            "dnsEnd" : 46,
            "receiveHeadersEnd" : 152,
            "sslEnd" : -1,
            "connectEnd" : 97,
            "connectStart" : 0,
            "id" : "download_4",
            "receivedTime" : "352.722000010544",
            "sslStart" : -1,
            "dnsStart" : 46,
            "receiveLast" : 200.722000010544,
            "s_time" : 171.935999998823,
            "sendEnd" : 97,
            "sendStart" : 97,
            "type" : "text/css"
         }
      },
      {
         "when_comp_start" : -1,
         "url" : "http://original.testbed.localhost/www.motogen.com/js/slideshow.js",
         "id" : "r6",
         "comps" : [
            {
               "s_time" : 385.711000009906,
               "time" : 1.09899998642499,
               "type" : 1,
               "id" : "comp_4",
               "e_time" : 386.809999996331
            }
         ],
         "download" : {
            "receiveFirst" : 73,
            "len" : 457,
            "dns" : 0,
            "dnsEnd" : -1,
            "receiveHeadersEnd" : 180,
            "sslEnd" : -1,
            "connectEnd" : 107,
            "connectStart" : 0,
            "id" : "download_5",
            "receivedTime" : "384.978999994928",
            "sslStart" : -1,
            "dnsStart" : -1,
            "receiveLast" : 204.978999994928,
            "s_time" : 173.004000011133,
            "sendEnd" : 107,
            "sendStart" : 107,
            "type" : "application/javascript"
         }
      },
      {
         "when_comp_start" : -1,
         "url" : "http://original.testbed.localhost/www.motogen.com/App_Themes/Images/welcome.jpg",
         "id" : "r7",
         "comps" : [],
         "download" : {
            "receiveFirst" : 76,
            "len" : 3284,
            "dns" : 0,
            "dnsEnd" : 54,
            "receiveHeadersEnd" : 182,
            "sslEnd" : -1,
            "connectEnd" : 106,
            "connectStart" : 0,
            "id" : "download_6",
            "receivedTime" : "698.791000002529",
            "sslStart" : -1,
            "dnsStart" : 54,
            "receiveLast" : 516.791000002529,
            "s_time" : 186.507000005804,
            "sendEnd" : 106,
            "sendStart" : 106,
            "type" : "image/jpeg"
         }
      },
      {
         "when_comp_start" : -1,
         "url" : "http://original.testbed.localhost/www.motogen.com/App_Themes/Images/iconnews.jpg",
         "id" : "r8",
         "comps" : [],
         "download" : {
            "receiveFirst" : 100,
            "len" : 571,
            "dns" : 0,
            "dnsEnd" : -1,
            "receiveHeadersEnd" : 132,
            "sslEnd" : -1,
            "connectEnd" : 31,
            "connectStart" : 0,
            "id" : "download_7",
            "receivedTime" : "703.460000018822",
            "sslStart" : -1,
            "dnsStart" : -1,
            "receiveLast" : 571.460000018822,
            "s_time" : 372.161000006599,
            "sendEnd" : 32,
            "sendStart" : 31,
            "type" : "image/jpeg"
         }
      },
      {
         "when_comp_start" : -1,
         "url" : "http://original.testbed.localhost/www.motogen.com/App_Themes/Images/menusepV2.jpg",
         "id" : "r9",
         "comps" : [],
         "download" : {
            "receiveFirst" : 102,
            "len" : 485,
            "dns" : 0,
            "dnsEnd" : -1,
            "receiveHeadersEnd" : 135,
            "sslEnd" : -1,
            "connectEnd" : 33,
            "connectStart" : 0,
            "id" : "download_8",
            "receivedTime" : "704.498000006424",
            "sslStart" : -1,
            "dnsStart" : -1,
            "receiveLast" : 569.498000006424,
            "s_time" : 375.029999995604,
            "sendEnd" : 33,
            "sendStart" : 33,
            "type" : "image/jpeg"
         }
      },
      {
         "when_comp_start" : -1,
         "url" : "http://original.testbed.localhost/www.motogen.com/App_Themes/Images/menusepV.jpg",
         "id" : "r10",
         "comps" : [],
         "download" : {
            "receiveFirst" : 95,
            "len" : 500,
            "dns" : 0,
            "dnsEnd" : -1,
            "receiveHeadersEnd" : 138,
            "sslEnd" : -1,
            "connectEnd" : 43,
            "connectStart" : 0,
            "id" : "download_9",
            "receivedTime" : "705.41300001787",
            "sslStart" : -1,
            "dnsStart" : -1,
            "receiveLast" : 567.41300001787,
            "s_time" : 375.732000014978,
            "sendEnd" : 43,
            "sendStart" : 43,
            "type" : "image/jpeg"
         }
      },
      {
         "when_comp_start" : -1,
         "url" : "http://original.testbed.localhost/www.motogen.com/images/slide/1.jpg",
         "id" : "r11",
         "comps" : [],
         "download" : {
            "receiveFirst" : 122,
            "len" : 4206,
            "dns" : 0,
            "dnsEnd" : -1,
            "receiveHeadersEnd" : 173,
            "sslEnd" : -1,
            "connectEnd" : 51,
            "connectStart" : 0,
            "id" : "download_10",
            "receivedTime" : "708.891999995103",
            "sslStart" : -1,
            "dnsStart" : -1,
            "receiveLast" : 535.891999995103,
            "s_time" : 378.173000004608,
            "sendEnd" : 51,
            "sendStart" : 51,
            "type" : "image/jpeg"
         }
      },
      {
         "when_comp_start" : 1,
         "url" : "http://original.testbed.localhost/www.motogen.com/images/slide/product2.jpg",
         "id" : "r12",
         "comps" : [],
         "download" : {
            "receiveFirst" : 174,
            "len" : 331,
            "dns" : 0,
            "dnsEnd" : -1,
            "receiveHeadersEnd" : 197,
            "sslEnd" : -1,
            "connectEnd" : 23,
            "connectStart" : 0,
            "id" : "download_11",
            "receivedTime" : "710.327000007965",
            "sslStart" : -1,
            "dnsStart" : -1,
            "receiveLast" : 513.327000007965,
            "s_time" : 467.636000015773,
            "sendEnd" : 23,
            "sendStart" : 23,
            "type" : "text/html"
         }
      },
      {
         "when_comp_start" : 1,
         "url" : "http://original.testbed.localhost/www.motogen.com/images/slide/iso.jpg",
         "id" : "r13",
         "comps" : [],
         "download" : {
            "receiveFirst" : 174,
            "len" : 326,
            "dns" : 0,
            "dnsEnd" : -1,
            "receiveHeadersEnd" : 199,
            "sslEnd" : -1,
            "connectEnd" : 24,
            "connectStart" : 0,
            "id" : "download_12",
            "receivedTime" : "711.272999993525",
            "sslStart" : -1,
            "dnsStart" : -1,
            "receiveLast" : 512.272999993525,
            "s_time" : 468.550999998115,
            "sendEnd" : 25,
            "sendStart" : 24,
            "type" : "text/html"
         }
      },
      {
         "when_comp_start" : 1,
         "url" : "http://original.testbed.localhost/www.motogen.com/images/slide/productcrs.jpg",
         "id" : "r14",
         "comps" : [],
         "download" : {
            "receiveFirst" : 153,
            "len" : 333,
            "dns" : 0,
            "dnsEnd" : -1,
            "receiveHeadersEnd" : 207,
            "sslEnd" : -1,
            "connectEnd" : 54,
            "connectStart" : 0,
            "id" : "download_13",
            "receivedTime" : "712.677000003168",
            "sslStart" : -1,
            "dnsStart" : -1,
            "receiveLast" : 505.677000003168,
            "s_time" : 469.237999990582,
            "sendEnd" : 54,
            "sendStart" : 54,
            "type" : "text/html"
         }
      },
      {
         "when_comp_start" : 1,
         "url" : "http://original.testbed.localhost/www.motogen.com/images/slide/product3.jpg",
         "id" : "r15",
         "comps" : [],
         "download" : {
            "receiveFirst" : 129,
            "len" : 331,
            "dns" : 0,
            "dnsEnd" : -1,
            "receiveHeadersEnd" : 215,
            "sslEnd" : -1,
            "connectEnd" : 86,
            "connectStart" : 0,
            "id" : "download_14",
            "receivedTime" : "780.70000000298",
            "sslStart" : -1,
            "dnsStart" : -1,
            "receiveLast" : 565.70000000298,
            "s_time" : 470.946000015829,
            "sendEnd" : 86,
            "sendStart" : 86,
            "type" : "text/html"
         }
      },
      {
         "when_comp_start" : 1,
         "url" : "http://original.testbed.localhost/www.motogen.com/images/slide/2.jpg",
         "id" : "r16",
         "comps" : [],
         "download" : {
            "receiveFirst" : 129,
            "len" : 324,
            "dns" : 0,
            "dnsEnd" : -1,
            "receiveHeadersEnd" : 215,
            "sslEnd" : -1,
            "connectEnd" : 86,
            "connectStart" : 0,
            "id" : "download_15",
            "receivedTime" : "781.157999997959",
            "sslStart" : -1,
            "dnsStart" : -1,
            "receiveLast" : 566.157999997959,
            "s_time" : 471.221999992849,
            "sendEnd" : 86,
            "sendStart" : 86,
            "type" : "text/html"
         }
      },
      {
         "when_comp_start" : 1,
         "url" : "http://original.testbed.localhost/www.motogen.com/images/slide/productcs.jpg",
         "id" : "r17",
         "comps" : [],
         "download" : {
            "receiveFirst" : 178,
            "len" : 332,
            "dns" : 0,
            "dnsEnd" : -1,
            "receiveHeadersEnd" : 366,
            "sslEnd" : -1,
            "connectEnd" : 188,
            "connectStart" : 0,
            "id" : "download_16",
            "receivedTime" : "857.482999999775",
            "sslStart" : -1,
            "dnsStart" : -1,
            "receiveLast" : 491.482999999775,
            "s_time" : 474.625000002561,
            "sendEnd" : 188,
            "sendStart" : 188,
            "type" : "text/html"
         }
      },
      {
         "when_comp_start" : -1,
         "url" : "http://original.testbed.localhost/www.motogen.com/App_Themes/Images/bgpattern.jpg",
         "id" : "r18",
         "comps" : [],
         "download" : {
            "receiveFirst" : 172,
            "len" : 1559,
            "dns" : 0,
            "dnsEnd" : -1,
            "receiveHeadersEnd" : 327,
            "sslEnd" : -1,
            "connectEnd" : 155,
            "connectStart" : 0,
            "id" : "download_17",
            "receivedTime" : "920.012999995379",
            "sslStart" : -1,
            "dnsStart" : -1,
            "receiveLast" : 593.012999995379,
            "s_time" : 522.934000007808,
            "sendEnd" : 155,
            "sendStart" : 155,
            "type" : "image/jpeg"
         }
      },
      {
         "when_comp_start" : -1,
         "url" : "http://original.testbed.localhost/www.motogen.com/App_Themes/Images/bgmainline.jpg",
         "id" : "r19",
         "comps" : [],
         "download" : {
            "receiveFirst" : 167,
            "len" : 624,
            "dns" : 0,
            "dnsEnd" : -1,
            "receiveHeadersEnd" : 313,
            "sslEnd" : -1,
            "connectEnd" : 146,
            "connectStart" : 0,
            "id" : "download_18",
            "receivedTime" : "905.395000008866",
            "sslStart" : -1,
            "dnsStart" : -1,
            "receiveLast" : 592.395000008866,
            "s_time" : 539.672000013525,
            "sendEnd" : 146,
            "sendStart" : 146,
            "type" : "image/jpeg"
         }
      },
      {
         "when_comp_start" : -1,
         "url" : "http://original.testbed.localhost/www.motogen.com/App_Themes/Images/bgmainheader1.jpg",
         "id" : "r20",
         "comps" : [],
         "download" : {
            "receiveFirst" : 155,
            "len" : 662,
            "dns" : 0,
            "dnsEnd" : -1,
            "receiveHeadersEnd" : 310,
            "sslEnd" : -1,
            "connectEnd" : 155,
            "connectStart" : 0,
            "id" : "download_19",
            "receivedTime" : "912.811000016518",
            "sslStart" : -1,
            "dnsStart" : -1,
            "receiveLast" : 602.811000016518,
            "s_time" : 553.833000012673,
            "sendEnd" : 155,
            "sendStart" : 155,
            "type" : "image/jpeg"
         }
      },
      {
         "when_comp_start" : -1,
         "url" : "http://original.testbed.localhost/www.motogen.com/App_Themes/Images/logo1.gif",
         "id" : "r22",
         "comps" : [],
         "download" : {
            "receiveFirst" : 166,
            "len" : 1883,
            "dns" : 0,
            "dnsEnd" : -1,
            "receiveHeadersEnd" : 199,
            "sslEnd" : -1,
            "connectEnd" : 33,
            "connectStart" : 0,
            "id" : "download_20",
            "receivedTime" : "931.39599999995",
            "sslStart" : -1,
            "dnsStart" : -1,
            "receiveLast" : 732.39599999995,
            "s_time" : 676.834000012605,
            "sendEnd" : 33,
            "sendStart" : 33,
            "type" : "image/gif"
         }
      },
      {
         "when_comp_start" : -1,
         "url" : "http://original.testbed.localhost/www.motogen.com/App_Themes/Images/logo2.gif",
         "id" : "r21",
         "comps" : [],
         "download" : {
            "receiveFirst" : 169,
            "len" : 2076,
            "dns" : 0,
            "dnsEnd" : -1,
            "receiveHeadersEnd" : 214,
            "sslEnd" : -1,
            "connectEnd" : 45,
            "connectStart" : 0,
            "id" : "download_21",
            "receivedTime" : "934.875000006286",
            "sslStart" : -1,
            "dnsStart" : -1,
            "receiveLast" : 720.875000006286,
            "s_time" : 664.993000013055,
            "sendEnd" : 45,
            "sendStart" : 45,
            "type" : "image/gif"
         }
      },
      {
         "when_comp_start" : -1,
         "url" : "http://original.testbed.localhost/www.motogen.com/App_Themes/fa-IR/images/headtext.gif",
         "id" : "r23",
         "comps" : [],
         "download" : {
            "receiveFirst" : 97,
            "len" : 1899,
            "dns" : 0,
            "dnsEnd" : -1,
            "receiveHeadersEnd" : 269,
            "sslEnd" : -1,
            "connectEnd" : 172,
            "connectStart" : 0,
            "id" : "download_22",
            "receivedTime" : "965.48400001484",
            "sslStart" : -1,
            "dnsStart" : -1,
            "receiveLast" : 696.48400001484,
            "s_time" : 684.569000004558,
            "sendEnd" : 172,
            "sendStart" : 172,
            "type" : "image/gif"
         }
      },
      {
         "when_comp_start" : -1,
         "url" : "http://original.testbed.localhost/www.motogen.com/App_Themes/fa-IR/images/headm2.gif",
         "id" : "r24",
         "comps" : [],
         "download" : {
            "receiveFirst" : 70,
            "len" : 1629,
            "dns" : 0,
            "dnsEnd" : -1,
            "receiveHeadersEnd" : 276,
            "sslEnd" : -1,
            "connectEnd" : 206,
            "connectStart" : 0,
            "id" : "download_23",
            "receivedTime" : "985.290000011446",
            "sslStart" : -1,
            "dnsStart" : -1,
            "receiveLast" : 709.290000011446,
            "s_time" : 698.104000010062,
            "sendEnd" : 206,
            "sendStart" : 206,
            "type" : "image/gif"
         }
      },
      {
         "when_comp_start" : -1,
         "url" : "http://original.testbed.localhost/www.motogen.com/App_Themes/fa-IR/images/headm1.gif",
         "id" : "r25",
         "comps" : [],
         "download" : {
            "receiveFirst" : 68,
            "len" : 3996,
            "dns" : 0,
            "dnsEnd" : -1,
            "receiveHeadersEnd" : 273,
            "sslEnd" : -1,
            "connectEnd" : 205,
            "connectStart" : 0,
            "id" : "download_24",
            "receivedTime" : "989.013000013074",
            "sslStart" : -1,
            "dnsStart" : -1,
            "receiveLast" : 716.013000013074,
            "s_time" : 706.023000006098,
            "sendEnd" : 205,
            "sendStart" : 205,
            "type" : "image/gif"
         }
      },
      {
         "when_comp_start" : -1,
         "url" : "http://original.testbed.localhost/www.motogen.com/App_Themes/Images/bgmainheader2.jpg",
         "id" : "r26",
         "comps" : [],
         "download" : {
            "receiveFirst" : 83,
            "len" : 431,
            "dns" : 0,
            "dnsEnd" : -1,
            "receiveHeadersEnd" : 294,
            "sslEnd" : -1,
            "connectEnd" : 211,
            "connectStart" : 0,
            "id" : "download_25",
            "receivedTime" : "1004.27199999103",
            "sslStart" : -1,
            "dnsStart" : -1,
            "receiveLast" : 710.271999991033,
            "s_time" : 707.152999995742,
            "sendEnd" : 211,
            "sendStart" : 211,
            "type" : "image/jpeg"
         }
      },
      {
         "when_comp_start" : -1,
         "url" : "http://original.testbed.localhost/www.motogen.com/App_Themes/Images/bgmenu2.jpg",
         "id" : "r27",
         "comps" : [],
         "download" : {
            "receiveFirst" : 87,
            "len" : 333,
            "dns" : 0,
            "dnsEnd" : -1,
            "receiveHeadersEnd" : 162,
            "sslEnd" : -1,
            "connectEnd" : 75,
            "connectStart" : 0,
            "id" : "download_26",
            "receivedTime" : "1023.07100000326",
            "sslStart" : -1,
            "dnsStart" : -1,
            "receiveLast" : 861.071000003256,
            "s_time" : 855.360999994446,
            "sendEnd" : 75,
            "sendStart" : 75,
            "type" : "image/jpeg"
         }
      },
      {
         "when_comp_start" : -1,
         "url" : "http://original.testbed.localhost/www.motogen.com/App_Themes/Images/bgLang.jpg",
         "id" : "r28",
         "comps" : [],
         "download" : {
            "receiveFirst" : 79,
            "len" : 327,
            "dns" : 0,
            "dnsEnd" : -1,
            "receiveHeadersEnd" : 117,
            "sslEnd" : -1,
            "connectEnd" : 38,
            "connectStart" : 0,
            "id" : "download_27",
            "receivedTime" : "1028.25900001335",
            "sslStart" : -1,
            "dnsStart" : -1,
            "receiveLast" : 911.25900001335,
            "s_time" : 903.488000010839,
            "sendEnd" : 38,
            "sendStart" : 38,
            "type" : "image/jpeg"
         }
      },
      {
         "when_comp_start" : -1,
         "url" : "http://original.testbed.localhost/www.motogen.com/App_Themes/fa-IR/images/imgLang.gif",
         "id" : "r29",
         "comps" : [],
         "download" : {
            "receiveFirst" : 73,
            "len" : 583,
            "dns" : 0,
            "dnsEnd" : -1,
            "receiveHeadersEnd" : 129,
            "sslEnd" : -1,
            "connectEnd" : 56,
            "connectStart" : 0,
            "id" : "download_28",
            "receivedTime" : "1046.3860000018",
            "sslStart" : -1,
            "dnsStart" : -1,
            "receiveLast" : 917.386000001803,
            "s_time" : 910.58300001896,
            "sendEnd" : 56,
            "sendStart" : 56,
            "type" : "image/gif"
         }
      },
      {
         "when_comp_start" : -1,
         "url" : "http://original.testbed.localhost/www.motogen.com/App_Themes/Images/menusepH.jpg",
         "id" : "r30",
         "comps" : [],
         "download" : {
            "receiveFirst" : 69,
            "len" : 386,
            "dns" : 0,
            "dnsEnd" : -1,
            "receiveHeadersEnd" : 137,
            "sslEnd" : -1,
            "connectEnd" : 68,
            "connectStart" : 0,
            "id" : "download_29",
            "receivedTime" : "1062.5",
            "sslStart" : -1,
            "dnsStart" : -1,
            "receiveLast" : 925.5,
            "s_time" : 918.33400001633,
            "sendEnd" : 68,
            "sendStart" : 68,
            "type" : "image/jpeg"
         }
      },
      {
         "when_comp_start" : -1,
         "url" : "http://original.testbed.localhost/www.motogen.com/App_Themes/Images/sample.jpg",
         "id" : "r31",
         "comps" : [],
         "download" : {
            "receiveFirst" : 70,
            "len" : 32370,
            "dns" : 0,
            "dnsEnd" : -1,
            "receiveHeadersEnd" : 130,
            "sslEnd" : -1,
            "connectEnd" : 60,
            "connectStart" : 0,
            "id" : "download_30",
            "receivedTime" : "1526.79400000488",
            "sslStart" : -1,
            "dnsStart" : -1,
            "receiveLast" : 1396.79400000488,
            "s_time" : 929.762999992818,
            "sendEnd" : 60,
            "sendStart" : 60,
            "type" : "image/jpeg"
         }
      },
      {
         "when_comp_start" : -1,
         "url" : "http://original.testbed.localhost/www.motogen.com/App_Themes/Images/bgsearch.jpg",
         "id" : "r32",
         "comps" : [],
         "download" : {
            "receiveFirst" : 149,
            "len" : 349,
            "dns" : 0,
            "dnsEnd" : -1,
            "receiveHeadersEnd" : 221,
            "sslEnd" : -1,
            "connectEnd" : 72,
            "connectStart" : 0,
            "id" : "download_31",
            "receivedTime" : "1218.59699999914",
            "sslStart" : -1,
            "dnsStart" : -1,
            "receiveLast" : 997.596999999136,
            "s_time" : 933.655000000726,
            "sendEnd" : 72,
            "sendStart" : 72,
            "type" : "image/jpeg"
         }
      },
      {
         "when_comp_start" : -1,
         "url" : "http://original.testbed.localhost/www.motogen.com/App_Themes/Images/license.gif",
         "id" : "r33",
         "comps" : [],
         "download" : {
            "receiveFirst" : 157,
            "len" : 2593,
            "dns" : 0,
            "dnsEnd" : -1,
            "receiveHeadersEnd" : 216,
            "sslEnd" : -1,
            "connectEnd" : 58,
            "connectStart" : 0,
            "id" : "download_32",
            "receivedTime" : "1220.33700000611",
            "sslStart" : -1,
            "dnsStart" : -1,
            "receiveLast" : 1004.33700000611,
            "s_time" : 965.698000014527,
            "sendEnd" : 59,
            "sendStart" : 58,
            "type" : "image/gif"
         }
      },
      {
         "when_comp_start" : -1,
         "url" : "http://original.testbed.localhost/www.motogen.com/App_Themes/Images/dott.jpg",
         "id" : "r34",
         "comps" : [],
         "download" : {
            "receiveFirst" : 191,
            "len" : 379,
            "dns" : 0,
            "dnsEnd" : -1,
            "receiveHeadersEnd" : 235,
            "sslEnd" : -1,
            "connectEnd" : 44,
            "connectStart" : 0,
            "id" : "download_33",
            "receivedTime" : "1236.4799999923",
            "sslStart" : -1,
            "dnsStart" : -1,
            "receiveLast" : 1001.4799999923,
            "s_time" : 985.534000006737,
            "sendEnd" : 44,
            "sendStart" : 44,
            "type" : "image/jpeg"
         }
      },
      {
         "when_comp_start" : -1,
         "url" : "http://original.testbed.localhost/www.motogen.com/App_Themes/Images/bgmain.jpg",
         "id" : "r35",
         "comps" : [],
         "download" : {
            "receiveFirst" : 279,
            "len" : 898,
            "dns" : 0,
            "dnsEnd" : -1,
            "receiveHeadersEnd" : 337,
            "sslEnd" : -1,
            "connectEnd" : 58,
            "connectStart" : 0,
            "id" : "download_34",
            "receivedTime" : "1394.25599999959",
            "sslStart" : -1,
            "dnsStart" : -1,
            "receiveLast" : 1057.25599999959,
            "s_time" : 989.227000012761,
            "sendEnd" : 58,
            "sendStart" : 58,
            "type" : "image/jpeg"
         }
      },
      {
         "when_comp_start" : -1,
         "url" : "http://original.testbed.localhost/www.motogen.com/App_Themes/Images/hcell.jpg",
         "id" : "r36",
         "comps" : [],
         "download" : {
            "receiveFirst" : 296,
            "len" : 345,
            "dns" : 0,
            "dnsEnd" : -1,
            "receiveHeadersEnd" : 355,
            "sslEnd" : -1,
            "connectEnd" : 59,
            "connectStart" : 0,
            "id" : "download_35",
            "receivedTime" : "1517.18100000289",
            "sslStart" : -1,
            "dnsStart" : -1,
            "receiveLast" : 1162.18100000289,
            "s_time" : 1004.48500001221,
            "sendEnd" : 59,
            "sendStart" : 59,
            "type" : "image/jpeg"
         }
      },
      {
         "when_comp_start" : -1,
         "url" : "http://original.testbed.localhost/www.motogen.com/App_Themes/fa-IR/images/index.jpg",
         "id" : "r37",
         "comps" : [],
         "download" : {
            "receiveFirst" : 364,
            "len" : 17028,
            "dns" : 0,
            "dnsEnd" : -1,
            "receiveHeadersEnd" : 505,
            "sslEnd" : -1,
            "connectEnd" : 141,
            "connectStart" : 0,
            "id" : "download_36",
            "receivedTime" : "1546.9049999956",
            "sslStart" : -1,
            "dnsStart" : -1,
            "receiveLast" : 1041.9049999956,
            "s_time" : 1021.21000000625,
            "sendEnd" : 141,
            "sendStart" : 141,
            "type" : "image/jpeg"
         }
      },
      {
         "when_comp_start" : -1,
         "url" : "http://original.testbed.localhost/www.motogen.com/App_Themes/Images/bgmenu1.jpg",
         "id" : "r38",
         "comps" : [],
         "download" : {
            "receiveFirst" : 323,
            "len" : 333,
            "dns" : 0,
            "dnsEnd" : -1,
            "receiveHeadersEnd" : 508,
            "sslEnd" : -1,
            "connectEnd" : 185,
            "connectStart" : 0,
            "id" : "download_37",
            "receivedTime" : "1549.34699999285",
            "sslStart" : -1,
            "dnsStart" : -1,
            "receiveLast" : 1041.34699999285,
            "s_time" : 1028.01500001806,
            "sendEnd" : 185,
            "sendStart" : 185,
            "type" : "image/jpeg"
         }
      },
      {
         "when_comp_start" : -1,
         "url" : "http://original.testbed.localhost/www.motogen.com/App_Themes/Images/bgmenuV.jpg",
         "id" : "r39",
         "comps" : [],
         "download" : {
            "receiveFirst" : 300,
            "len" : 333,
            "dns" : 0,
            "dnsEnd" : -1,
            "receiveHeadersEnd" : 492,
            "sslEnd" : -1,
            "connectEnd" : 192,
            "connectStart" : 0,
            "id" : "download_38",
            "receivedTime" : "1560.30199999805",
            "sslStart" : -1,
            "dnsStart" : -1,
            "receiveLast" : 1068.30199999805,
            "s_time" : 1044.66200000024,
            "sendEnd" : 192,
            "sendStart" : 192,
            "type" : "image/jpeg"
         }
      },
      {
         "when_comp_start" : -1,
         "url" : "http://original.testbed.localhost/www.motogen.com/App_Themes/fa-IR/images/bgrightmenu.jpg",
         "id" : "r40",
         "comps" : [],
         "download" : {
            "receiveFirst" : 152,
            "len" : 386,
            "dns" : 0,
            "dnsEnd" : -1,
            "receiveHeadersEnd" : 489,
            "sslEnd" : -1,
            "connectEnd" : 337,
            "connectStart" : 0,
            "id" : "download_39",
            "receivedTime" : "1567.7180000057",
            "sslStart" : -1,
            "dnsStart" : -1,
            "receiveLast" : 1078.7180000057,
            "s_time" : 1065.49000000814,
            "sendEnd" : 337,
            "sendStart" : 337,
            "type" : "image/jpeg"
         }
      },
      {
         "when_comp_start" : -1,
         "url" : "http://original.testbed.localhost/www.motogen.com/App_Themes/Images/BgfooterL.gif",
         "id" : "r41",
         "comps" : [],
         "download" : {
            "receiveFirst" : 53,
            "len" : 111,
            "dns" : 0,
            "dnsEnd" : -1,
            "receiveHeadersEnd" : 416,
            "sslEnd" : -1,
            "connectEnd" : 363,
            "connectStart" : 0,
            "id" : "download_40",
            "receivedTime" : "1581.93899999605",
            "sslStart" : -1,
            "dnsStart" : -1,
            "receiveLast" : 1165.93899999605,
            "s_time" : 1160.30899999896,
            "sendEnd" : 363,
            "sendStart" : 363,
            "type" : "image/gif"
         }
      },
      {
         "when_comp_start" : -1,
         "url" : "http://original.testbed.localhost/www.motogen.com/App_Themes/Images/menuFsep.gif",
         "id" : "r42",
         "comps" : [],
         "download" : {
            "receiveFirst" : 55,
            "len" : 91,
            "dns" : 0,
            "dnsEnd" : -1,
            "receiveHeadersEnd" : 374,
            "sslEnd" : -1,
            "connectEnd" : 319,
            "connectStart" : 0,
            "id" : "download_41",
            "receivedTime" : "1588.95800000755",
            "sslStart" : -1,
            "dnsStart" : -1,
            "receiveLast" : 1214.95800000755,
            "s_time" : 1207.77800001088,
            "sendEnd" : 319,
            "sendStart" : 319,
            "type" : "image/gif"
         }
      },
      {
         "when_comp_start" : -1,
         "url" : "http://original.testbed.localhost/www.motogen.com/App_Themes/Images/BgfooterR.gif",
         "id" : "r43",
         "comps" : [],
         "download" : {
            "receiveFirst" : 53,
            "len" : 111,
            "dns" : 0,
            "dnsEnd" : -1,
            "receiveHeadersEnd" : 360,
            "sslEnd" : -1,
            "connectEnd" : 307,
            "connectStart" : 0,
            "id" : "download_42",
            "receivedTime" : "1601.22599999886",
            "sslStart" : -1,
            "dnsStart" : -1,
            "receiveLast" : 1241.22599999886,
            "s_time" : 1234.10000000149,
            "sendEnd" : 307,
            "sendStart" : 307,
            "type" : "image/gif"
         }
      }
   ],
   "deps" : [
      {
         "a2" : "r1_c2",
         "time" : -1,
         "id" : "dep1",
         "a1" : "comp_4"
      },
      {
         "a2" : "comp_4",
         "time" : -1,
         "id" : "dep2",
         "a1" : "comp_0"
      },
      {
         "a2" : "comp_4",
         "time" : -1,
         "id" : "dep3",
         "a1" : "comp_1"
      },
      {
         "a2" : "comp_4",
         "time" : -1,
         "id" : "dep4",
         "a1" : "comp_2"
      },
      {
         "a2" : "comp_4",
         "time" : -1,
         "id" : "dep5",
         "a1" : "comp_3"
      },
      {
         "a2" : "download_42",
         "time" : -1,
         "id" : "dep6",
         "a1" : "r1_c2"
      },
      {
         "a2" : "download_41",
         "time" : 820.968000014549,
         "id" : "dep7",
         "a1" : "r1_c2"
      },
      {
         "a2" : "download_40",
         "time" : 773.499000002629,
         "id" : "dep8",
         "a1" : "r1_c2"
      },
      {
         "a2" : "download_39",
         "time" : 678.680000011809,
         "id" : "dep9",
         "a1" : "r1_c2"
      },
      {
         "a2" : "download_38",
         "time" : 657.852000003909,
         "id" : "dep10",
         "a1" : "r1_c2"
      },
      {
         "a2" : "download_37",
         "time" : 641.205000021729,
         "id" : "dep11",
         "a1" : "r1_c2"
      },
      {
         "a2" : "download_36",
         "time" : 634.400000009919,
         "id" : "dep12",
         "a1" : "r1_c2"
      },
      {
         "a2" : "download_35",
         "time" : 617.675000015879,
         "id" : "dep13",
         "a1" : "r1_c2"
      },
      {
         "a2" : "download_34",
         "time" : 602.41700001643,
         "id" : "dep14",
         "a1" : "r1_c2"
      },
      {
         "a2" : "download_33",
         "time" : 598.724000010406,
         "id" : "dep15",
         "a1" : "r1_c2"
      },
      {
         "a2" : "download_32",
         "time" : 578.888000018196,
         "id" : "dep16",
         "a1" : "r1_c2"
      },
      {
         "a2" : "download_31",
         "time" : 546.845000004395,
         "id" : "dep17",
         "a1" : "r1_c2"
      },
      {
         "a2" : "download_30",
         "time" : 542.952999996487,
         "id" : "dep18",
         "a1" : "r1_c2"
      },
      {
         "a2" : "download_29",
         "time" : 531.524000019999,
         "id" : "dep19",
         "a1" : "r1_c2"
      },
      {
         "a2" : "download_28",
         "time" : 523.773000022629,
         "id" : "dep20",
         "a1" : "r1_c2"
      },
      {
         "a2" : "download_27",
         "time" : 516.678000014508,
         "id" : "dep21",
         "a1" : "r1_c2"
      },
      {
         "a2" : "download_26",
         "time" : 468.550999998115,
         "id" : "dep22",
         "a1" : "r1_c2"
      },
      {
         "a2" : "download_25",
         "time" : 320.342999999411,
         "id" : "dep23",
         "a1" : "r1_c2"
      },
      {
         "a2" : "download_24",
         "time" : 319.213000009767,
         "id" : "dep24",
         "a1" : "r1_c2"
      },
      {
         "a2" : "download_23",
         "time" : 311.294000013731,
         "id" : "dep25",
         "a1" : "r1_c2"
      },
      {
         "a2" : "download_22",
         "time" : 297.759000008227,
         "id" : "dep26",
         "a1" : "r1_c2"
      },
      {
         "a2" : "download_21",
         "time" : 278.183000016724,
         "id" : "dep27",
         "a1" : "r1_c2"
      },
      {
         "a2" : "download_20",
         "time" : 290.024000016274,
         "id" : "dep28",
         "a1" : "r1_c2"
      },
      {
         "a2" : "download_19",
         "time" : 167.023000016342,
         "id" : "dep29",
         "a1" : "r1_c2"
      },
      {
         "a2" : "download_18",
         "time" : 152.862000017194,
         "id" : "dep30",
         "a1" : "r1_c2"
      },
      {
         "a2" : "download_17",
         "time" : 136.124000011477,
         "id" : "dep31",
         "a1" : "r1_c2"
      },
      {
         "a2" : "download_16",
         "time" : 87.81500000623,
         "id" : "dep32",
         "a1" : "r1_c2"
      },
      {
         "a2" : "download_15",
         "time" : 84.411999996518,
         "id" : "dep33",
         "a1" : "r1_c2"
      },
      {
         "a2" : "download_14",
         "time" : 84.136000019498,
         "id" : "dep34",
         "a1" : "r1_c2"
      },
      {
         "a2" : "download_13",
         "time" : 82.427999994251,
         "id" : "dep35",
         "a1" : "r1_c2"
      },
      {
         "a2" : "download_12",
         "time" : 81.741000001784,
         "id" : "dep36",
         "a1" : "r1_c2"
      },
      {
         "a2" : "download_11",
         "time" : 80.826000019442,
         "id" : "dep37",
         "a1" : "r1_c2"
      },
      {
         "a2" : "download_10",
         "time" : -1,
         "id" : "dep38",
         "a1" : "r1_c1"
      },
      {
         "a2" : "download_9",
         "time" : 207.397000020138,
         "id" : "dep39",
         "a1" : "r1_c1"
      },
      {
         "a2" : "download_8",
         "time" : 206.695000000764,
         "id" : "dep40",
         "a1" : "r1_c1"
      },
      {
         "a2" : "download_7",
         "time" : 203.826000011759,
         "id" : "dep41",
         "a1" : "r1_c1"
      },
      {
         "a2" : "download_6",
         "time" : 18.172000010964,
         "id" : "dep42",
         "a1" : "r1_c1"
      },
      {
         "a2" : "download_5",
         "time" : 4.66900001629301,
         "id" : "dep43",
         "a1" : "r1_c1"
      },
      {
         "a2" : "download_4",
         "time" : 3.60100000398302,
         "id" : "dep44",
         "a1" : "r1_c1"
      },
      {
         "a2" : "download_3",
         "time" : 2.533000020776,
         "id" : "dep45",
         "a1" : "r1_c1"
      },
      {
         "a2" : "download_2",
         "time" : 1.77000000258002,
         "id" : "dep46",
         "a1" : "r1_c1"
      },
      {
         "a2" : "download_1",
         "time" : 1.281000004383,
         "id" : "dep47",
         "a1" : "r1_c1"
      }
   ]
}
