{
   "n_download_no_trigger" : 1,
   "start_activity" : "download_0",
   "name" : "modified.testbed.localhost_www.ameblo.jp_",
   "load_activity" : -1,
   "objs" : [
      {
         "when_comp_start" : 1,
         "url" : "http://modified.testbed.localhost/www.ameblo.jp/",
         "id" : "r1",
         "comps" : [
            {
               "s_time" : 87.0339999964926,
               "time" : 84.3210000020914,
               "id" : "r1_c1",
               "type" : "evalhtml",
               "e_time" : 171.354999998584
            },
            {
               "s_time" : 171.941000007791,
               "time" : 364.754999987781,
               "id" : "r1_c2",
               "type" : "evalhtml",
               "e_time" : 536.695999995572
            },
            {
               "s_time" : 574.947000015527,
               "time" : -135056164.828,
               "id" : "r1_c3",
               "type" : "evalhtml",
               "e_time" : -135055589.881
            },
            {
               "s_time" : 578.66900000954,
               "time" : -135056168.55,
               "id" : "r1_c4",
               "type" : "evalhtml",
               "e_time" : -135055589.881
            },
            {
               "s_time" : 580.61400000588,
               "time" : 630.06200001109,
               "type" : "evalhtml",
               "id" : "r1_c5",
               "e_time" : 1210.67600001697
            }
         ],
         "download" : {
            "receiveFirst" : 23,
            "len" : 29144,
            "dns" : 0,
            "dnsEnd" : -1,
            "receiveHeadersEnd" : 23,
            "sslEnd" : -1,
            "connectEnd" : 0,
            "connectStart" : 0,
            "id" : "download_0",
            "receivedTime" : "86.3830000162125",
            "sslStart" : -1,
            "dnsStart" : -1,
            "receiveLast" : 63.3830000162125,
            "s_time" : 0,
            "sendEnd" : 0,
            "sendStart" : 0,
            "type" : "text/html"
         }
      },
      {
         "when_comp_start" : -1,
         "url" : "http://modified.testbed.localhost/stat100.ameba.jp/ameblo/pc/css/amebabar/ameblo.common.hf.white.1.0.1.css",
         "id" : "r2",
         "comps" : [
            {
               "s_time" : 112.90900001768,
               "time" : 0.673999980790995,
               "type" : 4,
               "id" : "comp_0",
               "e_time" : 113.582999998471
            }
         ],
         "download" : {
            "receiveFirst" : 23,
            "len" : 5968,
            "dns" : 0,
            "dnsEnd" : -1,
            "receiveHeadersEnd" : 23,
            "sslEnd" : -1,
            "connectEnd" : 0,
            "connectStart" : 0,
            "id" : "download_1",
            "receivedTime" : "112.743000005139",
            "sslStart" : -1,
            "dnsStart" : -1,
            "receiveLast" : 89.743000005139,
            "s_time" : 87.9800000111572,
            "sendEnd" : 0,
            "sendStart" : 0,
            "type" : "text/css"
         }
      },
      {
         "when_comp_start" : -1,
         "url" : "http://modified.testbed.localhost/stat100.ameba.jp/ameblo/pc/css/portalMain-1.0.0.css",
         "id" : "r3",
         "comps" : [
            {
               "s_time" : 118.501000019023,
               "time" : 1.15799999912301,
               "type" : 4,
               "id" : "comp_1",
               "e_time" : 119.659000018146
            }
         ],
         "download" : {
            "receiveFirst" : 25,
            "len" : 12836,
            "dns" : 0,
            "dnsEnd" : -1,
            "receiveHeadersEnd" : 25,
            "sslEnd" : -1,
            "connectEnd" : 0,
            "connectStart" : 0,
            "id" : "download_2",
            "receivedTime" : "118.331000005128",
            "sslStart" : -1,
            "dnsStart" : -1,
            "receiveLast" : 93.3310000051279,
            "s_time" : 90.0470000051428,
            "sendEnd" : 0,
            "sendStart" : 0,
            "type" : "text/css"
         }
      },
      {
         "when_comp_start" : -1,
         "url" : "http://modified.testbed.localhost/stat100.ameba.jp/ameblo/pc/css/portalLib-1.0.0.css",
         "id" : "r4",
         "comps" : [
            {
               "s_time" : 120.978000020841,
               "time" : 14.765999978408,
               "type" : 4,
               "id" : "comp_2",
               "e_time" : 135.743999999249
            }
         ],
         "download" : {
            "receiveFirst" : 29,
            "len" : 1183,
            "dns" : 0,
            "dnsEnd" : -1,
            "receiveHeadersEnd" : 29,
            "sslEnd" : -1,
            "connectEnd" : 0,
            "connectStart" : 0,
            "id" : "download_3",
            "receivedTime" : "120.804000005592",
            "sslStart" : -1,
            "dnsStart" : -1,
            "receiveLast" : 91.8040000055917,
            "s_time" : 90.9760000067763,
            "sendEnd" : 0,
            "sendStart" : 0,
            "type" : "text/css"
         }
      },
      {
         "when_comp_start" : -1,
         "url" : "http://modified.testbed.localhost/stat100.ameba.jp/blog/img/blog_top/ameba_logo.png",
         "id" : "r5",
         "comps" : [],
         "download" : {
            "receiveFirst" : 32,
            "len" : 944,
            "dns" : 0,
            "dnsEnd" : -1,
            "receiveHeadersEnd" : 32,
            "sslEnd" : -1,
            "connectEnd" : 0,
            "connectStart" : 0,
            "id" : "download_4",
            "receivedTime" : "135.846999997739",
            "sslStart" : -1,
            "dnsStart" : -1,
            "receiveLast" : 103.846999997739,
            "s_time" : 91.9580000045244,
            "sendEnd" : 0,
            "sendStart" : 0,
            "type" : "image/png"
         }
      },
      {
         "when_comp_start" : -1,
         "url" : "http://modified.testbed.localhost/stat100.ameba.jp/ameblo/pc/img/amebloJp/filter_328_205.png",
         "id" : "r6",
         "comps" : [],
         "download" : {
            "receiveFirst" : 23,
            "len" : 116,
            "dns" : 0,
            "dnsEnd" : -1,
            "receiveHeadersEnd" : 34,
            "sslEnd" : -1,
            "connectEnd" : 11,
            "connectStart" : 0,
            "id" : "download_5",
            "receivedTime" : "136.115000001155",
            "sslStart" : -1,
            "dnsStart" : -1,
            "receiveLast" : 102.115000001155,
            "s_time" : 93.0200000002515,
            "sendEnd" : 11,
            "sendStart" : 11,
            "type" : "image/png"
         }
      },
      {
         "when_comp_start" : -1,
         "url" : "http://modified.testbed.localhost/stat100.ameba.jp/ameblo/pc/img/amebloJp/filter_145_145.png",
         "id" : "r7",
         "comps" : [],
         "download" : {
            "receiveFirst" : 26,
            "len" : 110,
            "dns" : 0,
            "dnsEnd" : -1,
            "receiveHeadersEnd" : 37,
            "sslEnd" : -1,
            "connectEnd" : 10,
            "connectStart" : 0,
            "id" : "download_6",
            "receivedTime" : "167.742000019643",
            "sslStart" : -1,
            "dnsStart" : -1,
            "receiveLast" : 130.742000019643,
            "s_time" : 93.525000003865,
            "sendEnd" : 11,
            "sendStart" : 10,
            "type" : "image/png"
         }
      },
      {
         "when_comp_start" : -1,
         "url" : "http://modified.testbed.localhost/stat100.ameba.jp/ameblo/pc/js/amebabar/ameblo.common.hf.1.4.0.js",
         "id" : "r19",
         "comps" : [
            {
               "s_time" : 168.621999997413,
               "time" : 3.31900001037798,
               "type" : 1,
               "id" : "comp_4",
               "e_time" : 171.941000007791
            }
         ],
         "download" : {
            "receiveFirst" : 23,
            "len" : 5897,
            "dns" : 0,
            "dnsEnd" : -1,
            "receiveHeadersEnd" : 37,
            "sslEnd" : -1,
            "connectEnd" : 14,
            "connectStart" : 0,
            "id" : "download_7",
            "receivedTime" : "168.508000002475",
            "sslStart" : -1,
            "dnsStart" : -1,
            "receiveLast" : 131.508000002475,
            "s_time" : 98.2329999969807,
            "sendEnd" : 14,
            "sendStart" : 14,
            "type" : "application/javascript"
         }
      },
      {
         "when_comp_start" : -1,
         "url" : "http://modified.testbed.localhost/stat100.ameba.jp/ameblo/pc/js/lib-1.0.0.js",
         "id" : "r20",
         "comps" : [
            {
               "s_time" : 567.723999993177,
               "time" : 7.22300002234999,
               "type" : 1,
               "id" : "comp_7",
               "e_time" : 574.947000015527
            }
         ],
         "download" : {
            "receiveFirst" : 23,
            "len" : 150859,
            "dns" : 0,
            "dnsEnd" : -1,
            "receiveHeadersEnd" : 43,
            "sslEnd" : -1,
            "connectEnd" : 20,
            "connectStart" : 0,
            "id" : "download_8",
            "receivedTime" : "567.252000008011",
            "sslStart" : -1,
            "dnsStart" : -1,
            "receiveLast" : 524.252000008011,
            "s_time" : 98.4350000217091,
            "sendEnd" : 20,
            "sendStart" : 20,
            "type" : "application/javascript"
         }
      },
      {
         "when_comp_start" : -1,
         "url" : "http://modified.testbed.localhost/stat100.ameba.jp/blogportal/img/blogger/noricoco1023.jpeg",
         "id" : "r8",
         "comps" : [],
         "download" : {
            "receiveFirst" : 23,
            "len" : 44796,
            "dns" : 0,
            "dnsEnd" : -1,
            "receiveHeadersEnd" : 52,
            "sslEnd" : -1,
            "connectEnd" : 29,
            "connectStart" : 0,
            "id" : "download_9",
            "receivedTime" : "560.696000000462",
            "sslStart" : -1,
            "dnsStart" : -1,
            "receiveLast" : 508.696000000462,
            "s_time" : 94.4650000019465,
            "sendEnd" : 29,
            "sendStart" : 29,
            "type" : "image/jpeg"
         }
      },
      {
         "when_comp_start" : -1,
         "url" : "http://modified.testbed.localhost/stat.profile.ameba.jp/profile_images/3f/mmdisneymm/1216653739545.jpg",
         "id" : "r9",
         "comps" : [],
         "download" : {
            "receiveFirst" : 25,
            "len" : 7633,
            "dns" : 0,
            "dnsEnd" : -1,
            "receiveHeadersEnd" : 55,
            "sslEnd" : -1,
            "connectEnd" : 30,
            "connectStart" : 0,
            "id" : "download_10",
            "receivedTime" : "174.296000011964",
            "sslStart" : -1,
            "dnsStart" : -1,
            "receiveLast" : 119.296000011964,
            "s_time" : 95.1670000213198,
            "sendEnd" : 30,
            "sendStart" : 30,
            "type" : "image/jpeg"
         }
      },
      {
         "when_comp_start" : -1,
         "url" : "http://modified.testbed.localhost/stat100.ameba.jp/blogportal/img/blogger/yuuyaismyself.jpeg",
         "id" : "r10",
         "comps" : [],
         "download" : {
            "receiveFirst" : 25,
            "len" : 61481,
            "dns" : 0,
            "dnsEnd" : -1,
            "receiveHeadersEnd" : 57,
            "sslEnd" : -1,
            "connectEnd" : 32,
            "connectStart" : 0,
            "id" : "download_11",
            "receivedTime" : "562.922000011895",
            "sslStart" : -1,
            "dnsStart" : -1,
            "receiveLast" : 505.922000011895,
            "s_time" : 95.6909999949858,
            "sendEnd" : 32,
            "sendStart" : 32,
            "type" : "image/jpeg"
         }
      },
      {
         "when_comp_start" : -1,
         "url" : "http://modified.testbed.localhost/stat.profile.ameba.jp/profile_images/20141231/17/54/CO/j/o064006401420015462527.jpg",
         "id" : "r11",
         "comps" : [],
         "download" : {
            "receiveFirst" : 26,
            "len" : 38079,
            "dns" : 0,
            "dnsEnd" : -1,
            "receiveHeadersEnd" : 60,
            "sslEnd" : -1,
            "connectEnd" : 34,
            "connectStart" : 0,
            "id" : "download_12",
            "receivedTime" : "557.969000015873",
            "sslStart" : -1,
            "dnsStart" : -1,
            "receiveLast" : 497.969000015873,
            "s_time" : 96.0699999995995,
            "sendEnd" : 34,
            "sendStart" : 34,
            "type" : "image/jpeg"
         }
      },
      {
         "when_comp_start" : -1,
         "url" : "http://modified.testbed.localhost/stat.profile.ameba.jp/profile_images/7b/gurumesyatyou/1195739032726.jpg",
         "id" : "r12",
         "comps" : [],
         "download" : {
            "receiveFirst" : 24,
            "len" : 4549,
            "dns" : 0,
            "dnsEnd" : -1,
            "receiveHeadersEnd" : 64,
            "sslEnd" : -1,
            "connectEnd" : 40,
            "connectStart" : 0,
            "id" : "download_13",
            "receivedTime" : "177.705000009155",
            "sslStart" : -1,
            "dnsStart" : -1,
            "receiveLast" : 113.705000009155,
            "s_time" : 96.2900000158697,
            "sendEnd" : 40,
            "sendStart" : 40,
            "type" : "image/jpeg"
         }
      },
      {
         "when_comp_start" : -1,
         "url" : "http://www.googletagmanager.com/gtm.js?id=GTM-WHNR29",
         "id" : "r21",
         "comps" : [
            {
               "s_time" : 616.370000003371,
               "time" : 103.4450000152,
               "type" : null,
               "id" : "comp_19",
               "e_time" : 719.815000018571
            }
         ],
         "download" : {
            "receiveFirst" : 53,
            "len" : 74188,
            "dns" : 0,
            "dnsEnd" : -1,
            "receiveHeadersEnd" : 54,
            "sslEnd" : -1,
            "connectEnd" : 1,
            "connectStart" : 0,
            "id" : "download_14",
            "receivedTime" : "562.055000016699",
            "sslStart" : -1,
            "dnsStart" : -1,
            "receiveLast" : 508.055000016699,
            "s_time" : 127.911999996286,
            "sendEnd" : 1,
            "sendStart" : 1,
            "type" : "text/javascript"
         }
      },
      {
         "when_comp_start" : -1,
         "url" : "http://modified.testbed.localhost/stat.profile.ameba.jp/profile_images/20140929/17/d3/as/j/o064006401411981025400.jpg",
         "id" : "r13",
         "comps" : [],
         "download" : {
            "receiveFirst" : 33,
            "len" : 95425,
            "dns" : 0,
            "dnsEnd" : -1,
            "receiveHeadersEnd" : 88,
            "sslEnd" : -1,
            "connectEnd" : 55,
            "connectStart" : 0,
            "id" : "download_15",
            "receivedTime" : "589.594999997644",
            "sslStart" : -1,
            "dnsStart" : -1,
            "receiveLast" : 501.594999997644,
            "s_time" : 96.6159999952652,
            "sendEnd" : 55,
            "sendStart" : 55,
            "type" : "image/jpeg"
         }
      },
      {
         "when_comp_start" : -1,
         "url" : "http://modified.testbed.localhost/sy.ameblo.jp/sync/index.html%3Forg=sy.ameblo.jp",
         "id" : "r18",
         "comps" : [],
         "download" : {
            "receiveFirst" : 44,
            "len" : 43,
            "dns" : 0,
            "dnsEnd" : -1,
            "receiveHeadersEnd" : 54,
            "sslEnd" : -1,
            "connectEnd" : 10,
            "connectStart" : 0,
            "id" : "download_16",
            "receivedTime" : "559.028999996372",
            "sslStart" : -1,
            "dnsStart" : -1,
            "receiveLast" : 505.028999996372,
            "s_time" : 152.051000011852,
            "sendEnd" : 10,
            "sendStart" : 10,
            "type" : "image/gif"
         }
      },
      {
         "when_comp_start" : -1,
         "url" : "http://modified.testbed.localhost/stat100.ameba.jp/ameblo/pc/js/portalLib-1.0.0.js",
         "id" : "r45",
         "comps" : [
            {
               "s_time" : 575.077999994392,
               "time" : 3.59100001514798,
               "type" : 1,
               "id" : "comp_8",
               "e_time" : 578.66900000954
            }
         ],
         "download" : {
            "receiveFirst" : 31,
            "len" : 19654,
            "dns" : 0,
            "dnsEnd" : -1,
            "receiveHeadersEnd" : 72,
            "sslEnd" : -1,
            "connectEnd" : 41,
            "connectStart" : 0,
            "id" : "download_17",
            "receivedTime" : "564.773000020068",
            "sslStart" : -1,
            "dnsStart" : -1,
            "receiveLast" : 492.773000020068,
            "s_time" : 165.464999998221,
            "sendEnd" : 41,
            "sendStart" : 41,
            "type" : "application/javascript"
         }
      },
      {
         "when_comp_start" : -1,
         "url" : "http://modified.testbed.localhost/stat100.ameba.jp/ameblo/pc/js/portalMain-1.0.0.js",
         "id" : "r46",
         "comps" : [
            {
               "s_time" : 578.733000002103,
               "time" : 1.88100000377699,
               "type" : 1,
               "id" : "comp_9",
               "e_time" : 580.61400000588
            }
         ],
         "download" : {
            "receiveFirst" : 37,
            "len" : 3281,
            "dns" : 0,
            "dnsEnd" : -1,
            "receiveHeadersEnd" : 79,
            "sslEnd" : -1,
            "connectEnd" : 42,
            "connectStart" : 0,
            "id" : "download_18",
            "receivedTime" : "565.612000005785",
            "sslStart" : -1,
            "dnsStart" : -1,
            "receiveLast" : 486.612000005785,
            "s_time" : 166.358999995282,
            "sendEnd" : 42,
            "sendStart" : 42,
            "type" : "application/javascript"
         }
      },
      {
         "when_comp_start" : -1,
         "url" : "http://modified.testbed.localhost/stat100.ameba.jp/blogportal/img/banner/16_1435845724376.jpeg",
         "id" : "r22",
         "comps" : [],
         "download" : {
            "receiveFirst" : 33,
            "len" : 112559,
            "dns" : 0,
            "dnsEnd" : -1,
            "receiveHeadersEnd" : 94,
            "sslEnd" : -1,
            "connectEnd" : 61,
            "connectStart" : 0,
            "id" : "download_19",
            "receivedTime" : "595.149000000674",
            "sslStart" : -1,
            "dnsStart" : -1,
            "receiveLast" : 501.149000000674,
            "s_time" : 163.352000003215,
            "sendEnd" : 61,
            "sendStart" : 61,
            "type" : "image/jpeg"
         }
      },
      {
         "when_comp_start" : -1,
         "url" : "http://modified.testbed.localhost/stat100.ameba.jp/blogportal/img/banner/15_1435747271369.jpeg",
         "id" : "r23",
         "comps" : [],
         "download" : {
            "receiveFirst" : 44,
            "len" : 80317,
            "dns" : 0,
            "dnsEnd" : -1,
            "receiveHeadersEnd" : 72,
            "sslEnd" : -1,
            "connectEnd" : 28,
            "connectStart" : 0,
            "id" : "download_20",
            "receivedTime" : "592.768000002252",
            "sslStart" : -1,
            "dnsStart" : -1,
            "receiveLast" : 520.768000002252,
            "s_time" : 206.650000007357,
            "sendEnd" : 28,
            "sendStart" : 28,
            "type" : "image/jpeg"
         }
      },
      {
         "when_comp_start" : -1,
         "url" : "http://modified.testbed.localhost/stat100.ameba.jp/blogportal/img/banner/12_1435747168978.jpeg",
         "id" : "r24",
         "comps" : [],
         "download" : {
            "receiveFirst" : 50,
            "len" : 130313,
            "dns" : 0,
            "dnsEnd" : -1,
            "receiveHeadersEnd" : 84,
            "sslEnd" : -1,
            "connectEnd" : 34,
            "connectStart" : 0,
            "id" : "download_21",
            "receivedTime" : "600.592000002507",
            "sslStart" : -1,
            "dnsStart" : -1,
            "receiveLast" : 516.592000002507,
            "s_time" : 208.909000008134,
            "sendEnd" : 34,
            "sendStart" : 34,
            "type" : "image/jpeg"
         }
      },
      {
         "when_comp_start" : -1,
         "url" : "http://modified.testbed.localhost/stat100.ameba.jp/ameblo/pc/img/amebloJp/arrow_right.png",
         "id" : "r25",
         "comps" : [],
         "download" : {
            "receiveFirst" : 55,
            "len" : 170,
            "dns" : 0,
            "dnsEnd" : -1,
            "receiveHeadersEnd" : 77,
            "sslEnd" : -1,
            "connectEnd" : 22,
            "connectStart" : 0,
            "id" : "download_22",
            "receivedTime" : "596.822999999858",
            "sslStart" : -1,
            "dnsStart" : -1,
            "receiveLast" : 519.822999999858,
            "s_time" : 224.392000003718,
            "sendEnd" : 22,
            "sendStart" : 22,
            "type" : "image/png"
         }
      },
      {
         "when_comp_start" : -1,
         "url" : "http://modified.testbed.localhost/stat100.ameba.jp/ameblo/pc/img/amebloJp/search.png",
         "id" : "r26",
         "comps" : [],
         "download" : {
            "receiveFirst" : 57,
            "len" : 257,
            "dns" : 0,
            "dnsEnd" : -1,
            "receiveHeadersEnd" : 77,
            "sslEnd" : -1,
            "connectEnd" : 20,
            "connectStart" : 0,
            "id" : "download_23",
            "receivedTime" : "597.06100000767",
            "sslStart" : -1,
            "dnsStart" : -1,
            "receiveLast" : 520.06100000767,
            "s_time" : 233.982000005199,
            "sendEnd" : 20,
            "sendStart" : 20,
            "type" : "image/png"
         }
      },
      {
         "when_comp_start" : -1,
         "url" : "http://modified.testbed.localhost/stat100.ameba.jp/blogportal/img/blogger/neko-no-kanzume.jpeg",
         "id" : "r14",
         "comps" : [],
         "download" : {
            "receiveFirst" : 33,
            "len" : 1287549,
            "dns" : 0,
            "dnsEnd" : -1,
            "receiveHeadersEnd" : 246,
            "sslEnd" : -1,
            "connectEnd" : 213,
            "connectStart" : 0,
            "id" : "download_24",
            "receivedTime" : "1247.49100001645",
            "sslStart" : -1,
            "dnsStart" : -1,
            "receiveLast" : 1001.49100001645,
            "s_time" : 96.8590000120457,
            "sendEnd" : 213,
            "sendStart" : 213,
            "type" : "image/jpeg"
         }
      },
      {
         "when_comp_start" : -1,
         "url" : "http://modified.testbed.localhost/stat.profile.ameba.jp/profile_images/20140925/17/60/XL/j/o015001501411634292327.jpg",
         "id" : "r15",
         "comps" : [],
         "download" : {
            "receiveFirst" : 36,
            "len" : 6112,
            "dns" : 0,
            "dnsEnd" : -1,
            "receiveHeadersEnd" : 240,
            "sslEnd" : -1,
            "connectEnd" : 204,
            "connectStart" : 0,
            "id" : "download_25",
            "receivedTime" : "598.729000019375",
            "sslStart" : -1,
            "dnsStart" : -1,
            "receiveLast" : 358.729000019375,
            "s_time" : 123.575000005076,
            "sendEnd" : 204,
            "sendStart" : 204,
            "type" : "image/jpeg"
         }
      },
      {
         "when_comp_start" : -1,
         "url" : "http://modified.testbed.localhost/stat100.ameba.jp/blogportal/img/blogger/kohamu17.jpeg",
         "id" : "r16",
         "comps" : [],
         "download" : {
            "receiveFirst" : 38,
            "len" : 1818198,
            "dns" : 0,
            "dnsEnd" : -1,
            "receiveHeadersEnd" : 272,
            "sslEnd" : -1,
            "connectEnd" : 234,
            "connectStart" : 0,
            "id" : "download_26",
            "receivedTime" : "1639.78900000802",
            "sslStart" : -1,
            "dnsStart" : -1,
            "receiveLast" : 1367.78900000802,
            "s_time" : 126.21700001182,
            "sendEnd" : 234,
            "sendStart" : 234,
            "type" : "image/jpeg"
         }
      },
      {
         "when_comp_start" : -1,
         "url" : "http://stat100.ameba.jp/mypg/cache/data/commonHeader.jsonp?callback=commonHeaderCallBack&_=1435904749732",
         "id" : "r47",
         "comps" : [
            {
               "s_time" : 719.833000010112,
               "time" : 2.62499999371403,
               "type" : null,
               "id" : "comp_21",
               "e_time" : 722.458000003826
            }
         ],
         "download" : {
            "receiveFirst" : 47,
            "len" : 245,
            "dns" : 58,
            "dnsEnd" : 58,
            "receiveHeadersEnd" : 154,
            "sslEnd" : -1,
            "connectEnd" : 107,
            "connectStart" : 0,
            "id" : "download_27",
            "receivedTime" : "597.311999998055",
            "sslStart" : -1,
            "dnsStart" : 0,
            "receiveLast" : 443.311999998055,
            "s_time" : 171.354999998584,
            "sendEnd" : 107,
            "sendStart" : 107,
            "type" : "application/octet-stream"
         }
      },
      {
         "when_comp_start" : -1,
         "url" : "http://modified.testbed.localhost/act.ameba.jp/common/39667614b2243c27670d466217146442f4009813333153330433698333148330939646c6f642df1676592676fed766ff006",
         "id" : "r17",
         "comps" : [],
         "download" : {
            "receiveFirst" : 31,
            "len" : 43,
            "dns" : 0,
            "dnsEnd" : -1,
            "receiveHeadersEnd" : 375,
            "sslEnd" : -1,
            "connectEnd" : 344,
            "connectStart" : 0,
            "id" : "download_28",
            "receivedTime" : "606.488999997964",
            "sslStart" : -1,
            "dnsStart" : -1,
            "receiveLast" : 231.488999997964,
            "s_time" : 129.848000011407,
            "sendEnd" : 344,
            "sendStart" : 344,
            "type" : "image/gif"
         }
      },
      {
         "when_comp_start" : -1,
         "url" : "http://modified.testbed.localhost/stat100.ameba.jp/blogportal/img/feature/4_1_1435746643997.jpeg",
         "id" : "r27",
         "comps" : [],
         "download" : {
            "receiveFirst" : 31,
            "len" : 110314,
            "dns" : 0,
            "dnsEnd" : -1,
            "receiveHeadersEnd" : 196,
            "sslEnd" : -1,
            "connectEnd" : 165,
            "connectStart" : 0,
            "id" : "download_29",
            "receivedTime" : "796.400000021094",
            "sslStart" : -1,
            "dnsStart" : -1,
            "receiveLast" : 600.400000021094,
            "s_time" : 310.912999993889,
            "sendEnd" : 165,
            "sendStart" : 165,
            "type" : "image/jpeg"
         }
      },
      {
         "when_comp_start" : -1,
         "url" : "http://modified.testbed.localhost/stat100.ameba.jp/blogportal/img/feature/4_2_1435746644315.jpeg",
         "id" : "r28",
         "comps" : [],
         "download" : {
            "receiveFirst" : 46,
            "len" : 38091,
            "dns" : 0,
            "dnsEnd" : -1,
            "receiveHeadersEnd" : 197,
            "sslEnd" : -1,
            "connectEnd" : 151,
            "connectStart" : 0,
            "id" : "download_30",
            "receivedTime" : "611.807000008412",
            "sslStart" : -1,
            "dnsStart" : -1,
            "receiveLast" : 414.807000008412,
            "s_time" : 329.0960000013,
            "sendEnd" : 151,
            "sendStart" : 151,
            "type" : "image/jpeg"
         }
      },
      {
         "when_comp_start" : -1,
         "url" : "http://modified.testbed.localhost/stat100.ameba.jp/blogportal/img/feature/4_3_1435746644555.jpeg",
         "id" : "r29",
         "comps" : [],
         "download" : {
            "receiveFirst" : 58,
            "len" : 57585,
            "dns" : 0,
            "dnsEnd" : -1,
            "receiveHeadersEnd" : 182,
            "sslEnd" : -1,
            "connectEnd" : 124,
            "connectStart" : 0,
            "id" : "download_31",
            "receivedTime" : "792.26000001654",
            "sslStart" : -1,
            "dnsStart" : -1,
            "receiveLast" : 610.26000001654,
            "s_time" : 362.01599999913,
            "sendEnd" : 124,
            "sendStart" : 124,
            "type" : "image/jpeg"
         }
      },
      {
         "when_comp_start" : -1,
         "url" : "http://modified.testbed.localhost/stat100.ameba.jp/blogportal/img/feature/4_4_1435746644808.jpeg",
         "id" : "r30",
         "comps" : [],
         "download" : {
            "receiveFirst" : 70,
            "len" : 85175,
            "dns" : 0,
            "dnsEnd" : -1,
            "receiveHeadersEnd" : 118,
            "sslEnd" : -1,
            "connectEnd" : 48,
            "connectStart" : 0,
            "id" : "download_32",
            "receivedTime" : "808.288000000175",
            "sslStart" : -1,
            "dnsStart" : -1,
            "receiveLast" : 690.288000000175,
            "s_time" : 460.045999992872,
            "sendEnd" : 48,
            "sendStart" : 48,
            "type" : "image/jpeg"
         }
      },
      {
         "when_comp_start" : -1,
         "url" : "http://modified.testbed.localhost/stat100.ameba.jp/blogportal/img/feature/4_5_1435746645061.jpeg",
         "id" : "r31",
         "comps" : [],
         "download" : {
            "receiveFirst" : 68,
            "len" : 114910,
            "dns" : 0,
            "dnsEnd" : -1,
            "receiveHeadersEnd" : 144,
            "sslEnd" : -1,
            "connectEnd" : 76,
            "connectStart" : 0,
            "id" : "download_33",
            "receivedTime" : "809.860000008484",
            "sslStart" : -1,
            "dnsStart" : -1,
            "receiveLast" : 665.860000008484,
            "s_time" : 460.67200001562,
            "sendEnd" : 76,
            "sendStart" : 76,
            "type" : "image/jpeg"
         }
      },
      {
         "when_comp_start" : -1,
         "url" : "http://modified.testbed.localhost/stat100.ameba.jp/blogportal/img/feature/4_6_1435746645355.jpeg",
         "id" : "r32",
         "comps" : [],
         "download" : {
            "receiveFirst" : 64,
            "len" : 33988,
            "dns" : 0,
            "dnsEnd" : -1,
            "receiveHeadersEnd" : 220,
            "sslEnd" : -1,
            "connectEnd" : 156,
            "connectStart" : 0,
            "id" : "download_34",
            "receivedTime" : "804.32500000461",
            "sslStart" : -1,
            "dnsStart" : -1,
            "receiveLast" : 584.32500000461,
            "s_time" : 474.485000013374,
            "sendEnd" : 156,
            "sendStart" : 156,
            "type" : "image/jpeg"
         }
      },
      {
         "when_comp_start" : -1,
         "url" : "http://modified.testbed.localhost/stat100.ameba.jp/blogportal/img/feature/2_1_1435666190173.jpeg",
         "id" : "r33",
         "comps" : [],
         "download" : {
            "receiveFirst" : 73,
            "len" : 14571,
            "dns" : 0,
            "dnsEnd" : -1,
            "receiveHeadersEnd" : 244,
            "sslEnd" : -1,
            "connectEnd" : 171,
            "connectStart" : 0,
            "id" : "download_35",
            "receivedTime" : "808.110000012675",
            "sslStart" : -1,
            "dnsStart" : -1,
            "receiveLast" : 564.110000012675,
            "s_time" : 481.817000021692,
            "sendEnd" : 171,
            "sendStart" : 171,
            "type" : "image/jpeg"
         }
      },
      {
         "when_comp_start" : -1,
         "url" : "http://modified.testbed.localhost/stat100.ameba.jp/blogportal/img/feature/2_2_1435666190415.jpeg",
         "id" : "r34",
         "comps" : [],
         "download" : {
            "receiveFirst" : 45,
            "len" : 67756,
            "dns" : 0,
            "dnsEnd" : -1,
            "receiveHeadersEnd" : 242,
            "sslEnd" : -1,
            "connectEnd" : 197,
            "connectStart" : 0,
            "id" : "download_36",
            "receivedTime" : "996.55900002108",
            "sslStart" : -1,
            "dnsStart" : -1,
            "receiveLast" : 754.55900002108,
            "s_time" : 507.332000008319,
            "sendEnd" : 197,
            "sendStart" : 197,
            "type" : "image/jpeg"
         }
      },
      {
         "when_comp_start" : -1,
         "url" : "http://www.google-analytics.com/analytics.js",
         "id" : "r49",
         "comps" : [
            {
               "s_time" : 839.799000008497,
               "time" : 155.938999989303,
               "type" : null,
               "id" : "comp_24",
               "e_time" : 995.7379999978
            }
         ],
         "download" : {
            "receiveFirst" : 65,
            "len" : 25252,
            "dns" : 0,
            "dnsEnd" : -1,
            "receiveHeadersEnd" : 65,
            "sslEnd" : -1,
            "connectEnd" : 0,
            "connectStart" : 0,
            "id" : "download_37",
            "receivedTime" : "816.419000009773",
            "sslStart" : -1,
            "dnsStart" : -1,
            "receiveLast" : 751.419000009773,
            "s_time" : 710.317999997642,
            "sendEnd" : 0,
            "sendStart" : 0,
            "type" : "text/javascript"
         }
      },
      {
         "when_comp_start" : -1,
         "url" : "http://modified.testbed.localhost/stat100.ameba.jp/blogportal/img/feature/2_3_1435666190660.jpeg",
         "id" : "r35",
         "comps" : [],
         "download" : {
            "receiveFirst" : 52,
            "len" : 6073,
            "dns" : 0,
            "dnsEnd" : -1,
            "receiveHeadersEnd" : 249,
            "sslEnd" : -1,
            "connectEnd" : 197,
            "connectStart" : 0,
            "id" : "download_38",
            "receivedTime" : "827.745999995386",
            "sslStart" : -1,
            "dnsStart" : -1,
            "receiveLast" : 578.745999995386,
            "s_time" : 536.695999995572,
            "sendEnd" : 197,
            "sendStart" : 197,
            "type" : "image/jpeg"
         }
      },
      {
         "when_comp_start" : -1,
         "url" : "http://modified.testbed.localhost/stat100.ameba.jp/blogportal/img/feature/2_4_1435666190901.jpeg",
         "id" : "r36",
         "comps" : [],
         "download" : {
            "receiveFirst" : 54,
            "len" : 18018,
            "dns" : 0,
            "dnsEnd" : -1,
            "receiveHeadersEnd" : 158,
            "sslEnd" : -1,
            "connectEnd" : 104,
            "connectStart" : 0,
            "id" : "download_39",
            "receivedTime" : "835.737000015797",
            "sslStart" : -1,
            "dnsStart" : -1,
            "receiveLast" : 677.737000015797,
            "s_time" : 630.409000004875,
            "sendEnd" : 104,
            "sendStart" : 104,
            "type" : "image/jpeg"
         }
      },
      {
         "when_comp_start" : -1,
         "url" : "http://modified.testbed.localhost/stat100.ameba.jp/blogportal/img/feature/2_5_1435666191145.jpeg",
         "id" : "r37",
         "comps" : [],
         "download" : {
            "receiveFirst" : 55,
            "len" : 5716,
            "dns" : 0,
            "dnsEnd" : -1,
            "receiveHeadersEnd" : 145,
            "sslEnd" : -1,
            "connectEnd" : 90,
            "connectStart" : 0,
            "id" : "download_40",
            "receivedTime" : "838.007000013022",
            "sslStart" : -1,
            "dnsStart" : -1,
            "receiveLast" : 693.007000013022,
            "s_time" : 652.670000010403,
            "sendEnd" : 90,
            "sendStart" : 90,
            "type" : "image/jpeg"
         }
      },
      {
         "when_comp_start" : -1,
         "url" : "http://modified.testbed.localhost/stat100.ameba.jp/blogportal/img/feature/2_6_1435666191420.jpeg",
         "id" : "r38",
         "comps" : [],
         "download" : {
            "receiveFirst" : 48,
            "len" : 22319,
            "dns" : 0,
            "dnsEnd" : -1,
            "receiveHeadersEnd" : 132,
            "sslEnd" : -1,
            "connectEnd" : 84,
            "connectStart" : 0,
            "id" : "download_41",
            "receivedTime" : "999.999000021489",
            "sslStart" : -1,
            "dnsStart" : -1,
            "receiveLast" : 867.999000021489,
            "s_time" : 704.152999998769,
            "sendEnd" : 84,
            "sendStart" : 84,
            "type" : "image/jpeg"
         }
      },
      {
         "when_comp_start" : -1,
         "url" : "http://modified.testbed.localhost/stat100.ameba.jp/blogportal/img/feature/3_1_1435670915863.jpeg",
         "id" : "r39",
         "comps" : [],
         "download" : {
            "receiveFirst" : 50,
            "len" : 39769,
            "dns" : 0,
            "dnsEnd" : -1,
            "receiveHeadersEnd" : 114,
            "sslEnd" : -1,
            "connectEnd" : 64,
            "connectStart" : 0,
            "id" : "download_42",
            "receivedTime" : "1134.22599999467",
            "sslStart" : -1,
            "dnsStart" : -1,
            "receiveLast" : 1020.22599999467,
            "s_time" : 730.160000006435,
            "sendEnd" : 64,
            "sendStart" : 64,
            "type" : "image/jpeg"
         }
      },
      {
         "when_comp_start" : -1,
         "url" : "http://modified.testbed.localhost/stat100.ameba.jp/blogportal/img/feature/3_2_1435670916112.jpeg",
         "id" : "r40",
         "comps" : [],
         "download" : {
            "receiveFirst" : 59,
            "len" : 35812,
            "dns" : 0,
            "dnsEnd" : -1,
            "receiveHeadersEnd" : 126,
            "sslEnd" : -1,
            "connectEnd" : 67,
            "connectStart" : 0,
            "id" : "download_43",
            "receivedTime" : "1068.0740000098",
            "sslStart" : -1,
            "dnsStart" : -1,
            "receiveLast" : 942.074000009801,
            "s_time" : 732.592000014847,
            "sendEnd" : 67,
            "sendStart" : 67,
            "type" : "image/jpeg"
         }
      },
      {
         "when_comp_start" : -1,
         "url" : "http://modified.testbed.localhost/stat100.ameba.jp/blogportal/img/feature/3_3_1435670916371.jpeg",
         "id" : "r41",
         "comps" : [],
         "download" : {
            "receiveFirst" : 62,
            "len" : 34001,
            "dns" : 0,
            "dnsEnd" : -1,
            "receiveHeadersEnd" : 132,
            "sslEnd" : -1,
            "connectEnd" : 70,
            "connectStart" : 0,
            "id" : "download_44",
            "receivedTime" : "1076.73600001726",
            "sslStart" : -1,
            "dnsStart" : -1,
            "receiveLast" : 944.736000017263,
            "s_time" : 741.451000008965,
            "sendEnd" : 70,
            "sendStart" : 70,
            "type" : "image/jpeg"
         }
      },
      {
         "when_comp_start" : -1,
         "url" : "http://modified.testbed.localhost/stat100.ameba.jp/blogportal/img/feature/3_4_1435670916620.jpeg",
         "id" : "r42",
         "comps" : [],
         "download" : {
            "receiveFirst" : 66,
            "len" : 36550,
            "dns" : 0,
            "dnsEnd" : -1,
            "receiveHeadersEnd" : 121,
            "sslEnd" : -1,
            "connectEnd" : 55,
            "connectStart" : 0,
            "id" : "download_45",
            "receivedTime" : "1132.64300001902",
            "sslStart" : -1,
            "dnsStart" : -1,
            "receiveLast" : 1011.64300001902,
            "s_time" : 787.856000009924,
            "sendEnd" : 55,
            "sendStart" : 55,
            "type" : "image/jpeg"
         }
      },
      {
         "when_comp_start" : -1,
         "url" : "http://modified.testbed.localhost/stat100.ameba.jp/blogportal/img/feature/3_5_1435670916870.jpeg",
         "id" : "r43",
         "comps" : [],
         "download" : {
            "receiveFirst" : 57,
            "len" : 28737,
            "dns" : 0,
            "dnsEnd" : -1,
            "receiveHeadersEnd" : 132,
            "sslEnd" : -1,
            "connectEnd" : 75,
            "connectStart" : 0,
            "id" : "download_46",
            "receivedTime" : "1142.31100000325",
            "sslStart" : -1,
            "dnsStart" : -1,
            "receiveLast" : 1010.31100000325,
            "s_time" : 793.792000011308,
            "sendEnd" : 75,
            "sendStart" : 75,
            "type" : "image/jpeg"
         }
      },
      {
         "when_comp_start" : -1,
         "url" : "http://modified.testbed.localhost/stat100.ameba.jp/blogportal/img/feature/3_6_1435670917112.jpeg",
         "id" : "r44",
         "comps" : [],
         "download" : {
            "receiveFirst" : 56,
            "len" : 19447,
            "dns" : 0,
            "dnsEnd" : -1,
            "receiveHeadersEnd" : 140,
            "sslEnd" : -1,
            "connectEnd" : 84,
            "connectStart" : 0,
            "id" : "download_47",
            "receivedTime" : "1148.50900002057",
            "sslStart" : -1,
            "dnsStart" : -1,
            "receiveLast" : 1008.50900002057,
            "s_time" : 799.438999994891,
            "sendEnd" : 84,
            "sendStart" : 84,
            "type" : "image/jpeg"
         }
      },
      {
         "when_comp_start" : -1,
         "url" : "http://modified.testbed.localhost/stat100.ameba.jp/mypg/cache/img/ameba/hf/bg_common_hf.png",
         "id" : "r48",
         "comps" : [],
         "download" : {
            "receiveFirst" : 57,
            "len" : 3616,
            "dns" : 0,
            "dnsEnd" : -1,
            "receiveHeadersEnd" : 165,
            "sslEnd" : -1,
            "connectEnd" : 107,
            "connectStart" : 0,
            "id" : "download_48",
            "receivedTime" : "1170.28099999879",
            "sslStart" : -1,
            "dnsStart" : -1,
            "receiveLast" : 1005.28099999879,
            "s_time" : 811.489000014262,
            "sendEnd" : 108,
            "sendStart" : 107,
            "type" : "image/png"
         }
      },
      {
         "when_comp_start" : -1,
         "url" : "https://stats.g.doubleclick.net/r/collect?v=1&aip=1&t=dc&_r=3&tid=UA-59831110-1&cid=1625294456.1435733487&jid=2087647043&_v=j37&z=1243535484",
         "id" : "r50",
         "comps" : [],
         "download" : {
            "receiveFirst" : 37,
            "len" : 35,
            "dns" : 0,
            "dnsEnd" : 13,
            "receiveHeadersEnd" : 138,
            "sslEnd" : 99,
            "connectEnd" : 100,
            "connectStart" : 0,
            "id" : "download_49",
            "receivedTime" : "1350.38600000553",
            "sslStart" : 53,
            "dnsStart" : 13,
            "receiveLast" : 1212.38600000553,
            "s_time" : 1210.67600001697,
            "sendEnd" : 101,
            "sendStart" : 100,
            "type" : "image/gif"
         }
      }
   ],
   "deps" : [
      {
         "a2" : "r1_c2",
         "time" : -1,
         "id" : "dep1",
         "a1" : "comp_4"
      },
      {
         "a2" : "r1_c3",
         "time" : -1,
         "id" : "dep2",
         "a1" : "comp_7"
      },
      {
         "a2" : "r1_c4",
         "time" : -1,
         "id" : "dep3",
         "a1" : "comp_8"
      },
      {
         "a2" : "r1_c5",
         "time" : -1,
         "id" : "dep4",
         "a1" : "comp_9"
      },
      {
         "a2" : "comp_8",
         "time" : -1,
         "id" : "dep5",
         "a1" : "comp_7"
      },
      {
         "a2" : "comp_9",
         "time" : -1,
         "id" : "dep6",
         "a1" : "comp_8"
      },
      {
         "a2" : "download_49",
         "time" : -1,
         "id" : "dep7",
         "a1" : "r1_c5"
      },
      {
         "a2" : "download_48",
         "time" : 230.875000008382,
         "id" : "dep8",
         "a1" : "r1_c5"
      },
      {
         "a2" : "download_47",
         "time" : 218.824999989011,
         "id" : "dep9",
         "a1" : "r1_c5"
      },
      {
         "a2" : "download_46",
         "time" : 213.178000005428,
         "id" : "dep10",
         "a1" : "r1_c5"
      },
      {
         "a2" : "download_45",
         "time" : 207.242000004044,
         "id" : "dep11",
         "a1" : "r1_c5"
      },
      {
         "a2" : "download_44",
         "time" : 160.837000003085,
         "id" : "dep12",
         "a1" : "r1_c5"
      },
      {
         "a2" : "download_43",
         "time" : 151.978000008967,
         "id" : "dep13",
         "a1" : "r1_c5"
      },
      {
         "a2" : "download_42",
         "time" : 149.546000000555,
         "id" : "dep14",
         "a1" : "r1_c5"
      },
      {
         "a2" : "download_41",
         "time" : 87.782999995398,
         "id" : "dep15",
         "a1" : "comp_19"
      },
      {
         "a2" : "download_40",
         "time" : 36.3000000070319,
         "id" : "dep16",
         "a1" : "comp_19"
      },
      {
         "a2" : "download_39",
         "time" : 14.039000001504,
         "id" : "dep17",
         "a1" : "comp_19"
      },
      {
         "a2" : "download_38",
         "time" : -1,
         "id" : "dep18",
         "a1" : "r1_c2"
      },
      {
         "a2" : "download_37",
         "time" : 93.947999994271,
         "id" : "dep19",
         "a1" : "comp_19"
      },
      {
         "a2" : "download_36",
         "time" : 335.391000000528,
         "id" : "dep20",
         "a1" : "r1_c2"
      },
      {
         "a2" : "download_35",
         "time" : 309.876000013901,
         "id" : "dep21",
         "a1" : "r1_c2"
      },
      {
         "a2" : "download_34",
         "time" : 302.544000005583,
         "id" : "dep22",
         "a1" : "r1_c2"
      },
      {
         "a2" : "download_33",
         "time" : 288.731000007829,
         "id" : "dep23",
         "a1" : "r1_c2"
      },
      {
         "a2" : "download_32",
         "time" : 288.104999985081,
         "id" : "dep24",
         "a1" : "r1_c2"
      },
      {
         "a2" : "download_31",
         "time" : 190.074999991339,
         "id" : "dep25",
         "a1" : "r1_c2"
      },
      {
         "a2" : "download_30",
         "time" : 157.154999993509,
         "id" : "dep26",
         "a1" : "r1_c2"
      },
      {
         "a2" : "download_29",
         "time" : 138.971999986098,
         "id" : "dep27",
         "a1" : "r1_c2"
      },
      {
         "a2" : "download_28",
         "time" : -1,
         "id" : "dep28",
         "a1" : "r1_c1"
      },
      {
         "a2" : "download_27",
         "time" : -1,
         "id" : "dep29",
         "a1" : "r1_c1"
      },
      {
         "a2" : "download_26",
         "time" : 39.1830000153274,
         "id" : "dep30",
         "a1" : "r1_c1"
      },
      {
         "a2" : "download_25",
         "time" : 36.5410000085834,
         "id" : "dep31",
         "a1" : "r1_c1"
      },
      {
         "a2" : "download_24",
         "time" : 9.8250000155531,
         "id" : "dep32",
         "a1" : "r1_c1"
      },
      {
         "a2" : "download_23",
         "time" : 62.040999997408,
         "id" : "dep33",
         "a1" : "r1_c2"
      },
      {
         "a2" : "download_22",
         "time" : 52.450999995927,
         "id" : "dep34",
         "a1" : "r1_c2"
      },
      {
         "a2" : "download_21",
         "time" : 36.968000000343,
         "id" : "dep35",
         "a1" : "r1_c2"
      },
      {
         "a2" : "download_20",
         "time" : 34.708999999566,
         "id" : "dep36",
         "a1" : "r1_c2"
      },
      {
         "a2" : "download_19",
         "time" : 76.3180000067224,
         "id" : "dep37",
         "a1" : "r1_c1"
      },
      {
         "a2" : "download_18",
         "time" : 79.3249999987894,
         "id" : "dep38",
         "a1" : "r1_c1"
      },
      {
         "a2" : "download_18",
         "time" : 79.3249999987894,
         "id" : "dep39",
         "a1" : "r1_c1"
      },
      {
         "a2" : "download_17",
         "time" : 78.4310000017284,
         "id" : "dep40",
         "a1" : "r1_c1"
      },
      {
         "a2" : "download_17",
         "time" : 78.4310000017284,
         "id" : "dep41",
         "a1" : "r1_c1"
      },
      {
         "a2" : "download_16",
         "time" : 65.0170000153594,
         "id" : "dep42",
         "a1" : "r1_c1"
      },
      {
         "a2" : "download_15",
         "time" : 9.5819999987726,
         "id" : "dep43",
         "a1" : "r1_c1"
      },
      {
         "a2" : "download_14",
         "time" : 40.8779999997934,
         "id" : "dep44",
         "a1" : "r1_c1"
      },
      {
         "a2" : "download_13",
         "time" : 9.2560000193771,
         "id" : "dep45",
         "a1" : "r1_c1"
      },
      {
         "a2" : "download_12",
         "time" : 9.03600000310691,
         "id" : "dep46",
         "a1" : "r1_c1"
      },
      {
         "a2" : "download_11",
         "time" : 8.65699999849321,
         "id" : "dep47",
         "a1" : "r1_c1"
      },
      {
         "a2" : "download_10",
         "time" : 8.1330000248272,
         "id" : "dep48",
         "a1" : "r1_c1"
      },
      {
         "a2" : "download_9",
         "time" : 7.43100000545391,
         "id" : "dep49",
         "a1" : "r1_c1"
      },
      {
         "a2" : "download_9",
         "time" : 7.43100000545391,
         "id" : "dep50",
         "a1" : "r1_c1"
      },
      {
         "a2" : "download_8",
         "time" : 11.4010000252165,
         "id" : "dep51",
         "a1" : "r1_c1"
      },
      {
         "a2" : "download_7",
         "time" : 11.1990000004881,
         "id" : "dep52",
         "a1" : "r1_c1"
      },
      {
         "a2" : "download_6",
         "time" : 6.49100000737241,
         "id" : "dep53",
         "a1" : "r1_c1"
      },
      {
         "a2" : "download_6",
         "time" : 6.49100000737241,
         "id" : "dep54",
         "a1" : "r1_c1"
      },
      {
         "a2" : "download_5",
         "time" : 5.9860000037589,
         "id" : "dep55",
         "a1" : "r1_c1"
      },
      {
         "a2" : "download_5",
         "time" : 5.9860000037589,
         "id" : "dep56",
         "a1" : "r1_c1"
      },
      {
         "a2" : "download_4",
         "time" : 4.9240000080318,
         "id" : "dep57",
         "a1" : "r1_c1"
      },
      {
         "a2" : "download_4",
         "time" : 4.9240000080318,
         "id" : "dep58",
         "a1" : "r1_c1"
      },
      {
         "a2" : "download_3",
         "time" : 3.94200001028371,
         "id" : "dep59",
         "a1" : "r1_c1"
      },
      {
         "a2" : "download_2",
         "time" : 3.01300000865021,
         "id" : "dep60",
         "a1" : "r1_c1"
      },
      {
         "a2" : "download_1",
         "time" : 0.946000014664605,
         "id" : "dep61",
         "a1" : "r1_c1"
      }
   ]
}
