{
   "n_download_no_trigger" : 1,
   "start_activity" : "download_0",
   "name" : "original.testbed.localhost_www.nbcnews.com_",
   "load_activity" : -1,
   "objs" : [
      {
         "when_comp_start" : 1,
         "url" : "http://original.testbed.localhost/www.nbcnews.com/",
         "id" : "r1",
         "comps" : [
            {
               "s_time" : 381.179999999404,
               "time" : 1622.52799999988,
               "id" : "r1_c1",
               "type" : "evalhtml",
               "e_time" : 2003.70799999928
            },
            {
               "s_time" : 2744.85800000002,
               "time" : 798.85899999954,
               "id" : "r1_c2",
               "type" : "evalhtml",
               "e_time" : 3543.71699999956
            },
            {
               "s_time" : 3546.46299999968,
               "time" : -7989864.517,
               "id" : "r1_c3",
               "type" : "evalhtml",
               "e_time" : -7986318.054
            },
            {
               "s_time" : 3904.86199999941,
               "time" : -7990222.916,
               "id" : "r1_c4",
               "type" : "evalhtml",
               "e_time" : -7986318.054
            },
            {
               "s_time" : 3990.03600000015,
               "time" : -7990308.09,
               "id" : "r1_c5",
               "type" : "evalhtml",
               "e_time" : -7986318.054
            },
            {
               "s_time" : 4035.6899999997,
               "time" : -7990353.744,
               "id" : "r1_c6",
               "type" : "evalhtml",
               "e_time" : -7986318.054
            },
            {
               "s_time" : 5583.23699999983,
               "time" : -7991901.291,
               "id" : "r1_c7",
               "type" : "evalhtml",
               "e_time" : -7986318.054
            },
            {
               "s_time" : 6549.94199999965,
               "time" : 620.33100000007,
               "type" : "evalhtml",
               "id" : "r1_c8",
               "e_time" : 7170.27299999972
            }
         ],
         "download" : {
            "receiveFirst" : 164,
            "len" : 432268,
            "dns" : 0,
            "dnsEnd" : -1,
            "receiveHeadersEnd" : 169,
            "sslEnd" : -1,
            "connectEnd" : 5,
            "connectStart" : 0,
            "id" : "download_0",
            "receivedTime" : "752.60900000012",
            "sslStart" : -1,
            "dnsStart" : -1,
            "receiveLast" : 583.60900000012,
            "s_time" : 0,
            "sendEnd" : 5,
            "sendStart" : 5,
            "type" : "text/html"
         }
      },
      {
         "when_comp_start" : -1,
         "url" : "http://original.testbed.localhost/nodeassets.nbcnews.com/styles/e045108c.main.css",
         "id" : "r2",
         "comps" : [
            {
               "s_time" : 874.526999999944,
               "time" : 373.412999999346,
               "type" : 4,
               "id" : "comp_6",
               "e_time" : 1247.93999999929
            }
         ],
         "download" : {
            "receiveFirst" : 159,
            "len" : 162590,
            "dns" : 0,
            "dnsEnd" : -1,
            "receiveHeadersEnd" : 166,
            "sslEnd" : -1,
            "connectEnd" : 7,
            "connectStart" : 0,
            "id" : "download_1",
            "receivedTime" : "873.641999999563",
            "sslStart" : -1,
            "dnsStart" : -1,
            "receiveLast" : 707.641999999563,
            "s_time" : 390.945999999531,
            "sendEnd" : 7,
            "sendStart" : 7,
            "type" : "text/css"
         }
      },
      {
         "when_comp_start" : -1,
         "url" : "http://original.testbed.localhost/sslnodeassets.nbcnews.com/images/non-rev/nbcnews-logo.svg",
         "id" : "r3",
         "comps" : [],
         "download" : {
            "receiveFirst" : 195,
            "len" : 2721,
            "dns" : 0,
            "dnsEnd" : 7,
            "receiveHeadersEnd" : 356,
            "sslEnd" : -1,
            "connectEnd" : 161,
            "connectStart" : 0,
            "id" : "download_2",
            "receivedTime" : "777.236999999332",
            "sslStart" : -1,
            "dnsStart" : 7,
            "receiveLast" : 421.236999999332,
            "s_time" : 393.951000000015,
            "sendEnd" : 161,
            "sendStart" : 161,
            "type" : "image/svg+xml"
         }
      },
      {
         "when_comp_start" : -1,
         "url" : "http://original.testbed.localhost/sslnodeassets.nbcnews.com/images/transparent-placeholder.gif",
         "id" : "r4",
         "comps" : [],
         "download" : {
            "receiveFirst" : 154,
            "len" : 807,
            "dns" : 0,
            "dnsEnd" : -1,
            "receiveHeadersEnd" : 178,
            "sslEnd" : -1,
            "connectEnd" : 24,
            "connectStart" : 0,
            "id" : "download_3",
            "receivedTime" : "1248.79499999952",
            "sslStart" : -1,
            "dnsStart" : -1,
            "receiveLast" : 1070.79499999952,
            "s_time" : 769.65299999938,
            "sendEnd" : 24,
            "sendStart" : 24,
            "type" : "image/gif"
         }
      },
      {
         "when_comp_start" : -1,
         "url" : "http://original.testbed.localhost/nodeassets.nbcnews.com/images/022272a4.nightly-news-logo-mark.png",
         "id" : "r6",
         "comps" : [],
         "download" : {
            "receiveFirst" : 157,
            "len" : 3795,
            "dns" : 0,
            "dnsEnd" : -1,
            "receiveHeadersEnd" : 161,
            "sslEnd" : -1,
            "connectEnd" : 4,
            "connectStart" : 0,
            "id" : "download_4",
            "receivedTime" : "2007.52299999931",
            "sslStart" : -1,
            "dnsStart" : -1,
            "receiveLast" : 1846.52299999931,
            "s_time" : 1700.07299999997,
            "sendEnd" : 4,
            "sendStart" : 4,
            "type" : "image/png"
         }
      },
      {
         "when_comp_start" : -1,
         "url" : "http://original.testbed.localhost/nodeassets.nbcnews.com/scripts/vendor/e13156bf.modernizr.js",
         "id" : "r7",
         "comps" : [
            {
               "s_time" : 2009.59799999964,
               "time" : 735.26000000038,
               "type" : 1,
               "id" : "comp_11",
               "e_time" : 2744.85800000002
            }
         ],
         "download" : {
            "receiveFirst" : 154,
            "len" : 7828,
            "dns" : 0,
            "dnsEnd" : -1,
            "receiveHeadersEnd" : 158,
            "sslEnd" : -1,
            "connectEnd" : 4,
            "connectStart" : 0,
            "id" : "download_5",
            "receivedTime" : "2009.20099999985",
            "sslStart" : -1,
            "dnsStart" : -1,
            "receiveLast" : 1851.20099999985,
            "s_time" : 1725.11299999951,
            "sendEnd" : 4,
            "sendStart" : 4,
            "type" : "application/javascript"
         }
      },
      {
         "when_comp_start" : -1,
         "url" : "http://original.testbed.localhost/nodeassets.nbcnews.com/scripts/6f1cab75.vendor.js",
         "id" : "r8",
         "comps" : [
            {
               "s_time" : 3637.3450000001,
               "time" : 267.51699999931,
               "type" : 1,
               "id" : "comp_33",
               "e_time" : 3904.86199999941
            }
         ],
         "download" : {
            "receiveFirst" : 161,
            "len" : 149439,
            "dns" : 0,
            "dnsEnd" : -1,
            "receiveHeadersEnd" : 175,
            "sslEnd" : -1,
            "connectEnd" : 13,
            "connectStart" : 0,
            "id" : "download_6",
            "receivedTime" : "3537.36899999967",
            "sslStart" : -1,
            "dnsStart" : -1,
            "receiveLast" : 3362.36899999967,
            "s_time" : 2002.57899999997,
            "sendEnd" : 14,
            "sendStart" : 13,
            "type" : "application/javascript"
         }
      },
      {
         "when_comp_start" : -1,
         "url" : "http://original.testbed.localhost/nvcdn.nbcnews.com/_elliott/jenga%3Fwidgets=newsletter,zinger2",
         "id" : "r10",
         "comps" : [
            {
               "s_time" : 7013.13799999934,
               "time" : 196.47200000054,
               "type" : 3,
               "id" : "comp_64",
               "e_time" : 7209.60999999988
            }
         ],
         "download" : {
            "receiveFirst" : 275,
            "len" : 183538,
            "dns" : 0,
            "dnsEnd" : -1,
            "receiveHeadersEnd" : 294,
            "sslEnd" : -1,
            "connectEnd" : 18,
            "connectStart" : 0,
            "id" : "download_7",
            "receivedTime" : "6118.94200000006",
            "sslStart" : -1,
            "dnsStart" : -1,
            "receiveLast" : 5824.94200000006,
            "s_time" : 2003.70799999928,
            "sendEnd" : 19,
            "sendStart" : 18,
            "type" : "text/plain"
         }
      },
      {
         "when_comp_start" : -1,
         "url" : "http://original.testbed.localhost/assets.adobedtm.com/cd771b0aa897f931a306d7ab6af0d448836b5fd1/satelliteLib-d7647ef38f862ffb17587d65d0a95182256c1765.js",
         "id" : "r9",
         "comps" : [
            {
               "s_time" : 3907.39499999927,
               "time" : 82.64100000088,
               "type" : 1,
               "id" : "comp_36",
               "e_time" : 3990.03600000015
            }
         ],
         "download" : {
            "receiveFirst" : 350,
            "len" : 87450,
            "dns" : 0,
            "dnsEnd" : -1,
            "receiveHeadersEnd" : 366,
            "sslEnd" : -1,
            "connectEnd" : 15,
            "connectStart" : 0,
            "id" : "download_8",
            "receivedTime" : "3519.54699999987",
            "sslStart" : -1,
            "dnsStart" : -1,
            "receiveLast" : 3153.54699999987,
            "s_time" : 2003.15899999987,
            "sendEnd" : 16,
            "sendStart" : 15,
            "type" : "application/javascript"
         }
      },
      {
         "when_comp_start" : -1,
         "url" : "http://original.testbed.localhost/nodeassets.nbcnews.com/scripts/59c5cf60.main.js",
         "id" : "r12",
         "comps" : [
            {
               "s_time" : 4012.77200000004,
               "time" : 22.91799999966,
               "type" : 1,
               "id" : "comp_40",
               "e_time" : 4035.6899999997
            }
         ],
         "download" : {
            "receiveFirst" : 155,
            "len" : 23563,
            "dns" : 0,
            "dnsEnd" : -1,
            "receiveHeadersEnd" : 161,
            "sslEnd" : -1,
            "connectEnd" : 5,
            "connectStart" : 0,
            "id" : "download_9",
            "receivedTime" : "4012.3450000001",
            "sslStart" : -1,
            "dnsStart" : -1,
            "receiveLast" : 3851.3450000001,
            "s_time" : 3543.71699999956,
            "sendEnd" : 6,
            "sendStart" : 5,
            "type" : "application/javascript"
         }
      }
   ],
   "deps" : [
      {
         "a2" : "r1_c2",
         "time" : -1,
         "id" : "dep1",
         "a1" : "comp_11"
      },
      {
         "a2" : "r1_c3",
         "time" : -1,
         "id" : "dep2",
         "a1" : "comp_19"
      },
      {
         "a2" : "r1_c4",
         "time" : -1,
         "id" : "dep3",
         "a1" : "comp_33"
      },
      {
         "a2" : "r1_c5",
         "time" : -1,
         "id" : "dep4",
         "a1" : "comp_36"
      },
      {
         "a2" : "r1_c6",
         "time" : -1,
         "id" : "dep5",
         "a1" : "comp_40"
      },
      {
         "a2" : "r1_c7",
         "time" : -1,
         "id" : "dep6",
         "a1" : "comp_48"
      },
      {
         "a2" : "r1_c8",
         "time" : -1,
         "id" : "dep7",
         "a1" : "comp_57"
      },
      {
         "a2" : "download_9",
         "time" : -1,
         "id" : "dep8",
         "a1" : "r1_c2"
      },
      {
         "a2" : "download_9",
         "time" : 798.85899999954,
         "id" : "dep9",
         "a1" : "r1_c2"
      },
      {
         "a2" : "download_8",
         "time" : -1,
         "id" : "dep10",
         "a1" : "r1_c1"
      },
      {
         "a2" : "download_8",
         "time" : 1621.97900000047,
         "id" : "dep11",
         "a1" : "r1_c1"
      },
      {
         "a2" : "download_7",
         "time" : -1,
         "id" : "dep12",
         "a1" : "r1_c1"
      },
      {
         "a2" : "download_7",
         "time" : 1622.52799999988,
         "id" : "dep13",
         "a1" : "r1_c1"
      },
      {
         "a2" : "download_6",
         "time" : 1621.39900000057,
         "id" : "dep14",
         "a1" : "r1_c1"
      },
      {
         "a2" : "download_6",
         "time" : 1621.39900000057,
         "id" : "dep15",
         "a1" : "r1_c1"
      },
      {
         "a2" : "download_5",
         "time" : 1343.93300000011,
         "id" : "dep16",
         "a1" : "r1_c1"
      },
      {
         "a2" : "download_4",
         "time" : 1318.89300000057,
         "id" : "dep17",
         "a1" : "r1_c1"
      },
      {
         "a2" : "download_3",
         "time" : 388.472999999976,
         "id" : "dep18",
         "a1" : "r1_c1"
      },
      {
         "a2" : "download_2",
         "time" : 12.771000000611,
         "id" : "dep19",
         "a1" : "r1_c1"
      },
      {
         "a2" : "download_2",
         "time" : 12.771000000611,
         "id" : "dep20",
         "a1" : "r1_c1"
      },
      {
         "a2" : "download_1",
         "time" : 9.76600000012701,
         "id" : "dep21",
         "a1" : "r1_c1"
      }
   ]
}
