{
   "n_download_no_trigger" : 1,
   "start_activity" : "download_0",
   "name" : "original.testbed.localhost_www.adcash.com_",
   "load_activity" : -1,
   "objs" : [
      {
         "when_comp_start" : 1,
         "url" : "http://original.testbed.localhost/www.adcash.com/",
         "id" : "r1",
         "comps" : [
            {
               "s_time" : 178.534999955446,
               "time" : 1479.45600003004,
               "id" : "r1_c1",
               "type" : "evalhtml",
               "e_time" : 1657.99099998549
            },
            {
               "s_time" : 1681.42799986526,
               "time" : -1080038634.159,
               "id" : "r1_c2",
               "type" : "evalhtml",
               "e_time" : -1080036952.731
            },
            {
               "s_time" : 1682.43000004441,
               "time" : 5765.04500000737,
               "type" : "evalhtml",
               "id" : "r1_c3",
               "e_time" : 7447.47500005178
            }
         ],
         "download" : {
            "receiveFirst" : 56,
            "len" : 109814,
            "dns" : 0,
            "dnsEnd" : -1,
            "receiveHeadersEnd" : 56,
            "sslEnd" : -1,
            "connectEnd" : 0,
            "connectStart" : 0,
            "id" : "download_0",
            "receivedTime" : "252.498999936506",
            "sslStart" : -1,
            "dnsStart" : -1,
            "receiveLast" : 196.498999936506,
            "s_time" : 0,
            "sendEnd" : 0,
            "sendStart" : 0,
            "type" : "text/html"
         }
      },
      {
         "when_comp_start" : -1,
         "url" : "http://original.testbed.localhost/www.adcash.com/cssv5_dist/semantic.css%3Fv=3.2.css",
         "id" : "r3",
         "comps" : [
            {
               "s_time" : 1136.97099988349,
               "time" : 20.8120001479999,
               "type" : 4,
               "id" : "comp_8",
               "e_time" : 1157.78300003149
            }
         ],
         "download" : {
            "receiveFirst" : 86,
            "len" : 218740,
            "dns" : 0,
            "dnsEnd" : -1,
            "receiveHeadersEnd" : 88,
            "sslEnd" : -1,
            "connectEnd" : 2,
            "connectStart" : 0,
            "id" : "download_1",
            "receivedTime" : "1136.82799995877",
            "sslStart" : -1,
            "dnsStart" : -1,
            "receiveLast" : 1048.82799995877,
            "s_time" : 179.71200007014,
            "sendEnd" : 2,
            "sendStart" : 2,
            "type" : "text/css"
         }
      },
      {
         "when_comp_start" : -1,
         "url" : "http://original.testbed.localhost/www.adcash.com/cssv5_dist/semantic-base.css%3Fv=3.2.css",
         "id" : "r2",
         "comps" : [
            {
               "s_time" : 1158.01299992017,
               "time" : 40.7790001481801,
               "type" : 4,
               "id" : "comp_9",
               "e_time" : 1198.79200006835
            }
         ],
         "download" : {
            "receiveFirst" : 208,
            "len" : 229654,
            "dns" : 0,
            "dnsEnd" : -1,
            "receiveHeadersEnd" : 210,
            "sslEnd" : -1,
            "connectEnd" : 2,
            "connectStart" : 0,
            "id" : "download_2",
            "receivedTime" : "1157.90600003675",
            "sslStart" : -1,
            "dnsStart" : -1,
            "receiveLast" : 947.906000036746,
            "s_time" : 179.49300003238,
            "sendEnd" : 2,
            "sendStart" : 2,
            "type" : "text/css"
         }
      },
      {
         "when_comp_start" : -1,
         "url" : "http://original.testbed.localhost/www.adcash.com/en/imgv5/delete_icon.png",
         "id" : "r4",
         "comps" : [],
         "download" : {
            "receiveFirst" : 295,
            "len" : 403,
            "dns" : 0,
            "dnsEnd" : -1,
            "receiveHeadersEnd" : 296,
            "sslEnd" : -1,
            "connectEnd" : 1,
            "connectStart" : 0,
            "id" : "download_3",
            "receivedTime" : "512.077999999747",
            "sslStart" : -1,
            "dnsStart" : -1,
            "receiveLast" : 216.077999999747,
            "s_time" : 214.227000018582,
            "sendEnd" : 1,
            "sendStart" : 1,
            "type" : "image/png"
         }
      },
      {
         "when_comp_start" : -1,
         "url" : "http://original.testbed.localhost/www.adcash.com/en/imgv5/adcash_logo_new.svg",
         "id" : "r5",
         "comps" : [],
         "download" : {
            "receiveFirst" : 477,
            "len" : 8512,
            "dns" : 0,
            "dnsEnd" : -1,
            "receiveHeadersEnd" : 478,
            "sslEnd" : -1,
            "connectEnd" : 1,
            "connectStart" : 0,
            "id" : "download_4",
            "receivedTime" : "1062.69599986263",
            "sslStart" : -1,
            "dnsStart" : -1,
            "receiveLast" : 584.695999862626,
            "s_time" : 510.844999924302,
            "sendEnd" : 1,
            "sendStart" : 1,
            "type" : "image/svg+xml"
         }
      },
      {
         "when_comp_start" : -1,
         "url" : "http://original.testbed.localhost/www.adcash.com/en/imgv5/language_selector.png",
         "id" : "r6",
         "comps" : [],
         "download" : {
            "receiveFirst" : 121,
            "len" : 440,
            "dns" : 0,
            "dnsEnd" : -1,
            "receiveHeadersEnd" : 121,
            "sslEnd" : -1,
            "connectEnd" : 0,
            "connectStart" : 0,
            "id" : "download_5",
            "receivedTime" : "1199.31499985978",
            "sslStart" : -1,
            "dnsStart" : -1,
            "receiveLast" : 1078.31499985978,
            "s_time" : 1061.4620000124,
            "sendEnd" : 0,
            "sendStart" : 0,
            "type" : "image/png"
         }
      },
      {
         "when_comp_start" : -1,
         "url" : "http://original.testbed.localhost/www.adcash.com/en/imgv5/responsive.svg",
         "id" : "r7",
         "comps" : [],
         "download" : {
            "receiveFirst" : 51,
            "len" : 196,
            "dns" : 0,
            "dnsEnd" : -1,
            "receiveHeadersEnd" : 54,
            "sslEnd" : -1,
            "connectEnd" : 3,
            "connectStart" : 0,
            "id" : "download_6",
            "receivedTime" : "1246.76300003193",
            "sslStart" : -1,
            "dnsStart" : -1,
            "receiveLast" : 1192.76300003193,
            "s_time" : 1152.14599994943,
            "sendEnd" : 3,
            "sendStart" : 3,
            "type" : "image/svg+xml"
         }
      },
      {
         "when_comp_start" : -1,
         "url" : "http://original.testbed.localhost/www.adcash.com/en/imgv5/social_icons/social_1_i.png",
         "id" : "r8",
         "comps" : [],
         "download" : {
            "receiveFirst" : 52,
            "len" : 229,
            "dns" : 0,
            "dnsEnd" : -1,
            "receiveHeadersEnd" : 54,
            "sslEnd" : -1,
            "connectEnd" : 2,
            "connectStart" : 0,
            "id" : "download_7",
            "receivedTime" : "1250.81899994984",
            "sslStart" : -1,
            "dnsStart" : -1,
            "receiveLast" : 1196.81899994984,
            "s_time" : 1152.39900001325,
            "sendEnd" : 2,
            "sendStart" : 2,
            "type" : "image/png"
         }
      },
      {
         "when_comp_start" : -1,
         "url" : "http://original.testbed.localhost/www.adcash.com/en/imgv5/social_icons/social_2_i.png",
         "id" : "r9",
         "comps" : [],
         "download" : {
            "receiveFirst" : 52,
            "len" : 333,
            "dns" : 0,
            "dnsEnd" : -1,
            "receiveHeadersEnd" : 54,
            "sslEnd" : -1,
            "connectEnd" : 2,
            "connectStart" : 0,
            "id" : "download_8",
            "receivedTime" : "1251.04100001045",
            "sslStart" : -1,
            "dnsStart" : -1,
            "receiveLast" : 1197.04100001045,
            "s_time" : 1152.60999999009,
            "sendEnd" : 2,
            "sendStart" : 2,
            "type" : "image/png"
         }
      },
      {
         "when_comp_start" : -1,
         "url" : "http://original.testbed.localhost/www.adcash.com/en/imgv5/social_icons/social_3_i.png",
         "id" : "r10",
         "comps" : [],
         "download" : {
            "receiveFirst" : 54,
            "len" : 274,
            "dns" : 0,
            "dnsEnd" : -1,
            "receiveHeadersEnd" : 56,
            "sslEnd" : -1,
            "connectEnd" : 2,
            "connectStart" : 0,
            "id" : "download_9",
            "receivedTime" : "1251.42299989238",
            "sslStart" : -1,
            "dnsStart" : -1,
            "receiveLast" : 1195.42299989238,
            "s_time" : 1152.79700001702,
            "sendEnd" : 2,
            "sendStart" : 2,
            "type" : "image/png"
         }
      },
      {
         "when_comp_start" : -1,
         "url" : "http://original.testbed.localhost/www.adcash.com/en/imgv5/social_icons/social_4_i.png",
         "id" : "r11",
         "comps" : [],
         "download" : {
            "receiveFirst" : 58,
            "len" : 421,
            "dns" : 0,
            "dnsEnd" : -1,
            "receiveHeadersEnd" : 60,
            "sslEnd" : -1,
            "connectEnd" : 2,
            "connectStart" : 0,
            "id" : "download_10",
            "receivedTime" : "1251.83299998753",
            "sslStart" : -1,
            "dnsStart" : -1,
            "receiveLast" : 1191.83299998753,
            "s_time" : 1153.03599997424,
            "sendEnd" : 2,
            "sendStart" : 2,
            "type" : "image/png"
         }
      },
      {
         "when_comp_start" : -1,
         "url" : "http://original.testbed.localhost/www.adcash.com/jsv5_dist/jquery_cookie.js%3Fv=3.2",
         "id" : "r58",
         "comps" : [
            {
               "s_time" : 1681.53499998152,
               "time" : 0.895000062889949,
               "type" : 1,
               "id" : "comp_68",
               "e_time" : 1682.43000004441
            }
         ],
         "download" : {
            "receiveFirst" : 51,
            "len" : 1263,
            "dns" : 0,
            "dnsEnd" : -1,
            "receiveHeadersEnd" : 55,
            "sslEnd" : -1,
            "connectEnd" : 4,
            "connectStart" : 0,
            "id" : "download_11",
            "receivedTime" : "1261.44899986684",
            "sslStart" : -1,
            "dnsStart" : -1,
            "receiveLast" : 1206.44899986684,
            "s_time" : 1204.51100007631,
            "sendEnd" : 4,
            "sendStart" : 4,
            "type" : "text/plain"
         }
      },
      {
         "when_comp_start" : -1,
         "url" : "http://original.testbed.localhost/ajax.googleapis.com/ajax/libs/jquery/2.1.3/jquery.min.js",
         "id" : "r57",
         "comps" : [
            {
               "s_time" : 1653.50800007582,
               "time" : 27.91999978944,
               "type" : 1,
               "id" : "comp_66",
               "e_time" : 1681.42799986526
            }
         ],
         "download" : {
            "receiveFirst" : 54,
            "len" : 84320,
            "dns" : 0,
            "dnsEnd" : -1,
            "receiveHeadersEnd" : 56,
            "sslEnd" : -1,
            "connectEnd" : 1,
            "connectStart" : 0,
            "id" : "download_12",
            "receivedTime" : "1653.39199989103",
            "sslStart" : -1,
            "dnsStart" : -1,
            "receiveLast" : 1597.39199989103,
            "s_time" : 1204.2290000245,
            "sendEnd" : 2,
            "sendStart" : 1,
            "type" : "application/javascript"
         }
      },
      {
         "when_comp_start" : -1,
         "url" : "http://original.testbed.localhost/www.adcash.com/en/imgv5/square-image.png",
         "id" : "r25",
         "comps" : [],
         "download" : {
            "receiveFirst" : 191,
            "len" : 1641,
            "dns" : 0,
            "dnsEnd" : -1,
            "receiveHeadersEnd" : 191,
            "sslEnd" : -1,
            "connectEnd" : 0,
            "connectStart" : 0,
            "id" : "download_13",
            "receivedTime" : "1418.66099997424",
            "sslStart" : -1,
            "dnsStart" : -1,
            "receiveLast" : 1227.66099997424,
            "s_time" : 1215.55699990131,
            "sendEnd" : 0,
            "sendStart" : 0,
            "type" : "image/png"
         }
      },
      {
         "when_comp_start" : -1,
         "url" : "http://fonts.googleapis.com/css?family=Open+Sans:300,400,700%7CLato:400,700,400italic,700italic&subset=latin,cyrillic,latin-ext,latin,latin-ext",
         "id" : "r24",
         "comps" : [
            {
               "s_time" : 1529.18799989857,
               "time" : 20.32800018787,
               "type" : 2,
               "id" : "comp_51",
               "e_time" : 1549.51600008644
            }
         ],
         "download" : {
            "receiveFirst" : 325,
            "len" : 1616,
            "dns" : 0,
            "dnsEnd" : -1,
            "receiveHeadersEnd" : 326,
            "sslEnd" : -1,
            "connectEnd" : 0,
            "connectStart" : 0,
            "id" : "download_14",
            "receivedTime" : "1529.05600005761",
            "sslStart" : -1,
            "dnsStart" : -1,
            "receiveLast" : 1203.05600005761,
            "s_time" : 1198.77599994652,
            "sendEnd" : 1,
            "sendStart" : 0,
            "type" : "text/css"
         }
      },
      {
         "when_comp_start" : -1,
         "url" : "http://original.testbed.localhost/www.adcash.com/en/imgv5/logo_carousel/logo_travian.png",
         "id" : "r26",
         "comps" : [],
         "download" : {
            "receiveFirst" : 133,
            "len" : 1819,
            "dns" : 0,
            "dnsEnd" : -1,
            "receiveHeadersEnd" : 133,
            "sslEnd" : -1,
            "connectEnd" : 0,
            "connectStart" : 0,
            "id" : "download_15",
            "receivedTime" : "1724.07700004987",
            "sslStart" : -1,
            "dnsStart" : -1,
            "receiveLast" : 1591.07700004987,
            "s_time" : 1418.64699986763,
            "sendEnd" : 0,
            "sendStart" : 0,
            "type" : "image/png"
         }
      },
      {
         "when_comp_start" : -1,
         "url" : "http://original.testbed.localhost/www.adcash.com/en/imgv5/logo_carousel/logo_digitalvirgo.png",
         "id" : "r27",
         "comps" : [],
         "download" : {
            "receiveFirst" : 50,
            "len" : 1374,
            "dns" : 0,
            "dnsEnd" : -1,
            "receiveHeadersEnd" : 52,
            "sslEnd" : -1,
            "connectEnd" : 2,
            "connectStart" : 0,
            "id" : "download_16",
            "receivedTime" : "1724.61499995552",
            "sslStart" : -1,
            "dnsStart" : -1,
            "receiveLast" : 1672.61499995552,
            "s_time" : 1539.28099991754,
            "sendEnd" : 2,
            "sendStart" : 2,
            "type" : "image/png"
         }
      },
      {
         "when_comp_start" : -1,
         "url" : "http://original.testbed.localhost/www.adcash.com/en/imgv5/logo_carousel/logo_youzu.png",
         "id" : "r28",
         "comps" : [],
         "download" : {
            "receiveFirst" : 52,
            "len" : 2528,
            "dns" : 0,
            "dnsEnd" : -1,
            "receiveHeadersEnd" : 54,
            "sslEnd" : -1,
            "connectEnd" : 2,
            "connectStart" : 0,
            "id" : "download_17",
            "receivedTime" : "1725.20500002429",
            "sslStart" : -1,
            "dnsStart" : -1,
            "receiveLast" : 1671.20500002429,
            "s_time" : 1539.47099996731,
            "sendEnd" : 2,
            "sendStart" : 2,
            "type" : "image/png"
         }
      },
      {
         "when_comp_start" : -1,
         "url" : "http://original.testbed.localhost/www.adcash.com/en/imgv5/logo_carousel/logo_alibaba.png",
         "id" : "r29",
         "comps" : [],
         "download" : {
            "receiveFirst" : 75,
            "len" : 1665,
            "dns" : 0,
            "dnsEnd" : -1,
            "receiveHeadersEnd" : 77,
            "sslEnd" : -1,
            "connectEnd" : 2,
            "connectStart" : 0,
            "id" : "download_18",
            "receivedTime" : "1725.67699989304",
            "sslStart" : -1,
            "dnsStart" : -1,
            "receiveLast" : 1648.67699989304,
            "s_time" : 1539.58299988881,
            "sendEnd" : 2,
            "sendStart" : 2,
            "type" : "image/png"
         }
      },
      {
         "when_comp_start" : -1,
         "url" : "http://original.testbed.localhost/www.adcash.com/en/imgv5/logo_carousel/logo_innogames.png",
         "id" : "r30",
         "comps" : [],
         "download" : {
            "receiveFirst" : 92,
            "len" : 3269,
            "dns" : 0,
            "dnsEnd" : -1,
            "receiveHeadersEnd" : 94,
            "sslEnd" : -1,
            "connectEnd" : 2,
            "connectStart" : 0,
            "id" : "download_19",
            "receivedTime" : "1764.66499990784",
            "sslStart" : -1,
            "dnsStart" : -1,
            "receiveLast" : 1670.66499990784,
            "s_time" : 1539.71599997021,
            "sendEnd" : 2,
            "sendStart" : 2,
            "type" : "image/png"
         }
      },
      {
         "when_comp_start" : -1,
         "url" : "http://original.testbed.localhost/www.adcash.com/en/imgv5/logo_carousel/logo_goodgame.png",
         "id" : "r31",
         "comps" : [],
         "download" : {
            "receiveFirst" : 120,
            "len" : 3654,
            "dns" : 0,
            "dnsEnd" : -1,
            "receiveHeadersEnd" : 124,
            "sslEnd" : -1,
            "connectEnd" : 4,
            "connectStart" : 0,
            "id" : "download_20",
            "receivedTime" : "1765.4399999883",
            "sslStart" : -1,
            "dnsStart" : -1,
            "receiveLast" : 1641.4399999883,
            "s_time" : 1539.84500002116,
            "sendEnd" : 4,
            "sendStart" : 4,
            "type" : "image/png"
         }
      },
      {
         "when_comp_start" : -1,
         "url" : "http://original.testbed.localhost/www.adcash.com/en/imgv5/home_animated/home_advertisers_3.svg",
         "id" : "r36",
         "comps" : [],
         "download" : {
            "receiveFirst" : 109,
            "len" : 33727,
            "dns" : 0,
            "dnsEnd" : -1,
            "receiveHeadersEnd" : 138,
            "sslEnd" : -1,
            "connectEnd" : 29,
            "connectStart" : 0,
            "id" : "download_21",
            "receivedTime" : "2853.8750000298",
            "sslStart" : -1,
            "dnsStart" : -1,
            "receiveLast" : 2715.8750000298,
            "s_time" : 1563.64000006579,
            "sendEnd" : 29,
            "sendStart" : 29,
            "type" : "image/svg+xml"
         }
      },
      {
         "when_comp_start" : -1,
         "url" : "http://original.testbed.localhost/www.adcash.com/en/imgv5/home_animated/home_advertisers_1.svg",
         "id" : "r37",
         "comps" : [],
         "download" : {
            "receiveFirst" : 302,
            "len" : 1796,
            "dns" : 0,
            "dnsEnd" : -1,
            "receiveHeadersEnd" : 315,
            "sslEnd" : -1,
            "connectEnd" : 13,
            "connectStart" : 0,
            "id" : "download_22",
            "receivedTime" : "1920.15099991113",
            "sslStart" : -1,
            "dnsStart" : -1,
            "receiveLast" : 1605.15099991113,
            "s_time" : 1592.44899987243,
            "sendEnd" : 13,
            "sendStart" : 13,
            "type" : "image/svg+xml"
         }
      },
      {
         "when_comp_start" : -1,
         "url" : "http://original.testbed.localhost/www.adcash.com/en/imgv5/home_animated/home_advertisers_2.svg",
         "id" : "r38",
         "comps" : [],
         "download" : {
            "receiveFirst" : 295,
            "len" : 39499,
            "dns" : 0,
            "dnsEnd" : -1,
            "receiveHeadersEnd" : 319,
            "sslEnd" : -1,
            "connectEnd" : 23,
            "connectStart" : 0,
            "id" : "download_23",
            "receivedTime" : "4527.30600000359",
            "sslStart" : -1,
            "dnsStart" : -1,
            "receiveLast" : 4208.30600000359,
            "s_time" : 1605.44999991544,
            "sendEnd" : 24,
            "sendStart" : 23,
            "type" : "image/svg+xml"
         }
      },
      {
         "when_comp_start" : -1,
         "url" : "http://original.testbed.localhost/www.adcash.com/en/imgv5/back_to_top.png",
         "id" : "r39",
         "comps" : [],
         "download" : {
            "receiveFirst" : 406,
            "len" : 218,
            "dns" : 0,
            "dnsEnd" : -1,
            "receiveHeadersEnd" : 435,
            "sslEnd" : -1,
            "connectEnd" : 29,
            "connectStart" : 0,
            "id" : "download_24",
            "receivedTime" : "2066.0500000231",
            "sslStart" : -1,
            "dnsStart" : -1,
            "receiveLast" : 1631.0500000231,
            "s_time" : 1629.02899994515,
            "sendEnd" : 29,
            "sendStart" : 29,
            "type" : "image/png"
         }
      },
      {
         "when_comp_start" : -1,
         "url" : "http://fonts.gstatic.com/s/opensans/v13/uYKcPVoh6c5R0NpdEY5A-Q.woff",
         "id" : "r64",
         "comps" : [],
         "download" : {
            "receiveFirst" : 415,
            "len" : 96116,
            "dns" : 0,
            "dnsEnd" : -1,
            "receiveHeadersEnd" : 417,
            "sslEnd" : -1,
            "connectEnd" : 2,
            "connectStart" : 0,
            "id" : "download_25",
            "receivedTime" : "7077.41199992597",
            "sslStart" : -1,
            "dnsStart" : -1,
            "receiveLast" : 6660.41199992597,
            "s_time" : 1652.88399998099,
            "sendEnd" : 2,
            "sendStart" : 2,
            "type" : "font/woff"
         }
      },
      {
         "when_comp_start" : -1,
         "url" : "http://original.testbed.localhost/www.adcash.com/en/imgv5/home_animated/home_publishers_4.png",
         "id" : "r40",
         "comps" : [],
         "download" : {
            "receiveFirst" : 489,
            "len" : 10865,
            "dns" : 0,
            "dnsEnd" : -1,
            "receiveHeadersEnd" : 519,
            "sslEnd" : -1,
            "connectEnd" : 30,
            "connectStart" : 0,
            "id" : "download_26",
            "receivedTime" : "2262.60700006969",
            "sslStart" : -1,
            "dnsStart" : -1,
            "receiveLast" : 1743.60700006969,
            "s_time" : 1657.99099998549,
            "sendEnd" : 30,
            "sendStart" : 30,
            "type" : "image/png"
         }
      },
      {
         "when_comp_start" : -1,
         "url" : "http://fonts.gstatic.com/s/opensans/v13/k3k702ZOKiLJc3WVjuplzBsxEYwM7FgeyaSgU71cLG0.woff",
         "id" : "r65",
         "comps" : [],
         "download" : {
            "receiveFirst" : 670,
            "len" : 98780,
            "dns" : 0,
            "dnsEnd" : -1,
            "receiveHeadersEnd" : 672,
            "sslEnd" : -1,
            "connectEnd" : 2,
            "connectStart" : 0,
            "id" : "download_27",
            "receivedTime" : "5708.9660000056",
            "sslStart" : -1,
            "dnsStart" : -1,
            "receiveLast" : 5036.9660000056,
            "s_time" : 1653.19099999033,
            "sendEnd" : 2,
            "sendStart" : 2,
            "type" : "font/woff"
         }
      },
      {
         "when_comp_start" : -1,
         "url" : "http://fonts.gstatic.com/s/lato/v11/1bHRUMxmJHoup12DnI9XmQ.woff",
         "id" : "r59",
         "comps" : [],
         "download" : {
            "receiveFirst" : 789,
            "len" : 39188,
            "dns" : 0,
            "dnsEnd" : -1,
            "receiveHeadersEnd" : 791,
            "sslEnd" : -1,
            "connectEnd" : 2,
            "connectStart" : 0,
            "id" : "download_28",
            "receivedTime" : "4048.79699996673",
            "sslStart" : -1,
            "dnsStart" : -1,
            "receiveLast" : 3257.79699996673,
            "s_time" : 1653.50900008343,
            "sendEnd" : 2,
            "sendStart" : 2,
            "type" : "font/woff"
         }
      },
      {
         "when_comp_start" : -1,
         "url" : "http://fonts.gstatic.com/s/opensans/v13/DXI1ORHCpsQm3Vp6mXoaTRsxEYwM7FgeyaSgU71cLG0.woff",
         "id" : "r63",
         "comps" : [],
         "download" : {
            "receiveFirst" : 908,
            "len" : 97924,
            "dns" : 0,
            "dnsEnd" : -1,
            "receiveHeadersEnd" : 910,
            "sslEnd" : -1,
            "connectEnd" : 2,
            "connectStart" : 0,
            "id" : "download_29",
            "receivedTime" : "6359.82899996452",
            "sslStart" : -1,
            "dnsStart" : -1,
            "receiveLast" : 5449.82899996452,
            "s_time" : 1653.34499999881,
            "sendEnd" : 2,
            "sendStart" : 2,
            "type" : "font/woff"
         }
      },
      {
         "when_comp_start" : -1,
         "url" : "http://www.google-analytics.com/analytics.js",
         "id" : "r70",
         "comps" : [
            {
               "s_time" : 2791.05399991386,
               "time" : 62.7610001247299,
               "type" : null,
               "id" : "comp_106",
               "e_time" : 2853.81500003859
            }
         ],
         "download" : {
            "receiveFirst" : 1020,
            "len" : 26303,
            "dns" : 0,
            "dnsEnd" : -1,
            "receiveHeadersEnd" : 1021,
            "sslEnd" : -1,
            "connectEnd" : 1,
            "connectStart" : 0,
            "id" : "download_30",
            "receivedTime" : "2790.60499998741",
            "sslStart" : -1,
            "dnsStart" : -1,
            "receiveLast" : 1769.60499998741,
            "s_time" : 1686.54399993829,
            "sendEnd" : 1,
            "sendStart" : 1,
            "type" : "text/javascript"
         }
      },
      {
         "when_comp_start" : -1,
         "url" : "http://fonts.gstatic.com/s/lato/v11/I1Pn3gihk5vyP0Yw5GqKsQ.woff",
         "id" : "r60",
         "comps" : [],
         "download" : {
            "receiveFirst" : 1165,
            "len" : 39316,
            "dns" : 0,
            "dnsEnd" : -1,
            "receiveHeadersEnd" : 1167,
            "sslEnd" : -1,
            "connectEnd" : 2,
            "connectStart" : 0,
            "id" : "download_31",
            "receivedTime" : "7108.83000004105",
            "sslStart" : -1,
            "dnsStart" : -1,
            "receiveLast" : 5941.83000004105,
            "s_time" : 1653.64999999292,
            "sendEnd" : 2,
            "sendStart" : 2,
            "type" : "font/woff"
         }
      },
      {
         "when_comp_start" : -1,
         "url" : "http://static.hotjar.com/c/hotjar-29845.js?sv=3",
         "id" : "r71",
         "comps" : [
            {
               "s_time" : 5115.33099994995,
               "time" : 47.6150000467906,
               "type" : null,
               "id" : "comp_178",
               "e_time" : 5162.94599999674
            }
         ],
         "download" : {
            "receiveFirst" : 1254,
            "len" : 180280,
            "dns" : 0,
            "dnsEnd" : -1,
            "receiveHeadersEnd" : 1254,
            "sslEnd" : -1,
            "connectEnd" : 0,
            "connectStart" : 0,
            "id" : "download_32",
            "receivedTime" : "5115.04300008528",
            "sslStart" : -1,
            "dnsStart" : -1,
            "receiveLast" : 3861.04300008528,
            "s_time" : 1687.46699998155,
            "sendEnd" : 0,
            "sendStart" : 0,
            "type" : "application/javascript"
         }
      },
      {
         "when_comp_start" : -1,
         "url" : "http://original.testbed.localhost/www.adcash.com/en/imgv5/home_animated/home_publishers_3.png",
         "id" : "r41",
         "comps" : [],
         "download" : {
            "receiveFirst" : 1247,
            "len" : 8404,
            "dns" : 0,
            "dnsEnd" : -1,
            "receiveHeadersEnd" : 1821,
            "sslEnd" : -1,
            "connectEnd" : 574,
            "connectStart" : 0,
            "id" : "download_33",
            "receivedTime" : "3583.01099995151",
            "sslStart" : -1,
            "dnsStart" : -1,
            "receiveLast" : 1762.01099995151,
            "s_time" : 1688.05800005794,
            "sendEnd" : 574,
            "sendStart" : 574,
            "type" : "image/png"
         }
      },
      {
         "when_comp_start" : -1,
         "url" : "http://original.testbed.localhost/www.adcash.com/en/imgv5/home_animated/home_publishers_2.png",
         "id" : "r42",
         "comps" : [],
         "download" : {
            "receiveFirst" : 1325,
            "len" : 4976,
            "dns" : 0,
            "dnsEnd" : -1,
            "receiveHeadersEnd" : 1677,
            "sslEnd" : -1,
            "connectEnd" : 352,
            "connectStart" : 0,
            "id" : "download_34",
            "receivedTime" : "3633.7919998914",
            "sslStart" : -1,
            "dnsStart" : -1,
            "receiveLast" : 1956.7919998914,
            "s_time" : 1919.52300001867,
            "sendEnd" : 352,
            "sendStart" : 352,
            "type" : "image/png"
         }
      },
      {
         "when_comp_start" : -1,
         "url" : "http://original.testbed.localhost/www.adcash.com/en/imgv5/home_animated/home_publishers_1.png",
         "id" : "r43",
         "comps" : [],
         "download" : {
            "receiveFirst" : 1495,
            "len" : 14467,
            "dns" : 0,
            "dnsEnd" : -1,
            "receiveHeadersEnd" : 2231,
            "sslEnd" : -1,
            "connectEnd" : 736,
            "connectStart" : 0,
            "id" : "download_35",
            "receivedTime" : "4429.78999996558",
            "sslStart" : -1,
            "dnsStart" : -1,
            "receiveLast" : 2198.78999996558,
            "s_time" : 2065.19600003958,
            "sendEnd" : 736,
            "sendStart" : 736,
            "type" : "image/png"
         }
      },
      {
         "when_comp_start" : -1,
         "url" : "http://fonts.gstatic.com/s/lato/v11/G-cgiyv4b0HVLV2M8HoP9A.woff",
         "id" : "r61",
         "comps" : [],
         "download" : {
            "receiveFirst" : 1762,
            "len" : 39936,
            "dns" : 0,
            "dnsEnd" : 1,
            "receiveHeadersEnd" : 2927,
            "sslEnd" : -1,
            "connectEnd" : 1165,
            "connectStart" : 0,
            "id" : "download_36",
            "receivedTime" : "6661.29800002091",
            "sslStart" : -1,
            "dnsStart" : 1,
            "receiveLast" : 3734.29800002091,
            "s_time" : 1653.79499993287,
            "sendEnd" : 1165,
            "sendStart" : 1165,
            "type" : "font/woff"
         }
      },
      {
         "when_comp_start" : -1,
         "url" : "http://original.testbed.localhost/www.adcash.com/en/imgv5/home_facts/facts_dynamic.svg",
         "id" : "r44",
         "comps" : [],
         "download" : {
            "receiveFirst" : 1914,
            "len" : 3536,
            "dns" : 0,
            "dnsEnd" : -1,
            "receiveHeadersEnd" : 2715,
            "sslEnd" : -1,
            "connectEnd" : 801,
            "connectStart" : 0,
            "id" : "download_37",
            "receivedTime" : "5002.41399998777",
            "sslStart" : -1,
            "dnsStart" : -1,
            "receiveLast" : 2287.41399998777,
            "s_time" : 2261.95700000972,
            "sendEnd" : 801,
            "sendStart" : 801,
            "type" : "image/svg+xml"
         }
      },
      {
         "when_comp_start" : -1,
         "url" : "http://original.testbed.localhost/www.adcash.com/en/imgv5/home_facts/facts_predictive.svg",
         "id" : "r45",
         "comps" : [],
         "download" : {
            "receiveFirst" : 1766,
            "len" : 3930,
            "dns" : 0,
            "dnsEnd" : -1,
            "receiveHeadersEnd" : 2217,
            "sslEnd" : -1,
            "connectEnd" : 451,
            "connectStart" : 0,
            "id" : "download_38",
            "receivedTime" : "5043.78099995665",
            "sslStart" : -1,
            "dnsStart" : -1,
            "receiveLast" : 2826.78099995665,
            "s_time" : 2801.40700004995,
            "sendEnd" : 451,
            "sendStart" : 451,
            "type" : "image/svg+xml"
         }
      },
      {
         "when_comp_start" : -1,
         "url" : "http://original.testbed.localhost/www.adcash.com/en/imgv5/logo_carousel/logo_ea.png",
         "id" : "r32",
         "comps" : [],
         "download" : {
            "receiveFirst" : 1673,
            "len" : 1550,
            "dns" : 0,
            "dnsEnd" : -1,
            "receiveHeadersEnd" : 3716,
            "sslEnd" : -1,
            "connectEnd" : 2043,
            "connectStart" : 0,
            "id" : "download_39",
            "receivedTime" : "5268.48999992944",
            "sslStart" : -1,
            "dnsStart" : -1,
            "receiveLast" : 1552.48999992944,
            "s_time" : 1539.93900003843,
            "sendEnd" : 2043,
            "sendStart" : 2043,
            "type" : "image/png"
         }
      },
      {
         "when_comp_start" : -1,
         "url" : "http://original.testbed.localhost/www.adcash.com/en/imgv5/home_facts/facts_advanced.svg",
         "id" : "r46",
         "comps" : [],
         "download" : {
            "receiveFirst" : 1638,
            "len" : 2421,
            "dns" : 0,
            "dnsEnd" : -1,
            "receiveHeadersEnd" : 1689,
            "sslEnd" : -1,
            "connectEnd" : 51,
            "connectStart" : 0,
            "id" : "download_40",
            "receivedTime" : "5284.8229999654",
            "sslStart" : -1,
            "dnsStart" : -1,
            "receiveLast" : 3595.8229999654,
            "s_time" : 3582.2989998851,
            "sendEnd" : 51,
            "sendStart" : 51,
            "type" : "image/svg+xml"
         }
      },
      {
         "when_comp_start" : -1,
         "url" : "http://fonts.gstatic.com/s/lato/v11/AcvTq8Q0lyKKNxRlL28Rnz8E0i7KZn-EPnyo3HZu7kw.woff",
         "id" : "r62",
         "comps" : [],
         "download" : {
            "receiveFirst" : 1673,
            "len" : 40096,
            "dns" : 0,
            "dnsEnd" : -1,
            "receiveHeadersEnd" : 4067,
            "sslEnd" : -1,
            "connectEnd" : 2394,
            "connectStart" : 0,
            "id" : "download_41",
            "receivedTime" : "6954.31499998085",
            "sslStart" : -1,
            "dnsStart" : -1,
            "receiveLast" : 2887.31499998085,
            "s_time" : 1654.05900008045,
            "sendEnd" : 2394,
            "sendStart" : 2394,
            "type" : "font/woff"
         }
      },
      {
         "when_comp_start" : -1,
         "url" : "http://original.testbed.localhost/www.adcash.com/en/imgv5/home_facts/fact_global.svg",
         "id" : "r47",
         "comps" : [],
         "download" : {
            "receiveFirst" : 1982,
            "len" : 2458,
            "dns" : 0,
            "dnsEnd" : -1,
            "receiveHeadersEnd" : 2767,
            "sslEnd" : -1,
            "connectEnd" : 785,
            "connectStart" : 0,
            "id" : "download_42",
            "receivedTime" : "6413.62700005993",
            "sslStart" : -1,
            "dnsStart" : -1,
            "receiveLast" : 3646.62700005993,
            "s_time" : 3633.02200008184,
            "sendEnd" : 785,
            "sendStart" : 785,
            "type" : "image/svg+xml"
         }
      },
      {
         "when_comp_start" : -1,
         "url" : "http://original.testbed.localhost/www.adcash.com/en/imgv5/home_facts/fact_ads.svg",
         "id" : "r48",
         "comps" : [],
         "download" : {
            "receiveFirst" : 1921,
            "len" : 973,
            "dns" : 0,
            "dnsEnd" : -1,
            "receiveHeadersEnd" : 2030,
            "sslEnd" : -1,
            "connectEnd" : 109,
            "connectStart" : 0,
            "id" : "download_43",
            "receivedTime" : "6449.3529999163",
            "sslStart" : -1,
            "dnsStart" : -1,
            "receiveLast" : 4419.3529999163,
            "s_time" : 4417.82299987972,
            "sendEnd" : 109,
            "sendStart" : 109,
            "type" : "image/svg+xml"
         }
      },
      {
         "when_comp_start" : -1,
         "url" : "https://stats.g.doubleclick.net/r/collect?t=dc&aip=1&_r=3&v=1&_v=j39&tid=UA-26904811-1&cid=771793193.1442514834&jid=1111965206&_u=AGAAgEQ~&z=707061534",
         "id" : "r76",
         "comps" : [],
         "download" : {
            "receiveFirst" : 1979,
            "len" : 35,
            "dns" : 0,
            "dnsEnd" : -1,
            "receiveHeadersEnd" : 3612,
            "sslEnd" : 1632,
            "connectEnd" : 1632,
            "connectStart" : 0,
            "id" : "download_44",
            "receivedTime" : "6466.17099992",
            "sslStart" : 1,
            "dnsStart" : -1,
            "receiveLast" : 2854.17099992,
            "s_time" : 2853.50900003687,
            "sendEnd" : 1633,
            "sendStart" : 1632,
            "type" : "image/gif"
         }
      },
      {
         "when_comp_start" : -1,
         "url" : "http://original.testbed.localhost/www.adcash.com/en/imgv5/home_facts/fact_premium.svg",
         "id" : "r49",
         "comps" : [],
         "download" : {
            "receiveFirst" : 1698,
            "len" : 787,
            "dns" : 0,
            "dnsEnd" : -1,
            "receiveHeadersEnd" : 2173,
            "sslEnd" : -1,
            "connectEnd" : 475,
            "connectStart" : 0,
            "id" : "download_45",
            "receivedTime" : "6701.26500003971",
            "sslStart" : -1,
            "dnsStart" : -1,
            "receiveLast" : 4528.26500003971,
            "s_time" : 4526.55100007541,
            "sendEnd" : 475,
            "sendStart" : 475,
            "type" : "image/svg+xml"
         }
      },
      {
         "when_comp_start" : -1,
         "url" : "http://original.testbed.localhost/www.adcash.com/en/imgv5/home_facts/fact_campaigns.svg",
         "id" : "r50",
         "comps" : [],
         "download" : {
            "receiveFirst" : 1667,
            "len" : 1207,
            "dns" : 0,
            "dnsEnd" : -1,
            "receiveHeadersEnd" : 1708,
            "sslEnd" : -1,
            "connectEnd" : 41,
            "connectStart" : 0,
            "id" : "download_46",
            "receivedTime" : "6722.98100008629",
            "sslStart" : -1,
            "dnsStart" : -1,
            "receiveLast" : 5014.98100008629,
            "s_time" : 5001.6530000139,
            "sendEnd" : 41,
            "sendStart" : 41,
            "type" : "image/svg+xml"
         }
      },
      {
         "when_comp_start" : -1,
         "url" : "http://original.testbed.localhost/www.adcash.com/en/imgv5/home_facts/fact_team.svg",
         "id" : "r51",
         "comps" : [],
         "download" : {
            "receiveFirst" : 1634,
            "len" : 1910,
            "dns" : 0,
            "dnsEnd" : -1,
            "receiveHeadersEnd" : 1859,
            "sslEnd" : -1,
            "connectEnd" : 225,
            "connectStart" : 0,
            "id" : "download_47",
            "receivedTime" : "6915.29699997045",
            "sslStart" : -1,
            "dnsStart" : -1,
            "receiveLast" : 5056.29699997045,
            "s_time" : 5042.95999999158,
            "sendEnd" : 225,
            "sendStart" : 225,
            "type" : "image/svg+xml"
         }
      },
      {
         "when_comp_start" : -1,
         "url" : "http://original.testbed.localhost/www.adcash.com/en/imgv5/social_icons/social_1.png",
         "id" : "r53",
         "comps" : [],
         "download" : {
            "receiveFirst" : 556,
            "len" : 230,
            "dns" : 0,
            "dnsEnd" : -1,
            "receiveHeadersEnd" : 1685,
            "sslEnd" : -1,
            "connectEnd" : 1129,
            "connectStart" : 0,
            "id" : "download_48",
            "receivedTime" : "6983.04999992251",
            "sslStart" : -1,
            "dnsStart" : -1,
            "receiveLast" : 5298.04999992251,
            "s_time" : 5283.95999991335,
            "sendEnd" : 1129,
            "sendStart" : 1129,
            "type" : "image/png"
         }
      },
      {
         "when_comp_start" : -1,
         "url" : "http://original.testbed.localhost/www.adcash.com/en/imgv5/social_icons/social_2.png",
         "id" : "r54",
         "comps" : [],
         "download" : {
            "receiveFirst" : 549,
            "len" : 331,
            "dns" : 0,
            "dnsEnd" : -1,
            "receiveHeadersEnd" : 585,
            "sslEnd" : -1,
            "connectEnd" : 36,
            "connectStart" : 0,
            "id" : "download_49",
            "receivedTime" : "6999.60600002669",
            "sslStart" : -1,
            "dnsStart" : -1,
            "receiveLast" : 6414.60600002669,
            "s_time" : 6412.76800003834,
            "sendEnd" : 36,
            "sendStart" : 36,
            "type" : "image/png"
         }
      },
      {
         "when_comp_start" : -1,
         "url" : "http://original.testbed.localhost/www.adcash.com/en/imgv5/social_icons/social_3.png",
         "id" : "r55",
         "comps" : [],
         "download" : {
            "receiveFirst" : 305,
            "len" : 267,
            "dns" : 0,
            "dnsEnd" : -1,
            "receiveHeadersEnd" : 557,
            "sslEnd" : -1,
            "connectEnd" : 252,
            "connectStart" : 0,
            "id" : "download_50",
            "receivedTime" : "7007.219000021",
            "sslStart" : -1,
            "dnsStart" : -1,
            "receiveLast" : 6450.219000021,
            "s_time" : 6448.48000002094,
            "sendEnd" : 252,
            "sendStart" : 252,
            "type" : "image/png"
         }
      },
      {
         "when_comp_start" : -1,
         "url" : "http://original.testbed.localhost/www.adcash.com/en/imgv5/social_icons/social_4.png",
         "id" : "r56",
         "comps" : [],
         "download" : {
            "receiveFirst" : 288,
            "len" : 424,
            "dns" : 0,
            "dnsEnd" : -1,
            "receiveHeadersEnd" : 310,
            "sslEnd" : -1,
            "connectEnd" : 22,
            "connectStart" : 0,
            "id" : "download_51",
            "receivedTime" : "7012.38800003193",
            "sslStart" : -1,
            "dnsStart" : -1,
            "receiveLast" : 6702.38800003193,
            "s_time" : 6700.37400000729,
            "sendEnd" : 22,
            "sendStart" : 22,
            "type" : "image/png"
         }
      },
      {
         "when_comp_start" : -1,
         "url" : "http://original.testbed.localhost/www.adcash.com/imgv5/geo.png",
         "id" : "r68",
         "comps" : [],
         "download" : {
            "receiveFirst" : 178,
            "len" : 141572,
            "dns" : 0,
            "dnsEnd" : -1,
            "receiveHeadersEnd" : 370,
            "sslEnd" : -1,
            "connectEnd" : 192,
            "connectStart" : 0,
            "id" : "download_52",
            "receivedTime" : "10726.871999912",
            "sslStart" : -1,
            "dnsStart" : -1,
            "receiveLast" : 10356.871999912,
            "s_time" : 6723.01799990237,
            "sendEnd" : 192,
            "sendStart" : 192,
            "type" : "image/png"
         }
      },
      {
         "when_comp_start" : -1,
         "url" : "http://original.testbed.localhost/www.adcash.com/imgv5/intro_background.jpg",
         "id" : "r69",
         "comps" : [],
         "download" : {
            "receiveFirst" : 257,
            "len" : 274210,
            "dns" : 0,
            "dnsEnd" : -1,
            "receiveHeadersEnd" : 312,
            "sslEnd" : -1,
            "connectEnd" : 55,
            "connectStart" : 0,
            "id" : "download_53",
            "receivedTime" : "10437.3409999534",
            "sslStart" : -1,
            "dnsStart" : -1,
            "receiveLast" : 10125.3409999534,
            "s_time" : 6915.32599995844,
            "sendEnd" : 55,
            "sendStart" : 55,
            "type" : "image/jpeg"
         }
      },
      {
         "when_comp_start" : -1,
         "url" : "http://original.testbed.localhost/www.adcash.com/en/imgv5/logo_carousel/logo_ubisoft.png",
         "id" : "r33",
         "comps" : [],
         "download" : {
            "receiveFirst" : 450,
            "len" : 5208,
            "dns" : 0,
            "dnsEnd" : -1,
            "receiveHeadersEnd" : 5909,
            "sslEnd" : -1,
            "connectEnd" : 5459,
            "connectStart" : 0,
            "id" : "download_54",
            "receivedTime" : "8164.52899994329",
            "sslStart" : -1,
            "dnsStart" : -1,
            "receiveLast" : 2255.52899994329,
            "s_time" : 1540.08800000884,
            "sendEnd" : 5459,
            "sendStart" : 5459,
            "type" : "image/png"
         }
      },
      {
         "when_comp_start" : -1,
         "url" : "http://original.testbed.localhost/www.adcash.com/en/imgv5/logo_carousel/logo_kromtech.png",
         "id" : "r34",
         "comps" : [],
         "download" : {
            "receiveFirst" : 476,
            "len" : 1446,
            "dns" : 0,
            "dnsEnd" : -1,
            "receiveHeadersEnd" : 5942,
            "sslEnd" : -1,
            "connectEnd" : 5466,
            "connectStart" : 0,
            "id" : "download_55",
            "receivedTime" : "7495.66400004551",
            "sslStart" : -1,
            "dnsStart" : -1,
            "receiveLast" : 1553.66400004551,
            "s_time" : 1540.21200002171,
            "sendEnd" : 5466,
            "sendStart" : 5466,
            "type" : "image/png"
         }
      },
      {
         "when_comp_start" : -1,
         "url" : "http://original.testbed.localhost/www.adcash.com/en/imgv5/home_animated/home_advertisers_4.svg",
         "id" : "r35",
         "comps" : [],
         "download" : {
            "receiveFirst" : 517,
            "len" : 394,
            "dns" : 0,
            "dnsEnd" : -1,
            "receiveHeadersEnd" : 5988,
            "sslEnd" : -1,
            "connectEnd" : 5471,
            "connectStart" : 0,
            "id" : "download_56",
            "receivedTime" : "7529.35600001365",
            "sslStart" : -1,
            "dnsStart" : -1,
            "receiveLast" : 1541.35600001365,
            "s_time" : 1540.31999991275,
            "sendEnd" : 5471,
            "sendStart" : 5471,
            "type" : "image/svg+xml"
         }
      },
      {
         "when_comp_start" : -1,
         "url" : "http://www.google-analytics.com/collect?v=1&_v=j39&a=1513606651&t=pageview&_s=1&dl=http%3A%2F%2Foriginal.testbed.localhost%2Fwww.adcash.com%2F&ul=en-us&de=UTF-8&dt=Adcash%20%7C%20International%20Advertising%20Network%20%26%20Technology&sd=24-bit&sr=1024x768&vp=1009x586&je=1&_u=AGAAgEQ~&jid=111196520",
         "id" : "r75",
         "comps" : [],
         "download" : {
            "receiveFirst" : 564,
            "len" : 35,
            "dns" : 0,
            "dnsEnd" : -1,
            "receiveHeadersEnd" : 564,
            "sslEnd" : -1,
            "connectEnd" : 0,
            "connectStart" : 0,
            "id" : "download_57",
            "receivedTime" : "7535.91599990614",
            "sslStart" : -1,
            "dnsStart" : -1,
            "receiveLast" : 6971.91599990614,
            "s_time" : 6970.48199991696,
            "sendEnd" : 0,
            "sendStart" : 0,
            "type" : "image/gif"
         }
      },
      {
         "when_comp_start" : -1,
         "url" : "http://original.testbed.localhost/www.adcash.com/en/imgv5/adcash_logo_w.svg",
         "id" : "r52",
         "comps" : [],
         "download" : {
            "receiveFirst" : 2352,
            "len" : 3311,
            "dns" : 0,
            "dnsEnd" : -1,
            "receiveHeadersEnd" : 2368,
            "sslEnd" : -1,
            "connectEnd" : 16,
            "connectStart" : 0,
            "id" : "download_58",
            "receivedTime" : "7648.54900003411",
            "sslStart" : -1,
            "dnsStart" : -1,
            "receiveLast" : 5280.54900003411,
            "s_time" : 5267.66899996437,
            "sendEnd" : 16,
            "sendStart" : 16,
            "type" : "image/svg+xml"
         }
      },
      {
         "when_comp_start" : -1,
         "url" : "http://insights.hotjar.com/api/v1/client/sites/29845/visit-data?sv=3",
         "id" : "r78",
         "comps" : [],
         "download" : {
            "receiveFirst" : 539,
            "len" : 65,
            "dns" : 0,
            "dnsEnd" : -1,
            "receiveHeadersEnd" : 539,
            "sslEnd" : -1,
            "connectEnd" : 0,
            "connectStart" : 0,
            "id" : "download_59",
            "receivedTime" : "7987.94599995017",
            "sslStart" : -1,
            "dnsStart" : -1,
            "receiveLast" : 7448.94599995017,
            "s_time" : 7447.47500005178,
            "sendEnd" : 0,
            "sendStart" : 0,
            "type" : "application/json"
         }
      }
   ],
   "deps" : [
      {
         "a2" : "r1_c2",
         "time" : -1,
         "id" : "dep1",
         "a1" : "comp_66"
      },
      {
         "a2" : "r1_c3",
         "time" : -1,
         "id" : "dep2",
         "a1" : "comp_68"
      },
      {
         "a2" : "comp_68",
         "time" : -1,
         "id" : "dep3",
         "a1" : "comp_66"
      },
      {
         "a2" : "download_59",
         "time" : -1,
         "id" : "dep4",
         "a1" : "r1_c3"
      },
      {
         "a2" : "download_58",
         "time" : 3585.23899991996,
         "id" : "dep5",
         "a1" : "r1_c3"
      },
      {
         "a2" : "download_57",
         "time" : 5288.05199987255,
         "id" : "dep6",
         "a1" : "r1_c3"
      },
      {
         "a2" : "download_56",
         "time" : -1,
         "id" : "dep7",
         "a1" : "r1_c1"
      },
      {
         "a2" : "download_55",
         "time" : 1361.67700006626,
         "id" : "dep8",
         "a1" : "r1_c1"
      },
      {
         "a2" : "download_54",
         "time" : 1361.55300005339,
         "id" : "dep9",
         "a1" : "r1_c1"
      },
      {
         "a2" : "download_53",
         "time" : 5232.89599991403,
         "id" : "dep10",
         "a1" : "r1_c3"
      },
      {
         "a2" : "download_52",
         "time" : 5040.58799985796,
         "id" : "dep11",
         "a1" : "r1_c3"
      },
      {
         "a2" : "download_51",
         "time" : 5017.94399996288,
         "id" : "dep12",
         "a1" : "r1_c3"
      },
      {
         "a2" : "download_50",
         "time" : 4766.04999997653,
         "id" : "dep13",
         "a1" : "r1_c3"
      },
      {
         "a2" : "download_49",
         "time" : 4730.33799999393,
         "id" : "dep14",
         "a1" : "r1_c3"
      },
      {
         "a2" : "download_48",
         "time" : 3601.52999986894,
         "id" : "dep15",
         "a1" : "r1_c3"
      },
      {
         "a2" : "download_47",
         "time" : 3360.52999994717,
         "id" : "dep16",
         "a1" : "r1_c3"
      },
      {
         "a2" : "download_46",
         "time" : 3319.22299996949,
         "id" : "dep17",
         "a1" : "r1_c3"
      },
      {
         "a2" : "download_45",
         "time" : 2844.121000031,
         "id" : "dep18",
         "a1" : "r1_c3"
      },
      {
         "a2" : "download_44",
         "time" : 62.45500012301,
         "id" : "dep19",
         "a1" : "comp_106"
      },
      {
         "a2" : "download_43",
         "time" : 2735.39299983531,
         "id" : "dep20",
         "a1" : "r1_c3"
      },
      {
         "a2" : "download_42",
         "time" : 1950.59200003743,
         "id" : "dep21",
         "a1" : "r1_c3"
      },
      {
         "a2" : "download_41",
         "time" : -1,
         "id" : "dep22",
         "a1" : "r1_c1"
      },
      {
         "a2" : "download_40",
         "time" : 1899.86899984069,
         "id" : "dep23",
         "a1" : "r1_c3"
      },
      {
         "a2" : "download_39",
         "time" : 1361.40400008298,
         "id" : "dep24",
         "a1" : "r1_c1"
      },
      {
         "a2" : "download_38",
         "time" : 10.35300013609,
         "id" : "dep25",
         "a1" : "comp_106"
      },
      {
         "a2" : "download_37",
         "time" : 579.52699996531,
         "id" : "dep26",
         "a1" : "r1_c3"
      },
      {
         "a2" : "download_36",
         "time" : 1475.25999997742,
         "id" : "dep27",
         "a1" : "r1_c1"
      },
      {
         "a2" : "download_35",
         "time" : 382.76599999517,
         "id" : "dep28",
         "a1" : "r1_c3"
      },
      {
         "a2" : "download_34",
         "time" : 237.09299997426,
         "id" : "dep29",
         "a1" : "r1_c3"
      },
      {
         "a2" : "download_33",
         "time" : 5.62800001353003,
         "id" : "dep30",
         "a1" : "r1_c3"
      },
      {
         "a2" : "download_32",
         "time" : 5.03699993714008,
         "id" : "dep31",
         "a1" : "r1_c3"
      },
      {
         "a2" : "download_31",
         "time" : 1475.11500003747,
         "id" : "dep32",
         "a1" : "r1_c1"
      },
      {
         "a2" : "download_30",
         "time" : 4.11399989387996,
         "id" : "dep33",
         "a1" : "r1_c3"
      },
      {
         "a2" : "download_29",
         "time" : 1474.81000004336,
         "id" : "dep34",
         "a1" : "r1_c1"
      },
      {
         "a2" : "download_28",
         "time" : 1474.97400012798,
         "id" : "dep35",
         "a1" : "r1_c1"
      },
      {
         "a2" : "download_27",
         "time" : 1474.65600003488,
         "id" : "dep36",
         "a1" : "r1_c1"
      },
      {
         "a2" : "download_26",
         "time" : -1,
         "id" : "dep37",
         "a1" : "r1_c1"
      },
      {
         "a2" : "download_25",
         "time" : 1474.34900002554,
         "id" : "dep38",
         "a1" : "r1_c1"
      },
      {
         "a2" : "download_24",
         "time" : 1450.4939999897,
         "id" : "dep39",
         "a1" : "r1_c1"
      },
      {
         "a2" : "download_23",
         "time" : 1426.91499995999,
         "id" : "dep40",
         "a1" : "r1_c1"
      },
      {
         "a2" : "download_22",
         "time" : 1413.91399991698,
         "id" : "dep41",
         "a1" : "r1_c1"
      },
      {
         "a2" : "download_21",
         "time" : 1385.10500011034,
         "id" : "dep42",
         "a1" : "r1_c1"
      },
      {
         "a2" : "download_20",
         "time" : 1361.31000006571,
         "id" : "dep43",
         "a1" : "r1_c1"
      },
      {
         "a2" : "download_19",
         "time" : 1361.18100001476,
         "id" : "dep44",
         "a1" : "r1_c1"
      },
      {
         "a2" : "download_18",
         "time" : 1361.04799993336,
         "id" : "dep45",
         "a1" : "r1_c1"
      },
      {
         "a2" : "download_17",
         "time" : 1360.93600001186,
         "id" : "dep46",
         "a1" : "r1_c1"
      },
      {
         "a2" : "download_16",
         "time" : 1360.74599996209,
         "id" : "dep47",
         "a1" : "r1_c1"
      },
      {
         "a2" : "download_15",
         "time" : 1240.11199991218,
         "id" : "dep48",
         "a1" : "r1_c1"
      },
      {
         "a2" : "download_14",
         "time" : 1020.24099999107,
         "id" : "dep49",
         "a1" : "r1_c1"
      },
      {
         "a2" : "download_13",
         "time" : 1037.02199994586,
         "id" : "dep50",
         "a1" : "r1_c1"
      },
      {
         "a2" : "download_12",
         "time" : 1025.69400006905,
         "id" : "dep51",
         "a1" : "r1_c1"
      },
      {
         "a2" : "download_11",
         "time" : 1025.97600012086,
         "id" : "dep52",
         "a1" : "r1_c1"
      },
      {
         "a2" : "download_10",
         "time" : 974.501000018794,
         "id" : "dep53",
         "a1" : "r1_c1"
      },
      {
         "a2" : "download_9",
         "time" : 974.262000061574,
         "id" : "dep54",
         "a1" : "r1_c1"
      },
      {
         "a2" : "download_8",
         "time" : 974.075000034644,
         "id" : "dep55",
         "a1" : "r1_c1"
      },
      {
         "a2" : "download_7",
         "time" : 973.864000057804,
         "id" : "dep56",
         "a1" : "r1_c1"
      },
      {
         "a2" : "download_6",
         "time" : 973.610999993984,
         "id" : "dep57",
         "a1" : "r1_c1"
      },
      {
         "a2" : "download_5",
         "time" : 882.927000056954,
         "id" : "dep58",
         "a1" : "r1_c1"
      },
      {
         "a2" : "download_4",
         "time" : 332.309999968856,
         "id" : "dep59",
         "a1" : "r1_c1"
      },
      {
         "a2" : "download_3",
         "time" : 35.692000063136,
         "id" : "dep60",
         "a1" : "r1_c1"
      },
      {
         "a2" : "download_2",
         "time" : 0.958000076933985,
         "id" : "dep61",
         "a1" : "r1_c1"
      },
      {
         "a2" : "download_1",
         "time" : 1.17700011469398,
         "id" : "dep62",
         "a1" : "r1_c1"
      }
   ]
}
