{
   "n_download_no_trigger" : 1,
   "start_activity" : "download_0",
   "name" : "original.testbed.localhost_www.foxnews.com",
   "load_activity" : -1,
   "objs" : [
      {
         "when_comp_start" : 1,
         "url" : "http://original.testbed.localhost/www.foxnews.com",
         "id" : "r1",
         "comps" : [
            {
               "s_time" : 68.8099999679253,
               "time" : 0.199000001884912,
               "type" : "evalhtml",
               "id" : "r1_c1",
               "e_time" : 69.0089999698102
            }
         ],
         "download" : {
            "receiveFirst" : 52,
            "len" : 305,
            "dns" : 0,
            "dnsEnd" : -1,
            "receiveHeadersEnd" : 54,
            "sslEnd" : -1,
            "connectEnd" : 2,
            "connectStart" : 0,
            "id" : "download_0",
            "receivedTime" : "54.7329999972135",
            "sslStart" : -1,
            "dnsStart" : -1,
            "receiveLast" : 0.732999997213483,
            "s_time" : 0,
            "sendEnd" : 2,
            "sendStart" : 2,
            "type" : "text/html"
         }
      }
   ],
   "deps" : []
}
