{
   "n_download_no_trigger" : 3,
   "start_activity" : "download_0",
   "name" : "www.facebook.com_?_rdr=p",
   "load_activity" : -1,
   "objs" : [
      {
         "when_comp_start" : 1,
         "url" : "https://www.facebook.com/?_rdr=p",
         "id" : "r2",
         "comps" : [
            {
               "s_time" : 570.246999850497,
               "time" : 37.321000127121,
               "id" : "r2_c1",
               "type" : "evalhtml",
               "e_time" : 607.567999977618
            },
            {
               "s_time" : 2321.9819997903,
               "time" : 1447.99700006842,
               "type" : "evalhtml",
               "id" : "r2_c2",
               "e_time" : 3769.97899985872
            }
         ],
         "download" : {
            "receiveFirst" : 178,
            "len" : 53828,
            "dns" : 0,
            "dnsEnd" : 0,
            "receiveHeadersEnd" : 558,
            "sslEnd" : 380,
            "connectEnd" : 380,
            "connectStart" : 0,
            "id" : "download_0",
            "receivedTime" : "696.802999824286",
            "sslStart" : 59,
            "dnsStart" : 0,
            "receiveLast" : 138.802999824286,
            "s_time" : 0,
            "sendEnd" : 380,
            "sendStart" : 380,
            "type" : "text/html"
         }
      },
      {
         "when_comp_start" : -1,
         "url" : "https://static.xx.fbcdn.net/rsrc.php/v2/yI/r/ok8muQKJqqj.css",
         "id" : "r3",
         "comps" : [
            {
               "s_time" : 1070.49799989909,
               "time" : 1.99400004930999,
               "type" : 4,
               "id" : "comp_6",
               "e_time" : 1072.4919999484
            }
         ],
         "download" : {
            "receiveFirst" : 285,
            "len" : 22025,
            "dns" : 0,
            "dnsEnd" : 2,
            "receiveHeadersEnd" : 474,
            "sslEnd" : 188,
            "connectEnd" : 189,
            "connectStart" : 0,
            "id" : "download_1",
            "receivedTime" : "1070.38199994713",
            "sslStart" : 124,
            "dnsStart" : 2,
            "receiveLast" : 596.381999947131,
            "s_time" : 572.649999987334,
            "sendEnd" : 189,
            "sendStart" : 189,
            "type" : "text/css"
         }
      },
      {
         "when_comp_start" : -1,
         "url" : "https://static.xx.fbcdn.net/rsrc.php/v2/yO/r/HEHg7hgYkh_.js",
         "id" : "r8",
         "comps" : [
            {
               "s_time" : 2301.885999972,
               "time" : 20.0959998183002,
               "type" : 1,
               "id" : "comp_11",
               "e_time" : 2321.9819997903
            }
         ],
         "download" : {
            "receiveFirst" : 244,
            "len" : 122925,
            "dns" : 0,
            "dnsEnd" : 1,
            "receiveHeadersEnd" : 540,
            "sslEnd" : 295,
            "connectEnd" : 296,
            "connectStart" : 0,
            "id" : "download_2",
            "receivedTime" : "1939.59899991751",
            "sslStart" : 126,
            "dnsStart" : 1,
            "receiveLast" : 1399.59899991751,
            "s_time" : 573.490999871865,
            "sendEnd" : 296,
            "sendStart" : 296,
            "type" : "application/x-javascript"
         }
      },
      {
         "when_comp_start" : -1,
         "url" : "https://scontent.xx.fbcdn.net/hphotos-xap1/t39.2365-6/851565_602269956474188_918638970_n.png",
         "id" : "r9",
         "comps" : [],
         "download" : {
            "receiveFirst" : 289,
            "len" : 741,
            "dns" : 0,
            "dnsEnd" : 1,
            "receiveHeadersEnd" : 608,
            "sslEnd" : 318,
            "connectEnd" : 318,
            "connectStart" : 0,
            "id" : "download_3",
            "receivedTime" : "1215.63599980436",
            "sslStart" : 94,
            "dnsStart" : 1,
            "receiveLast" : 607.635999804363,
            "s_time" : 607.06299985759,
            "sendEnd" : 319,
            "sendStart" : 318,
            "type" : "image/png"
         }
      },
      {
         "when_comp_start" : -1,
         "url" : "https://scontent.xx.fbcdn.net/hphotos-xaf1/t39.2365-6/851585_216271631855613_2121533625_n.png",
         "id" : "r10",
         "comps" : [],
         "download" : {
            "receiveFirst" : 299,
            "len" : 1490,
            "dns" : 0,
            "dnsEnd" : -1,
            "receiveHeadersEnd" : 617,
            "sslEnd" : -1,
            "connectEnd" : 318,
            "connectStart" : 0,
            "id" : "download_4",
            "receivedTime" : "1225.14699981548",
            "sslStart" : -1,
            "dnsStart" : -1,
            "receiveLast" : 608.146999815479,
            "s_time" : 607.235999777913,
            "sendEnd" : 318,
            "sendStart" : 318,
            "type" : "image/png"
         }
      },
      {
         "when_comp_start" : -1,
         "url" : "https://fbcdn-dragon-a.akamaihd.net/hphotos-ak-xap1/t39.2365-6/851558_160351450817973_1678868765_n.png",
         "id" : "r11",
         "comps" : [],
         "download" : {
            "receiveFirst" : 230,
            "len" : 3600,
            "dns" : 0,
            "dnsEnd" : 0,
            "receiveHeadersEnd" : 653,
            "sslEnd" : 422,
            "connectEnd" : 423,
            "connectStart" : 0,
            "id" : "download_5",
            "receivedTime" : "1261.60799991339",
            "sslStart" : 95,
            "dnsStart" : 0,
            "receiveLast" : 608.607999913394,
            "s_time" : 607.403999892995,
            "sendEnd" : 423,
            "sendStart" : 423,
            "type" : "image/png"
         }
      },
      {
         "when_comp_start" : -1,
         "url" : "https://static.xx.fbcdn.net/rsrc.php/v2/yp/r/I5kTXq1bSJZ.css",
         "id" : "r4",
         "comps" : [
            {
               "s_time" : 1294.08499994315,
               "time" : 0.383999897170042,
               "type" : 4,
               "id" : "comp_7",
               "e_time" : 1294.46899984032
            }
         ],
         "download" : {
            "receiveFirst" : 531,
            "len" : 4121,
            "dns" : 0,
            "dnsEnd" : -1,
            "receiveHeadersEnd" : 720,
            "sslEnd" : -1,
            "connectEnd" : 188,
            "connectStart" : 0,
            "id" : "download_6",
            "receivedTime" : "1293.99699997157",
            "sslStart" : -1,
            "dnsStart" : -1,
            "receiveLast" : 573.996999971569,
            "s_time" : 572.838999796659,
            "sendEnd" : 189,
            "sendStart" : 188,
            "type" : "text/css"
         }
      },
      {
         "when_comp_start" : -1,
         "url" : "https://static.xx.fbcdn.net/rsrc.php/v2/yV/r/oXrH9cyQ4HR.css",
         "id" : "r5",
         "comps" : [
            {
               "s_time" : 1647.251999937,
               "time" : 5.52499992773005,
               "type" : 4,
               "id" : "comp_8",
               "e_time" : 1652.77699986473
            }
         ],
         "download" : {
            "receiveFirst" : 548,
            "len" : 76774,
            "dns" : 0,
            "dnsEnd" : -1,
            "receiveHeadersEnd" : 737,
            "sslEnd" : -1,
            "connectEnd" : 188,
            "connectStart" : 0,
            "id" : "download_7",
            "receivedTime" : "1647.08799985237",
            "sslStart" : -1,
            "dnsStart" : -1,
            "receiveLast" : 910.087999852374,
            "s_time" : 573.010999942198,
            "sendEnd" : 189,
            "sendStart" : 188,
            "type" : "text/css"
         }
      },
      {
         "when_comp_start" : -1,
         "url" : "https://static.xx.fbcdn.net/rsrc.php/v2/yK/r/4O_bCtB-557.css",
         "id" : "r6",
         "comps" : [
            {
               "s_time" : 1881.04399992153,
               "time" : 0.938999932260003,
               "type" : 4,
               "id" : "comp_9",
               "e_time" : 1881.98299985379
            }
         ],
         "download" : {
            "receiveFirst" : 884,
            "len" : 40689,
            "dns" : 0,
            "dnsEnd" : -1,
            "receiveHeadersEnd" : 1073,
            "sslEnd" : -1,
            "connectEnd" : 188,
            "connectStart" : 0,
            "id" : "download_8",
            "receivedTime" : "1880.94299985096",
            "sslStart" : -1,
            "dnsStart" : -1,
            "receiveLast" : 807.942999850959,
            "s_time" : 573.16999998875,
            "sendEnd" : 189,
            "sendStart" : 188,
            "type" : "text/css"
         }
      },
      {
         "when_comp_start" : -1,
         "url" : "https://static.xx.fbcdn.net/rsrc.php/v2/yn/r/HY0VFE22Kca.css",
         "id" : "r7",
         "comps" : [
            {
               "s_time" : 2280.06499982439,
               "time" : 77.48500001617,
               "type" : 4,
               "id" : "comp_10",
               "e_time" : 2357.54999984056
            }
         ],
         "download" : {
            "receiveFirst" : 1189,
            "len" : 252310,
            "dns" : 0,
            "dnsEnd" : -1,
            "receiveHeadersEnd" : 1378,
            "sslEnd" : -1,
            "connectEnd" : 188,
            "connectStart" : 0,
            "id" : "download_9",
            "receivedTime" : "2279.96600000188",
            "sslStart" : -1,
            "dnsStart" : -1,
            "receiveLast" : 901.966000001878,
            "s_time" : 573.31999996677,
            "sendEnd" : 189,
            "sendStart" : 188,
            "type" : "text/css"
         }
      },
      {
         "when_comp_start" : -1,
         "url" : "https://static.xx.fbcdn.net/rsrc.php/v2/yb/r/GsNJNwuI-UM.gif",
         "id" : "r12",
         "comps" : [],
         "download" : {
            "receiveFirst" : 1515,
            "len" : 522,
            "dns" : 0,
            "dnsEnd" : -1,
            "receiveHeadersEnd" : 1670,
            "sslEnd" : -1,
            "connectEnd" : 154,
            "connectStart" : 0,
            "id" : "download_10",
            "receivedTime" : "2279.27199983969",
            "sslStart" : -1,
            "dnsStart" : -1,
            "receiveLast" : 609.271999839693,
            "s_time" : 607.567999977618,
            "sendEnd" : 155,
            "sendStart" : 154,
            "type" : "image/gif"
         }
      },
      {
         "when_comp_start" : -1,
         "url" : "https://static.xx.fbcdn.net/rsrc.php/v2/yz/r/v42ZA_lL_mr.png",
         "id" : "r15",
         "comps" : [],
         "download" : {
            "receiveFirst" : 61,
            "len" : 26119,
            "dns" : 0,
            "dnsEnd" : -1,
            "receiveHeadersEnd" : 61,
            "sslEnd" : -1,
            "connectEnd" : 0,
            "connectStart" : 0,
            "id" : "download_13",
            "receivedTime" : "2624.96799998917",
            "sslStart" : -1,
            "dnsStart" : -1,
            "receiveLast" : 2563.96799998917,
            "s_time" : 2361.54799978249,
            "sendEnd" : 0,
            "sendStart" : 0,
            "type" : "image/png"
         }
      },
      {
         "when_comp_start" : -1,
         "url" : "https://static.xx.fbcdn.net/rsrc.php/v2/yp/r/1cSl-743xPz.png",
         "id" : "r16",
         "comps" : [],
         "download" : {
            "receiveFirst" : 284,
            "len" : 8011,
            "dns" : 0,
            "dnsEnd" : -1,
            "receiveHeadersEnd" : 284,
            "sslEnd" : -1,
            "connectEnd" : 0,
            "connectStart" : 0,
            "id" : "download_14",
            "receivedTime" : "2706.64899982512",
            "sslStart" : -1,
            "dnsStart" : -1,
            "receiveLast" : 2422.64899982512,
            "s_time" : 2364.03299984522,
            "sendEnd" : 0,
            "sendStart" : 0,
            "type" : "image/png"
         }
      },
      {
         "when_comp_start" : -1,
         "url" : "https://static.xx.fbcdn.net/rsrc.php/v2/yU/r/CfnR136dgPU.js",
         "id" : "r19",
         "comps" : [
            {
               "s_time" : 2816.09699991532,
               "time" : 2.97100003808009,
               "type" : 2,
               "id" : "comp_47",
               "e_time" : 2819.0679999534
            }
         ],
         "download" : {
            "receiveFirst" : 300,
            "len" : 15178,
            "dns" : 0,
            "dnsEnd" : -1,
            "receiveHeadersEnd" : 304,
            "sslEnd" : -1,
            "connectEnd" : 2,
            "connectStart" : 0,
            "id" : "download_15",
            "receivedTime" : "2815.81299984828",
            "sslStart" : -1,
            "dnsStart" : -1,
            "receiveLast" : 2511.81299984828,
            "s_time" : 2418.25299989432,
            "sendEnd" : 4,
            "sendStart" : 2,
            "type" : "application/x-javascript"
         }
      },
      {
         "when_comp_start" : -1,
         "url" : "https://static.xx.fbcdn.net/rsrc.php/v2/yC/r/dzVi2gLucD6.js",
         "id" : "r18",
         "comps" : [
            {
               "s_time" : 2851.37099982239,
               "time" : 4.22800006345005,
               "type" : 2,
               "id" : "comp_51",
               "e_time" : 2855.59899988584
            }
         ],
         "download" : {
            "receiveFirst" : 300,
            "len" : 33637,
            "dns" : 0,
            "dnsEnd" : -1,
            "receiveHeadersEnd" : 304,
            "sslEnd" : -1,
            "connectEnd" : 2,
            "connectStart" : 0,
            "id" : "download_16",
            "receivedTime" : "2851.13199986517",
            "sslStart" : -1,
            "dnsStart" : -1,
            "receiveLast" : 2547.13199986517,
            "s_time" : 2417.95699996874,
            "sendEnd" : 4,
            "sendStart" : 2,
            "type" : "application/x-javascript"
         }
      },
      {
         "when_comp_start" : -1,
         "url" : "https://static.xx.fbcdn.net/rsrc.php/v2/yY/r/A61rFoMRjVs.js",
         "id" : "r20",
         "comps" : [
            {
               "s_time" : 3273.27499981038,
               "time" : 32.8340001870001,
               "type" : 2,
               "id" : "comp_55",
               "e_time" : 3306.10899999738
            }
         ],
         "download" : {
            "receiveFirst" : 462,
            "len" : 142414,
            "dns" : 0,
            "dnsEnd" : -1,
            "receiveHeadersEnd" : 466,
            "sslEnd" : -1,
            "connectEnd" : 2,
            "connectStart" : 0,
            "id" : "download_17",
            "receivedTime" : "3273.03499984555",
            "sslStart" : -1,
            "dnsStart" : -1,
            "receiveLast" : 2807.03499984555,
            "s_time" : 2418.52999990806,
            "sendEnd" : 4,
            "sendStart" : 2,
            "type" : "application/x-javascript"
         }
      },
      {
         "when_comp_start" : -1,
         "url" : "https://static.xx.fbcdn.net/rsrc.php/v2/yN/r/rVqxq6UaFWH.png",
         "id" : "r17",
         "comps" : [],
         "download" : {
            "receiveFirst" : 582,
            "len" : 4891,
            "dns" : 0,
            "dnsEnd" : -1,
            "receiveHeadersEnd" : 582,
            "sslEnd" : -1,
            "connectEnd" : 0,
            "connectStart" : 0,
            "id" : "download_18",
            "receivedTime" : "2977.54699992947",
            "sslStart" : -1,
            "dnsStart" : -1,
            "receiveLast" : 2395.54699992947,
            "s_time" : 2372.0579999499,
            "sendEnd" : 0,
            "sendStart" : 0,
            "type" : "image/png"
         }
      },
      {
         "when_comp_start" : -1,
         "url" : "https://static.xx.fbcdn.net/rsrc.php/v2/yI/r/c8WfS6w2w0P.js",
         "id" : "r21",
         "comps" : [
            {
               "s_time" : 3749.40599990077,
               "time" : 26.86399989762,
               "type" : 2,
               "id" : "comp_67",
               "e_time" : 3776.26999979839
            }
         ],
         "download" : {
            "receiveFirst" : 851,
            "len" : 144592,
            "dns" : 0,
            "dnsEnd" : -1,
            "receiveHeadersEnd" : 855,
            "sslEnd" : -1,
            "connectEnd" : 2,
            "connectStart" : 0,
            "id" : "download_19",
            "receivedTime" : "3749.12499985658",
            "sslStart" : -1,
            "dnsStart" : -1,
            "receiveLast" : 2894.12499985658,
            "s_time" : 2418.77499991097,
            "sendEnd" : 4,
            "sendStart" : 2,
            "type" : "application/x-javascript"
         }
      },
      {
         "when_comp_start" : -1,
         "url" : "https://static.xx.fbcdn.net/rsrc.php/v2/yW/r/JmQll3DDJ5b.js",
         "id" : "r22",
         "comps" : [
            {
               "s_time" : 3495.67999993451,
               "time" : 2.21999990754011,
               "type" : 2,
               "id" : "comp_63",
               "e_time" : 3497.89999984205
            }
         ],
         "download" : {
            "receiveFirst" : 851,
            "len" : 39658,
            "dns" : 0,
            "dnsEnd" : -1,
            "receiveHeadersEnd" : 855,
            "sslEnd" : -1,
            "connectEnd" : 2,
            "connectStart" : 0,
            "id" : "download_20",
            "receivedTime" : "3495.38699979894",
            "sslStart" : -1,
            "dnsStart" : -1,
            "receiveLast" : 2640.38699979894,
            "s_time" : 2419.02799997479,
            "sendEnd" : 4,
            "sendStart" : 2,
            "type" : "application/x-javascript"
         }
      },
      {
         "when_comp_start" : -1,
         "url" : "https://static.xx.fbcdn.net/rsrc.php/v2/yw/r/YoW7xGUJpTz.js",
         "id" : "r23",
         "comps" : [
            {
               "s_time" : 3366.70199991204,
               "time" : 0.570999924090302,
               "type" : 2,
               "id" : "comp_59",
               "e_time" : 3367.27299983613
            }
         ],
         "download" : {
            "receiveFirst" : 884,
            "len" : 1045,
            "dns" : 0,
            "dnsEnd" : -1,
            "receiveHeadersEnd" : 888,
            "sslEnd" : -1,
            "connectEnd" : 2,
            "connectStart" : 0,
            "id" : "download_21",
            "receivedTime" : "3366.52499996126",
            "sslStart" : -1,
            "dnsStart" : -1,
            "receiveLast" : 2478.52499996126,
            "s_time" : 2419.29599992,
            "sendEnd" : 4,
            "sendStart" : 2,
            "type" : "application/x-javascript"
         }
      },
      {
         "when_comp_start" : -1,
         "url" : "https://static.xx.fbcdn.net/rsrc.php/v2/y0/r/cdG3j8xlf-g.js",
         "id" : "r25",
         "comps" : [
            {
               "s_time" : 3855.17899994738,
               "time" : 6.15000003018031,
               "type" : null,
               "id" : "comp_75",
               "e_time" : 3861.32899997756
            }
         ],
         "download" : {
            "receiveFirst" : 1348,
            "len" : 29604,
            "dns" : 0,
            "dnsEnd" : -1,
            "receiveHeadersEnd" : 1352,
            "sslEnd" : -1,
            "connectEnd" : 2,
            "connectStart" : 0,
            "id" : "download_22",
            "receivedTime" : "3854.53599994071",
            "sslStart" : -1,
            "dnsStart" : -1,
            "receiveLast" : 2502.53599994071,
            "s_time" : 2419.88499998115,
            "sendEnd" : 4,
            "sendStart" : 2,
            "type" : "application/x-javascript"
         }
      },
      {
         "when_comp_start" : -1,
         "url" : "https://static.xx.fbcdn.net/rsrc.php/v2/yO/r/hiWQlvAyz5m.js",
         "id" : "r26",
         "comps" : [
            {
               "s_time" : 3819.542999845,
               "time" : 0.552000012250119,
               "type" : null,
               "id" : "comp_71",
               "e_time" : 3820.09499985725
            }
         ],
         "download" : {
            "receiveFirst" : 1349,
            "len" : 924,
            "dns" : 0,
            "dnsEnd" : -1,
            "receiveHeadersEnd" : 1352,
            "sslEnd" : -1,
            "connectEnd" : 1,
            "connectStart" : 0,
            "id" : "download_23",
            "receivedTime" : "3819.31799999438",
            "sslStart" : -1,
            "dnsStart" : -1,
            "receiveLast" : 2467.31799999438,
            "s_time" : 2420.45099986717,
            "sendEnd" : 3,
            "sendStart" : 1,
            "type" : "application/x-javascript"
         }
      },
      {
         "when_comp_start" : -1,
         "url" : "https://static.xx.fbcdn.net/rsrc.php/v2/yr/r/rGuyBeDf_aN.js",
         "id" : "r24",
         "comps" : [
            {
               "s_time" : 3878.62299988046,
               "time" : 26.6690000426097,
               "type" : null,
               "id" : "comp_80",
               "e_time" : 3905.29199992307
            }
         ],
         "download" : {
            "receiveFirst" : 1431,
            "len" : 10901,
            "dns" : 0,
            "dnsEnd" : -1,
            "receiveHeadersEnd" : 1435,
            "sslEnd" : -1,
            "connectEnd" : 2,
            "connectStart" : 0,
            "id" : "download_24",
            "receivedTime" : "3877.88199982606",
            "sslStart" : -1,
            "dnsStart" : -1,
            "receiveLast" : 2442.88199982606,
            "s_time" : 2419.56599988043,
            "sendEnd" : 4,
            "sendStart" : 2,
            "type" : "application/x-javascript"
         }
      }
   ],
   "deps" : [
      {
         "a2" : "r2_c2",
         "time" : -1,
         "id" : "dep1",
         "a1" : "comp_11"
      },
      {
         "a2" : "comp_11",
         "time" : -1,
         "id" : "dep2",
         "a1" : "comp_6"
      },
      {
         "a2" : "comp_11",
         "time" : -1,
         "id" : "dep3",
         "a1" : "comp_7"
      },
      {
         "a2" : "comp_11",
         "time" : -1,
         "id" : "dep4",
         "a1" : "comp_8"
      },
      {
         "a2" : "comp_11",
         "time" : -1,
         "id" : "dep5",
         "a1" : "comp_9"
      },
      {
         "a2" : "comp_11",
         "time" : -1,
         "id" : "dep6",
         "a1" : "comp_10"
      },
      {
         "a2" : "download_24",
         "time" : 97.5840000901298,
         "id" : "dep7",
         "a1" : "r2_c2"
      },
      {
         "a2" : "download_23",
         "time" : 98.4690000768701,
         "id" : "dep8",
         "a1" : "r2_c2"
      },
      {
         "a2" : "download_22",
         "time" : 97.90300019085,
         "id" : "dep9",
         "a1" : "r2_c2"
      },
      {
         "a2" : "download_21",
         "time" : 97.3140001297002,
         "id" : "dep10",
         "a1" : "r2_c2"
      },
      {
         "a2" : "download_20",
         "time" : 97.0460001844899,
         "id" : "dep11",
         "a1" : "r2_c2"
      },
      {
         "a2" : "download_19",
         "time" : 96.7930001206701,
         "id" : "dep12",
         "a1" : "r2_c2"
      },
      {
         "a2" : "download_18",
         "time" : 50.0760001596,
         "id" : "dep13",
         "a1" : "r2_c2"
      },
      {
         "a2" : "download_17",
         "time" : 96.5480001177598,
         "id" : "dep14",
         "a1" : "r2_c2"
      },
      {
         "a2" : "download_16",
         "time" : 95.97500017844,
         "id" : "dep15",
         "a1" : "r2_c2"
      },
      {
         "a2" : "download_15",
         "time" : 96.27100010402,
         "id" : "dep16",
         "a1" : "r2_c2"
      },
      {
         "a2" : "download_14",
         "time" : 42.0510000549198,
         "id" : "dep17",
         "a1" : "r2_c2"
      },
      {
         "a2" : "download_13",
         "time" : 39.56599999219,
         "id" : "dep18",
         "a1" : "r2_c2"
      },
      {
         "a2" : "download_10",
         "time" : -1,
         "id" : "dep19",
         "a1" : "r2_c1"
      },
      {
         "a2" : "download_10",
         "time" : 37.321000127121,
         "id" : "dep20",
         "a1" : "r2_c1"
      },
      {
         "a2" : "download_9",
         "time" : 3.07300011627296,
         "id" : "dep21",
         "a1" : "r2_c1"
      },
      {
         "a2" : "download_8",
         "time" : 2.92300013825297,
         "id" : "dep22",
         "a1" : "r2_c1"
      },
      {
         "a2" : "download_7",
         "time" : 2.76400009170106,
         "id" : "dep23",
         "a1" : "r2_c1"
      },
      {
         "a2" : "download_6",
         "time" : 2.59199994616199,
         "id" : "dep24",
         "a1" : "r2_c1"
      },
      {
         "a2" : "download_5",
         "time" : 37.157000042498,
         "id" : "dep25",
         "a1" : "r2_c1"
      },
      {
         "a2" : "download_5",
         "time" : 37.157000042498,
         "id" : "dep26",
         "a1" : "r2_c1"
      },
      {
         "a2" : "download_4",
         "time" : 36.988999927416,
         "id" : "dep27",
         "a1" : "r2_c1"
      },
      {
         "a2" : "download_4",
         "time" : 36.988999927416,
         "id" : "dep28",
         "a1" : "r2_c1"
      },
      {
         "a2" : "download_3",
         "time" : 36.816000007093,
         "id" : "dep29",
         "a1" : "r2_c1"
      },
      {
         "a2" : "download_3",
         "time" : 36.816000007093,
         "id" : "dep30",
         "a1" : "r2_c1"
      },
      {
         "a2" : "download_2",
         "time" : 3.24400002136804,
         "id" : "dep31",
         "a1" : "r2_c1"
      },
      {
         "a2" : "download_1",
         "time" : 2.40300013683702,
         "id" : "dep32",
         "a1" : "r2_c1"
      }
   ]
}
