{
   "n_download_no_trigger" : 1,
   "start_activity" : "download_0",
   "name" : "original.testbed.localhost_www.liveeyewear.com_",
   "load_activity" : -1,
   "objs" : [
      {
         "when_comp_start" : 1,
         "url" : "http://original.testbed.localhost/www.liveeyewear.com/",
         "id" : "r1",
         "comps" : [
            {
               "s_time" : 174.747999990359,
               "time" : 2.28899996727699,
               "id" : "r1_c1",
               "type" : "evalhtml",
               "e_time" : 177.036999957636
            },
            {
               "s_time" : 257.55099998787,
               "time" : -1082404738.403,
               "id" : "r1_c2",
               "type" : "evalhtml",
               "e_time" : -1082404480.852
            },
            {
               "s_time" : 263.032000046223,
               "time" : -1082404743.884,
               "id" : "r1_c3",
               "type" : "evalhtml",
               "e_time" : -1082404480.852
            },
            {
               "s_time" : 264.216999989003,
               "time" : -1082404745.069,
               "id" : "r1_c4",
               "type" : "evalhtml",
               "e_time" : -1082404480.852
            },
            {
               "s_time" : 265.497999964282,
               "time" : -1082404746.35,
               "id" : "r1_c5",
               "type" : "evalhtml",
               "e_time" : -1082404480.852
            },
            {
               "s_time" : 288.04500005208,
               "time" : 5.52199990488498,
               "id" : "r1_c6",
               "type" : "evalhtml",
               "e_time" : 293.566999956965
            },
            {
               "s_time" : 293.689999962226,
               "time" : 380.209000082686,
               "type" : "evalhtml",
               "id" : "r1_c7",
               "e_time" : 673.899000044912
            }
         ],
         "download" : {
            "receiveFirst" : 51,
            "len" : 6816,
            "dns" : 0,
            "dnsEnd" : -1,
            "receiveHeadersEnd" : 51,
            "sslEnd" : -1,
            "connectEnd" : 0,
            "connectStart" : 0,
            "id" : "download_0",
            "receivedTime" : "158.380000153556",
            "sslStart" : -1,
            "dnsStart" : -1,
            "receiveLast" : 107.380000153556,
            "s_time" : 0,
            "sendEnd" : 0,
            "sendStart" : 0,
            "type" : "text/html"
         }
      },
      {
         "when_comp_start" : -1,
         "url" : "http://original.testbed.localhost/www.liveeyewear.com/css/style.css",
         "id" : "r3",
         "comps" : [
            {
               "s_time" : 233.159000054002,
               "time" : 0.0169998966159994,
               "type" : 4,
               "id" : "comp_2",
               "e_time" : 233.175999950618
            }
         ],
         "download" : {
            "receiveFirst" : 51,
            "len" : 3208,
            "dns" : 0,
            "dnsEnd" : -1,
            "receiveHeadersEnd" : 56,
            "sslEnd" : -1,
            "connectEnd" : 5,
            "connectStart" : 0,
            "id" : "download_1",
            "receivedTime" : "233.04900014773",
            "sslStart" : -1,
            "dnsStart" : -1,
            "receiveLast" : 177.04900014773,
            "s_time" : 175.915000028908,
            "sendEnd" : 5,
            "sendStart" : 5,
            "type" : "text/css"
         }
      },
      {
         "when_comp_start" : -1,
         "url" : "http://original.testbed.localhost/www.liveeyewear.com/js/functions.js",
         "id" : "r4",
         "comps" : [
            {
               "s_time" : 258.615999948233,
               "time" : 4.41600009798998,
               "type" : 1,
               "id" : "comp_4",
               "e_time" : 263.032000046223
            }
         ],
         "download" : {
            "receiveFirst" : 53,
            "len" : 2492,
            "dns" : 0,
            "dnsEnd" : -1,
            "receiveHeadersEnd" : 57,
            "sslEnd" : -1,
            "connectEnd" : 4,
            "connectStart" : 0,
            "id" : "download_2",
            "receivedTime" : "234.068999998271",
            "sslStart" : -1,
            "dnsStart" : -1,
            "receiveLast" : 177.068999998271,
            "s_time" : 176.097000017762,
            "sendEnd" : 4,
            "sendStart" : 4,
            "type" : "application/javascript"
         }
      },
      {
         "when_comp_start" : -1,
         "url" : "http://original.testbed.localhost/fast.fonts.com/jsapi/a1ae08c2-5050-41d0-b924-08e4f8aafb4d.js",
         "id" : "r2",
         "comps" : [
            {
               "s_time" : 244.193000020459,
               "time" : 13.357999967411,
               "type" : 1,
               "id" : "comp_3",
               "e_time" : 257.55099998787
            }
         ],
         "download" : {
            "receiveFirst" : 53,
            "len" : 19075,
            "dns" : 0,
            "dnsEnd" : -1,
            "receiveHeadersEnd" : 58,
            "sslEnd" : -1,
            "connectEnd" : 5,
            "connectStart" : 0,
            "id" : "download_3",
            "receivedTime" : "244.049000088125",
            "sslStart" : -1,
            "dnsStart" : -1,
            "receiveLast" : 186.049000088125,
            "s_time" : 175.686000147834,
            "sendEnd" : 5,
            "sendStart" : 5,
            "type" : "application/javascript"
         }
      },
      {
         "when_comp_start" : -1,
         "url" : "http://original.testbed.localhost/www.liveeyewear.com/js/dw_event.js",
         "id" : "r5",
         "comps" : [
            {
               "s_time" : 263.753999955952,
               "time" : 0.463000033051003,
               "type" : 1,
               "id" : "comp_9",
               "e_time" : 264.216999989003
            }
         ],
         "download" : {
            "receiveFirst" : 65,
            "len" : 1372,
            "dns" : 0,
            "dnsEnd" : -1,
            "receiveHeadersEnd" : 69,
            "sslEnd" : -1,
            "connectEnd" : 4,
            "connectStart" : 0,
            "id" : "download_4",
            "receivedTime" : "263.649000087753",
            "sslStart" : -1,
            "dnsStart" : -1,
            "receiveLast" : 194.649000087753,
            "s_time" : 176.294000120834,
            "sendEnd" : 4,
            "sendStart" : 4,
            "type" : "application/javascript"
         }
      },
      {
         "when_comp_start" : -1,
         "url" : "http://original.testbed.localhost/www.liveeyewear.com/js/dw_scroll.js",
         "id" : "r6",
         "comps" : [
            {
               "s_time" : 264.696000143886,
               "time" : 0.801999820395963,
               "type" : 1,
               "id" : "comp_11",
               "e_time" : 265.497999964282
            }
         ],
         "download" : {
            "receiveFirst" : 66,
            "len" : 9328,
            "dns" : 0,
            "dnsEnd" : -1,
            "receiveHeadersEnd" : 70,
            "sslEnd" : -1,
            "connectEnd" : 4,
            "connectStart" : 0,
            "id" : "download_5",
            "receivedTime" : "264.573000138626",
            "sslStart" : -1,
            "dnsStart" : -1,
            "receiveLast" : 194.573000138626,
            "s_time" : 176.488999975845,
            "sendEnd" : 4,
            "sendStart" : 4,
            "type" : "application/javascript"
         }
      },
      {
         "when_comp_start" : -1,
         "url" : "http://original.testbed.localhost/www.liveeyewear.com/js/dw_scrollbar.js",
         "id" : "r7",
         "comps" : [
            {
               "s_time" : 287.047000136226,
               "time" : 0.997999915853995,
               "type" : 1,
               "id" : "comp_14",
               "e_time" : 288.04500005208
            }
         ],
         "download" : {
            "receiveFirst" : 51,
            "len" : 13385,
            "dns" : 0,
            "dnsEnd" : -1,
            "receiveHeadersEnd" : 107,
            "sslEnd" : -1,
            "connectEnd" : 56,
            "connectStart" : 0,
            "id" : "download_6",
            "receivedTime" : "286.929999943823",
            "sslStart" : -1,
            "dnsStart" : -1,
            "receiveLast" : 179.929999943823,
            "s_time" : 176.672999979928,
            "sendEnd" : 56,
            "sendStart" : 56,
            "type" : "application/javascript"
         }
      },
      {
         "when_comp_start" : -1,
         "url" : "http://original.testbed.localhost/www.liveeyewear.com/js/scroll_controls.js",
         "id" : "r8",
         "comps" : [
            {
               "s_time" : 292.939000064507,
               "time" : 0.750999897718998,
               "type" : 1,
               "id" : "comp_16",
               "e_time" : 293.689999962226
            }
         ],
         "download" : {
            "receiveFirst" : 53,
            "len" : 11233,
            "dns" : 0,
            "dnsEnd" : -1,
            "receiveHeadersEnd" : 110,
            "sslEnd" : -1,
            "connectEnd" : 57,
            "connectStart" : 0,
            "id" : "download_7",
            "receivedTime" : "292.826000135392",
            "sslStart" : -1,
            "dnsStart" : -1,
            "receiveLast" : 182.826000135392,
            "s_time" : 176.863000029698,
            "sendEnd" : 57,
            "sendStart" : 57,
            "type" : "application/javascript"
         }
      },
      {
         "when_comp_start" : -1,
         "url" : "http://original.testbed.localhost/www.liveeyewear.com/images/live_eyewear_logo.png",
         "id" : "r9",
         "comps" : [],
         "download" : {
            "receiveFirst" : 53,
            "len" : 9176,
            "dns" : 0,
            "dnsEnd" : -1,
            "receiveHeadersEnd" : 119,
            "sslEnd" : -1,
            "connectEnd" : 66,
            "connectStart" : 0,
            "id" : "download_8",
            "receivedTime" : "313.196999952197",
            "sslStart" : -1,
            "dnsStart" : -1,
            "receiveLast" : 194.196999952197,
            "s_time" : 177.036999957636,
            "sendEnd" : 66,
            "sendStart" : 66,
            "type" : "image/png"
         }
      },
      {
         "when_comp_start" : 1,
         "url" : "http://original.testbed.localhost/images/menu_home_on.gif",
         "id" : "r32",
         "comps" : [],
         "download" : {
            "receiveFirst" : 51,
            "len" : 313,
            "dns" : 0,
            "dnsEnd" : -1,
            "receiveHeadersEnd" : 54,
            "sslEnd" : -1,
            "connectEnd" : 3,
            "connectStart" : 0,
            "id" : "download_9",
            "receivedTime" : "349.254000000656",
            "sslStart" : -1,
            "dnsStart" : -1,
            "receiveLast" : 295.254000000656,
            "s_time" : 293.035000097007,
            "sendEnd" : 3,
            "sendStart" : 3,
            "type" : "text/html"
         }
      },
      {
         "when_comp_start" : 1,
         "url" : "http://original.testbed.localhost/images/menu_contact_us_on.gif",
         "id" : "r34",
         "comps" : [],
         "download" : {
            "receiveFirst" : 51,
            "len" : 319,
            "dns" : 0,
            "dnsEnd" : -1,
            "receiveHeadersEnd" : 54,
            "sslEnd" : -1,
            "connectEnd" : 3,
            "connectStart" : 0,
            "id" : "download_10",
            "receivedTime" : "349.600000074133",
            "sslStart" : -1,
            "dnsStart" : -1,
            "receiveLast" : 295.600000074133,
            "s_time" : 293.411999940872,
            "sendEnd" : 3,
            "sendStart" : 3,
            "type" : "text/html"
         }
      },
      {
         "when_comp_start" : 1,
         "url" : "http://original.testbed.localhost/images/menu_home_off.gif",
         "id" : "r33",
         "comps" : [],
         "download" : {
            "receiveFirst" : 52,
            "len" : 314,
            "dns" : 0,
            "dnsEnd" : -1,
            "receiveHeadersEnd" : 55,
            "sslEnd" : -1,
            "connectEnd" : 3,
            "connectStart" : 0,
            "id" : "download_11",
            "receivedTime" : "350.159000139683",
            "sslStart" : -1,
            "dnsStart" : -1,
            "receiveLast" : 295.159000139683,
            "s_time" : 293.232999974862,
            "sendEnd" : 3,
            "sendStart" : 3,
            "type" : "text/html"
         }
      },
      {
         "when_comp_start" : 1,
         "url" : "http://original.testbed.localhost/images/menu_contact_us_off.gif",
         "id" : "r35",
         "comps" : [],
         "download" : {
            "receiveFirst" : 51,
            "len" : 320,
            "dns" : 0,
            "dnsEnd" : -1,
            "receiveHeadersEnd" : 65,
            "sslEnd" : -1,
            "connectEnd" : 14,
            "connectStart" : 0,
            "id" : "download_12",
            "receivedTime" : "359.862999990582",
            "sslStart" : -1,
            "dnsStart" : -1,
            "receiveLast" : 294.862999990582,
            "s_time" : 293.566999956965,
            "sendEnd" : 14,
            "sendStart" : 14,
            "type" : "text/html"
         }
      },
      {
         "when_comp_start" : 1,
         "url" : "http://original.testbed.localhost/images/menu_dealer_locator_on.gif",
         "id" : "r36",
         "comps" : [],
         "download" : {
            "receiveFirst" : 51,
            "len" : 323,
            "dns" : 0,
            "dnsEnd" : -1,
            "receiveHeadersEnd" : 108,
            "sslEnd" : -1,
            "connectEnd" : 56,
            "connectStart" : 0,
            "id" : "download_13",
            "receivedTime" : "403.359000105411",
            "sslStart" : -1,
            "dnsStart" : -1,
            "receiveLast" : 295.359000105411,
            "s_time" : 293.735000072047,
            "sendEnd" : 57,
            "sendStart" : 56,
            "type" : "text/html"
         }
      },
      {
         "when_comp_start" : 1,
         "url" : "http://original.testbed.localhost/images/menu_dealer_locator_off.gif",
         "id" : "r37",
         "comps" : [],
         "download" : {
            "receiveFirst" : 52,
            "len" : 324,
            "dns" : 0,
            "dnsEnd" : -1,
            "receiveHeadersEnd" : 108,
            "sslEnd" : -1,
            "connectEnd" : 56,
            "connectStart" : 0,
            "id" : "download_14",
            "receivedTime" : "403.758000116795",
            "sslStart" : -1,
            "dnsStart" : -1,
            "receiveLast" : 295.758000116795,
            "s_time" : 293.918000068516,
            "sendEnd" : 56,
            "sendStart" : 56,
            "type" : "text/html"
         }
      },
      {
         "when_comp_start" : 1,
         "url" : "http://original.testbed.localhost/images/menu_register_warranty_on.gif",
         "id" : "r38",
         "comps" : [],
         "download" : {
            "receiveFirst" : 52,
            "len" : 326,
            "dns" : 0,
            "dnsEnd" : -1,
            "receiveHeadersEnd" : 108,
            "sslEnd" : -1,
            "connectEnd" : 56,
            "connectStart" : 0,
            "id" : "download_15",
            "receivedTime" : "404.292999999598",
            "sslStart" : -1,
            "dnsStart" : -1,
            "receiveLast" : 296.292999999598,
            "s_time" : 294.075000099838,
            "sendEnd" : 56,
            "sendStart" : 56,
            "type" : "text/html"
         }
      },
      {
         "when_comp_start" : 1,
         "url" : "http://original.testbed.localhost/images/menu_register_warranty_off.gif",
         "id" : "r39",
         "comps" : [],
         "download" : {
            "receiveFirst" : 50,
            "len" : 327,
            "dns" : 0,
            "dnsEnd" : -1,
            "receiveHeadersEnd" : 116,
            "sslEnd" : -1,
            "connectEnd" : 66,
            "connectStart" : 0,
            "id" : "download_16",
            "receivedTime" : "411.768000107259",
            "sslStart" : -1,
            "dnsStart" : -1,
            "receiveLast" : 295.768000107259,
            "s_time" : 294.26799993962,
            "sendEnd" : 66,
            "sendStart" : 66,
            "type" : "text/html"
         }
      },
      {
         "when_comp_start" : -1,
         "url" : "http://original.testbed.localhost/www.liveeyewear.com/images/background.gif",
         "id" : "r31",
         "comps" : [],
         "download" : {
            "receiveFirst" : 144,
            "len" : 1870,
            "dns" : 0,
            "dnsEnd" : -1,
            "receiveHeadersEnd" : 147,
            "sslEnd" : -1,
            "connectEnd" : 3,
            "connectStart" : 0,
            "id" : "download_17",
            "receivedTime" : "441.002000123262",
            "sslStart" : -1,
            "dnsStart" : -1,
            "receiveLast" : 294.002000123262,
            "s_time" : 292.4790000543,
            "sendEnd" : 3,
            "sendStart" : 3,
            "type" : "image/gif"
         }
      },
      {
         "when_comp_start" : 1,
         "url" : "http://original.testbed.localhost/images/menu_opportunities_on.gif",
         "id" : "r40",
         "comps" : [],
         "download" : {
            "receiveFirst" : 52,
            "len" : 322,
            "dns" : 0,
            "dnsEnd" : -1,
            "receiveHeadersEnd" : 148,
            "sslEnd" : -1,
            "connectEnd" : 96,
            "connectStart" : 0,
            "id" : "download_18",
            "receivedTime" : "457.310999976471",
            "sslStart" : -1,
            "dnsStart" : -1,
            "receiveLast" : 309.310999976471,
            "s_time" : 307.997999945655,
            "sendEnd" : 96,
            "sendStart" : 96,
            "type" : "text/html"
         }
      },
      {
         "when_comp_start" : 1,
         "url" : "http://original.testbed.localhost/images/menu_opportunities_off.gif",
         "id" : "r41",
         "comps" : [],
         "download" : {
            "receiveFirst" : 52,
            "len" : 323,
            "dns" : 0,
            "dnsEnd" : -1,
            "receiveHeadersEnd" : 107,
            "sslEnd" : -1,
            "connectEnd" : 55,
            "connectStart" : 0,
            "id" : "download_19",
            "receivedTime" : "457.902000052854",
            "sslStart" : -1,
            "dnsStart" : -1,
            "receiveLast" : 350.902000052854,
            "s_time" : 349.015000043437,
            "sendEnd" : 55,
            "sendStart" : 55,
            "type" : "text/html"
         }
      },
      {
         "when_comp_start" : 1,
         "url" : "http://original.testbed.localhost/images/menu_employment_on.gif",
         "id" : "r42",
         "comps" : [],
         "download" : {
            "receiveFirst" : 52,
            "len" : 319,
            "dns" : 0,
            "dnsEnd" : -1,
            "receiveHeadersEnd" : 107,
            "sslEnd" : -1,
            "connectEnd" : 55,
            "connectStart" : 0,
            "id" : "download_20",
            "receivedTime" : "458.587000146508",
            "sslStart" : -1,
            "dnsStart" : -1,
            "receiveLast" : 351.587000146508,
            "s_time" : 349.618999985978,
            "sendEnd" : 55,
            "sendStart" : 55,
            "type" : "text/html"
         }
      },
      {
         "when_comp_start" : 1,
         "url" : "http://original.testbed.localhost/images/menu_employment_off.gif",
         "id" : "r43",
         "comps" : [],
         "download" : {
            "receiveFirst" : 50,
            "len" : 320,
            "dns" : 0,
            "dnsEnd" : -1,
            "receiveHeadersEnd" : 112,
            "sslEnd" : -1,
            "connectEnd" : 62,
            "connectStart" : 0,
            "id" : "download_21",
            "receivedTime" : "463.419000152498",
            "sslStart" : -1,
            "dnsStart" : -1,
            "receiveLast" : 351.419000152498,
            "s_time" : 350.180000066757,
            "sendEnd" : 62,
            "sendStart" : 62,
            "type" : "text/html"
         }
      },
      {
         "when_comp_start" : 1,
         "url" : "http://original.testbed.localhost/images/menu_dealer_login_on.gif",
         "id" : "r44",
         "comps" : [],
         "download" : {
            "receiveFirst" : 51,
            "len" : 321,
            "dns" : 0,
            "dnsEnd" : -1,
            "receiveHeadersEnd" : 132,
            "sslEnd" : -1,
            "connectEnd" : 81,
            "connectStart" : 0,
            "id" : "download_22",
            "receivedTime" : "492.89400014095",
            "sslStart" : -1,
            "dnsStart" : -1,
            "receiveLast" : 360.89400014095,
            "s_time" : 359.89600000903,
            "sendEnd" : 81,
            "sendStart" : 81,
            "type" : "text/html"
         }
      },
      {
         "when_comp_start" : 1,
         "url" : "http://original.testbed.localhost/images/menu_dealer_login_off.gif",
         "id" : "r45",
         "comps" : [],
         "download" : {
            "receiveFirst" : 51,
            "len" : 322,
            "dns" : 0,
            "dnsEnd" : -1,
            "receiveHeadersEnd" : 106,
            "sslEnd" : -1,
            "connectEnd" : 55,
            "connectStart" : 0,
            "id" : "download_23",
            "receivedTime" : "510.660000145435",
            "sslStart" : -1,
            "dnsStart" : -1,
            "receiveLast" : 404.660000145435,
            "s_time" : 403.339999960735,
            "sendEnd" : 55,
            "sendStart" : 55,
            "type" : "text/html"
         }
      },
      {
         "when_comp_start" : 1,
         "url" : "http://original.testbed.localhost/images/menu_legal_on.gif",
         "id" : "r46",
         "comps" : [],
         "download" : {
            "receiveFirst" : 51,
            "len" : 314,
            "dns" : 0,
            "dnsEnd" : -1,
            "receiveHeadersEnd" : 106,
            "sslEnd" : -1,
            "connectEnd" : 55,
            "connectStart" : 0,
            "id" : "download_24",
            "receivedTime" : "511.220999993384",
            "sslStart" : -1,
            "dnsStart" : -1,
            "receiveLast" : 405.220999993384,
            "s_time" : 403.811000054702,
            "sendEnd" : 55,
            "sendStart" : 55,
            "type" : "text/html"
         }
      },
      {
         "when_comp_start" : 1,
         "url" : "http://original.testbed.localhost/images/menu_legal_off.gif",
         "id" : "r47",
         "comps" : [],
         "download" : {
            "receiveFirst" : 52,
            "len" : 315,
            "dns" : 0,
            "dnsEnd" : -1,
            "receiveHeadersEnd" : 107,
            "sslEnd" : -1,
            "connectEnd" : 55,
            "connectStart" : 0,
            "id" : "download_25",
            "receivedTime" : "512.485000072047",
            "sslStart" : -1,
            "dnsStart" : -1,
            "receiveLast" : 405.485000072047,
            "s_time" : 404.33600009419,
            "sendEnd" : 55,
            "sendStart" : 55,
            "type" : "text/html"
         }
      },
      {
         "when_comp_start" : -1,
         "url" : "http://original.testbed.localhost/www.liveeyewear.com/images/menu_home_on.gif",
         "id" : "r10",
         "comps" : [],
         "download" : {
            "receiveFirst" : 50,
            "len" : 206,
            "dns" : 0,
            "dnsEnd" : -1,
            "receiveHeadersEnd" : 102,
            "sslEnd" : -1,
            "connectEnd" : 52,
            "connectStart" : 0,
            "id" : "download_26",
            "receivedTime" : "514.853999949992",
            "sslStart" : -1,
            "dnsStart" : -1,
            "receiveLast" : 412.853999949992,
            "s_time" : 410.994000034407,
            "sendEnd" : 52,
            "sendStart" : 52,
            "type" : "image/gif"
         }
      },
      {
         "when_comp_start" : -1,
         "url" : "http://original.testbed.localhost/www.liveeyewear.com/images/menu_contact_us_off.gif",
         "id" : "r11",
         "comps" : [],
         "download" : {
            "receiveFirst" : 50,
            "len" : 290,
            "dns" : 0,
            "dnsEnd" : -1,
            "receiveHeadersEnd" : 102,
            "sslEnd" : -1,
            "connectEnd" : 52,
            "connectStart" : 0,
            "id" : "download_27",
            "receivedTime" : "544.345000060275",
            "sslStart" : -1,
            "dnsStart" : -1,
            "receiveLast" : 442.345000060275,
            "s_time" : 440.301000140607,
            "sendEnd" : 52,
            "sendStart" : 52,
            "type" : "image/gif"
         }
      },
      {
         "when_comp_start" : -1,
         "url" : "http://original.testbed.localhost/www.liveeyewear.com/images/menu_dealer_locator_off.gif",
         "id" : "r12",
         "comps" : [],
         "download" : {
            "receiveFirst" : 51,
            "len" : 344,
            "dns" : 0,
            "dnsEnd" : -1,
            "receiveHeadersEnd" : 105,
            "sslEnd" : -1,
            "connectEnd" : 54,
            "connectStart" : 0,
            "id" : "download_28",
            "receivedTime" : "563.218000112101",
            "sslStart" : -1,
            "dnsStart" : -1,
            "receiveLast" : 458.218000112101,
            "s_time" : 456.627000123262,
            "sendEnd" : 54,
            "sendStart" : 54,
            "type" : "image/gif"
         }
      },
      {
         "when_comp_start" : -1,
         "url" : "http://original.testbed.localhost/www.liveeyewear.com/images/menu_register_warranty_off.gif",
         "id" : "r13",
         "comps" : [],
         "download" : {
            "receiveFirst" : 50,
            "len" : 636,
            "dns" : 0,
            "dnsEnd" : -1,
            "receiveHeadersEnd" : 104,
            "sslEnd" : -1,
            "connectEnd" : 54,
            "connectStart" : 0,
            "id" : "download_29",
            "receivedTime" : "563.698000041768",
            "sslStart" : -1,
            "dnsStart" : -1,
            "receiveLast" : 459.698000041768,
            "s_time" : 457.173000089824,
            "sendEnd" : 54,
            "sendStart" : 54,
            "type" : "image/gif"
         }
      },
      {
         "when_comp_start" : -1,
         "url" : "http://original.testbed.localhost/www.liveeyewear.com/images/menu_opportunities_off.gif",
         "id" : "r14",
         "comps" : [],
         "download" : {
            "receiveFirst" : 52,
            "len" : 307,
            "dns" : 0,
            "dnsEnd" : -1,
            "receiveHeadersEnd" : 106,
            "sslEnd" : -1,
            "connectEnd" : 54,
            "connectStart" : 0,
            "id" : "download_30",
            "receivedTime" : "565.583999967203",
            "sslStart" : -1,
            "dnsStart" : -1,
            "receiveLast" : 459.583999967203,
            "s_time" : 457.721000071615,
            "sendEnd" : 54,
            "sendStart" : 54,
            "type" : "image/gif"
         }
      },
      {
         "when_comp_start" : -1,
         "url" : "http://original.testbed.localhost/www.liveeyewear.com/images/menu_employment_off.gif",
         "id" : "r15",
         "comps" : [],
         "download" : {
            "receiveFirst" : 51,
            "len" : 303,
            "dns" : 0,
            "dnsEnd" : -1,
            "receiveHeadersEnd" : 103,
            "sslEnd" : -1,
            "connectEnd" : 52,
            "connectStart" : 0,
            "id" : "download_31",
            "receivedTime" : "567.077999934554",
            "sslStart" : -1,
            "dnsStart" : -1,
            "receiveLast" : 464.077999934554,
            "s_time" : 462.66600000672,
            "sendEnd" : 52,
            "sendStart" : 52,
            "type" : "image/gif"
         }
      },
      {
         "when_comp_start" : -1,
         "url" : "http://original.testbed.localhost/www.liveeyewear.com/images/menu_dealer_login_off.gif",
         "id" : "r16",
         "comps" : [],
         "download" : {
            "receiveFirst" : 51,
            "len" : 299,
            "dns" : 0,
            "dnsEnd" : -1,
            "receiveHeadersEnd" : 102,
            "sslEnd" : -1,
            "connectEnd" : 51,
            "connectStart" : 0,
            "id" : "download_32",
            "receivedTime" : "595.65500007011",
            "sslStart" : -1,
            "dnsStart" : -1,
            "receiveLast" : 493.65500007011,
            "s_time" : 492.207000032067,
            "sendEnd" : 51,
            "sendStart" : 51,
            "type" : "image/gif"
         }
      },
      {
         "when_comp_start" : -1,
         "url" : "http://original.testbed.localhost/www.liveeyewear.com/images/menu_legal_off.gif",
         "id" : "r17",
         "comps" : [],
         "download" : {
            "receiveFirst" : 51,
            "len" : 186,
            "dns" : 0,
            "dnsEnd" : -1,
            "receiveHeadersEnd" : 104,
            "sslEnd" : -1,
            "connectEnd" : 53,
            "connectStart" : 0,
            "id" : "download_33",
            "receivedTime" : "615.599000127986",
            "sslStart" : -1,
            "dnsStart" : -1,
            "receiveLast" : 511.599000127986,
            "s_time" : 509.879000019282,
            "sendEnd" : 53,
            "sendStart" : 53,
            "type" : "image/gif"
         }
      },
      {
         "when_comp_start" : -1,
         "url" : "http://original.testbed.localhost/www.liveeyewear.com/images/btn-up.gif",
         "id" : "r18",
         "comps" : [],
         "download" : {
            "receiveFirst" : 50,
            "len" : 243,
            "dns" : 0,
            "dnsEnd" : -1,
            "receiveHeadersEnd" : 103,
            "sslEnd" : -1,
            "connectEnd" : 53,
            "connectStart" : 0,
            "id" : "download_34",
            "receivedTime" : "616.055000107735",
            "sslStart" : -1,
            "dnsStart" : -1,
            "receiveLast" : 513.055000107735,
            "s_time" : 510.456999996677,
            "sendEnd" : 53,
            "sendStart" : 53,
            "type" : "image/gif"
         }
      },
      {
         "when_comp_start" : -1,
         "url" : "http://original.testbed.localhost/www.liveeyewear.com/images/btn-dn.gif",
         "id" : "r19",
         "comps" : [],
         "download" : {
            "receiveFirst" : 51,
            "len" : 186,
            "dns" : 0,
            "dnsEnd" : -1,
            "receiveHeadersEnd" : 104,
            "sslEnd" : -1,
            "connectEnd" : 53,
            "connectStart" : 0,
            "id" : "download_35",
            "receivedTime" : "617.299000034109",
            "sslStart" : -1,
            "dnsStart" : -1,
            "receiveLast" : 513.299000034109,
            "s_time" : 511.72100007534,
            "sendEnd" : 53,
            "sendStart" : 53,
            "type" : "image/gif"
         }
      },
      {
         "when_comp_start" : -1,
         "url" : "http://original.testbed.localhost/www.liveeyewear.com/images/button_cocoons.jpg",
         "id" : "r20",
         "comps" : [],
         "download" : {
            "receiveFirst" : 51,
            "len" : 35719,
            "dns" : 0,
            "dnsEnd" : -1,
            "receiveHeadersEnd" : 103,
            "sslEnd" : -1,
            "connectEnd" : 52,
            "connectStart" : 0,
            "id" : "download_36",
            "receivedTime" : "762.653999961913",
            "sslStart" : -1,
            "dnsStart" : -1,
            "receiveLast" : 659.653999961913,
            "s_time" : 513.955000089481,
            "sendEnd" : 52,
            "sendStart" : 52,
            "type" : "image/jpeg"
         }
      },
      {
         "when_comp_start" : -1,
         "url" : "http://original.testbed.localhost/www.liveeyewear.com/images/button_vistana.png",
         "id" : "r21",
         "comps" : [],
         "download" : {
            "receiveFirst" : 51,
            "len" : 6325,
            "dns" : 0,
            "dnsEnd" : -1,
            "receiveHeadersEnd" : 102,
            "sslEnd" : -1,
            "connectEnd" : 51,
            "connectStart" : 0,
            "id" : "download_37",
            "receivedTime" : "653.647999977693",
            "sslStart" : -1,
            "dnsStart" : -1,
            "receiveLast" : 551.647999977693,
            "s_time" : 543.58800011687,
            "sendEnd" : 51,
            "sendStart" : 51,
            "type" : "image/png"
         }
      },
      {
         "when_comp_start" : -1,
         "url" : "http://original.testbed.localhost/www.liveeyewear.com/images/button_cocoons_clipons.png",
         "id" : "r22",
         "comps" : [],
         "download" : {
            "receiveFirst" : 51,
            "len" : 5629,
            "dns" : 0,
            "dnsEnd" : -1,
            "receiveHeadersEnd" : 103,
            "sslEnd" : -1,
            "connectEnd" : 52,
            "connectStart" : 0,
            "id" : "download_38",
            "receivedTime" : "673.764999955893",
            "sslStart" : -1,
            "dnsStart" : -1,
            "receiveLast" : 570.764999955893,
            "s_time" : 562.379000009969,
            "sendEnd" : 52,
            "sendStart" : 52,
            "type" : "image/png"
         }
      },
      {
         "when_comp_start" : -1,
         "url" : "http://original.testbed.localhost/www.liveeyewear.com/images/button_cocoons_goggles.png",
         "id" : "r23",
         "comps" : [],
         "download" : {
            "receiveFirst" : 58,
            "len" : 7504,
            "dns" : 0,
            "dnsEnd" : -1,
            "receiveHeadersEnd" : 110,
            "sslEnd" : -1,
            "connectEnd" : 52,
            "connectStart" : 0,
            "id" : "download_39",
            "receivedTime" : "686.329999938607",
            "sslStart" : -1,
            "dnsStart" : -1,
            "receiveLast" : 576.329999938607,
            "s_time" : 563.024000031874,
            "sendEnd" : 52,
            "sendStart" : 52,
            "type" : "image/png"
         }
      },
      {
         "when_comp_start" : -1,
         "url" : "http://original.testbed.localhost/www.liveeyewear.com/images/button_cocoons_sidekick.png",
         "id" : "r24",
         "comps" : [],
         "download" : {
            "receiveFirst" : 74,
            "len" : 7084,
            "dns" : 0,
            "dnsEnd" : -1,
            "receiveHeadersEnd" : 126,
            "sslEnd" : -1,
            "connectEnd" : 52,
            "connectStart" : 0,
            "id" : "download_40",
            "receivedTime" : "704.153000144288",
            "sslStart" : -1,
            "dnsStart" : -1,
            "receiveLast" : 578.153000144288,
            "s_time" : 564.694999950007,
            "sendEnd" : 52,
            "sendStart" : 52,
            "type" : "image/png"
         }
      },
      {
         "when_comp_start" : -1,
         "url" : "http://original.testbed.localhost/www.liveeyewear.com/images/overx_banner.png",
         "id" : "r25",
         "comps" : [],
         "download" : {
            "receiveFirst" : 69,
            "len" : 5553,
            "dns" : 0,
            "dnsEnd" : -1,
            "receiveHeadersEnd" : 156,
            "sslEnd" : -1,
            "connectEnd" : 86,
            "connectStart" : 0,
            "id" : "download_41",
            "receivedTime" : "733.699999982491",
            "sslStart" : -1,
            "dnsStart" : -1,
            "receiveLast" : 577.699999982491,
            "s_time" : 566.224999958649,
            "sendEnd" : 87,
            "sendStart" : 86,
            "type" : "image/png"
         }
      },
      {
         "when_comp_start" : -1,
         "url" : "http://original.testbed.localhost/www.liveeyewear.com/images/best_sunglass.png",
         "id" : "r26",
         "comps" : [],
         "download" : {
            "receiveFirst" : 60,
            "len" : 1956,
            "dns" : 0,
            "dnsEnd" : -1,
            "receiveHeadersEnd" : 138,
            "sslEnd" : -1,
            "connectEnd" : 78,
            "connectStart" : 0,
            "id" : "download_42",
            "receivedTime" : "736.292000161484",
            "sslStart" : -1,
            "dnsStart" : -1,
            "receiveLast" : 598.292000161484,
            "s_time" : 594.740000087768,
            "sendEnd" : 78,
            "sendStart" : 78,
            "type" : "image/png"
         }
      },
      {
         "when_comp_start" : -1,
         "url" : "http://original.testbed.localhost/www.liveeyewear.com/images/copyright.png",
         "id" : "r27",
         "comps" : [],
         "download" : {
            "receiveFirst" : 52,
            "len" : 852,
            "dns" : 0,
            "dnsEnd" : -1,
            "receiveHeadersEnd" : 122,
            "sslEnd" : -1,
            "connectEnd" : 70,
            "connectStart" : 0,
            "id" : "download_43",
            "receivedTime" : "738.150000106543",
            "sslStart" : -1,
            "dnsStart" : -1,
            "receiveLast" : 616.150000106543,
            "s_time" : 614.509999984875,
            "sendEnd" : 70,
            "sendStart" : 70,
            "type" : "image/png"
         }
      },
      {
         "when_comp_start" : -1,
         "url" : "http://original.testbed.localhost/www.liveeyewear.com/images/facebook_icon.png",
         "id" : "r28",
         "comps" : [],
         "download" : {
            "receiveFirst" : 53,
            "len" : 3117,
            "dns" : 0,
            "dnsEnd" : -1,
            "receiveHeadersEnd" : 141,
            "sslEnd" : -1,
            "connectEnd" : 88,
            "connectStart" : 0,
            "id" : "download_44",
            "receivedTime" : "761.777000036091",
            "sslStart" : -1,
            "dnsStart" : -1,
            "receiveLast" : 620.777000036091,
            "s_time" : 614.845999982208,
            "sendEnd" : 88,
            "sendStart" : 88,
            "type" : "image/png"
         }
      },
      {
         "when_comp_start" : -1,
         "url" : "http://original.testbed.localhost/www.liveeyewear.com/images/background.jpg",
         "id" : "r48",
         "comps" : [],
         "download" : {
            "receiveFirst" : 51,
            "len" : 28244,
            "dns" : 0,
            "dnsEnd" : -1,
            "receiveHeadersEnd" : 167,
            "sslEnd" : -1,
            "connectEnd" : 116,
            "connectStart" : 0,
            "id" : "download_45",
            "receivedTime" : "889.791999943554",
            "sslStart" : -1,
            "dnsStart" : -1,
            "receiveLast" : 722.791999943554,
            "s_time" : 617.350999964401,
            "sendEnd" : 116,
            "sendStart" : 116,
            "type" : "image/jpeg"
         }
      },
      {
         "when_comp_start" : -1,
         "url" : "http://original.testbed.localhost/www.liveeyewear.com/images/leftnav_divider.gif",
         "id" : "r49",
         "comps" : [],
         "download" : {
            "receiveFirst" : 65,
            "len" : 516,
            "dns" : 0,
            "dnsEnd" : -1,
            "receiveHeadersEnd" : 147,
            "sslEnd" : -1,
            "connectEnd" : 82,
            "connectStart" : 0,
            "id" : "download_46",
            "receivedTime" : "802.03799996525",
            "sslStart" : -1,
            "dnsStart" : -1,
            "receiveLast" : 655.03799996525,
            "s_time" : 653.678999980912,
            "sendEnd" : 82,
            "sendStart" : 82,
            "type" : "image/gif"
         }
      },
      {
         "when_comp_start" : -1,
         "url" : "http://original.testbed.localhost/www.liveeyewear.com/images/content_bg.png",
         "id" : "r50",
         "comps" : [],
         "download" : {
            "receiveFirst" : 65,
            "len" : 1639,
            "dns" : 0,
            "dnsEnd" : -1,
            "receiveHeadersEnd" : 129,
            "sslEnd" : -1,
            "connectEnd" : 64,
            "connectStart" : 0,
            "id" : "download_47",
            "receivedTime" : "805.349000031129",
            "sslStart" : -1,
            "dnsStart" : -1,
            "receiveLast" : 676.349000031129,
            "s_time" : 673.899000044912,
            "sendEnd" : 64,
            "sendStart" : 64,
            "type" : "image/png"
         }
      }
   ],
   "deps" : [
      {
         "a2" : "r1_c2",
         "time" : -1,
         "id" : "dep1",
         "a1" : "comp_3"
      },
      {
         "a2" : "r1_c3",
         "time" : -1,
         "id" : "dep2",
         "a1" : "comp_4"
      },
      {
         "a2" : "r1_c4",
         "time" : -1,
         "id" : "dep3",
         "a1" : "comp_9"
      },
      {
         "a2" : "r1_c5",
         "time" : -1,
         "id" : "dep4",
         "a1" : "comp_11"
      },
      {
         "a2" : "r1_c6",
         "time" : -1,
         "id" : "dep5",
         "a1" : "comp_14"
      },
      {
         "a2" : "r1_c7",
         "time" : -1,
         "id" : "dep6",
         "a1" : "comp_16"
      },
      {
         "a2" : "comp_4",
         "time" : -1,
         "id" : "dep7",
         "a1" : "comp_3"
      },
      {
         "a2" : "comp_4",
         "time" : -1,
         "id" : "dep8",
         "a1" : "comp_2"
      },
      {
         "a2" : "comp_9",
         "time" : -1,
         "id" : "dep9",
         "a1" : "comp_4"
      },
      {
         "a2" : "comp_11",
         "time" : -1,
         "id" : "dep10",
         "a1" : "comp_9"
      },
      {
         "a2" : "comp_14",
         "time" : -1,
         "id" : "dep11",
         "a1" : "comp_11"
      },
      {
         "a2" : "comp_16",
         "time" : -1,
         "id" : "dep12",
         "a1" : "comp_14"
      },
      {
         "a2" : "download_47",
         "time" : -1,
         "id" : "dep13",
         "a1" : "r1_c7"
      },
      {
         "a2" : "download_46",
         "time" : 359.989000018686,
         "id" : "dep14",
         "a1" : "r1_c7"
      },
      {
         "a2" : "download_45",
         "time" : 323.661000002175,
         "id" : "dep15",
         "a1" : "r1_c7"
      },
      {
         "a2" : "download_44",
         "time" : 321.156000019982,
         "id" : "dep16",
         "a1" : "r1_c7"
      },
      {
         "a2" : "download_43",
         "time" : 320.820000022649,
         "id" : "dep17",
         "a1" : "r1_c7"
      },
      {
         "a2" : "download_42",
         "time" : 301.050000125542,
         "id" : "dep18",
         "a1" : "r1_c7"
      },
      {
         "a2" : "download_41",
         "time" : 272.534999996423,
         "id" : "dep19",
         "a1" : "r1_c7"
      },
      {
         "a2" : "download_40",
         "time" : 271.004999987781,
         "id" : "dep20",
         "a1" : "r1_c7"
      },
      {
         "a2" : "download_39",
         "time" : 269.334000069648,
         "id" : "dep21",
         "a1" : "r1_c7"
      },
      {
         "a2" : "download_38",
         "time" : 268.689000047743,
         "id" : "dep22",
         "a1" : "r1_c7"
      },
      {
         "a2" : "download_37",
         "time" : 249.898000154644,
         "id" : "dep23",
         "a1" : "r1_c7"
      },
      {
         "a2" : "download_36",
         "time" : 220.265000127255,
         "id" : "dep24",
         "a1" : "r1_c7"
      },
      {
         "a2" : "download_35",
         "time" : 218.031000113114,
         "id" : "dep25",
         "a1" : "r1_c7"
      },
      {
         "a2" : "download_34",
         "time" : 216.767000034451,
         "id" : "dep26",
         "a1" : "r1_c7"
      },
      {
         "a2" : "download_33",
         "time" : 216.189000057056,
         "id" : "dep27",
         "a1" : "r1_c7"
      },
      {
         "a2" : "download_32",
         "time" : 198.517000069841,
         "id" : "dep28",
         "a1" : "r1_c7"
      },
      {
         "a2" : "download_31",
         "time" : 168.976000044494,
         "id" : "dep29",
         "a1" : "r1_c7"
      },
      {
         "a2" : "download_30",
         "time" : 164.031000109389,
         "id" : "dep30",
         "a1" : "r1_c7"
      },
      {
         "a2" : "download_29",
         "time" : 163.483000127598,
         "id" : "dep31",
         "a1" : "r1_c7"
      },
      {
         "a2" : "download_28",
         "time" : 162.937000161036,
         "id" : "dep32",
         "a1" : "r1_c7"
      },
      {
         "a2" : "download_27",
         "time" : 146.611000178381,
         "id" : "dep33",
         "a1" : "r1_c7"
      },
      {
         "a2" : "download_26",
         "time" : 117.304000072181,
         "id" : "dep34",
         "a1" : "r1_c7"
      },
      {
         "a2" : "download_25",
         "time" : 110.646000131964,
         "id" : "dep35",
         "a1" : "r1_c7"
      },
      {
         "a2" : "download_24",
         "time" : 110.121000092476,
         "id" : "dep36",
         "a1" : "r1_c7"
      },
      {
         "a2" : "download_23",
         "time" : 109.649999998509,
         "id" : "dep37",
         "a1" : "r1_c7"
      },
      {
         "a2" : "download_22",
         "time" : 66.206000046804,
         "id" : "dep38",
         "a1" : "r1_c7"
      },
      {
         "a2" : "download_21",
         "time" : 56.490000104531,
         "id" : "dep39",
         "a1" : "r1_c7"
      },
      {
         "a2" : "download_20",
         "time" : 55.929000023752,
         "id" : "dep40",
         "a1" : "r1_c7"
      },
      {
         "a2" : "download_19",
         "time" : 55.325000081211,
         "id" : "dep41",
         "a1" : "r1_c7"
      },
      {
         "a2" : "download_18",
         "time" : 14.307999983429,
         "id" : "dep42",
         "a1" : "r1_c7"
      },
      {
         "a2" : "download_17",
         "time" : -1,
         "id" : "dep43",
         "a1" : "r1_c6"
      },
      {
         "a2" : "download_16",
         "time" : 0.577999977393972,
         "id" : "dep44",
         "a1" : "r1_c7"
      },
      {
         "a2" : "download_15",
         "time" : 0.385000137611996,
         "id" : "dep45",
         "a1" : "r1_c7"
      },
      {
         "a2" : "download_14",
         "time" : 0.228000106289983,
         "id" : "dep46",
         "a1" : "r1_c7"
      },
      {
         "a2" : "download_13",
         "time" : 0.0450001098209896,
         "id" : "dep47",
         "a1" : "r1_c7"
      },
      {
         "a2" : "download_12",
         "time" : -1,
         "id" : "dep48",
         "a1" : "r1_c6"
      },
      {
         "a2" : "download_11",
         "time" : 5.18799992278201,
         "id" : "dep49",
         "a1" : "r1_c6"
      },
      {
         "a2" : "download_10",
         "time" : 5.36699988879201,
         "id" : "dep50",
         "a1" : "r1_c6"
      },
      {
         "a2" : "download_9",
         "time" : 4.990000044927,
         "id" : "dep51",
         "a1" : "r1_c6"
      },
      {
         "a2" : "download_8",
         "time" : -1,
         "id" : "dep52",
         "a1" : "r1_c1"
      },
      {
         "a2" : "download_8",
         "time" : 2.28899996727699,
         "id" : "dep53",
         "a1" : "r1_c1"
      },
      {
         "a2" : "download_7",
         "time" : 2.11500003933898,
         "id" : "dep54",
         "a1" : "r1_c1"
      },
      {
         "a2" : "download_7",
         "time" : 2.11500003933898,
         "id" : "dep55",
         "a1" : "r1_c1"
      },
      {
         "a2" : "download_6",
         "time" : 1.92499998956899,
         "id" : "dep56",
         "a1" : "r1_c1"
      },
      {
         "a2" : "download_6",
         "time" : 1.92499998956899,
         "id" : "dep57",
         "a1" : "r1_c1"
      },
      {
         "a2" : "download_5",
         "time" : 1.74099998548598,
         "id" : "dep58",
         "a1" : "r1_c1"
      },
      {
         "a2" : "download_5",
         "time" : 1.74099998548598,
         "id" : "dep59",
         "a1" : "r1_c1"
      },
      {
         "a2" : "download_4",
         "time" : 1.54600013047499,
         "id" : "dep60",
         "a1" : "r1_c1"
      },
      {
         "a2" : "download_4",
         "time" : 1.54600013047499,
         "id" : "dep61",
         "a1" : "r1_c1"
      },
      {
         "a2" : "download_3",
         "time" : 0.938000157474988,
         "id" : "dep62",
         "a1" : "r1_c1"
      },
      {
         "a2" : "download_2",
         "time" : 1.34900002740301,
         "id" : "dep63",
         "a1" : "r1_c1"
      },
      {
         "a2" : "download_2",
         "time" : 1.34900002740301,
         "id" : "dep64",
         "a1" : "r1_c1"
      },
      {
         "a2" : "download_1",
         "time" : 1.16700003854899,
         "id" : "dep65",
         "a1" : "r1_c1"
      },
      {
         "a2" : "download_1",
         "time" : 1.16700003854899,
         "id" : "dep66",
         "a1" : "r1_c1"
      }
   ]
}
