{
   "n_download_no_trigger" : 1,
   "start_activity" : "download_0",
   "name" : "original.testbed.localhost_www.caratipsmengobati.com_",
   "load_activity" : -1,
   "objs" : [
      {
         "when_comp_start" : 1,
         "url" : "http://original.testbed.localhost/www.caratipsmengobati.com/",
         "id" : "r1",
         "comps" : [
            {
               "s_time" : 99.5739998761564,
               "time" : 11.4870001561936,
               "id" : "r1_c1",
               "type" : "evalhtml",
               "e_time" : 111.06100003235
            },
            {
               "s_time" : 325.200999854133,
               "time" : 23.24300003238,
               "id" : "r1_c2",
               "type" : "evalhtml",
               "e_time" : 348.443999886513
            },
            {
               "s_time" : 349.747000029311,
               "time" : 320.427999831736,
               "id" : "r1_c3",
               "type" : "evalhtml",
               "e_time" : 670.174999861047
            },
            {
               "s_time" : 745.363999856636,
               "time" : -1159973432.135,
               "id" : "r1_c4",
               "type" : "evalhtml",
               "e_time" : -1159972686.771
            },
            {
               "s_time" : 811.733999988064,
               "time" : -1159973498.505,
               "id" : "r1_c5",
               "type" : "evalhtml",
               "e_time" : -1159972686.771
            },
            {
               "s_time" : 817.64500006102,
               "time" : -1159973504.416,
               "id" : "r1_c6",
               "type" : "evalhtml",
               "e_time" : -1159972686.771
            },
            {
               "s_time" : 932.071999879554,
               "time" : 25.3779999911779,
               "id" : "r1_c7",
               "type" : "evalhtml",
               "e_time" : 957.449999870732
            },
            {
               "s_time" : 961.129999952391,
               "time" : 1212.97900006175,
               "type" : "evalhtml",
               "id" : "r1_c8",
               "e_time" : 2174.10900001414
            }
         ],
         "download" : {
            "receiveFirst" : 24,
            "len" : 107139,
            "dns" : 0,
            "dnsEnd" : -1,
            "receiveHeadersEnd" : 24,
            "sslEnd" : -1,
            "connectEnd" : 0,
            "connectStart" : 0,
            "id" : "download_0",
            "receivedTime" : "99.2389998864383",
            "sslStart" : -1,
            "dnsStart" : -1,
            "receiveLast" : 75.2389998864383,
            "s_time" : 0,
            "sendEnd" : 0,
            "sendStart" : 0,
            "type" : "text/html"
         }
      },
      {
         "when_comp_start" : -1,
         "url" : "http://original.testbed.localhost/fonts.googleapis.com/css%3Ffamily=Fjalla+One.css",
         "id" : "r2",
         "comps" : [
            {
               "s_time" : 156.203999882564,
               "time" : 0.0920000020410043,
               "type" : 4,
               "id" : "comp_4",
               "e_time" : 156.295999884605
            }
         ],
         "download" : {
            "receiveFirst" : 21,
            "len" : 251,
            "dns" : 0,
            "dnsEnd" : -1,
            "receiveHeadersEnd" : 48,
            "sslEnd" : -1,
            "connectEnd" : 27,
            "connectStart" : 0,
            "id" : "download_1",
            "receivedTime" : "156.045000068843",
            "sslStart" : -1,
            "dnsStart" : -1,
            "receiveLast" : 108.045000068843,
            "s_time" : 105.733999982476,
            "sendEnd" : 27,
            "sendStart" : 27,
            "type" : "text/css"
         }
      },
      {
         "when_comp_start" : -1,
         "url" : "http://original.testbed.localhost/www.blogger.com/dyn-css/authorization.css%3FtargetBlogID=5068910889355324641&zx=f29d5f0b-f4a3-475a-b4da-9ce0a489ea0b.css",
         "id" : "r5",
         "comps" : [
            {
               "s_time" : 156.824999954551,
               "time" : 0.0209999270740013,
               "type" : 4,
               "id" : "comp_5",
               "e_time" : 156.845999881625
            }
         ],
         "download" : {
            "receiveFirst" : 22,
            "len" : 1,
            "dns" : 0,
            "dnsEnd" : -1,
            "receiveHeadersEnd" : 48,
            "sslEnd" : -1,
            "connectEnd" : 26,
            "connectStart" : 0,
            "id" : "download_2",
            "receivedTime" : "156.680000014603",
            "sslStart" : -1,
            "dnsStart" : -1,
            "receiveLast" : 108.680000014603,
            "s_time" : 106.558999978006,
            "sendEnd" : 26,
            "sendStart" : 26,
            "type" : "text/css"
         }
      },
      {
         "when_comp_start" : -1,
         "url" : "http://original.testbed.localhost/www.blogger.com/static/v1/widgets/2088795018-css_bundle_v2.css",
         "id" : "r4",
         "comps" : [
            {
               "s_time" : 189.626999897882,
               "time" : 3.47100012004401,
               "type" : 4,
               "id" : "comp_6",
               "e_time" : 193.098000017926
            }
         ],
         "download" : {
            "receiveFirst" : 23,
            "len" : 43003,
            "dns" : 0,
            "dnsEnd" : -1,
            "receiveHeadersEnd" : 49,
            "sslEnd" : -1,
            "connectEnd" : 26,
            "connectStart" : 0,
            "id" : "download_3",
            "receivedTime" : "189.577999990433",
            "sslStart" : -1,
            "dnsStart" : -1,
            "receiveLast" : 140.577999990433,
            "s_time" : 106.291000032797,
            "sendEnd" : 26,
            "sendStart" : 26,
            "type" : "text/css"
         }
      },
      {
         "when_comp_start" : -1,
         "url" : "http://original.testbed.localhost/maxcdn.bootstrapcdn.com/font-awesome/4.2.0/css/font-awesome.min.css",
         "id" : "r3",
         "comps" : [
            {
               "s_time" : 195.415999973193,
               "time" : 15.183999901637,
               "type" : 4,
               "id" : "comp_7",
               "e_time" : 210.59999987483
            }
         ],
         "download" : {
            "receiveFirst" : 24,
            "len" : 21958,
            "dns" : 0,
            "dnsEnd" : -1,
            "receiveHeadersEnd" : 51,
            "sslEnd" : -1,
            "connectEnd" : 27,
            "connectStart" : 0,
            "id" : "download_4",
            "receivedTime" : "195.285999914631",
            "sslStart" : -1,
            "dnsStart" : -1,
            "receiveLast" : 144.285999914631,
            "s_time" : 106.031999923289,
            "sendEnd" : 27,
            "sendStart" : 27,
            "type" : "text/css"
         }
      },
      {
         "when_comp_start" : -1,
         "url" : "http://original.testbed.localhost/apis.google.com/js/plusone.js",
         "id" : "r7",
         "comps" : [
            {
               "s_time" : 330.942000029609,
               "time" : 18.804999999702,
               "type" : 1,
               "id" : "comp_18",
               "e_time" : 349.747000029311
            },
            {
               "s_time" : 932.203999953344,
               "time" : 28.925999999047,
               "type" : 1,
               "id" : "comp_57",
               "e_time" : 961.129999952391
            }
         ],
         "download" : {
            "receiveFirst" : 22,
            "len" : 37486,
            "dns" : 0,
            "dnsEnd" : 21,
            "receiveHeadersEnd" : 65,
            "sslEnd" : -1,
            "connectEnd" : 43,
            "connectStart" : 0,
            "id" : "download_5",
            "receivedTime" : "214.018000056967",
            "sslStart" : -1,
            "dnsStart" : 21,
            "receiveLast" : 149.018000056967,
            "s_time" : 111.06100003235,
            "sendEnd" : 43,
            "sendStart" : 43,
            "type" : "application/javascript"
         }
      },
      {
         "when_comp_start" : -1,
         "url" : "http://original.testbed.localhost/ajax.googleapis.com/ajax/libs/jquery/1/jquery.min.js",
         "id" : "r6",
         "comps" : [
            {
               "s_time" : 246.31299986504,
               "time" : 78.887999989093,
               "type" : 1,
               "id" : "comp_11",
               "e_time" : 325.200999854133
            }
         ],
         "download" : {
            "receiveFirst" : 27,
            "len" : 95786,
            "dns" : 1,
            "dnsEnd" : 22,
            "receiveHeadersEnd" : 70,
            "sslEnd" : -1,
            "connectEnd" : 43,
            "connectStart" : 0,
            "id" : "download_6",
            "receivedTime" : "246.241000015289",
            "sslStart" : -1,
            "dnsStart" : 21,
            "receiveLast" : 176.241000015289,
            "s_time" : 110.798999899998,
            "sendEnd" : 43,
            "sendStart" : 43,
            "type" : "application/javascript"
         }
      },
      {
         "when_comp_start" : -1,
         "url" : "http://original.testbed.localhost/2.bp.blogspot.com/-yNE4A_H3C2o/U1E6RPYNEpI/AAAAAAAADRQ/UOP1mUKaxGE/s1600/line.png",
         "id" : "r18",
         "comps" : [],
         "download" : {
            "receiveFirst" : 20,
            "len" : 686,
            "dns" : 0,
            "dnsEnd" : -1,
            "receiveHeadersEnd" : 20,
            "sslEnd" : -1,
            "connectEnd" : 0,
            "connectStart" : 0,
            "id" : "download_7",
            "receivedTime" : "478.829999919981",
            "sslStart" : -1,
            "dnsStart" : -1,
            "receiveLast" : 458.829999919981,
            "s_time" : 360.044999979436,
            "sendEnd" : 0,
            "sendStart" : 0,
            "type" : "image/png"
         }
      },
      {
         "when_comp_start" : -1,
         "url" : "http://original.testbed.localhost/3.bp.blogspot.com/-ltyYh4ysBHI/U04MKlHc6pI/AAAAAAAADQo/PFxXaGZu9PQ/w200-h140-c/no-image.png",
         "id" : "r19",
         "comps" : [],
         "download" : {
            "receiveFirst" : 20,
            "len" : 4083,
            "dns" : 0,
            "dnsEnd" : -1,
            "receiveHeadersEnd" : 20,
            "sslEnd" : -1,
            "connectEnd" : 0,
            "connectStart" : 0,
            "id" : "download_8",
            "receivedTime" : "480.107999872416",
            "sslStart" : -1,
            "dnsStart" : -1,
            "receiveLast" : 460.107999872416,
            "s_time" : 360.948999878019,
            "sendEnd" : 0,
            "sendStart" : 0,
            "type" : "image/png"
         }
      },
      {
         "when_comp_start" : -1,
         "url" : "http://pagead2.googlesyndication.com/pagead/js/google_top_exp.js",
         "id" : "r15",
         "comps" : [
            {
               "s_time" : 659.665999934077,
               "time" : 11.0790000762789,
               "type" : 2,
               "id" : "comp_35",
               "e_time" : 670.745000010356
            }
         ],
         "download" : {
            "receiveFirst" : 24,
            "len" : 6488,
            "dns" : 24,
            "dnsEnd" : 24,
            "receiveHeadersEnd" : 71,
            "sslEnd" : -1,
            "connectEnd" : 47,
            "connectStart" : 0,
            "id" : "download_9",
            "receivedTime" : "591.829000040889",
            "sslStart" : -1,
            "dnsStart" : 0,
            "receiveLast" : 520.829000040889,
            "s_time" : 351.941999979317,
            "sendEnd" : 47,
            "sendStart" : 47,
            "type" : "text/javascript"
         }
      },
      {
         "when_comp_start" : -1,
         "url" : "https://apis.google.com/_/scs/apps-static/_/js/k=oz.gapi.en_US.4mujONxqe1o.O/m=plusone/rt=j/sv=1/d=1/ed=1/am=QQ/rs=AGLTcCOlad9tcDLraaG_KxaQaUQeJtPZMg/t=zcms/cb=gapi.loaded_0",
         "id" : "r13",
         "comps" : [
            {
               "s_time" : 995.15699991025,
               "time" : 36.5339999552801,
               "type" : 2,
               "id" : "comp_77",
               "e_time" : 1031.69099986553
            }
         ],
         "download" : {
            "receiveFirst" : 36,
            "len" : 115561,
            "dns" : 22,
            "dnsEnd" : 24,
            "receiveHeadersEnd" : 145,
            "sslEnd" : 92,
            "connectEnd" : 92,
            "connectStart" : 0,
            "id" : "download_10",
            "receivedTime" : "700.120999943465",
            "sslStart" : 47,
            "dnsStart" : 2,
            "receiveLast" : 555.120999943465,
            "s_time" : 348.443999886513,
            "sendEnd" : 109,
            "sendStart" : 92,
            "type" : "text/javascript"
         }
      },
      {
         "when_comp_start" : -1,
         "url" : "http://original.testbed.localhost/www.caratipsmengobati.com/feeds/posts/summary%3Falt=json-in-script&callback=pageNavi&max-results=99999",
         "id" : "r25",
         "comps" : [
            {
               "s_time" : 731.30499990657,
               "time" : 14.0589999500661,
               "type" : 1,
               "id" : "comp_40",
               "e_time" : 745.363999856636
            }
         ],
         "download" : {
            "receiveFirst" : 30,
            "len" : 80953,
            "dns" : 0,
            "dnsEnd" : -1,
            "receiveHeadersEnd" : 30,
            "sslEnd" : -1,
            "connectEnd" : 0,
            "connectStart" : 0,
            "id" : "download_11",
            "receivedTime" : "731.040999991819",
            "sslStart" : -1,
            "dnsStart" : -1,
            "receiveLast" : 701.040999991819,
            "s_time" : 465.368999866769,
            "sendEnd" : 0,
            "sendStart" : 0,
            "type" : "text/plain"
         }
      },
      {
         "when_comp_start" : -1,
         "url" : "http://original.testbed.localhost/blogger-json-experiment.googlecode.com/svn/resources/blogger-feed-rotator-plugin/default-style.min.css",
         "id" : "r26",
         "comps" : [
            {
               "s_time" : 690.530000021681,
               "time" : 0.0149998813869843,
               "type" : 4,
               "id" : "comp_39",
               "e_time" : 690.544999903068
            }
         ],
         "download" : {
            "receiveFirst" : 36,
            "len" : 3649,
            "dns" : 0,
            "dnsEnd" : -1,
            "receiveHeadersEnd" : 36,
            "sslEnd" : -1,
            "connectEnd" : 0,
            "connectStart" : 0,
            "id" : "download_12",
            "receivedTime" : "690.222000004724",
            "sslStart" : -1,
            "dnsStart" : -1,
            "receiveLast" : 654.222000004724,
            "s_time" : 466.326999943703,
            "sendEnd" : 0,
            "sendStart" : 0,
            "type" : "text/css"
         }
      },
      {
         "when_comp_start" : -1,
         "url" : "http://original.testbed.localhost/ajax.googleapis.com/ajax/libs/jquery/1.9.1/jquery.min.js",
         "id" : "r27",
         "comps" : [
            {
               "s_time" : 762.553999898955,
               "time" : 49.1800000891091,
               "type" : 1,
               "id" : "comp_43",
               "e_time" : 811.733999988064
            }
         ],
         "download" : {
            "receiveFirst" : 34,
            "len" : 92629,
            "dns" : 0,
            "dnsEnd" : -1,
            "receiveHeadersEnd" : 36,
            "sslEnd" : -1,
            "connectEnd" : 2,
            "connectStart" : 0,
            "id" : "download_13",
            "receivedTime" : "762.28899997659",
            "sslStart" : -1,
            "dnsStart" : -1,
            "receiveLast" : 726.28899997659,
            "s_time" : 467.138000065461,
            "sendEnd" : 2,
            "sendStart" : 2,
            "type" : "application/javascript"
         }
      },
      {
         "when_comp_start" : -1,
         "url" : "http://original.testbed.localhost/blogger-json-experiment.googlecode.com/svn/resources/blogger-feed-rotator-plugin/blogger-feed-rotator.min.js",
         "id" : "r28",
         "comps" : [
            {
               "s_time" : 813.35199996829,
               "time" : 4.29300009273004,
               "type" : 1,
               "id" : "comp_45",
               "e_time" : 817.64500006102
            }
         ],
         "download" : {
            "receiveFirst" : 38,
            "len" : 5808,
            "dns" : 0,
            "dnsEnd" : -1,
            "receiveHeadersEnd" : 38,
            "sslEnd" : -1,
            "connectEnd" : 0,
            "connectStart" : 0,
            "id" : "download_14",
            "receivedTime" : "694.965000031516",
            "sslStart" : -1,
            "dnsStart" : -1,
            "receiveLast" : 656.965000031516,
            "s_time" : 471.411000005901,
            "sendEnd" : 0,
            "sendStart" : 0,
            "type" : "application/javascript"
         }
      },
      {
         "when_comp_start" : -1,
         "url" : "http://original.testbed.localhost/maxcdn.bootstrapcdn.com/font-awesome/4.2.0/fonts/fontawesome-webfont.woff%3Fv=4.2.0",
         "id" : "r9",
         "comps" : [],
         "download" : {
            "receiveFirst" : 39,
            "len" : 65452,
            "dns" : 0,
            "dnsEnd" : -1,
            "receiveHeadersEnd" : 39,
            "sslEnd" : -1,
            "connectEnd" : 0,
            "connectStart" : 0,
            "id" : "download_15",
            "receivedTime" : "886.311999987811",
            "sslStart" : -1,
            "dnsStart" : -1,
            "receiveLast" : 847.311999987811,
            "s_time" : 472.949000075459,
            "sendEnd" : 0,
            "sendStart" : 0,
            "type" : "application/octet-stream"
         }
      },
      {
         "when_comp_start" : -1,
         "url" : "http://original.testbed.localhost/fonts.gstatic.com/s/fjallaone/v4/rxxXUYj4oZ6Q5oDJFtEd6i3USBnSvpkopQaUR-2r7iU.ttf",
         "id" : "r8",
         "comps" : [],
         "download" : {
            "receiveFirst" : 42,
            "len" : 29956,
            "dns" : 0,
            "dnsEnd" : -1,
            "receiveHeadersEnd" : 42,
            "sslEnd" : -1,
            "connectEnd" : 0,
            "connectStart" : 0,
            "id" : "download_16",
            "receivedTime" : "729.741999879479",
            "sslStart" : -1,
            "dnsStart" : -1,
            "receiveLast" : 687.741999879479,
            "s_time" : 473.684999858961,
            "sendEnd" : 0,
            "sendStart" : 0,
            "type" : "application/octet-stream"
         }
      },
      {
         "when_comp_start" : -1,
         "url" : "https://apis.google.com/_/scs/apps-static/_/js/k=oz.gapi.en_US.4mujONxqe1o.O/m=gapi_iframes,gapi_iframes_style_bubble/exm=plusone/rt=j/sv=1/d=1/ed=1/am=QQ/rs=AGLTcCOlad9tcDLraaG_KxaQaUQeJtPZMg/t=zcms/cb=gapi.loaded_1",
         "id" : "r14",
         "comps" : [
            {
               "s_time" : 1031.72199986875,
               "time" : 31.67900000699,
               "type" : 2,
               "id" : "comp_79",
               "e_time" : 1063.40099987574
            }
         ],
         "download" : {
            "receiveFirst" : 68,
            "len" : 54409,
            "dns" : 0,
            "dnsEnd" : -1,
            "receiveHeadersEnd" : 175,
            "sslEnd" : -1,
            "connectEnd" : 90,
            "connectStart" : 0,
            "id" : "download_17",
            "receivedTime" : "703.591000055894",
            "sslStart" : -1,
            "dnsStart" : -1,
            "receiveLast" : 528.591000055894,
            "s_time" : 351.05499997735,
            "sendEnd" : 107,
            "sendStart" : 90,
            "type" : "text/javascript"
         }
      },
      {
         "when_comp_start" : -1,
         "url" : "http://original.testbed.localhost/www.blogger.com/static/v1/widgets/71600398-widgets.js",
         "id" : "r38",
         "comps" : [
            {
               "s_time" : 906.367999967188,
               "time" : 25.703999912366,
               "type" : 1,
               "id" : "comp_55",
               "e_time" : 932.071999879554
            }
         ],
         "download" : {
            "receiveFirst" : 37,
            "len" : 93343,
            "dns" : 0,
            "dnsEnd" : -1,
            "receiveHeadersEnd" : 61,
            "sslEnd" : -1,
            "connectEnd" : 24,
            "connectStart" : 0,
            "id" : "download_18",
            "receivedTime" : "906.074000056833",
            "sslStart" : -1,
            "dnsStart" : -1,
            "receiveLast" : 845.074000056833,
            "s_time" : 479.008999885991,
            "sendEnd" : 24,
            "sendStart" : 24,
            "type" : "application/javascript"
         }
      },
      {
         "when_comp_start" : -1,
         "url" : "http://original.testbed.localhost/img1.blogblog.com/img/icon18_wrench_allbkg.png",
         "id" : "r29",
         "comps" : [],
         "download" : {
            "receiveFirst" : 53,
            "len" : 475,
            "dns" : 0,
            "dnsEnd" : -1,
            "receiveHeadersEnd" : 91,
            "sslEnd" : -1,
            "connectEnd" : 38,
            "connectStart" : 0,
            "id" : "download_19",
            "receivedTime" : "725.56299995631",
            "sslStart" : -1,
            "dnsStart" : -1,
            "receiveLast" : 634.56299995631,
            "s_time" : 474.50999985449,
            "sendEnd" : 38,
            "sendStart" : 38,
            "type" : "image/png"
         }
      },
      {
         "when_comp_start" : -1,
         "url" : "https://connect.facebook.net/en_US/sdk.js#xfbml=1&version=v2.0",
         "id" : "r12",
         "comps" : [],
         "download" : {
            "receiveFirst" : 54,
            "len" : 167988,
            "dns" : 24,
            "dnsEnd" : 24,
            "receiveHeadersEnd" : 203,
            "sslEnd" : 148,
            "connectEnd" : 149,
            "connectStart" : 0,
            "id" : "download_20",
            "receivedTime" : "961.779000004753",
            "sslStart" : 48,
            "dnsStart" : 0,
            "receiveLast" : 758.779000004753,
            "s_time" : 376.538000069559,
            "sendEnd" : 149,
            "sendStart" : 149,
            "type" : "application/x-javascript"
         }
      },
      {
         "when_comp_start" : 1,
         "url" : "http://www.caratipsmengobati.com/http://1.bp.blogspot.com/-5uIm8lpRzWA/VaKUE6kmrrI/AAAAAAAAIDc/vSn4yN6EqR8/w200-h150-c/gigi%2Bberlobang.png",
         "id" : "r16",
         "comps" : [],
         "download" : {
            "receiveFirst" : 186,
            "len" : 85822,
            "dns" : 24,
            "dnsEnd" : 24,
            "receiveHeadersEnd" : 247,
            "sslEnd" : -1,
            "connectEnd" : 61,
            "connectStart" : 0,
            "id" : "download_21",
            "receivedTime" : "977.454999927431",
            "sslStart" : -1,
            "dnsStart" : 0,
            "receiveLast" : 730.454999927431,
            "s_time" : 353.70899992995,
            "sendEnd" : 61,
            "sendStart" : 61,
            "type" : "text/html"
         }
      },
      {
         "when_comp_start" : -1,
         "url" : "http://original.testbed.localhost/4.bp.blogspot.com/-y5EMZ2KecX8/VW_kL-LHhlI/AAAAAAAAGaI/vQTLp5MxItg/s72-c/bab.png",
         "id" : "r30",
         "comps" : [],
         "download" : {
            "receiveFirst" : 44,
            "len" : 10590,
            "dns" : 0,
            "dnsEnd" : -1,
            "receiveHeadersEnd" : 134,
            "sslEnd" : -1,
            "connectEnd" : 90,
            "connectStart" : 0,
            "id" : "download_22",
            "receivedTime" : "895.083999959752",
            "sslStart" : -1,
            "dnsStart" : -1,
            "receiveLast" : 761.083999959752,
            "s_time" : 475.716999964789,
            "sendEnd" : 90,
            "sendStart" : 90,
            "type" : "image/png"
         }
      },
      {
         "when_comp_start" : -1,
         "url" : "http://original.testbed.localhost/1.bp.blogspot.com/-6d3gp63b6vo/VWc3UZ6ZcaI/AAAAAAAAGDs/IKkNNn463ic/s72-c/luka+bakar.png",
         "id" : "r31",
         "comps" : [],
         "download" : {
            "receiveFirst" : 42,
            "len" : 8928,
            "dns" : 0,
            "dnsEnd" : -1,
            "receiveHeadersEnd" : 137,
            "sslEnd" : -1,
            "connectEnd" : 95,
            "connectStart" : 0,
            "id" : "download_23",
            "receivedTime" : "896.563000045717",
            "sslStart" : -1,
            "dnsStart" : -1,
            "receiveLast" : 759.563000045717,
            "s_time" : 477.011000039056,
            "sendEnd" : 95,
            "sendStart" : 95,
            "type" : "image/png"
         }
      },
      {
         "when_comp_start" : -1,
         "url" : "http://original.testbed.localhost/4.bp.blogspot.com/-S2tNlVf6ZIw/VZf0O2d6KcI/AAAAAAAAHvY/QZt8yyXblls/s72-c/hercules.png",
         "id" : "r32",
         "comps" : [],
         "download" : {
            "receiveFirst" : 42,
            "len" : 9766,
            "dns" : 0,
            "dnsEnd" : -1,
            "receiveHeadersEnd" : 50,
            "sslEnd" : -1,
            "connectEnd" : 8,
            "connectStart" : 0,
            "id" : "download_24",
            "receivedTime" : "898.057000013068",
            "sslStart" : -1,
            "dnsStart" : -1,
            "receiveLast" : 848.057000013068,
            "s_time" : 566.039999946952,
            "sendEnd" : 8,
            "sendStart" : 8,
            "type" : "image/png"
         }
      },
      {
         "when_comp_start" : 1,
         "url" : "http://www.caratipsmengobati.com/http://1.bp.blogspot.com/-WAE3F7wM8F8/VZwEGMFKHEI/AAAAAAAAH3A/9A9sR0OtfjQ/w200-h150-c/kudis.png",
         "id" : "r20",
         "comps" : [],
         "download" : {
            "receiveFirst" : 204,
            "len" : 85778,
            "dns" : 9,
            "dnsEnd" : 9,
            "receiveHeadersEnd" : 251,
            "sslEnd" : -1,
            "connectEnd" : 47,
            "connectStart" : 0,
            "id" : "download_25",
            "receivedTime" : "991.971999872476",
            "sslStart" : -1,
            "dnsStart" : 0,
            "receiveLast" : 740.971999872476,
            "s_time" : 368.275000015274,
            "sendEnd" : 47,
            "sendStart" : 47,
            "type" : "text/html"
         }
      },
      {
         "when_comp_start" : 1,
         "url" : "http://www.caratipsmengobati.com/http://3.bp.blogspot.com/-cdhixEpGamU/VZarS3ITgpI/AAAAAAAAHtk/K9t43HfNBNU/w200-h150-c/kilau.png",
         "id" : "r23",
         "comps" : [],
         "download" : {
            "receiveFirst" : 208,
            "len" : 85778,
            "dns" : 3,
            "dnsEnd" : 3,
            "receiveHeadersEnd" : 250,
            "sslEnd" : -1,
            "connectEnd" : 42,
            "connectStart" : 0,
            "id" : "download_26",
            "receivedTime" : "994.520999956876",
            "sslStart" : -1,
            "dnsStart" : 0,
            "receiveLast" : 744.520999956876,
            "s_time" : 374.698000028729,
            "sendEnd" : 42,
            "sendStart" : 42,
            "type" : "text/html"
         }
      },
      {
         "when_comp_start" : 1,
         "url" : "http://www.caratipsmengobati.com/http://2.bp.blogspot.com/-tDvxiJ31pFo/VZ58lsUDMLI/AAAAAAAAH7w/JDYFsxbpEew/w200-h150-c/jrk.png",
         "id" : "r17",
         "comps" : [],
         "download" : {
            "receiveFirst" : 223,
            "len" : 85770,
            "dns" : 7,
            "dnsEnd" : 23,
            "receiveHeadersEnd" : 283,
            "sslEnd" : -1,
            "connectEnd" : 60,
            "connectStart" : 0,
            "id" : "download_27",
            "receivedTime" : "1133.3029998932",
            "sslStart" : -1,
            "dnsStart" : 16,
            "receiveLast" : 850.302999893203,
            "s_time" : 354.87399995327,
            "sendEnd" : 60,
            "sendStart" : 60,
            "type" : "text/html"
         }
      },
      {
         "when_comp_start" : 1,
         "url" : "http://www.caratipsmengobati.com/http://3.bp.blogspot.com/-86d7ifePaCE/VZldWnZasoI/AAAAAAAAHyw/3p-bF5eC484/w200-h150-c/letih.png",
         "id" : "r21",
         "comps" : [],
         "download" : {
            "receiveFirst" : 226,
            "len" : 85778,
            "dns" : 7,
            "dnsEnd" : 7,
            "receiveHeadersEnd" : 270,
            "sslEnd" : -1,
            "connectEnd" : 44,
            "connectStart" : 0,
            "id" : "download_28",
            "receivedTime" : "1136.14499988034",
            "sslStart" : -1,
            "dnsStart" : 0,
            "receiveLast" : 866.144999880344,
            "s_time" : 370.332000078633,
            "sendEnd" : 44,
            "sendStart" : 44,
            "type" : "text/html"
         }
      },
      {
         "when_comp_start" : 1,
         "url" : "http://www.caratipsmengobati.com/http://4.bp.blogspot.com/-S2tNlVf6ZIw/VZf0O2d6KcI/AAAAAAAAHvY/QZt8yyXblls/w200-h150-c/hercules.png",
         "id" : "r22",
         "comps" : [],
         "download" : {
            "receiveFirst" : 229,
            "len" : 85790,
            "dns" : 4,
            "dnsEnd" : 4,
            "receiveHeadersEnd" : 272,
            "sslEnd" : -1,
            "connectEnd" : 43,
            "connectStart" : 0,
            "id" : "download_29",
            "receivedTime" : "1136.70399994589",
            "sslStart" : -1,
            "dnsStart" : 0,
            "receiveLast" : 864.703999945894,
            "s_time" : 372.758999932557,
            "sendEnd" : 43,
            "sendStart" : 43,
            "type" : "text/html"
         }
      },
      {
         "when_comp_start" : -1,
         "url" : "http://original.testbed.localhost/1.bp.blogspot.com/-WAE3F7wM8F8/VZwEGMFKHEI/AAAAAAAAH3A/9A9sR0OtfjQ/s72-c/kudis.png",
         "id" : "r33",
         "comps" : [],
         "download" : {
            "receiveFirst" : 33,
            "len" : 8376,
            "dns" : 0,
            "dnsEnd" : -1,
            "receiveHeadersEnd" : 33,
            "sslEnd" : -1,
            "connectEnd" : 0,
            "connectStart" : 0,
            "id" : "download_30",
            "receivedTime" : "974.326999858022",
            "sslStart" : -1,
            "dnsStart" : -1,
            "receiveLast" : 941.326999858022,
            "s_time" : 613.496999954805,
            "sendEnd" : 0,
            "sendStart" : 0,
            "type" : "image/png"
         }
      },
      {
         "when_comp_start" : -1,
         "url" : "http://original.testbed.localhost/4.bp.blogspot.com/-XxrraWFS4Uc/VWf0GNZP-4I/AAAAAAAAGEw/f-dMwFZZBQ4/s72-c/sakit+kepala.png",
         "id" : "r34",
         "comps" : [],
         "download" : {
            "receiveFirst" : 34,
            "len" : 10353,
            "dns" : 0,
            "dnsEnd" : -1,
            "receiveHeadersEnd" : 34,
            "sslEnd" : -1,
            "connectEnd" : 0,
            "connectStart" : 0,
            "id" : "download_31",
            "receivedTime" : "976.234999950975",
            "sslStart" : -1,
            "dnsStart" : -1,
            "receiveLast" : 942.234999950975,
            "s_time" : 616.322000045329,
            "sendEnd" : 0,
            "sendStart" : 0,
            "type" : "image/png"
         }
      },
      {
         "when_comp_start" : -1,
         "url" : "http://original.testbed.localhost/3.bp.blogspot.com/-001RjxRaYxw/VWnCdkpOpMI/AAAAAAAAGLE/roG_noWvKuY/s72-c/gigi.png",
         "id" : "r35",
         "comps" : [],
         "download" : {
            "receiveFirst" : 36,
            "len" : 9451,
            "dns" : 0,
            "dnsEnd" : -1,
            "receiveHeadersEnd" : 37,
            "sslEnd" : -1,
            "connectEnd" : 1,
            "connectStart" : 0,
            "id" : "download_32",
            "receivedTime" : "989.716999931261",
            "sslStart" : -1,
            "dnsStart" : -1,
            "receiveLast" : 952.716999931261,
            "s_time" : 619.166000047699,
            "sendEnd" : 1,
            "sendStart" : 1,
            "type" : "image/png"
         }
      },
      {
         "when_comp_start" : -1,
         "url" : "http://original.testbed.localhost/2.bp.blogspot.com/-wowNqIQNutQ/VZUKx0tZ3_I/AAAAAAAAHqk/sutkVGfN1dk/s72-c/buah.png",
         "id" : "r36",
         "comps" : [],
         "download" : {
            "receiveFirst" : 21,
            "len" : 13850,
            "dns" : 0,
            "dnsEnd" : -1,
            "receiveHeadersEnd" : 21,
            "sslEnd" : -1,
            "connectEnd" : 0,
            "connectStart" : 0,
            "id" : "download_33",
            "receivedTime" : "1130.45499986038",
            "sslStart" : -1,
            "dnsStart" : -1,
            "receiveLast" : 1109.45499986038,
            "s_time" : 649.802000029013,
            "sendEnd" : 0,
            "sendStart" : 0,
            "type" : "image/png"
         }
      },
      {
         "when_comp_start" : -1,
         "url" : "http://original.testbed.localhost/images.dmca.com/Badges/dmca_protected_sml_120g.png%3FID=c1028f00-ec30-4a6c-9dea-73d1dc15903f",
         "id" : "r37",
         "comps" : [],
         "download" : {
            "receiveFirst" : 24,
            "len" : 2324,
            "dns" : 0,
            "dnsEnd" : -1,
            "receiveHeadersEnd" : 24,
            "sslEnd" : -1,
            "connectEnd" : 0,
            "connectStart" : 0,
            "id" : "download_34",
            "receivedTime" : "1134.62499994785",
            "sslStart" : -1,
            "dnsStart" : -1,
            "receiveLast" : 1110.62499994785,
            "s_time" : 653.83299998939,
            "sendEnd" : 0,
            "sendStart" : 0,
            "type" : "image/png"
         }
      },
      {
         "when_comp_start" : 1,
         "url" : "http://googleads.g.doubleclick.net/pagead/blank.html",
         "id" : "r39",
         "comps" : [
            {
               "s_time" : 1349.78200006299,
               "time" : 0.195999862620056,
               "type" : "evalhtml",
               "id" : "r39_c1",
               "e_time" : 1349.97799992561
            }
         ],
         "download" : {
            "receiveFirst" : 24,
            "len" : 66,
            "dns" : 23,
            "dnsEnd" : 23,
            "receiveHeadersEnd" : 71,
            "sslEnd" : -1,
            "connectEnd" : 47,
            "connectStart" : 0,
            "id" : "download_35",
            "receivedTime" : "1138.71999992989",
            "sslStart" : -1,
            "dnsStart" : 0,
            "receiveLast" : 1067.71999992989,
            "s_time" : 670.174999861047,
            "sendEnd" : 47,
            "sendStart" : 47,
            "type" : "text/html"
         }
      },
      {
         "when_comp_start" : 1,
         "url" : "http://www.caratipsmengobati.com/http://4.bp.blogspot.com/-9O_aYr9s41k/VZVeua72FDI/AAAAAAAAHrs/xS05eDyqi84/w200-h150-c/tebal.png",
         "id" : "r24",
         "comps" : [],
         "download" : {
            "receiveFirst" : 196,
            "len" : 85778,
            "dns" : 0,
            "dnsEnd" : -1,
            "receiveHeadersEnd" : 474,
            "sslEnd" : -1,
            "connectEnd" : 278,
            "connectStart" : 0,
            "id" : "download_36",
            "receivedTime" : "1267.70399999805",
            "sslStart" : -1,
            "dnsStart" : -1,
            "receiveLast" : 793.703999998048,
            "s_time" : 378.489000024274,
            "sendEnd" : 278,
            "sendStart" : 278,
            "type" : "text/html"
         }
      },
      {
         "when_comp_start" : -1,
         "url" : "https://apis.google.com/_/scs/apps-static/_/js/k=oz.gapi.en_US.4mujONxqe1o.O/m=profile/exm=gapi_iframes,gapi_iframes_style_bubble,plusone/rt=j/sv=1/d=1/ed=1/am=QQ/rs=AGLTcCOlad9tcDLraaG_KxaQaUQeJtPZMg/t=zcms/cb=gapi.loaded_2",
         "id" : "r41",
         "comps" : [
            {
               "s_time" : 1389.93599987589,
               "time" : 50.4310000687799,
               "type" : null,
               "id" : "comp_123",
               "e_time" : 1440.36699994467
            }
         ],
         "download" : {
            "receiveFirst" : 24,
            "len" : 20156,
            "dns" : 0,
            "dnsEnd" : -1,
            "receiveHeadersEnd" : 24,
            "sslEnd" : -1,
            "connectEnd" : 0,
            "connectStart" : 0,
            "id" : "download_37",
            "receivedTime" : "1273.94800004549",
            "sslStart" : -1,
            "dnsStart" : -1,
            "receiveLast" : 1249.94800004549,
            "s_time" : 957.449999870732,
            "sendEnd" : 0,
            "sendStart" : 0,
            "type" : "text/javascript"
         }
      },
      {
         "when_comp_start" : 1,
         "url" : "https://www.blogger.com/navbar.g?targetBlogID=5068910889355324641&blogName=Cara+mengobati+Tips+Mengatasi&publishMode=PUBLISH_MODE_HOSTED&navbarType=LIGHT&layoutType=LAYOUTS&searchRoot=http://www.caratipsmengobati.com/search&blogLocale=en&v=2&homepageUrl=http://www.caratipsmengobati.com/&blogFollowUr",
         "id" : "r42",
         "comps" : [
            {
               "s_time" : 1441.29800004885,
               "time" : 532.06299990415,
               "type" : "evalhtml",
               "id" : "r42_c1",
               "e_time" : 1973.360999953
            }
         ],
         "download" : {
            "receiveFirst" : 60,
            "len" : 6822,
            "dns" : 0,
            "dnsEnd" : 0,
            "receiveHeadersEnd" : 122,
            "sslEnd" : 61,
            "connectEnd" : 62,
            "connectStart" : 0,
            "id" : "download_38",
            "receivedTime" : "1352.98600001261",
            "sslStart" : 23,
            "dnsStart" : 0,
            "receiveLast" : 1230.98600001261,
            "s_time" : 1057.02900001779,
            "sendEnd" : 62,
            "sendStart" : 62,
            "type" : "text/html"
         }
      },
      {
         "when_comp_start" : 1,
         "url" : "http://original.testbed.localhost/ajax.googleapis.com/ajax/libs/jquery/1.9.1/jquery.min.map",
         "id" : "r43",
         "comps" : [],
         "download" : {
            "receiveFirst" : 21,
            "len" : 347,
            "dns" : 0,
            "dnsEnd" : -1,
            "receiveHeadersEnd" : 21,
            "sslEnd" : -1,
            "connectEnd" : 0,
            "connectStart" : 0,
            "id" : "download_39",
            "receivedTime" : "1368.87999996543",
            "sslStart" : -1,
            "dnsStart" : -1,
            "receiveLast" : 1347.87999996543,
            "s_time" : 1268.70599994436,
            "sendEnd" : 0,
            "sendStart" : 0,
            "type" : "text/html"
         }
      },
      {
         "when_comp_start" : -1,
         "url" : "https://apis.google.com/_/scs/apps-static/_/js/k=oz.gapi.en_US.4mujONxqe1o.O/m=gapi_iframes_style_slide_menu/exm=gapi_iframes,gapi_iframes_style_bubble,plusone,profile/rt=j/sv=1/d=1/ed=1/am=QQ/rs=AGLTcCOlad9tcDLraaG_KxaQaUQeJtPZMg/t=zcms/cb=gapi.loaded_3",
         "id" : "r44",
         "comps" : [
            {
               "s_time" : 1512.02999986708,
               "time" : 9.99200018122997,
               "type" : 2,
               "id" : "comp_131",
               "e_time" : 1522.02200004831
            }
         ],
         "download" : {
            "receiveFirst" : 24,
            "len" : 9512,
            "dns" : 0,
            "dnsEnd" : -1,
            "receiveHeadersEnd" : 24,
            "sslEnd" : -1,
            "connectEnd" : 0,
            "connectStart" : 0,
            "id" : "download_40",
            "receivedTime" : "1462.79600006528",
            "sslStart" : -1,
            "dnsStart" : -1,
            "receiveLast" : 1438.79600006528,
            "s_time" : 1410.17000004649,
            "sendEnd" : 0,
            "sendStart" : 0,
            "type" : "text/javascript"
         }
      },
      {
         "when_comp_start" : -1,
         "url" : "http://www.caratipsmengobati.com/feeds/posts/summary/?alt=json-in-script&max-results=5&callback=jQuery191018110973155125976_1436929667469&_=1436929667470",
         "id" : "r40",
         "comps" : [],
         "download" : {
            "receiveFirst" : 94,
            "len" : 13311,
            "dns" : 0,
            "dnsEnd" : -1,
            "receiveHeadersEnd" : 94,
            "sslEnd" : -1,
            "connectEnd" : 0,
            "connectStart" : 0,
            "id" : "download_41",
            "receivedTime" : "1522.5789998658",
            "sslStart" : -1,
            "dnsStart" : -1,
            "receiveLast" : 1428.5789998658,
            "s_time" : 1364.78399997577,
            "sendEnd" : 0,
            "sendStart" : 0,
            "type" : "text/javascript"
         }
      },
      {
         "when_comp_start" : -1,
         "url" : "https://apis.google.com/js/platform:gapi.iframes.style.common.js",
         "id" : "r45",
         "comps" : [
            {
               "s_time" : 1637.51500006765,
               "time" : 58.4909999743102,
               "type" : null,
               "id" : "comp_138",
               "e_time" : 1696.00600004196
            }
         ],
         "download" : {
            "receiveFirst" : 53,
            "len" : 37530,
            "dns" : 0,
            "dnsEnd" : -1,
            "receiveHeadersEnd" : 53,
            "sslEnd" : -1,
            "connectEnd" : 0,
            "connectStart" : 0,
            "id" : "download_42",
            "receivedTime" : "1550.88800005615",
            "sslStart" : -1,
            "dnsStart" : -1,
            "receiveLast" : 1497.88800005615,
            "s_time" : 1455.05700004287,
            "sendEnd" : 0,
            "sendStart" : 0,
            "type" : "application/javascript"
         }
      },
      {
         "when_comp_start" : 1,
         "url" : "http://static.ak.facebook.com/connect/xd_arbiter/xRlIuTsSMoE.js?version=41#channel=f342b961e8&origin=http%3A%2F%2Foriginal.testbed.localhost",
         "id" : "r48",
         "comps" : [
            {
               "s_time" : 1723.5619998537,
               "time" : 44.8700000997601,
               "type" : "evalhtml",
               "id" : "r48_c1",
               "e_time" : 1768.43199995346
            }
         ],
         "download" : {
            "receiveFirst" : 25,
            "len" : 30463,
            "dns" : 23,
            "dnsEnd" : 23,
            "receiveHeadersEnd" : 73,
            "sslEnd" : -1,
            "connectEnd" : 48,
            "connectStart" : 0,
            "id" : "download_43",
            "receivedTime" : "1630.07900002412",
            "sslStart" : -1,
            "dnsStart" : 0,
            "receiveLast" : 1557.07900002412,
            "s_time" : 1464.51599989086,
            "sendEnd" : 48,
            "sendStart" : 48,
            "type" : "text/html"
         }
      },
      {
         "when_comp_start" : -1,
         "url" : "https://img1.blogblog.com/img/navbar/icons_peach.png",
         "id" : "r46",
         "comps" : [],
         "download" : {
            "receiveFirst" : 26,
            "len" : 907,
            "dns" : 20,
            "dnsEnd" : 24,
            "receiveHeadersEnd" : 135,
            "sslEnd" : 91,
            "connectEnd" : 91,
            "connectStart" : 0,
            "id" : "download_44",
            "receivedTime" : "1633.46299994737",
            "sslStart" : 47,
            "dnsStart" : 4,
            "receiveLast" : 1498.46299994737,
            "s_time" : 1457.01899984851,
            "sendEnd" : 109,
            "sendStart" : 91,
            "type" : "image/png"
         }
      },
      {
         "when_comp_start" : -1,
         "url" : "https://img1.blogblog.com/img/navbar/arrows-light.png",
         "id" : "r47",
         "comps" : [],
         "download" : {
            "receiveFirst" : 26,
            "len" : 117,
            "dns" : 0,
            "dnsEnd" : -1,
            "receiveHeadersEnd" : 131,
            "sslEnd" : -1,
            "connectEnd" : 87,
            "connectStart" : 0,
            "id" : "download_45",
            "receivedTime" : "1634.07799997367",
            "sslStart" : -1,
            "dnsStart" : -1,
            "receiveLast" : 1503.07799997367,
            "s_time" : 1461.36699989438,
            "sendEnd" : 105,
            "sendStart" : 87,
            "type" : "image/png"
         }
      },
      {
         "when_comp_start" : 1,
         "url" : "https://s-static.ak.facebook.com/connect/xd_arbiter/xRlIuTsSMoE.js?version=41#channel=f342b961e8&origin=http%3A%2F%2Foriginal.testbed.localhost",
         "id" : "r49",
         "comps" : [
            {
               "s_time" : 1819.73399990238,
               "time" : 11.9209999684299,
               "type" : "evalhtml",
               "id" : "r49_c1",
               "e_time" : 1831.65499987081
            }
         ],
         "download" : {
            "receiveFirst" : 27,
            "len" : 30405,
            "dns" : 23,
            "dnsEnd" : 23,
            "receiveHeadersEnd" : 152,
            "sslEnd" : 124,
            "connectEnd" : 124,
            "connectStart" : 0,
            "id" : "download_46",
            "receivedTime" : "1721.16199997254",
            "sslStart" : 47,
            "dnsStart" : 0,
            "receiveLast" : 1569.16199997254,
            "s_time" : 1466.1850000266,
            "sendEnd" : 125,
            "sendStart" : 124,
            "type" : "text/html"
         }
      },
      {
         "when_comp_start" : -1,
         "url" : "http://1.bp.blogspot.com/-WAE3F7wM8F8/VZwEGMFKHEI/AAAAAAAAH3A/9A9sR0OtfjQ/s250-c/kudis.png",
         "id" : "r52",
         "comps" : [],
         "download" : {
            "receiveFirst" : 45,
            "len" : 88977,
            "dns" : 22,
            "dnsEnd" : 22,
            "receiveHeadersEnd" : 91,
            "sslEnd" : -1,
            "connectEnd" : 46,
            "connectStart" : 0,
            "id" : "download_47",
            "receivedTime" : "1884.40399989486",
            "sslStart" : -1,
            "dnsStart" : 0,
            "receiveLast" : 1793.40399989486,
            "s_time" : 1574.34799987823,
            "sendEnd" : 46,
            "sendStart" : 46,
            "type" : "image/png"
         }
      },
      {
         "when_comp_start" : -1,
         "url" : "http://2.bp.blogspot.com/-tDvxiJ31pFo/VZ58lsUDMLI/AAAAAAAAH7w/JDYFsxbpEew/s250-c/jrk.png",
         "id" : "r51",
         "comps" : [],
         "download" : {
            "receiveFirst" : 48,
            "len" : 108968,
            "dns" : 24,
            "dnsEnd" : 24,
            "receiveHeadersEnd" : 96,
            "sslEnd" : -1,
            "connectEnd" : 48,
            "connectStart" : 0,
            "id" : "download_48",
            "receivedTime" : "1887.03899993561",
            "sslStart" : -1,
            "dnsStart" : 0,
            "receiveLast" : 1791.03899993561,
            "s_time" : 1573.11700005084,
            "sendEnd" : 48,
            "sendStart" : 48,
            "type" : "image/png"
         }
      },
      {
         "when_comp_start" : -1,
         "url" : "http://3.bp.blogspot.com/-86d7ifePaCE/VZldWnZasoI/AAAAAAAAHyw/3p-bF5eC484/s250-c/letih.png",
         "id" : "r53",
         "comps" : [],
         "download" : {
            "receiveFirst" : 50,
            "len" : 82988,
            "dns" : 24,
            "dnsEnd" : 24,
            "receiveHeadersEnd" : 97,
            "sslEnd" : -1,
            "connectEnd" : 47,
            "connectStart" : 0,
            "id" : "download_49",
            "receivedTime" : "1876.47400004789",
            "sslStart" : -1,
            "dnsStart" : 0,
            "receiveLast" : 1779.47400004789,
            "s_time" : 1575.20799990743,
            "sendEnd" : 47,
            "sendStart" : 47,
            "type" : "image/png"
         }
      },
      {
         "when_comp_start" : -1,
         "url" : "http://4.bp.blogspot.com/-S2tNlVf6ZIw/VZf0O2d6KcI/AAAAAAAAHvY/QZt8yyXblls/s250-c/hercules.png",
         "id" : "r54",
         "comps" : [],
         "download" : {
            "receiveFirst" : 53,
            "len" : 75381,
            "dns" : 23,
            "dnsEnd" : 23,
            "receiveHeadersEnd" : 99,
            "sslEnd" : -1,
            "connectEnd" : 46,
            "connectStart" : 0,
            "id" : "download_50",
            "receivedTime" : "1882.71599984728",
            "sslStart" : -1,
            "dnsStart" : 0,
            "receiveLast" : 1783.71599984728,
            "s_time" : 1576.90800004639,
            "sendEnd" : 46,
            "sendStart" : 46,
            "type" : "image/png"
         }
      },
      {
         "when_comp_start" : -1,
         "url" : "https://apis.google.com/_/scs/apps-static/_/js/k=oz.gapi.en_US.4mujONxqe1o.O/m=gapi_iframes_style_common,plusone/rt=j/sv=1/d=1/ed=1/am=QQ/rs=AGLTcCOlad9tcDLraaG_KxaQaUQeJtPZMg/t=zcms/cb=gapi.loaded_0",
         "id" : "r55",
         "comps" : [
            {
               "s_time" : 1888.78099992871,
               "time" : 59.7129999660001,
               "type" : null,
               "id" : "comp_161",
               "e_time" : 1948.49399989471
            }
         ],
         "download" : {
            "receiveFirst" : 26,
            "len" : 154319,
            "dns" : 0,
            "dnsEnd" : -1,
            "receiveHeadersEnd" : 26,
            "sslEnd" : -1,
            "connectEnd" : 0,
            "connectStart" : 0,
            "id" : "download_51",
            "receivedTime" : "1803.20900003426",
            "sslStart" : -1,
            "dnsStart" : -1,
            "receiveLast" : 1777.20900003426,
            "s_time" : 1660.84600007161,
            "sendEnd" : 0,
            "sendStart" : 0,
            "type" : "text/javascript"
         }
      },
      {
         "when_comp_start" : -1,
         "url" : "https://apis.google.com/_/scs/apps-static/_/js/k=oz.gapi.en_US.4mujONxqe1o.O/m=auth/exm=gapi_iframes_style_common,plusone/rt=j/sv=1/d=1/ed=1/am=QQ/rs=AGLTcCOlad9tcDLraaG_KxaQaUQeJtPZMg/t=zcms/cb=gapi.loaded_1",
         "id" : "r56",
         "comps" : [
            {
               "s_time" : 1948.53499997407,
               "time" : 32.90800005198,
               "type" : null,
               "id" : "comp_163",
               "e_time" : 1981.44300002605
            }
         ],
         "download" : {
            "receiveFirst" : 41,
            "len" : 36863,
            "dns" : 0,
            "dnsEnd" : -1,
            "receiveHeadersEnd" : 41,
            "sslEnd" : -1,
            "connectEnd" : 0,
            "connectStart" : 0,
            "id" : "download_52",
            "receivedTime" : "1811.0479998868",
            "sslStart" : -1,
            "dnsStart" : -1,
            "receiveLast" : 1770.0479998868,
            "s_time" : 1667.04500000924,
            "sendEnd" : 0,
            "sendStart" : 0,
            "type" : "text/javascript"
         }
      },
      {
         "when_comp_start" : 1,
         "url" : "https://apis.google.com/se/0/_/+1/fastbutton?usegapi=1&size=medium&source=blogger%3Anavbar%3Aplusone&hl=en&origin=https%3A%2F%2Fwww.blogger.com&url=http%3A%2F%2Fwww.caratipsmengobati.com%2F&gsrc=3p&ic=1&jsh=m%3B%2F_%2Fscs%2Fapps-static%2F_%2Fjs%2Fk%3Doz.gapi.en_US.4mujONxqe1o.O%2Fm%3D__features__%2F",
         "id" : "r57",
         "comps" : [
            {
               "s_time" : 2031.96000005119,
               "time" : 41.41199984587,
               "type" : "evalhtml",
               "id" : "r57_c1",
               "e_time" : 2073.37199989706
            }
         ],
         "download" : {
            "receiveFirst" : 111,
            "len" : 38304,
            "dns" : 0,
            "dnsEnd" : -1,
            "receiveHeadersEnd" : 113,
            "sslEnd" : -1,
            "connectEnd" : 1,
            "connectStart" : 0,
            "id" : "download_53",
            "receivedTime" : "1989.5120000001",
            "sslStart" : -1,
            "dnsStart" : -1,
            "receiveLast" : 1876.5120000001,
            "s_time" : 1686.10300007276,
            "sendEnd" : 2,
            "sendStart" : 1,
            "type" : "text/html"
         }
      },
      {
         "when_comp_start" : -1,
         "url" : "http://1.bp.blogspot.com/-5uIm8lpRzWA/VaKUE6kmrrI/AAAAAAAAIDc/vSn4yN6EqR8/s250-c/gigi%2Bberlobang.png",
         "id" : "r50",
         "comps" : [],
         "download" : {
            "receiveFirst" : 257,
            "len" : 75919,
            "dns" : 25,
            "dnsEnd" : 25,
            "receiveHeadersEnd" : 305,
            "sslEnd" : -1,
            "connectEnd" : 48,
            "connectStart" : 0,
            "id" : "download_54",
            "receivedTime" : "2008.28099995852",
            "sslStart" : -1,
            "dnsStart" : 0,
            "receiveLast" : 1703.28099995852,
            "s_time" : 1571.80799986236,
            "sendEnd" : 48,
            "sendStart" : 48,
            "type" : "image/png"
         }
      },
      {
         "when_comp_start" : -1,
         "url" : "https://apis.google.com/_/scs/apps-static/_/js/k=oz.gapi.en_US.4mujONxqe1o.O/m=googleapis_client,iframes_styles_bubble_internal,gapi_iframes_style_common,gapi_iframes_iframer/rt=j/sv=1/d=1/ed=1/am=QQ/rs=AGLTcCOlad9tcDLraaG_KxaQaUQeJtPZMg/t=zcms/cb=gapi.loaded_0",
         "id" : "r60",
         "comps" : [],
         "download" : {
            "receiveFirst" : 24,
            "len" : 150345,
            "dns" : 0,
            "dnsEnd" : -1,
            "receiveHeadersEnd" : 24,
            "sslEnd" : -1,
            "connectEnd" : 0,
            "connectStart" : 0,
            "id" : "download_55",
            "receivedTime" : "2129.35699988157",
            "sslStart" : -1,
            "dnsStart" : -1,
            "receiveLast" : 2105.35699988157,
            "s_time" : 2069.45799989626,
            "sendEnd" : 0,
            "sendStart" : 0,
            "type" : "text/javascript"
         }
      },
      {
         "when_comp_start" : -1,
         "url" : "https://apis.google.com/_/scs/apps-static/_/js/k=oz.plusone.en.dgXM1rur2Bo.O/m=p1b,p1p/rt=j/sv=1/d=1/ed=1/rs=AGLTcCMzz4MGsxJp2X_BWn-gDYEYzeQXYg/t=zcms/cb=gapi.loaded_1",
         "id" : "r61",
         "comps" : [],
         "download" : {
            "receiveFirst" : 37,
            "len" : 72589,
            "dns" : 0,
            "dnsEnd" : -1,
            "receiveHeadersEnd" : 37,
            "sslEnd" : -1,
            "connectEnd" : 0,
            "connectStart" : 0,
            "id" : "download_56",
            "receivedTime" : "2137.59900000878",
            "sslStart" : -1,
            "dnsStart" : -1,
            "receiveLast" : 2100.59900000878,
            "s_time" : 2071.67099998333,
            "sendEnd" : 0,
            "sendStart" : 0,
            "type" : "text/javascript"
         }
      },
      {
         "when_comp_start" : 1,
         "url" : "https://accounts.google.com/o/oauth2/postmessageRelay?parent=https%3A%2F%2Fwww.blogger.com#rpctoken=667854222&forcesecure=1",
         "id" : "r58",
         "comps" : [
            {
               "s_time" : 2169.458999997,
               "time" : 4.65000001713997,
               "id" : "r58_c1",
               "type" : "evalhtml",
               "e_time" : 2174.10900001414
            },
            {
               "s_time" : 2247.46300000697,
               "time" : -1159974934.234,
               "id" : "r58_c2",
               "type" : "evalhtml",
               "e_time" : -1159972686.771
            },
            {
               "s_time" : 2292.17400006019,
               "time" : -1159974978.945,
               "id" : "r58_c3",
               "type" : "evalhtml",
               "e_time" : -1159972686.771
            },
            {
               "s_time" : 2294.42399996333,
               "time" : 0.0559999607498867,
               "type" : "evalhtml",
               "id" : "r58_c4",
               "e_time" : 2294.47999992408
            }
         ],
         "download" : {
            "receiveFirst" : 67,
            "len" : 615,
            "dns" : 24,
            "dnsEnd" : 24,
            "receiveHeadersEnd" : 155,
            "sslEnd" : 86,
            "connectEnd" : 87,
            "connectStart" : 0,
            "id" : "download_57",
            "receivedTime" : "2139.95800004341",
            "sslStart" : 48,
            "dnsStart" : 0,
            "receiveLast" : 1984.95800004341,
            "s_time" : 1966.55700006522,
            "sendEnd" : 88,
            "sendStart" : 87,
            "type" : "text/html"
         }
      },
      {
         "when_comp_start" : -1,
         "url" : "https://fonts.gstatic.com/s/roboto/v15/grlryt2bdKIyfMSOhzd1eA.woff",
         "id" : "r59",
         "comps" : [],
         "download" : {
            "receiveFirst" : 25,
            "len" : 82560,
            "dns" : 0,
            "dnsEnd" : 0,
            "receiveHeadersEnd" : 89,
            "sslEnd" : 62,
            "connectEnd" : 63,
            "connectStart" : 0,
            "id" : "download_58",
            "receivedTime" : "2217.79699996114",
            "sslStart" : 25,
            "dnsStart" : 0,
            "receiveLast" : 2128.79699996114,
            "s_time" : 2092.57699991576,
            "sendEnd" : 64,
            "sendStart" : 63,
            "type" : "font/woff"
         }
      },
      {
         "when_comp_start" : -1,
         "url" : "https://ssl.gstatic.com/accounts/o/162488195-postmessagerelay.js",
         "id" : "r64",
         "comps" : [
            {
               "s_time" : 2292.29999985546,
               "time" : 2.12400010786996,
               "type" : 1,
               "id" : "comp_215",
               "e_time" : 2294.42399996333
            }
         ],
         "download" : {
            "receiveFirst" : 51,
            "len" : 8619,
            "dns" : 0,
            "dnsEnd" : -1,
            "receiveHeadersEnd" : 51,
            "sslEnd" : -1,
            "connectEnd" : 0,
            "connectStart" : 0,
            "id" : "download_59",
            "receivedTime" : "2232.28299990296",
            "sslStart" : -1,
            "dnsStart" : -1,
            "receiveLast" : 2181.28299990296,
            "s_time" : 2174.10900001414,
            "sendEnd" : 0,
            "sendStart" : 0,
            "type" : "text/javascript"
         }
      },
      {
         "when_comp_start" : -1,
         "url" : "https://apis.google.com/js/api.js",
         "id" : "r62",
         "comps" : [
            {
               "s_time" : 2242.71199991927,
               "time" : 4.75100008770005,
               "type" : 1,
               "id" : "comp_211",
               "e_time" : 2247.46300000697
            }
         ],
         "download" : {
            "receiveFirst" : 68,
            "len" : 12999,
            "dns" : 0,
            "dnsEnd" : -1,
            "receiveHeadersEnd" : 69,
            "sslEnd" : -1,
            "connectEnd" : 1,
            "connectStart" : 0,
            "id" : "download_60",
            "receivedTime" : "2242.42799985223",
            "sslStart" : -1,
            "dnsStart" : -1,
            "receiveLast" : 2173.42799985223,
            "s_time" : 2171.61799990572,
            "sendEnd" : 1,
            "sendStart" : 1,
            "type" : "application/javascript"
         }
      },
      {
         "when_comp_start" : -1,
         "url" : "https://oauth.googleusercontent.com/gadgets/js/core:rpc:shindig.random:shindig.sha1.js?c=2",
         "id" : "r63",
         "comps" : [
            {
               "s_time" : 2276.60900005139,
               "time" : 15.5650000087999,
               "type" : 1,
               "id" : "comp_212",
               "e_time" : 2292.17400006019
            }
         ],
         "download" : {
            "receiveFirst" : 24,
            "len" : 68179,
            "dns" : 0,
            "dnsEnd" : 0,
            "receiveHeadersEnd" : 95,
            "sslEnd" : 66,
            "connectEnd" : 66,
            "connectStart" : 0,
            "id" : "download_61",
            "receivedTime" : "2276.3280000072",
            "sslStart" : 23,
            "dnsStart" : 0,
            "receiveLast" : 2181.3280000072,
            "s_time" : 2173.31099999137,
            "sendEnd" : 71,
            "sendStart" : 66,
            "type" : "text/javascript"
         }
      }
   ],
   "deps" : [
      {
         "a2" : "r1_c2",
         "time" : -1,
         "id" : "dep1",
         "a1" : "comp_11"
      },
      {
         "a2" : "r1_c3",
         "time" : -1,
         "id" : "dep2",
         "a1" : "comp_18"
      },
      {
         "a2" : "r1_c4",
         "time" : -1,
         "id" : "dep3",
         "a1" : "comp_40"
      },
      {
         "a2" : "r1_c5",
         "time" : -1,
         "id" : "dep4",
         "a1" : "comp_43"
      },
      {
         "a2" : "r1_c6",
         "time" : -1,
         "id" : "dep5",
         "a1" : "comp_45"
      },
      {
         "a2" : "r1_c7",
         "time" : -1,
         "id" : "dep6",
         "a1" : "comp_55"
      },
      {
         "a2" : "r1_c8",
         "time" : -1,
         "id" : "dep7",
         "a1" : "comp_57"
      },
      {
         "a2" : "comp_43",
         "time" : -1,
         "id" : "dep8",
         "a1" : "comp_39"
      },
      {
         "a2" : "comp_45",
         "time" : -1,
         "id" : "dep9",
         "a1" : "comp_43"
      },
      {
         "a2" : "r58_c2",
         "time" : -1,
         "id" : "dep10",
         "a1" : "comp_211"
      },
      {
         "a2" : "r58_c3",
         "time" : -1,
         "id" : "dep11",
         "a1" : "comp_212"
      },
      {
         "a2" : "r58_c4",
         "time" : -1,
         "id" : "dep12",
         "a1" : "comp_215"
      },
      {
         "a2" : "comp_212",
         "time" : -1,
         "id" : "dep13",
         "a1" : "comp_211"
      },
      {
         "a2" : "comp_215",
         "time" : -1,
         "id" : "dep14",
         "a1" : "comp_212"
      },
      {
         "a2" : "download_61",
         "time" : -1,
         "id" : "dep15",
         "a1" : "r1_c8"
      },
      {
         "a2" : "download_61",
         "time" : -1,
         "id" : "dep16",
         "a1" : "r58_c1"
      },
      {
         "a2" : "download_60",
         "time" : 2.15899990872003,
         "id" : "dep17",
         "a1" : "r58_c1"
      },
      {
         "a2" : "download_59",
         "time" : -1,
         "id" : "dep18",
         "a1" : "r1_c8"
      },
      {
         "a2" : "download_59",
         "time" : -1,
         "id" : "dep19",
         "a1" : "r58_c1"
      },
      {
         "a2" : "download_58",
         "time" : 1131.44699996337,
         "id" : "dep20",
         "a1" : "r1_c8"
      },
      {
         "a2" : "download_57",
         "time" : 18.0220000911502,
         "id" : "dep21",
         "a1" : "comp_163"
      },
      {
         "a2" : "download_56",
         "time" : 39.7109999321401,
         "id" : "dep22",
         "a1" : "r57_c1"
      },
      {
         "a2" : "download_55",
         "time" : 37.4979998450699,
         "id" : "dep23",
         "a1" : "r57_c1"
      },
      {
         "a2" : "download_54",
         "time" : 130.50999981351,
         "id" : "dep24",
         "a1" : "r42_c1"
      },
      {
         "a2" : "download_54",
         "time" : 610.677999909969,
         "id" : "dep25",
         "a1" : "r1_c8"
      },
      {
         "a2" : "download_53",
         "time" : 48.5880000051102,
         "id" : "dep26",
         "a1" : "comp_138"
      },
      {
         "a2" : "download_52",
         "time" : 29.5299999415902,
         "id" : "dep27",
         "a1" : "comp_138"
      },
      {
         "a2" : "download_51",
         "time" : 23.3310000039601,
         "id" : "dep28",
         "a1" : "comp_138"
      },
      {
         "a2" : "download_50",
         "time" : 135.60999999754,
         "id" : "dep29",
         "a1" : "r42_c1"
      },
      {
         "a2" : "download_50",
         "time" : 615.778000093999,
         "id" : "dep30",
         "a1" : "r1_c8"
      },
      {
         "a2" : "download_49",
         "time" : 133.90999985858,
         "id" : "dep31",
         "a1" : "r42_c1"
      },
      {
         "a2" : "download_49",
         "time" : 614.077999955039,
         "id" : "dep32",
         "a1" : "r1_c8"
      },
      {
         "a2" : "download_48",
         "time" : 131.81900000199,
         "id" : "dep33",
         "a1" : "r42_c1"
      },
      {
         "a2" : "download_48",
         "time" : 611.987000098449,
         "id" : "dep34",
         "a1" : "r1_c8"
      },
      {
         "a2" : "download_47",
         "time" : 133.04999982938,
         "id" : "dep35",
         "a1" : "r42_c1"
      },
      {
         "a2" : "download_47",
         "time" : 613.217999925839,
         "id" : "dep36",
         "a1" : "r1_c8"
      },
      {
         "a2" : "download_46",
         "time" : 24.8869999777498,
         "id" : "dep37",
         "a1" : "r42_c1"
      },
      {
         "a2" : "download_46",
         "time" : 505.055000074209,
         "id" : "dep38",
         "a1" : "r1_c8"
      },
      {
         "a2" : "download_45",
         "time" : 20.0689998455298,
         "id" : "dep39",
         "a1" : "r42_c1"
      },
      {
         "a2" : "download_45",
         "time" : 500.236999941989,
         "id" : "dep40",
         "a1" : "r1_c8"
      },
      {
         "a2" : "download_44",
         "time" : 15.7209997996599,
         "id" : "dep41",
         "a1" : "r42_c1"
      },
      {
         "a2" : "download_44",
         "time" : 495.888999896119,
         "id" : "dep42",
         "a1" : "r1_c8"
      },
      {
         "a2" : "download_43",
         "time" : 23.2179998420099,
         "id" : "dep43",
         "a1" : "r42_c1"
      },
      {
         "a2" : "download_43",
         "time" : 503.385999938469,
         "id" : "dep44",
         "a1" : "r1_c8"
      },
      {
         "a2" : "download_42",
         "time" : 13.7589999940199,
         "id" : "dep45",
         "a1" : "r42_c1"
      },
      {
         "a2" : "download_42",
         "time" : 493.927000090479,
         "id" : "dep46",
         "a1" : "r1_c8"
      },
      {
         "a2" : "download_41",
         "time" : 403.654000023379,
         "id" : "dep47",
         "a1" : "r1_c8"
      },
      {
         "a2" : "download_40",
         "time" : 20.2340001706,
         "id" : "dep48",
         "a1" : "comp_123"
      },
      {
         "a2" : "download_39",
         "time" : 307.575999991969,
         "id" : "dep49",
         "a1" : "r1_c8"
      },
      {
         "a2" : "download_38",
         "time" : 95.8990000653989,
         "id" : "dep50",
         "a1" : "r1_c8"
      },
      {
         "a2" : "download_37",
         "time" : -1,
         "id" : "dep51",
         "a1" : "r1_c7"
      },
      {
         "a2" : "download_36",
         "time" : -1,
         "id" : "dep52",
         "a1" : "r1_c3"
      },
      {
         "a2" : "download_35",
         "time" : -1,
         "id" : "dep53",
         "a1" : "r1_c3"
      },
      {
         "a2" : "download_34",
         "time" : 304.085999960079,
         "id" : "dep54",
         "a1" : "r1_c3"
      },
      {
         "a2" : "download_33",
         "time" : 300.054999999702,
         "id" : "dep55",
         "a1" : "r1_c3"
      },
      {
         "a2" : "download_32",
         "time" : 269.419000018388,
         "id" : "dep56",
         "a1" : "r1_c3"
      },
      {
         "a2" : "download_31",
         "time" : 266.575000016018,
         "id" : "dep57",
         "a1" : "r1_c3"
      },
      {
         "a2" : "download_30",
         "time" : 263.749999925494,
         "id" : "dep58",
         "a1" : "r1_c3"
      },
      {
         "a2" : "download_29",
         "time" : 23.011999903246,
         "id" : "dep59",
         "a1" : "r1_c3"
      },
      {
         "a2" : "download_28",
         "time" : 20.585000049322,
         "id" : "dep60",
         "a1" : "r1_c3"
      },
      {
         "a2" : "download_27",
         "time" : 5.12699992395903,
         "id" : "dep61",
         "a1" : "r1_c3"
      },
      {
         "a2" : "download_26",
         "time" : 24.950999999418,
         "id" : "dep62",
         "a1" : "r1_c3"
      },
      {
         "a2" : "download_25",
         "time" : 18.527999985963,
         "id" : "dep63",
         "a1" : "r1_c3"
      },
      {
         "a2" : "download_24",
         "time" : 216.292999917641,
         "id" : "dep64",
         "a1" : "r1_c3"
      },
      {
         "a2" : "download_23",
         "time" : 127.264000009745,
         "id" : "dep65",
         "a1" : "r1_c3"
      },
      {
         "a2" : "download_23",
         "time" : 127.264000009745,
         "id" : "dep66",
         "a1" : "r1_c3"
      },
      {
         "a2" : "download_22",
         "time" : 125.969999935478,
         "id" : "dep67",
         "a1" : "r1_c3"
      },
      {
         "a2" : "download_21",
         "time" : 3.961999900639,
         "id" : "dep68",
         "a1" : "r1_c3"
      },
      {
         "a2" : "download_20",
         "time" : 26.791000040248,
         "id" : "dep69",
         "a1" : "r1_c3"
      },
      {
         "a2" : "download_19",
         "time" : 124.762999825179,
         "id" : "dep70",
         "a1" : "r1_c3"
      },
      {
         "a2" : "download_19",
         "time" : 124.762999825179,
         "id" : "dep71",
         "a1" : "r1_c3"
      },
      {
         "a2" : "download_18",
         "time" : 129.26199985668,
         "id" : "dep72",
         "a1" : "r1_c3"
      },
      {
         "a2" : "download_18",
         "time" : 129.26199985668,
         "id" : "dep73",
         "a1" : "r1_c3"
      },
      {
         "a2" : "download_17",
         "time" : 1.30799994803903,
         "id" : "dep74",
         "a1" : "r1_c3"
      },
      {
         "a2" : "download_16",
         "time" : 123.93799982965,
         "id" : "dep75",
         "a1" : "r1_c3"
      },
      {
         "a2" : "download_15",
         "time" : 123.202000046148,
         "id" : "dep76",
         "a1" : "r1_c3"
      },
      {
         "a2" : "download_14",
         "time" : 121.66399997659,
         "id" : "dep77",
         "a1" : "r1_c3"
      },
      {
         "a2" : "download_14",
         "time" : 121.66399997659,
         "id" : "dep78",
         "a1" : "r1_c3"
      },
      {
         "a2" : "download_13",
         "time" : 117.39100003615,
         "id" : "dep79",
         "a1" : "r1_c3"
      },
      {
         "a2" : "download_13",
         "time" : 117.39100003615,
         "id" : "dep80",
         "a1" : "r1_c3"
      },
      {
         "a2" : "download_12",
         "time" : 116.579999914392,
         "id" : "dep81",
         "a1" : "r1_c3"
      },
      {
         "a2" : "download_12",
         "time" : 116.579999914392,
         "id" : "dep82",
         "a1" : "r1_c3"
      },
      {
         "a2" : "download_11",
         "time" : 115.621999837458,
         "id" : "dep83",
         "a1" : "r1_c3"
      },
      {
         "a2" : "download_11",
         "time" : 115.621999837458,
         "id" : "dep84",
         "a1" : "r1_c3"
      },
      {
         "a2" : "download_10",
         "time" : -1,
         "id" : "dep85",
         "a1" : "r1_c2"
      },
      {
         "a2" : "download_9",
         "time" : 2.19499995000604,
         "id" : "dep86",
         "a1" : "r1_c3"
      },
      {
         "a2" : "download_8",
         "time" : 11.201999848708,
         "id" : "dep87",
         "a1" : "r1_c3"
      },
      {
         "a2" : "download_7",
         "time" : 10.297999950125,
         "id" : "dep88",
         "a1" : "r1_c3"
      },
      {
         "a2" : "download_6",
         "time" : -1,
         "id" : "dep89",
         "a1" : "r1_c1"
      },
      {
         "a2" : "download_6",
         "time" : 11.2250000238416,
         "id" : "dep90",
         "a1" : "r1_c1"
      },
      {
         "a2" : "download_5",
         "time" : -1,
         "id" : "dep91",
         "a1" : "r1_c1"
      },
      {
         "a2" : "download_5",
         "time" : 11.4870001561936,
         "id" : "dep92",
         "a1" : "r1_c1"
      },
      {
         "a2" : "download_4",
         "time" : 6.4580000471326,
         "id" : "dep93",
         "a1" : "r1_c1"
      },
      {
         "a2" : "download_3",
         "time" : 6.71700015664059,
         "id" : "dep94",
         "a1" : "r1_c1"
      },
      {
         "a2" : "download_2",
         "time" : 6.98500010184959,
         "id" : "dep95",
         "a1" : "r1_c1"
      },
      {
         "a2" : "download_1",
         "time" : 6.1600001063196,
         "id" : "dep96",
         "a1" : "r1_c1"
      }
   ]
}
