{
   "n_download_no_trigger" : 1,
   "start_activity" : "download_0",
   "name" : "original.testbed.localhost_www.jelmar.com_",
   "load_activity" : -1,
   "objs" : [
      {
         "when_comp_start" : 1,
         "url" : "http://original.testbed.localhost/www.jelmar.com/",
         "id" : "r1",
         "comps" : [
            {
               "s_time" : 94.3280002102256,
               "time" : 168.848000001162,
               "id" : "r1_c1",
               "type" : "evalhtml",
               "e_time" : 263.176000211388
            },
            {
               "s_time" : 347.839000169188,
               "time" : 293.443999951705,
               "id" : "r1_c2",
               "type" : "evalhtml",
               "e_time" : 641.283000120893
            },
            {
               "s_time" : 652.777000097558,
               "time" : -1151557609.924,
               "id" : "r1_c3",
               "type" : "evalhtml",
               "e_time" : -1151556957.147
            },
            {
               "s_time" : 676.103000063449,
               "time" : 52.644000155851,
               "id" : "r1_c4",
               "type" : "evalhtml",
               "e_time" : 728.7470002193
            },
            {
               "s_time" : 749.248000094667,
               "time" : 211.799999931827,
               "type" : "evalhtml",
               "id" : "r1_c5",
               "e_time" : 961.048000026494
            }
         ],
         "download" : {
            "receiveFirst" : 21,
            "len" : 19057,
            "dns" : 0,
            "dnsEnd" : -1,
            "receiveHeadersEnd" : 21,
            "sslEnd" : -1,
            "connectEnd" : 0,
            "connectStart" : 0,
            "id" : "download_0",
            "receivedTime" : "83.5770000703633",
            "sslStart" : -1,
            "dnsStart" : -1,
            "receiveLast" : 62.5770000703633,
            "s_time" : 0,
            "sendEnd" : 0,
            "sendStart" : 0,
            "type" : "text/html"
         }
      },
      {
         "when_comp_start" : -1,
         "url" : "http://original.testbed.localhost/www.jelmar.com/wowslider/2015/engine1/style.css",
         "id" : "r2",
         "comps" : [
            {
               "s_time" : 126.15800020285,
               "time" : 0.829999800770992,
               "type" : 4,
               "id" : "comp_3",
               "e_time" : 126.988000003621
            }
         ],
         "download" : {
            "receiveFirst" : 20,
            "len" : 4943,
            "dns" : 0,
            "dnsEnd" : -1,
            "receiveHeadersEnd" : 22,
            "sslEnd" : -1,
            "connectEnd" : 2,
            "connectStart" : 0,
            "id" : "download_1",
            "receivedTime" : "126.112000085413",
            "sslStart" : -1,
            "dnsStart" : -1,
            "receiveLast" : 104.112000085413,
            "s_time" : 99.3550000712276,
            "sendEnd" : 2,
            "sendStart" : 2,
            "type" : "text/css"
         }
      },
      {
         "when_comp_start" : -1,
         "url" : "http://original.testbed.localhost/www.jelmar.com/styles.css",
         "id" : "r4",
         "comps" : [
            {
               "s_time" : 146.118000149727,
               "time" : 0.00500003807198368,
               "type" : 4,
               "id" : "comp_4",
               "e_time" : 146.123000187799
            }
         ],
         "download" : {
            "receiveFirst" : 21,
            "len" : 2097,
            "dns" : 0,
            "dnsEnd" : 1,
            "receiveHeadersEnd" : 42,
            "sslEnd" : -1,
            "connectEnd" : 21,
            "connectStart" : 0,
            "id" : "download_2",
            "receivedTime" : "146.079000085592",
            "sslStart" : -1,
            "dnsStart" : 1,
            "receiveLast" : 104.079000085592,
            "s_time" : 101.605000207201,
            "sendEnd" : 21,
            "sendStart" : 21,
            "type" : "text/css"
         }
      },
      {
         "when_comp_start" : -1,
         "url" : "http://original.testbed.localhost/www.jelmar.com/wowslider/2015/engine1/wowslider.js",
         "id" : "r27",
         "comps" : [
            {
               "s_time" : 670.123000163585,
               "time" : 5.97999989986408,
               "type" : 1,
               "id" : "comp_17",
               "e_time" : 676.103000063449
            }
         ],
         "download" : {
            "receiveFirst" : 21,
            "len" : 12718,
            "dns" : 0,
            "dnsEnd" : 0,
            "receiveHeadersEnd" : 33,
            "sslEnd" : -1,
            "connectEnd" : 12,
            "connectStart" : 0,
            "id" : "download_3",
            "receivedTime" : "148.630000185221",
            "sslStart" : -1,
            "dnsStart" : 0,
            "receiveLast" : 115.630000185221,
            "s_time" : 112.39800020121,
            "sendEnd" : 12,
            "sendStart" : 12,
            "type" : "application/javascript"
         }
      },
      {
         "when_comp_start" : -1,
         "url" : "http://original.testbed.localhost/www.jelmar.com/nav/menu.js",
         "id" : "r5",
         "comps" : [],
         "download" : {
            "receiveFirst" : 25,
            "len" : 15499,
            "dns" : 0,
            "dnsEnd" : 1,
            "receiveHeadersEnd" : 46,
            "sslEnd" : -1,
            "connectEnd" : 21,
            "connectStart" : 0,
            "id" : "download_4",
            "receivedTime" : "171.140000224113",
            "sslStart" : -1,
            "dnsStart" : 1,
            "receiveLast" : 125.140000224113,
            "s_time" : 101.626000134274,
            "sendEnd" : 21,
            "sendStart" : 21,
            "type" : "application/javascript"
         }
      },
      {
         "when_comp_start" : -1,
         "url" : "http://original.testbed.localhost/www.jelmar.com/wowslider/2015/engine1/jquery.js",
         "id" : "r3",
         "comps" : [
            {
               "s_time" : 207.081000087783,
               "time" : 140.758000081405,
               "type" : 1,
               "id" : "comp_6",
               "e_time" : 347.839000169188
            }
         ],
         "download" : {
            "receiveFirst" : 30,
            "len" : 94839,
            "dns" : 0,
            "dnsEnd" : 1,
            "receiveHeadersEnd" : 51,
            "sslEnd" : -1,
            "connectEnd" : 21,
            "connectStart" : 0,
            "id" : "download_5",
            "receivedTime" : "207.033000187948",
            "sslStart" : -1,
            "dnsStart" : 1,
            "receiveLast" : 156.033000187948,
            "s_time" : 101.525000063702,
            "sendEnd" : 21,
            "sendStart" : 21,
            "type" : "application/javascript"
         }
      },
      {
         "when_comp_start" : -1,
         "url" : "http://original.testbed.localhost/www.jelmar.com/wowslider/2015/engine1/script.js",
         "id" : "r28",
         "comps" : [
            {
               "s_time" : 677.180000115186,
               "time" : 72.067999979481,
               "type" : 1,
               "id" : "comp_19",
               "e_time" : 749.248000094667
            }
         ],
         "download" : {
            "receiveFirst" : 33,
            "len" : 1686,
            "dns" : 0,
            "dnsEnd" : -1,
            "receiveHeadersEnd" : 45,
            "sslEnd" : -1,
            "connectEnd" : 12,
            "connectStart" : 0,
            "id" : "download_6",
            "receivedTime" : "187.448000069708",
            "sslStart" : -1,
            "dnsStart" : -1,
            "receiveLast" : 142.448000069708,
            "s_time" : 113.106000004336,
            "sendEnd" : 12,
            "sendStart" : 12,
            "type" : "application/javascript"
         }
      },
      {
         "when_comp_start" : -1,
         "url" : "http://original.testbed.localhost/www.jelmar.com/images/2015/homepage/navigation/ourproducts.jpg",
         "id" : "r6",
         "comps" : [],
         "download" : {
            "receiveFirst" : 25,
            "len" : 3579,
            "dns" : 0,
            "dnsEnd" : 9,
            "receiveHeadersEnd" : 55,
            "sslEnd" : -1,
            "connectEnd" : 30,
            "connectStart" : 0,
            "id" : "download_7",
            "receivedTime" : "188.387000001967",
            "sslStart" : -1,
            "dnsStart" : 9,
            "receiveLast" : 133.387000001967,
            "s_time" : 101.814000168815,
            "sendEnd" : 30,
            "sendStart" : 30,
            "type" : "image/jpeg"
         }
      },
      {
         "when_comp_start" : -1,
         "url" : "http://original.testbed.localhost/www.jelmar.com/images/2015/homepage/navigation/cleaningsolutions.jpg",
         "id" : "r7",
         "comps" : [],
         "download" : {
            "receiveFirst" : 25,
            "len" : 5150,
            "dns" : 0,
            "dnsEnd" : -1,
            "receiveHeadersEnd" : 26,
            "sslEnd" : -1,
            "connectEnd" : 1,
            "connectStart" : 0,
            "id" : "download_8",
            "receivedTime" : "384.575000032783",
            "sslStart" : -1,
            "dnsStart" : -1,
            "receiveLast" : 358.575000032783,
            "s_time" : 186.641000211239,
            "sendEnd" : 1,
            "sendStart" : 1,
            "type" : "image/jpeg"
         }
      },
      {
         "when_comp_start" : -1,
         "url" : "http://original.testbed.localhost/www.jelmar.com/images/2015/homepage/navigation/retaillocator.jpg",
         "id" : "r8",
         "comps" : [],
         "download" : {
            "receiveFirst" : 20,
            "len" : 3883,
            "dns" : 0,
            "dnsEnd" : -1,
            "receiveHeadersEnd" : 27,
            "sslEnd" : -1,
            "connectEnd" : 7,
            "connectStart" : 0,
            "id" : "download_9",
            "receivedTime" : "385.12000022456",
            "sslStart" : -1,
            "dnsStart" : -1,
            "receiveLast" : 358.12000022456,
            "s_time" : 206.15700003691,
            "sendEnd" : 7,
            "sendStart" : 7,
            "type" : "image/jpeg"
         }
      },
      {
         "when_comp_start" : -1,
         "url" : "http://original.testbed.localhost/www.jelmar.com/images/2015/headerlogos.jpg",
         "id" : "r11",
         "comps" : [],
         "download" : {
            "receiveFirst" : 22,
            "len" : 12771,
            "dns" : 0,
            "dnsEnd" : -1,
            "receiveHeadersEnd" : 24,
            "sslEnd" : -1,
            "connectEnd" : 2,
            "connectStart" : 0,
            "id" : "download_10",
            "receivedTime" : "386.676000198349",
            "sslStart" : -1,
            "dnsStart" : -1,
            "receiveLast" : 362.676000198349,
            "s_time" : 211.187000153586,
            "sendEnd" : 2,
            "sendStart" : 2,
            "type" : "image/jpeg"
         }
      },
      {
         "when_comp_start" : -1,
         "url" : "http://original.testbed.localhost/www.jelmar.com/images/2015/homepage/navigation/sds.jpg",
         "id" : "r10",
         "comps" : [],
         "download" : {
            "receiveFirst" : 26,
            "len" : 1788,
            "dns" : 0,
            "dnsEnd" : -1,
            "receiveHeadersEnd" : 28,
            "sslEnd" : -1,
            "connectEnd" : 2,
            "connectStart" : 0,
            "id" : "download_11",
            "receivedTime" : "387.149000074714",
            "sslStart" : -1,
            "dnsStart" : -1,
            "receiveLast" : 359.149000074714,
            "s_time" : 211.091000121087,
            "sendEnd" : 2,
            "sendStart" : 2,
            "type" : "image/jpeg"
         }
      },
      {
         "when_comp_start" : -1,
         "url" : "http://original.testbed.localhost/www.jelmar.com/images/2015/homepage/navigation/proline.jpg",
         "id" : "r9",
         "comps" : [],
         "download" : {
            "receiveFirst" : 26,
            "len" : 2755,
            "dns" : 0,
            "dnsEnd" : -1,
            "receiveHeadersEnd" : 29,
            "sslEnd" : -1,
            "connectEnd" : 3,
            "connectStart" : 0,
            "id" : "download_12",
            "receivedTime" : "388.070000102744",
            "sslStart" : -1,
            "dnsStart" : -1,
            "receiveLast" : 359.070000102744,
            "s_time" : 209.106000140309,
            "sendEnd" : 3,
            "sendStart" : 3,
            "type" : "image/jpeg"
         }
      },
      {
         "when_comp_start" : -1,
         "url" : "http://original.testbed.localhost/www.jelmar.com/images/2015/homepage/sociallogos/facebook.png",
         "id" : "r12",
         "comps" : [],
         "download" : {
            "receiveFirst" : 29,
            "len" : 1119,
            "dns" : 0,
            "dnsEnd" : -1,
            "receiveHeadersEnd" : 31,
            "sslEnd" : -1,
            "connectEnd" : 2,
            "connectStart" : 0,
            "id" : "download_13",
            "receivedTime" : "388.225000118837",
            "sslStart" : -1,
            "dnsStart" : -1,
            "receiveLast" : 357.225000118837,
            "s_time" : 211.283000186086,
            "sendEnd" : 2,
            "sendStart" : 2,
            "type" : "image/png"
         }
      },
      {
         "when_comp_start" : -1,
         "url" : "http://original.testbed.localhost/www.jelmar.com/images/2015/homepage/sociallogos/twitter.png",
         "id" : "r13",
         "comps" : [],
         "download" : {
            "receiveFirst" : 27,
            "len" : 876,
            "dns" : 0,
            "dnsEnd" : -1,
            "receiveHeadersEnd" : 38,
            "sslEnd" : -1,
            "connectEnd" : 11,
            "connectStart" : 0,
            "id" : "download_14",
            "receivedTime" : "388.473000144586",
            "sslStart" : -1,
            "dnsStart" : -1,
            "receiveLast" : 350.473000144586,
            "s_time" : 211.424000095576,
            "sendEnd" : 11,
            "sendStart" : 11,
            "type" : "image/png"
         }
      },
      {
         "when_comp_start" : -1,
         "url" : "http://original.testbed.localhost/www.jelmar.com/images/2015/homepage/sociallogos/youtube.png",
         "id" : "r14",
         "comps" : [],
         "download" : {
            "receiveFirst" : 21,
            "len" : 1985,
            "dns" : 0,
            "dnsEnd" : -1,
            "receiveHeadersEnd" : 44,
            "sslEnd" : -1,
            "connectEnd" : 23,
            "connectStart" : 0,
            "id" : "download_15",
            "receivedTime" : "389.033999992535",
            "sslStart" : -1,
            "dnsStart" : -1,
            "receiveLast" : 345.033999992535,
            "s_time" : 211.522000143304,
            "sendEnd" : 23,
            "sendStart" : 23,
            "type" : "image/png"
         }
      },
      {
         "when_comp_start" : -1,
         "url" : "http://original.testbed.localhost/www.jelmar.com/images/2015/homepage/sociallogos/pinterest.png",
         "id" : "r15",
         "comps" : [],
         "download" : {
            "receiveFirst" : 20,
            "len" : 756,
            "dns" : 0,
            "dnsEnd" : -1,
            "receiveHeadersEnd" : 47,
            "sslEnd" : -1,
            "connectEnd" : 27,
            "connectStart" : 0,
            "id" : "download_16",
            "receivedTime" : "390.063000144437",
            "sslStart" : -1,
            "dnsStart" : -1,
            "receiveLast" : 343.063000144437,
            "s_time" : 211.617000168189,
            "sendEnd" : 27,
            "sendStart" : 27,
            "type" : "image/png"
         }
      },
      {
         "when_comp_start" : -1,
         "url" : "http://original.testbed.localhost/www.jelmar.com/images/cleardot.gif",
         "id" : "r16",
         "comps" : [],
         "download" : {
            "receiveFirst" : 20,
            "len" : 49,
            "dns" : 0,
            "dnsEnd" : -1,
            "receiveHeadersEnd" : 50,
            "sslEnd" : -1,
            "connectEnd" : 30,
            "connectStart" : 0,
            "id" : "download_17",
            "receivedTime" : "390.311000170186",
            "sslStart" : -1,
            "dnsStart" : -1,
            "receiveLast" : 340.311000170186,
            "s_time" : 211.725000059232,
            "sendEnd" : 30,
            "sendStart" : 30,
            "type" : "image/gif"
         }
      },
      {
         "when_comp_start" : -1,
         "url" : "http://original.testbed.localhost/www.jelmar.com/wowslider/2015/data1/images/clr.jpg",
         "id" : "r17",
         "comps" : [],
         "download" : {
            "receiveFirst" : 24,
            "len" : 166350,
            "dns" : 0,
            "dnsEnd" : -1,
            "receiveHeadersEnd" : 50,
            "sslEnd" : -1,
            "connectEnd" : 25,
            "connectStart" : 0,
            "id" : "download_18",
            "receivedTime" : "494.964000070468",
            "sslStart" : -1,
            "dnsStart" : -1,
            "receiveLast" : 444.964000070468,
            "s_time" : 216.677000047639,
            "sendEnd" : 26,
            "sendStart" : 25,
            "type" : "image/jpeg"
         }
      },
      {
         "when_comp_start" : -1,
         "url" : "http://original.testbed.localhost/www.jelmar.com/wowslider/2015/data1/images/clrbk.jpg",
         "id" : "r18",
         "comps" : [],
         "download" : {
            "receiveFirst" : 22,
            "len" : 189324,
            "dns" : 0,
            "dnsEnd" : -1,
            "receiveHeadersEnd" : 36,
            "sslEnd" : -1,
            "connectEnd" : 14,
            "connectStart" : 0,
            "id" : "download_19",
            "receivedTime" : "802.660000044852",
            "sslStart" : -1,
            "dnsStart" : -1,
            "receiveLast" : 766.660000044852,
            "s_time" : 235.094000119716,
            "sendEnd" : 14,
            "sendStart" : 14,
            "type" : "image/jpeg"
         }
      },
      {
         "when_comp_start" : -1,
         "url" : "http://original.testbed.localhost/www.jelmar.com/wowslider/2015/data1/images/tarnx.jpg",
         "id" : "r19",
         "comps" : [],
         "download" : {
            "receiveFirst" : 21,
            "len" : 255949,
            "dns" : 0,
            "dnsEnd" : -1,
            "receiveHeadersEnd" : 35,
            "sslEnd" : -1,
            "connectEnd" : 14,
            "connectStart" : 0,
            "id" : "download_20",
            "receivedTime" : "878.253000089899",
            "sslStart" : -1,
            "dnsStart" : -1,
            "receiveLast" : 843.253000089899,
            "s_time" : 238.954000174999,
            "sendEnd" : 14,
            "sendStart" : 14,
            "type" : "image/jpeg"
         }
      },
      {
         "when_comp_start" : -1,
         "url" : "http://original.testbed.localhost/www.jelmar.com/wowslider/2015/data1/images/outdoor.jpg",
         "id" : "r20",
         "comps" : [],
         "download" : {
            "receiveFirst" : 20,
            "len" : 320445,
            "dns" : 0,
            "dnsEnd" : -1,
            "receiveHeadersEnd" : 36,
            "sslEnd" : -1,
            "connectEnd" : 16,
            "connectStart" : 0,
            "id" : "download_21",
            "receivedTime" : "840.758000034839",
            "sslStart" : -1,
            "dnsStart" : -1,
            "receiveLast" : 804.758000034839,
            "s_time" : 240.854000207037,
            "sendEnd" : 16,
            "sendStart" : 16,
            "type" : "image/jpeg"
         }
      },
      {
         "when_comp_start" : -1,
         "url" : "http://original.testbed.localhost/www.jelmar.com/wowslider/2015/data1/images/stainlesssteel.jpg",
         "id" : "r21",
         "comps" : [],
         "download" : {
            "receiveFirst" : 36,
            "len" : 184432,
            "dns" : 0,
            "dnsEnd" : -1,
            "receiveHeadersEnd" : 54,
            "sslEnd" : -1,
            "connectEnd" : 18,
            "connectStart" : 0,
            "id" : "download_22",
            "receivedTime" : "565.84500009194",
            "sslStart" : -1,
            "dnsStart" : -1,
            "receiveLast" : 511.84500009194,
            "s_time" : 241.873000049964,
            "sendEnd" : 18,
            "sendStart" : 18,
            "type" : "image/jpeg"
         }
      },
      {
         "when_comp_start" : -1,
         "url" : "http://original.testbed.localhost/www.jelmar.com/wowslider/2015/data1/images/septic.jpg",
         "id" : "r22",
         "comps" : [],
         "download" : {
            "receiveFirst" : 42,
            "len" : 246536,
            "dns" : 0,
            "dnsEnd" : -1,
            "receiveHeadersEnd" : 62,
            "sslEnd" : -1,
            "connectEnd" : 20,
            "connectStart" : 0,
            "id" : "download_23",
            "receivedTime" : "853.511000052094",
            "sslStart" : -1,
            "dnsStart" : -1,
            "receiveLast" : 791.511000052094,
            "s_time" : 243.121000006795,
            "sendEnd" : 20,
            "sendStart" : 20,
            "type" : "image/jpeg"
         }
      },
      {
         "when_comp_start" : 1,
         "url" : "http://original.testbed.localhost/www.jelmar.com/index.html",
         "id" : "r44",
         "comps" : [],
         "download" : {
            "receiveFirst" : 58,
            "len" : 19057,
            "dns" : 0,
            "dnsEnd" : -1,
            "receiveHeadersEnd" : 128,
            "sslEnd" : -1,
            "connectEnd" : 70,
            "connectStart" : 0,
            "id" : "download_24",
            "receivedTime" : "848.787000169978",
            "sslStart" : -1,
            "dnsStart" : -1,
            "receiveLast" : 720.787000169978,
            "s_time" : 494.728000136092,
            "sendEnd" : 70,
            "sendStart" : 70,
            "type" : "text/html"
         }
      },
      {
         "when_comp_start" : -1,
         "url" : "http://original.testbed.localhost/www.jelmar.com/wowslider/2015/data1/images/stainmagnet.jpg",
         "id" : "r23",
         "comps" : [],
         "download" : {
            "receiveFirst" : 55,
            "len" : 165953,
            "dns" : 0,
            "dnsEnd" : -1,
            "receiveHeadersEnd" : 391,
            "sslEnd" : -1,
            "connectEnd" : 336,
            "connectStart" : 0,
            "id" : "download_25",
            "receivedTime" : "1029.40600016154",
            "sslStart" : -1,
            "dnsStart" : -1,
            "receiveLast" : 638.406000161543,
            "s_time" : 250.97700022161,
            "sendEnd" : 336,
            "sendStart" : 336,
            "type" : "image/jpeg"
         }
      },
      {
         "when_comp_start" : -1,
         "url" : "http://original.testbed.localhost/www.jelmar.com/wowslider/2015/data1/images/moldmildew.jpg",
         "id" : "r24",
         "comps" : [],
         "download" : {
            "receiveFirst" : 63,
            "len" : 188370,
            "dns" : 0,
            "dnsEnd" : -1,
            "receiveHeadersEnd" : 400,
            "sslEnd" : -1,
            "connectEnd" : 337,
            "connectStart" : 0,
            "id" : "download_26",
            "receivedTime" : "1017.85600022413",
            "sslStart" : -1,
            "dnsStart" : -1,
            "receiveLast" : 617.856000224128,
            "s_time" : 256.613000063226,
            "sendEnd" : 337,
            "sendStart" : 337,
            "type" : "image/jpeg"
         }
      },
      {
         "when_comp_start" : -1,
         "url" : "http://original.testbed.localhost/www.jelmar.com/wowslider/2015/data1/images/greasemagnet.jpg",
         "id" : "r25",
         "comps" : [],
         "download" : {
            "receiveFirst" : 63,
            "len" : 278615,
            "dns" : 0,
            "dnsEnd" : -1,
            "receiveHeadersEnd" : 424,
            "sslEnd" : -1,
            "connectEnd" : 361,
            "connectStart" : 0,
            "id" : "download_27",
            "receivedTime" : "1030.34400008619",
            "sslStart" : -1,
            "dnsStart" : -1,
            "receiveLast" : 606.344000086188,
            "s_time" : 260.284000076354,
            "sendEnd" : 361,
            "sendStart" : 361,
            "type" : "image/jpeg"
         }
      },
      {
         "when_comp_start" : -1,
         "url" : "http://original.testbed.localhost/www.jelmar.com/wowslider/2015/data1/images/powerplumber.jpg",
         "id" : "r26",
         "comps" : [],
         "download" : {
            "receiveFirst" : 78,
            "len" : 173561,
            "dns" : 0,
            "dnsEnd" : -1,
            "receiveHeadersEnd" : 443,
            "sslEnd" : -1,
            "connectEnd" : 365,
            "connectStart" : 0,
            "id" : "download_28",
            "receivedTime" : "1027.05000014976",
            "sslStart" : -1,
            "dnsStart" : -1,
            "receiveLast" : 584.050000149757,
            "s_time" : 263.176000211388,
            "sendEnd" : 365,
            "sendStart" : 365,
            "type" : "image/jpeg"
         }
      },
      {
         "when_comp_start" : -1,
         "url" : "http://original.testbed.localhost/www.jelmar.com/images/2015/homepage/thumbnails/clr.jpg",
         "id" : "r29",
         "comps" : [],
         "download" : {
            "receiveFirst" : 86,
            "len" : 9124,
            "dns" : 0,
            "dnsEnd" : -1,
            "receiveHeadersEnd" : 162,
            "sslEnd" : -1,
            "connectEnd" : 76,
            "connectStart" : 0,
            "id" : "download_29",
            "receivedTime" : "903.221000218764",
            "sslStart" : -1,
            "dnsStart" : -1,
            "receiveLast" : 741.221000218764,
            "s_time" : 564.683000091463,
            "sendEnd" : 76,
            "sendStart" : 76,
            "type" : "image/jpeg"
         }
      },
      {
         "when_comp_start" : -1,
         "url" : "http://original.testbed.localhost/www.jelmar.com/images/2015/homepage/thumbnails/bk.jpg",
         "id" : "r30",
         "comps" : [],
         "download" : {
            "receiveFirst" : 77,
            "len" : 6344,
            "dns" : 0,
            "dnsEnd" : -1,
            "receiveHeadersEnd" : 167,
            "sslEnd" : -1,
            "connectEnd" : 90,
            "connectStart" : 0,
            "id" : "download_30",
            "receivedTime" : "916.447000112385",
            "sslStart" : -1,
            "dnsStart" : -1,
            "receiveLast" : 749.447000112385,
            "s_time" : 593.878000043333,
            "sendEnd" : 90,
            "sendStart" : 90,
            "type" : "image/jpeg"
         }
      },
      {
         "when_comp_start" : -1,
         "url" : "http://original.testbed.localhost/www.jelmar.com/images/2015/homepage/thumbnails/tx.jpg",
         "id" : "r31",
         "comps" : [],
         "download" : {
            "receiveFirst" : 80,
            "len" : 7765,
            "dns" : 0,
            "dnsEnd" : -1,
            "receiveHeadersEnd" : 187,
            "sslEnd" : -1,
            "connectEnd" : 107,
            "connectStart" : 0,
            "id" : "download_31",
            "receivedTime" : "1004.16800007224",
            "sslStart" : -1,
            "dnsStart" : -1,
            "receiveLast" : 817.168000072241,
            "s_time" : 621.71300011687,
            "sendEnd" : 107,
            "sendStart" : 107,
            "type" : "image/jpeg"
         }
      },
      {
         "when_comp_start" : -1,
         "url" : "http://www.google-analytics.com/ga.js",
         "id" : "r50",
         "comps" : [
            {
               "s_time" : 1082.95400021598,
               "time" : 48.5309998039102,
               "type" : null,
               "id" : "comp_104",
               "e_time" : 1131.48500001989
            }
         ],
         "download" : {
            "receiveFirst" : 86,
            "len" : 41014,
            "dns" : 0,
            "dnsEnd" : -1,
            "receiveHeadersEnd" : 86,
            "sslEnd" : -1,
            "connectEnd" : 0,
            "connectStart" : 0,
            "id" : "download_32",
            "receivedTime" : "1029.87200021744",
            "sslStart" : -1,
            "dnsStart" : -1,
            "receiveLast" : 943.872000217438,
            "s_time" : 757.60000012815,
            "sendEnd" : 0,
            "sendStart" : 0,
            "type" : "text/javascript"
         }
      },
      {
         "when_comp_start" : -1,
         "url" : "http://original.testbed.localhost/www.jelmar.com/images/2015/homepage/thumbnails/outdoor.jpg",
         "id" : "r32",
         "comps" : [],
         "download" : {
            "receiveFirst" : 100,
            "len" : 10846,
            "dns" : 0,
            "dnsEnd" : -1,
            "receiveHeadersEnd" : 235,
            "sslEnd" : -1,
            "connectEnd" : 135,
            "connectStart" : 0,
            "id" : "download_33",
            "receivedTime" : "1025.34500020556",
            "sslStart" : -1,
            "dnsStart" : -1,
            "receiveLast" : 790.345000205562,
            "s_time" : 628.103000111878,
            "sendEnd" : 135,
            "sendStart" : 135,
            "type" : "image/jpeg"
         }
      },
      {
         "when_comp_start" : -1,
         "url" : "http://original.testbed.localhost/www.jelmar.com/images/2015/homepage/thumbnails/gm.jpg",
         "id" : "r36",
         "comps" : [],
         "download" : {
            "receiveFirst" : 123,
            "len" : 13696,
            "dns" : 0,
            "dnsEnd" : -1,
            "receiveHeadersEnd" : 170,
            "sslEnd" : -1,
            "connectEnd" : 47,
            "connectStart" : 0,
            "id" : "download_34",
            "receivedTime" : "1033.75600022264",
            "sslStart" : -1,
            "dnsStart" : -1,
            "receiveLast" : 863.756000222638,
            "s_time" : 763.384000165388,
            "sendEnd" : 47,
            "sendStart" : 47,
            "type" : "image/jpeg"
         }
      },
      {
         "when_comp_start" : -1,
         "url" : "http://original.testbed.localhost/www.jelmar.com/images/2015/homepage/thumbnails/power.jpg",
         "id" : "r37",
         "comps" : [],
         "download" : {
            "receiveFirst" : 91,
            "len" : 8969,
            "dns" : 0,
            "dnsEnd" : -1,
            "receiveHeadersEnd" : 123,
            "sslEnd" : -1,
            "connectEnd" : 32,
            "connectStart" : 0,
            "id" : "download_35",
            "receivedTime" : "1034.21800001524",
            "sslStart" : -1,
            "dnsStart" : -1,
            "receiveLast" : 911.218000015244,
            "s_time" : 810.783000197262,
            "sendEnd" : 32,
            "sendStart" : 32,
            "type" : "image/jpeg"
         }
      },
      {
         "when_comp_start" : -1,
         "url" : "http://original.testbed.localhost/www.jelmar.com/images/2015/homeallkinds.jpg",
         "id" : "r38",
         "comps" : [],
         "download" : {
            "receiveFirst" : 47,
            "len" : 15824,
            "dns" : 0,
            "dnsEnd" : -1,
            "receiveHeadersEnd" : 97,
            "sslEnd" : -1,
            "connectEnd" : 50,
            "connectStart" : 0,
            "id" : "download_36",
            "receivedTime" : "1034.9400001578",
            "sslStart" : -1,
            "dnsStart" : -1,
            "receiveLast" : 937.940000157803,
            "s_time" : 841.870000120252,
            "sendEnd" : 50,
            "sendStart" : 50,
            "type" : "image/jpeg"
         }
      },
      {
         "when_comp_start" : -1,
         "url" : "http://original.testbed.localhost/www.jelmar.com/images/2015/homehowto.jpg",
         "id" : "r39",
         "comps" : [],
         "download" : {
            "receiveFirst" : 20,
            "len" : 4110,
            "dns" : 0,
            "dnsEnd" : -1,
            "receiveHeadersEnd" : 89,
            "sslEnd" : -1,
            "connectEnd" : 69,
            "connectStart" : 0,
            "id" : "download_37",
            "receivedTime" : "1036.56600019895",
            "sslStart" : -1,
            "dnsStart" : -1,
            "receiveLast" : 947.566000198945,
            "s_time" : 867.0310000889,
            "sendEnd" : 69,
            "sendStart" : 69,
            "type" : "image/jpeg"
         }
      },
      {
         "when_comp_start" : -1,
         "url" : "http://original.testbed.localhost/www.jelmar.com/images/2015/homepage/thumbnails/sst.jpg",
         "id" : "r33",
         "comps" : [],
         "download" : {
            "receiveFirst" : 20,
            "len" : 6963,
            "dns" : 0,
            "dnsEnd" : -1,
            "receiveHeadersEnd" : 317,
            "sslEnd" : -1,
            "connectEnd" : 297,
            "connectStart" : 0,
            "id" : "download_38",
            "receivedTime" : "1040.46400007792",
            "sslStart" : -1,
            "dnsStart" : -1,
            "receiveLast" : 723.464000077918,
            "s_time" : 641.283000120893,
            "sendEnd" : 297,
            "sendStart" : 297,
            "type" : "image/jpeg"
         }
      },
      {
         "when_comp_start" : -1,
         "url" : "http://original.testbed.localhost/www.jelmar.com/images/2015/homepage/thumbnails/septic.jpg",
         "id" : "r34",
         "comps" : [],
         "download" : {
            "receiveFirst" : 22,
            "len" : 7320,
            "dns" : 0,
            "dnsEnd" : -1,
            "receiveHeadersEnd" : 277,
            "sslEnd" : -1,
            "connectEnd" : 255,
            "connectStart" : 0,
            "id" : "download_39",
            "receivedTime" : "1042.46100015007",
            "sslStart" : -1,
            "dnsStart" : -1,
            "receiveLast" : 765.46100015007,
            "s_time" : 683.135000057518,
            "sendEnd" : 255,
            "sendStart" : 255,
            "type" : "image/jpeg"
         }
      },
      {
         "when_comp_start" : -1,
         "url" : "http://original.testbed.localhost/www.jelmar.com/images/2015/homeretaillocator.jpg",
         "id" : "r40",
         "comps" : [],
         "download" : {
            "receiveFirst" : 20,
            "len" : 4375,
            "dns" : 0,
            "dnsEnd" : -1,
            "receiveHeadersEnd" : 58,
            "sslEnd" : -1,
            "connectEnd" : 38,
            "connectStart" : 0,
            "id" : "download_40",
            "receivedTime" : "1043.7910000328",
            "sslStart" : -1,
            "dnsStart" : -1,
            "receiveLast" : 985.791000032797,
            "s_time" : 905.280000064522,
            "sendEnd" : 38,
            "sendStart" : 38,
            "type" : "image/jpeg"
         }
      },
      {
         "when_comp_start" : -1,
         "url" : "http://original.testbed.localhost/www.jelmar.com/images/2015/homeexperthelp.jpg",
         "id" : "r41",
         "comps" : [],
         "download" : {
            "receiveFirst" : 22,
            "len" : 3934,
            "dns" : 0,
            "dnsEnd" : -1,
            "receiveHeadersEnd" : 53,
            "sslEnd" : -1,
            "connectEnd" : 31,
            "connectStart" : 0,
            "id" : "download_41",
            "receivedTime" : "1044.81200012378",
            "sslStart" : -1,
            "dnsStart" : -1,
            "receiveLast" : 991.812000123784,
            "s_time" : 912.096000043675,
            "sendEnd" : 31,
            "sendStart" : 31,
            "type" : "image/jpeg"
         }
      },
      {
         "when_comp_start" : -1,
         "url" : "http://original.testbed.localhost/www.jelmar.com/images/2015/homefaq.jpg",
         "id" : "r42",
         "comps" : [],
         "download" : {
            "receiveFirst" : 23,
            "len" : 3528,
            "dns" : 0,
            "dnsEnd" : -1,
            "receiveHeadersEnd" : 37,
            "sslEnd" : -1,
            "connectEnd" : 14,
            "connectStart" : 0,
            "id" : "download_42",
            "receivedTime" : "1047.14400018565",
            "sslStart" : -1,
            "dnsStart" : -1,
            "receiveLast" : 1010.14400018565,
            "s_time" : 929.158000042662,
            "sendEnd" : 14,
            "sendStart" : 14,
            "type" : "image/jpeg"
         }
      },
      {
         "when_comp_start" : -1,
         "url" : "http://original.testbed.localhost/www.jelmar.com/images/2015/pinline.gif",
         "id" : "r45",
         "comps" : [],
         "download" : {
            "receiveFirst" : 20,
            "len" : 213,
            "dns" : 0,
            "dnsEnd" : -1,
            "receiveHeadersEnd" : 37,
            "sslEnd" : -1,
            "connectEnd" : 17,
            "connectStart" : 0,
            "id" : "download_43",
            "receivedTime" : "1047.88500000723",
            "sslStart" : -1,
            "dnsStart" : -1,
            "receiveLast" : 1010.88500000723,
            "s_time" : 940.097999991849,
            "sendEnd" : 17,
            "sendStart" : 17,
            "type" : "image/gif"
         }
      },
      {
         "when_comp_start" : -1,
         "url" : "http://original.testbed.localhost/www.jelmar.com/images/2015/homefooterflag.jpg",
         "id" : "r46",
         "comps" : [],
         "download" : {
            "receiveFirst" : 21,
            "len" : 5731,
            "dns" : 0,
            "dnsEnd" : -1,
            "receiveHeadersEnd" : 41,
            "sslEnd" : -1,
            "connectEnd" : 20,
            "connectStart" : 0,
            "id" : "download_44",
            "receivedTime" : "1048.8980000373",
            "sslStart" : -1,
            "dnsStart" : -1,
            "receiveLast" : 1007.8980000373,
            "s_time" : 941.076999995857,
            "sendEnd" : 20,
            "sendStart" : 20,
            "type" : "image/jpeg"
         }
      },
      {
         "when_comp_start" : -1,
         "url" : "http://original.testbed.localhost/www.jelmar.com/images/2015/homefootercertified.jpg",
         "id" : "r47",
         "comps" : [],
         "download" : {
            "receiveFirst" : 21,
            "len" : 9528,
            "dns" : 0,
            "dnsEnd" : -1,
            "receiveHeadersEnd" : 40,
            "sslEnd" : -1,
            "connectEnd" : 19,
            "connectStart" : 0,
            "id" : "download_45",
            "receivedTime" : "1051.34700005874",
            "sslStart" : -1,
            "dnsStart" : -1,
            "receiveLast" : 1011.34700005874,
            "s_time" : 943.355000112206,
            "sendEnd" : 19,
            "sendStart" : 19,
            "type" : "image/jpeg"
         }
      },
      {
         "when_comp_start" : -1,
         "url" : "http://original.testbed.localhost/www.jelmar.com/images/2015/homefooterwomanowened.jpg",
         "id" : "r48",
         "comps" : [],
         "download" : {
            "receiveFirst" : 21,
            "len" : 6490,
            "dns" : 0,
            "dnsEnd" : -1,
            "receiveHeadersEnd" : 28,
            "sslEnd" : -1,
            "connectEnd" : 7,
            "connectStart" : 0,
            "id" : "download_46",
            "receivedTime" : "1053.30900009722",
            "sslStart" : -1,
            "dnsStart" : -1,
            "receiveLast" : 1025.30900009722,
            "s_time" : 957.624000031501,
            "sendEnd" : 7,
            "sendStart" : 7,
            "type" : "image/jpeg"
         }
      },
      {
         "when_comp_start" : -1,
         "url" : "http://original.testbed.localhost/www.jelmar.com/images/2015/homefooterepa.jpg",
         "id" : "r49",
         "comps" : [],
         "download" : {
            "receiveFirst" : 22,
            "len" : 11031,
            "dns" : 0,
            "dnsEnd" : -1,
            "receiveHeadersEnd" : 27,
            "sslEnd" : -1,
            "connectEnd" : 5,
            "connectStart" : 0,
            "id" : "download_47",
            "receivedTime" : "1058.5110001266",
            "sslStart" : -1,
            "dnsStart" : -1,
            "receiveLast" : 1031.5110001266,
            "s_time" : 961.048000026494,
            "sendEnd" : 5,
            "sendStart" : 5,
            "type" : "image/jpeg"
         }
      },
      {
         "when_comp_start" : -1,
         "url" : "http://original.testbed.localhost/www.jelmar.com/images/2015/homepage/thumbnails/mold.jpg",
         "id" : "r35",
         "comps" : [],
         "download" : {
            "receiveFirst" : 24,
            "len" : 9986,
            "dns" : 0,
            "dnsEnd" : -1,
            "receiveHeadersEnd" : 261,
            "sslEnd" : -1,
            "connectEnd" : 237,
            "connectStart" : 0,
            "id" : "download_48",
            "receivedTime" : "1060.13500015251",
            "sslStart" : -1,
            "dnsStart" : -1,
            "receiveLast" : 799.135000152513,
            "s_time" : 728.7470002193,
            "sendEnd" : 237,
            "sendStart" : 237,
            "type" : "image/jpeg"
         }
      }
   ],
   "deps" : [
      {
         "a2" : "r1_c2",
         "time" : -1,
         "id" : "dep1",
         "a1" : "comp_6"
      },
      {
         "a2" : "r1_c3",
         "time" : -1,
         "id" : "dep2",
         "a1" : "comp_15"
      },
      {
         "a2" : "r1_c4",
         "time" : -1,
         "id" : "dep3",
         "a1" : "comp_17"
      },
      {
         "a2" : "r1_c5",
         "time" : -1,
         "id" : "dep4",
         "a1" : "comp_19"
      },
      {
         "a2" : "comp_6",
         "time" : -1,
         "id" : "dep5",
         "a1" : "comp_3"
      },
      {
         "a2" : "comp_19",
         "time" : -1,
         "id" : "dep6",
         "a1" : "comp_17"
      },
      {
         "a2" : "download_48",
         "time" : -1,
         "id" : "dep7",
         "a1" : "r1_c4"
      },
      {
         "a2" : "download_47",
         "time" : -1,
         "id" : "dep8",
         "a1" : "r1_c5"
      },
      {
         "a2" : "download_46",
         "time" : 208.375999936834,
         "id" : "dep9",
         "a1" : "r1_c5"
      },
      {
         "a2" : "download_45",
         "time" : 194.107000017539,
         "id" : "dep10",
         "a1" : "r1_c5"
      },
      {
         "a2" : "download_44",
         "time" : 191.82899990119,
         "id" : "dep11",
         "a1" : "r1_c5"
      },
      {
         "a2" : "download_43",
         "time" : 190.849999897182,
         "id" : "dep12",
         "a1" : "r1_c5"
      },
      {
         "a2" : "download_42",
         "time" : 179.909999947995,
         "id" : "dep13",
         "a1" : "r1_c5"
      },
      {
         "a2" : "download_41",
         "time" : 162.847999949008,
         "id" : "dep14",
         "a1" : "r1_c5"
      },
      {
         "a2" : "download_40",
         "time" : 156.031999969855,
         "id" : "dep15",
         "a1" : "r1_c5"
      },
      {
         "a2" : "download_39",
         "time" : 7.031999994069,
         "id" : "dep16",
         "a1" : "r1_c4"
      },
      {
         "a2" : "download_38",
         "time" : -1,
         "id" : "dep17",
         "a1" : "r1_c2"
      },
      {
         "a2" : "download_37",
         "time" : 117.782999994233,
         "id" : "dep18",
         "a1" : "r1_c5"
      },
      {
         "a2" : "download_36",
         "time" : 92.6220000255851,
         "id" : "dep19",
         "a1" : "r1_c5"
      },
      {
         "a2" : "download_35",
         "time" : 61.5350001025951,
         "id" : "dep20",
         "a1" : "r1_c5"
      },
      {
         "a2" : "download_34",
         "time" : 14.136000070721,
         "id" : "dep21",
         "a1" : "r1_c5"
      },
      {
         "a2" : "download_33",
         "time" : 280.26399994269,
         "id" : "dep22",
         "a1" : "r1_c2"
      },
      {
         "a2" : "download_32",
         "time" : 8.35200003348302,
         "id" : "dep23",
         "a1" : "r1_c5"
      },
      {
         "a2" : "download_31",
         "time" : 273.873999947682,
         "id" : "dep24",
         "a1" : "r1_c2"
      },
      {
         "a2" : "download_30",
         "time" : 246.038999874145,
         "id" : "dep25",
         "a1" : "r1_c2"
      },
      {
         "a2" : "download_29",
         "time" : 216.843999922275,
         "id" : "dep26",
         "a1" : "r1_c2"
      },
      {
         "a2" : "download_28",
         "time" : -1,
         "id" : "dep27",
         "a1" : "r1_c1"
      },
      {
         "a2" : "download_27",
         "time" : 165.955999866128,
         "id" : "dep28",
         "a1" : "r1_c1"
      },
      {
         "a2" : "download_26",
         "time" : 162.284999853,
         "id" : "dep29",
         "a1" : "r1_c1"
      },
      {
         "a2" : "download_25",
         "time" : 156.649000011384,
         "id" : "dep30",
         "a1" : "r1_c1"
      },
      {
         "a2" : "download_24",
         "time" : 146.888999966904,
         "id" : "dep31",
         "a1" : "r1_c2"
      },
      {
         "a2" : "download_23",
         "time" : 148.792999796569,
         "id" : "dep32",
         "a1" : "r1_c1"
      },
      {
         "a2" : "download_22",
         "time" : 147.544999839738,
         "id" : "dep33",
         "a1" : "r1_c1"
      },
      {
         "a2" : "download_21",
         "time" : 146.525999996811,
         "id" : "dep34",
         "a1" : "r1_c1"
      },
      {
         "a2" : "download_20",
         "time" : 144.625999964773,
         "id" : "dep35",
         "a1" : "r1_c1"
      },
      {
         "a2" : "download_19",
         "time" : 140.76599990949,
         "id" : "dep36",
         "a1" : "r1_c1"
      },
      {
         "a2" : "download_18",
         "time" : 122.348999837413,
         "id" : "dep37",
         "a1" : "r1_c1"
      },
      {
         "a2" : "download_17",
         "time" : 117.396999849006,
         "id" : "dep38",
         "a1" : "r1_c1"
      },
      {
         "a2" : "download_16",
         "time" : 117.288999957963,
         "id" : "dep39",
         "a1" : "r1_c1"
      },
      {
         "a2" : "download_15",
         "time" : 117.193999933078,
         "id" : "dep40",
         "a1" : "r1_c1"
      },
      {
         "a2" : "download_14",
         "time" : 117.09599988535,
         "id" : "dep41",
         "a1" : "r1_c1"
      },
      {
         "a2" : "download_13",
         "time" : 116.95499997586,
         "id" : "dep42",
         "a1" : "r1_c1"
      },
      {
         "a2" : "download_12",
         "time" : 114.777999930083,
         "id" : "dep43",
         "a1" : "r1_c1"
      },
      {
         "a2" : "download_11",
         "time" : 116.762999910861,
         "id" : "dep44",
         "a1" : "r1_c1"
      },
      {
         "a2" : "download_10",
         "time" : 116.85899994336,
         "id" : "dep45",
         "a1" : "r1_c1"
      },
      {
         "a2" : "download_9",
         "time" : 111.828999826684,
         "id" : "dep46",
         "a1" : "r1_c1"
      },
      {
         "a2" : "download_8",
         "time" : 92.3130000010134,
         "id" : "dep47",
         "a1" : "r1_c1"
      },
      {
         "a2" : "download_7",
         "time" : 7.4859999585894,
         "id" : "dep48",
         "a1" : "r1_c1"
      },
      {
         "a2" : "download_6",
         "time" : 18.7779997941104,
         "id" : "dep49",
         "a1" : "r1_c1"
      },
      {
         "a2" : "download_6",
         "time" : 18.7779997941104,
         "id" : "dep50",
         "a1" : "r1_c1"
      },
      {
         "a2" : "download_5",
         "time" : 7.1969998534764,
         "id" : "dep51",
         "a1" : "r1_c1"
      },
      {
         "a2" : "download_4",
         "time" : 7.2979999240484,
         "id" : "dep52",
         "a1" : "r1_c1"
      },
      {
         "a2" : "download_3",
         "time" : 18.0699999909844,
         "id" : "dep53",
         "a1" : "r1_c1"
      },
      {
         "a2" : "download_3",
         "time" : 18.0699999909844,
         "id" : "dep54",
         "a1" : "r1_c1"
      },
      {
         "a2" : "download_2",
         "time" : 7.27699999697541,
         "id" : "dep55",
         "a1" : "r1_c1"
      },
      {
         "a2" : "download_1",
         "time" : 5.026999861002,
         "id" : "dep56",
         "a1" : "r1_c1"
      }
   ]
}
