{
   "n_download_no_trigger" : 1,
   "start_activity" : "download_0",
   "name" : "original.testbed.localhost_www.upworthy.com_",
   "load_activity" : -1,
   "objs" : [
      {
         "when_comp_start" : 1,
         "url" : "http://original.testbed.localhost/www.upworthy.com/",
         "id" : "r14",
         "comps" : [],
         "download" : {
            "receiveFirst" : 50,
            "len" : 32768,
            "dns" : 0,
            "dnsEnd" : -1,
            "receiveHeadersEnd" : 72,
            "sslEnd" : -1,
            "connectEnd" : 21,
            "connectStart" : 0,
            "id" : "download_0",
            "receivedTime" : "113.159999949858",
            "sslStart" : -1,
            "dnsStart" : -1,
            "receiveLast" : 41.1599999498576,
            "s_time" : 0,
            "sendEnd" : 22,
            "sendStart" : 21,
            "type" : "text/html"
         }
      }
   ],
   "deps" : []
}
