{
   "n_download_no_trigger" : 1,
   "start_activity" : "download_0",
   "name" : "original.testbed.localhost_www.independent.com_",
   "load_activity" : -1,
   "objs" : [
      {
         "when_comp_start" : 1,
         "url" : "http://original.testbed.localhost/www.independent.com/",
         "id" : "r1",
         "comps" : [
            {
               "s_time" : 121.933000045829,
               "time" : 262.237000046297,
               "id" : "r1_c1",
               "type" : "evalhtml",
               "e_time" : 384.170000092126
            },
            {
               "s_time" : 410.781000042334,
               "time" : -734933957.696,
               "id" : "r1_c2",
               "type" : "evalhtml",
               "e_time" : -734933546.915
            },
            {
               "s_time" : 413.467000005767,
               "time" : -734933960.382,
               "id" : "r1_c3",
               "type" : "evalhtml",
               "e_time" : -734933546.915
            },
            {
               "s_time" : 445.296999998391,
               "time" : 335.189000004902,
               "type" : "evalhtml",
               "id" : "r1_c4",
               "e_time" : 780.486000003293
            }
         ],
         "download" : {
            "receiveFirst" : 9,
            "len" : 79511,
            "dns" : 0,
            "dnsEnd" : -1,
            "receiveHeadersEnd" : 14,
            "sslEnd" : -1,
            "connectEnd" : 4,
            "connectStart" : 0,
            "id" : "download_0",
            "receivedTime" : "189.071000088006",
            "sslStart" : -1,
            "dnsStart" : -1,
            "receiveLast" : 175.071000088006,
            "s_time" : 0,
            "sendEnd" : 5,
            "sendStart" : 4,
            "type" : "text/html"
         }
      },
      {
         "when_comp_start" : -1,
         "url" : "http://original.testbed.localhost/media.independent.com/css/baseflip3.min.css",
         "id" : "r2",
         "comps" : [
            {
               "s_time" : 225.814000004902,
               "time" : 14.649000018836,
               "type" : 4,
               "id" : "comp_0",
               "e_time" : 240.463000023738
            }
         ],
         "download" : {
            "receiveFirst" : 63,
            "len" : 19659,
            "dns" : 0,
            "dnsEnd" : -1,
            "receiveHeadersEnd" : 68,
            "sslEnd" : -1,
            "connectEnd" : 5,
            "connectStart" : 0,
            "id" : "download_1",
            "receivedTime" : "225.509000010788",
            "sslStart" : -1,
            "dnsStart" : -1,
            "receiveLast" : 157.509000010788,
            "s_time" : 125.227999989875,
            "sendEnd" : 5,
            "sendStart" : 5,
            "type" : "text/css"
         }
      },
      {
         "when_comp_start" : -1,
         "url" : "http://original.testbed.localhost/yui.yahooapis.com/2.2.0/build/fonts/fonts-min.css",
         "id" : "r3",
         "comps" : [
            {
               "s_time" : 264.45000001695,
               "time" : 0.517999986186965,
               "type" : 4,
               "id" : "comp_1",
               "e_time" : 264.968000003137
            }
         ],
         "download" : {
            "receiveFirst" : 60,
            "len" : 416,
            "dns" : 0,
            "dnsEnd" : -1,
            "receiveHeadersEnd" : 123,
            "sslEnd" : -1,
            "connectEnd" : 63,
            "connectStart" : 0,
            "id" : "download_2",
            "receivedTime" : "264.144000015222",
            "sslStart" : -1,
            "dnsStart" : -1,
            "receiveLast" : 141.144000015222,
            "s_time" : 127.090000081807,
            "sendEnd" : 63,
            "sendStart" : 63,
            "type" : "text/css"
         }
      },
      {
         "when_comp_start" : -1,
         "url" : "http://original.testbed.localhost/media.independent.com/css/base_01-07-05.min.css",
         "id" : "r4",
         "comps" : [
            {
               "s_time" : 268.966000061482,
               "time" : 1.09899998642499,
               "type" : 4,
               "id" : "comp_2",
               "e_time" : 270.065000047907
            }
         ],
         "download" : {
            "receiveFirst" : 24,
            "len" : 860,
            "dns" : 0,
            "dnsEnd" : -1,
            "receiveHeadersEnd" : 126,
            "sslEnd" : -1,
            "connectEnd" : 102,
            "connectStart" : 0,
            "id" : "download_3",
            "receivedTime" : "268.600000068545",
            "sslStart" : -1,
            "dnsStart" : -1,
            "receiveLast" : 142.600000068545,
            "s_time" : 128.891000058502,
            "sendEnd" : 102,
            "sendStart" : 102,
            "type" : "text/css"
         }
      },
      {
         "when_comp_start" : -1,
         "url" : "http://original.testbed.localhost/media.independent.com/css/newnav.realestate.min.css",
         "id" : "r5",
         "comps" : [
            {
               "s_time" : 287.918000016361,
               "time" : 3.50900006014899,
               "type" : 4,
               "id" : "comp_3",
               "e_time" : 291.42700007651
            }
         ],
         "download" : {
            "receiveFirst" : 44,
            "len" : 4098,
            "dns" : 0,
            "dnsEnd" : 1,
            "receiveHeadersEnd" : 144,
            "sslEnd" : -1,
            "connectEnd" : 100,
            "connectStart" : 0,
            "id" : "download_4",
            "receivedTime" : "287.155000027269",
            "sslStart" : -1,
            "dnsStart" : 1,
            "receiveLast" : 143.155000027269,
            "s_time" : 132.217000005767,
            "sendEnd" : 100,
            "sendStart" : 100,
            "type" : "text/css"
         }
      },
      {
         "when_comp_start" : -1,
         "url" : "http://original.testbed.localhost/media.independent.com/css/homepage2.css",
         "id" : "r6",
         "comps" : [
            {
               "s_time" : 302.261000033468,
               "time" : 2.37999996170402,
               "type" : 4,
               "id" : "comp_4",
               "e_time" : 304.640999995172
            }
         ],
         "download" : {
            "receiveFirst" : 57,
            "len" : 2490,
            "dns" : 0,
            "dnsEnd" : 0,
            "receiveHeadersEnd" : 146,
            "sslEnd" : -1,
            "connectEnd" : 89,
            "connectStart" : 0,
            "id" : "download_5",
            "receivedTime" : "301.467000041157",
            "sslStart" : -1,
            "dnsStart" : 0,
            "receiveLast" : 155.467000041157,
            "s_time" : 143.966000061482,
            "sendEnd" : 89,
            "sendStart" : 89,
            "type" : "text/css"
         }
      },
      {
         "when_comp_start" : -1,
         "url" : "http://original.testbed.localhost/independent.media.clients.ellingtoncms.com/static/standard/stylesheets/disqus_styles.css",
         "id" : "r7",
         "comps" : [
            {
               "s_time" : 317.672000033781,
               "time" : 1.83099997229903,
               "type" : 4,
               "id" : "comp_5",
               "e_time" : 319.50300000608
            }
         ],
         "download" : {
            "receiveFirst" : 73,
            "len" : 1864,
            "dns" : 0,
            "dnsEnd" : 0,
            "receiveHeadersEnd" : 161,
            "sslEnd" : -1,
            "connectEnd" : 88,
            "connectStart" : 0,
            "id" : "download_6",
            "receivedTime" : "317.15300003998",
            "sslStart" : -1,
            "dnsStart" : 0,
            "receiveLast" : 156.15300003998,
            "s_time" : 144.516000058502,
            "sendEnd" : 88,
            "sendStart" : 88,
            "type" : "text/css"
         }
      },
      {
         "when_comp_start" : -1,
         "url" : "http://original.testbed.localhost/fonts.googleapis.com/css%3Ffamily=Oswald:400,700,300.css",
         "id" : "r8",
         "comps" : [
            {
               "s_time" : 329.116000095382,
               "time" : 0.640999991447018,
               "type" : 4,
               "id" : "comp_6",
               "e_time" : 329.757000086829
            }
         ],
         "download" : {
            "receiveFirst" : 84,
            "len" : 707,
            "dns" : 0,
            "dnsEnd" : 20,
            "receiveHeadersEnd" : 172,
            "sslEnd" : -1,
            "connectEnd" : 88,
            "connectStart" : 0,
            "id" : "download_7",
            "receivedTime" : "328.444999991916",
            "sslStart" : -1,
            "dnsStart" : 20,
            "receiveLast" : 156.444999991916,
            "s_time" : 144.943000050262,
            "sendEnd" : 88,
            "sendStart" : 88,
            "type" : "text/css"
         }
      },
      {
         "when_comp_start" : -1,
         "url" : "http://original.testbed.localhost/cdn.jsdelivr.net/jquery.slick/1.5.8/slick.css",
         "id" : "r9",
         "comps" : [
            {
               "s_time" : 333.450000034645,
               "time" : 1.98399997316301,
               "type" : 4,
               "id" : "comp_7",
               "e_time" : 335.434000007808
            }
         ],
         "download" : {
            "receiveFirst" : 60,
            "len" : 1767,
            "dns" : 0,
            "dnsEnd" : -1,
            "receiveHeadersEnd" : 174,
            "sslEnd" : -1,
            "connectEnd" : 114,
            "connectStart" : 0,
            "id" : "download_8",
            "receivedTime" : "332.290000049397",
            "sslStart" : -1,
            "dnsStart" : -1,
            "receiveLast" : 158.290000049397,
            "s_time" : 145.40100004524,
            "sendEnd" : 114,
            "sendStart" : 114,
            "type" : "text/css"
         }
      },
      {
         "when_comp_start" : -1,
         "url" : "http://original.testbed.localhost/cdn.jsdelivr.net/jquery.slick/1.5.8/slick-theme.css",
         "id" : "r10",
         "comps" : [
            {
               "s_time" : 341.415000031702,
               "time" : 2.65499996021401,
               "type" : 4,
               "id" : "comp_8",
               "e_time" : 344.069999991916
            }
         ],
         "download" : {
            "receiveFirst" : 60,
            "len" : 3041,
            "dns" : 0,
            "dnsEnd" : -1,
            "receiveHeadersEnd" : 181,
            "sslEnd" : -1,
            "connectEnd" : 121,
            "connectStart" : 0,
            "id" : "download_9",
            "receivedTime" : "340.65200004261",
            "sslStart" : -1,
            "dnsStart" : -1,
            "receiveLast" : 159.65200004261,
            "s_time" : 145.828000037,
            "sendEnd" : 121,
            "sendStart" : 121,
            "type" : "text/css"
         }
      },
      {
         "when_comp_start" : -1,
         "url" : "http://original.testbed.localhost/media.independent.com/css/type.min.css",
         "id" : "r14",
         "comps" : [
            {
               "s_time" : 359.054000000469,
               "time" : 2.35000008251603,
               "type" : 2,
               "id" : "comp_9",
               "e_time" : 361.404000082985
            }
         ],
         "download" : {
            "receiveFirst" : 58,
            "len" : 1331,
            "dns" : 0,
            "dnsEnd" : -1,
            "receiveHeadersEnd" : 118,
            "sslEnd" : -1,
            "connectEnd" : 60,
            "connectStart" : 0,
            "id" : "download_10",
            "receivedTime" : "356.613000039943",
            "sslStart" : -1,
            "dnsStart" : -1,
            "receiveLast" : 238.613000039943,
            "s_time" : 226.364000001922,
            "sendEnd" : 60,
            "sendStart" : 60,
            "type" : "text/css"
         }
      },
      {
         "when_comp_start" : -1,
         "url" : "http://original.testbed.localhost/media.independent.com/css/rsscb2.min.css",
         "id" : "r15",
         "comps" : [
            {
               "s_time" : 362.625000067055,
               "time" : 16.875999979675,
               "type" : 2,
               "id" : "comp_10",
               "e_time" : 379.50100004673
            }
         ],
         "download" : {
            "receiveFirst" : 47,
            "len" : 1690,
            "dns" : 0,
            "dnsEnd" : -1,
            "receiveHeadersEnd" : 120,
            "sslEnd" : -1,
            "connectEnd" : 73,
            "connectStart" : 0,
            "id" : "download_11",
            "receivedTime" : "361.80100007914",
            "sslStart" : -1,
            "dnsStart" : -1,
            "receiveLast" : 241.80100007914,
            "s_time" : 226.729999994859,
            "sendEnd" : 73,
            "sendStart" : 73,
            "type" : "text/css"
         }
      },
      {
         "when_comp_start" : -1,
         "url" : "http://original.testbed.localhost/media.independent.com/ddtabmenu/ddtabmenu.min.js",
         "id" : "r11",
         "comps" : [
            {
               "s_time" : 403.305000043474,
               "time" : 7.47599999885995,
               "type" : 1,
               "id" : "comp_13",
               "e_time" : 410.781000042334
            }
         ],
         "download" : {
            "receiveFirst" : 42,
            "len" : 1422,
            "dns" : 0,
            "dnsEnd" : -1,
            "receiveHeadersEnd" : 210,
            "sslEnd" : -1,
            "connectEnd" : 168,
            "connectStart" : 0,
            "id" : "download_12",
            "receivedTime" : "381.85100001283",
            "sslStart" : -1,
            "dnsStart" : -1,
            "receiveLast" : 171.85100001283,
            "s_time" : 146.621000021696,
            "sendEnd" : 168,
            "sendStart" : 168,
            "type" : "application/javascript"
         }
      },
      {
         "when_comp_start" : -1,
         "url" : "http://original.testbed.localhost/media.independent.com/js/test/columndaysnew.js",
         "id" : "r12",
         "comps" : [
            {
               "s_time" : 411.697000032291,
               "time" : 1.76999997347599,
               "type" : 1,
               "id" : "comp_14",
               "e_time" : 413.467000005767
            }
         ],
         "download" : {
            "receiveFirst" : 36,
            "len" : 8148,
            "dns" : 0,
            "dnsEnd" : -1,
            "receiveHeadersEnd" : 215,
            "sslEnd" : -1,
            "connectEnd" : 178,
            "connectStart" : 0,
            "id" : "download_13",
            "receivedTime" : "382.553000003099",
            "sslStart" : -1,
            "dnsStart" : -1,
            "receiveLast" : 167.553000003099,
            "s_time" : 147.018000017852,
            "sendEnd" : 179,
            "sendStart" : 178,
            "type" : "application/javascript"
         }
      },
      {
         "when_comp_start" : -1,
         "url" : "http://original.testbed.localhost/partner.googleadservices.com/gampad/google_service.js",
         "id" : "r13",
         "comps" : [
            {
               "s_time" : 427.352000027895,
               "time" : 17.944999970496,
               "type" : 1,
               "id" : "comp_17",
               "e_time" : 445.296999998391
            }
         ],
         "download" : {
            "receiveFirst" : 40,
            "len" : 6295,
            "dns" : 0,
            "dnsEnd" : -1,
            "receiveHeadersEnd" : 221,
            "sslEnd" : -1,
            "connectEnd" : 181,
            "connectStart" : 0,
            "id" : "download_14",
            "receivedTime" : "391.799000091851",
            "sslStart" : -1,
            "dnsStart" : -1,
            "receiveLast" : 170.799000091851,
            "s_time" : 147.720000008121,
            "sendEnd" : 181,
            "sendStart" : 181,
            "type" : "application/javascript"
         }
      },
      {
         "when_comp_start" : -1,
         "url" : "http://original.testbed.localhost/media.independent.com/ddtabmenu/ddtabmenunew.css",
         "id" : "r22",
         "comps" : [
            {
               "s_time" : 399.215000099503,
               "time" : 60.027999919839,
               "type" : 4,
               "id" : "comp_12",
               "e_time" : 459.243000019342
            }
         ],
         "download" : {
            "receiveFirst" : 12,
            "len" : 2427,
            "dns" : 0,
            "dnsEnd" : -1,
            "receiveHeadersEnd" : 18,
            "sslEnd" : -1,
            "connectEnd" : 6,
            "connectStart" : 0,
            "id" : "download_15",
            "receivedTime" : "397.659000009298",
            "sslStart" : -1,
            "dnsStart" : -1,
            "receiveLast" : 379.659000009298,
            "s_time" : 376.754000084475,
            "sendEnd" : 6,
            "sendStart" : 6,
            "type" : "text/css"
         }
      },
      {
         "when_comp_start" : -1,
         "url" : "http://original.testbed.localhost/ajax.googleapis.com/ajax/libs/jquery/1.7.1/jquery.min.js",
         "id" : "r23",
         "comps" : [],
         "download" : {
            "receiveFirst" : 15,
            "len" : 93868,
            "dns" : 0,
            "dnsEnd" : -1,
            "receiveHeadersEnd" : 20,
            "sslEnd" : -1,
            "connectEnd" : 5,
            "connectStart" : 0,
            "id" : "download_16",
            "receivedTime" : "829.818000085652",
            "sslStart" : -1,
            "dnsStart" : -1,
            "receiveLast" : 809.818000085652,
            "s_time" : 384.170000092126,
            "sendEnd" : 5,
            "sendStart" : 5,
            "type" : "application/javascript"
         }
      },
      {
         "when_comp_start" : -1,
         "url" : "http://original.testbed.localhost/media.independent.com/js/meganav/jquery.hoverIntent.minified.js",
         "id" : "r26",
         "comps" : [],
         "download" : {
            "receiveFirst" : 240,
            "len" : 1606,
            "dns" : 0,
            "dnsEnd" : -1,
            "receiveHeadersEnd" : 251,
            "sslEnd" : -1,
            "connectEnd" : 11,
            "connectStart" : 0,
            "id" : "download_17",
            "receivedTime" : "715.347000048496",
            "sslStart" : -1,
            "dnsStart" : -1,
            "receiveLast" : 464.347000048496,
            "s_time" : 460.220000008121,
            "sendEnd" : 11,
            "sendStart" : 11,
            "type" : "application/javascript"
         }
      },
      {
         "when_comp_start" : -1,
         "url" : "http://original.testbed.localhost/media.independent.com/js/innerfade/js/jquery.innerfade.min.js",
         "id" : "r27",
         "comps" : [],
         "download" : {
            "receiveFirst" : 252,
            "len" : 1836,
            "dns" : 0,
            "dnsEnd" : -1,
            "receiveHeadersEnd" : 264,
            "sslEnd" : -1,
            "connectEnd" : 12,
            "connectStart" : 0,
            "id" : "download_18",
            "receivedTime" : "731.338000041433",
            "sslStart" : -1,
            "dnsStart" : -1,
            "receiveLast" : 467.338000041433,
            "s_time" : 461.012999992818,
            "sendEnd" : 12,
            "sendStart" : 12,
            "type" : "application/javascript"
         }
      },
      {
         "when_comp_start" : -1,
         "url" : "http://original.testbed.localhost/media.independent.com/swf/Indy_logoWeb6.png",
         "id" : "r28",
         "comps" : [],
         "download" : {
            "receiveFirst" : 264,
            "len" : 4189,
            "dns" : 0,
            "dnsEnd" : -1,
            "receiveHeadersEnd" : 276,
            "sslEnd" : -1,
            "connectEnd" : 12,
            "connectStart" : 0,
            "id" : "download_19",
            "receivedTime" : "779.617000021972",
            "sslStart" : -1,
            "dnsStart" : -1,
            "receiveLast" : 503.617000021972,
            "s_time" : 463.471000082791,
            "sendEnd" : 12,
            "sendStart" : 12,
            "type" : "image/png"
         }
      },
      {
         "when_comp_start" : -1,
         "url" : "http://original.testbed.localhost/media.independent.com/weather-bg-imgs/1x1trnsp.gif",
         "id" : "r29",
         "comps" : [],
         "download" : {
            "receiveFirst" : 42,
            "len" : 43,
            "dns" : 0,
            "dnsEnd" : -1,
            "receiveHeadersEnd" : 56,
            "sslEnd" : -1,
            "connectEnd" : 14,
            "connectStart" : 0,
            "id" : "download_20",
            "receivedTime" : "842.636000015773",
            "sslStart" : -1,
            "dnsStart" : -1,
            "receiveLast" : 786.636000015773,
            "s_time" : 780.486000003293,
            "sendEnd" : 14,
            "sendStart" : 14,
            "type" : "image/gif"
         }
      }
   ],
   "deps" : [
      {
         "a2" : "r1_c2",
         "time" : -1,
         "id" : "dep1",
         "a1" : "comp_13"
      },
      {
         "a2" : "r1_c3",
         "time" : -1,
         "id" : "dep2",
         "a1" : "comp_14"
      },
      {
         "a2" : "r1_c4",
         "time" : -1,
         "id" : "dep3",
         "a1" : "comp_17"
      },
      {
         "a2" : "comp_13",
         "time" : -1,
         "id" : "dep4",
         "a1" : "comp_12"
      },
      {
         "a2" : "comp_14",
         "time" : -1,
         "id" : "dep5",
         "a1" : "comp_13"
      },
      {
         "a2" : "download_20",
         "time" : -1,
         "id" : "dep6",
         "a1" : "r1_c4"
      },
      {
         "a2" : "download_19",
         "time" : 18.1740000844,
         "id" : "dep7",
         "a1" : "r1_c4"
      },
      {
         "a2" : "download_18",
         "time" : 15.715999994427,
         "id" : "dep8",
         "a1" : "r1_c4"
      },
      {
         "a2" : "download_18",
         "time" : 15.715999994427,
         "id" : "dep9",
         "a1" : "r1_c4"
      },
      {
         "a2" : "download_17",
         "time" : 14.92300000973,
         "id" : "dep10",
         "a1" : "r1_c4"
      },
      {
         "a2" : "download_17",
         "time" : 14.92300000973,
         "id" : "dep11",
         "a1" : "r1_c4"
      },
      {
         "a2" : "download_16",
         "time" : -1,
         "id" : "dep12",
         "a1" : "r1_c1"
      },
      {
         "a2" : "download_16",
         "time" : 262.237000046297,
         "id" : "dep13",
         "a1" : "r1_c1"
      },
      {
         "a2" : "download_15",
         "time" : 254.821000038646,
         "id" : "dep14",
         "a1" : "r1_c1"
      },
      {
         "a2" : "download_14",
         "time" : 25.786999962292,
         "id" : "dep15",
         "a1" : "r1_c1"
      },
      {
         "a2" : "download_14",
         "time" : 25.786999962292,
         "id" : "dep16",
         "a1" : "r1_c1"
      },
      {
         "a2" : "download_13",
         "time" : 25.084999972023,
         "id" : "dep17",
         "a1" : "r1_c1"
      },
      {
         "a2" : "download_13",
         "time" : 25.084999972023,
         "id" : "dep18",
         "a1" : "r1_c1"
      },
      {
         "a2" : "download_12",
         "time" : 24.687999975867,
         "id" : "dep19",
         "a1" : "r1_c1"
      },
      {
         "a2" : "download_12",
         "time" : 24.687999975867,
         "id" : "dep20",
         "a1" : "r1_c1"
      },
      {
         "a2" : "download_11",
         "time" : 104.79699994903,
         "id" : "dep21",
         "a1" : "r1_c1"
      },
      {
         "a2" : "download_10",
         "time" : 104.430999956093,
         "id" : "dep22",
         "a1" : "r1_c1"
      },
      {
         "a2" : "download_9",
         "time" : 23.894999991171,
         "id" : "dep23",
         "a1" : "r1_c1"
      },
      {
         "a2" : "download_8",
         "time" : 23.467999999411,
         "id" : "dep24",
         "a1" : "r1_c1"
      },
      {
         "a2" : "download_7",
         "time" : 23.010000004433,
         "id" : "dep25",
         "a1" : "r1_c1"
      },
      {
         "a2" : "download_6",
         "time" : 22.583000012673,
         "id" : "dep26",
         "a1" : "r1_c1"
      },
      {
         "a2" : "download_5",
         "time" : 22.033000015653,
         "id" : "dep27",
         "a1" : "r1_c1"
      },
      {
         "a2" : "download_4",
         "time" : 10.283999959938,
         "id" : "dep28",
         "a1" : "r1_c1"
      },
      {
         "a2" : "download_3",
         "time" : 6.95800001267298,
         "id" : "dep29",
         "a1" : "r1_c1"
      },
      {
         "a2" : "download_2",
         "time" : 5.157000035978,
         "id" : "dep30",
         "a1" : "r1_c1"
      },
      {
         "a2" : "download_1",
         "time" : 3.294999944046,
         "id" : "dep31",
         "a1" : "r1_c1"
      }
   ]
}
