{
   "n_download_no_trigger" : 1,
   "start_activity" : "download_0",
   "name" : "original.testbed.localhost_www.stihl.ch_",
   "load_activity" : -1,
   "objs" : [
      {
         "when_comp_start" : 1,
         "url" : "http://original.testbed.localhost/www.stihl.ch/",
         "id" : "r22",
         "comps" : [
            {
               "s_time" : 69.0600000089034,
               "time" : -977909437.336,
               "id" : "r22_c1",
               "type" : "evalhtml",
               "e_time" : -977909368.276
            },
            {
               "s_time" : 310.607000021264,
               "time" : -977909678.883,
               "id" : "r22_c2",
               "type" : "evalhtml",
               "e_time" : -977909368.276
            },
            {
               "s_time" : 318.60300002154,
               "time" : 95.366999972611,
               "type" : "evalhtml",
               "id" : "r22_c3",
               "e_time" : 413.969999994151
            }
         ],
         "download" : {
            "receiveFirst" : 11,
            "len" : 7540,
            "dns" : 0,
            "dnsEnd" : -1,
            "receiveHeadersEnd" : 17,
            "sslEnd" : -1,
            "connectEnd" : 6,
            "connectStart" : 0,
            "id" : "download_0",
            "receivedTime" : "22.5820000050589",
            "sslStart" : -1,
            "dnsStart" : -1,
            "receiveLast" : 5.58200000505894,
            "s_time" : 0,
            "sendEnd" : 6,
            "sendStart" : 6,
            "type" : "text/html"
         }
      },
      {
         "when_comp_start" : -1,
         "url" : "http://original.testbed.localhost/de.stihl.ch/p/images/background/summer_stihl_mountains.jpg",
         "id" : "r32",
         "comps" : [],
         "download" : {
            "receiveFirst" : 23,
            "len" : 580387,
            "dns" : 0,
            "dnsEnd" : -1,
            "receiveHeadersEnd" : 210,
            "sslEnd" : -1,
            "connectEnd" : 186,
            "connectStart" : 0,
            "id" : "download_1",
            "receivedTime" : "3117.30899999384",
            "sslStart" : -1,
            "dnsStart" : -1,
            "receiveLast" : 2907.30899999384,
            "s_time" : 359.495999990031,
            "sendEnd" : 187,
            "sendStart" : 186,
            "type" : "image/jpeg"
         }
      },
      {
         "when_comp_start" : -1,
         "url" : "http://original.testbed.localhost/de.stihl.ch/p/media/flash/ch-de/teaser.jpg",
         "id" : "r33",
         "comps" : [],
         "download" : {
            "receiveFirst" : 26,
            "len" : 233815,
            "dns" : 0,
            "dnsEnd" : -1,
            "receiveHeadersEnd" : 210,
            "sslEnd" : -1,
            "connectEnd" : 184,
            "connectStart" : 0,
            "id" : "download_2",
            "receivedTime" : "1823.69899994228",
            "sslStart" : -1,
            "dnsStart" : -1,
            "receiveLast" : 1613.69899994228,
            "s_time" : 364.164999919012,
            "sendEnd" : 184,
            "sendStart" : 184,
            "type" : "image/jpeg"
         }
      }
   ],
   "deps" : [
      {
         "a2" : "r22_c2",
         "time" : -1,
         "id" : "dep1",
         "a1" : "comp_2"
      },
      {
         "a2" : "r22_c3",
         "time" : -1,
         "id" : "dep2",
         "a1" : "comp_6"
      },
      {
         "a2" : "download_2",
         "time" : 45.561999897472,
         "id" : "dep3",
         "a1" : "r22_c3"
      },
      {
         "a2" : "download_1",
         "time" : 40.892999968491,
         "id" : "dep4",
         "a1" : "r22_c3"
      }
   ]
}
