{
   "n_download_no_trigger" : 1,
   "start_activity" : "download_0",
   "name" : "original.testbed.localhost_www.pewresearch.org_",
   "load_activity" : -1,
   "objs" : [
      {
         "when_comp_start" : 1,
         "url" : "http://original.testbed.localhost/www.pewresearch.org/",
         "id" : "r60",
         "comps" : [],
         "download" : {
            "receiveFirst" : 6,
            "len" : 32768,
            "dns" : 0,
            "dnsEnd" : -1,
            "receiveHeadersEnd" : 12,
            "sslEnd" : -1,
            "connectEnd" : 5,
            "connectStart" : 0,
            "id" : "download_0",
            "receivedTime" : "79.1779999854043",
            "sslStart" : -1,
            "dnsStart" : -1,
            "receiveLast" : 67.1779999854043,
            "s_time" : 0,
            "sendEnd" : 6,
            "sendStart" : 5,
            "type" : "text/html"
         }
      }
   ],
   "deps" : []
}
