{
   "n_download_no_trigger" : 1,
   "start_activity" : "download_0",
   "name" : "original.testbed.localhost_www.ckd8.com_",
   "load_activity" : -1,
   "objs" : [
      {
         "when_comp_start" : 1,
         "url" : "http://original.testbed.localhost/www.ckd8.com/",
         "id" : "r1",
         "comps" : [
            {
               "s_time" : 144.058000063524,
               "time" : 12.497999938205,
               "id" : "r1_c1",
               "type" : "evalhtml",
               "e_time" : 156.556000001729
            },
            {
               "s_time" : 252.304000081494,
               "time" : -950559889.393,
               "id" : "r1_c2",
               "type" : "evalhtml",
               "e_time" : -950559637.089
            },
            {
               "s_time" : 716.355000040494,
               "time" : 1561.17100000848,
               "id" : "r1_c3",
               "type" : "evalhtml",
               "e_time" : 2277.52600004897
            },
            {
               "s_time" : 2308.36500006262,
               "time" : -950561945.454,
               "id" : "r1_c4",
               "type" : "evalhtml",
               "e_time" : -950559637.089
            },
            {
               "s_time" : 2310.31800003257,
               "time" : -950561947.407,
               "id" : "r1_c5",
               "type" : "evalhtml",
               "e_time" : -950559637.089
            },
            {
               "s_time" : 2310.83700002637,
               "time" : -950561947.926,
               "id" : "r1_c6",
               "type" : "evalhtml",
               "e_time" : -950559637.089
            },
            {
               "s_time" : 2311.35600002017,
               "time" : 0.151999993249774,
               "type" : "evalhtml",
               "id" : "r1_c7",
               "e_time" : 2311.50800001342
            }
         ],
         "download" : {
            "receiveFirst" : 11,
            "len" : 12383,
            "dns" : 0,
            "dnsEnd" : -1,
            "receiveHeadersEnd" : 15,
            "sslEnd" : -1,
            "connectEnd" : 4,
            "connectStart" : 0,
            "id" : "download_0",
            "receivedTime" : "137.680000043474",
            "sslStart" : -1,
            "dnsStart" : -1,
            "receiveLast" : 122.680000043474,
            "s_time" : 0,
            "sendEnd" : 4,
            "sendStart" : 4,
            "type" : "text/html"
         }
      },
      {
         "when_comp_start" : 1,
         "url" : "http://original.testbed.localhost/images/logo.gif",
         "id" : "r7",
         "comps" : [],
         "download" : {
            "receiveFirst" : 75,
            "len" : 305,
            "dns" : 0,
            "dnsEnd" : -1,
            "receiveHeadersEnd" : 132,
            "sslEnd" : -1,
            "connectEnd" : 56,
            "connectStart" : 0,
            "id" : "download_1",
            "receivedTime" : "301.92600004375",
            "sslStart" : -1,
            "dnsStart" : -1,
            "receiveLast" : 169.92600004375,
            "s_time" : 156.556000001729,
            "sendEnd" : 57,
            "sendStart" : 56,
            "type" : "text/html"
         }
      },
      {
         "when_comp_start" : -1,
         "url" : "http://siteapp.baidu.com/static/webappservice/uaredirect.js",
         "id" : "r5",
         "comps" : [
            {
               "s_time" : 714.035000069998,
               "time" : 2.31999997049604,
               "type" : 1,
               "id" : "comp_3",
               "e_time" : 716.355000040494
            }
         ],
         "download" : {
            "receiveFirst" : 261,
            "len" : 819,
            "dns" : 3,
            "dnsEnd" : 23,
            "receiveHeadersEnd" : 540,
            "sslEnd" : -1,
            "connectEnd" : 279,
            "connectStart" : 0,
            "id" : "download_2",
            "receivedTime" : "710.465000011027",
            "sslStart" : -1,
            "dnsStart" : 20,
            "receiveLast" : 170.465000011027,
            "s_time" : 153.671000036411,
            "sendEnd" : 279,
            "sendStart" : 279,
            "type" : "text/javascript"
         }
      },
      {
         "when_comp_start" : -1,
         "url" : "http://cpro.baidustatic.com/cpro/ui/c.js",
         "id" : "r6",
         "comps" : [],
         "download" : {
            "receiveFirst" : 235,
            "len" : 85068,
            "dns" : 335,
            "dnsEnd" : 358,
            "receiveHeadersEnd" : 830,
            "sslEnd" : -1,
            "connectEnd" : 594,
            "connectStart" : 0,
            "id" : "download_3",
            "receivedTime" : "1347.85500005819",
            "sslStart" : -1,
            "dnsStart" : 23,
            "receiveLast" : 517.855000058189,
            "s_time" : 154.526000027545,
            "sendEnd" : 595,
            "sendStart" : 594,
            "type" : "application/x-javascript"
         }
      },
      {
         "when_comp_start" : -1,
         "url" : "http://pos.baidu.com/acomdi=u703654&dcb=BAIDU_DUP2_define&dtm=BAIDU_DUP2_SETJSONADSLOT&dbv=2&dci=0&dri=0&dis=0&dai=1&dds=&drs=1&dvi=1440492674&ltu=http%3A%2F%2Foriginal.testbed.localhost%2Fwww.ckd8.com%2F&liu=&ltr=&lcr=&ps=46x8&psr=360x640&par=360x640&pcs=360x576&pss=958x54&pis=-1x-1&cfv=0&ccd=32&c",
         "id" : "r12",
         "comps" : [],
         "download" : {
            "receiveFirst" : 289,
            "len" : 1458,
            "dns" : 2,
            "dnsEnd" : 6,
            "receiveHeadersEnd" : 574,
            "sslEnd" : -1,
            "connectEnd" : 285,
            "connectStart" : 0,
            "id" : "download_4",
            "receivedTime" : "2157.85199997481",
            "sslStart" : -1,
            "dnsStart" : 4,
            "receiveLast" : 1583.85199997481,
            "s_time" : 1576.55300002079,
            "sendEnd" : 285,
            "sendStart" : 285,
            "type" : "text/javascript"
         }
      },
      {
         "when_comp_start" : 1,
         "url" : "http://original.testbed.localhost/images/logo.gif",
         "id" : "r14",
         "comps" : [],
         "download" : {
            "receiveFirst" : 11,
            "len" : 305,
            "dns" : 0,
            "dnsEnd" : -1,
            "receiveHeadersEnd" : 15,
            "sslEnd" : -1,
            "connectEnd" : 4,
            "connectStart" : 0,
            "id" : "download_5",
            "receivedTime" : "2404.64800002519",
            "sslStart" : -1,
            "dnsStart" : -1,
            "receiveLast" : 2389.64800002519,
            "s_time" : 2277.52600004897,
            "sendEnd" : 4,
            "sendStart" : 4,
            "type" : "text/html"
         }
      }
   ],
   "deps" : [
      {
         "a2" : "r1_c2",
         "time" : -1,
         "id" : "dep1",
         "a1" : "comp_2"
      },
      {
         "a2" : "r1_c3",
         "time" : -1,
         "id" : "dep2",
         "a1" : "comp_3"
      },
      {
         "a2" : "r1_c4",
         "time" : -1,
         "id" : "dep3",
         "a1" : "comp_13"
      },
      {
         "a2" : "r1_c5",
         "time" : -1,
         "id" : "dep4",
         "a1" : "comp_15"
      },
      {
         "a2" : "r1_c6",
         "time" : -1,
         "id" : "dep5",
         "a1" : "comp_16"
      },
      {
         "a2" : "r1_c7",
         "time" : -1,
         "id" : "dep6",
         "a1" : "comp_17"
      },
      {
         "a2" : "comp_3",
         "time" : -1,
         "id" : "dep7",
         "a1" : "comp_2"
      },
      {
         "a2" : "download_5",
         "time" : -1,
         "id" : "dep8",
         "a1" : "r1_c3"
      },
      {
         "a2" : "download_5",
         "time" : 1561.17100000848,
         "id" : "dep9",
         "a1" : "r1_c3"
      },
      {
         "a2" : "download_4",
         "time" : 860.197999980296,
         "id" : "dep10",
         "a1" : "r1_c3"
      },
      {
         "a2" : "download_3",
         "time" : -1,
         "id" : "dep11",
         "a1" : "r1_c1"
      },
      {
         "a2" : "download_3",
         "time" : 10.467999964021,
         "id" : "dep12",
         "a1" : "r1_c1"
      },
      {
         "a2" : "download_2",
         "time" : 9.612999972887,
         "id" : "dep13",
         "a1" : "r1_c1"
      },
      {
         "a2" : "download_2",
         "time" : 9.612999972887,
         "id" : "dep14",
         "a1" : "r1_c1"
      },
      {
         "a2" : "download_1",
         "time" : -1,
         "id" : "dep15",
         "a1" : "r1_c1"
      },
      {
         "a2" : "download_1",
         "time" : 12.497999938205,
         "id" : "dep16",
         "a1" : "r1_c1"
      }
   ]
}
