{
   "start_activity" : "download_0",
   "n_download_no_trigger" : 1,
   "deps" : [
      {
         "a1" : "r1_c1",
         "a2" : "download_5",
         "time" : -1,
         "id" : "dep1"
      },
      {
         "id" : "dep2",
         "a1" : "r1_c1",
         "a2" : "download_4",
         "time" : 2.372999995714
      },
      {
         "a1" : "r1_c1",
         "a2" : "download_3",
         "time" : 2.2639999806415,
         "id" : "dep3"
      },
      {
         "id" : "dep4",
         "a2" : "download_2",
         "a1" : "r1_c1",
         "time" : 2.1389999892562
      },
      {
         "id" : "dep5",
         "a2" : "download_1",
         "a1" : "r1_c1",
         "time" : 1.974999991944
      }
   ],
   "name" : "original.testbed.localhost_online.wsj.com_",
   "objs" : [
      {
         "download" : {
            "sendStart" : 0,
            "connectEnd" : 0,
            "receiveHeadersEnd" : 7,
            "dnsEnd" : -1,
            "connectStart" : 0,
            "sslStart" : -1,
            "sslEnd" : -1,
            "sendEnd" : 0,
            "receivedTime" : "8.44400000642054",
            "len" : 1387,
            "dns" : 0,
            "s_time" : 0,
            "type" : "text/html",
            "id" : "download_0",
            "receiveFirst" : 7,
            "dnsStart" : -1,
            "receiveLast" : 1.44400000642054
         },
         "when_comp_start" : 1,
         "comps" : [
            {
               "id" : "r1_c1",
               "e_time" : 22.7449999947567,
               "type" : "evalhtml",
               "s_time" : 20.2790000184905,
               "time" : 2.4659999762662
            }
         ],
         "url" : "http://original.testbed.localhost/online.wsj.com/",
         "id" : "r1"
      },
      {
         "when_comp_start" : -1,
         "download" : {
            "connectEnd" : 0,
            "sendStart" : 0,
            "receiveHeadersEnd" : 0,
            "dnsEnd" : -1,
            "connectStart" : 0,
            "sslStart" : -1,
            "sslEnd" : -1,
            "sendEnd" : 0,
            "receivedTime" : "25.1090000092518",
            "len" : 148,
            "dns" : 0,
            "s_time" : 22.2540000104345,
            "type" : "image/gif",
            "id" : "download_1",
            "receiveFirst" : 0,
            "dnsStart" : -1,
            "receiveLast" : 25.1090000092518
         },
         "url" : "http://original.testbed.localhost/icons/blank.gif",
         "comps" : [],
         "id" : "r2"
      },
      {
         "when_comp_start" : -1,
         "download" : {
            "s_time" : 22.4180000077467,
            "dns" : 0,
            "id" : "download_2",
            "receiveFirst" : 0,
            "type" : "image/gif",
            "dnsStart" : -1,
            "receiveLast" : 25.2350000082515,
            "connectEnd" : 0,
            "sendStart" : 0,
            "dnsEnd" : -1,
            "connectStart" : 0,
            "sslStart" : -1,
            "receiveHeadersEnd" : 0,
            "sslEnd" : -1,
            "sendEnd" : 0,
            "len" : 216,
            "receivedTime" : "25.2350000082515"
         },
         "id" : "r3",
         "url" : "http://original.testbed.localhost/icons/back.gif",
         "comps" : []
      },
      {
         "when_comp_start" : -1,
         "download" : {
            "type" : "image/gif",
            "id" : "download_3",
            "receiveFirst" : 0,
            "dns" : 0,
            "s_time" : 22.542999999132,
            "receiveLast" : 25.3319999901578,
            "dnsStart" : -1,
            "receiveHeadersEnd" : 0,
            "dnsEnd" : -1,
            "connectStart" : 0,
            "sslStart" : -1,
            "sendStart" : 0,
            "connectEnd" : 0,
            "receivedTime" : "25.3319999901578",
            "len" : 229,
            "sslEnd" : -1,
            "sendEnd" : 0
         },
         "id" : "r4",
         "comps" : [],
         "url" : "http://original.testbed.localhost/icons/text.gif"
      },
      {
         "when_comp_start" : -1,
         "download" : {
            "sendStart" : 0,
            "connectEnd" : 0,
            "receiveHeadersEnd" : 0,
            "connectStart" : 0,
            "sslStart" : -1,
            "dnsEnd" : -1,
            "sendEnd" : 0,
            "sslEnd" : -1,
            "receivedTime" : "25.4040000145324",
            "len" : 245,
            "dns" : 0,
            "s_time" : 22.6520000142045,
            "type" : "image/gif",
            "receiveFirst" : 0,
            "id" : "download_4",
            "dnsStart" : -1,
            "receiveLast" : 25.4040000145324
         },
         "id" : "r5",
         "url" : "http://original.testbed.localhost/icons/unknown.gif",
         "comps" : []
      },
      {
         "url" : "http://original.testbed.localhost/icons/folder.gif",
         "comps" : [],
         "id" : "r6",
         "download" : {
            "sendStart" : 0,
            "connectEnd" : 0,
            "receiveHeadersEnd" : 0,
            "sslStart" : -1,
            "connectStart" : 0,
            "dnsEnd" : -1,
            "sendEnd" : 0,
            "sslEnd" : -1,
            "receivedTime" : "25.4730000160635",
            "len" : 225,
            "dns" : 0,
            "s_time" : 22.7449999947567,
            "type" : "image/gif",
            "receiveFirst" : 0,
            "id" : "download_5",
            "dnsStart" : -1,
            "receiveLast" : 25.4730000160635
         },
         "when_comp_start" : -1
      }
   ],
   "load_activity" : -1
}
