{
   "n_download_no_trigger" : 1,
   "start_activity" : "download_0",
   "name" : "original.testbed.localhost_www.stihl.ch_",
   "load_activity" : -1,
   "objs" : [
      {
         "when_comp_start" : 1,
         "url" : "http://original.testbed.localhost/www.stihl.ch/",
         "id" : "r1",
         "comps" : [
            {
               "s_time" : 161.068000015803,
               "time" : 922.871000017037,
               "id" : "r1_c1",
               "type" : "evalhtml",
               "e_time" : 1083.93900003284
            },
            {
               "s_time" : 1193.73600004474,
               "time" : -346402912.659,
               "id" : "r1_c2",
               "type" : "evalhtml",
               "e_time" : -346401718.923
            },
            {
               "s_time" : 1197.06500001485,
               "time" : 445.14500000514,
               "type" : "evalhtml",
               "id" : "r1_c3",
               "e_time" : 1642.21000001999
            }
         ],
         "download" : {
            "receiveFirst" : 151,
            "len" : 7573,
            "dns" : 0,
            "dnsEnd" : -1,
            "receiveHeadersEnd" : 151,
            "sslEnd" : -1,
            "connectEnd" : 0,
            "connectStart" : 0,
            "id" : "download_0",
            "receivedTime" : "151.902000012342",
            "sslStart" : -1,
            "dnsStart" : -1,
            "receiveLast" : 0.902000012341887,
            "s_time" : 0,
            "sendEnd" : 0,
            "sendStart" : 0,
            "type" : "text/html"
         }
      },
      {
         "when_comp_start" : -1,
         "url" : "http://original.testbed.localhost/static.stihl.com/css/print.min.css",
         "id" : "r3",
         "comps" : [
            {
               "s_time" : 320.477000030223,
               "time" : 1.20299996342499,
               "type" : 4,
               "id" : "comp_0",
               "e_time" : 321.679999993648
            }
         ],
         "download" : {
            "receiveFirst" : 151,
            "len" : 15024,
            "dns" : 0,
            "dnsEnd" : -1,
            "receiveHeadersEnd" : 152,
            "sslEnd" : -1,
            "connectEnd" : 1,
            "connectStart" : 0,
            "id" : "download_1",
            "receivedTime" : "320.414000016171",
            "sslStart" : -1,
            "dnsStart" : -1,
            "receiveLast" : 168.414000016171,
            "s_time" : 161.817000014707,
            "sendEnd" : 1,
            "sendStart" : 1,
            "type" : "text/css"
         }
      },
      {
         "when_comp_start" : -1,
         "url" : "http://original.testbed.localhost/static.stihl.com/js/custom.min.js",
         "id" : "r6",
         "comps" : [
            {
               "s_time" : 1193.83200001903,
               "time" : 3.23299999582014,
               "type" : 1,
               "id" : "comp_7",
               "e_time" : 1197.06500001485
            }
         ],
         "download" : {
            "receiveFirst" : 160,
            "len" : 100929,
            "dns" : 0,
            "dnsEnd" : -1,
            "receiveHeadersEnd" : 161,
            "sslEnd" : -1,
            "connectEnd" : 1,
            "connectStart" : 0,
            "id" : "download_2",
            "receivedTime" : "544.999000034295",
            "sslStart" : -1,
            "dnsStart" : -1,
            "receiveLast" : 383.999000034295,
            "s_time" : 162.252000009175,
            "sendEnd" : 1,
            "sendStart" : 1,
            "type" : "application/javascript"
         }
      },
      {
         "when_comp_start" : -1,
         "url" : "http://original.testbed.localhost/static.stihl.com/css/screen.min.css",
         "id" : "r2",
         "comps" : [
            {
               "s_time" : 661.857000028249,
               "time" : 23.396999982651,
               "type" : 4,
               "id" : "comp_2",
               "e_time" : 685.2540000109
            }
         ],
         "download" : {
            "receiveFirst" : 221,
            "len" : 287229,
            "dns" : 0,
            "dnsEnd" : -1,
            "receiveHeadersEnd" : 222,
            "sslEnd" : -1,
            "connectEnd" : 1,
            "connectStart" : 0,
            "id" : "download_3",
            "receivedTime" : "661.786000011489",
            "sslStart" : -1,
            "dnsStart" : -1,
            "receiveLast" : 439.786000011489,
            "s_time" : 161.638999998104,
            "sendEnd" : 1,
            "sendStart" : 1,
            "type" : "text/css"
         }
      },
      {
         "when_comp_start" : -1,
         "url" : "http://original.testbed.localhost/static.stihl.com/js/lib.min.js",
         "id" : "r5",
         "comps" : [
            {
               "s_time" : 1083.84300000034,
               "time" : 109.8930000444,
               "type" : 1,
               "id" : "comp_3",
               "e_time" : 1193.73600004474
            }
         ],
         "download" : {
            "receiveFirst" : 281,
            "len" : 299795,
            "dns" : 0,
            "dnsEnd" : -1,
            "receiveHeadersEnd" : 282,
            "sslEnd" : -1,
            "connectEnd" : 1,
            "connectStart" : 0,
            "id" : "download_4",
            "receivedTime" : "1083.74900004128",
            "sslStart" : -1,
            "dnsStart" : -1,
            "receiveLast" : 801.74900004128,
            "s_time" : 162.066999997478,
            "sendEnd" : 1,
            "sendStart" : 1,
            "type" : "application/javascript"
         }
      },
      {
         "when_comp_start" : -1,
         "url" : "http://original.testbed.localhost/static.stihl.com/css/print_dealerlocator.css",
         "id" : "r4",
         "comps" : [
            {
               "s_time" : 512.864000047557,
               "time" : 0.0499999732709284,
               "type" : 4,
               "id" : "comp_1",
               "e_time" : 512.914000020828
            }
         ],
         "download" : {
            "receiveFirst" : 192,
            "len" : 546,
            "dns" : 0,
            "dnsEnd" : -1,
            "receiveHeadersEnd" : 192,
            "sslEnd" : -1,
            "connectEnd" : 0,
            "connectStart" : 0,
            "id" : "download_5",
            "receivedTime" : "512.812000000849",
            "sslStart" : -1,
            "dnsStart" : -1,
            "receiveLast" : 320.812000000849,
            "s_time" : 320.336000004318,
            "sendEnd" : 0,
            "sendStart" : 0,
            "type" : "text/css"
         }
      },
      {
         "when_comp_start" : -1,
         "url" : "http://original.testbed.localhost/static.stihl.com/img_layout/stihl_print_logo.gif",
         "id" : "r7",
         "comps" : [],
         "download" : {
            "receiveFirst" : 276,
            "len" : 1647,
            "dns" : 0,
            "dnsEnd" : -1,
            "receiveHeadersEnd" : 276,
            "sslEnd" : -1,
            "connectEnd" : 0,
            "connectStart" : 0,
            "id" : "download_6",
            "receivedTime" : "794.679000042379",
            "sslStart" : -1,
            "dnsStart" : -1,
            "receiveLast" : 518.679000042379,
            "s_time" : 512.729000009131,
            "sendEnd" : 0,
            "sendStart" : 0,
            "type" : "image/gif"
         }
      },
      {
         "when_comp_start" : -1,
         "url" : "http://original.testbed.localhost/static.stihl.com/img_layout/stihl_moodrahmen_fade.png",
         "id" : "r8",
         "comps" : [],
         "download" : {
            "receiveFirst" : 222,
            "len" : 36319,
            "dns" : 0,
            "dnsEnd" : -1,
            "receiveHeadersEnd" : 222,
            "sslEnd" : -1,
            "connectEnd" : 0,
            "connectStart" : 0,
            "id" : "download_7",
            "receivedTime" : "1258.09100002516",
            "sslStart" : -1,
            "dnsStart" : -1,
            "receiveLast" : 1036.09100002516,
            "s_time" : 794.667000009213,
            "sendEnd" : 0,
            "sendStart" : 0,
            "type" : "image/png"
         }
      },
      {
         "when_comp_start" : -1,
         "url" : "http://original.testbed.localhost/de.stihl.ch/p/images/teaser/vorschaltseite_kettenwerk.jpg",
         "id" : "r10",
         "comps" : [],
         "download" : {
            "receiveFirst" : 169,
            "len" : 32241,
            "dns" : 0,
            "dnsEnd" : -1,
            "receiveHeadersEnd" : 169,
            "sslEnd" : -1,
            "connectEnd" : 0,
            "connectStart" : 0,
            "id" : "download_8",
            "receivedTime" : "1732.44100000011",
            "sslStart" : -1,
            "dnsStart" : -1,
            "receiveLast" : 1563.44100000011,
            "s_time" : 1083.93900003284,
            "sendEnd" : 0,
            "sendStart" : 0,
            "type" : "image/jpeg"
         }
      },
      {
         "when_comp_start" : -1,
         "url" : "http://original.testbed.localhost/de.stihl.ch/p/images/teaser/ch-de/vorschaltseite_vertrieb.jpg",
         "id" : "r9",
         "comps" : [],
         "download" : {
            "receiveFirst" : 182,
            "len" : 103127,
            "dns" : 0,
            "dnsEnd" : -1,
            "receiveHeadersEnd" : 182,
            "sslEnd" : -1,
            "connectEnd" : 0,
            "connectStart" : 0,
            "id" : "download_9",
            "receivedTime" : "2002.10199999856",
            "sslStart" : -1,
            "dnsStart" : -1,
            "receiveLast" : 1820.10199999856,
            "s_time" : 1083.76000000862,
            "sendEnd" : 0,
            "sendStart" : 0,
            "type" : "image/jpeg"
         }
      },
      {
         "when_comp_start" : -1,
         "url" : "http://original.testbed.localhost/de.stihl.ch/p/images/background/summer_stihl_mountains.jpg",
         "id" : "r11",
         "comps" : [],
         "download" : {
            "receiveFirst" : 337,
            "len" : 580387,
            "dns" : 0,
            "dnsEnd" : -1,
            "receiveHeadersEnd" : 338,
            "sslEnd" : -1,
            "connectEnd" : 1,
            "connectStart" : 0,
            "id" : "download_10",
            "receivedTime" : "4884.01900004828",
            "sslStart" : -1,
            "dnsStart" : -1,
            "receiveLast" : 4546.01900004828,
            "s_time" : 1201.4940000372,
            "sendEnd" : 1,
            "sendStart" : 1,
            "type" : "image/jpeg"
         }
      },
      {
         "when_comp_start" : -1,
         "url" : "http://original.testbed.localhost/static.stihl.com/img_layout/topnavigation_bg.png",
         "id" : "r12",
         "comps" : [],
         "download" : {
            "receiveFirst" : 434,
            "len" : 199,
            "dns" : 0,
            "dnsEnd" : -1,
            "receiveHeadersEnd" : 434,
            "sslEnd" : -1,
            "connectEnd" : 0,
            "connectStart" : 0,
            "id" : "download_11",
            "receivedTime" : "1636.86299999245",
            "sslStart" : -1,
            "dnsStart" : -1,
            "receiveLast" : 1202.86299999245,
            "s_time" : 1201.75400003791,
            "sendEnd" : 0,
            "sendStart" : 0,
            "type" : "image/png"
         }
      },
      {
         "when_comp_start" : -1,
         "url" : "http://original.testbed.localhost/static.stihl.com/img_layout/backgrounds/fade.png",
         "id" : "r13",
         "comps" : [],
         "download" : {
            "receiveFirst" : 436,
            "len" : 463,
            "dns" : 0,
            "dnsEnd" : -1,
            "receiveHeadersEnd" : 436,
            "sslEnd" : -1,
            "connectEnd" : 0,
            "connectStart" : 0,
            "id" : "download_12",
            "receivedTime" : "1638.82100000046",
            "sslStart" : -1,
            "dnsStart" : -1,
            "receiveLast" : 1202.82100000046,
            "s_time" : 1201.91200001864,
            "sendEnd" : 0,
            "sendStart" : 0,
            "type" : "image/png"
         }
      },
      {
         "when_comp_start" : -1,
         "url" : "http://original.testbed.localhost/static.stihl.com/img_layout/top_navi_right.png",
         "id" : "r14",
         "comps" : [],
         "download" : {
            "receiveFirst" : 389,
            "len" : 796,
            "dns" : 0,
            "dnsEnd" : -1,
            "receiveHeadersEnd" : 437,
            "sslEnd" : -1,
            "connectEnd" : 48,
            "connectStart" : 0,
            "id" : "download_13",
            "receivedTime" : "1642.22999999765",
            "sslStart" : -1,
            "dnsStart" : -1,
            "receiveLast" : 1205.22999999765,
            "s_time" : 1204.08700004919,
            "sendEnd" : 48,
            "sendStart" : 48,
            "type" : "image/png"
         }
      },
      {
         "when_comp_start" : -1,
         "url" : "http://original.testbed.localhost/static.stihl.com/img_layout/home_button.png",
         "id" : "r15",
         "comps" : [],
         "download" : {
            "receiveFirst" : 488,
            "len" : 8091,
            "dns" : 0,
            "dnsEnd" : -1,
            "receiveHeadersEnd" : 921,
            "sslEnd" : -1,
            "connectEnd" : 432,
            "connectStart" : 0,
            "id" : "download_14",
            "receivedTime" : "2156.06900001876",
            "sslStart" : -1,
            "dnsStart" : -1,
            "receiveLast" : 1235.06900001876,
            "s_time" : 1204.28800000809,
            "sendEnd" : 433,
            "sendStart" : 432,
            "type" : "image/png"
         }
      },
      {
         "when_comp_start" : -1,
         "url" : "http://original.testbed.localhost/static.stihl.com/img_layout/top_navi_left.png",
         "id" : "r16",
         "comps" : [],
         "download" : {
            "receiveFirst" : 522,
            "len" : 1278,
            "dns" : 0,
            "dnsEnd" : -1,
            "receiveHeadersEnd" : 956,
            "sslEnd" : -1,
            "connectEnd" : 434,
            "connectStart" : 0,
            "id" : "download_15",
            "receivedTime" : "2166.93900001701",
            "sslStart" : -1,
            "dnsStart" : -1,
            "receiveLast" : 1210.93900001701,
            "s_time" : 1204.48400004534,
            "sendEnd" : 434,
            "sendStart" : 434,
            "type" : "image/png"
         }
      },
      {
         "when_comp_start" : -1,
         "url" : "http://original.testbed.localhost/static.stihl.com/img_layout/top_navi_bg.gif",
         "id" : "r17",
         "comps" : [],
         "download" : {
            "receiveFirst" : 526,
            "len" : 334,
            "dns" : 0,
            "dnsEnd" : -1,
            "receiveHeadersEnd" : 963,
            "sslEnd" : -1,
            "connectEnd" : 437,
            "connectStart" : 0,
            "id" : "download_16",
            "receivedTime" : "2168.37900003884",
            "sslStart" : -1,
            "dnsStart" : -1,
            "receiveLast" : 1205.37900003884,
            "s_time" : 1204.6740000369,
            "sendEnd" : 437,
            "sendStart" : 437,
            "type" : "image/gif"
         }
      },
      {
         "when_comp_start" : -1,
         "url" : "http://original.testbed.localhost/static.stihl.com/img_layout/top_navi_divider.gif",
         "id" : "r18",
         "comps" : [],
         "download" : {
            "receiveFirst" : 439,
            "len" : 323,
            "dns" : 0,
            "dnsEnd" : -1,
            "receiveHeadersEnd" : 919,
            "sslEnd" : -1,
            "connectEnd" : 480,
            "connectStart" : 0,
            "id" : "download_17",
            "receivedTime" : "2171.36900004698",
            "sslStart" : -1,
            "dnsStart" : -1,
            "receiveLast" : 1252.36900004698,
            "s_time" : 1251.71100004809,
            "sendEnd" : 480,
            "sendStart" : 480,
            "type" : "image/gif"
         }
      },
      {
         "when_comp_start" : -1,
         "url" : "http://original.testbed.localhost/static.stihl.com/img_layout/arrow_orange.png",
         "id" : "r19",
         "comps" : [],
         "download" : {
            "receiveFirst" : 256,
            "len" : 284,
            "dns" : 0,
            "dnsEnd" : -1,
            "receiveHeadersEnd" : 621,
            "sslEnd" : -1,
            "connectEnd" : 365,
            "connectStart" : 0,
            "id" : "download_18",
            "receivedTime" : "2259.12500004051",
            "sslStart" : -1,
            "dnsStart" : -1,
            "receiveLast" : 1638.12500004051,
            "s_time" : 1636.89700001851,
            "sendEnd" : 365,
            "sendStart" : 365,
            "type" : "image/png"
         }
      },
      {
         "when_comp_start" : -1,
         "url" : "http://original.testbed.localhost/de.stihl.ch/p/media/flash/ch-de/teaser.jpg",
         "id" : "r20",
         "comps" : [],
         "download" : {
            "receiveFirst" : 240,
            "len" : 233815,
            "dns" : 0,
            "dnsEnd" : -1,
            "receiveHeadersEnd" : 757,
            "sslEnd" : -1,
            "connectEnd" : 517,
            "connectStart" : 0,
            "id" : "download_19",
            "receivedTime" : "5635.55100001395",
            "sslStart" : -1,
            "dnsStart" : -1,
            "receiveLast" : 4878.55100001395,
            "s_time" : 1638.79900000757,
            "sendEnd" : 517,
            "sendStart" : 517,
            "type" : "image/jpeg"
         }
      },
      {
         "when_comp_start" : -1,
         "url" : "http://original.testbed.localhost/static.stihl.com/img_layout/orange_button.gif",
         "id" : "r21",
         "comps" : [],
         "download" : {
            "receiveFirst" : 278,
            "len" : 4927,
            "dns" : 0,
            "dnsEnd" : -1,
            "receiveHeadersEnd" : 802,
            "sslEnd" : -1,
            "connectEnd" : 524,
            "connectStart" : 0,
            "id" : "download_20",
            "receivedTime" : "2462.6200000057",
            "sslStart" : -1,
            "dnsStart" : -1,
            "receiveLast" : 1660.6200000057,
            "s_time" : 1642.21000001999,
            "sendEnd" : 524,
            "sendStart" : 524,
            "type" : "image/gif"
         }
      }
   ],
   "deps" : [
      {
         "a2" : "r1_c2",
         "time" : -1,
         "id" : "dep1",
         "a1" : "comp_3"
      },
      {
         "a2" : "r1_c3",
         "time" : -1,
         "id" : "dep2",
         "a1" : "comp_7"
      },
      {
         "a2" : "comp_3",
         "time" : -1,
         "id" : "dep3",
         "a1" : "comp_2"
      },
      {
         "a2" : "comp_3",
         "time" : -1,
         "id" : "dep4",
         "a1" : "comp_0"
      },
      {
         "a2" : "comp_3",
         "time" : -1,
         "id" : "dep5",
         "a1" : "comp_1"
      },
      {
         "a2" : "comp_7",
         "time" : -1,
         "id" : "dep6",
         "a1" : "comp_3"
      },
      {
         "a2" : "download_20",
         "time" : -1,
         "id" : "dep7",
         "a1" : "r1_c3"
      },
      {
         "a2" : "download_19",
         "time" : 441.73399999272,
         "id" : "dep8",
         "a1" : "r1_c3"
      },
      {
         "a2" : "download_18",
         "time" : 439.83200000366,
         "id" : "dep9",
         "a1" : "r1_c3"
      },
      {
         "a2" : "download_17",
         "time" : 54.6460000332399,
         "id" : "dep10",
         "a1" : "r1_c3"
      },
      {
         "a2" : "download_16",
         "time" : 7.60900002204994,
         "id" : "dep11",
         "a1" : "r1_c3"
      },
      {
         "a2" : "download_15",
         "time" : 7.41900003049,
         "id" : "dep12",
         "a1" : "r1_c3"
      },
      {
         "a2" : "download_14",
         "time" : 7.22299999323991,
         "id" : "dep13",
         "a1" : "r1_c3"
      },
      {
         "a2" : "download_13",
         "time" : 7.02200003433995,
         "id" : "dep14",
         "a1" : "r1_c3"
      },
      {
         "a2" : "download_12",
         "time" : 4.84700000378984,
         "id" : "dep15",
         "a1" : "r1_c3"
      },
      {
         "a2" : "download_11",
         "time" : 4.68900002305986,
         "id" : "dep16",
         "a1" : "r1_c3"
      },
      {
         "a2" : "download_10",
         "time" : 4.42900002235001,
         "id" : "dep17",
         "a1" : "r1_c3"
      },
      {
         "a2" : "download_9",
         "time" : -1,
         "id" : "dep18",
         "a1" : "r1_c1"
      },
      {
         "a2" : "download_8",
         "time" : -1,
         "id" : "dep19",
         "a1" : "r1_c1"
      },
      {
         "a2" : "download_7",
         "time" : 633.59899999341,
         "id" : "dep20",
         "a1" : "r1_c1"
      },
      {
         "a2" : "download_6",
         "time" : 351.660999993328,
         "id" : "dep21",
         "a1" : "r1_c1"
      },
      {
         "a2" : "download_5",
         "time" : 159.267999988515,
         "id" : "dep22",
         "a1" : "r1_c1"
      },
      {
         "a2" : "download_4",
         "time" : 0.998999981675013,
         "id" : "dep23",
         "a1" : "r1_c1"
      },
      {
         "a2" : "download_3",
         "time" : 0.570999982301004,
         "id" : "dep24",
         "a1" : "r1_c1"
      },
      {
         "a2" : "download_2",
         "time" : 1.183999993372,
         "id" : "dep25",
         "a1" : "r1_c1"
      },
      {
         "a2" : "download_2",
         "time" : 1.183999993372,
         "id" : "dep26",
         "a1" : "r1_c1"
      },
      {
         "a2" : "download_1",
         "time" : 0.748999998903997,
         "id" : "dep27",
         "a1" : "r1_c1"
      }
   ]
}
